# Blender v2.82 (sub 7) OBJ File: 'tea_time.blend'
# www.blender.org
o bow_plate_Circle
v 5.584259 -0.017481 -3.387082
v 5.513077 -0.017481 -3.473818
v 5.537767 0.062581 -3.498508
v 5.613292 0.062581 -3.406481
v 5.108347 -0.017481 -2.496712
v 5.220012 -0.017481 -2.507710
v 5.226824 0.062581 -2.473464
v 5.108347 0.062581 -2.461795
v 4.632434 -0.017481 -3.387082
v 4.579541 -0.017481 -3.288126
v 4.547282 0.062581 -3.301488
v 4.603402 0.062581 -3.406481
v 5.669724 -0.017481 -3.180753
v 5.637153 -0.017481 -3.288126
v 5.669412 0.062581 -3.301488
v 5.703970 0.062581 -3.187565
v 4.790352 -0.017481 -3.545000
v 4.703616 -0.017481 -3.473817
v 4.678926 0.062581 -3.498508
v 4.770953 0.062581 -3.574032
v 4.889308 -0.017481 -2.540281
v 4.996682 -0.017481 -2.507710
v 4.989870 0.062581 -2.473464
v 4.875946 0.062581 -2.508022
v 5.669724 -0.017481 -2.957422
v 5.680722 -0.017481 -3.069088
v 5.715639 0.062581 -3.069088
v 5.703970 0.062581 -2.950611
v 4.996682 -0.017481 -3.630465
v 4.889308 -0.017481 -3.597893
v 4.875946 0.062581 -3.630152
v 4.989870 0.062581 -3.664711
v 4.703616 -0.017481 -2.664357
v 4.790352 -0.017481 -2.593174
v 4.770953 0.062581 -2.564142
v 4.678926 0.062581 -2.639666
v 5.584260 -0.017481 -2.751093
v 5.637153 -0.017481 -2.850049
v 5.669412 0.062581 -2.836687
v 5.613292 0.062581 -2.731694
v 4.579541 -0.017481 -2.850049
v 4.632434 -0.017481 -2.751092
v 4.603402 0.062581 -2.731694
v 4.547282 0.062581 -2.836686
v 5.327384 -0.017481 -3.597893
v 5.220011 -0.017481 -3.630465
v 5.226823 0.062581 -3.664711
v 5.340747 0.062581 -3.630152
v 5.426342 -0.017481 -2.593174
v 5.513078 -0.017481 -2.664357
v 5.537768 0.062581 -2.639667
v 5.445741 0.062581 -2.564142
v 4.535972 -0.017481 -3.069087
v 4.546969 -0.017481 -2.957422
v 4.512723 0.062581 -2.950610
v 4.501054 0.062581 -3.069087
v 5.426341 -0.017481 -3.545000
v 5.445740 0.062581 -3.574033
v 5.327386 -0.017481 -2.540281
v 5.340748 0.062581 -2.508022
v 4.546969 -0.017481 -3.180752
v 4.512723 0.062581 -3.187564
v 5.108347 -0.017481 -3.641462
v 5.108347 0.062581 -3.676379
v 5.518273 0.096672 -3.682587
v 5.630085 0.096672 -3.590826
v 5.390710 0.096672 -2.387403
v 5.252294 0.096672 -2.345415
v 4.384675 0.096672 -3.213034
v 4.426663 0.096672 -3.351450
v 5.721846 0.096672 -3.479015
v 5.790030 0.096672 -3.351450
v 4.494847 0.096672 -3.479014
v 4.586608 0.096672 -3.590825
v 5.108347 0.096672 -2.331238
v 4.964399 0.096672 -2.345415
v 5.832018 0.096672 -3.213035
v 5.846196 0.096672 -3.069088
v 4.698420 0.096672 -3.682586
v 4.825984 0.096672 -3.750771
v 4.825984 0.096672 -2.387403
v 4.698420 0.096672 -2.455588
v 5.832019 0.096672 -2.925140
v 5.790031 0.096672 -2.786725
v 4.964399 0.096672 -3.792758
v 5.108347 0.096672 -3.806936
v 4.586608 0.096672 -2.547349
v 4.494847 0.096672 -2.659160
v 5.252293 0.096672 -3.792759
v 5.721847 0.096672 -2.659160
v 5.630085 0.096672 -2.547349
v 4.426663 0.096672 -2.786724
v 4.384675 0.096672 -2.925140
v 5.390708 0.096672 -3.750771
v 5.518274 0.096672 -2.455588
v 4.370498 0.096672 -3.069087
v 5.268480 0.130763 -3.874136
v 5.422461 0.130763 -3.827427
v 5.688755 0.130763 -2.488679
v 5.564371 0.130763 -2.386600
v 4.303298 0.130763 -2.908953
v 4.287526 0.130763 -3.069087
v 5.564370 0.130763 -3.751575
v 5.688754 0.130763 -3.649496
v 5.422462 0.130763 -2.310747
v 5.268481 0.130763 -2.264038
v 4.303298 0.130763 -3.229221
v 4.350007 0.130763 -3.383202
v 5.790834 0.130763 -3.525112
v 5.866686 0.130763 -3.383202
v 4.425859 0.130763 -3.525111
v 4.527939 0.130763 -3.649495
v 5.108347 0.130763 -2.248266
v 4.948213 0.130763 -2.264038
v 5.913396 0.130763 -3.229222
v 5.929168 0.130763 -3.069088
v 4.652323 0.130763 -3.751575
v 4.794232 0.130763 -3.827427
v 4.794232 0.130763 -2.310747
v 4.652323 0.130763 -2.386599
v 5.913396 0.130763 -2.908953
v 5.866687 0.130763 -2.754973
v 4.948213 0.130763 -3.874136
v 5.108347 0.130763 -3.889908
v 4.527939 0.130763 -2.488679
v 4.425859 0.130763 -2.613063
v 5.790835 0.130763 -2.613064
v 4.350007 0.130763 -2.754972
v 5.968287 0.192746 -2.712889
v 5.882272 0.192746 -2.551968
v 4.334422 0.192746 -2.551967
v 4.248408 0.192746 -2.712889
v 5.289934 0.192746 -3.981994
v 5.464544 0.192746 -3.929027
v 5.766516 0.192746 -2.410918
v 5.625467 0.192746 -2.295162
v 4.195440 0.192746 -2.887499
v 4.177556 0.192746 -3.069087
v 5.625466 0.192746 -3.843013
v 5.766515 0.192746 -3.727257
v 5.464546 0.192746 -2.209148
v 5.289936 0.192746 -2.156180
v 4.195440 0.192746 -3.250675
v 4.248408 0.192746 -3.425285
v 5.882271 0.192746 -3.586208
v 5.968286 0.192746 -3.425286
v 4.334422 0.192746 -3.586207
v 4.450178 0.192746 -3.727256
v 5.108347 0.192746 -2.138295
v 4.926759 0.192746 -2.156180
v 6.021253 0.192746 -3.250676
v 6.039138 0.192746 -3.069088
v 4.591227 0.192746 -3.843012
v 4.752149 0.192746 -3.929026
v 4.752149 0.192746 -2.209148
v 4.591227 0.192746 -2.295162
v 6.021254 0.192746 -2.887499
v 4.926758 0.192746 -3.981993
v 5.108347 0.192746 -3.999878
v 4.450178 0.192746 -2.410918
v 6.129229 0.251629 -3.069088
v 6.109613 0.251629 -2.869923
v 4.717672 0.251630 -4.012259
v 4.909183 0.251630 -4.070353
v 4.541175 0.251629 -2.220254
v 4.386474 0.251629 -2.347214
v 6.051519 0.251629 -2.678413
v 5.957180 0.251629 -2.501916
v 4.259514 0.251629 -2.501915
v 4.165175 0.251629 -2.678412
v 5.307509 0.251630 -4.070354
v 5.499020 0.251630 -4.012259
v 5.830220 0.251629 -2.347215
v 5.675519 0.251629 -2.220255
v 4.107080 0.251629 -2.869923
v 4.087464 0.251629 -3.069087
v 5.675518 0.251630 -3.917920
v 5.830218 0.251630 -3.790961
v 5.499022 0.251629 -2.125915
v 5.307511 0.251629 -2.067821
v 4.107080 0.251629 -3.268251
v 4.165175 0.251630 -3.459762
v 5.957179 0.251630 -3.636260
v 6.051518 0.251630 -3.459763
v 4.259514 0.251630 -3.636259
v 4.386474 0.251630 -3.790960
v 5.108347 0.251629 -2.048205
v 4.909183 0.251629 -2.067821
v 6.109612 0.251629 -3.268252
v 4.541175 0.251630 -3.917919
v 4.717672 0.251629 -2.125915
v 5.108347 0.251630 -4.089969
v 6.114687 0.322910 -3.485928
v 6.176672 0.322910 -3.281591
v 4.338127 0.322910 -3.839307
v 4.503189 0.322910 -3.974770
v 4.895844 0.322910 -2.000762
v 4.691507 0.322910 -2.062747
v 6.197602 0.322910 -3.069088
v 6.176672 0.322910 -2.856585
v 4.691507 0.322910 -4.075428
v 4.895844 0.322910 -4.137412
v 4.503189 0.322910 -2.163404
v 4.338127 0.322910 -2.298867
v 6.114688 0.322910 -2.652248
v 6.014030 0.322910 -2.463930
v 4.202664 0.322910 -2.463929
v 4.102006 0.322910 -2.652247
v 5.320848 0.322910 -4.137413
v 5.525185 0.322910 -4.075428
v 5.878567 0.322910 -2.298868
v 5.713505 0.322910 -2.163404
v 4.040021 0.322910 -2.856584
v 4.019092 0.322910 -3.069087
v 5.713503 0.322910 -3.974770
v 5.878565 0.322910 -3.839308
v 5.525187 0.322910 -2.062747
v 5.320850 0.322910 -2.000762
v 4.040021 0.322910 -3.281590
v 4.102006 0.322910 -3.485927
v 6.014029 0.322910 -3.674246
v 4.202664 0.322910 -3.674245
v 5.108347 0.322910 -1.979832
v 5.108347 0.322910 -4.158342
v 5.930510 0.406587 -3.891252
v 6.075109 0.406587 -3.715058
v 5.335182 0.406587 -1.928713
v 5.108347 0.406587 -1.906372
v 4.034138 0.406587 -3.514039
v 4.141584 0.406587 -3.715057
v 6.182555 0.406587 -3.514040
v 6.248720 0.406587 -3.295923
v 4.286183 0.406587 -3.891251
v 4.462377 0.406587 -4.035849
v 4.881513 0.406587 -1.928713
v 4.663395 0.406587 -1.994878
v 6.271062 0.406587 -3.069088
v 6.248721 0.406587 -2.842253
v 4.663395 0.406587 -4.143296
v 4.881512 0.406587 -4.209461
v 4.462377 0.406587 -2.102324
v 4.286183 0.406587 -2.246923
v 6.182556 0.406587 -2.624136
v 6.075109 0.406587 -2.423118
v 4.141584 0.406587 -2.423117
v 4.034138 0.406587 -2.624135
v 5.335180 0.406587 -4.209461
v 5.553297 0.406587 -4.143296
v 5.930511 0.406587 -2.246923
v 5.754317 0.406587 -2.102325
v 3.967973 0.406587 -2.842252
v 3.945631 0.406587 -3.069087
v 5.754315 0.406587 -4.035850
v 5.553299 0.406587 -1.994878
v 3.967973 0.406587 -3.295921
v 5.108347 0.406587 -4.231802
v 5.587504 0.533653 -4.225880
v 5.803977 0.533653 -4.110173
v 5.803978 0.533653 -2.028002
v 5.587506 0.533653 -1.912295
v 3.856244 0.533653 -3.069087
v 3.880303 0.533653 -3.313360
v 5.993716 0.533653 -3.954458
v 6.149431 0.533653 -3.764719
v 5.352621 0.533653 -1.841043
v 5.108347 0.533653 -1.816984
v 3.951555 0.533653 -3.548245
v 4.067262 0.533653 -3.764718
v 6.265138 0.533653 -3.548247
v 6.336390 0.533653 -3.313361
v 4.222977 0.533653 -3.954457
v 4.412716 0.533653 -4.110172
v 4.864074 0.533653 -1.841043
v 4.629188 0.533653 -1.912295
v 6.360449 0.533653 -3.069088
v 6.336390 0.533653 -2.824815
v 4.629188 0.533653 -4.225879
v 4.864074 0.533653 -4.297131
v 4.412716 0.533653 -2.028002
v 4.222977 0.533653 -2.183717
v 6.265139 0.533653 -2.589929
v 6.149433 0.533653 -2.373456
v 4.067262 0.533653 -2.373456
v 3.951555 0.533653 -2.589928
v 5.352618 0.533653 -4.297131
v 5.993718 0.533653 -2.183717
v 3.880303 0.533653 -2.824814
v 5.108347 0.533653 -4.321189
v 5.108347 0.533653 -4.288974
v 5.346334 0.533653 -4.265535
v 6.122647 0.533653 -2.391354
v 5.970938 0.533653 -2.206497
v 3.981318 0.533653 -2.602256
v 3.911899 0.533653 -2.831099
v 5.575176 0.533653 -4.196117
v 5.786079 0.533653 -4.083387
v 5.786081 0.533653 -2.054788
v 5.575178 0.533653 -1.942058
v 3.888459 0.533653 -3.069087
v 3.911899 0.533653 -3.307075
v 5.970937 0.533653 -3.931679
v 6.122645 0.533653 -3.746821
v 5.346335 0.533653 -1.872639
v 5.108347 0.533653 -1.849199
v 3.981318 0.533653 -3.535918
v 4.094047 0.533653 -3.746820
v 6.235375 0.533653 -3.535919
v 6.304794 0.533653 -3.307076
v 4.245756 0.533653 -3.931678
v 4.430614 0.533653 -4.083386
v 4.870359 0.533653 -1.872639
v 4.641516 0.533653 -1.942057
v 6.328234 0.533653 -3.069088
v 6.304795 0.533653 -2.831100
v 4.641516 0.533653 -4.196116
v 4.870358 0.533653 -4.265534
v 4.430614 0.533653 -2.054787
v 4.245756 0.533653 -2.206496
v 6.235376 0.533653 -2.602257
v 4.094047 0.533653 -2.391354
v 6.211007 0.406591 -2.849755
v 6.147030 0.406591 -2.638851
v 4.889014 0.406591 -4.171746
v 5.108347 0.406591 -4.193349
v 4.313374 0.406591 -2.274114
v 4.173557 0.406591 -2.444480
v 5.327678 0.406591 -4.171747
v 6.043137 0.406591 -2.444481
v 5.903320 0.406591 -2.274114
v 4.069664 0.406591 -2.638851
v 4.005687 0.406591 -2.849754
v 5.538582 0.406591 -4.107770
v 5.732952 0.406591 -4.003878
v 5.732954 0.406591 -2.134297
v 5.538584 0.406591 -2.030405
v 3.984085 0.406591 -3.069087
v 4.005687 0.406591 -3.288419
v 5.903319 0.406591 -3.864061
v 6.043136 0.406591 -3.693695
v 5.327680 0.406591 -1.966427
v 5.108347 0.406591 -1.944825
v 4.069664 0.406591 -3.499323
v 4.173557 0.406591 -3.693693
v 6.147029 0.406591 -3.499325
v 6.211006 0.406591 -3.288421
v 4.313374 0.406591 -3.864060
v 4.483740 0.406591 -4.003877
v 4.889014 0.406591 -1.966427
v 4.678111 0.406591 -2.030404
v 6.232609 0.406591 -3.069088
v 4.678111 0.406591 -4.107770
v 4.483740 0.406591 -2.134297
v 6.137478 0.322916 -3.273795
v 6.157640 0.322916 -3.069088
v 4.525390 0.322916 -3.941543
v 4.706800 0.322916 -4.038508
v 4.706800 0.322916 -2.099666
v 4.525391 0.322916 -2.196631
v 6.137479 0.322916 -2.864381
v 6.077768 0.322916 -2.667540
v 4.903640 0.322916 -4.098219
v 5.108347 0.322916 -4.118381
v 4.366384 0.322916 -2.327124
v 4.235891 0.322916 -2.486130
v 5.313052 0.322916 -4.098219
v 5.980803 0.322916 -2.486131
v 5.850310 0.322916 -2.327124
v 4.138926 0.322916 -2.667540
v 4.079215 0.322916 -2.864380
v 5.509892 0.322916 -4.038509
v 5.691302 0.322916 -3.941544
v 5.691304 0.322916 -2.196631
v 5.509895 0.322916 -2.099666
v 4.059052 0.322916 -3.069087
v 4.079215 0.322916 -3.273794
v 5.850309 0.322916 -3.811051
v 5.980802 0.322916 -3.652045
v 5.313054 0.322916 -2.039955
v 5.108347 0.322916 -2.019793
v 4.138926 0.322916 -3.470634
v 4.235891 0.322916 -3.652043
v 6.077767 0.322916 -3.470635
v 4.366384 0.322916 -3.811050
v 4.903640 0.322916 -2.039955
v 5.934793 0.251637 -3.621302
v 6.026644 0.251637 -3.449460
v 4.281900 0.251637 -3.621301
v 4.405512 0.251637 -3.771922
v 5.108347 0.251637 -2.075128
v 4.914435 0.251637 -2.094227
v 6.083206 0.251637 -3.263000
v 6.102305 0.251637 -3.069088
v 4.556133 0.251637 -3.895533
v 4.727975 0.251637 -3.987385
v 4.727975 0.251637 -2.150789
v 4.556133 0.251637 -2.242640
v 6.083207 0.251637 -2.875176
v 6.026645 0.251637 -2.688716
v 4.914435 0.251637 -4.043947
v 5.108347 0.251637 -4.063046
v 4.405512 0.251637 -2.366252
v 4.281900 0.251637 -2.516873
v 5.302257 0.251637 -4.043947
v 5.934793 0.251637 -2.516874
v 5.811182 0.251637 -2.366252
v 4.190049 0.251637 -2.688716
v 4.133487 0.251637 -2.875175
v 5.488717 0.251637 -3.987385
v 5.660560 0.251637 -3.895534
v 5.660561 0.251637 -2.242641
v 5.488719 0.251637 -2.150789
v 4.114388 0.251637 -3.069087
v 4.133487 0.251637 -3.262999
v 5.811181 0.251637 -3.771923
v 5.302259 0.251637 -2.094227
v 4.190049 0.251637 -3.449458
v 5.605300 0.195854 -3.812833
v 5.740849 0.195854 -3.701591
v 5.450655 0.195854 -2.242682
v 5.282855 0.195854 -2.191780
v 4.231040 0.195854 -3.243594
v 4.281942 0.195854 -3.411395
v 5.852091 0.195854 -3.566042
v 5.934752 0.195854 -3.411396
v 4.364602 0.195854 -3.566041
v 4.475844 0.195854 -3.701590
v 5.108347 0.195854 -2.174592
v 4.933840 0.195854 -2.191780
v 5.985653 0.195854 -3.243595
v 6.002841 0.195854 -3.069088
v 4.611392 0.195854 -3.812832
v 4.766038 0.195854 -3.895492
v 4.766039 0.195854 -2.242682
v 4.611392 0.195854 -2.325342
v 5.985654 0.195854 -2.894581
v 5.934752 0.195854 -2.726779
v 4.933839 0.195854 -3.946394
v 5.108347 0.195854 -3.963581
v 4.475844 0.195854 -2.436584
v 4.364602 0.195854 -2.572133
v 5.282853 0.195854 -3.946394
v 5.852092 0.195854 -2.572133
v 5.740850 0.195854 -2.436584
v 4.281941 0.195854 -2.726779
v 4.231040 0.195854 -2.894580
v 5.450654 0.195854 -3.895493
v 5.605302 0.195854 -2.325342
v 4.213852 0.195854 -3.069087
v 5.256169 0.130774 -3.812245
v 5.398312 0.130774 -3.769127
v 5.644135 0.130774 -2.533300
v 5.529313 0.130774 -2.439068
v 4.365189 0.130774 -2.921263
v 4.350629 0.130774 -3.069087
v 5.529312 0.130774 -3.699107
v 5.644134 0.130774 -3.604875
v 5.398313 0.130774 -2.369048
v 5.256170 0.130774 -2.325929
v 4.365189 0.130774 -3.216910
v 4.408307 0.130774 -3.359053
v 5.738365 0.130774 -3.490053
v 5.808386 0.130774 -3.359054
v 4.478328 0.130774 -3.490052
v 4.572559 0.130774 -3.604874
v 5.108347 0.130774 -2.311369
v 4.960524 0.130774 -2.325928
v 5.851505 0.130774 -3.216911
v 5.866065 0.130774 -3.069088
v 4.687381 0.130774 -3.699106
v 4.818381 0.130774 -3.769127
v 4.818381 0.130774 -2.369047
v 4.687382 0.130774 -2.439068
v 5.851505 0.130774 -2.921264
v 5.808387 0.130774 -2.779121
v 4.960523 0.130774 -3.812245
v 5.108347 0.130774 -3.826805
v 4.572559 0.130774 -2.533300
v 4.478328 0.130774 -2.648122
v 5.738366 0.130774 -2.648122
v 4.408307 0.130774 -2.779121
v 5.562848 0.065694 -2.880827
v 5.517387 0.065694 -2.795775
v 4.699306 0.065694 -2.795775
v 4.653845 0.065694 -2.880826
v 5.204320 0.065694 -3.551583
v 5.296607 0.065694 -3.523589
v 5.456207 0.065694 -2.721227
v 5.381659 0.065694 -2.660047
v 4.625851 0.065694 -2.973113
v 4.616398 0.065694 -3.069087
v 5.381659 0.065694 -3.478128
v 5.456206 0.065694 -3.416948
v 5.296607 0.065694 -2.614586
v 5.204321 0.065694 -2.586591
v 4.625851 0.065694 -3.165061
v 4.653845 0.065694 -3.257348
v 5.517387 0.065694 -3.342400
v 5.562848 0.065694 -3.257348
v 4.699306 0.065694 -3.342399
v 4.760487 0.065694 -3.416947
v 5.108347 0.065694 -2.577138
v 5.012372 0.065694 -2.586591
v 5.590843 0.065694 -3.165062
v 5.600296 0.065694 -3.069088
v 4.835035 0.065694 -3.478127
v 4.920086 0.065694 -3.523588
v 4.920086 0.065694 -2.614586
v 4.835035 0.065694 -2.660047
v 5.590843 0.065694 -2.973113
v 5.012372 0.065694 -3.551583
v 5.108347 0.065694 -3.561036
v 4.760487 0.065694 -2.721227
v 5.450754 0.065694 -3.069087
v 5.444175 0.065694 -3.002287
v 4.977313 0.065694 -3.385430
v 5.041546 0.065694 -3.404915
v 4.918116 0.065694 -2.784386
v 4.866229 0.065694 -2.826969
v 5.424689 0.065694 -2.938054
v 5.393048 0.065694 -2.878856
v 4.823646 0.065694 -2.878856
v 4.792004 0.065694 -2.938054
v 5.175147 0.065694 -3.404915
v 5.239380 0.065694 -3.385430
v 5.350465 0.065694 -2.826969
v 5.298578 0.065694 -2.784386
v 4.772519 0.065694 -3.002287
v 4.765940 0.065694 -3.069087
v 5.298578 0.065694 -3.353788
v 5.350465 0.065694 -3.311206
v 5.239380 0.065694 -2.752744
v 5.175147 0.065694 -2.733259
v 4.772519 0.065694 -3.135887
v 4.792004 0.065694 -3.200121
v 5.393047 0.065694 -3.259318
v 5.424689 0.065694 -3.200121
v 4.823646 0.065694 -3.259318
v 4.866229 0.065694 -3.311205
v 5.108347 0.065694 -2.726680
v 5.041547 0.065694 -2.733259
v 5.444174 0.065694 -3.135888
v 4.918116 0.065694 -3.353788
v 4.977314 0.065694 -2.752744
v 5.108347 0.065694 -3.411494
v 5.204252 -0.017481 -3.551241
v 5.108347 -0.017481 -3.560687
v 5.455961 -0.017481 -2.721473
v 5.517097 -0.017481 -2.795969
v 4.626193 -0.017481 -2.973181
v 4.654168 -0.017481 -2.880960
v 5.381464 -0.017481 -3.477838
v 5.296474 -0.017481 -3.523267
v 5.296474 -0.017481 -2.614908
v 5.381465 -0.017481 -2.660337
v 4.626193 -0.017481 -3.164994
v 4.616747 -0.017481 -3.069087
v 5.517097 -0.017481 -3.342206
v 5.455960 -0.017481 -3.416701
v 5.108347 -0.017481 -2.577487
v 5.204254 -0.017481 -2.586933
v 4.699596 -0.017481 -3.342206
v 4.654168 -0.017481 -3.257214
v 5.590501 -0.017481 -3.164994
v 5.562526 -0.017481 -3.257215
v 4.835228 -0.017481 -3.477838
v 4.760733 -0.017481 -3.416701
v 4.920219 -0.017481 -2.614908
v 5.012440 -0.017481 -2.586933
v 5.590501 -0.017481 -2.973181
v 5.599947 -0.017481 -3.069088
v 5.012440 -0.017481 -3.551241
v 4.920219 -0.017481 -3.523266
v 4.760733 -0.017481 -2.721473
v 4.835228 -0.017481 -2.660336
v 5.562526 -0.017481 -2.880960
v 4.699596 -0.017481 -2.795969
vn 0.4037 -0.8210 -0.4037
vn 0.5268 -0.7736 -0.3520
vn 0.4747 -0.8210 -0.3172
vn 0.1114 -0.8210 0.5599
vn 0.0000 -0.7736 0.6336
vn 0.0000 -0.8210 0.5709
vn -0.5275 -0.8210 -0.2185
vn -0.5268 -0.7736 -0.3520
vn -0.4747 -0.8210 -0.3172
vn 0.5275 -0.8210 -0.2185
vn 0.6214 -0.7736 -0.1236
vn 0.5599 -0.8210 -0.1114
vn -0.4037 -0.8210 -0.4037
vn -0.3520 -0.7736 -0.5268
vn -0.3172 -0.8210 -0.4747
vn -0.1114 -0.8210 0.5599
vn -0.2424 -0.7736 0.5853
vn -0.2185 -0.8210 0.5275
vn 0.5599 -0.8210 0.1114
vn 0.6336 -0.7736 0.0000
vn 0.6214 -0.7736 0.1236
vn -0.2185 -0.8210 -0.5275
vn -0.1236 -0.7736 -0.6214
vn -0.1114 -0.8210 -0.5599
vn -0.3172 -0.8210 0.4747
vn -0.4480 -0.7736 0.4480
vn -0.4037 -0.8210 0.4037
vn 0.4747 -0.8210 0.3172
vn 0.5853 -0.7736 0.2424
vn 0.5268 -0.7736 0.3520
vn -0.5275 -0.8210 0.2185
vn -0.5268 -0.7736 0.3520
vn -0.5853 -0.7736 0.2424
vn 0.2185 -0.8210 -0.5275
vn 0.1236 -0.7736 -0.6214
vn 0.2424 -0.7736 -0.5853
vn 0.3172 -0.8210 0.4747
vn 0.4480 -0.7736 0.4480
vn 0.3520 -0.7736 0.5268
vn -0.5709 -0.8210 0.0000
vn -0.6214 -0.7736 0.1236
vn -0.6336 -0.7736 0.0000
vn 0.3520 -0.7736 -0.5268
vn 0.4480 -0.7736 -0.4480
vn 0.2424 -0.7736 0.5853
vn 0.1236 -0.7736 0.6214
vn -0.6214 -0.7736 -0.1236
vn -0.5853 -0.7736 -0.2424
vn 0.5853 -0.7736 -0.2424
vn -0.4480 -0.7736 -0.4480
vn -0.1236 -0.7736 0.6214
vn 0.5709 -0.8210 0.0000
vn -0.2424 -0.7736 -0.5853
vn -0.3520 -0.7736 0.5268
vn 0.5275 -0.8210 0.2185
vn 0.0000 -0.7736 -0.6336
vn 0.0000 -0.8210 -0.5709
vn -0.4747 -0.8210 0.3172
vn 0.1114 -0.8210 -0.5599
vn 0.4037 -0.8210 0.4037
vn -0.5599 -0.8210 0.1114
vn 0.3172 -0.8210 -0.4747
vn 0.2185 -0.8210 0.5275
vn -0.5599 -0.8210 -0.1114
vn 0.1782 -0.9471 -0.2667
vn 0.2268 -0.9471 -0.2268
vn 0.1227 -0.9471 0.2964
vn 0.0626 -0.9471 0.3146
vn -0.2964 -0.9471 -0.1227
vn 0.2667 -0.9471 -0.1782
vn 0.2964 -0.9471 -0.1227
vn -0.2268 -0.9471 -0.2268
vn 0.0000 -0.9471 0.3208
vn -0.0626 -0.9471 0.3146
vn 0.3146 -0.9471 -0.0626
vn 0.3208 -0.9471 0.0000
vn -0.1782 -0.9471 -0.2667
vn -0.1227 -0.9471 -0.2964
vn -0.1227 -0.9471 0.2964
vn -0.1782 -0.9471 0.2667
vn 0.2964 -0.9471 0.1227
vn 0.0000 -0.9471 -0.3208
vn -0.2667 -0.9471 0.1782
vn 0.0626 -0.9471 -0.3146
vn 0.2667 -0.9471 0.1782
vn 0.2268 -0.9471 0.2268
vn -0.3146 -0.9471 0.0626
vn -0.3208 -0.9471 0.0000
vn -0.3146 -0.9471 -0.0626
vn -0.2667 -0.9471 -0.1782
vn 0.3146 -0.9471 0.0626
vn -0.0626 -0.9471 -0.3146
vn -0.2268 -0.9471 0.2268
vn -0.2964 -0.9471 0.1227
vn 0.1227 -0.9471 -0.2964
vn 0.1782 -0.9471 0.2667
vn 0.0857 -0.8983 -0.4310
vn 0.1682 -0.8983 -0.4060
vn 0.3107 -0.8983 0.3107
vn 0.2441 -0.8983 0.3654
vn -0.4394 -0.8983 0.0000
vn 0.3107 -0.8983 -0.3107
vn 0.1682 -0.8983 0.4060
vn 0.0857 -0.8983 0.4310
vn -0.4310 -0.8983 -0.0857
vn -0.4060 -0.8983 -0.1682
vn 0.3654 -0.8983 -0.2441
vn 0.4060 -0.8983 -0.1682
vn -0.3654 -0.8983 -0.2441
vn -0.3107 -0.8983 -0.3107
vn -0.0857 -0.8983 0.4310
vn 0.4395 -0.8983 0.0000
vn -0.2441 -0.8983 -0.3654
vn -0.1682 -0.8983 -0.4060
vn -0.2441 -0.8983 0.3654
vn 0.4310 -0.8983 0.0857
vn 0.4060 -0.8983 0.1682
vn 0.0000 -0.8983 -0.4394
vn -0.3654 -0.8983 0.2441
vn 0.3654 -0.8983 0.2441
vn -0.4060 -0.8983 0.1682
vn -0.4310 -0.8983 0.0857
vn 0.2441 -0.8983 -0.3654
vn 0.0000 -0.8983 0.4394
vn 0.4310 -0.8983 -0.0857
vn -0.1682 -0.8983 0.4060
vn -0.0857 -0.8983 -0.4310
vn -0.3107 -0.8983 0.3107
vn 0.4330 -0.8536 0.2893
vn -0.4812 -0.8536 0.1993
vn 0.1016 -0.8536 -0.5108
vn 0.1993 -0.8536 -0.4812
vn 0.3683 -0.8536 0.3683
vn 0.2893 -0.8536 0.4331
vn -0.5108 -0.8536 0.1016
vn -0.5208 -0.8536 0.0000
vn 0.3683 -0.8536 -0.3683
vn 0.1016 -0.8536 0.5108
vn -0.4812 -0.8536 -0.1993
vn 0.4812 -0.8536 -0.1993
vn -0.4330 -0.8536 -0.2893
vn -0.3683 -0.8536 -0.3683
vn -0.1016 -0.8536 0.5108
vn 0.5108 -0.8536 -0.1016
vn 0.5208 -0.8536 0.0000
vn -0.1993 -0.8536 -0.4812
vn -0.1993 -0.8536 0.4812
vn -0.2893 -0.8536 0.4331
vn 0.5108 -0.8536 0.1016
vn 0.4812 -0.8536 0.1993
vn -0.1016 -0.8536 -0.5108
vn 0.0000 -0.8536 -0.5208
vn -0.4331 -0.8536 0.2893
vn 0.2893 -0.8536 -0.4331
vn 0.1993 -0.8536 0.4812
vn -0.5108 -0.8536 -0.1016
vn 0.4330 -0.8536 -0.2893
vn 0.0000 -0.8536 0.5208
vn -0.2893 -0.8536 -0.4331
vn -0.3683 -0.8536 0.3683
vn 0.6427 -0.7661 0.0000
vn 0.6303 -0.7661 0.1254
vn -0.1254 -0.7661 -0.6303
vn -0.4544 -0.7661 0.4544
vn 0.5343 -0.7661 0.3570
vn -0.5937 -0.7661 0.2459
vn 0.1254 -0.7661 -0.6303
vn 0.2459 -0.7661 -0.5937
vn 0.4544 -0.7661 0.4544
vn 0.3570 -0.7661 0.5343
vn -0.6427 -0.7661 0.0000
vn 0.3570 -0.7661 -0.5343
vn 0.4544 -0.7661 -0.4544
vn 0.2459 -0.7661 0.5937
vn 0.1254 -0.7661 0.6303
vn -0.5937 -0.7661 -0.2459
vn 0.5937 -0.7661 -0.2459
vn -0.5343 -0.7661 -0.3570
vn -0.4544 -0.7661 -0.4544
vn -0.1254 -0.7661 0.6303
vn -0.3570 -0.7661 -0.5343
vn -0.2459 -0.7661 -0.5937
vn -0.3570 -0.7661 0.5343
vn 0.5937 -0.7661 0.2459
vn 0.0000 -0.7661 -0.6427
vn -0.5343 -0.7661 0.3570
vn -0.6303 -0.7661 0.1254
vn -0.6303 -0.7661 -0.1254
vn 0.5343 -0.7661 -0.3570
vn 0.0000 -0.7661 0.6427
vn 0.6303 -0.7661 -0.1254
vn -0.2459 -0.7661 0.5937
vn 0.7232 -0.6754 -0.1438
vn -0.4096 -0.6754 -0.6131
vn -0.2822 -0.6754 0.6812
vn 0.7232 -0.6754 0.1438
vn -0.1438 -0.6754 -0.7232
vn -0.4096 -0.6755 0.6131
vn -0.5214 -0.6754 0.5214
vn 0.6812 -0.6754 0.2822
vn 0.6131 -0.6754 0.4096
vn -0.6812 -0.6755 0.2822
vn 0.2822 -0.6754 -0.6812
vn 0.5214 -0.6755 0.5214
vn 0.4096 -0.6754 0.6131
vn -0.7374 -0.6754 0.0000
vn 0.5214 -0.6754 -0.5214
vn 0.1438 -0.6754 0.7232
vn -0.7232 -0.6754 -0.1438
vn -0.6812 -0.6755 -0.2822
vn 0.6131 -0.6754 -0.4096
vn 0.6812 -0.6754 -0.2822
vn -0.5214 -0.6754 -0.5214
vn 0.0000 -0.6754 0.7374
vn -0.1438 -0.6754 0.7232
vn 0.7374 -0.6754 0.0000
vn -0.2822 -0.6754 -0.6812
vn 0.0000 -0.6754 -0.7374
vn -0.6131 -0.6754 0.4096
vn 0.1438 -0.6754 -0.7232
vn -0.7232 -0.6754 0.1438
vn 0.4096 -0.6755 -0.6131
vn 0.2822 -0.6754 0.6812
vn -0.6131 -0.6754 -0.4096
vn 0.5566 -0.6168 -0.5566
vn 0.6544 -0.6168 -0.4373
vn 0.0000 -0.6168 0.7871
vn -0.6544 -0.6168 -0.4373
vn 0.7272 -0.6168 -0.3012
vn 0.7720 -0.6168 -0.1535
vn -0.5566 -0.6168 -0.5566
vn -0.4373 -0.6168 -0.6544
vn -0.3012 -0.6168 0.7272
vn 0.7871 -0.6168 0.0000
vn 0.7720 -0.6168 0.1535
vn -0.1535 -0.6168 -0.7720
vn -0.5566 -0.6168 0.5565
vn 0.6544 -0.6168 0.4373
vn -0.7272 -0.6168 0.3012
vn 0.1535 -0.6168 -0.7720
vn 0.3012 -0.6168 -0.7272
vn 0.5566 -0.6168 0.5565
vn 0.4373 -0.6168 0.6544
vn -0.7871 -0.6168 0.0000
vn 0.4373 -0.6168 -0.6544
vn 0.3012 -0.6168 0.7272
vn 0.1535 -0.6168 0.7720
vn -0.7272 -0.6168 -0.3012
vn -0.1535 -0.6168 0.7720
vn -0.3012 -0.6168 -0.7272
vn -0.4373 -0.6168 0.6544
vn 0.7272 -0.6168 0.3012
vn 0.0000 -0.6168 -0.7871
vn -0.6544 -0.6168 0.4373
vn -0.7720 -0.6168 0.1535
vn -0.7720 -0.6168 -0.1535
vn 0.3437 0.4395 -0.8298
vn 0.4990 0.4395 -0.7468
vn 0.3437 0.4395 0.8298
vn -0.8809 0.4395 -0.1752
vn 0.7468 0.4395 -0.4990
vn 0.0000 0.4395 0.8982
vn -0.7468 0.4395 -0.4990
vn 0.8809 0.4395 -0.1752
vn -0.4990 0.4395 -0.7468
vn -0.3437 0.4395 0.8298
vn 0.8809 0.4395 0.1752
vn -0.3437 0.4395 -0.8298
vn -0.1752 0.4395 -0.8809
vn -0.6351 0.4395 0.6351
vn 0.8298 0.4395 0.3437
vn 0.7468 0.4395 0.4990
vn -0.8298 0.4395 0.3437
vn 0.1752 0.4395 -0.8809
vn 0.4990 0.4395 0.7468
vn -0.8809 0.4395 0.1752
vn -0.8982 0.4395 0.0000
vn 0.6351 0.4395 -0.6351
vn 0.1752 0.4395 0.8809
vn -0.8298 0.4395 -0.3437
vn 0.8298 0.4395 -0.3437
vn -0.6351 0.4395 -0.6351
vn -0.1752 0.4395 0.8809
vn 0.8982 0.4395 0.0000
vn -0.4990 0.4395 0.7468
vn 0.0000 0.4395 -0.8982
vn -0.7468 0.4395 0.4990
vn 0.6351 0.4395 0.6351
vn 0.0000 0.9059 0.4236
vn -0.0826 0.9059 0.4154
vn -0.3522 0.9059 -0.2353
vn -0.2995 0.9059 -0.2995
vn 0.3913 0.9059 -0.1621
vn 0.4154 0.9059 -0.0826
vn -0.2353 0.9059 0.3522
vn -0.2353 0.9059 -0.3522
vn -0.1621 0.9059 -0.3913
vn 0.4236 0.9059 0.0000
vn 0.4154 0.9059 0.0826
vn -0.2995 0.9059 0.2995
vn -0.3522 0.9059 0.2353
vn 0.0000 0.9059 -0.4236
vn 0.3522 0.9059 0.2353
vn -0.4154 0.9059 0.0826
vn 0.2353 0.9059 0.3522
vn 0.0826 0.9059 -0.4154
vn 0.1621 0.9059 -0.3913
vn -0.4236 0.9059 0.0000
vn -0.4154 0.9059 -0.0826
vn 0.1621 0.9059 0.3913
vn 0.0826 0.9059 0.4154
vn 0.2353 0.9059 -0.3522
vn 0.2995 0.9059 -0.2995
vn 0.3522 0.9059 -0.2353
vn -0.1621 0.9059 0.3913
vn -0.0826 0.9059 -0.4154
vn 0.3913 0.9059 0.1621
vn -0.3913 0.9059 0.1621
vn 0.2995 0.9059 0.2995
vn -0.3913 0.9059 -0.1621
vn -0.7148 0.6336 -0.2961
vn 0.0000 0.6336 0.7736
vn 0.5470 0.6336 -0.5470
vn 0.6433 0.6336 -0.4298
vn -0.1509 0.6336 0.7588
vn -0.6433 0.6336 -0.4298
vn -0.5470 0.6336 -0.5470
vn 0.7148 0.6336 -0.2961
vn 0.7588 0.6336 -0.1509
vn -0.2961 0.6336 0.7148
vn -0.4298 0.6336 0.6433
vn -0.4298 0.6336 -0.6433
vn -0.2961 0.6336 -0.7148
vn 0.7588 0.6336 0.1509
vn -0.5470 0.6336 0.5470
vn -0.6433 0.6336 0.4298
vn 0.0000 0.6336 -0.7736
vn 0.7148 0.6336 0.2961
vn 0.6433 0.6336 0.4298
vn -0.7588 0.6336 0.1509
vn 0.4298 0.6336 0.6433
vn 0.2961 0.6336 -0.7148
vn -0.7588 0.6336 -0.1509
vn 0.2961 0.6336 0.7148
vn 0.1509 0.6336 0.7588
vn 0.4298 0.6336 -0.6433
vn 0.7737 0.6336 0.0000
vn -0.1509 0.6336 -0.7588
vn -0.7148 0.6336 0.2961
vn 0.5470 0.6336 0.5470
vn 0.1509 0.6336 -0.7588
vn -0.7736 0.6336 0.0000
vn -0.7522 0.6417 0.1496
vn -0.7669 0.6417 0.0000
vn 0.2935 0.6417 0.7085
vn 0.4261 0.6417 -0.6377
vn -0.7085 0.6417 -0.2935
vn 0.0000 0.6417 0.7669
vn 0.6377 0.6417 -0.4261
vn -0.1496 0.6417 0.7522
vn -0.5423 0.6417 -0.5423
vn 0.7522 0.6417 -0.1496
vn -0.2935 0.6417 0.7085
vn -0.4261 0.6417 0.6377
vn -0.2935 0.6417 -0.7085
vn 0.7669 0.6417 0.0000
vn 0.7522 0.6417 0.1496
vn -0.6377 0.6417 0.4261
vn -0.1496 0.6417 -0.7522
vn 0.0000 0.6417 -0.7669
vn 0.6377 0.6417 0.4261
vn -0.7085 0.6417 0.2935
vn 0.4261 0.6417 0.6377
vn 0.1496 0.6417 -0.7522
vn 0.2935 0.6417 -0.7085
vn -0.7522 0.6417 -0.1496
vn 0.1496 0.6417 0.7522
vn 0.5423 0.6417 -0.5423
vn -0.6377 0.6417 -0.4261
vn 0.7085 0.6417 -0.2935
vn -0.4261 0.6417 -0.6377
vn -0.5423 0.6417 0.5423
vn 0.7085 0.6417 0.2935
vn 0.5423 0.6417 0.5423
vn -0.5484 0.7517 0.3664
vn -0.6093 0.7517 0.2524
vn 0.5484 0.7517 0.3664
vn 0.4663 0.7517 0.4663
vn 0.0000 0.7517 -0.6595
vn 0.1286 0.7517 -0.6468
vn -0.6595 0.7517 0.0000
vn 0.3664 0.7517 0.5484
vn 0.2524 0.7517 0.6093
vn 0.2524 0.7517 -0.6093
vn 0.3664 0.7517 -0.5484
vn -0.6093 0.7517 -0.2524
vn 0.0000 0.7517 0.6595
vn 0.5484 0.7517 -0.3664
vn -0.1286 0.7517 0.6468
vn -0.4663 0.7517 -0.4663
vn 0.6468 0.7517 -0.1286
vn -0.2524 0.7517 0.6093
vn -0.3664 0.7517 0.5484
vn -0.3664 0.7517 -0.5484
vn -0.2524 0.7517 -0.6093
vn 0.6595 0.7517 0.0000
vn 0.6468 0.7517 0.1286
vn -0.4663 0.7517 0.4663
vn 0.6093 0.7517 0.2524
vn -0.6468 0.7517 0.1286
vn -0.6468 0.7517 -0.1286
vn 0.1286 0.7517 0.6468
vn 0.4663 0.7517 -0.4663
vn -0.5484 0.7517 -0.3664
vn 0.6093 0.7517 -0.2524
vn -0.1286 0.7517 -0.6468
vn -0.3262 0.8872 0.3262
vn -0.0900 0.8872 -0.4524
vn 0.4262 0.8872 0.1765
vn -0.3836 0.8872 0.2563
vn -0.4262 0.8872 0.1765
vn 0.3836 0.8872 0.2563
vn 0.3262 0.8872 0.3262
vn 0.0900 0.8872 -0.4524
vn -0.4613 0.8872 0.0000
vn 0.1765 0.8872 0.4262
vn 0.2563 0.8872 -0.3836
vn -0.4524 0.8872 -0.0900
vn -0.4262 0.8872 -0.1765
vn 0.0900 0.8872 0.4524
vn 0.0000 0.8872 0.4613
vn 0.3836 0.8872 -0.2563
vn -0.0900 0.8872 0.4524
vn -0.3836 0.8872 -0.2563
vn -0.3262 0.8872 -0.3262
vn 0.4262 0.8872 -0.1765
vn 0.4524 0.8872 -0.0900
vn -0.1765 0.8872 0.4262
vn -0.2563 0.8872 0.3836
vn -0.1765 0.8872 -0.4262
vn 0.4613 0.8872 0.0000
vn 0.4524 0.8872 0.0900
vn 0.0000 0.8872 -0.4613
vn -0.4524 0.8872 0.0900
vn 0.2563 0.8872 0.3836
vn 0.1765 0.8872 -0.4262
vn 0.3262 0.8872 -0.3262
vn -0.2563 0.8872 -0.3836
vn -0.1305 0.9400 0.3151
vn -0.1895 0.9400 -0.2836
vn 0.3411 0.9400 0.0000
vn -0.1895 0.9400 0.2836
vn -0.2412 0.9400 0.2412
vn -0.0665 0.9400 -0.3345
vn 0.3345 0.9400 0.0665
vn 0.3151 0.9400 0.1305
vn -0.3151 0.9400 0.1305
vn 0.2412 0.9400 0.2412
vn 0.0665 0.9400 -0.3345
vn -0.3345 0.9400 0.0665
vn -0.3411 0.9400 0.0000
vn 0.1895 0.9400 0.2836
vn 0.1305 0.9400 0.3151
vn 0.1305 0.9400 -0.3151
vn 0.1895 0.9400 -0.2836
vn -0.3345 0.9400 -0.0665
vn -0.3151 0.9400 -0.1305
vn 0.0000 0.9400 0.3411
vn 0.2836 0.9400 -0.1895
vn -0.0665 0.9400 0.3345
vn -0.2412 0.9400 -0.2412
vn 0.3345 0.9400 -0.0665
vn -0.1305 0.9400 -0.3151
vn -0.2836 0.9400 0.1895
vn 0.0000 0.9400 -0.3411
vn 0.2836 0.9400 0.1895
vn 0.0665 0.9400 0.3345
vn 0.2412 0.9400 -0.2412
vn -0.2836 0.9400 -0.1895
vn 0.3151 0.9400 -0.1305
vn -0.1057 0.9919 -0.0706
vn 0.1057 0.9919 -0.0706
vn 0.1175 0.9919 -0.0486
vn -0.0486 0.9919 0.1175
vn -0.0899 0.9919 -0.0899
vn -0.0706 0.9919 -0.1057
vn 0.1271 0.9919 0.0000
vn -0.0706 0.9919 0.1057
vn -0.0899 0.9919 0.0899
vn -0.0248 0.9919 -0.1247
vn 0.1175 0.9919 0.0486
vn -0.1175 0.9919 0.0486
vn 0.0899 0.9919 0.0899
vn 0.0248 0.9919 -0.1247
vn -0.1271 0.9919 0.0000
vn 0.0706 0.9919 0.1057
vn 0.0486 0.9919 0.1175
vn 0.0486 0.9919 -0.1175
vn 0.0706 0.9919 -0.1057
vn -0.1247 0.9919 -0.0248
vn -0.1175 0.9919 -0.0486
vn 0.0000 0.9919 0.1271
vn -0.0248 0.9919 0.1247
vn 0.1247 0.9919 -0.0248
vn -0.0486 0.9919 -0.1175
vn 0.1247 0.9919 0.0248
vn -0.1057 0.9919 0.0706
vn 0.0000 0.9919 -0.1271
vn 0.1057 0.9919 0.0706
vn -0.1247 0.9919 0.0248
vn 0.0248 0.9919 0.1247
vn 0.0899 0.9919 -0.0899
vn 0.0000 1.0000 0.0000
vn 0.0000 -1.0000 0.0000
s 1
f 2//1 4//2 1//3
f 6//4 8//5 5//6
f 10//7 12//8 9//9
f 14//10 16//11 13//12
f 18//13 20//14 17//15
f 22//16 24//17 21//18
f 25//19 27//20 28//21
f 30//22 32//23 29//24
f 34//25 36//26 33//27
f 37//28 39//29 40//30
f 41//31 43//32 44//33
f 45//34 47//35 48//36
f 49//37 51//38 52//39
f 53//40 55//41 56//42
f 2//1 58//43 3//44
f 6//4 60//45 7//46
f 10//7 62//47 11//48
f 1//3 15//49 14//10
f 9//9 19//50 18//13
f 22//16 8//5 23//51
f 26//52 16//11 27//20
f 17//15 31//53 30//22
f 21//18 35//54 34//25
f 38//55 28//21 39//29
f 29//24 64//56 63//57
f 42//58 36//26 43//32
f 63//57 47//35 46//59
f 37//28 51//38 50//60
f 54//61 44//33 55//41
f 57//62 48//36 58//43
f 59//63 52//39 60//45
f 61//64 56//42 62//47
f 3//44 65//65 66//66
f 7//46 67//67 68//68
f 62//47 70//69 11//48
f 15//49 71//70 72//71
f 12//8 74//72 19//50
f 23//51 75//73 76//74
f 27//20 77//75 78//76
f 31//53 79//77 80//78
f 35//54 81//79 82//80
f 28//21 84//81 39//29
f 32//23 86//82 64//56
f 36//26 88//83 43//32
f 64//56 89//84 47//35
f 51//38 90//85 91//86
f 44//33 93//87 55//41
f 48//36 65//65 58//43
f 52//39 67//67 60//45
f 62//47 96//88 69//89
f 4//2 66//66 71//70
f 7//46 75//73 8//5
f 11//48 73//90 12//8
f 15//49 77//75 16//11
f 20//14 74//72 79//77
f 24//17 76//74 81//79
f 28//21 78//76 83//91
f 32//23 80//78 85//92
f 35//54 87//93 36//26
f 40//30 84//81 90//85
f 43//32 92//94 44//33
f 48//36 89//84 94//95
f 51//38 95//96 52//39
f 55//41 96//88 56//42
f 94//95 97//97 98//98
f 95//96 99//99 100//100
f 93//87 102//101 96//88
f 65//65 104//102 66//66
f 68//68 105//103 106//104
f 70//69 107//105 108//106
f 72//71 109//107 110//108
f 74//72 111//109 112//110
f 75//73 114//111 76//74
f 77//75 116//112 78//76
f 80//78 117//113 118//114
f 81//79 120//115 82//80
f 84//81 121//116 122//117
f 85//92 124//118 86//82
f 87//93 126//119 88//83
f 86//82 97//97 89//84
f 91//86 127//120 99//99
f 93//87 128//121 101//122
f 65//65 98//98 103//123
f 95//96 105//103 67//67
f 69//89 102//101 107//105
f 66//66 109//107 71//70
f 68//68 113//124 75//73
f 73//90 108//106 111//109
f 77//75 110//108 115//125
f 74//72 117//113 79//77
f 76//74 119//126 81//79
f 78//76 121//116 83//91
f 80//78 123//127 85//92
f 82//80 125//128 87//93
f 90//85 122//117 127//120
f 92//94 126//119 128//121
f 122//117 130//129 127//120
f 126//119 132//130 128//121
f 98//98 133//131 134//132
f 100//100 135//133 136//134
f 102//101 137//135 138//136
f 103//123 140//137 104//102
f 105//103 142//138 106//104
f 107//105 144//139 108//106
f 109//107 146//140 110//108
f 112//110 147//141 148//142
f 113//124 150//143 114//111
f 116//112 151//144 152//145
f 117//113 154//146 118//114
f 120//115 155//147 156//148
f 122//117 157//149 129//150
f 124//118 158//151 159//152
f 125//128 131//153 126//119
f 97//97 159//152 133//131
f 127//120 135//133 99//99
f 101//122 132//130 137//135
f 98//98 139//154 103//123
f 100//100 141//155 105//103
f 102//101 143//156 107//105
f 104//102 145//157 109//107
f 106//104 149//158 113//124
f 108//106 147//141 111//109
f 115//125 146//140 151//144
f 112//110 153//159 117//113
f 119//126 150//143 155//147
f 121//116 152//145 157//149
f 118//114 158//151 123//127
f 125//128 156//148 160//160
f 157//149 161//161 162//162
f 154//146 164//163 158//151
f 156//148 166//164 160//160
f 129//150 168//165 130//129
f 131//153 170//166 132//130
f 134//132 171//167 172//168
f 136//134 173//169 174//170
f 137//135 176//171 138//136
f 140//137 177//172 178//173
f 142//138 179//174 180//175
f 143//156 182//176 144//139
f 145//157 184//177 146//140
f 148//142 185//178 186//179
f 149//158 188//180 150//143
f 151//144 161//161 152//145
f 154//146 190//181 163//182
f 155//147 165//183 156//148
f 129//150 162//162 167//184
f 159//152 164//163 192//185
f 160//160 169//186 131//153
f 133//131 192//185 171//167
f 130//129 173//169 135//133
f 137//135 170//166 175//187
f 139//154 172//168 177//172
f 141//155 174//170 179//174
f 138//136 181//188 143//156
f 145//157 178//173 183//189
f 142//138 187//190 149//158
f 144//139 185//178 147//141
f 146//140 189//191 151//144
f 153//159 186//179 190//181
f 150//143 191//192 155//147
f 184//177 194//193 189//191
f 186//179 196//194 190//181
f 188//180 198//195 191//192
f 161//161 200//196 162//162
f 163//182 202//197 164//163
f 166//164 203//198 204//199
f 168//165 205//200 206//201
f 169//186 208//202 170//166
f 171//167 210//203 172//168
f 174//170 211//204 212//205
f 175//187 214//206 176//171
f 177//172 216//207 178//173
f 179//174 218//208 180//175
f 182//176 219//209 220//210
f 184//177 221//211 193//212
f 185//178 195//213 186//179
f 188//180 223//214 197//215
f 161//161 194//193 199//216
f 190//181 201//217 163//182
f 165//183 198//195 203//198
f 162//162 205//200 167//184
f 192//185 202//197 224//218
f 169//186 204//199 207//219
f 192//185 209//220 171//167
f 168//165 211//204 173//169
f 170//166 213//221 175//187
f 172//168 215//222 177//172
f 174//170 217//223 179//174
f 176//171 219//209 181//188
f 183//189 216//207 221//211
f 187//190 218//208 223//214
f 185//178 220//210 222//224
f 221//211 225//225 226//226
f 218//208 228//227 223//214
f 220//210 230//228 222//224
f 194//193 231//229 232//230
f 196//194 233//231 234//232
f 197//215 236//233 198//195
f 200//196 237//234 238//235
f 201//217 240//236 202//197
f 203//198 242//237 204//199
f 205//200 244//238 206//201
f 207//219 246//239 208//202
f 210//203 247//240 248//241
f 212//205 249//242 250//243
f 213//221 252//244 214//206
f 216//207 253//245 225//225
f 218//208 254//246 227//247
f 219//209 229//248 220//210
f 193//212 226//226 231//229
f 195//213 230//228 233//231
f 223//214 235//249 197//215
f 199//216 232//230 237//234
f 196//194 239//250 201//217
f 203//198 236//233 241//251
f 205//200 238//235 243//252
f 202//197 256//253 224//218
f 204//199 245//254 207//219
f 209//220 256//253 247//240
f 211//204 244//238 249//242
f 208//202 251//255 213//221
f 210//203 253//245 215//222
f 217//223 250//243 254//246
f 214//206 255//256 219//209
f 253//245 257//257 258//258
f 250//243 260//259 254//246
f 252//244 262//260 255//256
f 225//225 264//261 226//226
f 227//247 266//262 228//227
f 229//248 268//263 230//228
f 231//229 270//264 232//230
f 233//231 272//265 234//232
f 235//249 274//266 236//233
f 237//234 276//267 238//235
f 240//236 277//268 278//269
f 241//251 280//270 242//237
f 244//238 281//271 282//272
f 245//254 284//273 246//239
f 248//241 285//274 257//257
f 249//242 259//275 250//243
f 252//244 287//276 261//277
f 225//225 258//258 263//278
f 254//246 265//279 227//247
f 255//256 267//280 229//248
f 226//226 269//281 231//229
f 230//228 271//282 233//231
f 228//227 273//283 235//249
f 232//230 275//284 237//234
f 234//232 277//268 239//250
f 236//233 279//285 241//251
f 243//252 276//267 281//271
f 240//236 288//286 256//253
f 242//237 283//287 245//254
f 256//253 285//274 247//240
f 244//238 286//288 249//242
f 251//255 284//273 287//276
f 285//274 289//289 290//290
f 286//288 291//291 292//292
f 287//276 293//293 294//294
f 257//257 296//295 258//258
f 260//259 297//296 298//297
f 262//260 299//298 300//299
f 264//261 301//300 302//301
f 265//279 304//302 266//262
f 267//280 306//303 268//263
f 269//281 308//304 270//264
f 271//282 310//305 272//265
f 274//266 311//306 312//307
f 276//267 313//308 314//309
f 278//269 315//310 316//311
f 280//270 317//312 318//313
f 281//271 291//291 282//272
f 284//273 320//314 293//293
f 285//274 295//315 257//257
f 259//275 292//292 297//296
f 261//277 294//294 299//298
f 263//278 296//295 301//300
f 265//279 298//297 303//316
f 267//280 300//299 305//317
f 264//261 307//318 269//281
f 268//263 309//319 271//282
f 273//283 304//302 311//306
f 275//284 308//304 313//308
f 277//268 310//305 315//310
f 279//285 312//307 317//312
f 276//267 319//320 281//271
f 288//286 316//311 289//289
f 283//287 318//313 320//314
f 314//309 322//321 319//320
f 316//311 324//322 289//289
f 320//314 325//323 326//324
f 290//290 324//322 327//325
f 292//292 328//326 329//327
f 294//294 330//328 331//329
f 296//295 332//330 333//331
f 298//297 334//332 335//333
f 299//298 337//334 300//299
f 302//301 338//335 339//336
f 303//316 341//337 304//302
f 306//303 342//338 343//339
f 307//318 345//340 308//304
f 309//319 347//341 310//305
f 311//306 349//342 312//307
f 313//308 321//343 314//309
f 316//311 351//344 323//345
f 318//313 352//346 325//323
f 319//320 328//326 291//291
f 293//293 326//324 330//328
f 290//290 332//330 295//315
f 297//296 329//327 334//332
f 294//294 336//347 299//298
f 296//295 338//335 301//300
f 298//297 340//348 303//316
f 300//299 342//338 305//317
f 307//318 339//336 344//349
f 306//303 346//350 309//319
f 311//306 341//337 348//351
f 308//304 350//352 313//308
f 310//305 351//344 315//310
f 312//307 352//346 317//312
f 350//352 353//353 354//354
f 347//341 356//355 351//344
f 349//342 358//356 352//346
f 321//343 360//357 322//321
f 323//345 362//358 324//322
f 325//323 364//359 326//324
f 324//322 365//360 327//325
f 328//326 367//361 329//327
f 330//328 369//362 331//329
f 333//331 370//363 371//364
f 334//332 373//365 335//333
f 337//334 374//366 375//367
f 338//335 377//368 339//336
f 341//337 378//369 379//370
f 342//338 381//371 343//339
f 345//340 382//372 353//353
f 346//350 355//373 347//341
f 349//342 384//374 357//375
f 350//352 359//376 321//343
f 323//345 356//355 361//377
f 325//323 358//356 363//378
f 322//321 366//379 328//326
f 326//324 368//380 330//328
f 327//325 370//363 332//330
f 329//327 372//381 334//332
f 331//329 374//366 336//347
f 338//335 371//364 376//382
f 335//333 378//369 340//348
f 342//338 375//367 380//383
f 339//336 382//372 344//349
f 343//339 383//384 346//350
f 348//351 379//370 384//374
f 382//372 385//385 386//386
f 383//384 387//387 388//388
f 384//374 389//389 390//390
f 353//353 392//391 354//354
f 356//355 393//392 394//393
f 358//356 395//394 396//395
f 359//376 398//396 360//357
f 361//377 400//397 362//358
f 363//378 402//398 364//359
f 362//358 403//399 365//360
f 366//379 405//400 367//361
f 368//380 407//401 369//362
f 371//364 408//402 409//403
f 373//365 410//404 411//405
f 375//367 412//406 413//407
f 377//368 414//408 385//385
f 378//369 389//389 379//370
f 381//371 416//409 387//387
f 382//372 391//410 353//353
f 383//384 393//392 355//373
f 357//375 390//390 395//394
f 354//354 397//411 359//376
f 361//377 394//393 399//412
f 358//356 401//413 363//378
f 360//357 404//414 366//379
f 364//359 406//415 368//380
f 370//363 403//399 408//402
f 372//381 405//400 410//404
f 369//362 412//406 374//366
f 371//364 414//408 376//382
f 373//365 415//416 378//369
f 380//383 413//407 416//409
f 409//403 418//417 414//408
f 411//405 420//418 415//416
f 413//407 422//419 416//409
f 386//386 423//420 424//421
f 388//388 425//422 426//423
f 389//389 428//424 390//390
f 391//410 430//425 392//391
f 393//392 432//426 394//393
f 395//394 434//427 396//395
f 398//396 435//428 436//429
f 400//397 437//430 438//431
f 401//413 440//432 402//398
f 403//399 438//431 441//433
f 405//400 442//434 443//435
f 407//401 444//436 445//437
f 409//403 446//438 417//439
f 410//404 419//440 411//405
f 413//407 448//441 421//442
f 414//408 423//420 385//385
f 415//416 427//443 389//389
f 416//409 425//422 387//387
f 391//410 424//421 429//444
f 393//392 426//423 431//445
f 390//390 433//446 395//394
f 392//391 435//428 397//411
f 394//393 437//430 399//412
f 401//413 434//427 439//447
f 404//414 436//429 442//434
f 402//398 444//436 406//415
f 403//399 446//438 408//402
f 405//400 447//448 410//404
f 407//401 448//441 412//406
f 441//433 450//449 446//438
f 443//435 452//450 447//448
f 445//437 454//451 448//441
f 418//417 455//452 456//453
f 419//440 458//454 420//418
f 422//419 459//455 460//456
f 423//420 462//457 424//421
f 425//422 464//458 426//423
f 427//443 466//459 428//424
f 430//425 467//460 468//461
f 432//426 469//462 470//463
f 434//427 471//464 472//465
f 436//429 473//466 474//467
f 437//430 476//468 438//431
f 439//447 478//469 440//432
f 441//433 476//468 449//470
f 442//434 451//471 443//435
f 444//436 453//472 445//437
f 446//438 455//452 417//439
f 447//448 457//473 419//440
f 421//442 454//451 459//455
f 418//417 461//474 423//420
f 420//418 465//475 427//443
f 425//422 460//456 463//476
f 429//444 462//457 467//460
f 426//423 469//462 431//445
f 433//446 466//459 471//464
f 435//428 468//461 473//466
f 437//430 470//463 475//477
f 434//427 477//478 439//447
f 442//434 474//467 479//479
f 440//432 480//480 444//436
f 474//467 482//481 479//479
f 480//480 483//482 484//483
f 449//470 486//484 450//449
f 452//450 487//485 488//486
f 453//472 490//487 454//451
f 456//453 491//488 492//489
f 457//473 494//490 458//454
f 459//455 496//491 460//456
f 461//474 498//492 462//457
f 463//476 500//493 464//458
f 465//475 502//494 466//459
f 467//460 504//495 468//461
f 470//463 505//496 506//497
f 472//465 507//498 508//499
f 474//467 509//500 481//501
f 475//477 511//502 476//468
f 477//478 483//482 478//469
f 449//470 511//502 485//503
f 479//479 487//485 451//471
f 453//472 484//483 489//504
f 450//449 491//488 455//452
f 457//473 488//486 493//505
f 459//455 490//487 495//506
f 456//453 497//507 461//474
f 465//475 494//490 501//508
f 460//456 499//509 463//476
f 467//460 498//492 503//510
f 469//462 500//493 505//496
f 471//464 502//494 507//498
f 468//461 509//500 473//466
f 475//477 506//497 510//511
f 472//465 512//512 477//478
f 504//495 514//513 509//500
f 510//511 515//513 516//513
f 512//512 517//513 518//513
f 481//501 520//513 482//481
f 484//483 521//513 522//513
f 485//503 524//513 486//484
f 488//486 525//513 526//513
f 489//504 528//513 490//487
f 492//489 529//513 530//513
f 493//505 532//513 494//490
f 496//491 533//513 534//513
f 497//507 536//513 498//492
f 499//509 538//513 500//493
f 501//508 540//513 502//494
f 504//495 541//513 513//513
f 505//496 515//513 506//497
f 508//499 543//513 517//513
f 481//501 514//513 519//513
f 510//511 544//513 511//502
f 512//512 521//513 483//482
f 485//503 544//513 523//513
f 482//481 525//513 487//485
f 484//483 527//513 489//504
f 491//488 524//513 529//513
f 488//486 531//513 493//505
f 495//506 528//513 533//513
f 492//489 535//513 497//507
f 494//490 539//513 501//508
f 499//509 534//513 537//513
f 503//510 536//513 541//513
f 500//493 542//513 505//496
f 502//494 543//513 507//498
f 528//513 539//513 513//513
f 63//57 545//514 546//514
f 50//60 548//514 37//28
f 41//31 549//514 550//514
f 57//62 552//514 45//34
f 49//37 553//514 554//514
f 61//64 556//514 53//40
f 2//1 557//514 558//514
f 5//6 560//514 6//4
f 9//9 562//514 10//7
f 14//10 563//514 564//514
f 18//13 565//514 566//514
f 21//18 568//514 22//16
f 26//52 569//514 570//514
f 30//22 571//514 572//514
f 33//27 574//514 34//25
f 37//28 575//514 38//55
f 42//58 550//514 576//514
f 45//34 545//514 46//59
f 49//37 547//514 50//60
f 53//40 549//514 54//61
f 2//1 551//514 57//62
f 59//63 560//514 553//514
f 10//7 555//514 61//64
f 1//3 564//514 557//514
f 18//13 561//514 9//9
f 22//16 559//514 5//6
f 26//52 563//514 13//12
f 17//15 572//514 565//514
f 34//25 567//514 21//18
f 25//19 575//514 569//514
f 63//57 571//514 29//24
f 33//27 576//514 573//514
f 572//514 564//514 553//514
f 2//1 3//44 4//2
f 6//4 7//46 8//5
f 10//7 11//48 12//8
f 14//10 15//49 16//11
f 18//13 19//50 20//14
f 22//16 23//51 24//17
f 25//19 26//52 27//20
f 30//22 31//53 32//23
f 34//25 35//54 36//26
f 37//28 38//55 39//29
f 41//31 42//58 43//32
f 45//34 46//59 47//35
f 49//37 50//60 51//38
f 53//40 54//61 55//41
f 2//1 57//62 58//43
f 6//4 59//63 60//45
f 10//7 61//64 62//47
f 1//3 4//2 15//49
f 9//9 12//8 19//50
f 22//16 5//6 8//5
f 26//52 13//12 16//11
f 17//15 20//14 31//53
f 21//18 24//17 35//54
f 38//55 25//19 28//21
f 29//24 32//23 64//56
f 42//58 33//27 36//26
f 63//57 64//56 47//35
f 37//28 40//30 51//38
f 54//61 41//31 44//33
f 57//62 45//34 48//36
f 59//63 49//37 52//39
f 61//64 53//40 56//42
f 3//44 58//43 65//65
f 7//46 60//45 67//67
f 62//47 69//89 70//69
f 15//49 4//2 71//70
f 12//8 73//90 74//72
f 23//51 8//5 75//73
f 27//20 16//11 77//75
f 31//53 20//14 79//77
f 35//54 24//17 81//79
f 28//21 83//91 84//81
f 32//23 85//92 86//82
f 36//26 87//93 88//83
f 64//56 86//82 89//84
f 51//38 40//30 90//85
f 44//33 92//94 93//87
f 48//36 94//95 65//65
f 52//39 95//96 67//67
f 62//47 56//42 96//88
f 4//2 3//44 66//66
f 7//46 68//68 75//73
f 11//48 70//69 73//90
f 15//49 72//71 77//75
f 20//14 19//50 74//72
f 24//17 23//51 76//74
f 28//21 27//20 78//76
f 32//23 31//53 80//78
f 35//54 82//80 87//93
f 40//30 39//29 84//81
f 43//32 88//83 92//94
f 48//36 47//35 89//84
f 51//38 91//86 95//96
f 55//41 93//87 96//88
f 94//95 89//84 97//97
f 95//96 91//86 99//99
f 93//87 101//122 102//101
f 65//65 103//123 104//102
f 68//68 67//67 105//103
f 70//69 69//89 107//105
f 72//71 71//70 109//107
f 74//72 73//90 111//109
f 75//73 113//124 114//111
f 77//75 115//125 116//112
f 80//78 79//77 117//113
f 81//79 119//126 120//115
f 84//81 83//91 121//116
f 85//92 123//127 124//118
f 87//93 125//128 126//119
f 86//82 124//118 97//97
f 91//86 90//85 127//120
f 93//87 92//94 128//121
f 65//65 94//95 98//98
f 95//96 100//100 105//103
f 69//89 96//88 102//101
f 66//66 104//102 109//107
f 68//68 106//104 113//124
f 73//90 70//69 108//106
f 77//75 72//71 110//108
f 74//72 112//110 117//113
f 76//74 114//111 119//126
f 78//76 116//112 121//116
f 80//78 118//114 123//127
f 82//80 120//115 125//128
f 90//85 84//81 122//117
f 92//94 88//83 126//119
f 122//117 129//150 130//129
f 126//119 131//153 132//130
f 98//98 97//97 133//131
f 100//100 99//99 135//133
f 102//101 101//122 137//135
f 103//123 139//154 140//137
f 105//103 141//155 142//138
f 107//105 143//156 144//139
f 109//107 145//157 146//140
f 112//110 111//109 147//141
f 113//124 149//158 150//143
f 116//112 115//125 151//144
f 117//113 153//159 154//146
f 120//115 119//126 155//147
f 122//117 121//116 157//149
f 124//118 123//127 158//151
f 125//128 160//160 131//153
f 97//97 124//118 159//152
f 127//120 130//129 135//133
f 101//122 128//121 132//130
f 98//98 134//132 139//154
f 100//100 136//134 141//155
f 102//101 138//136 143//156
f 104//102 140//137 145//157
f 106//104 142//138 149//158
f 108//106 144//139 147//141
f 115//125 110//108 146//140
f 112//110 148//142 153//159
f 119//126 114//111 150//143
f 121//116 116//112 152//145
f 118//114 154//146 158//151
f 125//128 120//115 156//148
f 157//149 152//145 161//161
f 154//146 163//182 164//163
f 156//148 165//183 166//164
f 129//150 167//184 168//165
f 131//153 169//186 170//166
f 134//132 133//131 171//167
f 136//134 135//133 173//169
f 137//135 175//187 176//171
f 140//137 139//154 177//172
f 142//138 141//155 179//174
f 143//156 181//188 182//176
f 145//157 183//189 184//177
f 148//142 147//141 185//178
f 149//158 187//190 188//180
f 151//144 189//191 161//161
f 154//146 153//159 190//181
f 155//147 191//192 165//183
f 129//150 157//149 162//162
f 159//152 158//151 164//163
f 160//160 166//164 169//186
f 133//131 159//152 192//185
f 130//129 168//165 173//169
f 137//135 132//130 170//166
f 139//154 134//132 172//168
f 141//155 136//134 174//170
f 138//136 176//171 181//188
f 145//157 140//137 178//173
f 142//138 180//175 187//190
f 144//139 182//176 185//178
f 146//140 184//177 189//191
f 153//159 148//142 186//179
f 150//143 188//180 191//192
f 184//177 193//212 194//193
f 186//179 195//213 196//194
f 188//180 197//215 198//195
f 161//161 199//216 200//196
f 163//182 201//217 202//197
f 166//164 165//183 203//198
f 168//165 167//184 205//200
f 169//186 207//219 208//202
f 171//167 209//220 210//203
f 174//170 173//169 211//204
f 175//187 213//221 214//206
f 177//172 215//222 216//207
f 179//174 217//223 218//208
f 182//176 181//188 219//209
f 184//177 183//189 221//211
f 185//178 222//224 195//213
f 188//180 187//190 223//214
f 161//161 189//191 194//193
f 190//181 196//194 201//217
f 165//183 191//192 198//195
f 162//162 200//196 205//200
f 192//185 164//163 202//197
f 169//186 166//164 204//199
f 192//185 224//218 209//220
f 168//165 206//201 211//204
f 170//166 208//202 213//221
f 172//168 210//203 215//222
f 174//170 212//205 217//223
f 176//171 214//206 219//209
f 183//189 178//173 216//207
f 187//190 180//175 218//208
f 185//178 182//176 220//210
f 221//211 216//207 225//225
f 218//208 227//247 228//227
f 220//210 229//248 230//228
f 194//193 193//212 231//229
f 196//194 195//213 233//231
f 197//215 235//249 236//233
f 200//196 199//216 237//234
f 201//217 239//250 240//236
f 203//198 241//251 242//237
f 205//200 243//252 244//238
f 207//219 245//254 246//239
f 210//203 209//220 247//240
f 212//205 211//204 249//242
f 213//221 251//255 252//244
f 216//207 215//222 253//245
f 218//208 217//223 254//246
f 219//209 255//256 229//248
f 193//212 221//211 226//226
f 195//213 222//224 230//228
f 223//214 228//227 235//249
f 199//216 194//193 232//230
f 196//194 234//232 239//250
f 203//198 198//195 236//233
f 205//200 200//196 238//235
f 202//197 240//236 256//253
f 204//199 242//237 245//254
f 209//220 224//218 256//253
f 211//204 206//201 244//238
f 208//202 246//239 251//255
f 210//203 248//241 253//245
f 217//223 212//205 250//243
f 214//206 252//244 255//256
f 253//245 248//241 257//257
f 250//243 259//275 260//259
f 252//244 261//277 262//260
f 225//225 263//278 264//261
f 227//247 265//279 266//262
f 229//248 267//280 268//263
f 231//229 269//281 270//264
f 233//231 271//282 272//265
f 235//249 273//283 274//266
f 237//234 275//284 276//267
f 240//236 239//250 277//268
f 241//251 279//285 280//270
f 244//238 243//252 281//271
f 245//254 283//287 284//273
f 248//241 247//240 285//274
f 249//242 286//288 259//275
f 252//244 251//255 287//276
f 225//225 253//245 258//258
f 254//246 260//259 265//279
f 255//256 262//260 267//280
f 226//226 264//261 269//281
f 230//228 268//263 271//282
f 228//227 266//262 273//283
f 232//230 270//264 275//284
f 234//232 272//265 277//268
f 236//233 274//266 279//285
f 243//252 238//235 276//267
f 240//236 278//269 288//286
f 242//237 280//270 283//287
f 256//253 288//286 285//274
f 244//238 282//272 286//288
f 251//255 246//239 284//273
f 285//274 288//286 289//289
f 286//288 282//272 291//291
f 287//276 284//273 293//293
f 257//257 295//315 296//295
f 260//259 259//275 297//296
f 262//260 261//277 299//298
f 264//261 263//278 301//300
f 265//279 303//316 304//302
f 267//280 305//317 306//303
f 269//281 307//318 308//304
f 271//282 309//319 310//305
f 274//266 273//283 311//306
f 276//267 275//284 313//308
f 278//269 277//268 315//310
f 280//270 279//285 317//312
f 281//271 319//320 291//291
f 284//273 283//287 320//314
f 285//274 290//290 295//315
f 259//275 286//288 292//292
f 261//277 287//276 294//294
f 263//278 258//258 296//295
f 265//279 260//259 298//297
f 267//280 262//260 300//299
f 264//261 302//301 307//318
f 268//263 306//303 309//319
f 273//283 266//262 304//302
f 275//284 270//264 308//304
f 277//268 272//265 310//305
f 279//285 274//266 312//307
f 276//267 314//309 319//320
f 288//286 278//269 316//311
f 283//287 280//270 318//313
f 314//309 321//343 322//321
f 316//311 323//345 324//322
f 320//314 318//313 325//323
f 290//290 289//289 324//322
f 292//292 291//291 328//326
f 294//294 293//293 330//328
f 296//295 295//315 332//330
f 298//297 297//296 334//332
f 299//298 336//347 337//334
f 302//301 301//300 338//335
f 303//316 340//348 341//337
f 306//303 305//317 342//338
f 307//318 344//349 345//340
f 309//319 346//350 347//341
f 311//306 348//351 349//342
f 313//308 350//352 321//343
f 316//311 315//310 351//344
f 318//313 317//312 352//346
f 319//320 322//321 328//326
f 293//293 320//314 326//324
f 290//290 327//325 332//330
f 297//296 292//292 329//327
f 294//294 331//329 336//347
f 296//295 333//331 338//335
f 298//297 335//333 340//348
f 300//299 337//334 342//338
f 307//318 302//301 339//336
f 306//303 343//339 346//350
f 311//306 304//302 341//337
f 308//304 345//340 350//352
f 310//305 347//341 351//344
f 312//307 349//342 352//346
f 350//352 345//340 353//353
f 347//341 355//373 356//355
f 349//342 357//375 358//356
f 321//343 359//376 360//357
f 323//345 361//377 362//358
f 325//323 363//378 364//359
f 324//322 362//358 365//360
f 328//326 366//379 367//361
f 330//328 368//380 369//362
f 333//331 332//330 370//363
f 334//332 372//381 373//365
f 337//334 336//347 374//366
f 338//335 376//382 377//368
f 341//337 340//348 378//369
f 342//338 380//383 381//371
f 345//340 344//349 382//372
f 346//350 383//384 355//373
f 349//342 348//351 384//374
f 350//352 354//354 359//376
f 323//345 351//344 356//355
f 325//323 352//346 358//356
f 322//321 360//357 366//379
f 326//324 364//359 368//380
f 327//325 365//360 370//363
f 329//327 367//361 372//381
f 331//329 369//362 374//366
f 338//335 333//331 371//364
f 335//333 373//365 378//369
f 342//338 337//334 375//367
f 339//336 377//368 382//372
f 343//339 381//371 383//384
f 348//351 341//337 379//370
f 382//372 377//368 385//385
f 383//384 381//371 387//387
f 384//374 379//370 389//389
f 353//353 391//410 392//391
f 356//355 355//373 393//392
f 358//356 357//375 395//394
f 359//376 397//411 398//396
f 361//377 399//412 400//397
f 363//378 401//413 402//398
f 362//358 400//397 403//399
f 366//379 404//414 405//400
f 368//380 406//415 407//401
f 371//364 370//363 408//402
f 373//365 372//381 410//404
f 375//367 374//366 412//406
f 377//368 376//382 414//408
f 378//369 415//416 389//389
f 381//371 380//383 416//409
f 382//372 386//386 391//410
f 383//384 388//388 393//392
f 357//375 384//374 390//390
f 354//354 392//391 397//411
f 361//377 356//355 394//393
f 358//356 396//395 401//413
f 360//357 398//396 404//414
f 364//359 402//398 406//415
f 370//363 365//360 403//399
f 372//381 367//361 405//400
f 369//362 407//401 412//406
f 371//364 409//403 414//408
f 373//365 411//405 415//416
f 380//383 375//367 413//407
f 409//403 417//439 418//417
f 411//405 419//440 420//418
f 413//407 421//442 422//419
f 386//386 385//385 423//420
f 388//388 387//387 425//422
f 389//389 427//443 428//424
f 391//410 429//444 430//425
f 393//392 431//445 432//426
f 395//394 433//446 434//427
f 398//396 397//411 435//428
f 400//397 399//412 437//430
f 401//413 439//447 440//432
f 403//399 400//397 438//431
f 405//400 404//414 442//434
f 407//401 406//415 444//436
f 409//403 408//402 446//438
f 410//404 447//448 419//440
f 413//407 412//406 448//441
f 414//408 418//417 423//420
f 415//416 420//418 427//443
f 416//409 422//419 425//422
f 391//410 386//386 424//421
f 393//392 388//388 426//423
f 390//390 428//424 433//446
f 392//391 430//425 435//428
f 394//393 432//426 437//430
f 401//413 396//395 434//427
f 404//414 398//396 436//429
f 402//398 440//432 444//436
f 403//399 441//433 446//438
f 405//400 443//435 447//448
f 407//401 445//437 448//441
f 441//433 449//470 450//449
f 443//435 451//471 452//450
f 445//437 453//472 454//451
f 418//417 417//439 455//452
f 419//440 457//473 458//454
f 422//419 421//442 459//455
f 423//420 461//474 462//457
f 425//422 463//476 464//458
f 427//443 465//475 466//459
f 430//425 429//444 467//460
f 432//426 431//445 469//462
f 434//427 433//446 471//464
f 436//429 435//428 473//466
f 437//430 475//477 476//468
f 439//447 477//478 478//469
f 441//433 438//431 476//468
f 442//434 479//479 451//471
f 444//436 480//480 453//472
f 446//438 450//449 455//452
f 447//448 452//450 457//473
f 421//442 448//441 454//451
f 418//417 456//453 461//474
f 420//418 458//454 465//475
f 425//422 422//419 460//456
f 429//444 424//421 462//457
f 426//423 464//458 469//462
f 433//446 428//424 466//459
f 435//428 430//425 468//461
f 437//430 432//426 470//463
f 434//427 472//465 477//478
f 442//434 436//429 474//467
f 440//432 478//469 480//480
f 474//467 481//501 482//481
f 480//480 478//469 483//482
f 449//470 485//503 486//484
f 452//450 451//471 487//485
f 453//472 489//504 490//487
f 456//453 455//452 491//488
f 457//473 493//505 494//490
f 459//455 495//506 496//491
f 461//474 497//507 498//492
f 463//476 499//509 500//493
f 465//475 501//508 502//494
f 467//460 503//510 504//495
f 470//463 469//462 505//496
f 472//465 471//464 507//498
f 474//467 473//466 509//500
f 475//477 510//511 511//502
f 477//478 512//512 483//482
f 449//470 476//468 511//502
f 479//479 482//481 487//485
f 453//472 480//480 484//483
f 450//449 486//484 491//488
f 457//473 452//450 488//486
f 459//455 454//451 490//487
f 456//453 492//489 497//507
f 465//475 458//454 494//490
f 460//456 496//491 499//509
f 467//460 462//457 498//492
f 469//462 464//458 500//493
f 471//464 466//459 502//494
f 468//461 504//495 509//500
f 475//477 470//463 506//497
f 472//465 508//499 512//512
f 504//495 513//513 514//513
f 510//511 506//497 515//513
f 512//512 508//499 517//513
f 481//501 519//513 520//513
f 484//483 483//482 521//513
f 485//503 523//513 524//513
f 488//486 487//485 525//513
f 489//504 527//513 528//513
f 492//489 491//488 529//513
f 493//505 531//513 532//513
f 496//491 495//506 533//513
f 497//507 535//513 536//513
f 499//509 537//513 538//513
f 501//508 539//513 540//513
f 504//495 503//510 541//513
f 505//496 542//513 515//513
f 508//499 507//498 543//513
f 481//501 509//500 514//513
f 510//511 516//513 544//513
f 512//512 518//513 521//513
f 485//503 511//502 544//513
f 482//481 520//513 525//513
f 484//483 522//513 527//513
f 491//488 486//484 524//513
f 488//486 526//513 531//513
f 495//506 490//487 528//513
f 492//489 530//513 535//513
f 494//490 532//513 539//513
f 499//509 496//491 534//513
f 503//510 498//492 536//513
f 500//493 538//513 542//513
f 502//494 540//513 543//513
f 544//513 516//513 538//513
f 516//513 515//513 538//513
f 515//513 542//513 538//513
f 538//513 537//513 534//513
f 534//513 533//513 528//513
f 528//513 527//513 522//513
f 522//513 521//513 518//513
f 518//513 517//513 543//513
f 543//513 540//513 539//513
f 539//513 532//513 531//513
f 531//513 526//513 539//513
f 526//513 525//513 539//513
f 525//513 520//513 519//513
f 519//513 514//513 513//513
f 513//513 541//513 536//513
f 536//513 535//513 513//513
f 535//513 530//513 513//513
f 530//513 529//513 524//513
f 524//513 523//513 530//513
f 523//513 544//513 530//513
f 538//513 534//513 544//513
f 534//513 528//513 544//513
f 528//513 522//513 518//513
f 518//513 543//513 528//513
f 543//513 539//513 528//513
f 525//513 519//513 539//513
f 519//513 513//513 539//513
f 513//513 530//513 544//513
f 544//513 528//513 513//513
f 63//57 46//59 545//514
f 50//60 547//514 548//514
f 41//31 54//61 549//514
f 57//62 551//514 552//514
f 49//37 59//63 553//514
f 61//64 555//514 556//514
f 2//1 1//3 557//514
f 5//6 559//514 560//514
f 9//9 561//514 562//514
f 14//10 13//12 563//514
f 18//13 17//15 565//514
f 21//18 567//514 568//514
f 26//52 25//19 569//514
f 30//22 29//24 571//514
f 33//27 573//514 574//514
f 37//28 548//514 575//514
f 42//58 41//31 550//514
f 45//34 552//514 545//514
f 49//37 554//514 547//514
f 53//40 556//514 549//514
f 2//1 558//514 551//514
f 59//63 6//4 560//514
f 10//7 562//514 555//514
f 1//3 14//10 564//514
f 18//13 566//514 561//514
f 22//16 568//514 559//514
f 26//52 570//514 563//514
f 17//15 30//22 572//514
f 34//25 574//514 567//514
f 25//19 38//55 575//514
f 63//57 546//514 571//514
f 33//27 42//58 576//514
f 572//514 571//514 546//514
f 546//514 545//514 552//514
f 552//514 551//514 558//514
f 558//514 557//514 564//514
f 564//514 563//514 570//514
f 570//514 569//514 564//514
f 569//514 575//514 564//514
f 575//514 548//514 547//514
f 547//514 554//514 575//514
f 554//514 553//514 575//514
f 553//514 560//514 559//514
f 559//514 568//514 567//514
f 567//514 574//514 573//514
f 573//514 576//514 550//514
f 550//514 549//514 556//514
f 556//514 555//514 562//514
f 562//514 561//514 566//514
f 566//514 565//514 572//514
f 572//514 546//514 552//514
f 552//514 558//514 572//514
f 558//514 564//514 572//514
f 553//514 559//514 567//514
f 567//514 573//514 550//514
f 550//514 556//514 572//514
f 556//514 562//514 572//514
f 562//514 566//514 572//514
f 564//514 575//514 553//514
f 553//514 567//514 572//514
f 567//514 550//514 572//514
