# Blender v2.82 (sub 7) OBJ File: 'tea_time.blend'
# www.blender.org
o teapot_top_teapot_top.001
v 0.933348 2.008945 3.345376
v 0.909573 2.009040 3.362746
v 0.908629 2.038412 3.360984
v 0.932110 2.038318 3.343831
v 0.954112 2.008903 3.324504
v 0.952616 2.038276 3.323217
v 0.931573 1.979618 3.343416
v 0.908091 1.979711 3.360569
v 0.882216 1.979855 3.373841
v 0.883374 2.009186 3.376180
v 0.969114 1.979586 3.299227
v 0.952078 1.979575 3.322803
v 0.971354 2.008913 3.300641
v 0.926836 1.951069 3.337999
v 0.904222 1.951160 3.354517
v 0.879309 1.951298 3.367299
v 0.852697 1.951480 3.376019
v 0.854583 1.980044 3.382901
v 0.984214 1.951209 3.243816
v 0.975628 1.951100 3.270469
v 0.982248 1.979649 3.273285
v 0.991164 1.979763 3.245606
v 0.962978 1.951039 3.295452
v 0.946581 1.951029 3.318151
v 0.919247 1.923995 3.329258
v 0.898065 1.924079 3.344735
v 0.874722 1.924209 3.356705
v 0.849790 1.924379 3.364877
v 0.823892 1.924587 3.369048
v 0.825052 1.951702 3.380472
v 0.797660 1.924827 3.369117
v 0.797054 1.951957 3.380543
v 0.722629 1.927696 3.060108
v 0.745977 1.927567 3.048137
v 0.741889 1.954882 3.037929
v 0.716967 1.955020 3.050709
v 0.770902 1.927396 3.039964
v 0.768494 1.954700 3.029207
v 0.796803 1.927188 3.035791
v 0.796139 1.954478 3.024756
v 0.823037 1.926949 3.035723
v 0.824139 1.954222 3.024681
v 0.848955 1.926683 3.039761
v 0.851805 1.953939 3.028990
v 0.873926 1.926397 3.047801
v 0.878460 1.953634 3.037572
v 0.897330 1.926099 3.059650
v 0.903442 1.953316 3.050219
v 0.918591 1.925796 3.075014
v 0.926138 1.952992 3.066619
v 0.937189 1.925495 3.093514
v 0.945987 1.952671 3.086367
v 0.952662 1.925204 3.114700
v 0.962506 1.952360 3.108976
v 0.964630 1.924929 3.138043
v 0.975281 1.952067 3.133896
v 0.972802 1.924679 3.162970
v 0.984001 1.951799 3.160504
v 0.976972 1.924457 3.188869
v 0.988451 1.951563 3.188147
v 0.977040 1.924272 3.215102
v 0.988523 1.951365 3.216150
v 0.973004 1.924125 3.241023
v 0.964959 1.924023 3.265994
v 0.953110 1.923966 3.289399
v 0.937746 1.923957 3.310660
v 0.908993 1.899069 3.317410
v 0.889762 1.899145 3.331463
v 0.868565 1.899263 3.342329
v 0.845930 1.899418 3.349754
v 0.822412 1.899606 3.353539
v 0.798596 1.899824 3.353603
v 0.775061 1.900065 3.349937
v 0.771739 1.925093 3.365083
v 0.752390 1.900325 3.342634
v 0.746768 1.925378 3.357042
v 0.731139 1.900595 3.331877
v 0.723364 1.925676 3.345193
v 0.711833 1.900870 3.317928
v 0.702102 1.925979 3.329828
v 0.694946 1.901144 3.301129
v 0.683503 1.926280 3.311327
v 0.680898 1.901408 3.281895
v 0.668032 1.926571 3.290145
v 0.670028 1.901658 3.260701
v 0.656063 1.926846 3.266801
v 0.662609 1.901885 3.238066
v 0.647893 1.927097 3.241875
v 0.658824 1.902086 3.214548
v 0.643721 1.927318 3.215973
v 0.658764 1.902255 3.190728
v 0.643654 1.927504 3.189741
v 0.662430 1.902387 3.167193
v 0.647690 1.927650 3.163821
v 0.669733 1.902481 3.144520
v 0.655733 1.927753 3.138848
v 0.680491 1.902532 3.123271
v 0.667583 1.927809 3.115444
v 0.694440 1.902541 3.103964
v 0.682950 1.927819 3.094179
v 0.711240 1.902506 3.087077
v 0.701448 1.927781 3.075581
v 0.730472 1.902429 3.073026
v 0.751671 1.902312 3.062156
v 0.774305 1.902157 3.054737
v 0.797817 1.901968 3.050951
v 0.821638 1.901751 3.050886
v 0.845172 1.901509 3.054549
v 0.867846 1.901250 3.061852
v 0.889094 1.900980 3.072610
v 0.908401 1.900704 3.086561
v 0.925287 1.900431 3.103359
v 0.939339 1.900166 3.122590
v 0.950206 1.899917 3.143787
v 0.957621 1.899689 3.166423
v 0.961410 1.899489 3.189935
v 0.961472 1.899320 3.213757
v 0.957803 1.899187 3.237293
v 0.950503 1.899094 3.259965
v 0.939743 1.899043 3.281218
v 0.925791 1.899034 3.300528
v 0.896334 1.876897 3.302744
v 0.879525 1.876964 3.315025
v 0.860997 1.877066 3.324527
v 0.841215 1.877202 3.331013
v 0.820661 1.877367 3.334324
v 0.799842 1.877557 3.334378
v 0.779273 1.877768 3.331174
v 0.759456 1.877995 3.324791
v 0.740882 1.878231 3.315392
v 0.724008 1.878472 3.303198
v 0.709247 1.878711 3.288515
v 0.696970 1.878942 3.271703
v 0.687468 1.879159 3.253180
v 0.680987 1.879358 3.233397
v 0.677680 1.879534 3.212838
v 0.677622 1.879681 3.192022
v 0.680828 1.879797 3.171449
v 0.687212 1.879879 3.151634
v 0.696615 1.879924 3.133059
v 0.708809 1.879931 3.116185
v 0.723489 1.879901 3.101427
v 0.740302 1.879834 3.089145
v 0.758827 1.879731 3.079646
v 0.778609 1.879596 3.073160
v 0.799163 1.879431 3.069849
v 0.819982 1.879241 3.069795
v 0.840550 1.879030 3.072997
v 0.860369 1.878803 3.079378
v 0.878942 1.878567 3.088781
v 0.895816 1.878326 3.100975
v 0.910575 1.878087 3.115656
v 0.922853 1.877856 3.132468
v 0.932351 1.877638 3.150993
v 0.938837 1.877439 3.170776
v 0.942146 1.877264 3.191330
v 0.942200 1.877116 3.212148
v 0.938994 1.877000 3.232722
v 0.932612 1.876919 3.252539
v 0.923211 1.876874 3.271110
v 0.911018 1.876866 3.287986
v 0.881577 1.858029 3.285626
v 0.867600 1.858085 3.295832
v 0.852206 1.858170 3.303727
v 0.835758 1.858283 3.309121
v 0.818669 1.858420 3.311873
v 0.801366 1.858578 3.311916
v 0.784269 1.858753 3.309254
v 0.767796 1.858942 3.303949
v 0.752357 1.859138 3.296136
v 0.738328 1.859338 3.285999
v 0.726059 1.859537 3.273797
v 0.715851 1.859729 3.259820
v 0.707958 1.859910 3.244421
v 0.702569 1.860076 3.227975
v 0.699818 1.860222 3.210892
v 0.699773 1.860344 3.193587
v 0.702435 1.860440 3.176485
v 0.707742 1.860508 3.160013
v 0.715557 1.860546 3.144573
v 0.725695 1.860552 3.130547
v 0.737897 1.860527 3.118277
v 0.751872 1.860471 3.108069
v 0.767270 1.860386 3.100171
v 0.783714 1.860273 3.094780
v 0.800804 1.860136 3.092028
v 0.818110 1.859978 3.091982
v 0.835207 1.859802 3.094645
v 0.851677 1.859614 3.099952
v 0.867118 1.859418 3.107768
v 0.881145 1.859218 3.117904
v 0.893412 1.859019 3.130109
v 0.903622 1.858827 3.144081
v 0.911517 1.858646 3.159477
v 0.916908 1.858480 3.175925
v 0.919656 1.858334 3.193011
v 0.919701 1.858212 3.210316
v 0.917038 1.858116 3.227416
v 0.911732 1.858048 3.243890
v 0.903917 1.858010 3.259329
v 0.893780 1.858004 3.273358
v 0.865084 1.842930 3.266469
v 0.854291 1.842973 3.274354
v 0.842396 1.843039 3.280453
v 0.829695 1.843126 3.284615
v 0.816498 1.843232 3.286746
v 0.803131 1.843354 3.286778
v 0.789926 1.843489 3.284722
v 0.777202 1.843635 3.280624
v 0.765275 1.843786 3.274587
v 0.754443 1.843941 3.266757
v 0.744968 1.844094 3.257333
v 0.737082 1.844243 3.246541
v 0.730983 1.844383 3.234645
v 0.726822 1.844510 3.221941
v 0.724698 1.844623 3.208746
v 0.724660 1.844718 3.195382
v 0.726717 1.844792 3.182173
v 0.730818 1.844845 3.169450
v 0.736858 1.844873 3.157523
v 0.744688 1.844878 3.146690
v 0.754110 1.844859 3.137212
v 0.764901 1.844816 3.129331
v 0.776798 1.844750 3.123228
v 0.789498 1.844663 3.119066
v 0.802696 1.844557 3.116941
v 0.816061 1.844435 3.116908
v 0.829269 1.844299 3.118961
v 0.841990 1.844154 3.123062
v 0.853916 1.844002 3.129096
v 0.864749 1.843848 3.136922
v 0.874226 1.843694 3.146354
v 0.882111 1.843546 3.157144
v 0.888208 1.843406 3.169039
v 0.892372 1.843278 3.181741
v 0.894497 1.843166 3.194937
v 0.894528 1.843071 3.208304
v 0.892475 1.842996 3.221512
v 0.888373 1.842944 3.234233
v 0.882338 1.842915 3.246159
v 0.874509 1.842911 3.256995
v 0.847262 1.831971 3.245753
v 0.839916 1.832000 3.251117
v 0.831818 1.832045 3.255271
v 0.823172 1.832104 3.258105
v 0.814192 1.832176 3.259552
v 0.805096 1.832259 3.259575
v 0.796105 1.832352 3.258174
v 0.787443 1.832451 3.255389
v 0.779327 1.832554 3.251276
v 0.771952 1.832659 3.245950
v 0.765501 1.832764 3.239534
v 0.760133 1.832865 3.232187
v 0.755984 1.832960 3.224092
v 0.753150 1.833047 3.215446
v 0.751703 1.833123 3.206462
v 0.751682 1.833188 3.197363
v 0.753083 1.833239 3.188372
v 0.755871 1.833274 3.179713
v 0.759981 1.833294 3.171597
v 0.765309 1.833297 3.164222
v 0.771723 1.833284 3.157773
v 0.779070 1.833255 3.152409
v 0.787167 1.833210 3.148255
v 0.795813 1.833151 3.145419
v 0.804794 1.833079 3.143975
v 0.813890 1.832995 3.143952
v 0.822884 1.832903 3.145349
v 0.831540 1.832804 3.148140
v 0.839657 1.832701 3.152249
v 0.847034 1.832596 3.157576
v 0.853480 1.832491 3.163993
v 0.858846 1.832390 3.171339
v 0.863001 1.832295 3.179434
v 0.865835 1.832208 3.188080
v 0.867280 1.832131 3.197061
v 0.867305 1.832067 3.206158
v 0.865905 1.832016 3.215150
v 0.863113 1.831981 3.223812
v 0.859004 1.831961 3.231929
v 0.853679 1.831958 3.239300
v 0.828551 1.825423 3.223980
v 0.824832 1.825438 3.226697
v 0.820733 1.825460 3.228803
v 0.816357 1.825490 3.230235
v 0.811808 1.825527 3.230969
v 0.807202 1.825569 3.230980
v 0.802653 1.825616 3.230273
v 0.798267 1.825666 3.228860
v 0.794162 1.825718 3.226778
v 0.790425 1.825771 3.224083
v 0.787162 1.825824 3.220834
v 0.784444 1.825875 3.217115
v 0.782344 1.825924 3.213016
v 0.780907 1.825968 3.208639
v 0.780178 1.826006 3.204092
v 0.780164 1.826039 3.199487
v 0.780871 1.826065 3.194935
v 0.782287 1.826083 3.190550
v 0.784367 1.826093 3.186441
v 0.787065 1.826094 3.182708
v 0.790310 1.826088 3.179445
v 0.794031 1.826073 3.176729
v 0.798126 1.826050 3.174627
v 0.802505 1.826020 3.173190
v 0.807052 1.825984 3.172460
v 0.811657 1.825942 3.172447
v 0.816207 1.825895 3.173156
v 0.820591 1.825845 3.174568
v 0.824701 1.825792 3.176648
v 0.828434 1.825739 3.179346
v 0.831698 1.825686 3.182595
v 0.834416 1.825635 3.186314
v 0.836514 1.825587 3.190411
v 0.837951 1.825543 3.194788
v 0.838685 1.825504 3.199335
v 0.838696 1.825471 3.203942
v 0.837986 1.825446 3.208491
v 0.836575 1.825428 3.212875
v 0.834492 1.825418 3.216987
v 0.831797 1.825416 3.220717
v 0.809407 1.823445 3.201700
v 0.831945 2.196049 3.226597
v 0.828226 2.196064 3.229315
v 0.812844 2.198690 3.204350
v 0.824127 2.196087 3.231420
v 0.819751 2.196117 3.232852
v 0.815202 2.196154 3.233587
v 0.810596 2.196196 3.233597
v 0.806047 2.196242 3.232890
v 0.801661 2.196292 3.231477
v 0.797556 2.196345 3.229395
v 0.793819 2.196398 3.226700
v 0.790556 2.196451 3.223451
v 0.787838 2.196502 3.219732
v 0.785738 2.196550 3.215633
v 0.784302 2.196594 3.211257
v 0.783572 2.196633 3.206709
v 0.783559 2.196666 3.202104
v 0.784266 2.196692 3.197552
v 0.785681 2.196709 3.193167
v 0.787761 2.196719 3.189059
v 0.790459 2.196721 3.185325
v 0.793705 2.196714 3.182063
v 0.797425 2.196699 3.179347
v 0.801520 2.196677 3.177244
v 0.805897 2.196647 3.175812
v 0.810446 2.196610 3.175077
v 0.815051 2.196568 3.175065
v 0.819601 2.196522 3.175774
v 0.823985 2.196471 3.177185
v 0.828095 2.196419 3.179265
v 0.831829 2.196366 3.181963
v 0.835092 2.196313 3.185212
v 0.837810 2.196262 3.188931
v 0.839909 2.196214 3.193028
v 0.841345 2.196170 3.197405
v 0.842079 2.196131 3.201952
v 0.842090 2.196098 3.206559
v 0.841380 2.196073 3.211108
v 0.839969 2.196054 3.215492
v 0.837886 2.196044 3.219604
v 0.835191 2.196043 3.223334
v 0.850531 2.188850 3.248273
v 0.843184 2.188879 3.253638
v 0.835085 2.188924 3.257790
v 0.826440 2.188983 3.260625
v 0.817460 2.189055 3.262072
v 0.808364 2.189138 3.262095
v 0.799374 2.189231 3.260695
v 0.790711 2.189330 3.257909
v 0.782595 2.189433 3.253796
v 0.775220 2.189538 3.248470
v 0.768769 2.189642 3.242054
v 0.763401 2.189744 3.234707
v 0.759253 2.189839 3.226612
v 0.756419 2.189926 3.217966
v 0.754972 2.190002 3.208982
v 0.754951 2.190067 3.199883
v 0.756351 2.190118 3.190892
v 0.759139 2.190153 3.182233
v 0.763249 2.190173 3.174117
v 0.768577 2.190176 3.166742
v 0.774991 2.190163 3.160293
v 0.782338 2.190134 3.154929
v 0.790434 2.190089 3.150773
v 0.799082 2.190030 3.147941
v 0.808062 2.189958 3.146495
v 0.817158 2.189874 3.146472
v 0.826152 2.189782 3.147869
v 0.834808 2.189683 3.150660
v 0.842925 2.189580 3.154769
v 0.850302 2.189475 3.160096
v 0.856749 2.189370 3.166513
v 0.862115 2.189269 3.173859
v 0.866269 2.189174 3.181954
v 0.869103 2.189087 3.190601
v 0.870548 2.189010 3.199581
v 0.870570 2.188946 3.208681
v 0.869173 2.188895 3.217670
v 0.866381 2.188860 3.226332
v 0.862273 2.188840 3.234449
v 0.856947 2.188837 3.241820
v 0.910421 2.121268 3.088119
v 0.927307 2.120994 3.104917
v 0.913005 2.143425 3.117530
v 0.898245 2.143664 3.102849
v 0.941359 2.120730 3.124148
v 0.925284 2.143194 3.134344
v 0.952226 2.120481 3.145345
v 0.934781 2.142977 3.152867
v 0.959641 2.120253 3.167981
v 0.941267 2.142777 3.172650
v 0.963430 2.120052 3.191493
v 0.944576 2.142602 3.193204
v 0.963492 2.119884 3.215314
v 0.944630 2.142454 3.214022
v 0.959822 2.119751 3.238851
v 0.941424 2.142339 3.234595
v 0.952523 2.119658 3.261522
v 0.935042 2.142257 3.254413
v 0.941762 2.119606 3.282776
v 0.925641 2.142212 3.272983
v 0.927811 2.119597 3.302086
v 0.913448 2.142205 3.289860
v 0.911013 2.119632 3.318968
v 0.898764 2.142235 3.304618
v 0.920807 2.094352 3.330461
v 0.899625 2.094436 3.345938
v 0.891782 2.119709 3.333021
v 0.876282 2.094566 3.357908
v 0.870585 2.119827 3.343886
v 0.851351 2.094736 3.366080
v 0.847950 2.119981 3.351311
v 0.825452 2.094944 3.370251
v 0.824432 2.120170 3.355096
v 0.799220 2.095183 3.370320
v 0.800616 2.120388 3.355160
v 0.773299 2.095449 3.366286
v 0.777081 2.120629 3.351495
v 0.748328 2.095735 3.358245
v 0.754410 2.120888 3.344192
v 0.724924 2.096033 3.346396
v 0.733159 2.121159 3.333435
v 0.703662 2.096336 3.331031
v 0.713853 2.121434 3.319486
v 0.685063 2.096637 3.312530
v 0.696966 2.121707 3.302687
v 0.669593 2.096928 3.291348
v 0.682918 2.121972 3.283453
v 0.657623 2.097203 3.268003
v 0.672048 2.122221 3.262259
v 0.649453 2.097454 3.243078
v 0.664629 2.122449 3.239624
v 0.645281 2.097675 3.217176
v 0.660844 2.122650 3.216105
v 0.645214 2.097861 3.190944
v 0.660784 2.122818 3.192286
v 0.649250 2.098007 3.165024
v 0.664450 2.122951 3.168751
v 0.657293 2.098109 3.140051
v 0.671752 2.123044 3.146078
v 0.669143 2.098166 3.116647
v 0.682511 2.123096 3.124828
v 0.684510 2.098176 3.095382
v 0.696460 2.123104 3.105521
v 0.703009 2.098137 3.076784
v 0.713259 2.123070 3.088634
v 0.724189 2.098053 3.061311
v 0.732492 2.122993 3.074584
v 0.747537 2.097924 3.049340
v 0.753690 2.122875 3.063714
v 0.772462 2.097753 3.041167
v 0.776325 2.122720 3.056294
v 0.798363 2.097545 3.036994
v 0.799837 2.122532 3.052508
v 0.824597 2.097305 3.036926
v 0.823658 2.122314 3.052444
v 0.850515 2.097039 3.040964
v 0.847193 2.122073 3.056109
v 0.875486 2.096754 3.049004
v 0.869866 2.121814 3.063409
v 0.898890 2.096456 3.060853
v 0.891114 2.121543 3.074168
v 0.920151 2.096153 3.076217
v 0.938749 2.095852 3.094718
v 0.954223 2.095561 3.115903
v 0.966191 2.095286 3.139246
v 0.974362 2.095035 3.164173
v 0.978532 2.094814 3.190072
v 0.978600 2.094628 3.216305
v 0.974564 2.094482 3.242226
v 0.966519 2.094380 3.267197
v 0.954670 2.094323 3.290602
v 0.939306 2.094313 3.311863
v 0.927898 2.067026 3.338818
v 0.905284 2.067116 3.355336
v 0.880371 2.067254 3.368118
v 0.853759 2.067436 3.376838
v 0.826114 2.067658 3.381290
v 0.798116 2.067914 3.381361
v 0.770447 2.068197 3.377055
v 0.743793 2.068502 3.368475
v 0.718812 2.068820 3.355827
v 0.696116 2.069144 3.339427
v 0.676266 2.069465 3.319680
v 0.659751 2.069776 3.297068
v 0.646973 2.070069 3.272151
v 0.638253 2.070337 3.245543
v 0.633801 2.070573 3.217899
v 0.633731 2.070771 3.189896
v 0.638039 2.070927 3.162230
v 0.646623 2.071037 3.135574
v 0.659272 2.071097 3.110590
v 0.675672 2.071107 3.087895
v 0.695420 2.071067 3.068044
v 0.718029 2.070976 3.051528
v 0.742950 2.070838 3.038748
v 0.769556 2.070656 3.030025
v 0.797201 2.070434 3.025575
v 0.825202 2.070179 3.025500
v 0.852868 2.069895 3.029809
v 0.879523 2.069590 3.038390
v 0.904504 2.069272 3.051038
v 0.927200 2.068948 3.067438
v 0.947050 2.068627 3.087186
v 0.963568 2.068316 3.109795
v 0.976343 2.068023 3.134714
v 0.985063 2.067755 3.161322
v 0.989513 2.067519 3.188965
v 0.989585 2.067321 3.216969
v 0.985277 2.067165 3.244635
v 0.976690 2.067055 3.271288
v 0.964040 2.066995 3.296271
v 0.947643 2.066985 3.318969
v 0.882754 2.038555 3.374255
v 0.855120 2.038744 3.383316
v 0.826409 2.038974 3.387938
v 0.797330 2.039240 3.388016
v 0.768597 2.039535 3.383541
v 0.740919 2.039851 3.374628
v 0.714972 2.040182 3.361496
v 0.691401 2.040518 3.344464
v 0.670791 2.040851 3.323955
v 0.653638 2.041174 3.300472
v 0.640369 2.041478 3.274599
v 0.631313 2.041756 3.246962
v 0.626690 2.042001 3.218254
v 0.626616 2.042208 3.189172
v 0.631089 2.042369 3.160441
v 0.640005 2.042483 3.132760
v 0.653141 2.042546 3.106814
v 0.670174 2.042557 3.083242
v 0.690680 2.042515 3.062629
v 0.714162 2.042420 3.045476
v 0.740038 2.042277 3.032206
v 0.767671 2.042088 3.023145
v 0.796382 2.041858 3.018522
v 0.825461 2.041592 3.018443
v 0.854194 2.041297 3.022920
v 0.881871 2.040981 3.031832
v 0.907816 2.040651 3.044968
v 0.931387 2.040314 3.062000
v 0.952004 2.039981 3.082504
v 0.969152 2.039658 3.105987
v 0.982424 2.039354 3.131864
v 0.991481 2.039076 3.159496
v 0.996101 2.038831 3.188207
v 0.996179 2.038625 3.217286
v 0.991703 2.038463 3.246020
v 0.982785 2.038349 3.273700
v 0.969652 2.038286 3.299642
v 0.855397 2.009377 3.385351
v 0.826327 2.009610 3.390036
v 0.796887 2.009879 3.390110
v 0.767793 2.010178 3.385583
v 0.739770 2.010498 3.376558
v 0.713502 2.010832 3.363260
v 0.689641 2.011173 3.346014
v 0.668770 2.011510 3.325251
v 0.651402 2.011837 3.301475
v 0.637967 2.012146 3.275279
v 0.628797 2.012427 3.247301
v 0.624117 2.012675 3.218232
v 0.624040 2.012884 3.188792
v 0.628573 2.013048 3.159701
v 0.637599 2.013163 3.131674
v 0.650899 2.013227 3.105404
v 0.668146 2.013237 3.081541
v 0.688905 2.013194 3.060670
v 0.712682 2.013099 3.043302
v 0.738879 2.012954 3.029866
v 0.766858 2.012763 3.020692
v 0.795926 2.012530 3.016011
v 0.825366 2.012261 3.015937
v 0.854460 2.011962 3.020464
v 0.882483 2.011642 3.029489
v 0.908751 2.011307 3.042787
v 0.932611 2.010967 3.060031
v 0.953486 2.010629 3.080794
v 0.970853 2.010302 3.104568
v 0.984285 2.009994 3.130766
v 0.993455 2.009713 3.158745
v 0.998135 2.009465 3.187813
v 0.998207 2.009256 3.217255
v 0.993680 2.009092 3.246346
v 0.984654 2.008977 3.274371
v 0.825871 1.980274 3.387524
v 0.796792 1.980540 3.387602
v 0.768059 1.980835 3.383126
v 0.740381 1.981151 3.374213
v 0.714434 1.981481 3.361082
v 0.690864 1.981817 3.344050
v 0.670253 1.982151 3.323540
v 0.653100 1.982474 3.300057
v 0.639831 1.982778 3.274184
v 0.630776 1.983056 3.246548
v 0.626153 1.983301 3.217839
v 0.626078 1.983507 3.188758
v 0.630551 1.983669 3.160027
v 0.639468 1.983783 3.132345
v 0.652603 1.983846 3.106400
v 0.669636 1.983856 3.082827
v 0.690143 1.983814 3.062214
v 0.713625 1.983720 3.045062
v 0.739501 1.983577 3.031792
v 0.767133 1.983388 3.022730
v 0.795845 1.983158 3.018108
v 0.824923 1.982892 3.018029
v 0.853657 1.982597 3.022506
v 0.881333 1.982281 3.031417
v 0.907279 1.981950 3.044553
v 0.930849 1.981614 3.061585
v 0.951466 1.981281 3.082089
v 0.968615 1.980958 3.105573
v 0.981886 1.980654 3.131450
v 0.990943 1.980376 3.159082
v 0.995563 1.980131 3.187793
v 0.995641 1.979924 3.216872
v 0.769384 1.952241 3.376236
v 0.742731 1.952546 3.367656
v 0.717750 1.952864 3.355009
v 0.695054 1.953188 3.338609
v 0.675204 1.953509 3.318861
v 0.658689 1.953820 3.296249
v 0.645911 1.954113 3.271333
v 0.637191 1.954381 3.244725
v 0.632739 1.954617 3.217080
v 0.632669 1.954815 3.189078
v 0.636977 1.954971 3.161412
v 0.645561 1.955081 3.134755
v 0.658210 1.955141 3.109772
v 0.674610 1.955151 3.087076
v 0.694358 1.955111 3.067225
v 0.868145 2.177274 3.268829
v 0.857353 2.177318 3.276715
v 0.845458 2.177383 3.282814
v 0.832757 2.177470 3.286976
v 0.819561 2.177576 3.289103
v 0.806193 2.177698 3.289139
v 0.792988 2.177834 3.287083
v 0.780264 2.177979 3.282985
v 0.768337 2.178131 3.276948
v 0.757505 2.178286 3.269118
v 0.748030 2.178439 3.259694
v 0.740143 2.178587 3.248902
v 0.734045 2.178727 3.237006
v 0.729884 2.178855 3.224302
v 0.727760 2.178968 3.211107
v 0.727722 2.179062 3.197743
v 0.729779 2.179137 3.184534
v 0.733879 2.179189 3.171811
v 0.739919 2.179218 3.159884
v 0.747749 2.179223 3.149051
v 0.757171 2.179204 3.139573
v 0.767962 2.179160 3.131692
v 0.779860 2.179095 3.125589
v 0.792560 2.179008 3.121427
v 0.805758 2.178902 3.119302
v 0.819123 2.178779 3.119269
v 0.832331 2.178644 3.121322
v 0.845052 2.178499 3.125422
v 0.856977 2.178347 3.131457
v 0.867809 2.178192 3.139287
v 0.877287 2.178039 3.148715
v 0.885170 2.177891 3.159508
v 0.891270 2.177751 3.171400
v 0.895433 2.177623 3.184102
v 0.897559 2.177510 3.197298
v 0.897590 2.177416 3.210665
v 0.895536 2.177341 3.223873
v 0.891435 2.177289 3.236594
v 0.885399 2.177260 3.248520
v 0.877571 2.177255 3.259356
v 0.884354 2.161607 3.287766
v 0.870380 2.161663 3.297976
v 0.854985 2.161748 3.305871
v 0.838537 2.161861 3.311263
v 0.821449 2.161998 3.314017
v 0.804146 2.162156 3.314060
v 0.787049 2.162332 3.311398
v 0.770576 2.162520 3.306093
v 0.755137 2.162716 3.298280
v 0.741108 2.162916 3.288143
v 0.728838 2.163115 3.275941
v 0.718630 2.163307 3.261965
v 0.710738 2.163488 3.246565
v 0.705349 2.163654 3.230119
v 0.702598 2.163800 3.213035
v 0.702553 2.163922 3.195731
v 0.705215 2.164018 3.178629
v 0.710522 2.164086 3.162157
v 0.718337 2.164124 3.146717
v 0.728475 2.164130 3.132691
v 0.740677 2.164105 3.120420
v 0.754652 2.164049 3.110213
v 0.770050 2.163964 3.102315
v 0.786494 2.163851 3.096924
v 0.803584 2.163714 3.094172
v 0.820890 2.163556 3.094126
v 0.837987 2.163381 3.096788
v 0.854457 2.163192 3.102095
v 0.869898 2.162996 3.109912
v 0.883925 2.162796 3.120048
v 0.896192 2.162597 3.132253
v 0.906401 2.162405 3.146224
v 0.914297 2.162224 3.161622
v 0.919688 2.162058 3.178069
v 0.922436 2.161912 3.195154
v 0.922481 2.161790 3.212460
v 0.919818 2.161694 3.229559
v 0.914512 2.161626 3.246033
v 0.906697 2.161588 3.261473
v 0.896560 2.161582 3.275501
v 0.881955 2.142302 3.316899
v 0.863427 2.142404 3.326401
v 0.843645 2.142540 3.332886
v 0.823091 2.142705 3.336198
v 0.802272 2.142895 3.336251
v 0.781703 2.143106 3.333047
v 0.761886 2.143332 3.326665
v 0.743312 2.143569 3.317266
v 0.726438 2.143810 3.305071
v 0.711676 2.144048 3.290389
v 0.699399 2.144280 3.273577
v 0.689901 2.144497 3.255052
v 0.683417 2.144697 3.235271
v 0.680109 2.144872 3.214712
v 0.680052 2.145020 3.193896
v 0.683258 2.145135 3.173323
v 0.689642 2.145217 3.153507
v 0.699045 2.145262 3.134933
v 0.711239 2.145269 3.118058
v 0.725919 2.145239 3.103301
v 0.742732 2.145172 3.091019
v 0.761257 2.145069 3.081520
v 0.781039 2.144934 3.075034
v 0.801593 2.144769 3.071723
v 0.822412 2.144579 3.071669
v 0.842979 2.144368 3.074872
v 0.862799 2.144141 3.081251
v 0.881371 2.143905 3.090655
vn 0.5246 -0.0108 0.8512
vn 0.6514 -0.0113 0.7587
vn 0.5197 0.1451 0.8419
vn 0.6448 0.1446 0.7505
vn 0.7620 -0.0115 0.6474
vn 0.7541 0.1444 0.6406
vn 0.5168 -0.1665 0.8397
vn 0.6420 -0.1670 0.7483
vn 0.3850 -0.0100 0.9228
vn 0.3789 -0.1657 0.9105
vn 0.7513 -0.1672 0.6384
vn 0.8421 -0.1672 0.5128
vn 0.8539 -0.0115 0.5202
vn 0.4964 -0.3181 0.8077
vn 0.6169 -0.3186 0.7197
vn 0.3635 -0.3174 0.8758
vn 0.2316 -0.1647 0.9587
vn 0.2216 -0.3164 0.9224
vn 0.9121 -0.1669 0.3745
vn 0.8770 -0.3185 0.3596
vn 0.9228 -0.3179 0.2175
vn 0.9596 -0.1662 0.2270
vn 0.8097 -0.3188 0.4928
vn 0.7222 -0.3188 0.6138
vn 0.4638 -0.4620 0.7559
vn 0.5768 -0.4625 0.6734
vn 0.3392 -0.4614 0.8198
vn 0.2062 -0.4604 0.8634
vn 0.0742 -0.3153 0.9461
vn 0.0681 -0.4593 0.8856
vn -0.0750 -0.3139 0.9465
vn -0.0718 -0.4580 0.8860
vn -0.3691 -0.2983 -0.8802
vn -0.3475 -0.4434 -0.8262
vn -0.4720 -0.4427 -0.7623
vn -0.5020 -0.2975 -0.8121
vn -0.2272 -0.2993 -0.9267
vn -0.2145 -0.4443 -0.8698
vn -0.0799 -0.3004 -0.9504
vn -0.0764 -0.4454 -0.8920
vn 0.0694 -0.3018 -0.9508
vn 0.0636 -0.4467 -0.8924
vn 0.2169 -0.3033 -0.9279
vn 0.2018 -0.4481 -0.8709
vn 0.3590 -0.3049 -0.8821
vn 0.3350 -0.4497 -0.8280
vn 0.4922 -0.3066 -0.8147
vn 0.4599 -0.4513 -0.7647
vn 0.6132 -0.3084 -0.7272
vn 0.5733 -0.4529 -0.6828
vn 0.7190 -0.3101 -0.6219
vn 0.6724 -0.4545 -0.5841
vn 0.8071 -0.3117 -0.5014
vn 0.7550 -0.4560 -0.4711
vn 0.8752 -0.3133 -0.3685
vn 0.8189 -0.4575 -0.3466
vn 0.9217 -0.3147 -0.2267
vn 0.8624 -0.4588 -0.2136
vn 0.9454 -0.3160 -0.0793
vn 0.8847 -0.4600 -0.0755
vn 0.9458 -0.3171 0.0700
vn 0.8850 -0.4610 0.0644
vn 0.8635 -0.4618 0.2027
vn 0.8206 -0.4623 0.3359
vn 0.7574 -0.4626 0.4607
vn 0.6754 -0.4627 0.5741
vn 0.4198 -0.5947 0.6857
vn 0.5224 -0.5951 0.6106
vn 0.3066 -0.5940 0.7437
vn 0.1858 -0.5932 0.7833
vn 0.0602 -0.5922 0.8035
vn -0.0668 -0.5910 0.8039
vn -0.2101 -0.4566 0.8645
vn -0.1925 -0.5897 0.7843
vn -0.3433 -0.4552 0.8216
vn -0.3135 -0.5884 0.7453
vn -0.4681 -0.4535 0.7584
vn -0.4270 -0.5869 0.6879
vn -0.5815 -0.4519 0.6764
vn -0.5300 -0.5854 0.6135
vn -0.6807 -0.4503 0.5777
vn -0.6202 -0.5840 0.5237
vn -0.7633 -0.4487 0.4647
vn -0.6952 -0.5825 0.4211
vn -0.8271 -0.4473 0.3402
vn -0.7532 -0.5812 0.3080
vn -0.8707 -0.4459 0.2073
vn -0.7928 -0.5800 0.1871
vn -0.8930 -0.4447 0.0691
vn -0.8130 -0.5790 0.0615
vn -0.8933 -0.4437 -0.0708
vn -0.8133 -0.5781 -0.0656
vn -0.8718 -0.4430 -0.2091
vn -0.7938 -0.5773 -0.1912
vn -0.8289 -0.4425 -0.3423
vn -0.7548 -0.5769 -0.3123
vn -0.7656 -0.4422 -0.4671
vn -0.6973 -0.5766 -0.4257
vn -0.6837 -0.4421 -0.5806
vn -0.6229 -0.5765 -0.5288
vn -0.5850 -0.4423 -0.6798
vn -0.5332 -0.5767 -0.6189
vn -0.4305 -0.5771 -0.6939
vn -0.3173 -0.5777 -0.7519
vn -0.1965 -0.5786 -0.7916
vn -0.0710 -0.5796 -0.8118
vn 0.0561 -0.5807 -0.8121
vn 0.1818 -0.5820 -0.7926
vn 0.3028 -0.5834 -0.7536
vn 0.4163 -0.5849 -0.6962
vn 0.5193 -0.5863 -0.6217
vn 0.6094 -0.5878 -0.5321
vn 0.6845 -0.5892 -0.4294
vn 0.7425 -0.5905 -0.3161
vn 0.7821 -0.5918 -0.1953
vn 0.8023 -0.5928 -0.0699
vn 0.8026 -0.5937 0.0573
vn 0.7830 -0.5944 0.1830
vn 0.7441 -0.5949 0.3039
vn 0.6866 -0.5952 0.4174
vn 0.6121 -0.5952 0.5205
vn 0.3655 -0.7128 0.5986
vn 0.4554 -0.7131 0.5330
vn 0.2665 -0.7122 0.6494
vn 0.1608 -0.7115 0.6840
vn 0.0510 -0.7106 0.7017
vn -0.0603 -0.7096 0.7020
vn -0.1702 -0.7085 0.6849
vn -0.2761 -0.7072 0.6508
vn -0.3753 -0.7060 0.6006
vn -0.4655 -0.7047 0.5354
vn -0.5445 -0.7034 0.4569
vn -0.6101 -0.7022 0.3671
vn -0.6608 -0.7010 0.2681
vn -0.6955 -0.7000 0.1622
vn -0.7131 -0.6990 0.0525
vn -0.7135 -0.6982 -0.0587
vn -0.6963 -0.6976 -0.1687
vn -0.6622 -0.6972 -0.2746
vn -0.6120 -0.6969 -0.3739
vn -0.5468 -0.6969 -0.4640
vn -0.4683 -0.6970 -0.5429
vn -0.3784 -0.6974 -0.6086
vn -0.2795 -0.6980 -0.6593
vn -0.1737 -0.6987 -0.6940
vn -0.0639 -0.6995 -0.7117
vn 0.0473 -0.7006 -0.7120
vn 0.1573 -0.7017 -0.6949
vn 0.2632 -0.7029 -0.6608
vn 0.3625 -0.7042 -0.6105
vn 0.4526 -0.7055 -0.5453
vn 0.5315 -0.7067 -0.4669
vn 0.5971 -0.7080 -0.3770
vn 0.6479 -0.7091 -0.2780
vn 0.6826 -0.7102 -0.1723
vn 0.7002 -0.7111 -0.0624
vn 0.7005 -0.7119 0.0488
vn 0.6834 -0.7125 0.1587
vn 0.6493 -0.7130 0.2646
vn 0.5991 -0.7132 0.3639
vn 0.5339 -0.7132 0.4541
vn 0.3023 -0.8135 0.4968
vn 0.3771 -0.8137 0.4422
vn 0.2199 -0.8130 0.5391
vn 0.1319 -0.8124 0.5679
vn 0.0404 -0.8117 0.5827
vn -0.0522 -0.8108 0.5829
vn -0.1437 -0.8099 0.5687
vn -0.2318 -0.8089 0.5403
vn -0.3145 -0.8078 0.4985
vn -0.3896 -0.8068 0.4442
vn -0.4553 -0.8057 0.3789
vn -0.5099 -0.8047 0.3040
vn -0.5522 -0.8037 0.2215
vn -0.5810 -0.8028 0.1336
vn -0.5958 -0.8020 0.0422
vn -0.5960 -0.8014 -0.0504
vn -0.5818 -0.8008 -0.1420
vn -0.5534 -0.8005 -0.2302
vn -0.5115 -0.8003 -0.3128
vn -0.4572 -0.8003 -0.3879
vn -0.3919 -0.8004 -0.4536
vn -0.3171 -0.8007 -0.5082
vn -0.2347 -0.8011 -0.5505
vn -0.1466 -0.8018 -0.5794
vn -0.0552 -0.8025 -0.5941
vn 0.0374 -0.8033 -0.5943
vn 0.1290 -0.8043 -0.5801
vn 0.2171 -0.8053 -0.5516
vn 0.2998 -0.8063 -0.5098
vn 0.3748 -0.8074 -0.4556
vn 0.4405 -0.8085 -0.3903
vn 0.4951 -0.8095 -0.3155
vn 0.5374 -0.8104 -0.2330
vn 0.5663 -0.8113 -0.1450
vn 0.5810 -0.8121 -0.0535
vn 0.5812 -0.8128 0.0391
vn 0.5670 -0.8133 0.1306
vn 0.5386 -0.8137 0.2188
vn 0.4967 -0.8139 0.3014
vn 0.4425 -0.8139 0.3765
vn 0.2317 -0.8943 0.3828
vn 0.2896 -0.8945 0.3405
vn 0.1678 -0.8939 0.4155
vn 0.0997 -0.8935 0.4379
vn 0.0289 -0.8929 0.4493
vn -0.0429 -0.8922 0.4495
vn -0.1137 -0.8915 0.4385
vn -0.1820 -0.8907 0.4165
vn -0.2460 -0.8899 0.3840
vn -0.3041 -0.8891 0.3420
vn -0.3549 -0.8883 0.2915
vn -0.3972 -0.8874 0.2336
vn -0.4300 -0.8867 0.1697
vn -0.4523 -0.8860 0.1015
vn -0.4637 -0.8854 0.0308
vn -0.4639 -0.8849 -0.0409
vn -0.4528 -0.8845 -0.1119
vn -0.4308 -0.8842 -0.1801
vn -0.3984 -0.8841 -0.2441
vn -0.3565 -0.8841 -0.3022
vn -0.3059 -0.8842 -0.3530
vn -0.2479 -0.8844 -0.3954
vn -0.1841 -0.8848 -0.4281
vn -0.1159 -0.8852 -0.4505
vn -0.0451 -0.8858 -0.4618
vn 0.0265 -0.8864 -0.4620
vn 0.0974 -0.8872 -0.4510
vn 0.1657 -0.8879 -0.4290
vn 0.2296 -0.8888 -0.3967
vn 0.2878 -0.8896 -0.3546
vn 0.3387 -0.8904 -0.3040
vn 0.3809 -0.8912 -0.2461
vn 0.4137 -0.8920 -0.1823
vn 0.4360 -0.8926 -0.1141
vn 0.4474 -0.8932 -0.0433
vn 0.4476 -0.8938 0.0284
vn 0.4366 -0.8942 0.0992
vn 0.4146 -0.8944 0.1675
vn 0.3822 -0.8946 0.2315
vn 0.3402 -0.8946 0.2896
vn 0.1552 -0.9532 0.2593
vn 0.1949 -0.9534 0.2304
vn 0.1117 -0.9530 0.2817
vn 0.0650 -0.9526 0.2970
vn 0.0166 -0.9523 0.3048
vn -0.0324 -0.9518 0.3049
vn -0.0808 -0.9513 0.2974
vn -0.1275 -0.9508 0.2824
vn -0.1713 -0.9502 0.2602
vn -0.2110 -0.9496 0.2315
vn -0.2458 -0.9491 0.1969
vn -0.2748 -0.9485 0.1573
vn -0.2971 -0.9480 0.1136
vn -0.3124 -0.9476 0.0670
vn -0.3202 -0.9471 0.0186
vn -0.3203 -0.9468 -0.0304
vn -0.3128 -0.9465 -0.0789
vn -0.2977 -0.9463 -0.1256
vn -0.2756 -0.9462 -0.1693
vn -0.2469 -0.9462 -0.2090
vn -0.2123 -0.9463 -0.2438
vn -0.1726 -0.9464 -0.2727
vn -0.1291 -0.9467 -0.2951
vn -0.0824 -0.9470 -0.3104
vn -0.0339 -0.9474 -0.3182
vn 0.0150 -0.9478 -0.3183
vn 0.0635 -0.9483 -0.3108
vn 0.1102 -0.9489 -0.2957
vn 0.1539 -0.9494 -0.2736
vn 0.1936 -0.9500 -0.2449
vn 0.2284 -0.9506 -0.2102
vn 0.2573 -0.9511 -0.1707
vn 0.2797 -0.9516 -0.1271
vn 0.2950 -0.9521 -0.0804
vn 0.3028 -0.9525 -0.0320
vn 0.3029 -0.9528 0.0169
vn 0.2954 -0.9531 0.0655
vn 0.2803 -0.9533 0.1122
vn 0.2582 -0.9534 0.1559
vn 0.2295 -0.9534 0.1956
vn 0.0750 -0.9887 0.1294
vn 0.0953 -0.9888 0.1146
vn 0.0526 -0.9886 0.1409
vn 0.0287 -0.9884 0.1487
vn 0.0040 -0.9883 0.1527
vn -0.0212 -0.9880 0.1528
vn -0.0460 -0.9878 0.1490
vn -0.0700 -0.9875 0.1412
vn -0.0924 -0.9872 0.1298
vn -0.1127 -0.9869 0.1152
vn -0.1306 -0.9866 0.0974
vn -0.1455 -0.9863 0.0771
vn -0.1569 -0.9861 0.0548
vn -0.1647 -0.9858 0.0309
vn -0.1687 -0.9856 0.0060
vn -0.1688 -0.9854 -0.0191
vn -0.1650 -0.9853 -0.0440
vn -0.1572 -0.9852 -0.0679
vn -0.1458 -0.9852 -0.0903
vn -0.1311 -0.9851 -0.1107
vn -0.1134 -0.9852 -0.1285
vn -0.0931 -0.9853 -0.1433
vn -0.0708 -0.9854 -0.1548
vn -0.0468 -0.9855 -0.1627
vn -0.0220 -0.9857 -0.1667
vn 0.0031 -0.9860 -0.1668
vn 0.0279 -0.9862 -0.1629
vn 0.0519 -0.9865 -0.1552
vn 0.0743 -0.9868 -0.1438
vn 0.0947 -0.9871 -0.1291
vn 0.1126 -0.9874 -0.1113
vn 0.1274 -0.9876 -0.0910
vn 0.1388 -0.9879 -0.0686
vn 0.1467 -0.9882 -0.0448
vn 0.1507 -0.9884 -0.0200
vn 0.1507 -0.9886 0.0052
vn 0.1468 -0.9887 0.0300
vn 0.1392 -0.9888 0.0540
vn 0.1278 -0.9888 0.0764
vn 0.1131 -0.9889 0.0967
vn -0.0092 -0.9999 -0.0070
vn 0.0091 0.9999 0.0070
vn 0.0931 0.9853 0.1433
vn 0.1134 0.9852 0.1285
vn 0.0707 0.9854 0.1549
vn 0.0468 0.9855 0.1627
vn 0.0221 0.9857 0.1667
vn -0.0031 0.9860 0.1668
vn -0.0280 0.9862 0.1629
vn -0.0519 0.9865 0.1552
vn -0.0743 0.9868 0.1438
vn -0.0947 0.9871 0.1291
vn -0.1126 0.9874 0.1114
vn -0.1274 0.9876 0.0910
vn -0.1388 0.9879 0.0687
vn -0.1467 0.9882 0.0448
vn -0.1507 0.9884 0.0199
vn -0.1508 0.9886 -0.0051
vn -0.1469 0.9887 -0.0301
vn -0.1391 0.9888 -0.0540
vn -0.1278 0.9888 -0.0764
vn -0.1131 0.9889 -0.0968
vn -0.0953 0.9888 -0.1146
vn -0.0750 0.9887 -0.1294
vn -0.0526 0.9886 -0.1409
vn -0.0288 0.9884 -0.1487
vn -0.0040 0.9883 -0.1527
vn 0.0212 0.9880 -0.1528
vn 0.0460 0.9878 -0.1489
vn 0.0700 0.9875 -0.1412
vn 0.0924 0.9872 -0.1299
vn 0.1128 0.9869 -0.1151
vn 0.1306 0.9866 -0.0974
vn 0.1455 0.9863 -0.0771
vn 0.1569 0.9861 -0.0547
vn 0.1647 0.9858 -0.0309
vn 0.1688 0.9856 -0.0060
vn 0.1688 0.9854 0.0192
vn 0.1650 0.9853 0.0440
vn 0.1572 0.9852 0.0679
vn 0.1459 0.9851 0.0903
vn 0.1312 0.9851 0.1107
vn 0.1727 0.9464 0.2728
vn 0.2123 0.9463 0.2439
vn 0.1291 0.9467 0.2951
vn 0.0824 0.9470 0.3105
vn 0.0340 0.9474 0.3183
vn -0.0150 0.9478 0.3184
vn -0.0634 0.9483 0.3109
vn -0.1102 0.9489 0.2958
vn -0.1539 0.9494 0.2736
vn -0.1937 0.9500 0.2450
vn -0.2284 0.9505 0.2104
vn -0.2574 0.9511 0.1707
vn -0.2798 0.9516 0.1271
vn -0.2951 0.9521 0.0805
vn -0.3029 0.9525 0.0320
vn -0.3030 0.9528 -0.0170
vn -0.2954 0.9531 -0.0655
vn -0.2804 0.9533 -0.1122
vn -0.2582 0.9534 -0.1559
vn -0.2295 0.9534 -0.1957
vn -0.1949 0.9533 -0.2304
vn -0.1553 0.9532 -0.2593
vn -0.1117 0.9529 -0.2817
vn -0.0650 0.9526 -0.2970
vn -0.0166 0.9522 -0.3048
vn 0.0324 0.9518 -0.3050
vn 0.0809 0.9513 -0.2974
vn 0.1276 0.9507 -0.2824
vn 0.1713 0.9502 -0.2603
vn 0.2111 0.9496 -0.2315
vn 0.2459 0.9491 -0.1969
vn 0.2748 0.9485 -0.1574
vn 0.2972 0.9480 -0.1137
vn 0.3124 0.9475 -0.0670
vn 0.3203 0.9471 -0.0186
vn 0.3204 0.9468 0.0304
vn 0.3128 0.9465 0.0788
vn 0.2978 0.9463 0.1256
vn 0.2756 0.9462 0.1693
vn 0.2469 0.9462 0.2090
vn 0.5444 0.7035 -0.4569
vn 0.6202 0.5840 -0.5238
vn 0.5300 0.5854 -0.6135
vn 0.4655 0.7047 -0.5354
vn 0.6100 0.7022 -0.3670
vn 0.6952 0.5825 -0.4211
vn 0.6608 0.7011 -0.2680
vn 0.7533 0.5812 -0.3079
vn 0.6955 0.7000 -0.1623
vn 0.7928 0.5800 -0.1871
vn 0.7131 0.6991 -0.0525
vn 0.8130 0.5789 -0.0616
vn 0.7134 0.6983 0.0587
vn 0.8133 0.5780 0.0656
vn 0.6963 0.6976 0.1687
vn 0.7938 0.5773 0.1912
vn 0.6622 0.6972 0.2745
vn 0.7548 0.5768 0.3122
vn 0.6119 0.6970 0.3738
vn 0.6974 0.5766 0.4257
vn 0.5467 0.6969 0.4640
vn 0.6229 0.5765 0.5288
vn 0.4683 0.6971 0.5429
vn 0.5332 0.5767 0.6189
vn 0.4305 0.5771 0.6940
vn 0.4720 0.4427 0.7624
vn 0.5851 0.4423 0.6797
vn 0.3174 0.5777 0.7519
vn 0.3475 0.4434 0.8262
vn 0.1965 0.5785 0.7916
vn 0.2145 0.4443 0.8698
vn 0.0710 0.5795 0.8118
vn 0.0764 0.4454 0.8920
vn -0.0561 0.5807 0.8122
vn -0.0635 0.4467 0.8924
vn -0.1818 0.5820 0.7926
vn -0.2018 0.4481 0.8709
vn -0.3028 0.5834 0.7536
vn -0.3350 0.4497 0.8280
vn -0.4162 0.5848 0.6962
vn -0.4599 0.4512 0.7648
vn -0.5193 0.5863 0.6217
vn -0.5733 0.4529 0.6828
vn -0.6095 0.5877 0.5320
vn -0.6725 0.4545 0.5841
vn -0.6845 0.5892 0.4293
vn -0.7550 0.4560 0.4711
vn -0.7425 0.5905 0.3162
vn -0.8189 0.4575 0.3466
vn -0.7821 0.5917 0.1953
vn -0.8625 0.4588 0.2137
vn -0.8023 0.5928 0.0698
vn -0.8847 0.4600 0.0755
vn -0.8026 0.5937 -0.0573
vn -0.8850 0.4610 -0.0644
vn -0.7830 0.5944 -0.1830
vn -0.8635 0.4618 -0.2027
vn -0.7440 0.5949 -0.3040
vn -0.8206 0.4623 -0.3359
vn -0.6866 0.5952 -0.4174
vn -0.7574 0.4626 -0.4608
vn -0.6122 0.5952 -0.5205
vn -0.6754 0.4627 -0.5742
vn -0.5225 0.5950 -0.6106
vn -0.5767 0.4625 -0.6734
vn -0.4198 0.5947 -0.6857
vn -0.4637 0.4620 -0.7560
vn -0.3066 0.5940 -0.7437
vn -0.3392 0.4613 -0.8198
vn -0.1858 0.5932 -0.7833
vn -0.2063 0.4604 -0.8634
vn -0.0603 0.5922 -0.8035
vn -0.0681 0.4593 -0.8856
vn 0.0668 0.5910 -0.8039
vn 0.0718 0.4580 -0.8860
vn 0.1925 0.5897 -0.7843
vn 0.2101 0.4566 -0.8645
vn 0.3135 0.5883 -0.7453
vn 0.3433 0.4551 -0.8216
vn 0.4270 0.5869 -0.6879
vn 0.4682 0.4535 -0.7584
vn 0.5815 0.4519 -0.6764
vn 0.6807 0.4502 -0.5777
vn 0.7633 0.4487 -0.4647
vn 0.8271 0.4473 -0.3402
vn 0.8707 0.4459 -0.2073
vn 0.8930 0.4447 -0.0691
vn 0.8933 0.4437 0.0708
vn 0.8718 0.4430 0.2091
vn 0.8289 0.4424 0.3423
vn 0.7657 0.4421 0.4671
vn 0.6837 0.4421 0.5806
vn 0.5020 0.2975 0.8120
vn 0.6225 0.2970 0.7240
vn 0.3692 0.2983 0.8802
vn 0.2272 0.2993 0.9267
vn 0.0798 0.3005 0.9504
vn -0.0694 0.3018 0.9508
vn -0.2168 0.3033 0.9279
vn -0.3590 0.3049 0.8821
vn -0.4922 0.3067 0.8147
vn -0.6132 0.3084 0.7272
vn -0.7190 0.3101 0.6219
vn -0.8071 0.3117 0.5014
vn -0.8752 0.3133 0.3686
vn -0.9217 0.3147 0.2267
vn -0.9454 0.3160 0.0793
vn -0.9458 0.3170 -0.0700
vn -0.9228 0.3179 -0.2174
vn -0.8771 0.3185 -0.3596
vn -0.8096 0.3188 -0.4928
vn -0.7222 0.3188 -0.6138
vn -0.6169 0.3186 -0.7196
vn -0.4963 0.3181 -0.8077
vn -0.3635 0.3174 -0.8759
vn -0.2216 0.3164 -0.9224
vn -0.0742 0.3152 -0.9461
vn 0.0750 0.3139 -0.9465
vn 0.2225 0.3124 -0.9235
vn 0.3646 0.3107 -0.8777
vn 0.4978 0.3090 -0.8103
vn 0.6188 0.3073 -0.7229
vn 0.7246 0.3056 -0.6176
vn 0.8127 0.3040 -0.4970
vn 0.8809 0.3024 -0.3642
vn 0.9273 0.3010 -0.2223
vn 0.9511 0.2997 -0.0749
vn 0.9514 0.2987 0.0743
vn 0.9285 0.2978 0.2218
vn 0.8827 0.2972 0.3640
vn 0.8153 0.2969 0.4971
vn 0.7279 0.2969 0.6181
vn 0.3818 0.1458 0.9127
vn 0.2344 0.1469 0.9609
vn 0.0814 0.1481 0.9856
vn -0.0735 0.1496 0.9860
vn -0.2267 0.1511 0.9622
vn -0.3742 0.1528 0.9147
vn -0.5125 0.1546 0.8447
vn -0.6382 0.1563 0.7538
vn -0.7480 0.1581 0.6445
vn -0.8394 0.1598 0.5194
vn -0.9102 0.1614 0.3815
vn -0.9584 0.1630 0.2342
vn -0.9831 0.1643 0.0812
vn -0.9834 0.1654 -0.0738
vn -0.9596 0.1662 -0.2269
vn -0.9121 0.1668 -0.3745
vn -0.8421 0.1671 -0.5128
vn -0.7513 0.1672 -0.6384
vn -0.6420 0.1670 -0.7483
vn -0.5168 0.1664 -0.8397
vn -0.3789 0.1657 -0.9104
vn -0.2316 0.1647 -0.9587
vn -0.0786 0.1635 -0.9834
vn 0.0764 0.1620 -0.9838
vn 0.2295 0.1605 -0.9600
vn 0.3771 0.1588 -0.9124
vn 0.5154 0.1570 -0.8424
vn 0.6409 0.1552 -0.7517
vn 0.7508 0.1535 -0.6424
vn 0.8423 0.1517 -0.5172
vn 0.9130 0.1502 -0.3793
vn 0.9613 0.1487 -0.2320
vn 0.9859 0.1473 -0.0790
vn 0.9863 0.1462 0.0760
vn 0.9624 0.1454 0.2292
vn 0.9149 0.1448 0.3767
vn 0.8449 0.1445 0.5149
vn 0.2359 -0.0090 0.9717
vn 0.0810 -0.0078 0.9967
vn -0.0759 -0.0063 0.9971
vn -0.2309 -0.0047 0.9729
vn -0.3803 -0.0030 0.9248
vn -0.5203 -0.0013 0.8540
vn -0.6475 0.0005 0.7620
vn -0.7587 0.0024 0.6514
vn -0.8512 0.0041 0.5247
vn -0.9228 0.0057 0.3851
vn -0.9717 0.0072 0.2360
vn -0.9966 0.0085 0.0811
vn -0.9971 0.0096 -0.0758
vn -0.9729 0.0105 -0.2309
vn -0.9248 0.0111 -0.3802
vn -0.8539 0.0115 -0.5202
vn -0.7620 0.0115 -0.6474
vn -0.6514 0.0113 -0.7587
vn -0.5246 0.0108 -0.8512
vn -0.3851 0.0100 -0.9228
vn -0.2359 0.0090 -0.9717
vn -0.0809 0.0078 -0.9967
vn 0.0759 0.0063 -0.9971
vn 0.2309 0.0048 -0.9730
vn 0.3803 0.0031 -0.9248
vn 0.5203 0.0013 -0.8539
vn 0.6474 -0.0005 -0.7621
vn 0.7587 -0.0023 -0.6514
vn 0.8513 -0.0041 -0.5247
vn 0.9228 -0.0057 -0.3851
vn 0.9717 -0.0072 -0.2360
vn 0.9967 -0.0085 -0.0810
vn 0.9971 -0.0096 0.0758
vn 0.9729 -0.0105 0.2308
vn 0.9248 -0.0111 0.3802
vn 0.0786 -0.1635 0.9834
vn -0.0764 -0.1621 0.9838
vn -0.2296 -0.1606 0.9599
vn -0.3770 -0.1588 0.9125
vn -0.5153 -0.1570 0.8425
vn -0.6410 -0.1552 0.7516
vn -0.7509 -0.1534 0.6423
vn -0.8423 -0.1517 0.5172
vn -0.9130 -0.1502 0.3793
vn -0.9613 -0.1487 0.2320
vn -0.9859 -0.1474 0.0790
vn -0.9863 -0.1463 -0.0760
vn -0.9625 -0.1454 -0.2291
vn -0.9149 -0.1448 -0.3767
vn -0.8449 -0.1444 -0.5150
vn -0.7541 -0.1444 -0.6406
vn -0.6448 -0.1446 -0.7505
vn -0.5196 -0.1451 -0.8419
vn -0.3818 -0.1459 -0.9127
vn -0.2344 -0.1469 -0.9609
vn -0.0814 -0.1481 -0.9856
vn 0.0735 -0.1495 -0.9860
vn 0.2267 -0.1511 -0.9622
vn 0.3742 -0.1528 -0.9146
vn 0.5125 -0.1545 -0.8446
vn 0.6381 -0.1563 -0.7539
vn 0.7480 -0.1581 -0.6446
vn 0.8394 -0.1598 -0.5194
vn 0.9101 -0.1614 -0.3815
vn 0.9584 -0.1630 -0.2342
vn 0.9831 -0.1642 -0.0812
vn 0.9835 -0.1653 0.0738
vn -0.2225 -0.3123 0.9235
vn -0.3646 -0.3107 0.8778
vn -0.4978 -0.3091 0.8103
vn -0.6188 -0.3074 0.7229
vn -0.7247 -0.3056 0.6176
vn -0.8127 -0.3039 0.4970
vn -0.8808 -0.3024 0.3642
vn -0.9273 -0.3009 0.2224
vn -0.9511 -0.2997 0.0750
vn -0.9514 -0.2986 -0.0743
vn -0.9285 -0.2978 -0.2218
vn -0.8827 -0.2972 -0.3639
vn -0.8153 -0.2969 -0.4971
vn -0.7278 -0.2969 -0.6182
vn -0.6225 -0.2970 -0.7240
vn 0.2480 0.8844 0.3954
vn 0.3059 0.8842 0.3531
vn 0.1841 0.8847 0.4281
vn 0.1160 0.8852 0.4505
vn 0.0452 0.8858 0.4618
vn -0.0265 0.8864 0.4621
vn -0.0974 0.8872 0.4510
vn -0.1657 0.8879 0.4290
vn -0.2297 0.8888 0.3966
vn -0.2878 0.8896 0.3546
vn -0.3386 0.8904 0.3041
vn -0.3809 0.8912 0.2461
vn -0.4137 0.8919 0.1822
vn -0.4360 0.8926 0.1141
vn -0.4474 0.8932 0.0434
vn -0.4476 0.8938 -0.0283
vn -0.4366 0.8942 -0.0993
vn -0.4146 0.8944 -0.1676
vn -0.3822 0.8946 -0.2315
vn -0.3402 0.8946 -0.2896
vn -0.2896 0.8945 -0.3405
vn -0.2317 0.8943 -0.3828
vn -0.1679 0.8939 -0.4155
vn -0.0996 0.8935 -0.4379
vn -0.0288 0.8929 -0.4493
vn 0.0428 0.8922 -0.4494
vn 0.1137 0.8915 -0.4384
vn 0.1820 0.8907 -0.4165
vn 0.2459 0.8899 -0.3841
vn 0.3041 0.8891 -0.3421
vn 0.3549 0.8883 -0.2915
vn 0.3972 0.8875 -0.2336
vn 0.4299 0.8867 -0.1698
vn 0.4523 0.8860 -0.1016
vn 0.4637 0.8854 -0.0307
vn 0.4639 0.8849 0.0409
vn 0.4529 0.8845 0.1118
vn 0.4309 0.8842 0.1801
vn 0.3985 0.8841 0.2440
vn 0.3565 0.8841 0.3022
vn 0.3171 0.8007 0.5082
vn 0.3919 0.8004 0.4536
vn 0.2347 0.8012 0.5505
vn 0.1467 0.8018 0.5793
vn 0.0552 0.8025 0.5940
vn -0.0374 0.8034 0.5943
vn -0.1289 0.8043 0.5800
vn -0.2171 0.8053 0.5517
vn -0.2997 0.8064 0.5098
vn -0.3747 0.8074 0.4556
vn -0.4404 0.8085 0.3903
vn -0.4952 0.8095 0.3154
vn -0.5374 0.8105 0.2329
vn -0.5662 0.8114 0.1450
vn -0.5810 0.8122 0.0536
vn -0.5812 0.8128 -0.0390
vn -0.5669 0.8133 -0.1306
vn -0.5385 0.8137 -0.2188
vn -0.4967 0.8139 -0.3014
vn -0.4425 0.8139 -0.3764
vn -0.3771 0.8138 -0.4422
vn -0.3023 0.8135 -0.4968
vn -0.2199 0.8130 -0.5391
vn -0.1319 0.8124 -0.5679
vn -0.0404 0.8117 -0.5827
vn 0.0522 0.8108 -0.5829
vn 0.1438 0.8099 -0.5687
vn 0.2319 0.8089 -0.5402
vn 0.3145 0.8079 -0.4984
vn 0.3896 0.8068 -0.4441
vn 0.4552 0.8057 -0.3789
vn 0.5099 0.8047 -0.3041
vn 0.5522 0.8037 -0.2216
vn 0.5810 0.8028 -0.1336
vn 0.5958 0.8020 -0.0421
vn 0.5960 0.8014 0.0504
vn 0.5817 0.8009 0.1420
vn 0.5533 0.8005 0.2301
vn 0.5115 0.8003 0.3128
vn 0.4572 0.8003 0.3879
vn 0.3785 0.6975 0.6085
vn 0.2794 0.6980 0.6593
vn 0.1738 0.6988 0.6939
vn 0.0638 0.6996 0.7116
vn -0.0474 0.7006 0.7119
vn -0.1573 0.7018 0.6948
vn -0.2631 0.7030 0.6607
vn -0.3624 0.7042 0.6105
vn -0.4526 0.7055 0.5453
vn -0.5315 0.7067 0.4668
vn -0.5972 0.7080 0.3770
vn -0.6478 0.7092 0.2780
vn -0.6825 0.7103 0.1723
vn -0.7002 0.7112 0.0625
vn -0.7005 0.7120 -0.0488
vn -0.6834 0.7126 -0.1588
vn -0.6493 0.7130 -0.2646
vn -0.5990 0.7132 -0.3639
vn -0.5338 0.7133 -0.4540
vn -0.4554 0.7132 -0.5329
vn -0.3655 0.7128 -0.5986
vn -0.2665 0.7122 -0.6493
vn -0.1608 0.7115 -0.6840
vn -0.0510 0.7106 -0.7017
vn 0.0603 0.7096 -0.7020
vn 0.1702 0.7085 -0.6849
vn 0.2761 0.7073 -0.6507
vn 0.3754 0.7060 -0.6005
s 1
f 2//1 1//2 3//3
f 1//2 4//4 3//3
f 4//4 1//2 5//5
f 5//5 6//6 4//4
f 2//1 8//7 7//8
f 7//8 1//2 2//1
f 10//9 9//10 8//7
f 8//7 2//1 10//9
f 5//5 12//11 11//12
f 11//12 13//13 5//5
f 1//2 7//8 12//11
f 5//5 1//2 12//11
f 8//7 15//14 14//15
f 14//15 7//8 8//7
f 9//10 16//16 15//14
f 15//14 8//7 9//10
f 18//17 17//18 16//16
f 16//16 9//10 18//17
f 21//19 20//20 19//21
f 19//21 22//22 21//19
f 11//12 23//23 20//20
f 20//20 21//19 11//12
f 12//11 24//24 23//23
f 23//23 11//12 12//11
f 7//8 14//15 24//24
f 24//24 12//11 7//8
f 15//14 26//25 25//26
f 25//26 14//15 15//14
f 16//16 27//27 26//25
f 26//25 15//14 16//16
f 17//18 28//28 27//27
f 27//27 16//16 17//18
f 30//29 29//30 28//28
f 28//28 17//18 30//29
f 32//31 31//32 29//30
f 29//30 30//29 32//31
f 35//33 34//34 33//35
f 33//35 36//36 35//33
f 38//37 37//38 34//34
f 34//34 35//33 38//37
f 40//39 39//40 37//38
f 37//38 38//37 40//39
f 42//41 41//42 39//40
f 39//40 40//39 42//41
f 44//43 43//44 41//42
f 41//42 42//41 44//43
f 46//45 45//46 43//44
f 43//44 44//43 46//45
f 48//47 47//48 45//46
f 45//46 46//45 48//47
f 50//49 49//50 47//48
f 47//48 48//47 50//49
f 52//51 51//52 49//50
f 49//50 50//49 52//51
f 54//53 53//54 51//52
f 51//52 52//51 54//53
f 56//55 55//56 53//54
f 53//54 54//53 56//55
f 58//57 57//58 55//56
f 55//56 56//55 58//57
f 60//59 59//60 57//58
f 57//58 58//57 60//59
f 62//61 61//62 59//60
f 59//60 60//59 62//61
f 19//21 63//63 61//62
f 61//62 62//61 19//21
f 20//20 64//64 63//63
f 63//63 19//21 20//20
f 23//23 65//65 64//64
f 64//64 20//20 23//23
f 24//24 66//66 65//65
f 65//65 23//23 24//24
f 14//15 25//26 66//66
f 66//66 24//24 14//15
f 26//25 68//67 67//68
f 67//68 25//26 26//25
f 27//27 69//69 68//67
f 68//67 26//25 27//27
f 28//28 70//70 69//69
f 69//69 27//27 28//28
f 29//30 71//71 70//70
f 70//70 28//28 29//30
f 31//32 72//72 71//71
f 71//71 29//30 31//32
f 74//73 73//74 72//72
f 72//72 31//32 74//73
f 76//75 75//76 73//74
f 73//74 74//73 76//75
f 78//77 77//78 75//76
f 75//76 76//75 78//77
f 80//79 79//80 77//78
f 77//78 78//77 80//79
f 82//81 81//82 79//80
f 79//80 80//79 82//81
f 84//83 83//84 81//82
f 81//82 82//81 84//83
f 86//85 85//86 83//84
f 83//84 84//83 86//85
f 88//87 87//88 85//86
f 85//86 86//85 88//87
f 90//89 89//90 87//88
f 87//88 88//87 90//89
f 92//91 91//92 89//90
f 89//90 90//89 92//91
f 94//93 93//94 91//92
f 91//92 92//91 94//93
f 96//95 95//96 93//94
f 93//94 94//93 96//95
f 98//97 97//98 95//96
f 95//96 96//95 98//97
f 100//99 99//100 97//98
f 97//98 98//97 100//99
f 102//101 101//102 99//100
f 99//100 100//99 102//101
f 33//35 103//103 101//102
f 101//102 102//101 33//35
f 34//34 104//104 103//103
f 103//103 33//35 34//34
f 37//38 105//105 104//104
f 104//104 34//34 37//38
f 39//40 106//106 105//105
f 105//105 37//38 39//40
f 41//42 107//107 106//106
f 106//106 39//40 41//42
f 43//44 108//108 107//107
f 107//107 41//42 43//44
f 45//46 109//109 108//108
f 108//108 43//44 45//46
f 47//48 110//110 109//109
f 109//109 45//46 47//48
f 49//50 111//111 110//110
f 110//110 47//48 49//50
f 51//52 112//112 111//111
f 111//111 49//50 51//52
f 53//54 113//113 112//112
f 112//112 51//52 53//54
f 55//56 114//114 113//113
f 113//113 53//54 55//56
f 57//58 115//115 114//114
f 114//114 55//56 57//58
f 59//60 116//116 115//115
f 115//115 57//58 59//60
f 61//62 117//117 116//116
f 116//116 59//60 61//62
f 63//63 118//118 117//117
f 117//117 61//62 63//63
f 64//64 119//119 118//118
f 118//118 63//63 64//64
f 65//65 120//120 119//119
f 119//119 64//64 65//65
f 66//66 121//121 120//120
f 120//120 65//65 66//66
f 25//26 67//68 121//121
f 121//121 66//66 25//26
f 68//67 123//122 122//123
f 122//123 67//68 68//67
f 69//69 124//124 123//122
f 123//122 68//67 69//69
f 70//70 125//125 124//124
f 124//124 69//69 70//70
f 71//71 126//126 125//125
f 125//125 70//70 71//71
f 72//72 127//127 126//126
f 126//126 71//71 72//72
f 73//74 128//128 127//127
f 127//127 72//72 73//74
f 75//76 129//129 128//128
f 128//128 73//74 75//76
f 77//78 130//130 129//129
f 129//129 75//76 77//78
f 79//80 131//131 130//130
f 130//130 77//78 79//80
f 81//82 132//132 131//131
f 131//131 79//80 81//82
f 83//84 133//133 132//132
f 132//132 81//82 83//84
f 85//86 134//134 133//133
f 133//133 83//84 85//86
f 87//88 135//135 134//134
f 134//134 85//86 87//88
f 89//90 136//136 135//135
f 135//135 87//88 89//90
f 91//92 137//137 136//136
f 136//136 89//90 91//92
f 93//94 138//138 137//137
f 137//137 91//92 93//94
f 95//96 139//139 138//138
f 138//138 93//94 95//96
f 97//98 140//140 139//139
f 139//139 95//96 97//98
f 99//100 141//141 140//140
f 140//140 97//98 99//100
f 101//102 142//142 141//141
f 141//141 99//100 101//102
f 103//103 143//143 142//142
f 142//142 101//102 103//103
f 104//104 144//144 143//143
f 143//143 103//103 104//104
f 105//105 145//145 144//144
f 144//144 104//104 105//105
f 106//106 146//146 145//145
f 145//145 105//105 106//106
f 107//107 147//147 146//146
f 146//146 106//106 107//107
f 108//108 148//148 147//147
f 147//147 107//107 108//108
f 109//109 149//149 148//148
f 148//148 108//108 109//109
f 110//110 150//150 149//149
f 149//149 109//109 110//110
f 111//111 151//151 150//150
f 150//150 110//110 111//111
f 112//112 152//152 151//151
f 151//151 111//111 112//112
f 113//113 153//153 152//152
f 152//152 112//112 113//113
f 114//114 154//154 153//153
f 153//153 113//113 114//114
f 115//115 155//155 154//154
f 154//154 114//114 115//115
f 116//116 156//156 155//155
f 155//155 115//115 116//116
f 117//117 157//157 156//156
f 156//156 116//116 117//117
f 118//118 158//158 157//157
f 157//157 117//117 118//118
f 119//119 159//159 158//158
f 158//158 118//118 119//119
f 120//120 160//160 159//159
f 159//159 119//119 120//120
f 121//121 161//161 160//160
f 160//160 120//120 121//121
f 67//68 122//123 161//161
f 161//161 121//121 67//68
f 123//122 163//162 162//163
f 162//163 122//123 123//122
f 124//124 164//164 163//162
f 163//162 123//122 124//124
f 125//125 165//165 164//164
f 164//164 124//124 125//125
f 126//126 166//166 165//165
f 165//165 125//125 126//126
f 127//127 167//167 166//166
f 166//166 126//126 127//127
f 128//128 168//168 167//167
f 167//167 127//127 128//128
f 129//129 169//169 168//168
f 168//168 128//128 129//129
f 130//130 170//170 169//169
f 169//169 129//129 130//130
f 131//131 171//171 170//170
f 170//170 130//130 131//131
f 132//132 172//172 171//171
f 171//171 131//131 132//132
f 133//133 173//173 172//172
f 172//172 132//132 133//133
f 134//134 174//174 173//173
f 173//173 133//133 134//134
f 135//135 175//175 174//174
f 174//174 134//134 135//135
f 136//136 176//176 175//175
f 175//175 135//135 136//136
f 137//137 177//177 176//176
f 176//176 136//136 137//137
f 138//138 178//178 177//177
f 177//177 137//137 138//138
f 139//139 179//179 178//178
f 178//178 138//138 139//139
f 140//140 180//180 179//179
f 179//179 139//139 140//140
f 141//141 181//181 180//180
f 180//180 140//140 141//141
f 142//142 182//182 181//181
f 181//181 141//141 142//142
f 143//143 183//183 182//182
f 182//182 142//142 143//143
f 144//144 184//184 183//183
f 183//183 143//143 144//144
f 145//145 185//185 184//184
f 184//184 144//144 145//145
f 146//146 186//186 185//185
f 185//185 145//145 146//146
f 147//147 187//187 186//186
f 186//186 146//146 147//147
f 148//148 188//188 187//187
f 187//187 147//147 148//148
f 149//149 189//189 188//188
f 188//188 148//148 149//149
f 150//150 190//190 189//189
f 189//189 149//149 150//150
f 151//151 191//191 190//190
f 190//190 150//150 151//151
f 152//152 192//192 191//191
f 191//191 151//151 152//152
f 153//153 193//193 192//192
f 192//192 152//152 153//153
f 154//154 194//194 193//193
f 193//193 153//153 154//154
f 155//155 195//195 194//194
f 194//194 154//154 155//155
f 156//156 196//196 195//195
f 195//195 155//155 156//156
f 157//157 197//197 196//196
f 196//196 156//156 157//157
f 158//158 198//198 197//197
f 197//197 157//157 158//158
f 159//159 199//199 198//198
f 198//198 158//158 159//159
f 160//160 200//200 199//199
f 199//199 159//159 160//160
f 161//161 201//201 200//200
f 200//200 160//160 161//161
f 122//123 162//163 201//201
f 201//201 161//161 122//123
f 163//162 203//202 202//203
f 202//203 162//163 163//162
f 164//164 204//204 203//202
f 203//202 163//162 164//164
f 165//165 205//205 204//204
f 204//204 164//164 165//165
f 166//166 206//206 205//205
f 205//205 165//165 166//166
f 167//167 207//207 206//206
f 206//206 166//166 167//167
f 168//168 208//208 207//207
f 207//207 167//167 168//168
f 169//169 209//209 208//208
f 208//208 168//168 169//169
f 170//170 210//210 209//209
f 209//209 169//169 170//170
f 171//171 211//211 210//210
f 210//210 170//170 171//171
f 172//172 212//212 211//211
f 211//211 171//171 172//172
f 173//173 213//213 212//212
f 212//212 172//172 173//173
f 174//174 214//214 213//213
f 213//213 173//173 174//174
f 175//175 215//215 214//214
f 214//214 174//174 175//175
f 176//176 216//216 215//215
f 215//215 175//175 176//176
f 177//177 217//217 216//216
f 216//216 176//176 177//177
f 178//178 218//218 217//217
f 217//217 177//177 178//178
f 179//179 219//219 218//218
f 218//218 178//178 179//179
f 180//180 220//220 219//219
f 219//219 179//179 180//180
f 181//181 221//221 220//220
f 220//220 180//180 181//181
f 182//182 222//222 221//221
f 221//221 181//181 182//182
f 183//183 223//223 222//222
f 222//222 182//182 183//183
f 184//184 224//224 223//223
f 223//223 183//183 184//184
f 185//185 225//225 224//224
f 224//224 184//184 185//185
f 186//186 226//226 225//225
f 225//225 185//185 186//186
f 187//187 227//227 226//226
f 226//226 186//186 187//187
f 188//188 228//228 227//227
f 227//227 187//187 188//188
f 189//189 229//229 228//228
f 228//228 188//188 189//189
f 190//190 230//230 229//229
f 229//229 189//189 190//190
f 191//191 231//231 230//230
f 230//230 190//190 191//191
f 192//192 232//232 231//231
f 231//231 191//191 192//192
f 193//193 233//233 232//232
f 232//232 192//192 193//193
f 194//194 234//234 233//233
f 233//233 193//193 194//194
f 195//195 235//235 234//234
f 234//234 194//194 195//195
f 196//196 236//236 235//235
f 235//235 195//195 196//196
f 197//197 237//237 236//236
f 236//236 196//196 197//197
f 198//198 238//238 237//237
f 237//237 197//197 198//198
f 199//199 239//239 238//238
f 238//238 198//198 199//199
f 200//200 240//240 239//239
f 239//239 199//199 200//200
f 201//201 241//241 240//240
f 240//240 200//200 201//201
f 162//163 202//203 241//241
f 241//241 201//201 162//163
f 203//202 243//242 242//243
f 242//243 202//203 203//202
f 204//204 244//244 243//242
f 243//242 203//202 204//204
f 205//205 245//245 244//244
f 244//244 204//204 205//205
f 206//206 246//246 245//245
f 245//245 205//205 206//206
f 207//207 247//247 246//246
f 246//246 206//206 207//207
f 208//208 248//248 247//247
f 247//247 207//207 208//208
f 209//209 249//249 248//248
f 248//248 208//208 209//209
f 210//210 250//250 249//249
f 249//249 209//209 210//210
f 211//211 251//251 250//250
f 250//250 210//210 211//211
f 212//212 252//252 251//251
f 251//251 211//211 212//212
f 213//213 253//253 252//252
f 252//252 212//212 213//213
f 214//214 254//254 253//253
f 253//253 213//213 214//214
f 215//215 255//255 254//254
f 254//254 214//214 215//215
f 216//216 256//256 255//255
f 255//255 215//215 216//216
f 217//217 257//257 256//256
f 256//256 216//216 217//217
f 218//218 258//258 257//257
f 257//257 217//217 218//218
f 219//219 259//259 258//258
f 258//258 218//218 219//219
f 220//220 260//260 259//259
f 259//259 219//219 220//220
f 221//221 261//261 260//260
f 260//260 220//220 221//221
f 222//222 262//262 261//261
f 261//261 221//221 222//222
f 223//223 263//263 262//262
f 262//262 222//222 223//223
f 224//224 264//264 263//263
f 263//263 223//223 224//224
f 225//225 265//265 264//264
f 264//264 224//224 225//225
f 226//226 266//266 265//265
f 265//265 225//225 226//226
f 227//227 267//267 266//266
f 266//266 226//226 227//227
f 228//228 268//268 267//267
f 267//267 227//227 228//228
f 229//229 269//269 268//268
f 268//268 228//228 229//229
f 230//230 270//270 269//269
f 269//269 229//229 230//230
f 231//231 271//271 270//270
f 270//270 230//230 231//231
f 232//232 272//272 271//271
f 271//271 231//231 232//232
f 233//233 273//273 272//272
f 272//272 232//232 233//233
f 234//234 274//274 273//273
f 273//273 233//233 234//234
f 235//235 275//275 274//274
f 274//274 234//234 235//235
f 236//236 276//276 275//275
f 275//275 235//235 236//236
f 237//237 277//277 276//276
f 276//276 236//236 237//237
f 238//238 278//278 277//277
f 277//277 237//237 238//238
f 239//239 279//279 278//278
f 278//278 238//238 239//239
f 240//240 280//280 279//279
f 279//279 239//239 240//240
f 241//241 281//281 280//280
f 280//280 240//240 241//241
f 202//203 242//243 281//281
f 281//281 241//241 202//203
f 243//242 283//282 282//283
f 282//283 242//243 243//242
f 244//244 284//284 283//282
f 283//282 243//242 244//244
f 245//245 285//285 284//284
f 284//284 244//244 245//245
f 246//246 286//286 285//285
f 285//285 245//245 246//246
f 247//247 287//287 286//286
f 286//286 246//246 247//247
f 248//248 288//288 287//287
f 287//287 247//247 248//248
f 249//249 289//289 288//288
f 288//288 248//248 249//249
f 250//250 290//290 289//289
f 289//289 249//249 250//250
f 251//251 291//291 290//290
f 290//290 250//250 251//251
f 252//252 292//292 291//291
f 291//291 251//251 252//252
f 253//253 293//293 292//292
f 292//292 252//252 253//253
f 254//254 294//294 293//293
f 293//293 253//253 254//254
f 255//255 295//295 294//294
f 294//294 254//254 255//255
f 256//256 296//296 295//295
f 295//295 255//255 256//256
f 257//257 297//297 296//296
f 296//296 256//256 257//257
f 258//258 298//298 297//297
f 297//297 257//257 258//258
f 259//259 299//299 298//298
f 298//298 258//258 259//259
f 260//260 300//300 299//299
f 299//299 259//259 260//260
f 261//261 301//301 300//300
f 300//300 260//260 261//261
f 262//262 302//302 301//301
f 301//301 261//261 262//262
f 263//263 303//303 302//302
f 302//302 262//262 263//263
f 264//264 304//304 303//303
f 303//303 263//263 264//264
f 265//265 305//305 304//304
f 304//304 264//264 265//265
f 266//266 306//306 305//305
f 305//305 265//265 266//266
f 267//267 307//307 306//306
f 306//306 266//266 267//267
f 268//268 308//308 307//307
f 307//307 267//267 268//268
f 269//269 309//309 308//308
f 308//308 268//268 269//269
f 270//270 310//310 309//309
f 309//309 269//269 270//270
f 271//271 311//311 310//310
f 310//310 270//270 271//271
f 272//272 312//312 311//311
f 311//311 271//271 272//272
f 273//273 313//313 312//312
f 312//312 272//272 273//273
f 274//274 314//314 313//313
f 313//313 273//273 274//274
f 275//275 315//315 314//314
f 314//314 274//274 275//275
f 276//276 316//316 315//315
f 315//315 275//275 276//276
f 277//277 317//317 316//316
f 316//316 276//276 277//277
f 278//278 318//318 317//317
f 317//317 277//277 278//278
f 279//279 319//319 318//318
f 318//318 278//278 279//279
f 280//280 320//320 319//319
f 319//319 279//279 280//280
f 281//281 321//321 320//320
f 320//320 280//280 281//281
f 242//243 282//283 321//321
f 321//321 281//281 242//243
f 283//282 322//322 282//283
f 284//284 322//322 283//282
f 285//285 322//322 284//284
f 286//286 322//322 285//285
f 287//287 322//322 286//286
f 288//288 322//322 287//287
f 289//289 322//322 288//288
f 290//290 322//322 289//289
f 291//291 322//322 290//290
f 292//292 322//322 291//291
f 293//293 322//322 292//292
f 294//294 322//322 293//293
f 295//295 322//322 294//294
f 296//296 322//322 295//295
f 297//297 322//322 296//296
f 298//298 322//322 297//297
f 299//299 322//322 298//298
f 300//300 322//322 299//299
f 301//301 322//322 300//300
f 302//302 322//322 301//301
f 303//303 322//322 302//302
f 304//304 322//322 303//303
f 305//305 322//322 304//304
f 306//306 322//322 305//305
f 307//307 322//322 306//306
f 308//308 322//322 307//307
f 309//309 322//322 308//308
f 310//310 322//322 309//309
f 311//311 322//322 310//310
f 312//312 322//322 311//311
f 313//313 322//322 312//312
f 314//314 322//322 313//313
f 315//315 322//322 314//314
f 316//316 322//322 315//315
f 317//317 322//322 316//316
f 318//318 322//322 317//317
f 319//319 322//322 318//318
f 320//320 322//322 319//319
f 321//321 322//322 320//320
f 282//283 322//322 321//321
f 325//323 324//324 323//325
f 325//323 326//326 324//324
f 325//323 327//327 326//326
f 325//323 328//328 327//327
f 325//323 329//329 328//328
f 325//323 330//330 329//329
f 325//323 331//331 330//330
f 325//323 332//332 331//331
f 325//323 333//333 332//332
f 325//323 334//334 333//333
f 325//323 335//335 334//334
f 325//323 336//336 335//335
f 325//323 337//337 336//336
f 325//323 338//338 337//337
f 325//323 339//339 338//338
f 325//323 340//340 339//339
f 325//323 341//341 340//340
f 325//323 342//342 341//341
f 325//323 343//343 342//342
f 325//323 344//344 343//343
f 325//323 345//345 344//344
f 325//323 346//346 345//345
f 325//323 347//347 346//346
f 325//323 348//348 347//347
f 325//323 349//349 348//348
f 325//323 350//350 349//349
f 325//323 351//351 350//350
f 325//323 352//352 351//351
f 325//323 353//353 352//352
f 325//323 354//354 353//353
f 325//323 355//355 354//354
f 325//323 356//356 355//355
f 325//323 357//357 356//356
f 325//323 358//358 357//357
f 325//323 359//359 358//358
f 325//323 360//360 359//359
f 325//323 361//361 360//360
f 325//323 362//362 361//361
f 325//323 363//363 362//362
f 325//323 323//325 363//363
f 324//324 365//364 364//365
f 364//365 323//325 324//324
f 326//326 366//366 365//364
f 365//364 324//324 326//326
f 327//327 367//367 366//366
f 366//366 326//326 327//327
f 328//328 368//368 367//367
f 367//367 327//327 328//328
f 329//329 369//369 368//368
f 368//368 328//328 329//329
f 330//330 370//370 369//369
f 369//369 329//329 330//330
f 331//331 371//371 370//370
f 370//370 330//330 331//331
f 332//332 372//372 371//371
f 371//371 331//331 332//332
f 333//333 373//373 372//372
f 372//372 332//332 333//333
f 334//334 374//374 373//373
f 373//373 333//333 334//334
f 335//335 375//375 374//374
f 374//374 334//334 335//335
f 336//336 376//376 375//375
f 375//375 335//335 336//336
f 337//337 377//377 376//376
f 376//376 336//336 337//337
f 338//338 378//378 377//377
f 377//377 337//337 338//338
f 339//339 379//379 378//378
f 378//378 338//338 339//339
f 340//340 380//380 379//379
f 379//379 339//339 340//340
f 341//341 381//381 380//380
f 380//380 340//340 341//341
f 342//342 382//382 381//381
f 381//381 341//341 342//342
f 343//343 383//383 382//382
f 382//382 342//342 343//343
f 344//344 384//384 383//383
f 383//383 343//343 344//344
f 345//345 385//385 384//384
f 384//384 344//344 345//345
f 346//346 386//386 385//385
f 385//385 345//345 346//346
f 347//347 387//387 386//386
f 386//386 346//346 347//347
f 348//348 388//388 387//387
f 387//387 347//347 348//348
f 349//349 389//389 388//388
f 388//388 348//348 349//349
f 350//350 390//390 389//389
f 389//389 349//349 350//350
f 351//351 391//391 390//390
f 390//390 350//350 351//351
f 352//352 392//392 391//391
f 391//391 351//351 352//352
f 353//353 393//393 392//392
f 392//392 352//352 353//353
f 354//354 394//394 393//393
f 393//393 353//353 354//354
f 355//355 395//395 394//394
f 394//394 354//354 355//355
f 356//356 396//396 395//395
f 395//395 355//355 356//356
f 357//357 397//397 396//396
f 396//396 356//356 357//357
f 358//358 398//398 397//397
f 397//397 357//357 358//358
f 359//359 399//399 398//398
f 398//398 358//358 359//359
f 360//360 400//400 399//399
f 399//399 359//359 360//360
f 361//361 401//401 400//400
f 400//400 360//360 361//361
f 362//362 402//402 401//401
f 401//401 361//361 362//362
f 363//363 403//403 402//402
f 402//402 362//362 363//363
f 323//325 364//365 403//403
f 403//403 363//363 323//325
f 406//404 405//405 404//406
f 404//406 407//407 406//404
f 409//408 408//409 405//405
f 405//405 406//404 409//408
f 411//410 410//411 408//409
f 408//409 409//408 411//410
f 413//412 412//413 410//411
f 410//411 411//410 413//412
f 415//414 414//415 412//413
f 412//413 413//412 415//414
f 417//416 416//417 414//415
f 414//415 415//414 417//416
f 419//418 418//419 416//417
f 416//417 417//416 419//418
f 421//420 420//421 418//419
f 418//419 419//418 421//420
f 423//422 422//423 420//421
f 420//421 421//420 423//422
f 425//424 424//425 422//423
f 422//423 423//422 425//424
f 427//426 426//427 424//425
f 424//425 425//424 427//426
f 430//428 429//429 428//430
f 428//430 426//427 430//428
f 432//431 431//432 429//429
f 429//429 430//428 432//431
f 434//433 433//434 431//432
f 431//432 432//431 434//433
f 436//435 435//436 433//434
f 433//434 434//433 436//435
f 438//437 437//438 435//436
f 435//436 436//435 438//437
f 440//439 439//440 437//438
f 437//438 438//437 440//439
f 442//441 441//442 439//440
f 439//440 440//439 442//441
f 444//443 443//444 441//442
f 441//442 442//441 444//443
f 446//445 445//446 443//444
f 443//444 444//443 446//445
f 448//447 447//448 445//446
f 445//446 446//445 448//447
f 450//449 449//450 447//448
f 447//448 448//447 450//449
f 452//451 451//452 449//450
f 449//450 450//449 452//451
f 454//453 453//454 451//452
f 451//452 452//451 454//453
f 456//455 455//456 453//454
f 453//454 454//453 456//455
f 458//457 457//458 455//456
f 455//456 456//455 458//457
f 460//459 459//460 457//458
f 457//458 458//457 460//459
f 462//461 461//462 459//460
f 459//460 460//459 462//461
f 464//463 463//464 461//462
f 461//462 462//461 464//463
f 466//465 465//466 463//464
f 463//464 464//463 466//465
f 468//467 467//468 465//466
f 465//466 466//465 468//467
f 470//469 469//470 467//468
f 467//468 468//467 470//469
f 472//471 471//472 469//470
f 469//470 470//469 472//471
f 474//473 473//474 471//472
f 471//472 472//471 474//473
f 476//475 475//476 473//474
f 473//474 474//473 476//475
f 478//477 477//478 475//476
f 475//476 476//475 478//477
f 480//479 479//480 477//478
f 477//478 478//477 480//479
f 482//481 481//482 479//480
f 479//480 480//479 482//481
f 484//483 483//484 481//482
f 481//482 482//481 484//483
f 404//406 485//485 483//484
f 483//484 484//483 404//406
f 405//405 486//486 485//485
f 485//485 404//406 405//405
f 408//409 487//487 486//486
f 486//486 405//405 408//409
f 410//411 488//488 487//487
f 487//487 408//409 410//411
f 412//413 489//489 488//488
f 488//488 410//411 412//413
f 414//415 490//490 489//489
f 489//489 412//413 414//415
f 416//417 491//491 490//490
f 490//490 414//415 416//417
f 418//419 492//492 491//491
f 491//491 416//417 418//419
f 420//421 493//493 492//492
f 492//492 418//419 420//421
f 422//423 494//494 493//493
f 493//493 420//421 422//423
f 424//425 495//495 494//494
f 494//494 422//423 424//425
f 426//427 428//430 495//495
f 495//495 424//425 426//427
f 429//429 497//496 496//497
f 496//497 428//430 429//429
f 431//432 498//498 497//496
f 497//496 429//429 431//432
f 433//434 499//499 498//498
f 498//498 431//432 433//434
f 435//436 500//500 499//499
f 499//499 433//434 435//436
f 437//438 501//501 500//500
f 500//500 435//436 437//438
f 439//440 502//502 501//501
f 501//501 437//438 439//440
f 441//442 503//503 502//502
f 502//502 439//440 441//442
f 443//444 504//504 503//503
f 503//503 441//442 443//444
f 445//446 505//505 504//504
f 504//504 443//444 445//446
f 447//448 506//506 505//505
f 505//505 445//446 447//448
f 449//450 507//507 506//506
f 506//506 447//448 449//450
f 451//452 508//508 507//507
f 507//507 449//450 451//452
f 453//454 509//509 508//508
f 508//508 451//452 453//454
f 455//456 510//510 509//509
f 509//509 453//454 455//456
f 457//458 511//511 510//510
f 510//510 455//456 457//458
f 459//460 512//512 511//511
f 511//511 457//458 459//460
f 461//462 513//513 512//512
f 512//512 459//460 461//462
f 463//464 514//514 513//513
f 513//513 461//462 463//464
f 465//466 515//515 514//514
f 514//514 463//464 465//466
f 467//468 516//516 515//515
f 515//515 465//466 467//468
f 469//470 517//517 516//516
f 516//516 467//468 469//470
f 471//472 518//518 517//517
f 517//517 469//470 471//472
f 473//474 519//519 518//518
f 518//518 471//472 473//474
f 475//476 520//520 519//519
f 519//519 473//474 475//476
f 477//478 521//521 520//520
f 520//520 475//476 477//478
f 479//480 522//522 521//521
f 521//521 477//478 479//480
f 481//482 523//523 522//522
f 522//522 479//480 481//482
f 483//484 524//524 523//523
f 523//523 481//482 483//484
f 485//485 525//525 524//524
f 524//524 483//484 485//485
f 486//486 526//526 525//525
f 525//525 485//485 486//486
f 487//487 527//527 526//526
f 526//526 486//486 487//487
f 488//488 528//528 527//527
f 527//527 487//487 488//488
f 489//489 529//529 528//528
f 528//528 488//488 489//489
f 490//490 530//530 529//529
f 529//529 489//489 490//490
f 491//491 531//531 530//530
f 530//530 490//490 491//491
f 492//492 532//532 531//531
f 531//531 491//491 492//492
f 493//493 533//533 532//532
f 532//532 492//492 493//493
f 494//494 534//534 533//533
f 533//533 493//493 494//494
f 495//495 535//535 534//534
f 534//534 494//494 495//495
f 428//430 496//497 535//535
f 535//535 495//495 428//430
f 497//496 3//3 4//4
f 4//4 496//497 497//496
f 498//498 536//536 3//3
f 3//3 497//496 498//498
f 499//499 537//537 536//536
f 536//536 498//498 499//499
f 500//500 538//538 537//537
f 537//537 499//499 500//500
f 501//501 539//539 538//538
f 538//538 500//500 501//501
f 502//502 540//540 539//539
f 539//539 501//501 502//502
f 503//503 541//541 540//540
f 540//540 502//502 503//503
f 504//504 542//542 541//541
f 541//541 503//503 504//504
f 505//505 543//543 542//542
f 542//542 504//504 505//505
f 506//506 544//544 543//543
f 543//543 505//505 506//506
f 507//507 545//545 544//544
f 544//544 506//506 507//507
f 508//508 546//546 545//545
f 545//545 507//507 508//508
f 509//509 547//547 546//546
f 546//546 508//508 509//509
f 510//510 548//548 547//547
f 547//547 509//509 510//510
f 511//511 549//549 548//548
f 548//548 510//510 511//511
f 512//512 550//550 549//549
f 549//549 511//511 512//512
f 513//513 551//551 550//550
f 550//550 512//512 513//513
f 514//514 552//552 551//551
f 551//551 513//513 514//514
f 515//515 553//553 552//552
f 552//552 514//514 515//515
f 516//516 554//554 553//553
f 553//553 515//515 516//516
f 517//517 555//555 554//554
f 554//554 516//516 517//517
f 518//518 556//556 555//555
f 555//555 517//517 518//518
f 519//519 557//557 556//556
f 556//556 518//518 519//519
f 520//520 558//558 557//557
f 557//557 519//519 520//520
f 521//521 559//559 558//558
f 558//558 520//520 521//521
f 522//522 560//560 559//559
f 559//559 521//521 522//522
f 523//523 561//561 560//560
f 560//560 522//522 523//523
f 524//524 562//562 561//561
f 561//561 523//523 524//524
f 525//525 563//563 562//562
f 562//562 524//524 525//525
f 526//526 564//564 563//563
f 563//563 525//525 526//526
f 527//527 565//565 564//564
f 564//564 526//526 527//527
f 528//528 566//566 565//565
f 565//565 527//527 528//528
f 529//529 567//567 566//566
f 566//566 528//528 529//529
f 530//530 568//568 567//567
f 567//567 529//529 530//530
f 531//531 569//569 568//568
f 568//568 530//530 531//531
f 532//532 570//570 569//569
f 569//569 531//531 532//532
f 533//533 571//571 570//570
f 570//570 532//532 533//533
f 534//534 572//572 571//571
f 571//571 533//533 534//534
f 535//535 6//6 572//572
f 572//572 534//534 535//535
f 496//497 4//4 6//6
f 6//6 535//535 496//497
f 536//536 10//9 2//1
f 2//1 3//3 536//536
f 537//537 573//573 10//9
f 10//9 536//536 537//537
f 538//538 574//574 573//573
f 573//573 537//537 538//538
f 539//539 575//575 574//574
f 574//574 538//538 539//539
f 540//540 576//576 575//575
f 575//575 539//539 540//540
f 541//541 577//577 576//576
f 576//576 540//540 541//541
f 542//542 578//578 577//577
f 577//577 541//541 542//542
f 543//543 579//579 578//578
f 578//578 542//542 543//543
f 544//544 580//580 579//579
f 579//579 543//543 544//544
f 545//545 581//581 580//580
f 580//580 544//544 545//545
f 546//546 582//582 581//581
f 581//581 545//545 546//546
f 547//547 583//583 582//582
f 582//582 546//546 547//547
f 548//548 584//584 583//583
f 583//583 547//547 548//548
f 549//549 585//585 584//584
f 584//584 548//548 549//549
f 550//550 586//586 585//585
f 585//585 549//549 550//550
f 551//551 587//587 586//586
f 586//586 550//550 551//551
f 552//552 588//588 587//587
f 587//587 551//551 552//552
f 553//553 589//589 588//588
f 588//588 552//552 553//553
f 554//554 590//590 589//589
f 589//589 553//553 554//554
f 555//555 591//591 590//590
f 590//590 554//554 555//555
f 556//556 592//592 591//591
f 591//591 555//555 556//556
f 557//557 593//593 592//592
f 592//592 556//556 557//557
f 558//558 594//594 593//593
f 593//593 557//557 558//558
f 559//559 595//595 594//594
f 594//594 558//558 559//559
f 560//560 596//596 595//595
f 595//595 559//559 560//560
f 561//561 597//597 596//596
f 596//596 560//560 561//561
f 562//562 598//598 597//597
f 597//597 561//561 562//562
f 563//563 599//599 598//598
f 598//598 562//562 563//563
f 564//564 600//600 599//599
f 599//599 563//563 564//564
f 565//565 601//601 600//600
f 600//600 564//564 565//565
f 566//566 602//602 601//601
f 601//601 565//565 566//566
f 567//567 603//603 602//602
f 602//602 566//566 567//567
f 568//568 604//604 603//603
f 603//603 567//567 568//568
f 569//569 605//605 604//604
f 604//604 568//568 569//569
f 570//570 606//606 605//605
f 605//605 569//569 570//570
f 571//571 607//607 606//606
f 606//606 570//570 571//571
f 572//572 13//13 607//607
f 607//607 571//571 572//572
f 6//6 5//5 13//13
f 13//13 572//572 6//6
f 573//573 18//17 9//10
f 9//10 10//9 573//573
f 574//574 608//608 18//17
f 18//17 573//573 574//574
f 575//575 609//609 608//608
f 608//608 574//574 575//575
f 576//576 610//610 609//609
f 609//609 575//575 576//576
f 577//577 611//611 610//610
f 610//610 576//576 577//577
f 578//578 612//612 611//611
f 611//611 577//577 578//578
f 579//579 613//613 612//612
f 612//612 578//578 579//579
f 580//580 614//614 613//613
f 613//613 579//579 580//580
f 581//581 615//615 614//614
f 614//614 580//580 581//581
f 582//582 616//616 615//615
f 615//615 581//581 582//582
f 583//583 617//617 616//616
f 616//616 582//582 583//583
f 584//584 618//618 617//617
f 617//617 583//583 584//584
f 585//585 619//619 618//618
f 618//618 584//584 585//585
f 586//586 620//620 619//619
f 619//619 585//585 586//586
f 587//587 621//621 620//620
f 620//620 586//586 587//587
f 588//588 622//622 621//621
f 621//621 587//587 588//588
f 589//589 623//623 622//622
f 622//622 588//588 589//589
f 590//590 624//624 623//623
f 623//623 589//589 590//590
f 591//591 625//625 624//624
f 624//624 590//590 591//591
f 592//592 626//626 625//625
f 625//625 591//591 592//592
f 593//593 627//627 626//626
f 626//626 592//592 593//593
f 594//594 628//628 627//627
f 627//627 593//593 594//594
f 595//595 629//629 628//628
f 628//628 594//594 595//595
f 596//596 630//630 629//629
f 629//629 595//595 596//596
f 597//597 631//631 630//630
f 630//630 596//596 597//597
f 598//598 632//632 631//631
f 631//631 597//597 598//598
f 599//599 633//633 632//632
f 632//632 598//598 599//599
f 600//600 634//634 633//633
f 633//633 599//599 600//600
f 601//601 635//635 634//634
f 634//634 600//600 601//601
f 602//602 636//636 635//635
f 635//635 601//601 602//602
f 603//603 637//637 636//636
f 636//636 602//602 603//603
f 604//604 638//638 637//637
f 637//637 603//603 604//604
f 605//605 639//639 638//638
f 638//638 604//604 605//605
f 606//606 22//22 639//639
f 639//639 605//605 606//606
f 607//607 21//19 22//22
f 22//22 606//606 607//607
f 13//13 11//12 21//19
f 21//19 607//607 13//13
f 608//608 30//29 17//18
f 17//18 18//17 608//608
f 609//609 32//31 30//29
f 30//29 608//608 609//609
f 610//610 640//640 32//31
f 32//31 609//609 610//610
f 611//611 641//641 640//640
f 640//640 610//610 611//611
f 612//612 642//642 641//641
f 641//641 611//611 612//612
f 613//613 643//643 642//642
f 642//642 612//612 613//613
f 614//614 644//644 643//643
f 643//643 613//613 614//614
f 615//615 645//645 644//644
f 644//644 614//614 615//615
f 616//616 646//646 645//645
f 645//645 615//615 616//616
f 617//617 647//647 646//646
f 646//646 616//616 617//617
f 618//618 648//648 647//647
f 647//647 617//617 618//618
f 619//619 649//649 648//648
f 648//648 618//618 619//619
f 620//620 650//650 649//649
f 649//649 619//619 620//620
f 621//621 651//651 650//650
f 650//650 620//620 621//621
f 622//622 652//652 651//651
f 651//651 621//621 622//622
f 623//623 653//653 652//652
f 652//652 622//622 623//623
f 624//624 654//654 653//653
f 653//653 623//623 624//624
f 625//625 36//36 654//654
f 654//654 624//624 625//625
f 626//626 35//33 36//36
f 36//36 625//625 626//626
f 627//627 38//37 35//33
f 35//33 626//626 627//627
f 628//628 40//39 38//37
f 38//37 627//627 628//628
f 629//629 42//41 40//39
f 40//39 628//628 629//629
f 630//630 44//43 42//41
f 42//41 629//629 630//630
f 631//631 46//45 44//43
f 44//43 630//630 631//631
f 632//632 48//47 46//45
f 46//45 631//631 632//632
f 633//633 50//49 48//47
f 48//47 632//632 633//633
f 634//634 52//51 50//49
f 50//49 633//633 634//634
f 635//635 54//53 52//51
f 52//51 634//634 635//635
f 636//636 56//55 54//53
f 54//53 635//635 636//636
f 637//637 58//57 56//55
f 56//55 636//636 637//637
f 638//638 60//59 58//57
f 58//57 637//637 638//638
f 639//639 62//61 60//59
f 60//59 638//638 639//639
f 22//22 19//21 62//61
f 62//61 639//639 22//22
f 640//640 74//73 31//32
f 31//32 32//31 640//640
f 641//641 76//75 74//73
f 74//73 640//640 641//641
f 642//642 78//77 76//75
f 76//75 641//641 642//642
f 643//643 80//79 78//77
f 78//77 642//642 643//643
f 644//644 82//81 80//79
f 80//79 643//643 644//644
f 645//645 84//83 82//81
f 82//81 644//644 645//645
f 646//646 86//85 84//83
f 84//83 645//645 646//646
f 647//647 88//87 86//85
f 86//85 646//646 647//647
f 648//648 90//89 88//87
f 88//87 647//647 648//648
f 649//649 92//91 90//89
f 90//89 648//648 649//649
f 650//650 94//93 92//91
f 92//91 649//649 650//650
f 651//651 96//95 94//93
f 94//93 650//650 651//651
f 652//652 98//97 96//95
f 96//95 651//651 652//652
f 653//653 100//99 98//97
f 98//97 652//652 653//653
f 654//654 102//101 100//99
f 100//99 653//653 654//654
f 36//36 33//35 102//101
f 102//101 654//654 36//36
f 365//364 656//655 655//656
f 655//656 364//365 365//364
f 366//366 657//657 656//655
f 656//655 365//364 366//366
f 367//367 658//658 657//657
f 657//657 366//366 367//367
f 368//368 659//659 658//658
f 658//658 367//367 368//368
f 369//369 660//660 659//659
f 659//659 368//368 369//369
f 370//370 661//661 660//660
f 660//660 369//369 370//370
f 371//371 662//662 661//661
f 661//661 370//370 371//371
f 372//372 663//663 662//662
f 662//662 371//371 372//372
f 373//373 664//664 663//663
f 663//663 372//372 373//373
f 374//374 665//665 664//664
f 664//664 373//373 374//374
f 375//375 666//666 665//665
f 665//665 374//374 375//375
f 376//376 667//667 666//666
f 666//666 375//375 376//376
f 377//377 668//668 667//667
f 667//667 376//376 377//377
f 378//378 669//669 668//668
f 668//668 377//377 378//378
f 379//379 670//670 669//669
f 669//669 378//378 379//379
f 380//380 671//671 670//670
f 670//670 379//379 380//380
f 381//381 672//672 671//671
f 671//671 380//380 381//381
f 382//382 673//673 672//672
f 672//672 381//381 382//382
f 383//383 674//674 673//673
f 673//673 382//382 383//383
f 384//384 675//675 674//674
f 674//674 383//383 384//384
f 385//385 676//676 675//675
f 675//675 384//384 385//385
f 386//386 677//677 676//676
f 676//676 385//385 386//386
f 387//387 678//678 677//677
f 677//677 386//386 387//387
f 388//388 679//679 678//678
f 678//678 387//387 388//388
f 389//389 680//680 679//679
f 679//679 388//388 389//389
f 390//390 681//681 680//680
f 680//680 389//389 390//390
f 391//391 682//682 681//681
f 681//681 390//390 391//391
f 392//392 683//683 682//682
f 682//682 391//391 392//392
f 393//393 684//684 683//683
f 683//683 392//392 393//393
f 394//394 685//685 684//684
f 684//684 393//393 394//394
f 395//395 686//686 685//685
f 685//685 394//394 395//395
f 396//396 687//687 686//686
f 686//686 395//395 396//396
f 397//397 688//688 687//687
f 687//687 396//396 397//397
f 398//398 689//689 688//688
f 688//688 397//397 398//398
f 399//399 690//690 689//689
f 689//689 398//398 399//399
f 400//400 691//691 690//690
f 690//690 399//399 400//400
f 401//401 692//692 691//691
f 691//691 400//400 401//401
f 402//402 693//693 692//692
f 692//692 401//401 402//402
f 403//403 694//694 693//693
f 693//693 402//402 403//403
f 364//365 655//656 694//694
f 694//694 403//403 364//365
f 656//655 696//695 695//696
f 695//696 655//656 656//655
f 657//657 697//697 696//695
f 696//695 656//655 657//657
f 658//658 698//698 697//697
f 697//697 657//657 658//658
f 659//659 699//699 698//698
f 698//698 658//658 659//659
f 660//660 700//700 699//699
f 699//699 659//659 660//660
f 661//661 701//701 700//700
f 700//700 660//660 661//661
f 662//662 702//702 701//701
f 701//701 661//661 662//662
f 663//663 703//703 702//702
f 702//702 662//662 663//663
f 664//664 704//704 703//703
f 703//703 663//663 664//664
f 665//665 705//705 704//704
f 704//704 664//664 665//665
f 666//666 706//706 705//705
f 705//705 665//665 666//666
f 667//667 707//707 706//706
f 706//706 666//666 667//667
f 668//668 708//708 707//707
f 707//707 667//667 668//668
f 669//669 709//709 708//708
f 708//708 668//668 669//669
f 670//670 710//710 709//709
f 709//709 669//669 670//670
f 671//671 711//711 710//710
f 710//710 670//670 671//671
f 672//672 712//712 711//711
f 711//711 671//671 672//672
f 673//673 713//713 712//712
f 712//712 672//672 673//673
f 674//674 714//714 713//713
f 713//713 673//673 674//674
f 675//675 715//715 714//714
f 714//714 674//674 675//675
f 676//676 716//716 715//715
f 715//715 675//675 676//676
f 677//677 717//717 716//716
f 716//716 676//676 677//677
f 678//678 718//718 717//717
f 717//717 677//677 678//678
f 679//679 719//719 718//718
f 718//718 678//678 679//679
f 680//680 720//720 719//719
f 719//719 679//679 680//680
f 681//681 721//721 720//720
f 720//720 680//680 681//681
f 682//682 722//722 721//721
f 721//721 681//681 682//682
f 683//683 723//723 722//722
f 722//722 682//682 683//683
f 684//684 724//724 723//723
f 723//723 683//683 684//684
f 685//685 725//725 724//724
f 724//724 684//684 685//685
f 686//686 726//726 725//725
f 725//725 685//685 686//686
f 687//687 727//727 726//726
f 726//726 686//686 687//687
f 688//688 728//728 727//727
f 727//727 687//687 688//688
f 689//689 729//729 728//728
f 728//728 688//688 689//689
f 690//690 730//730 729//729
f 729//729 689//689 690//690
f 691//691 731//731 730//730
f 730//730 690//690 691//691
f 692//692 732//732 731//731
f 731//731 691//691 692//692
f 693//693 733//733 732//732
f 732//732 692//692 693//693
f 694//694 734//734 733//733
f 733//733 693//693 694//694
f 655//656 695//696 734//734
f 734//734 694//694 655//656
f 696//695 735//735 427//426
f 427//426 695//696 696//695
f 697//697 736//736 735//735
f 735//735 696//695 697//697
f 698//698 737//737 736//736
f 736//736 697//697 698//698
f 699//699 738//738 737//737
f 737//737 698//698 699//699
f 700//700 739//739 738//738
f 738//738 699//699 700//700
f 701//701 740//740 739//739
f 739//739 700//700 701//701
f 702//702 741//741 740//740
f 740//740 701//701 702//702
f 703//703 742//742 741//741
f 741//741 702//702 703//703
f 704//704 743//743 742//742
f 742//742 703//703 704//704
f 705//705 744//744 743//743
f 743//743 704//704 705//705
f 706//706 745//745 744//744
f 744//744 705//705 706//706
f 707//707 746//746 745//745
f 745//745 706//706 707//707
f 708//708 747//747 746//746
f 746//746 707//707 708//708
f 709//709 748//748 747//747
f 747//747 708//708 709//709
f 710//710 749//749 748//748
f 748//748 709//709 710//710
f 711//711 750//750 749//749
f 749//749 710//710 711//711
f 712//712 751//751 750//750
f 750//750 711//711 712//712
f 713//713 752//752 751//751
f 751//751 712//712 713//713
f 714//714 753//753 752//752
f 752//752 713//713 714//714
f 715//715 754//754 753//753
f 753//753 714//714 715//715
f 716//716 755//755 754//754
f 754//754 715//715 716//716
f 717//717 756//756 755//755
f 755//755 716//716 717//717
f 718//718 757//757 756//756
f 756//756 717//717 718//718
f 719//719 758//758 757//757
f 757//757 718//718 719//719
f 720//720 759//759 758//758
f 758//758 719//719 720//720
f 721//721 760//760 759//759
f 759//759 720//720 721//721
f 722//722 761//761 760//760
f 760//760 721//721 722//722
f 723//723 762//762 761//761
f 761//761 722//722 723//723
f 724//724 407//407 762//762
f 762//762 723//723 724//724
f 725//725 406//404 407//407
f 407//407 724//724 725//725
f 726//726 409//408 406//404
f 406//404 725//725 726//726
f 727//727 411//410 409//408
f 409//408 726//726 727//727
f 728//728 413//412 411//410
f 411//410 727//727 728//728
f 729//729 415//414 413//412
f 413//412 728//728 729//729
f 730//730 417//416 415//414
f 415//414 729//729 730//730
f 731//731 419//418 417//416
f 417//416 730//730 731//731
f 732//732 421//420 419//418
f 419//418 731//731 732//732
f 733//733 423//422 421//420
f 421//420 732//732 733//733
f 734//734 425//424 423//422
f 423//422 733//733 734//734
f 695//696 427//426 425//424
f 425//424 734//734 695//696
f 735//735 430//428 426//427
f 426//427 427//426 735//735
f 736//736 432//431 430//428
f 430//428 735//735 736//736
f 737//737 434//433 432//431
f 432//431 736//736 737//737
f 738//738 436//435 434//433
f 434//433 737//737 738//738
f 739//739 438//437 436//435
f 436//435 738//738 739//739
f 740//740 440//439 438//437
f 438//437 739//739 740//740
f 741//741 442//441 440//439
f 440//439 740//740 741//741
f 742//742 444//443 442//441
f 442//441 741//741 742//742
f 743//743 446//445 444//443
f 444//443 742//742 743//743
f 744//744 448//447 446//445
f 446//445 743//743 744//744
f 745//745 450//449 448//447
f 448//447 744//744 745//745
f 746//746 452//451 450//449
f 450//449 745//745 746//746
f 747//747 454//453 452//451
f 452//451 746//746 747//747
f 748//748 456//455 454//453
f 454//453 747//747 748//748
f 749//749 458//457 456//455
f 456//455 748//748 749//749
f 750//750 460//459 458//457
f 458//457 749//749 750//750
f 751//751 462//461 460//459
f 460//459 750//750 751//751
f 752//752 464//463 462//461
f 462//461 751//751 752//752
f 753//753 466//465 464//463
f 464//463 752//752 753//753
f 754//754 468//467 466//465
f 466//465 753//753 754//754
f 755//755 470//469 468//467
f 468//467 754//754 755//755
f 756//756 472//471 470//469
f 470//469 755//755 756//756
f 757//757 474//473 472//471
f 472//471 756//756 757//757
f 758//758 476//475 474//473
f 474//473 757//757 758//758
f 759//759 478//477 476//475
f 476//475 758//758 759//759
f 760//760 480//479 478//477
f 478//477 759//759 760//760
f 761//761 482//481 480//479
f 480//479 760//760 761//761
f 762//762 484//483 482//481
f 482//481 761//761 762//762
f 407//407 404//406 484//483
f 484//483 762//762 407//407
