# Blender v2.82 (sub 7) OBJ File: 'tea_time.blend'
# www.blender.org
o teapot_wire_teapot_wire.002
v 0.452064 2.762315 2.755142
v 0.520470 2.830108 2.834572
v 0.508639 2.826039 2.847780
v 0.440567 2.758580 2.768743
v 0.456833 2.772593 2.740866
v 0.526164 2.841294 2.821369
v 0.453548 2.786670 2.729768
v 0.524139 2.856626 2.811739
v 0.443135 2.800754 2.724810
v 0.514985 2.871951 2.808240
v 0.428360 2.811084 2.727322
v 0.493810 2.830187 2.857465
v 1.462220 1.727773 3.915605
v 1.433423 1.604291 3.882504
v 1.426475 1.611185 3.867173
v 0.396904 2.800901 2.764502
v 0.468757 2.872118 2.847928
v 0.474436 2.883296 2.834743
v 0.401665 2.811162 2.750246
v 0.400185 2.786835 2.775589
v 0.470776 2.856807 2.857552
v 0.410604 2.772732 2.780560
v 0.479936 2.841461 2.861057
v 0.425399 2.762398 2.778035
v 1.454767 1.732504 3.899688
v 1.460518 1.724345 3.933393
v 1.431349 1.599277 3.899871
v 1.450135 1.723107 3.948312
v 1.420833 1.597457 3.914631
v 1.433822 1.724428 3.956317
v 1.404653 1.599361 3.922796
v 1.415995 1.727927 3.955297
v 1.387192 1.604443 3.922201
v 1.401407 1.732671 3.945505
v 1.395648 1.740844 3.911761
v 1.368232 1.623278 3.880251
v 1.366151 1.618260 3.897640
v 1.440164 1.737257 3.889879
v 1.412376 1.618106 3.857943
v 1.394892 1.623195 3.857358
v 1.373108 1.611354 3.912990
v 1.393935 1.737411 3.929573
v 1.406023 1.742073 3.896864
v 1.378740 1.625089 3.865508
v 0.413167 2.814914 2.736627
v 0.486280 2.887377 2.821521
v 0.501135 2.883214 2.811823
v 1.422310 1.740759 3.888865
v 0.263905 1.396640 2.614658
v 0.319096 1.296905 2.679303
v 0.323740 1.309210 2.691880
v 0.266954 1.388895 2.598477
v 0.366858 1.333742 2.688027
v 0.314565 1.428228 2.626784
v 0.298773 1.425437 2.635373
v 0.351325 1.330483 2.696920
v 0.282272 1.417748 2.635972
v 0.335529 1.321513 2.698350
v 0.325438 1.425355 2.612480
v 0.377987 1.330398 2.674030
v 0.381761 1.321363 2.658659
v 0.322862 1.287881 2.663954
v 0.277833 1.386015 2.584152
v 0.333997 1.284529 2.649934
v 0.293653 1.388813 2.575556
v 0.349557 1.287798 2.641030
v 0.310130 1.396500 2.574960
v 0.365327 1.296764 2.639606
v 0.322876 1.407033 2.582549
v 0.377106 1.309045 2.646064
v 0.246335 2.491485 2.590248
v 0.208636 2.378762 2.546750
v 0.226121 2.373669 2.547335
v 0.232926 2.500476 2.581812
v 0.194541 2.385701 2.537524
v 0.226658 2.509425 2.567271
v 0.187592 2.392605 2.522192
v 0.229237 2.515952 2.550485
v 0.189667 2.397629 2.504825
v 0.239934 2.518329 2.535935
v 0.200182 2.399457 2.490065
v 1.394528 1.487364 3.837625
v 1.388262 1.496308 3.823078
v 1.374844 1.505284 3.814639
v 0.269510 1.407198 2.628366
v 0.255935 2.515869 2.527563
v 0.216362 2.397550 2.481906
v 0.272892 2.509282 2.527577
v 0.233824 2.392462 2.482495
v 0.286286 2.500307 2.535995
v 0.247907 2.385531 2.491707
v 0.204882 2.268942 2.449238
v 0.219476 2.264183 2.459030
v 0.254868 2.378619 2.507053
v 0.226944 2.259437 2.474965
v 0.252786 2.373587 2.524443
v 0.225232 2.255987 2.492778
v 0.242272 2.371771 2.539186
v 0.214859 2.254757 2.507671
v 0.198572 2.256069 2.515671
v 0.176118 1.757898 2.511113
v 0.201850 1.637785 2.541518
v 0.219425 1.642546 2.542172
v 0.180712 2.259581 2.514656
v 0.161431 1.753536 2.501239
v 0.166110 2.264352 2.504841
v 0.158654 2.269085 2.488927
v 0.160356 2.272527 2.471138
v 0.170736 2.273773 2.456218
v 0.187052 2.272452 2.448215
v 0.187631 1.631237 2.532196
v 0.237470 1.523786 2.583411
v 0.223902 1.515164 2.574854
v 0.180560 1.624675 2.516769
v 0.168783 2.142482 2.427411
v 0.186848 2.140615 2.428689
v 0.201754 2.138103 2.438843
v 0.209540 2.135612 2.455139
v 0.208059 2.133810 2.473215
v 0.197773 2.133182 2.488213
v 0.181396 2.133893 2.496110
v 0.163309 2.135759 2.494830
v 0.217474 1.506534 2.560189
v 0.182544 1.619857 2.499332
v 0.219932 1.500198 2.543308
v 0.193029 1.618053 2.484545
v 0.230589 1.497838 2.528728
v 0.209242 1.619774 2.476411
v 0.246633 1.500115 2.520391
v 0.226791 1.624537 2.477072
v 0.263708 1.506395 2.520495
v 0.240995 1.631072 2.486376
v 0.277263 1.514999 2.529037
v 0.248085 1.637635 2.501824
v 0.283704 1.523636 2.543723
v 0.246090 1.642463 2.519280
v 0.281236 1.529983 2.560623
v 0.235610 1.644264 2.534048
v 0.270583 1.532338 2.575182
v 0.254571 1.530065 2.583515
v 0.328503 1.417599 2.596281
v 0.148387 2.138272 2.484659
v 0.140619 2.140758 2.468384
v 0.142084 2.142556 2.450332
v 0.152383 2.143196 2.435313
v 0.145905 2.009640 2.428252
v 0.162343 2.009542 2.420380
v 0.180485 2.009362 2.421755
v 0.195501 2.009152 2.432027
v 0.203399 2.008963 2.448446
v 0.202002 2.008848 2.466613
v 0.191741 2.008836 2.481639
v 0.175339 2.008926 2.489502
v 0.157171 2.009110 2.488134
v 0.142137 2.009321 2.477841
v 0.134254 2.009505 2.461445
v 0.135644 2.009620 2.443301
v 0.139651 1.876503 2.448450
v 0.149935 1.875893 2.433425
v 0.166349 1.876417 2.425529
v 0.184439 1.877934 2.426837
v 0.199390 1.880025 2.437020
v 0.207221 1.882139 2.453352
v 0.205769 1.883713 2.471449
v 0.195494 1.884323 2.486455
v 0.179106 1.883796 2.494344
v 0.160988 1.882288 2.493040
v 0.146020 1.880190 2.482839
v 0.138214 1.878070 2.466528
v 0.153893 1.749157 2.485255
v 0.155534 1.745936 2.467420
v 0.165894 1.744719 2.452485
v 0.182232 1.745853 2.444499
v 0.200121 1.749020 2.445561
v 0.214795 1.753371 2.455420
v 0.222349 1.757748 2.471422
v 0.220699 1.760979 2.489282
v 0.394293 2.690144 2.668322
v 0.339288 2.595792 2.604595
v 0.333859 2.606654 2.591023
v 0.389869 2.702725 2.655905
v 0.321315 2.617530 2.583586
v 0.378318 2.715316 2.649624
v 0.304978 2.625507 2.584289
v 0.362715 2.724545 2.651175
v 0.289212 2.628471 2.592926
v 0.347216 2.727972 2.660127
v 0.278279 2.625586 2.607210
v 0.336020 2.724623 2.674100
v 0.275084 2.617673 2.623277
v 0.332090 2.715459 2.689318
v 0.280496 2.606823 2.636837
v 0.336505 2.702894 2.701725
v 0.293061 2.595935 2.644292
v 0.348064 2.690287 2.708016
v 0.309419 2.587949 2.643583
v 0.363690 2.681047 2.706454
v 0.325159 2.584994 2.634953
v 0.379162 2.677632 2.697520
v 0.336082 2.587867 2.620687
v 0.390356 2.680968 2.683561
v 0.210349 1.762194 2.504193
v 0.194039 1.761062 2.512175
v 0.292563 2.491346 2.550554
v 0.289978 2.484811 2.567362
v 0.279284 2.482446 2.581892
v 0.263315 2.484889 2.590258
v 1.300019 1.379086 3.821481
v 1.243060 1.281096 3.755497
v 1.258669 1.271868 3.753951
v 1.287466 1.389948 3.814035
v 1.328256 1.400659 3.760756
v 1.340825 1.389781 3.768215
v 1.346247 1.378934 3.781787
v 1.391955 1.480850 3.854418
v 1.343054 1.371030 3.797857
v 1.381255 1.478480 3.868964
v 1.332127 1.368150 3.812148
v 1.365259 1.480934 3.877342
v 1.316358 1.371115 3.820781
v 1.348297 1.487515 3.877322
v 1.334900 1.496475 3.868901
v 1.328618 1.505436 3.854336
v 1.282031 1.400811 3.800454
v 1.331198 1.511956 3.837522
v 1.285231 1.408722 3.784356
v 1.341892 1.514318 3.822991
v 1.296154 1.411595 3.770091
v 1.357861 1.511872 3.814626
v 1.311896 1.408640 3.761464
v 1.227073 1.306258 3.736784
v 1.231504 1.293677 3.749209
v 1.273299 1.306107 3.697087
v 1.289289 1.280947 3.715797
v 1.284868 1.293509 3.703390
v 1.257665 1.315346 3.698639
v 1.274173 1.268440 3.745006
v 1.285365 1.271783 3.731027
v 1.231005 1.315431 3.721532
v 1.242192 1.318763 3.707579
vn 0.7187 -0.6923 0.0645
vn 0.6863 -0.7267 0.0291
vn 0.3523 -0.8397 0.4132
vn 0.3888 -0.8007 0.4558
vn 0.8519 -0.3954 -0.3434
vn 0.8337 -0.4161 -0.3629
vn 0.7542 0.0068 -0.6565
vn 0.7550 0.0064 -0.6557
vn 0.4559 0.4049 -0.7926
vn 0.4746 0.4245 -0.7711
vn 0.0383 0.6942 -0.7187
vn -0.0780 -0.7241 0.6852
vn 0.9652 -0.1725 -0.1963
vn 0.9572 -0.2025 -0.2067
vn 0.7651 -0.0066 -0.6439
vn -0.8510 0.4089 0.3293
vn -0.8325 0.4288 0.3509
vn -0.6817 0.7307 -0.0366
vn -0.7137 0.6966 -0.0731
vn -0.7631 0.0114 0.6462
vn -0.7623 0.0110 0.6471
vn -0.4697 -0.3913 0.7913
vn -0.4866 -0.4116 0.7705
vn -0.0474 -0.6899 0.7223
vn 0.7657 -0.0062 -0.6431
vn 0.9082 -0.2921 0.2997
vn 0.8953 -0.3439 0.2832
vn 0.6133 -0.3348 0.7154
vn 0.5979 -0.3946 0.6977
vn 0.1578 -0.2898 0.9440
vn 0.1433 -0.3416 0.9288
vn -0.3408 -0.1684 0.9249
vn -0.3499 -0.1984 0.9155
vn -0.7516 -0.0015 0.6596
vn -0.9120 0.2903 -0.2897
vn -0.8989 0.3419 -0.2738
vn -0.9547 0.1962 0.2237
vn 0.3586 0.1627 -0.9192
vn 0.3663 0.1921 -0.9104
vn -0.1335 0.3395 -0.9310
vn -0.7523 -0.0019 0.6588
vn -0.9623 0.1668 0.2149
vn -0.6133 0.3348 -0.7154
vn -0.5979 0.3946 -0.6977
vn -0.3890 0.8006 -0.4557
vn -0.3523 0.8397 -0.4133
vn 0.0698 0.7282 -0.6818
vn -0.1473 0.2879 -0.9462
vn -0.9192 -0.3019 0.2528
vn -0.9060 -0.3283 0.2670
vn -0.7643 -0.0050 0.6448
vn -0.8302 -0.5186 -0.2043
vn 0.4970 0.6486 0.5764
vn 0.5229 0.5984 0.6070
vn 0.0688 0.5179 0.8527
vn 0.0469 0.5614 0.8262
vn -0.4032 0.2965 0.8657
vn -0.4158 0.3213 0.8508
vn 0.8342 0.5155 0.1956
vn 0.8116 0.5591 0.1696
vn 0.9050 0.3173 -0.2832
vn -0.8071 -0.5626 -0.1789
vn -0.5229 -0.5984 -0.6069
vn -0.4970 -0.6486 -0.5763
vn -0.0782 -0.5209 -0.8500
vn -0.0567 -0.5650 -0.8231
vn 0.3878 -0.3060 -0.8694
vn 0.3999 -0.3323 -0.8542
vn 0.7530 -0.0088 -0.6579
vn 0.7530 -0.0097 -0.6579
vn -0.3854 -0.2492 0.8884
vn -0.3666 -0.1929 0.9101
vn 0.1330 -0.3410 0.9306
vn -0.7646 0.0078 0.6445
vn -0.7651 0.0066 0.6438
vn -0.9376 0.2614 0.2294
vn -0.9570 0.2033 0.2070
vn -0.8617 0.4447 -0.2443
vn -0.8949 0.3453 -0.2826
vn -0.5592 0.5107 -0.6530
vn -0.5974 0.3963 -0.6972
vn 0.9379 -0.2605 -0.2289
vn 0.7646 -0.0077 -0.6444
vn 0.3849 0.2484 -0.8889
vn -0.7643 -0.0041 0.6448
vn -0.1095 0.4424 -0.8901
vn -0.1429 0.3430 -0.9284
vn 0.3695 0.2574 -0.8928
vn 0.3501 0.1993 -0.9153
vn 0.7527 0.0031 -0.6583
vn 0.7523 0.0019 -0.6589
vn 0.3355 0.1366 -0.9321
vn 0.7517 0.0007 -0.6595
vn 0.9544 -0.1969 -0.2242
vn 0.9685 -0.1362 -0.2082
vn 0.8985 -0.3433 0.2733
vn 0.9236 -0.2367 0.3016
vn 0.5973 -0.3963 0.6972
vn 0.6263 -0.2729 0.7303
vn 0.1577 -0.2344 0.9593
vn -0.3506 0.1254 0.9281
vn -0.3632 0.1867 0.9128
vn 0.1391 0.3253 0.9353
vn -0.3531 -0.1320 0.9262
vn -0.7657 -0.0005 0.6432
vn -0.7656 0.0054 0.6432
vn -0.9716 0.1406 0.1901
vn -0.9200 0.2381 -0.3113
vn -0.6263 0.2728 -0.7302
vn -0.1677 0.2358 -0.9572
vn -0.7652 -0.0017 0.6438
vn -0.3809 0.2436 0.8919
vn -0.7647 -0.0028 0.6444
vn -0.9605 -0.1886 0.2043
vn -0.1841 0.1207 -0.9755
vn 0.3257 0.0692 -0.9429
vn 0.7512 -0.0008 -0.6600
vn 0.9775 -0.0709 -0.1984
vn 0.9397 -0.1222 0.3194
vn 0.6447 -0.1402 0.7514
vn 0.1731 -0.1198 0.9776
vn -0.3443 -0.0668 0.9364
vn -0.9422 -0.2474 0.2259
vn -0.9010 -0.3248 -0.2875
vn -0.8696 -0.4254 -0.2506
vn -0.6044 -0.3753 -0.7027
vn -0.5683 -0.4911 -0.6602
vn -0.1489 -0.3272 -0.9331
vn -0.1176 -0.4277 -0.8962
vn 0.3465 -0.1927 -0.9180
vn 0.3649 -0.2514 -0.8964
vn 0.7521 -0.0064 -0.6590
vn 0.7526 -0.0076 -0.6584
vn 0.9579 0.1826 -0.2215
vn 0.9402 0.2396 -0.2422
vn 0.9046 0.3229 0.2781
vn 0.8734 0.4229 0.2415
vn 0.6044 0.3754 0.7027
vn 0.5683 0.4911 0.6602
vn 0.1080 0.4252 0.8986
vn 0.9178 0.2924 -0.2684
vn -0.7661 0.0039 0.6427
vn -0.9810 0.0733 0.1792
vn -0.9360 0.1230 -0.3297
vn -0.6447 0.1403 -0.7514
vn -0.6514 0.0113 -0.7587
vn -0.1892 0.0086 -0.9819
vn 0.3234 0.0037 -0.9463
vn 0.7521 -0.0022 -0.6590
vn 0.9811 -0.0076 -0.1933
vn 0.9450 -0.0110 0.3267
vn 0.6513 -0.0113 0.7587
vn 0.1799 -0.0086 0.9836
vn -0.3396 -0.0035 0.9405
vn -0.7652 0.0025 0.6438
vn -0.9843 0.0078 0.1764
vn -0.9419 0.0110 -0.3356
vn -0.9380 -0.1011 -0.3313
vn -0.6471 -0.1178 -0.7532
vn -0.1860 -0.1035 -0.9771
vn 0.3245 -0.0619 -0.9438
vn 0.7511 -0.0037 -0.6601
vn 0.9787 0.0558 -0.1974
vn 0.9417 0.1005 0.3211
vn 0.6471 0.1178 0.7532
vn 0.1751 0.1028 0.9791
vn -0.3431 0.0599 0.9374
vn -0.7662 0.0010 0.6426
vn -0.9823 -0.0578 0.1781
vn -0.9741 -0.1255 0.1882
vn -0.9241 -0.2168 -0.3147
vn -0.6310 -0.2510 -0.7340
vn -0.1721 -0.2192 -0.9604
vn 0.3329 -0.1295 -0.9340
vn 0.7517 -0.0051 -0.6594
vn 0.9709 0.1213 -0.2065
vn 0.9277 0.2155 0.3048
vn 0.8845 -0.3528 -0.3052
vn 0.9124 -0.3053 -0.2728
vn 0.7532 0.0042 -0.6578
vn 0.7537 0.0054 -0.6572
vn 0.3936 0.3110 -0.8650
vn 0.4222 0.3603 -0.8318
vn -0.0685 0.5342 -0.8425
vn -0.0194 0.6185 -0.7856
vn -0.5119 0.6164 -0.5983
vn -0.4553 0.7134 -0.5326
vn -0.8206 0.5365 -0.1969
vn -0.7714 0.6207 -0.1399
vn -0.9135 0.3151 0.2571
vn -0.8848 0.3645 0.2903
vn -0.7642 0.0089 0.6449
vn -0.7637 0.0102 0.6455
vn -0.4087 -0.3012 0.8615
vn -0.4368 -0.3487 0.8292
vn 0.0593 -0.5311 0.8452
vn 0.0101 -0.6146 0.7887
vn 0.5119 -0.6164 0.5983
vn 0.4552 -0.7133 0.5328
vn 0.8246 -0.5334 0.1881
vn 0.7759 -0.6170 0.1312
vn 0.6311 0.2510 0.7340
vn 0.1618 0.2179 0.9625
vn 0.9356 -0.2534 -0.2457
vn 0.8655 -0.4422 0.2354
vn 0.5592 -0.5107 0.6530
vn 0.1002 -0.4398 0.8925
vn -0.3932 -0.3103 0.8655
vn -0.4057 -0.3364 0.8498
vn 0.0467 -0.5765 0.8158
vn -0.7531 -0.0043 0.6579
vn 0.4084 0.3005 -0.8619
vn 0.7642 -0.0089 -0.6449
vn 0.9139 -0.3144 -0.2567
vn 0.8622 -0.4431 0.2452
vn 0.8212 -0.5353 0.1976
vn 0.5599 -0.5088 0.6538
vn 0.5126 -0.6150 0.5992
vn 0.1103 -0.4408 0.8908
vn 0.0691 -0.5329 0.8433
vn -0.3692 -0.2564 0.8932
vn -0.7526 -0.0031 0.6584
vn -0.9360 0.2524 0.2453
vn -0.9127 0.3045 0.2724
vn -0.8661 0.4406 -0.2362
vn -0.8253 0.5322 -0.1888
vn -0.5599 0.5088 -0.6539
vn -0.5125 0.6149 -0.5993
vn -0.1008 0.4382 -0.8932
vn -0.0598 0.5298 -0.8460
vn -0.8994 0.3291 0.2876
vn -0.7530 -0.0053 0.6579
vn 0.4216 0.3250 -0.8465
vn 0.9002 -0.3405 -0.2713
vn 0.7642 -0.0100 -0.6448
vn -0.0368 0.5728 -0.8188
vn 0.4856 -0.6646 0.5678
vn 0.7972 -0.5788 0.1714
vn -0.8018 0.5752 -0.1621
vn -0.4855 0.6646 -0.5679
s 1
f 1//1 2//2 3//3
f 4//4 1//1 3//3
f 5//5 6//6 2//2
f 2//2 1//1 5//5
f 7//7 8//8 6//6
f 6//6 5//5 7//7
f 9//9 10//10 8//8
f 8//8 7//7 9//9
f 10//10 9//9 11//11
f 4//4 3//3 12//12
f 13//13 14//14 15//15
f 16//16 17//17 18//18
f 18//18 19//19 16//16
f 20//20 21//21 17//17
f 17//17 16//16 20//20
f 22//22 23//23 21//21
f 21//21 20//20 22//22
f 24//24 12//12 23//23
f 23//23 22//22 24//24
f 12//12 24//24 4//4
f 15//15 25//25 13//13
f 26//26 27//27 14//14
f 14//14 13//13 26//26
f 28//28 29//29 27//27
f 27//27 26//26 28//28
f 30//30 31//31 29//29
f 29//29 28//28 30//30
f 32//32 33//33 31//31
f 31//31 30//30 32//32
f 33//33 32//32 34//34
f 35//35 36//36 37//37
f 38//38 39//39 40//40
f 34//34 41//41 33//33
f 42//42 37//37 41//41
f 41//41 34//34 42//42
f 37//37 42//42 35//35
f 43//43 44//44 36//36
f 36//36 35//35 43//43
f 45//45 46//46 47//47
f 47//47 11//11 45//45
f 19//19 18//18 46//46
f 46//46 45//45 19//19
f 11//11 47//47 10//10
f 48//48 40//40 44//44
f 44//44 43//43 48//48
f 40//40 48//48 38//38
f 25//25 15//15 39//39
f 39//39 38//38 25//25
f 49//49 50//50 51//51
f 50//50 49//49 52//52
f 53//53 54//54 55//55
f 55//55 56//56 53//53
f 56//56 55//55 57//57
f 57//57 58//58 56//56
f 59//59 60//60 61//61
f 60//60 59//59 54//54
f 54//54 53//53 60//60
f 52//52 62//62 50//50
f 62//62 52//52 63//63
f 63//63 64//64 62//62
f 64//64 63//63 65//65
f 65//65 66//66 64//64
f 66//66 65//65 67//67
f 67//67 68//68 66//66
f 68//68 67//67 69//69
f 69//69 70//70 68//68
f 71//71 72//72 73//73
f 72//72 71//71 74//74
f 74//74 75//75 72//72
f 75//75 74//74 76//76
f 76//76 77//77 75//75
f 77//77 76//76 78//78
f 78//78 79//79 77//77
f 79//79 78//78 80//80
f 80//80 81//81 79//79
f 82//82 14//14 27//27
f 14//14 82//82 83//83
f 83//83 15//15 14//14
f 15//15 83//83 84//84
f 84//84 39//39 15//15
f 51//51 85//85 49//49
f 81//81 80//80 86//86
f 86//86 87//87 81//81
f 87//87 86//86 88//88
f 88//88 89//89 87//87
f 89//89 88//88 90//90
f 90//90 91//91 89//89
f 92//92 89//89 91//91
f 91//91 93//93 92//92
f 93//93 91//91 94//94
f 94//94 95//95 93//93
f 95//95 94//94 96//96
f 96//96 97//97 95//95
f 97//97 96//96 98//98
f 98//98 99//99 97//97
f 99//99 98//98 73//73
f 73//73 100//100 99//99
f 100//100 73//73 72//72
f 101//101 102//102 103//103
f 72//72 104//104 100//100
f 104//104 72//72 75//75
f 102//102 101//101 105//105
f 75//75 106//106 104//104
f 106//106 75//75 77//77
f 77//77 107//107 106//106
f 107//107 77//77 79//79
f 79//79 108//108 107//107
f 108//108 79//79 81//81
f 81//81 109//109 108//108
f 109//109 81//81 87//87
f 87//87 110//110 109//109
f 110//110 87//87 89//89
f 105//105 111//111 102//102
f 112//112 102//102 111//111
f 111//111 113//113 112//112
f 113//113 111//111 114//114
f 89//89 92//92 110//110
f 115//115 110//110 92//92
f 92//92 116//116 115//115
f 116//116 92//92 93//93
f 93//93 117//117 116//116
f 117//117 93//93 95//95
f 95//95 118//118 117//117
f 118//118 95//95 97//97
f 97//97 119//119 118//118
f 119//119 97//97 99//99
f 99//99 120//120 119//119
f 120//120 99//99 100//100
f 100//100 121//121 120//120
f 121//121 100//100 104//104
f 104//104 122//122 121//121
f 114//114 123//123 113//113
f 123//123 114//114 124//124
f 124//124 125//125 123//123
f 125//125 124//124 126//126
f 126//126 127//127 125//125
f 127//127 126//126 128//128
f 128//128 129//129 127//127
f 129//129 128//128 130//130
f 130//130 131//131 129//129
f 131//131 130//130 132//132
f 132//132 133//133 131//131
f 133//133 132//132 134//134
f 134//134 135//135 133//133
f 135//135 134//134 136//136
f 136//136 137//137 135//135
f 137//137 136//136 138//138
f 138//138 139//139 137//137
f 139//139 138//138 103//103
f 103//103 140//140 139//139
f 113//113 85//85 57//57
f 85//85 113//113 123//123
f 123//123 49//49 85//85
f 49//49 123//123 125//125
f 125//125 52//52 49//49
f 52//52 125//125 127//127
f 127//127 63//63 52//52
f 63//63 127//127 129//129
f 129//129 65//65 63//63
f 65//65 129//129 131//131
f 131//131 67//67 65//65
f 67//67 131//131 133//133
f 133//133 69//69 67//67
f 69//69 133//133 135//135
f 135//135 141//141 69//69
f 141//141 135//135 137//137
f 137//137 59//59 141//141
f 59//59 137//137 139//139
f 139//139 54//54 59//59
f 54//54 139//139 140//140
f 140//140 55//55 54//54
f 122//122 104//104 106//106
f 106//106 142//142 122//122
f 142//142 106//106 107//107
f 107//107 143//143 142//142
f 143//143 107//107 108//108
f 108//108 144//144 143//143
f 144//144 108//108 109//109
f 109//109 145//145 144//144
f 145//145 109//109 110//110
f 110//110 115//115 145//145
f 146//146 145//145 115//115
f 115//115 147//147 146//146
f 147//147 115//115 116//116
f 116//116 148//148 147//147
f 148//148 116//116 117//117
f 117//117 149//149 148//148
f 149//149 117//117 118//118
f 118//118 150//150 149//149
f 150//150 118//118 119//119
f 119//119 151//151 150//150
f 151//151 119//119 120//120
f 120//120 152//152 151//151
f 152//152 120//120 121//121
f 121//121 153//153 152//152
f 140//140 103//103 102//102
f 102//102 112//112 140//140
f 55//55 140//140 112//112
f 112//112 57//57 55//55
f 57//57 112//112 113//113
f 153//153 121//121 122//122
f 122//122 154//154 153//153
f 154//154 122//122 142//142
f 142//142 155//155 154//154
f 155//155 142//142 143//143
f 143//143 156//156 155//155
f 156//156 143//143 144//144
f 144//144 157//157 156//156
f 157//157 144//144 145//145
f 145//145 146//146 157//157
f 158//158 157//157 146//146
f 146//146 159//159 158//158
f 159//159 146//146 147//147
f 147//147 160//160 159//159
f 160//160 147//147 148//148
f 148//148 161//161 160//160
f 161//161 148//148 149//149
f 149//149 162//162 161//161
f 162//162 149//149 150//150
f 150//150 163//163 162//162
f 163//163 150//150 151//151
f 151//151 164//164 163//163
f 164//164 151//151 152//152
f 152//152 165//165 164//164
f 165//165 152//152 153//153
f 153//153 166//166 165//165
f 166//166 153//153 154//154
f 154//154 167//167 166//166
f 167//167 154//154 155//155
f 155//155 168//168 167//167
f 168//168 155//155 156//156
f 156//156 169//169 168//168
f 169//169 156//156 157//157
f 157//157 158//158 169//169
f 170//170 169//169 158//158
f 158//158 171//171 170//170
f 171//171 158//158 159//159
f 159//159 172//172 171//171
f 172//172 159//159 160//160
f 160//160 173//173 172//172
f 173//173 160//160 161//161
f 161//161 174//174 173//173
f 174//174 161//161 162//162
f 162//162 175//175 174//174
f 175//175 162//162 163//163
f 163//163 176//176 175//175
f 176//176 163//163 164//164
f 164//164 177//177 176//176
f 178//178 179//179 180//180
f 180//180 181//181 178//178
f 181//181 180//180 182//182
f 182//182 183//183 181//181
f 183//183 182//182 184//184
f 184//184 185//185 183//183
f 185//185 184//184 186//186
f 186//186 187//187 185//185
f 187//187 186//186 188//188
f 188//188 189//189 187//187
f 189//189 188//188 190//190
f 190//190 191//191 189//189
f 191//191 190//190 192//192
f 192//192 193//193 191//191
f 193//193 192//192 194//194
f 194//194 195//195 193//193
f 195//195 194//194 196//196
f 196//196 197//197 195//195
f 197//197 196//196 198//198
f 198//198 199//199 197//197
f 199//199 198//198 200//200
f 200//200 201//201 199//199
f 201//201 200//200 179//179
f 179//179 178//178 201//201
f 177//177 164//164 165//165
f 165//165 202//202 177//177
f 202//202 165//165 166//166
f 181//181 7//7 5//5
f 7//7 181//181 183//183
f 183//183 9//9 7//7
f 9//9 183//183 185//185
f 185//185 11//11 9//9
f 11//11 185//185 187//187
f 187//187 45//45 11//11
f 45//45 187//187 189//189
f 189//189 19//19 45//45
f 19//19 189//189 191//191
f 191//191 16//16 19//19
f 16//16 191//191 193//193
f 193//193 20//20 16//16
f 20//20 193//193 195//195
f 195//195 22//22 20//20
f 22//22 195//195 197//197
f 197//197 24//24 22//22
f 166//166 203//203 202//202
f 203//203 166//166 167//167
f 167//167 101//101 203//203
f 101//101 167//167 168//168
f 168//168 105//105 101//101
f 105//105 168//168 169//169
f 169//169 170//170 105//105
f 111//111 105//105 170//170
f 170//170 114//114 111//111
f 114//114 170//170 171//171
f 171//171 124//124 114//114
f 124//124 171//171 172//172
f 172//172 126//126 124//124
f 126//126 172//172 173//173
f 173//173 128//128 126//126
f 128//128 173//173 174//174
f 174//174 130//130 128//128
f 130//130 174//174 175//175
f 175//175 132//132 130//130
f 132//132 175//175 176//176
f 176//176 134//134 132//132
f 134//134 176//176 177//177
f 177//177 136//136 134//134
f 136//136 177//177 202//202
f 202//202 138//138 136//136
f 138//138 202//202 203//203
f 203//203 103//103 138//138
f 103//103 203//203 101//101
f 204//204 179//179 200//200
f 200//200 205//205 204//204
f 205//205 200//200 198//198
f 198//198 206//206 205//205
f 206//206 198//198 196//196
f 196//196 207//207 206//206
f 207//207 196//196 194//194
f 194//194 71//71 207//207
f 71//71 194//194 192//192
f 192//192 74//74 71//71
f 74//74 192//192 190//190
f 190//190 76//76 74//74
f 76//76 190//190 188//188
f 188//188 78//78 76//76
f 78//78 188//188 186//186
f 186//186 80//80 78//78
f 80//80 186//186 184//184
f 184//184 86//86 80//80
f 86//86 184//184 182//182
f 182//182 88//88 86//86
f 88//88 182//182 180//180
f 180//180 90//90 88//88
f 90//90 180//180 179//179
f 179//179 204//204 90//90
f 91//91 90//90 204//204
f 204//204 94//94 91//91
f 94//94 204//204 205//205
f 205//205 96//96 94//94
f 96//96 205//205 206//206
f 206//206 98//98 96//96
f 98//98 206//206 207//207
f 207//207 73//73 98//98
f 73//73 207//207 71//71
f 4//4 199//199 201//201
f 201//201 1//1 4//4
f 208//208 209//209 210//210
f 209//209 208//208 211//211
f 1//1 201//201 178//178
f 5//5 1//1 178//178
f 5//5 178//178 181//181
f 24//24 197//197 199//199
f 199//199 4//4 24//24
f 212//212 84//84 83//83
f 83//83 213//213 212//212
f 213//213 83//83 82//82
f 82//82 214//214 213//213
f 214//214 82//82 215//215
f 215//215 216//216 214//214
f 216//216 215//215 217//217
f 217//217 218//218 216//216
f 218//218 217//217 219//219
f 219//219 220//220 218//218
f 220//220 219//219 221//221
f 221//221 208//208 220//220
f 208//208 221//221 222//222
f 222//222 211//211 208//208
f 211//211 222//222 223//223
f 223//223 224//224 211//211
f 224//224 223//223 225//225
f 225//225 226//226 224//224
f 226//226 225//225 227//227
f 227//227 228//228 226//226
f 228//228 227//227 229//229
f 229//229 230//230 228//228
f 230//230 229//229 84//84
f 84//84 212//212 230//230
f 39//39 84//84 229//229
f 229//229 40//40 39//39
f 40//40 229//229 227//227
f 227//227 44//44 40//40
f 44//44 227//227 225//225
f 225//225 36//36 44//44
f 36//36 225//225 223//223
f 223//223 37//37 36//36
f 37//37 223//223 222//222
f 222//222 41//41 37//37
f 41//41 222//222 221//221
f 221//221 33//33 41//41
f 33//33 221//221 219//219
f 219//219 31//31 33//33
f 31//31 219//219 217//217
f 217//217 29//29 31//31
f 29//29 217//217 215//215
f 215//215 27//27 29//29
f 27//27 215//215 82//82
f 231//231 224//224 226//226
f 211//211 232//232 209//209
f 233//233 212//212 213//213
f 234//234 214//214 216//216
f 58//58 57//57 85//85
f 85//85 51//51 58//58
f 70//70 69//69 141//141
f 141//141 61//61 70//70
f 61//61 141//141 59//59
f 213//213 235//235 233//233
f 235//235 213//213 214//214
f 214//214 234//234 235//235
f 212//212 233//233 236//236
f 224//224 231//231 232//232
f 232//232 211//211 224//224
f 236//236 230//230 212//212
f 210//210 220//220 208//208
f 220//220 210//210 237//237
f 237//237 218//218 220//220
f 238//238 216//216 218//218
f 218//218 237//237 238//238
f 226//226 239//239 231//231
f 239//239 226//226 228//228
f 228//228 240//240 239//239
f 240//240 228//228 230//230
f 230//230 236//236 240//240
f 216//216 238//238 234//234
