# Blender v2.79 (sub 0) OBJ File: 'm3.blend'
# www.blender.org
o F_Window_Plane.015
v 1.590126 0.432965 -0.671291
v 1.591468 0.435032 -0.772751
v 1.598287 0.417959 -0.668947
v 1.588723 0.430560 -0.556574
v 1.569356 0.471217 -0.677571
v 1.570849 0.473071 -0.779851
v 1.599570 0.420114 -0.770038
v 1.596923 0.415479 -0.554640
v 1.567855 0.468990 -0.561907
v 1.582115 0.398545 0.566690
v 1.582432 0.402239 0.461052
v 1.588065 0.387219 0.566695
v 1.581825 0.394794 0.671633
v 1.566979 0.427280 0.566679
v 1.566072 0.433216 0.461052
v 1.588864 0.390036 0.461052
v 1.587258 0.384401 0.671650
v 1.568004 0.421148 0.671589
v 1.583591 0.411694 0.177723
v 1.564805 0.447449 0.177654
v 1.584048 0.414397 0.089540
v 1.590978 0.397624 0.177746
v 1.583169 0.408837 0.266296
v 1.564973 0.443363 0.266296
v 1.564801 0.451092 0.089267
v 1.591615 0.399962 0.089632
v 1.590323 0.395247 0.266296
v 1.581072 0.384707 0.938478
v 1.570913 0.404367 0.938128
v 1.581301 0.387739 0.860822
v 1.585074 0.376949 0.938618
v 1.580879 0.382160 1.002255
v 1.571652 0.400084 1.001773
v 1.570034 0.409445 0.860604
v 1.585735 0.379174 0.860909
v 1.584517 0.375089 1.002448
v 1.185159 1.173867 -0.254894
v 1.191684 1.163991 -0.130373
v 1.176295 1.190531 -0.255658
v 1.180328 1.180611 -0.387234
v 1.206299 1.134181 -0.252638
v 1.212449 1.124683 -0.129004
v 1.182977 1.180496 -0.130830
v 1.171341 1.197364 -0.388373
v 1.201762 1.140712 -0.383959
v 1.387202 0.806929 -0.733803
v 1.390007 0.806956 -0.842845
v 1.464771 0.663956 -0.709805
v 1.384844 0.806221 -0.610198
v 1.309520 0.950121 -0.757825
v 1.312885 0.949370 -0.869735
v 1.467017 0.664760 -0.815987
v 1.462777 0.662604 -0.589565
v 1.306796 0.950059 -0.630846
v 1.434272 0.679026 0.566585
v 1.422632 0.704638 0.461052
v 1.490783 0.571794 0.566625
v 1.446819 0.652023 0.671210
v 1.377676 0.786572 0.566544
v 1.361461 0.820502 0.461052
v 1.483712 0.589042 0.461052
v 1.498425 0.553663 0.671371
v 1.395130 0.750742 0.671048
v 1.400091 0.760823 0.177015
v 1.329848 0.894467 0.176742
v 1.396036 0.772739 0.086711
v 1.470231 0.627384 0.177289
v 1.405444 0.745933 0.266296
v 1.337412 0.874985 0.266296
v 1.324065 0.909906 0.085616
v 1.467901 0.635777 0.087806
v 1.473376 0.617092 0.266296
v 1.481876 0.576630 0.935090
v 1.443842 0.650471 0.933795
v 1.471264 0.599601 0.858708
v 1.519802 0.503201 0.936383
v 1.490823 0.557162 0.997582
v 1.456266 0.624536 0.995796
v 1.429103 0.681054 0.857900
v 1.513331 0.518558 0.859515
v 1.525258 0.490196 0.999365
v 1.585666 0.422518 -0.208496
v 1.585054 0.419774 -0.102081
v 1.565256 0.460798 -0.210748
v 1.586438 0.425254 -0.320472
v 1.593686 0.407477 -0.207738
v 1.592932 0.404866 -0.101624
v 1.565007 0.457698 -0.103450
v 1.565743 0.463730 -0.323728
v 1.594570 0.410143 -0.319355
v 1.386284 0.796516 -0.231690
v 1.389225 0.790232 -0.116227
v 1.309958 0.939695 -0.240662
v 1.384266 0.801236 -0.353831
v 1.462497 0.653553 -0.222718
v 1.464079 0.648628 -0.110751
v 1.314261 0.932049 -0.121703
v 1.306872 0.945183 -0.366722
v 1.461545 0.657507 -0.340942
v 1.182508 1.184289 -0.796674
v 1.186789 1.182252 -0.913434
v 1.204020 1.144613 -0.790244
v 1.179186 1.185296 -0.664046
v 1.173491 1.200937 -0.799192
v 1.177837 1.198801 -0.916386
v 1.208146 1.142799 -0.906127
v 1.200800 1.145434 -0.658620
v 1.170125 1.202028 -0.666089
v 1.285108 0.964383 0.566478
v 1.261431 1.011208 0.461052
v 1.300798 0.933603 0.566489
v 1.310531 0.914820 0.670783
v 1.278519 0.978068 0.566473
v 1.254321 1.025429 0.461052
v 1.278379 0.978481 0.461052
v 1.324889 0.886131 0.670828
v 1.304477 0.927908 0.670763
v 1.214983 1.113109 0.176308
v 1.206819 1.128706 0.176285
v 1.206377 1.134246 0.083882
v 1.234444 1.076031 0.176377
v 1.226161 1.086303 0.266296
v 1.218253 1.101479 0.266296
v 1.198014 1.150213 0.083791
v 1.226315 1.096224 0.084156
v 1.245011 1.050404 0.266296
v 1.381004 0.774953 0.931669
v 1.376191 0.785808 0.931512
v 1.359760 0.817821 0.856573
v 1.391866 0.752609 0.932032
v 1.398868 0.738485 0.992863
v 1.394311 0.748614 0.992647
v 1.354616 0.829462 0.856476
v 1.371642 0.793449 0.856800
v 1.408892 0.717910 0.993364
v 1.593636 0.438213 -0.930506
v 1.593770 0.438543 -0.943246
v 1.601578 0.423528 -0.927085
v 1.593267 0.437633 -0.902788
v 1.573324 0.475840 -0.938967
v 1.573525 0.476061 -0.951961
v 1.601570 0.424097 -0.939443
v 1.601273 0.422845 -0.899588
v 1.572889 0.475355 -0.910958
v 1.395048 0.806379 -1.012846
v 1.395459 0.806300 -1.027073
v 1.470965 0.665605 -0.981387
v 1.394161 0.806500 -0.982705
v 1.319019 0.947367 -1.044353
v 1.319519 0.947160 -1.059104
v 1.471287 0.665653 -0.995090
v 1.470270 0.665469 -0.952147
v 1.317939 0.947747 -1.013306
v 1.194732 1.177857 -1.095809
v 1.195435 1.177327 -1.111237
v 1.215766 1.138848 -1.087145
v 1.193318 1.178700 -1.063304
v 1.185965 1.194114 -1.099275
v 1.186849 1.193231 -1.114185
v 1.216388 1.138467 -1.102616
v 1.214425 1.139581 -1.054848
v 1.184472 1.195101 -1.066833
v 1.580576 0.378317 1.097273
v 1.572763 0.393579 1.096596
v 1.580635 0.378991 1.080417
v 1.583652 0.372330 1.097470
v 1.580534 0.378026 1.105194
v 1.572852 0.393027 1.104582
v 1.572569 0.394737 1.079751
v 1.583823 0.372783 1.080683
v 1.583517 0.372231 1.105142
v 1.504326 0.527482 1.090456
v 1.475016 0.584975 1.087840
v 1.501951 0.532774 1.073962
v 1.533490 0.470382 1.093068
v 1.505426 0.524950 1.098272
v 1.476545 0.581598 1.095582
v 1.471717 0.592030 1.071495
v 1.532043 0.473914 1.076425
v 1.534160 0.468693 1.100957
v 1.425818 0.682723 1.083518
v 1.421655 0.691635 1.083126
v 1.421062 0.692683 1.067444
v 1.434577 0.664917 1.084277
v 1.428049 0.677912 1.091064
v 1.423988 0.686566 1.090434
v 1.416807 0.701855 1.067147
v 1.430053 0.674368 1.068136
v 1.436678 0.660393 1.091921
v -1.597271 0.432965 -0.671291
v -1.576501 0.471217 -0.677571
v -1.595868 0.430560 -0.556574
v -1.605431 0.417959 -0.668947
v -1.598613 0.435032 -0.772751
v -1.577993 0.473071 -0.779851
v -1.575000 0.468990 -0.561907
v -1.604067 0.415479 -0.554640
v -1.606714 0.420114 -0.770038
v -1.589260 0.398545 0.566690
v -1.574124 0.427280 0.566679
v -1.588969 0.394794 0.671633
v -1.595210 0.387219 0.566695
v -1.589576 0.402239 0.461052
v -1.573216 0.433216 0.461052
v -1.575148 0.421148 0.671589
v -1.594403 0.384401 0.671650
v -1.596009 0.390036 0.461052
v -1.590736 0.411694 0.177723
v -1.590313 0.408837 0.266296
v -1.598122 0.397624 0.177745
v -1.591192 0.414397 0.089541
v -1.571949 0.447449 0.177654
v -1.572117 0.443363 0.266296
v -1.597467 0.395247 0.266296
v -1.598759 0.399962 0.089632
v -1.571945 0.451092 0.089267
v -1.588217 0.384707 0.938478
v -1.588023 0.382160 1.002255
v -1.592219 0.376949 0.938618
v -1.588446 0.387739 0.860822
v -1.578057 0.404367 0.938128
v -1.578796 0.400084 1.001773
v -1.591662 0.375089 1.002448
v -1.592879 0.379174 0.860909
v -1.577179 0.409445 0.860604
v -1.192304 1.173867 -0.254894
v -1.213444 1.134181 -0.252638
v -1.187472 1.180611 -0.387234
v -1.183439 1.190531 -0.255658
v -1.198829 1.163991 -0.130373
v -1.219593 1.124683 -0.129004
v -1.208907 1.140712 -0.383959
v -1.178485 1.197364 -0.388373
v -1.190121 1.180496 -0.130830
v -1.394347 0.806929 -0.733804
v -1.316664 0.950121 -0.757825
v -1.391989 0.806221 -0.610198
v -1.471915 0.663956 -0.709804
v -1.397152 0.806956 -0.842845
v -1.320029 0.949370 -0.869736
v -1.313941 0.950059 -0.630846
v -1.469922 0.662604 -0.589565
v -1.474161 0.664760 -0.815987
v -1.441416 0.679026 0.566585
v -1.384820 0.786572 0.566544
v -1.453963 0.652023 0.671210
v -1.497927 0.571794 0.566625
v -1.429776 0.704638 0.461052
v -1.368606 0.820502 0.461052
v -1.402275 0.750742 0.671048
v -1.505569 0.553663 0.671371
v -1.490857 0.589042 0.461052
v -1.407236 0.760823 0.177015
v -1.412589 0.745933 0.266296
v -1.477376 0.627384 0.177289
v -1.403180 0.772739 0.086711
v -1.336993 0.894467 0.176742
v -1.344557 0.874985 0.266296
v -1.480520 0.617092 0.266296
v -1.475045 0.635777 0.087806
v -1.331209 0.909906 0.085616
v -1.489020 0.576630 0.935090
v -1.497968 0.557162 0.997582
v -1.526946 0.503201 0.936383
v -1.478408 0.599601 0.858708
v -1.450986 0.650471 0.933795
v -1.463411 0.624536 0.995796
v -1.532402 0.490196 0.999365
v -1.520475 0.518558 0.859515
v -1.436247 0.681054 0.857900
v -1.592810 0.422518 -0.208496
v -1.600831 0.407477 -0.207738
v -1.593582 0.425254 -0.320472
v -1.572401 0.460798 -0.210748
v -1.592198 0.419774 -0.102081
v -1.600077 0.404866 -0.101624
v -1.601714 0.410143 -0.319354
v -1.572888 0.463730 -0.323728
v -1.572152 0.457698 -0.103450
v -1.393428 0.796516 -0.231689
v -1.469641 0.653553 -0.222718
v -1.391410 0.801236 -0.353831
v -1.317103 0.939695 -0.240662
v -1.396370 0.790232 -0.116227
v -1.471224 0.648628 -0.110751
v -1.468690 0.657507 -0.340942
v -1.314016 0.945183 -0.366722
v -1.321405 0.932049 -0.121703
v -1.189652 1.184289 -0.796674
v -1.180635 1.200937 -0.799192
v -1.186330 1.185296 -0.664046
v -1.211165 1.144613 -0.790245
v -1.193933 1.182252 -0.913434
v -1.184982 1.198801 -0.916386
v -1.177269 1.202028 -0.666089
v -1.207944 1.145434 -0.658620
v -1.215290 1.142799 -0.906127
v -1.292253 0.964383 0.566478
v -1.285664 0.978068 0.566473
v -1.317675 0.914820 0.670783
v -1.307942 0.933603 0.566489
v -1.268575 1.011208 0.461052
v -1.261465 1.025429 0.461052
v -1.311621 0.927908 0.670763
v -1.332034 0.886131 0.670828
v -1.285523 0.978481 0.461052
v -1.222128 1.113109 0.176308
v -1.233306 1.086303 0.266296
v -1.241588 1.076031 0.176376
v -1.213521 1.134246 0.083882
v -1.213963 1.128706 0.176285
v -1.225397 1.101479 0.266296
v -1.252155 1.050404 0.266296
v -1.233460 1.096225 0.084156
v -1.205158 1.150213 0.083791
v -1.388148 0.774953 0.931669
v -1.406013 0.738485 0.992863
v -1.399011 0.752609 0.932032
v -1.366904 0.817821 0.856574
v -1.383336 0.785808 0.931513
v -1.401455 0.748614 0.992647
v -1.416036 0.717910 0.993364
v -1.378786 0.793449 0.856800
v -1.361761 0.829462 0.856476
v -1.600781 0.438213 -0.930506
v -1.580468 0.475840 -0.938967
v -1.600412 0.437633 -0.902787
v -1.608722 0.423528 -0.927085
v -1.600914 0.438543 -0.943246
v -1.580670 0.476061 -0.951960
v -1.580033 0.475356 -0.910958
v -1.608418 0.422845 -0.899588
v -1.608714 0.424097 -0.939443
v -1.402192 0.806379 -1.012846
v -1.326163 0.947367 -1.044353
v -1.401305 0.806501 -0.982705
v -1.478109 0.665605 -0.981387
v -1.402603 0.806300 -1.027073
v -1.326663 0.947160 -1.059104
v -1.325084 0.947747 -1.013306
v -1.477415 0.665469 -0.952147
v -1.478431 0.665653 -0.995090
v -1.201876 1.177857 -1.095809
v -1.193109 1.194114 -1.099275
v -1.200463 1.178700 -1.063304
v -1.222910 1.138848 -1.087145
v -1.202579 1.177327 -1.111237
v -1.193994 1.193231 -1.114185
v -1.191616 1.195101 -1.066834
v -1.221569 1.139581 -1.054848
v -1.223532 1.138467 -1.102616
v -1.587721 0.378317 1.097273
v -1.587679 0.378026 1.105194
v -1.590796 0.372330 1.097470
v -1.587780 0.378991 1.080417
v -1.579908 0.393579 1.096596
v -1.579997 0.393027 1.104582
v -1.590661 0.372231 1.105142
v -1.590967 0.372783 1.080683
v -1.579713 0.394737 1.079751
v -1.511471 0.527482 1.090456
v -1.512570 0.524950 1.098272
v -1.540635 0.470382 1.093068
v -1.509096 0.532774 1.073962
v -1.482161 0.584974 1.087840
v -1.483689 0.581598 1.095582
v -1.541304 0.468693 1.100957
v -1.539187 0.473914 1.076425
v -1.478862 0.592030 1.071495
v -1.432962 0.682723 1.083518
v -1.435193 0.677912 1.091064
v -1.441721 0.664917 1.084278
v -1.428206 0.692683 1.067444
v -1.428799 0.691635 1.083126
v -1.431132 0.686566 1.090434
v -1.443822 0.660393 1.091921
v -1.437197 0.674368 1.068136
v -1.423952 0.701855 1.067147
v 1.195437 1.155153 0.083791
v 1.204303 1.133563 0.176285
v 1.215815 1.106292 0.266296
v 1.175088 1.203897 -0.917161
v 1.170721 1.206071 -0.799753
v 1.167341 1.207194 -0.666439
v 1.180298 1.185600 -0.130830
v 1.173569 1.195684 -0.255676
v 1.168578 1.202544 -0.388443
v 1.302575 0.933194 0.670757
v 1.276480 0.983206 0.566471
v 1.252129 1.030398 0.461052
v 1.414921 0.706457 1.067047
v 1.419789 0.696100 1.082918
v 1.422210 0.690787 1.089916
v 1.596421 0.406715 -0.319308
v 1.595513 0.404056 -0.207726
v 1.594728 0.401465 -0.101624
v 1.601412 0.416757 -0.769520
v 1.600143 0.414578 -0.668571
v 1.598788 0.412074 -0.554405
v 1.566574 0.466469 -0.441184
v 1.587435 0.427946 -0.436875
v 1.595632 0.412824 -0.435360
v 1.216650 1.138260 -1.109675
v 1.195783 1.176954 -1.118127
v 1.187429 1.192402 -1.120328
v 1.593341 0.396656 0.089632
v 1.592664 0.394397 0.177746
v 1.591957 0.392125 0.266296
v 1.588498 0.381988 0.671654
v 1.589423 0.384598 0.566696
v 1.590333 0.387220 0.461052
v 1.584571 0.371343 1.080750
v 1.584358 0.370980 1.097427
v 1.584150 0.371038 1.104760
v 1.569052 0.415108 0.771118
v 1.581555 0.391140 0.771227
v 1.586472 0.381684 0.771271
v 1.259246 1.018252 0.359370
v 1.241211 1.052709 0.359370
v 1.233644 1.067422 0.359370
v 1.564891 0.454454 -0.003042
v 1.584536 0.417055 -0.002358
v 1.592258 0.402347 -0.002130
v 1.437567 0.658334 1.095315
v 1.429018 0.675675 1.094347
v 1.425064 0.684071 1.093406
v 1.199657 1.144416 -0.520206
v 1.178050 1.184371 -0.524562
v 1.168992 1.201146 -0.526131
v 1.573610 0.476151 -0.957445
v 1.593785 0.438749 -0.948498
v 1.601405 0.424609 -0.944232
v 1.349042 0.838576 0.769216
v 1.335985 0.865105 0.769103
v 1.330430 0.877516 0.769054
v 1.565372 0.438673 0.359370
v 1.582781 0.405721 0.359370
v 1.589626 0.392747 0.359370
v 1.219393 1.112077 -0.015820
v 1.199044 1.150834 -0.016504
v 1.190509 1.167107 -0.016732
v 1.572888 0.392778 1.108140
v 1.580501 0.377926 1.108647
v 1.583400 0.372308 1.108257
v 1.533952 0.547478 -0.926583
v 1.534485 0.547830 -0.955064
v 1.534733 0.547986 -0.968328
v 1.541602 0.471445 0.671506
v 1.538066 0.482128 0.566659
v 1.534820 0.492355 0.461052
v 1.528032 0.521175 0.088719
v 1.528918 0.515731 0.177517
v 1.530216 0.509292 0.266296
v 1.557184 0.424789 1.078487
v 1.557854 0.422729 1.095255
v 1.558163 0.421745 1.103204
v 1.526711 0.530147 -0.106188
v 1.526265 0.533937 -0.215239
v 1.526206 0.537254 -0.330195
v 1.319730 0.947039 -1.065708
v 1.395632 0.806242 -1.033343
v 1.471422 0.665658 -1.001025
v 1.347652 0.850613 0.359370
v 1.412742 0.727420 0.359370
v 1.477736 0.604458 0.359370
v 1.477188 0.580062 1.099024
v 1.505887 0.523798 1.101748
v 1.534440 0.467926 1.104468
v 1.305614 0.948606 -0.497558
v 1.383632 0.804451 -0.480663
v 1.461536 0.660517 -0.463775
v 1.412661 0.714930 0.769766
v 1.459430 0.625069 0.770170
v 1.506115 0.535602 0.770574
v 1.319167 0.922151 -0.012169
v 1.392630 0.782327 -0.009431
v 1.465984 0.642711 -0.006693
v 1.251298 1.051170 -0.126266
v 1.245853 1.059961 -0.248142
v 1.241869 1.066093 -0.377477
v 1.253922 1.066383 -1.039003
v 1.255163 1.065786 -1.070815
v 1.255738 1.065471 -1.086010
v 1.351705 0.834038 0.670913
v 1.330137 0.877182 0.566510
v 1.310082 0.917997 0.461052
v 1.263615 1.025120 0.084704
v 1.270850 1.006730 0.176513
v 1.280271 0.983419 0.266296
v 1.446149 0.642341 1.069421
v 1.450215 0.633805 1.085640
v 1.452101 0.629719 1.093321
v 1.181756 1.200143 -1.067900
v 1.183331 1.198994 -1.100142
v 1.184446 1.197657 -1.114296
v 1.603093 0.419524 -0.898873
v 1.603334 0.420314 -0.926186
v 1.603148 0.421185 -0.938096
v 1.531451 0.545794 -0.793531
v 1.529673 0.544339 -0.689752
v 1.527985 0.542447 -0.572337
v 1.248110 1.068989 -0.892287
v 1.244275 1.070395 -0.777947
v 1.241245 1.070877 -0.648117
v 1.572103 0.474476 -0.860421
v 1.592574 0.436631 -0.852675
v 1.600617 0.421793 -0.849667
v 1.315991 0.948386 -0.957816
v 1.392560 0.806686 -0.928690
v 1.469017 0.665202 -0.899603
v 1.181915 1.196547 -1.008618
v 1.190802 1.180088 -1.005315
v 1.212005 1.140839 -0.997313
v 1.392486 0.753520 0.992575
v 1.374404 0.790918 0.931460
v 1.352843 0.834739 0.856443
v 1.585362 0.373445 1.002496
v 1.585997 0.375143 0.938653
v 1.586751 0.377179 0.860931
v 1.554043 0.434287 1.000858
v 1.551515 0.441881 0.937465
v 1.548516 0.450861 0.860190
v 1.427114 0.681668 0.994294
v 1.411804 0.713030 0.932706
v 1.393633 0.749982 0.857221
v 1.572216 0.396804 1.049620
v 1.580729 0.380216 1.050214
v 1.584091 0.373674 1.050452
v 1.465762 0.604604 1.042248
v 1.497663 0.542208 1.044451
v 1.529428 0.480212 1.046650
v 1.408131 0.719942 1.038364
v 1.412504 0.710400 1.038630
v 1.421895 0.691211 1.039248
v -1.202582 1.155153 0.083791
v -1.211447 1.133563 0.176285
v -1.222959 1.106292 0.266296
v -1.182232 1.203897 -0.917161
v -1.177865 1.206071 -0.799753
v -1.174486 1.207194 -0.666439
v -1.187442 1.185600 -0.130830
v -1.180713 1.195684 -0.255676
v -1.175722 1.202544 -0.388443
v -1.309720 0.933194 0.670757
v -1.283625 0.983206 0.566471
v -1.259274 1.030398 0.461052
v -1.422065 0.706457 1.067047
v -1.426934 0.696100 1.082918
v -1.429355 0.690787 1.089916
v -1.603566 0.406715 -0.319308
v -1.602658 0.404056 -0.207726
v -1.601872 0.401465 -0.101624
v -1.608556 0.416757 -0.769520
v -1.607287 0.414578 -0.668571
v -1.605932 0.412074 -0.554405
v -1.573719 0.466469 -0.441184
v -1.594579 0.427946 -0.436875
v -1.602777 0.412824 -0.435360
v -1.223794 1.138260 -1.109675
v -1.202928 1.176954 -1.118127
v -1.194574 1.192402 -1.120328
v -1.600485 0.396656 0.089632
v -1.599808 0.394397 0.177746
v -1.599101 0.392125 0.266296
v -1.595643 0.381988 0.671654
v -1.596568 0.384598 0.566696
v -1.597477 0.387220 0.461052
v -1.591715 0.371343 1.080750
v -1.591502 0.370980 1.097427
v -1.591294 0.371038 1.104760
v -1.576197 0.415108 0.771118
v -1.588700 0.391140 0.771227
v -1.593616 0.381684 0.771271
v -1.266390 1.018252 0.359370
v -1.248356 1.052709 0.359370
v -1.240789 1.067422 0.359370
v -1.572035 0.454454 -0.003042
v -1.591681 0.417055 -0.002358
v -1.599403 0.402347 -0.002130
v -1.444712 0.658334 1.095315
v -1.436162 0.675675 1.094347
v -1.432208 0.684071 1.093406
v -1.206801 1.144416 -0.520206
v -1.185194 1.184371 -0.524562
v -1.176136 1.201146 -0.526131
v -1.580754 0.476151 -0.957445
v -1.600930 0.438749 -0.948498
v -1.608549 0.424609 -0.944232
v -1.356186 0.838576 0.769216
v -1.343130 0.865105 0.769103
v -1.337575 0.877516 0.769054
v -1.572517 0.438673 0.359370
v -1.589926 0.405721 0.359370
v -1.596771 0.392747 0.359370
v -1.226538 1.112077 -0.015820
v -1.206188 1.150834 -0.016504
v -1.197653 1.167107 -0.016732
v -1.580033 0.392778 1.108140
v -1.587645 0.377926 1.108647
v -1.590545 0.372308 1.108257
v -1.541096 0.547478 -0.926583
v -1.541630 0.547830 -0.955064
v -1.541877 0.547986 -0.968328
v -1.548746 0.471445 0.671506
v -1.545211 0.482128 0.566659
v -1.541964 0.492355 0.461052
v -1.535176 0.521175 0.088719
v -1.536063 0.515731 0.177517
v -1.537360 0.509292 0.266296
v -1.564329 0.424788 1.078487
v -1.564998 0.422729 1.095255
v -1.565308 0.421745 1.103204
v -1.533855 0.530147 -0.106188
v -1.533409 0.533937 -0.215239
v -1.533351 0.537254 -0.330195
v -1.326874 0.947039 -1.065708
v -1.402776 0.806242 -1.033343
v -1.478567 0.665658 -1.001025
v -1.354796 0.850613 0.359370
v -1.419886 0.727420 0.359370
v -1.484880 0.604458 0.359370
v -1.484332 0.580062 1.099024
v -1.513032 0.523798 1.101748
v -1.541584 0.467926 1.104468
v -1.312758 0.948606 -0.497558
v -1.390777 0.804451 -0.480663
v -1.468680 0.660517 -0.463775
v -1.419805 0.714930 0.769766
v -1.466575 0.625069 0.770170
v -1.513259 0.535602 0.770574
v -1.326312 0.922151 -0.012169
v -1.399774 0.782327 -0.009431
v -1.473128 0.642711 -0.006693
v -1.258443 1.051169 -0.126266
v -1.252997 1.059961 -0.248142
v -1.249014 1.066093 -0.377477
v -1.261066 1.066383 -1.039003
v -1.262307 1.065786 -1.070815
v -1.262883 1.065471 -1.086010
v -1.358850 0.834038 0.670913
v -1.337281 0.877182 0.566510
v -1.317227 0.917997 0.461052
v -1.270760 1.025120 0.084704
v -1.277994 1.006730 0.176513
v -1.287415 0.983419 0.266296
v -1.453293 0.642341 1.069421
v -1.457360 0.633805 1.085640
v -1.459245 0.629719 1.093321
v -1.188900 1.200143 -1.067900
v -1.190476 1.198994 -1.100142
v -1.191591 1.197657 -1.114296
v -1.610238 0.419524 -0.898873
v -1.610479 0.420314 -0.926186
v -1.610292 0.421185 -0.938096
v -1.538596 0.545794 -0.793531
v -1.536817 0.544339 -0.689752
v -1.535129 0.542447 -0.572337
v -1.255255 1.068989 -0.892287
v -1.251420 1.070395 -0.777947
v -1.248389 1.070877 -0.648117
v -1.579247 0.474476 -0.860421
v -1.599718 0.436631 -0.852675
v -1.607761 0.421793 -0.849667
v -1.323135 0.948386 -0.957816
v -1.399704 0.806686 -0.928690
v -1.476161 0.665202 -0.899603
v -1.189059 1.196547 -1.008618
v -1.197946 1.180088 -1.005315
v -1.219149 1.140839 -0.997313
v -1.399630 0.753520 0.992575
v -1.381548 0.790918 0.931460
v -1.359987 0.834739 0.856443
v -1.592506 0.373445 1.002496
v -1.593141 0.375143 0.938653
v -1.593896 0.377179 0.860931
v -1.561187 0.434287 1.000858
v -1.558660 0.441881 0.937465
v -1.555661 0.450861 0.860190
v -1.434258 0.681668 0.994294
v -1.418948 0.713030 0.932706
v -1.400777 0.749982 0.857221
v -1.579360 0.396804 1.049620
v -1.587874 0.380216 1.050214
v -1.591235 0.373674 1.050452
v -1.472907 0.604604 1.042248
v -1.504807 0.542208 1.044451
v -1.536573 0.480212 1.046650
v -1.415275 0.719942 1.038364
v -1.419649 0.710400 1.038630
v -1.429040 0.691211 1.039248
v 1.231311 1.072262 0.359370
v 1.166208 1.206330 -0.526306
v 1.185635 1.195628 -1.118359
v 1.187881 1.172140 -0.016732
v 1.423522 0.687712 1.092070
v 1.328626 0.882869 0.769038
v 1.597497 0.409401 -0.435243
v 1.602511 0.422498 -0.941735
v 1.591190 0.389760 0.359370
v 1.594019 0.398985 -0.002130
v 1.583860 0.371491 1.106964
v 1.587595 0.379484 0.771282
v 1.526719 0.540093 -0.449685
v 1.534837 0.548043 -0.973984
v 1.545170 0.460843 0.770911
v 1.532118 0.501589 0.359370
v 1.527360 0.525891 -0.004411
v 1.558292 0.421300 1.106744
v 1.255981 1.065297 -1.092895
v 1.292981 0.954177 0.359370
v 1.452897 0.627859 1.096733
v 1.240087 1.069691 -0.511669
v 1.373350 0.790870 0.769427
v 1.257466 1.039597 -0.014451
v 1.179186 1.201609 -1.009572
v 1.602445 0.418458 -0.849028
v 1.532988 0.546832 -0.875275
v 1.251682 1.067404 -0.982263
v 1.406265 0.724662 1.038275
v 1.584877 0.372155 1.050512
v 1.555974 0.428462 1.048491
v 1.438812 0.657554 1.040395
v -1.238456 1.072262 0.359370
v -1.173352 1.206330 -0.526306
v -1.192779 1.195628 -1.118359
v -1.195026 1.172140 -0.016732
v -1.430667 0.687712 1.092070
v -1.335770 0.882869 0.769038
v -1.604642 0.409401 -0.435243
v -1.609656 0.422498 -0.941735
v -1.598334 0.389760 0.359370
v -1.601163 0.398985 -0.002130
v -1.591004 0.371491 1.106964
v -1.594739 0.379484 0.771282
v -1.533863 0.540093 -0.449685
v -1.541981 0.548043 -0.973984
v -1.552315 0.460843 0.770911
v -1.539262 0.501589 0.359370
v -1.534505 0.525891 -0.004411
v -1.565436 0.421300 1.106744
v -1.263125 1.065297 -1.092895
v -1.300126 0.954177 0.359370
v -1.460041 0.627859 1.096733
v -1.247231 1.069691 -0.511669
v -1.380495 0.790870 0.769427
v -1.264610 1.039597 -0.014451
v -1.186330 1.201609 -1.009572
v -1.609590 0.418458 -0.849028
v -1.540133 0.546832 -0.875275
v -1.258826 1.067404 -0.982263
v -1.413410 0.724662 1.038275
v -1.592021 0.372155 1.050512
v -1.563119 0.428462 1.048491
v -1.445956 0.657554 1.040395
vn -0.8772 -0.4796 -0.0210
vn -0.8771 -0.4798 -0.0215
vn -0.8770 -0.4799 -0.0210
vn -0.8773 -0.4794 -0.0217
vn -0.8773 -0.4795 -0.0218
vn -0.8773 -0.4794 -0.0209
vn -0.8773 -0.4794 -0.0221
vn -0.8775 -0.4790 -0.0220
vn -0.8760 -0.4819 -0.0215
vn -0.8762 -0.4815 -0.0211
vn -0.8750 -0.4836 -0.0215
vn -0.8755 -0.4828 -0.0211
vn -0.8760 -0.4818 -0.0217
vn -0.8749 -0.4838 -0.0217
vn -0.8774 -0.4793 -0.0202
vn -0.8768 -0.4805 -0.0205
vn -0.8783 -0.4777 -0.0190
vn -0.8762 -0.4814 -0.0205
vn -0.8779 -0.4784 -0.0195
vn -0.8776 -0.4790 -0.0198
vn -0.8777 -0.4789 -0.0191
vn -0.8785 -0.4774 -0.0181
vn -0.8786 -0.4772 -0.0164
vn -0.8845 -0.4660 -0.0185
vn -0.8843 -0.4665 -0.0189
vn -0.8849 -0.4654 -0.0189
vn -0.8841 -0.4669 -0.0187
vn -0.8842 -0.4668 -0.0191
vn -0.8845 -0.4662 -0.0177
vn -0.8840 -0.4671 -0.0183
vn -0.8840 -0.4671 -0.0193
vn -0.8855 -0.4642 -0.0190
vn -0.8864 -0.4624 -0.0191
vn -0.8865 -0.4622 -0.0190
vn -0.8878 -0.4598 -0.0191
vn -0.8850 -0.4651 -0.0190
vn -0.8858 -0.4637 -0.0190
vn -0.8857 -0.4638 -0.0191
vn -0.8876 -0.4601 -0.0193
vn -0.8867 -0.4618 -0.0196
vn -0.8892 -0.4570 -0.0193
vn -0.8887 -0.4580 -0.0198
vn -0.8854 -0.4645 -0.0186
vn -0.8853 -0.4647 -0.0175
vn -0.8863 -0.4626 -0.0191
vn -0.8862 -0.4629 -0.0180
vn -0.8851 -0.4649 -0.0191
vn -0.8844 -0.4662 -0.0197
vn -0.8850 -0.4652 -0.0195
vn -0.8844 -0.4663 -0.0207
vn -0.8849 -0.4653 -0.0204
vn -0.8846 -0.4660 -0.0193
vn -0.8840 -0.4671 -0.0196
vn -0.8853 -0.4647 -0.0186
vn -0.8850 -0.4651 -0.0178
vn -0.8852 -0.4648 -0.0186
vn -0.8849 -0.4653 -0.0171
vn -0.8859 -0.4635 -0.0185
vn -0.8857 -0.4638 -0.0189
vn -0.8863 -0.4628 -0.0185
vn -0.8862 -0.4629 -0.0188
vn -0.8854 -0.4644 -0.0180
vn -0.8858 -0.4637 -0.0181
vn -0.8853 -0.4647 -0.0191
vn -0.8858 -0.4635 -0.0190
vn -0.8882 -0.4589 -0.0207
vn -0.8887 -0.4580 -0.0207
vn -0.8880 -0.4593 -0.0202
vn -0.8887 -0.4580 -0.0197
vn -0.8880 -0.4595 -0.0192
vn -0.8887 -0.4579 -0.0211
vn -0.8892 -0.4570 -0.0209
vn -0.8893 -0.4569 -0.0200
vn -0.8876 -0.4602 -0.0202
vn -0.8872 -0.4609 -0.0197
vn -0.8871 -0.4611 -0.0187
vn -0.8893 -0.4569 -0.0203
vn -0.8893 -0.4568 -0.0208
vn -0.8907 -0.4541 -0.0203
vn -0.8902 -0.4551 -0.0208
vn -0.8904 -0.4546 -0.0198
vn -0.8889 -0.4575 -0.0212
vn -0.8891 -0.4573 -0.0212
vn -0.8891 -0.4572 -0.0212
vn -0.8883 -0.4587 -0.0214
vn -0.8826 -0.4700 0.0073
vn -0.8843 -0.4668 0.0061
vn -0.8828 -0.4696 0.0085
vn -0.8841 -0.4672 0.0050
vn -0.8854 -0.4648 -0.0045
vn -0.8825 -0.4702 0.0051
vn -0.8840 -0.4674 0.0029
vn -0.8852 -0.4652 -0.0052
vn -0.8849 -0.4657 0.0068
vn -0.8834 -0.4685 0.0092
vn -0.8853 -0.4648 0.0072
vn -0.8838 -0.4677 0.0093
vn -0.8860 -0.4637 -0.0039
vn -0.8864 -0.4629 -0.0029
vn -0.8812 -0.4727 0.0048
vn -0.8818 -0.4715 0.0052
vn -0.8795 -0.4758 -0.0044
vn -0.8823 -0.4706 0.0053
vn -0.8803 -0.4743 -0.0042
vn -0.8809 -0.4732 0.0038
vn -0.8808 -0.4734 0.0019
vn -0.8793 -0.4762 -0.0050
vn -0.8792 -0.4764 -0.0062
vn -0.8773 -0.4794 -0.0210
vn -0.8772 -0.4794 -0.0236
vn -0.8772 -0.4795 -0.0243
vn -0.8773 -0.4792 -0.0245
vn -0.8774 -0.4793 -0.0210
vn -0.8771 -0.4796 -0.0249
vn -0.8773 -0.4793 -0.0255
vn -0.8773 -0.4794 -0.0228
vn -0.8774 -0.4790 -0.0235
vn -0.8775 -0.4790 -0.0226
vn -0.8779 -0.4786 -0.0169
vn -0.8778 -0.4787 -0.0181
vn -0.8790 -0.4767 -0.0110
vn -0.8788 -0.4770 -0.0139
vn -0.8779 -0.4785 -0.0159
vn -0.8780 -0.4784 -0.0150
vn -0.8791 -0.4765 -0.0083
vn -0.8852 -0.4650 -0.0123
vn -0.8842 -0.4668 -0.0170
vn -0.8848 -0.4658 -0.0146
vn -0.8845 -0.4663 -0.0157
vn -0.8840 -0.4669 -0.0209
vn -0.8863 -0.4629 -0.0091
vn -0.8852 -0.4650 -0.0138
vn -0.8842 -0.4666 -0.0212
vn -0.8840 -0.4670 -0.0178
vn -0.8845 -0.4661 -0.0164
vn -0.8840 -0.4671 -0.0202
vn -0.8856 -0.4641 -0.0135
vn -0.8853 -0.4646 -0.0158
vn -0.8867 -0.4621 -0.0136
vn -0.8863 -0.4628 -0.0161
vn -0.8863 -0.4630 -0.0105
vn -0.8879 -0.4600 -0.0064
vn -0.8874 -0.4608 -0.0106
vn -0.8894 -0.4570 -0.0062
vn -0.8849 -0.4653 -0.0232
vn -0.8844 -0.4660 -0.0256
vn -0.8849 -0.4652 -0.0246
vn -0.8845 -0.4657 -0.0266
vn -0.8849 -0.4650 -0.0257
vn -0.8844 -0.4662 -0.0240
vn -0.8845 -0.4660 -0.0209
vn -0.8852 -0.4649 -0.0185
vn -0.8852 -0.4648 -0.0184
vn -0.8849 -0.4655 -0.0109
vn -0.8852 -0.4647 -0.0183
vn -0.8850 -0.4655 -0.0085
vn -0.8849 -0.4653 -0.0217
vn -0.8849 -0.4655 -0.0135
vn -0.8849 -0.4654 -0.0157
vn -0.8844 -0.4662 -0.0222
vn -0.8885 -0.4586 -0.0151
vn -0.8900 -0.4558 -0.0131
vn -0.8893 -0.4571 -0.0123
vn -0.8918 -0.4522 -0.0096
vn -0.8914 -0.4531 -0.0084
vn -0.8892 -0.4572 -0.0157
vn -0.8904 -0.4548 -0.0138
vn -0.8921 -0.4518 -0.0108
vn -0.8876 -0.4603 -0.0144
vn -0.8885 -0.4588 -0.0115
vn -0.8906 -0.4547 -0.0073
vn -0.8872 -0.4610 -0.0169
vn -0.8881 -0.4593 -0.0175
vn -0.8889 -0.4578 -0.0179
vn -0.8898 -0.4561 -0.0162
vn -0.8894 -0.4567 -0.0183
vn -0.8820 -0.4710 -0.0179
vn -0.8838 -0.4676 -0.0172
vn -0.8819 -0.4710 -0.0172
vn -0.8840 -0.4671 -0.0177
vn -0.8820 -0.4709 -0.0181
vn -0.8842 -0.4668 -0.0179
vn -0.8838 -0.4676 -0.0158
vn -0.8820 -0.4710 -0.0157
vn -0.8838 -0.4677 -0.0133
vn -0.8821 -0.4709 -0.0128
vn -0.8800 -0.4747 -0.0179
vn -0.8801 -0.4745 -0.0165
vn -0.8802 -0.4743 -0.0139
vn -0.8798 -0.4750 -0.0185
vn -0.8797 -0.4752 -0.0187
vn -0.8776 -0.4789 -0.0197
vn -0.8822 -0.4708 -0.0084
vn -0.8839 -0.4676 -0.0048
vn -0.8823 -0.4706 -0.0034
vn -0.8838 -0.4677 -0.0093
vn -0.8840 -0.4675 -0.0005
vn -0.8824 -0.4704 0.0014
vn -0.8851 -0.4654 -0.0065
vn -0.8806 -0.4738 -0.0056
vn -0.8807 -0.4736 -0.0014
vn -0.8804 -0.4741 -0.0100
vn -0.8783 -0.4776 -0.0211
vn -0.8773 -0.4793 -0.0254
vn -0.8776 -0.4789 -0.0210
vn -0.8778 -0.4783 -0.0255
vn -0.8773 -0.4792 -0.0268
vn -0.8789 -0.4765 -0.0212
vn -0.8782 -0.4776 -0.0256
vn -0.8776 -0.4787 -0.0269
vn -0.8772 -0.4795 -0.0252
vn -0.8774 -0.4792 -0.0210
vn -0.8772 -0.4793 -0.0266
vn -0.8772 -0.4794 -0.0262
vn -0.8783 -0.4778 -0.0143
vn -0.8781 -0.4782 -0.0146
vn -0.8792 -0.4762 -0.0143
vn -0.8798 -0.4751 -0.0143
vn -0.8809 -0.4732 -0.0042
vn -0.9154 -0.4011 0.0325
vn -0.8913 -0.4534 -0.0042
vn -0.8960 -0.4439 0.0059
vn -0.9050 -0.4252 0.0128
vn -0.8876 -0.4602 -0.0165
vn -0.9281 -0.3688 0.0501
vn -0.9145 -0.4039 0.0232
vn -0.8952 -0.4455 -0.0081
vn -0.8868 -0.4619 -0.0106
vn -0.8891 -0.4577 -0.0042
vn -0.8853 -0.4645 -0.0196
vn -0.9009 -0.4337 0.0137
vn -0.8917 -0.4527 0.0000
vn -0.9050 -0.4250 0.0175
vn -0.8940 -0.4479 0.0012
vn -0.9242 -0.3788 0.0487
vn -0.9384 -0.3379 0.0726
vn -0.9298 -0.3635 0.0580
vn -0.9441 -0.3182 0.0862
vn -0.8854 -0.4640 -0.0258
vn -0.8893 -0.4567 -0.0223
vn -0.8867 -0.4617 -0.0248
vn -0.8918 -0.4519 -0.0208
vn -0.8876 -0.4599 -0.0238
vn -0.8859 -0.4632 -0.0256
vn -0.9007 -0.4345 -0.0043
vn -0.8855 -0.4642 -0.0179
vn -0.8861 -0.4631 -0.0175
vn -0.8865 -0.4624 -0.0164
vn -0.8853 -0.4646 -0.0181
vn -0.8851 -0.4647 -0.0260
vn -0.8849 -0.4650 -0.0266
vn -0.9069 -0.4212 0.0146
vn -0.9245 -0.3787 0.0425
vn -0.9287 -0.3670 0.0525
vn -0.9357 -0.3466 0.0654
vn -0.9413 -0.3282 0.0790
vn -0.9055 -0.4241 0.0103
vn -0.9196 -0.3915 0.0316
vn -0.9293 -0.3657 0.0504
vn -0.9068 -0.4211 0.0172
vn -0.9308 -0.3607 0.0583
vn -0.9444 -0.3170 0.0868
vn -0.8955 -0.4450 0.0002
vn -0.8961 -0.4437 -0.0014
vn -0.8961 -0.4438 -0.0036
vn -0.9037 -0.4281 0.0056
vn -0.8957 -0.4446 -0.0058
vn -0.8777 -0.4786 -0.0219
vn -0.8776 -0.4790 -0.0215
vn -0.8775 -0.4791 -0.0216
vn -0.8778 -0.4785 -0.0215
vn -0.8776 -0.4789 -0.0214
vn -0.8778 -0.4785 -0.0222
vn -0.8779 -0.4783 -0.0215
vn -0.8778 -0.4784 -0.0213
vn -0.8760 -0.4818 -0.0215
vn -0.8760 -0.4818 -0.0216
vn -0.8747 -0.4841 -0.0217
vn -0.8767 -0.4805 -0.0213
vn -0.8774 -0.4792 -0.0217
vn -0.8748 -0.4840 -0.0217
vn -0.8777 -0.4788 -0.0220
vn -0.8777 -0.4787 -0.0225
vn -0.8777 -0.4786 -0.0239
vn -0.8780 -0.4782 -0.0212
vn -0.8777 -0.4786 -0.0233
vn -0.8780 -0.4782 -0.0211
vn -0.8781 -0.4780 -0.0198
vn -0.8776 -0.4787 -0.0243
vn -0.8780 -0.4781 -0.0211
vn -0.8782 -0.4778 -0.0193
vn -0.8780 -0.4782 -0.0214
vn -0.8778 -0.4785 -0.0227
vn -0.8780 -0.4781 -0.0204
vn -0.8780 -0.4782 -0.0210
vn -0.8776 -0.4788 -0.0241
vn -0.8776 -0.4787 -0.0232
vn -0.8775 -0.4790 -0.0250
vn -0.8774 -0.4790 -0.0256
vn -0.8778 -0.4783 -0.0248
vn -0.8781 -0.4780 -0.0210
vn -0.8777 -0.4786 -0.0247
vn -0.8783 -0.4777 -0.0210
vn -0.8783 -0.4776 -0.0185
vn -0.8784 -0.4775 -0.0218
vn -0.8785 -0.4774 -0.0185
vn -0.8784 -0.4775 -0.0185
vn -0.8776 -0.4787 -0.0245
vn -0.8783 -0.4777 -0.0186
vn -0.8783 -0.4778 -0.0189
vn -0.8774 -0.4790 -0.0262
vn -0.8774 -0.4790 -0.0260
vn -0.8776 -0.4787 -0.0262
vn -0.8777 -0.4784 -0.0262
vn -0.8779 -0.4781 -0.0249
vn -0.8778 -0.4782 -0.0269
vn -0.8893 -0.4568 -0.0215
vn -0.8895 -0.4563 -0.0223
vn -0.8896 -0.4562 -0.0214
vn -0.8896 -0.4561 -0.0235
vn -0.8897 -0.4560 -0.0212
vn -0.8892 -0.4569 -0.0217
vn -0.8895 -0.4564 -0.0228
vn -0.8895 -0.4562 -0.0250
vn -0.8892 -0.4569 -0.0213
vn -0.8895 -0.4564 -0.0210
vn -0.8896 -0.4563 -0.0203
vn -0.8879 -0.4595 -0.0214
vn -0.8876 -0.4601 -0.0214
vn -0.8868 -0.4617 -0.0214
vn -0.8862 -0.4628 -0.0214
vn -0.8877 -0.4599 -0.0214
vn -0.8882 -0.4589 -0.0218
vn -0.8892 -0.4570 -0.0219
vn -0.8860 -0.4632 -0.0215
vn -0.8874 -0.4603 -0.0216
vn -0.8859 -0.4634 -0.0215
vn -0.8901 -0.4552 -0.0201
vn -0.8903 -0.4545 -0.0295
vn -0.8907 -0.4542 -0.0193
vn -0.8915 -0.4520 -0.0300
vn -0.8920 -0.4516 -0.0177
vn -0.8898 -0.4554 -0.0276
vn -0.8898 -0.4549 -0.0367
vn -0.8907 -0.4529 -0.0391
vn -0.8901 -0.4554 -0.0172
vn -0.8907 -0.4543 -0.0153
vn -0.8921 -0.4516 -0.0127
vn -0.8897 -0.4560 -0.0189
vn -0.8898 -0.4558 -0.0208
vn -0.8896 -0.4559 -0.0254
vn -0.8895 -0.4557 -0.0327
vn -0.8895 -0.4561 -0.0285
vn -0.9015 -0.4327 -0.0055
vn -0.9142 -0.4052 0.0018
vn -0.9149 -0.4034 0.0164
vn -0.9225 -0.3852 0.0244
vn -0.9229 -0.3836 0.0327
vn -0.9003 -0.4347 -0.0210
vn -0.9072 -0.4200 -0.0230
vn -0.9220 -0.3870 0.0090
vn -0.9024 -0.4308 0.0014
vn -0.9164 -0.3995 0.0238
vn -0.9250 -0.3778 0.0401
vn -0.8954 -0.4452 -0.0084
vn -0.8950 -0.4458 -0.0141
vn -0.8943 -0.4465 -0.0276
vn -0.8978 -0.4391 -0.0341
vn -0.8931 -0.4483 -0.0378
vn 0.8771 -0.4798 -0.0215
vn 0.8772 -0.4796 -0.0210
vn 0.8770 -0.4799 -0.0210
vn 0.8773 -0.4794 -0.0217
vn 0.8773 -0.4794 -0.0209
vn 0.8773 -0.4795 -0.0218
vn 0.8775 -0.4790 -0.0220
vn 0.8773 -0.4794 -0.0221
vn 0.8776 -0.4790 -0.0198
vn 0.8774 -0.4793 -0.0202
vn 0.8785 -0.4774 -0.0181
vn 0.8783 -0.4777 -0.0190
vn 0.8777 -0.4789 -0.0191
vn 0.8786 -0.4772 -0.0164
vn 0.8762 -0.4815 -0.0211
vn 0.8768 -0.4805 -0.0205
vn 0.8755 -0.4828 -0.0211
vn 0.8779 -0.4784 -0.0195
vn 0.8762 -0.4814 -0.0205
vn 0.8760 -0.4819 -0.0215
vn 0.8760 -0.4818 -0.0217
vn 0.8750 -0.4836 -0.0215
vn 0.8749 -0.4838 -0.0217
vn 0.8843 -0.4665 -0.0189
vn 0.8845 -0.4660 -0.0185
vn 0.8849 -0.4654 -0.0189
vn 0.8841 -0.4669 -0.0187
vn 0.8845 -0.4662 -0.0177
vn 0.8842 -0.4668 -0.0191
vn 0.8840 -0.4671 -0.0193
vn 0.8840 -0.4671 -0.0183
vn 0.8854 -0.4645 -0.0186
vn 0.8857 -0.4638 -0.0191
vn 0.8863 -0.4626 -0.0191
vn 0.8867 -0.4618 -0.0196
vn 0.8853 -0.4647 -0.0175
vn 0.8862 -0.4629 -0.0180
vn 0.8864 -0.4624 -0.0191
vn 0.8876 -0.4601 -0.0193
vn 0.8878 -0.4598 -0.0191
vn 0.8887 -0.4579 -0.0198
vn 0.8892 -0.4570 -0.0193
vn 0.8855 -0.4642 -0.0190
vn 0.8850 -0.4651 -0.0190
vn 0.8865 -0.4623 -0.0190
vn 0.8858 -0.4637 -0.0190
vn 0.8851 -0.4649 -0.0191
vn 0.8844 -0.4662 -0.0197
vn 0.8846 -0.4660 -0.0193
vn 0.8850 -0.4652 -0.0195
vn 0.8844 -0.4663 -0.0207
vn 0.8840 -0.4671 -0.0196
vn 0.8857 -0.4638 -0.0189
vn 0.8853 -0.4646 -0.0191
vn 0.8862 -0.4629 -0.0188
vn 0.8858 -0.4635 -0.0190
vn 0.8859 -0.4635 -0.0185
vn 0.8854 -0.4644 -0.0180
vn 0.8850 -0.4651 -0.0178
vn 0.8863 -0.4628 -0.0185
vn 0.8858 -0.4637 -0.0181
vn 0.8853 -0.4647 -0.0186
vn 0.8849 -0.4653 -0.0204
vn 0.8849 -0.4653 -0.0171
vn 0.8852 -0.4648 -0.0186
vn 0.8882 -0.4589 -0.0207
vn 0.8887 -0.4580 -0.0207
vn 0.8887 -0.4579 -0.0211
vn 0.8892 -0.4570 -0.0209
vn 0.8891 -0.4573 -0.0212
vn 0.8880 -0.4593 -0.0202
vn 0.8887 -0.4580 -0.0197
vn 0.8893 -0.4569 -0.0200
vn 0.8893 -0.4569 -0.0208
vn 0.8889 -0.4575 -0.0212
vn 0.8901 -0.4552 -0.0208
vn 0.8883 -0.4588 -0.0214
vn 0.8891 -0.4572 -0.0212
vn 0.8893 -0.4569 -0.0203
vn 0.8876 -0.4602 -0.0202
vn 0.8907 -0.4541 -0.0203
vn 0.8904 -0.4546 -0.0198
vn 0.8872 -0.4609 -0.0197
vn 0.8880 -0.4595 -0.0192
vn 0.8871 -0.4611 -0.0187
vn 0.8843 -0.4668 0.0061
vn 0.8826 -0.4700 0.0073
vn 0.8828 -0.4696 0.0085
vn 0.8841 -0.4672 0.0050
vn 0.8825 -0.4702 0.0051
vn 0.8854 -0.4648 -0.0045
vn 0.8852 -0.4652 -0.0052
vn 0.8840 -0.4674 0.0029
vn 0.8809 -0.4732 0.0038
vn 0.8812 -0.4727 0.0048
vn 0.8793 -0.4762 -0.0050
vn 0.8795 -0.4758 -0.0044
vn 0.8808 -0.4734 0.0019
vn 0.8792 -0.4764 -0.0062
vn 0.8834 -0.4685 0.0092
vn 0.8818 -0.4715 0.0052
vn 0.8838 -0.4677 0.0093
vn 0.8803 -0.4743 -0.0042
vn 0.8823 -0.4706 0.0053
vn 0.8849 -0.4657 0.0068
vn 0.8860 -0.4637 -0.0039
vn 0.8853 -0.4648 0.0072
vn 0.8864 -0.4629 -0.0029
vn 0.8772 -0.4794 -0.0236
vn 0.8773 -0.4794 -0.0210
vn 0.8772 -0.4795 -0.0243
vn 0.8774 -0.4793 -0.0210
vn 0.8773 -0.4792 -0.0245
vn 0.8773 -0.4793 -0.0255
vn 0.8771 -0.4796 -0.0249
vn 0.8779 -0.4785 -0.0159
vn 0.8779 -0.4786 -0.0169
vn 0.8791 -0.4765 -0.0083
vn 0.8790 -0.4767 -0.0110
vn 0.8780 -0.4784 -0.0150
vn 0.8778 -0.4787 -0.0181
vn 0.8788 -0.4770 -0.0139
vn 0.8773 -0.4794 -0.0228
vn 0.8774 -0.4790 -0.0235
vn 0.8775 -0.4790 -0.0226
vn 0.8842 -0.4668 -0.0170
vn 0.8852 -0.4650 -0.0123
vn 0.8848 -0.4658 -0.0146
vn 0.8845 -0.4663 -0.0157
vn 0.8863 -0.4629 -0.0091
vn 0.8840 -0.4669 -0.0209
vn 0.8842 -0.4666 -0.0212
vn 0.8852 -0.4650 -0.0138
vn 0.8863 -0.4630 -0.0105
vn 0.8856 -0.4641 -0.0135
vn 0.8874 -0.4608 -0.0106
vn 0.8867 -0.4621 -0.0136
vn 0.8879 -0.4600 -0.0064
vn 0.8894 -0.4570 -0.0062
vn 0.8845 -0.4661 -0.0164
vn 0.8853 -0.4646 -0.0158
vn 0.8863 -0.4628 -0.0161
vn 0.8840 -0.4670 -0.0178
vn 0.8840 -0.4671 -0.0202
vn 0.8849 -0.4653 -0.0232
vn 0.8844 -0.4660 -0.0256
vn 0.8844 -0.4662 -0.0240
vn 0.8849 -0.4652 -0.0246
vn 0.8845 -0.4657 -0.0266
vn 0.8845 -0.4660 -0.0209
vn 0.8849 -0.4653 -0.0216
vn 0.8844 -0.4662 -0.0222
vn 0.8852 -0.4649 -0.0185
vn 0.8849 -0.4655 -0.0135
vn 0.8849 -0.4655 -0.0109
vn 0.8849 -0.4654 -0.0157
vn 0.8852 -0.4648 -0.0184
vn 0.8849 -0.4650 -0.0257
vn 0.8850 -0.4655 -0.0085
vn 0.8852 -0.4647 -0.0183
vn 0.8885 -0.4586 -0.0151
vn 0.8900 -0.4558 -0.0131
vn 0.8892 -0.4572 -0.0157
vn 0.8904 -0.4548 -0.0138
vn 0.8898 -0.4561 -0.0162
vn 0.8893 -0.4571 -0.0123
vn 0.8918 -0.4522 -0.0096
vn 0.8921 -0.4518 -0.0108
vn 0.8881 -0.4593 -0.0175
vn 0.8889 -0.4578 -0.0179
vn 0.8894 -0.4567 -0.0183
vn 0.8872 -0.4610 -0.0169
vn 0.8876 -0.4603 -0.0144
vn 0.8885 -0.4588 -0.0115
vn 0.8914 -0.4531 -0.0084
vn 0.8906 -0.4547 -0.0072
vn 0.8838 -0.4676 -0.0172
vn 0.8820 -0.4710 -0.0179
vn 0.8819 -0.4710 -0.0172
vn 0.8840 -0.4671 -0.0177
vn 0.8820 -0.4708 -0.0181
vn 0.8842 -0.4668 -0.0179
vn 0.8798 -0.4750 -0.0185
vn 0.8800 -0.4747 -0.0179
vn 0.8797 -0.4752 -0.0187
vn 0.8776 -0.4789 -0.0197
vn 0.8820 -0.4710 -0.0157
vn 0.8801 -0.4745 -0.0165
vn 0.8821 -0.4709 -0.0128
vn 0.8802 -0.4743 -0.0139
vn 0.8838 -0.4676 -0.0158
vn 0.8838 -0.4677 -0.0133
vn 0.8839 -0.4676 -0.0048
vn 0.8822 -0.4708 -0.0084
vn 0.8823 -0.4706 -0.0034
vn 0.8838 -0.4677 -0.0093
vn 0.8804 -0.4741 -0.0100
vn 0.8806 -0.4738 -0.0056
vn 0.8824 -0.4704 0.0014
vn 0.8807 -0.4736 -0.0014
vn 0.8840 -0.4675 -0.0005
vn 0.8851 -0.4654 -0.0065
vn 0.8773 -0.4793 -0.0254
vn 0.8783 -0.4776 -0.0211
vn 0.8776 -0.4789 -0.0210
vn 0.8778 -0.4783 -0.0255
vn 0.8789 -0.4765 -0.0212
vn 0.8773 -0.4792 -0.0268
vn 0.8776 -0.4787 -0.0269
vn 0.8782 -0.4776 -0.0256
vn 0.8792 -0.4762 -0.0143
vn 0.8783 -0.4778 -0.0143
vn 0.8798 -0.4751 -0.0143
vn 0.8809 -0.4732 -0.0042
vn 0.8774 -0.4792 -0.0210
vn 0.8781 -0.4782 -0.0146
vn 0.8772 -0.4795 -0.0252
vn 0.8772 -0.4793 -0.0266
vn 0.8772 -0.4794 -0.0262
vn 0.8913 -0.4534 -0.0042
vn 0.9154 -0.4012 0.0325
vn 0.8960 -0.4439 0.0059
vn 0.9050 -0.4252 0.0128
vn 0.9281 -0.3689 0.0501
vn 0.8876 -0.4602 -0.0165
vn 0.8952 -0.4455 -0.0081
vn 0.9145 -0.4039 0.0232
vn 0.9242 -0.3789 0.0487
vn 0.9009 -0.4337 0.0137
vn 0.9298 -0.3635 0.0580
vn 0.9050 -0.4250 0.0175
vn 0.9384 -0.3379 0.0726
vn 0.9440 -0.3183 0.0862
vn 0.8891 -0.4577 -0.0042
vn 0.8917 -0.4527 0.0000
vn 0.8940 -0.4479 0.0012
vn 0.8868 -0.4619 -0.0106
vn 0.8853 -0.4645 -0.0196
vn 0.8854 -0.4640 -0.0258
vn 0.8893 -0.4567 -0.0223
vn 0.8859 -0.4632 -0.0256
vn 0.8867 -0.4617 -0.0248
vn 0.8918 -0.4519 -0.0208
vn 0.9007 -0.4345 -0.0043
vn 0.8851 -0.4647 -0.0260
vn 0.8849 -0.4650 -0.0266
vn 0.8853 -0.4646 -0.0181
vn 0.8855 -0.4642 -0.0179
vn 0.8861 -0.4631 -0.0175
vn 0.8876 -0.4599 -0.0238
vn 0.8865 -0.4624 -0.0164
vn 0.9069 -0.4212 0.0146
vn 0.9245 -0.3788 0.0425
vn 0.9055 -0.4241 0.0103
vn 0.9196 -0.3915 0.0316
vn 0.9037 -0.4281 0.0056
vn 0.9287 -0.3670 0.0525
vn 0.9357 -0.3467 0.0654
vn 0.9293 -0.3657 0.0504
vn 0.8961 -0.4437 -0.0014
vn 0.8961 -0.4438 -0.0036
vn 0.8957 -0.4446 -0.0058
vn 0.8955 -0.4450 0.0002
vn 0.9068 -0.4211 0.0172
vn 0.9308 -0.3607 0.0583
vn 0.9413 -0.3282 0.0790
vn 0.9444 -0.3170 0.0868
vn 0.8775 -0.4790 -0.0215
vn 0.8777 -0.4786 -0.0219
vn 0.8775 -0.4791 -0.0216
vn 0.8778 -0.4785 -0.0215
vn 0.8778 -0.4785 -0.0222
vn 0.8776 -0.4789 -0.0214
vn 0.8778 -0.4785 -0.0213
vn 0.8779 -0.4783 -0.0215
vn 0.8777 -0.4788 -0.0220
vn 0.8774 -0.4792 -0.0217
vn 0.8777 -0.4787 -0.0225
vn 0.8760 -0.4818 -0.0216
vn 0.8747 -0.4841 -0.0217
vn 0.8748 -0.4841 -0.0217
vn 0.8760 -0.4818 -0.0215
vn 0.8767 -0.4805 -0.0213
vn 0.8747 -0.4842 -0.0217
vn 0.8780 -0.4782 -0.0213
vn 0.8777 -0.4786 -0.0239
vn 0.8777 -0.4786 -0.0233
vn 0.8780 -0.4782 -0.0211
vn 0.8776 -0.4787 -0.0243
vn 0.8781 -0.4780 -0.0198
vn 0.8782 -0.4778 -0.0193
vn 0.8780 -0.4781 -0.0211
vn 0.8775 -0.4790 -0.0250
vn 0.8776 -0.4788 -0.0241
vn 0.8774 -0.4790 -0.0256
vn 0.8778 -0.4785 -0.0227
vn 0.8776 -0.4787 -0.0232
vn 0.8780 -0.4782 -0.0214
vn 0.8780 -0.4781 -0.0204
vn 0.8780 -0.4782 -0.0210
vn 0.8781 -0.4780 -0.0210
vn 0.8778 -0.4783 -0.0248
vn 0.8777 -0.4786 -0.0247
vn 0.8784 -0.4775 -0.0218
vn 0.8779 -0.4781 -0.0249
vn 0.8783 -0.4776 -0.0185
vn 0.8783 -0.4777 -0.0210
vn 0.8785 -0.4774 -0.0185
vn 0.8776 -0.4787 -0.0262
vn 0.8774 -0.4790 -0.0262
vn 0.8777 -0.4784 -0.0262
vn 0.8778 -0.4782 -0.0269
vn 0.8776 -0.4787 -0.0245
vn 0.8774 -0.4790 -0.0260
vn 0.8783 -0.4777 -0.0186
vn 0.8783 -0.4778 -0.0189
vn 0.8893 -0.4568 -0.0215
vn 0.8895 -0.4563 -0.0223
vn 0.8892 -0.4569 -0.0217
vn 0.8895 -0.4564 -0.0228
vn 0.8892 -0.4570 -0.0219
vn 0.8896 -0.4562 -0.0214
vn 0.8896 -0.4561 -0.0235
vn 0.8895 -0.4562 -0.0250
vn 0.8876 -0.4601 -0.0214
vn 0.8859 -0.4633 -0.0215
vn 0.8862 -0.4628 -0.0214
vn 0.8882 -0.4589 -0.0218
vn 0.8874 -0.4604 -0.0216
vn 0.8879 -0.4595 -0.0214
vn 0.8892 -0.4569 -0.0213
vn 0.8867 -0.4617 -0.0214
vn 0.8876 -0.4600 -0.0214
vn 0.8895 -0.4564 -0.0210
vn 0.8897 -0.4560 -0.0212
vn 0.8896 -0.4563 -0.0203
vn 0.8901 -0.4552 -0.0201
vn 0.8903 -0.4545 -0.0295
vn 0.8898 -0.4554 -0.0276
vn 0.8898 -0.4549 -0.0367
vn 0.8895 -0.4557 -0.0328
vn 0.8907 -0.4542 -0.0193
vn 0.8915 -0.4520 -0.0300
vn 0.8907 -0.4529 -0.0391
vn 0.8898 -0.4558 -0.0208
vn 0.8896 -0.4559 -0.0254
vn 0.8895 -0.4561 -0.0285
vn 0.8897 -0.4560 -0.0189
vn 0.8901 -0.4554 -0.0172
vn 0.8907 -0.4543 -0.0152
vn 0.8920 -0.4516 -0.0177
vn 0.8921 -0.4516 -0.0127
vn 0.9015 -0.4327 -0.0055
vn 0.9142 -0.4052 0.0018
vn 0.9003 -0.4347 -0.0210
vn 0.9072 -0.4200 -0.0230
vn 0.8978 -0.4391 -0.0341
vn 0.9149 -0.4034 0.0164
vn 0.9225 -0.3852 0.0244
vn 0.9220 -0.3871 0.0090
vn 0.8950 -0.4458 -0.0141
vn 0.8943 -0.4465 -0.0276
vn 0.8931 -0.4483 -0.0378
vn 0.8954 -0.4452 -0.0084
vn 0.9024 -0.4308 0.0014
vn 0.9164 -0.3995 0.0238
vn 0.9229 -0.3835 0.0327
vn 0.9250 -0.3778 0.0401
vn 0.8784 -0.4775 -0.0185
s 1
f 5//1 2//2 1//3
f 6//4 506//5 2//2
f 500//6 6//4 5//1
f 499//7 505//8 6//4
f 1//3 7//9 3//10
f 3//10 397//11 398//12
f 2//2 507//13 7//9
f 7//9 716//14 397//11
f 3//10 4//15 1//3
f 8//16 401//17 4//15
f 398//12 8//16 3//10
f 399//18 402//19 8//16
f 1//3 9//20 5//1
f 5//1 501//21 500//6
f 4//15 400//22 9//20
f 9//20 703//23 501//21
f 14//24 11//25 10//26
f 15//27 437//28 11//25
f 449//29 15//27 14//24
f 450//30 436//31 15//27
f 10//26 16//32 12//33
f 12//33 411//34 410//35
f 11//25 438//36 16//32
f 16//32 699//37 411//34
f 12//33 13//38 10//26
f 17//39 416//40 13//38
f 410//35 17//39 12//33
f 409//41 417//42 17//39
f 10//26 18//43 14//24
f 14//24 448//44 449//29
f 13//38 415//45 18//43
f 18//43 705//46 448//44
f 19//47 24//48 20//49
f 20//49 453//50 452//51
f 23//52 436//31 24//48
f 24//48 706//53 453//50
f 20//49 21//43 19//47
f 25//54 422//55 21//43
f 452//51 25//54 20//49
f 451//56 421//57 25//54
f 19//47 26//58 22//59
f 22//59 406//60 407//61
f 21//43 423//62 26//58
f 26//58 700//63 406//60
f 22//59 23//52 19//47
f 27//64 437//28 23//52
f 407//61 27//64 22//59
f 408//65 438//36 27//64
f 28//66 33//67 29//68
f 29//68 520//69 521//70
f 32//71 526//72 33//67
f 33//67 721//73 520//69
f 29//68 30//74 28//66
f 34//75 416//40 30//74
f 521//70 34//75 29//68
f 522//76 415//45 34//75
f 28//66 35//77 31//78
f 31//78 519//79 518//80
f 30//74 417//42 35//77
f 35//77 702//81 519//79
f 31//78 32//71 28//66
f 36//82 527//83 32//71
f 518//80 36//82 31//78
f 517//84 528//85 36//82
f 41//86 38//87 37//88
f 42//89 440//90 38//87
f 479//91 42//89 41//86
f 478//92 439//93 42//89
f 37//88 43//94 39//95
f 39//95 385//96 386//97
f 38//87 441//98 43//94
f 43//94 694//99 385//96
f 39//95 40//100 37//88
f 44//101 428//102 40//100
f 386//97 44//101 39//95
f 387//103 429//104 44//101
f 37//88 45//105 41//86
f 41//86 480//106 479//91
f 40//100 427//107 45//105
f 45//105 712//108 480//106
f 50//109 47//110 46//109
f 51//111 509//112 47//110
f 503//113 51//111 50//109
f 502//114 508//115 51//111
f 46//109 52//116 48//6
f 48//6 499//7 500//6
f 47//110 510//117 52//116
f 52//116 717//118 499//7
f 48//6 49//119 46//109
f 53//120 470//121 49//119
f 500//6 53//120 48//6
f 501//21 471//122 53//120
f 46//109 54//123 50//109
f 50//109 504//124 503//113
f 49//119 469//125 54//123
f 54//123 712//108 504//124
f 59//126 56//127 55//128
f 60//129 464//130 56//127
f 485//131 60//129 59//126
f 486//132 463//133 60//129
f 55//128 61//134 57//135
f 57//135 450//30 449//29
f 56//127 465//136 61//134
f 61//134 706//53 450//30
f 57//135 58//137 55//128
f 62//138 473//139 58//137
f 449//29 62//138 57//135
f 448//44 474//140 62//138
f 55//128 63//141 59//126
f 59//126 484//142 485//131
f 58//137 472//143 63//141
f 63//141 713//144 484//142
f 64//145 69//146 65//147
f 65//147 489//148 488//149
f 68//150 463//133 69//146
f 69//146 710//151 489//148
f 65//147 66//152 64//145
f 70//153 476//154 66//152
f 488//149 70//153 65//147
f 487//155 475//156 70//153
f 64//145 71//152 67//157
f 67//157 451//56 452//51
f 66//152 477//158 71//152
f 71//152 707//159 451//56
f 67//157 68//150 64//145
f 72//160 464//130 68//150
f 452//51 72//160 67//157
f 453//50 465//136 72//160
f 73//161 78//162 74//163
f 74//163 523//164 524//165
f 77//166 529//167 78//162
f 78//162 722//168 523//164
f 74//163 75//169 73//161
f 79//170 473//139 75//169
f 524//165 79//170 74//163
f 525//171 472//143 79//170
f 73//161 80//172 76//173
f 76//173 522//76 521//70
f 75//169 474//140 80//172
f 80//172 705//46 522//76
f 76//173 77//166 73//161
f 81//174 530//175 77//166
f 521//70 81//174 76//173
f 520//69 531//176 81//174
f 86//177 83//178 82//179
f 87//180 422//55 83//178
f 395//181 87//180 86//177
f 396//182 423//62 87//180
f 82//179 88//183 84//184
f 84//184 457//185 458//186
f 83//178 421//57 88//183
f 88//183 707//159 457//185
f 84//184 85//187 82//179
f 89//188 401//17 85//187
f 458//186 89//188 84//184
f 459//189 400//22 89//188
f 82//179 90//190 86//177
f 86//177 394//191 395//181
f 85//187 402//19 90//190
f 90//190 697//192 394//191
f 95//193 92//194 91//195
f 96//196 476//154 92//194
f 458//186 96//196 95//193
f 457//185 477//158 96//196
f 91//195 97//197 93//198
f 93//198 478//92 479//91
f 92//194 475//156 97//197
f 97//197 714//199 478//92
f 93//198 94//200 91//195
f 98//201 470//121 94//200
f 479//91 98//201 93//198
f 480//106 469//125 98//201
f 91//195 99//202 95//193
f 95//193 459//189 458//186
f 94//200 471//122 99//202
f 99//202 703//23 459//189
f 104//203 101//204 100//205
f 105//206 512//207 101//204
f 383//208 105//206 104//203
f 382//209 511//210 105//206
f 100//205 106//211 102//212
f 102//212 502//114 503//113
f 101//204 513//213 106//211
f 106//211 718//214 502//114
f 102//212 103//215 100//205
f 107//216 428//102 103//215
f 503//113 107//216 102//212
f 504//124 427//107 107//216
f 100//205 108//217 104//203
f 104//203 384//218 383//208
f 103//215 429//104 108//217
f 108//217 692//219 384//218
f 113//220 110//221 109//222
f 114//223 419//224 110//221
f 389//225 114//223 113//220
f 390//226 420//227 114//223
f 109//222 115//228 111//229
f 111//229 486//132 485//131
f 110//221 418//230 115//228
f 115//228 710//151 486//132
f 111//229 112//231 109//222
f 116//232 434//233 112//231
f 485//131 116//232 111//229
f 484//142 433//234 116//232
f 109//222 117//235 113//220
f 113//220 388//236 389//225
f 112//231 435//237 117//235
f 117//235 696//238 388//236
f 118//239 123//240 119//241
f 119//241 381//242 380//243
f 122//244 420//227 123//240
f 123//240 691//245 381//242
f 119//241 120//246 118//239
f 124//247 440//90 120//246
f 380//243 124//247 119//241
f 379//248 441//98 124//247
f 118//239 125//249 121//250
f 121//250 487//155 488//149
f 120//246 439//93 125//249
f 125//249 714//199 487//155
f 121//250 122//244 118//239
f 126//251 419//224 122//244
f 488//149 126//251 121//250
f 489//148 418//230 126//251
f 127//252 132//253 128//254
f 128//254 514//255 515//256
f 131//257 532//258 132//253
f 132//253 719//259 514//255
f 128//254 129//260 127//252
f 133//261 434//233 129//260
f 515//256 133//261 128//254
f 516//262 435//237 133//261
f 127//252 134//263 130//264
f 130//264 525//171 524//165
f 129//260 433//234 134//263
f 134//263 713//144 525//171
f 130//264 131//257 127//252
f 135//265 533//266 131//257
f 524//165 135//265 130//264
f 523//164 534//267 135//265
f 140//268 137//269 136//270
f 141//271 431//272 137//269
f 446//273 141//271 140//268
f 447//274 430//275 141//271
f 136//270 142//276 138//277
f 138//277 498//278 497//278
f 137//269 432//279 142//276
f 142//276 698//278 498//278
f 138//277 139//280 136//270
f 143//13 506//5 139//280
f 497//278 143//13 138//277
f 496//281 507//13 143//13
f 136//270 144//282 140//268
f 140//268 445//283 446//273
f 139//280 505//8 144//282
f 144//282 717//118 445//283
f 149//284 146//285 145//286
f 150//287 461//288 146//285
f 482//289 150//287 149//284
f 483//290 460//291 150//287
f 145//286 151//292 147//293
f 147//293 447//274 446//273
f 146//285 462//294 151//292
f 151//292 704//295 447//274
f 147//293 148//296 145//286
f 152//297 509//112 148//296
f 446//273 152//297 147//293
f 445//283 510//117 152//297
f 145//286 153//298 149//284
f 149//284 481//299 482//289
f 148//296 508//115 153//298
f 153//298 718//214 481//299
f 158//300 155//301 154//302
f 159//303 404//304 155//301
f 158//300 495//305 159//303
f 159//303 693//306 405//307
f 154//302 160//290 156//308
f 156//308 483//290 482//289
f 155//301 403//309 160//290
f 160//290 709//310 483//290
f 156//308 157//311 154//302
f 161//312 512//207 157//311
f 482//289 161//312 156//308
f 481//299 513//213 161//312
f 154//302 162//313 158//300
f 158//300 493//314 494//315
f 157//311 511//210 162//313
f 162//313 715//316 493//314
f 163//317 168//318 164//319
f 164//319 456//320 455//321
f 167//322 442//323 168//318
f 168//318 708//324 456//320
f 164//319 165//325 163//317
f 169//326 527//83 165//325
f 455//321 169//326 164//319
f 454//327 526//72 169//326
f 163//317 170//328 166//329
f 166//329 412//330 413//331
f 165//325 528//85 170//328
f 170//328 720//332 412//330
f 166//329 167//322 163//317
f 167//322 444//333 443//334
f 166//329 414//335 171//336
f 171//336 701//337 444//333
f 172//338 177//339 173//340
f 173//340 492//341 491//342
f 176//343 466//344 177//339
f 177//339 711//345 492//341
f 173//340 174//346 172//338
f 178//347 530//175 174//346
f 491//342 178//347 173//340
f 490//348 529//167 178//347
f 172//338 179//349 175//350
f 175//350 454//327 455//321
f 174//346 531//176 179//349
f 179//349 721//73 454//327
f 175//350 176//343 172//338
f 180//351 467//352 176//343
f 455//321 180//351 175//350
f 456//320 468//353 180//351
f 181//354 186//355 182//356
f 182//356 393//357 392//358
f 185//359 426//360 186//355
f 186//355 695//361 393//357
f 182//356 183//362 181//354
f 187//363 533//266 183//362
f 392//358 187//363 182//356
f 391//364 532//258 187//363
f 181//354 188//365 184//366
f 184//366 490//348 491//342
f 183//362 534//267 188//365
f 188//365 722//168 490//348
f 184//366 185//359 181//354
f 189//367 425//368 185//359
f 491//342 189//367 184//366
f 492//341 424//369 189//367
f 194//370 191//371 190//372
f 195//373 656//374 191//371
f 662//375 195//373 194//370
f 661//376 655//377 195//373
f 190//372 196//378 192//379
f 192//379 556//380 557//381
f 191//371 657//382 196//378
f 196//378 735//383 556//380
f 192//379 193//384 190//372
f 197//385 554//386 193//384
f 557//381 197//385 192//379
f 558//387 555//388 197//385
f 190//372 198//389 194//370
f 194//370 663//390 662//375
f 193//384 553//391 198//389
f 198//389 748//392 663//390
f 203//393 200//394 199//395
f 204//396 605//397 200//394
f 593//398 204//396 203//393
f 592//399 606//400 204//396
f 199//395 205//401 201//402
f 201//402 571//403 572//404
f 200//394 604//405 205//401
f 205//401 737//406 571//403
f 201//402 202//407 199//395
f 206//408 566//409 202//407
f 572//404 206//408 201//402
f 573//410 565//411 206//408
f 199//395 207//412 203//393
f 203//393 594//413 593//398
f 202//407 567//414 207//412
f 207//412 731//415 594//413
f 208//416 213//417 209//418
f 209//418 592//399 593//398
f 212//419 609//420 213//417
f 213//417 738//421 592//399
f 209//418 210//422 208//416
f 214//423 563//424 210//422
f 593//398 214//423 209//418
f 594//413 564//425 214//423
f 208//416 215//426 211//401
f 211//401 579//427 578//428
f 210//422 562//429 215//426
f 215//426 732//430 579//427
f 211//401 212//419 208//416
f 216//431 608//432 212//419
f 578//428 216//431 211//401
f 577//433 607//434 216//431
f 217//435 222//436 218//437
f 218//437 682//438 683//439
f 221//440 676//441 222//436
f 222//436 753//442 682//438
f 218//437 219//443 217//435
f 223//444 674//445 219//443
f 683//439 223//444 218//437
f 684//446 673//447 223//444
f 217//435 224//448 220//449
f 220//449 573//410 572//404
f 219//443 675//450 224//448
f 224//448 734//451 573//410
f 220//449 221//440 217//435
f 225//452 677//453 221//440
f 572//404 225//452 220//449
f 571//403 678//454 225//452
f 230//455 227//456 226//457
f 231//458 635//459 227//456
f 596//460 231//458 230//455
f 595//461 634//462 231//458
f 226//457 232//463 228//464
f 228//464 583//465 584//466
f 227//456 636//467 232//463
f 232//463 744//468 583//465
f 228//464 229//469 226//457
f 233//470 542//471 229//469
f 584//466 233//470 228//464
f 585//472 543//473 233//470
f 226//457 234//474 230//455
f 230//455 597//475 596//460
f 229//469 541//476 234//474
f 234//474 726//477 597//475
f 239//478 236//479 235//479
f 240//480 659//481 236//479
f 665//482 240//480 239//478
f 664//483 658//484 240//480
f 235//479 241//485 237//486
f 237//486 625//487 626//488
f 236//479 660//489 241//485
f 241//485 744//468 625//487
f 237//486 238//374 235//479
f 242//490 656//374 238//374
f 626//488 242//490 237//486
f 627//491 657//382 242//490
f 235//479 243//492 239//478
f 239//478 666//493 665//482
f 238//374 655//377 243//492
f 243//492 749//494 666//493
f 248//495 245//496 244//497
f 249//498 641//499 245//496
f 620//500 249//498 248//495
f 619//501 642//502 249//498
f 244//497 250//503 246//504
f 246//504 628//505 629//506
f 245//496 640//507 250//503
f 250//503 745//508 628//505
f 246//504 247//509 244//497
f 251//510 605//397 247//509
f 629//506 251//510 246//504
f 630//511 604//405 251//510
f 244//497 252//512 248//495
f 248//495 621//513 620//500
f 247//509 606//400 252//512
f 252//512 738//421 621//513
f 253//514 258//515 254//516
f 254//516 619//501 620//500
f 257//517 645//518 258//515
f 258//515 742//519 619//501
f 254//516 255//520 253//514
f 259//521 608//432 255//520
f 620//500 259//521 254//516
f 621//513 609//420 259//521
f 253//514 260//522 256//522
f 256//522 633//523 632//524
f 255//520 607//434 260//522
f 260//522 739//525 633//523
f 256//522 257//517 253//514
f 261//526 644//527 257//517
f 632//524 261//526 256//522
f 631//528 643//529 261//526
f 262//530 267//531 263//532
f 263//532 685//533 686//534
f 266//535 679//536 267//531
f 267//531 754//537 685//533
f 263//532 264//538 262//530
f 268//539 677//453 264//538
f 686//534 268//539 263//532
f 687//540 676//441 268//539
f 262//530 269//541 265//542
f 265//542 630//511 629//506
f 264//538 678//454 269//541
f 269//541 737//406 630//511
f 265//542 266//535 262//530
f 270//543 680//544 266//535
f 629//506 270//543 265//542
f 628//505 681//545 270//543
f 275//546 272//547 271//548
f 276//549 551//550 272//547
f 578//428 276//549 275//546
f 579//427 552//551 276//549
f 271//548 277//552 273//553
f 273//553 558//387 557//381
f 272//547 550//554 277//552
f 277//552 729//555 558//387
f 273//553 274//556 271//548
f 278//557 614//558 274//556
f 557//381 278//557 273//553
f 556//380 615//559 278//557
f 271//548 279//560 275//546
f 275//546 577//433 578//428
f 274//556 613//561 279//560
f 279//560 739//525 577//433
f 284//562 281//563 280//564
f 285//565 614//558 281//563
f 632//524 285//565 284//562
f 633//523 613//561 285//565
f 280//564 286//566 282//567
f 282//567 627//491 626//488
f 281//563 615//559 286//566
f 286//566 735//383 627//491
f 282//567 283//568 280//564
f 287//569 635//459 283//568
f 626//488 287//569 282//567
f 625//487 636//467 287//569
f 280//564 288//570 284//562
f 284//562 631//528 632//524
f 283//568 634//462 288//570
f 288//570 746//571 631//528
f 293//572 290//573 289//574
f 294//575 539//576 290//573
f 668//577 294//575 293//572
f 667//578 538//579 294//575
f 289//574 295//580 291//581
f 291//581 585//472 584//466
f 290//573 540//582 295//580
f 295//580 724//583 585//472
f 291//581 292//584 289//574
f 296//585 659//481 292//584
f 584//466 296//585 291//581
f 583//465 660//489 296//585
f 289//574 297//586 293//572
f 293//572 669//587 668//577
f 292//584 658//484 297//586
f 297//586 750//588 669//587
f 302//589 299//590 298//591
f 303//592 545//593 299//590
f 575//594 303//592 302//589
f 576//595 546//596 303//592
f 298//591 304//597 300//598
f 300//598 591//599 590//600
f 299//590 544//601 304//597
f 304//597 728//602 591//599
f 300//598 301//603 298//591
f 305//604 641//499 301//603
f 590//600 305//604 300//598
f 589//605 640//507 305//604
f 298//591 306//606 302//589
f 302//589 574//607 575//594
f 301//603 642//502 306//606
f 306//606 742//519 574//607
f 307//608 312//609 308//610
f 308//610 576//595 575//594
f 311//611 537//612 312//609
f 312//609 723//613 576//595
f 308//610 309//614 307//608
f 313//615 644//527 309//614
f 575//594 313//615 308//610
f 574//607 645//518 313//615
f 307//608 314//616 310//617
f 310//617 595//461 596//460
f 309//614 643//529 314//616
f 314//616 746//571 595//461
f 310//617 311//611 307//608
f 315//618 536//619 311//611
f 596//460 315//618 310//617
f 597//475 535//620 315//618
f 316//621 321//622 317//623
f 317//623 688//624 689//625
f 320//626 670//627 321//622
f 321//622 751//628 688//624
f 317//623 318//629 316//621
f 322//630 680//544 318//629
f 689//625 322//630 317//623
f 690//631 679//536 322//630
f 316//621 323//632 319//633
f 319//633 589//605 590//600
f 318//629 681//545 323//632
f 323//632 745//508 589//605
f 319//633 320//626 316//621
f 324//634 671//635 320//626
f 590//600 324//634 319//633
f 591//599 672//636 324//634
f 329//637 326//638 325//639
f 330//640 602//641 326//638
f 587//642 330//640 329//637
f 586//643 603//644 330//640
f 325//639 331//645 327//646
f 327//646 661//376 662//375
f 326//638 601//647 331//645
f 331//645 749//494 661//376
f 327//646 328//648 325//639
f 332//390 653//649 328//648
f 662//375 332//390 327//646
f 663//390 652//650 332//390
f 325//639 333//651 329//637
f 329//637 588//652 587//642
f 328//648 654//649 333//651
f 333//651 730//653 588//652
f 338//654 335//655 334//656
f 339//657 638//658 335//655
f 617//659 339//657 338//654
f 616//660 639//661 339//657
f 334//656 340//662 336//663
f 336//663 664//483 665//482
f 335//655 637//664 340//662
f 340//662 750//588 664//483
f 336//663 337//665 334//656
f 341//666 602//641 337//665
f 665//482 341//666 336//663
f 666//493 601//647 341//666
f 334//656 342//667 338//654
f 338//654 618//668 617//659
f 337//665 603//644 342//667
f 342//667 736//669 618//668
f 347//670 344//671 343//672
f 344//671 651//673 650//674
f 560//675 348//676 347//670
f 348//676 725//677 651//673
f 343//672 349//678 345//679
f 345//679 667//578 668//577
f 344//671 649//680 349//678
f 349//678 747//681 667//578
f 345//679 346//682 343//672
f 350//683 638//658 346//682
f 668//577 350//683 345//679
f 669//587 637//664 350//683
f 343//672 351//661 347//670
f 347//670 559//684 560//675
f 346//682 639//661 351//661
f 351//661 741//685 559//684
f 352//686 357//687 353//688
f 353//688 598//689 599//690
f 356//691 612//692 357//687
f 357//687 740//693 598//689
f 353//688 354//694 352//686
f 354//694 570//695 569//696
f 353//688 600//697 358//698
f 358//698 733//695 570//695
f 352//686 359//699 355//700
f 355//700 684//446 683//439
f 354//694 568//701 359//699
f 359//699 752//702 684//446
f 355//700 356//691 352//686
f 360//703 611//704 356//691
f 683//439 360//703 355//700
f 682//438 610//705 360//703
f 361//706 366//707 362//708
f 362//708 622//709 623//710
f 365//711 648//712 366//707
f 366//707 743//713 622//709
f 362//708 363//714 361//706
f 367//715 611//704 363//714
f 623//710 367//715 362//708
f 624//716 612//692 367//715
f 361//706 368//717 364//718
f 364//718 687//540 686//534
f 363//714 610//705 368//717
f 368//717 753//442 687//540
f 364//718 365//711 361//706
f 369//719 647//720 365//711
f 686//534 369//719 364//718
f 685//533 646//721 369//719
f 370//722 375//723 371//724
f 371//724 582//725 581//726
f 374//727 549//728 375//723
f 375//723 727//729 582//725
f 371//724 372//730 370//722
f 376//731 647//720 372//730
f 581//726 376//731 371//724
f 580//732 648//712 376//731
f 370//722 377//733 373//734
f 373//734 690//631 689//625
f 372//730 646//721 377//733
f 377//733 754//537 690//631
f 373//734 374//727 370//722
f 378//735 548//736 374//727
f 689//625 378//735 373//734
f 688//624 547//737 378//735
f 5//1 6//4 2//2
f 6//4 505//8 506//5
f 500//6 499//7 6//4
f 499//7 717//118 505//8
f 1//3 2//2 7//9
f 3//10 7//9 397//11
f 2//2 506//5 507//13
f 7//9 507//13 716//14
f 3//10 8//16 4//15
f 8//16 402//19 401//17
f 398//12 399//18 8//16
f 399//18 697//192 402//19
f 1//3 4//15 9//20
f 5//1 9//20 501//21
f 4//15 401//17 400//22
f 9//20 400//22 703//23
f 14//24 15//27 11//25
f 15//27 436//31 437//28
f 449//29 450//30 15//27
f 450//30 706//53 436//31
f 10//26 11//25 16//32
f 12//33 16//32 411//34
f 11//25 437//28 438//36
f 16//32 438//36 699//37
f 12//33 17//39 13//38
f 17//39 417//42 416//40
f 410//35 409//41 17//39
f 409//41 702//81 417//42
f 10//26 13//38 18//43
f 14//24 18//43 448//44
f 13//38 416//40 415//45
f 18//43 415//45 705//46
f 19//47 23//52 24//48
f 20//49 24//48 453//50
f 23//52 437//28 436//31
f 24//48 436//31 706//53
f 20//49 25//54 21//43
f 25//54 421//57 422//55
f 452//51 451//56 25//54
f 451//56 707//159 421//57
f 19//47 21//43 26//58
f 22//59 26//58 406//60
f 21//43 422//55 423//62
f 26//58 423//62 700//63
f 22//59 27//64 23//52
f 27//64 438//36 437//28
f 407//61 408//65 27//64
f 408//65 699//37 438//36
f 28//66 32//71 33//67
f 29//68 33//67 520//69
f 32//71 527//83 526//72
f 33//67 526//72 721//73
f 29//68 34//75 30//74
f 34//75 415//45 416//40
f 521//70 522//76 34//75
f 522//76 705//46 415//45
f 28//66 30//74 35//77
f 31//78 35//77 519//79
f 30//74 416//40 417//42
f 35//77 417//42 702//81
f 31//78 36//82 32//71
f 36//82 528//85 527//83
f 518//80 517//84 36//82
f 517//84 720//332 528//85
f 41//86 42//89 38//87
f 42//89 439//93 440//90
f 479//91 478//92 42//89
f 478//92 714//199 439//93
f 37//88 38//87 43//94
f 39//95 43//94 385//96
f 38//87 440//90 441//98
f 43//94 441//98 694//99
f 39//95 44//101 40//100
f 44//101 429//104 428//102
f 386//97 387//103 44//101
f 387//103 692//219 429//104
f 37//88 40//100 45//105
f 41//86 45//105 480//106
f 40//100 428//102 427//107
f 45//105 427//107 712//108
f 50//109 51//111 47//110
f 51//111 508//115 509//112
f 503//113 502//114 51//111
f 502//114 718//214 508//115
f 46//109 47//110 52//116
f 48//6 52//116 499//7
f 47//110 509//112 510//117
f 52//116 510//117 717//118
f 48//6 53//120 49//119
f 53//120 471//122 470//121
f 500//6 501//21 53//120
f 501//21 703//23 471//122
f 46//109 49//119 54//123
f 50//109 54//123 504//124
f 49//119 470//121 469//125
f 54//123 469//125 712//108
f 59//126 60//129 56//127
f 60//129 463//133 464//130
f 485//131 486//132 60//129
f 486//132 710//151 463//133
f 55//128 56//127 61//134
f 57//135 61//134 450//30
f 56//127 464//130 465//136
f 61//134 465//136 706//53
f 57//135 62//138 58//137
f 62//138 474//140 473//139
f 449//29 448//44 62//138
f 448//44 705//46 474//140
f 55//128 58//137 63//141
f 59//126 63//141 484//142
f 58//137 473//139 472//143
f 63//141 472//143 713//144
f 64//145 68//150 69//146
f 65//147 69//146 489//148
f 68//150 464//130 463//133
f 69//146 463//133 710//151
f 65//147 70//153 66//152
f 70//153 475//156 476//154
f 488//149 487//155 70//153
f 487//155 714//199 475//156
f 64//145 66//152 71//152
f 67//157 71//152 451//56
f 66//152 476//154 477//158
f 71//152 477//158 707//159
f 67//157 72//160 68//150
f 72//160 465//136 464//130
f 452//51 453//50 72//160
f 453//50 706//53 465//136
f 73//161 77//166 78//162
f 74//163 78//162 523//164
f 77//166 530//175 529//167
f 78//162 529//167 722//168
f 74//163 79//170 75//169
f 79//170 472//143 473//139
f 524//165 525//171 79//170
f 525//171 713//144 472//143
f 73//161 75//169 80//172
f 76//173 80//172 522//76
f 75//169 473//139 474//140
f 80//172 474//140 705//46
f 76//173 81//174 77//166
f 81//174 531//176 530//175
f 521//70 520//69 81//174
f 520//69 721//73 531//176
f 86//177 87//180 83//178
f 87//180 423//62 422//55
f 395//181 396//182 87//180
f 396//182 700//63 423//62
f 82//179 83//178 88//183
f 84//184 88//183 457//185
f 83//178 422//55 421//57
f 88//183 421//57 707//159
f 84//184 89//188 85//187
f 89//188 400//22 401//17
f 458//186 459//189 89//188
f 459//189 703//23 400//22
f 82//179 85//187 90//190
f 86//177 90//190 394//191
f 85//187 401//17 402//19
f 90//190 402//19 697//192
f 95//193 96//196 92//194
f 96//196 477//158 476//154
f 458//186 457//185 96//196
f 457//185 707//159 477//158
f 91//195 92//194 97//197
f 93//198 97//197 478//92
f 92//194 476//154 475//156
f 97//197 475//156 714//199
f 93//198 98//201 94//200
f 98//201 469//125 470//121
f 479//91 480//106 98//201
f 480//106 712//108 469//125
f 91//195 94//200 99//202
f 95//193 99//202 459//189
f 94//200 470//121 471//122
f 99//202 471//122 703//23
f 104//203 105//206 101//204
f 105//206 511//210 512//207
f 383//208 382//209 105//206
f 382//209 715//316 511//210
f 100//205 101//204 106//211
f 102//212 106//211 502//114
f 101//204 512//207 513//213
f 106//211 513//213 718//214
f 102//212 107//216 103//215
f 107//216 427//107 428//102
f 503//113 504//124 107//216
f 504//124 712//108 427//107
f 100//205 103//215 108//217
f 104//203 108//217 384//218
f 103//215 428//102 429//104
f 108//217 429//104 692//219
f 113//220 114//223 110//221
f 114//223 420//227 419//224
f 389//225 390//226 114//223
f 390//226 691//245 420//227
f 109//222 110//221 115//228
f 111//229 115//228 486//132
f 110//221 419//224 418//230
f 115//228 418//230 710//151
f 111//229 116//232 112//231
f 116//232 433//234 434//233
f 485//131 484//142 116//232
f 484//142 713//144 433//234
f 109//222 112//231 117//235
f 113//220 117//235 388//236
f 112//231 434//233 435//237
f 117//235 435//237 696//238
f 118//239 122//244 123//240
f 119//241 123//240 381//242
f 122//244 419//224 420//227
f 123//240 420//227 691//245
f 119//241 124//247 120//246
f 124//247 441//98 440//90
f 380//243 379//248 124//247
f 379//248 694//99 441//98
f 118//239 120//246 125//249
f 121//250 125//249 487//155
f 120//246 440//90 439//93
f 125//249 439//93 714//199
f 121//250 126//251 122//244
f 126//251 418//230 419//224
f 488//149 489//148 126//251
f 489//148 710//151 418//230
f 127//252 131//257 132//253
f 128//254 132//253 514//255
f 131//257 533//266 532//258
f 132//253 532//258 719//259
f 128//254 133//261 129//260
f 133//261 435//237 434//233
f 515//256 516//262 133//261
f 516//262 696//238 435//237
f 127//252 129//260 134//263
f 130//264 134//263 525//171
f 129//260 434//233 433//234
f 134//263 433//234 713//144
f 130//264 135//265 131//257
f 135//265 534//267 533//266
f 524//165 523//164 135//265
f 523//164 722//168 534//267
f 140//268 141//271 137//269
f 141//271 430//275 431//272
f 446//273 447//274 141//271
f 447//274 704//295 430//275
f 136//270 137//269 142//276
f 138//277 142//276 498//278
f 137//269 431//272 432//279
f 142//276 432//279 698//278
f 138//277 143//13 139//280
f 143//13 507//13 506//5
f 497//278 496//281 143//13
f 496//281 716//14 507//13
f 136//270 139//280 144//282
f 140//268 144//282 445//283
f 139//280 506//5 505//8
f 144//282 505//8 717//118
f 149//284 150//287 146//285
f 150//287 460//291 461//288
f 482//289 483//290 150//287
f 483//290 709//310 460//291
f 145//286 146//285 151//292
f 147//293 151//292 447//274
f 146//285 461//288 462//294
f 151//292 462//294 704//295
f 147//293 152//297 148//296
f 152//297 510//117 509//112
f 446//273 445//283 152//297
f 445//283 717//118 510//117
f 145//286 148//296 153//298
f 149//284 153//298 481//299
f 148//296 509//112 508//115
f 153//298 508//115 718//214
f 158//300 159//303 155//301
f 159//303 405//307 404//304
f 158//300 494//315 495//305
f 159//303 495//305 693//306
f 154//302 155//301 160//290
f 156//308 160//290 483//290
f 155//301 404//304 403//309
f 160//290 403//309 709//310
f 156//308 161//312 157//311
f 161//312 513//213 512//207
f 482//289 481//299 161//312
f 481//299 718//214 513//213
f 154//302 157//311 162//313
f 158//300 162//313 493//314
f 157//311 512//207 511//210
f 162//313 511//210 715//316
f 163//317 167//322 168//318
f 164//319 168//318 456//320
f 167//322 443//334 442//323
f 168//318 442//323 708//324
f 164//319 169//326 165//325
f 169//326 526//72 527//83
f 455//321 454//327 169//326
f 454//327 721//73 526//72
f 163//317 165//325 170//328
f 166//329 170//328 412//330
f 165//325 527//83 528//85
f 170//328 528//85 720//332
f 166//329 171//336 167//322
f 167//322 171//336 444//333
f 166//329 413//331 414//335
f 171//336 414//335 701//337
f 172//338 176//343 177//339
f 173//340 177//339 492//341
f 176//343 467//352 466//344
f 177//339 466//344 711//345
f 173//340 178//347 174//346
f 178//347 529//167 530//175
f 491//342 490//348 178//347
f 490//348 722//168 529//167
f 172//338 174//346 179//349
f 175//350 179//349 454//327
f 174//346 530//175 531//176
f 179//349 531//176 721//73
f 175//350 180//351 176//343
f 180//351 468//353 467//352
f 455//321 456//320 180//351
f 456//320 708//324 468//353
f 181//354 185//359 186//355
f 182//356 186//355 393//357
f 185//359 425//368 426//360
f 186//355 426//360 695//361
f 182//356 187//363 183//362
f 187//363 532//258 533//266
f 392//358 391//364 187//363
f 391//364 719//259 532//258
f 181//354 183//362 188//365
f 184//366 188//365 490//348
f 183//362 533//266 534//267
f 188//365 534//267 722//168
f 184//366 189//367 185//359
f 189//367 424//369 425//368
f 491//342 492//341 189//367
f 492//341 711//345 424//369
f 194//370 195//373 191//371
f 195//373 655//377 656//374
f 662//375 661//376 195//373
f 661//376 749//494 655//377
f 190//372 191//371 196//378
f 192//379 196//378 556//380
f 191//371 656//374 657//382
f 196//378 657//382 735//383
f 192//379 197//385 193//384
f 197//385 555//388 554//386
f 557//381 558//387 197//385
f 558//387 729//555 555//388
f 190//372 193//384 198//389
f 194//370 198//389 663//390
f 193//384 554//386 553//391
f 198//389 553//391 748//392
f 203//393 204//396 200//394
f 204//396 606//400 605//397
f 593//398 592//399 204//396
f 592//399 738//421 606//400
f 199//395 200//394 205//401
f 201//402 205//401 571//403
f 200//394 605//397 604//405
f 205//401 604//405 737//406
f 201//402 206//408 202//407
f 206//408 565//411 566//409
f 572//404 573//410 206//408
f 573//410 734//451 565//411
f 199//395 202//407 207//412
f 203//393 207//412 594//413
f 202//407 566//409 567//414
f 207//412 567//414 731//415
f 208//416 212//419 213//417
f 209//418 213//417 592//399
f 212//419 608//432 609//420
f 213//417 609//420 738//421
f 209//418 214//423 210//422
f 214//423 564//425 563//424
f 593//398 594//413 214//423
f 594//413 731//415 564//425
f 208//416 210//422 215//426
f 211//401 215//426 579//427
f 210//422 563//424 562//429
f 215//426 562//429 732//430
f 211//401 216//431 212//419
f 216//431 607//434 608//432
f 578//428 577//433 216//431
f 577//433 739//525 607//434
f 217//435 221//440 222//436
f 218//437 222//436 682//438
f 221//440 677//453 676//441
f 222//436 676//441 753//442
f 218//437 223//444 219//443
f 223//444 673//447 674//445
f 683//439 684//446 223//444
f 684//446 752//702 673//447
f 217//435 219//443 224//448
f 220//449 224//448 573//410
f 219//443 674//445 675//450
f 224//448 675//450 734//451
f 220//449 225//452 221//440
f 225//452 678//454 677//453
f 572//404 571//403 225//452
f 571//403 737//406 678//454
f 230//455 231//458 227//456
f 231//458 634//462 635//459
f 596//460 595//461 231//458
f 595//461 746//571 634//462
f 226//457 227//456 232//463
f 228//464 232//463 583//465
f 227//456 635//459 636//467
f 232//463 636//467 744//468
f 228//464 233//470 229//469
f 233//470 543//473 542//471
f 584//466 585//472 233//470
f 585//472 724//583 543//473
f 226//457 229//469 234//474
f 230//455 234//474 597//475
f 229//469 542//471 541//476
f 234//474 541//476 726//477
f 239//478 240//480 236//479
f 240//480 658//484 659//481
f 665//482 664//483 240//480
f 664//483 750//588 658//484
f 235//479 236//479 241//485
f 237//486 241//485 625//487
f 236//479 659//481 660//489
f 241//485 660//489 744//468
f 237//486 242//490 238//374
f 242//490 657//382 656//374
f 626//488 627//491 242//490
f 627//491 735//383 657//382
f 235//479 238//374 243//492
f 239//478 243//492 666//493
f 238//374 656//374 655//377
f 243//492 655//377 749//494
f 248//495 249//498 245//496
f 249//498 642//502 641//499
f 620//500 619//501 249//498
f 619//501 742//519 642//502
f 244//497 245//496 250//503
f 246//504 250//503 628//505
f 245//496 641//499 640//507
f 250//503 640//507 745//508
f 246//504 251//510 247//509
f 251//510 604//405 605//397
f 629//506 630//511 251//510
f 630//511 737//406 604//405
f 244//497 247//509 252//512
f 248//495 252//512 621//513
f 247//509 605//397 606//400
f 252//512 606//400 738//421
f 253//514 257//517 258//515
f 254//516 258//515 619//501
f 257//517 644//527 645//518
f 258//515 645//518 742//519
f 254//516 259//521 255//520
f 259//521 609//420 608//432
f 620//500 621//513 259//521
f 621//513 738//421 609//420
f 253//514 255//520 260//522
f 256//522 260//522 633//523
f 255//520 608//432 607//434
f 260//522 607//434 739//525
f 256//522 261//526 257//517
f 261//526 643//529 644//527
f 632//524 631//528 261//526
f 631//528 746//571 643//529
f 262//530 266//535 267//531
f 263//532 267//531 685//533
f 266//535 680//544 679//536
f 267//531 679//536 754//537
f 263//532 268//539 264//538
f 268//539 676//441 677//453
f 686//534 687//540 268//539
f 687//540 753//442 676//441
f 262//530 264//538 269//541
f 265//542 269//541 630//511
f 264//538 677//453 678//454
f 269//541 678//454 737//406
f 265//542 270//543 266//535
f 270//543 681//545 680//544
f 629//506 628//505 270//543
f 628//505 745//508 681//545
f 275//546 276//549 272//547
f 276//549 552//551 551//550
f 578//428 579//427 276//549
f 579//427 732//430 552//551
f 271//548 272//547 277//552
f 273//553 277//552 558//387
f 272//547 551//550 550//554
f 277//552 550//554 729//555
f 273//553 278//557 274//556
f 278//557 615//559 614//558
f 557//381 556//380 278//557
f 556//380 735//383 615//559
f 271//548 274//556 279//560
f 275//546 279//560 577//433
f 274//556 614//558 613//561
f 279//560 613//561 739//525
f 284//562 285//565 281//563
f 285//565 613//561 614//558
f 632//524 633//523 285//565
f 633//523 739//525 613//561
f 280//564 281//563 286//566
f 282//567 286//566 627//491
f 281//563 614//558 615//559
f 286//566 615//559 735//383
f 282//567 287//569 283//568
f 287//569 636//467 635//459
f 626//488 625//487 287//569
f 625//487 744//468 636//467
f 280//564 283//568 288//570
f 284//562 288//570 631//528
f 283//568 635//459 634//462
f 288//570 634//462 746//571
f 293//572 294//575 290//573
f 294//575 538//579 539//576
f 668//577 667//578 294//575
f 667//578 747//681 538//579
f 289//574 290//573 295//580
f 291//581 295//580 585//472
f 290//573 539//576 540//582
f 295//580 540//582 724//583
f 291//581 296//585 292//584
f 296//585 660//489 659//481
f 584//466 583//465 296//585
f 583//465 744//468 660//489
f 289//574 292//584 297//586
f 293//572 297//586 669//587
f 292//584 659//481 658//484
f 297//586 658//484 750//588
f 302//589 303//592 299//590
f 303//592 546//596 545//593
f 575//594 576//595 303//592
f 576//595 723//613 546//596
f 298//591 299//590 304//597
f 300//598 304//597 591//599
f 299//590 545//593 544//601
f 304//597 544//601 728//602
f 300//598 305//604 301//603
f 305//604 640//507 641//499
f 590//600 589//605 305//604
f 589//605 745//508 640//507
f 298//591 301//603 306//606
f 302//589 306//606 574//607
f 301//603 641//499 642//502
f 306//606 642//502 742//519
f 307//608 311//611 312//609
f 308//610 312//609 576//595
f 311//611 536//619 537//612
f 312//609 537//612 723//613
f 308//610 313//615 309//614
f 313//615 645//518 644//527
f 575//594 574//607 313//615
f 574//607 742//519 645//518
f 307//608 309//614 314//616
f 310//617 314//616 595//461
f 309//614 644//527 643//529
f 314//616 643//529 746//571
f 310//617 315//618 311//611
f 315//618 535//620 536//619
f 596//460 597//475 315//618
f 597//475 726//477 535//620
f 316//621 320//626 321//622
f 317//623 321//622 688//624
f 320//626 671//635 670//627
f 321//622 670//627 751//628
f 317//623 322//630 318//629
f 322//630 679//536 680//544
f 689//625 690//631 322//630
f 690//631 754//537 679//536
f 316//621 318//629 323//632
f 319//633 323//632 589//605
f 318//629 680//544 681//545
f 323//632 681//545 745//508
f 319//633 324//634 320//626
f 324//634 672//636 671//635
f 590//600 591//599 324//634
f 591//599 728//602 672//636
f 329//637 330//640 326//638
f 330//640 603//644 602//641
f 587//642 586//643 330//640
f 586//643 736//669 603//644
f 325//639 326//638 331//645
f 327//646 331//645 661//376
f 326//638 602//641 601//647
f 331//645 601//647 749//494
f 327//646 332//390 328//648
f 332//390 652//650 653//649
f 662//375 663//390 332//390
f 663//390 748//392 652//650
f 325//639 328//648 333//651
f 329//637 333//651 588//652
f 328//648 653//649 654//649
f 333//651 654//649 730//653
f 338//654 339//657 335//655
f 339//657 639//661 638//658
f 617//659 616//660 339//657
f 616//660 741//685 639//661
f 334//656 335//655 340//662
f 336//663 340//662 664//483
f 335//655 638//658 637//664
f 340//662 637//664 750//588
f 336//663 341//666 337//665
f 341//666 601//647 602//641
f 665//482 666//493 341//666
f 666//493 749//494 601//647
f 334//656 337//665 342//667
f 338//654 342//667 618//668
f 337//665 602//641 603//644
f 342//667 603//644 736//669
f 347//670 348//676 344//671
f 344//671 348//676 651//673
f 560//675 561//738 348//676
f 348//676 561//738 725//677
f 343//672 344//671 349//678
f 345//679 349//678 667//578
f 344//671 650//674 649//680
f 349//678 649//680 747//681
f 345//679 350//683 346//682
f 350//683 637//664 638//658
f 668//577 669//587 350//683
f 669//587 750//588 637//664
f 343//672 346//682 351//661
f 347//670 351//661 559//684
f 346//682 638//658 639//661
f 351//661 639//661 741//685
f 352//686 356//691 357//687
f 353//688 357//687 598//689
f 356//691 611//704 612//692
f 357//687 612//692 740//693
f 353//688 358//698 354//694
f 354//694 358//698 570//695
f 353//688 599//690 600//697
f 358//698 600//697 733//695
f 352//686 354//694 359//699
f 355//700 359//699 684//446
f 354//694 569//696 568//701
f 359//699 568//701 752//702
f 355//700 360//703 356//691
f 360//703 610//705 611//704
f 683//439 682//438 360//703
f 682//438 753//442 610//705
f 361//706 365//711 366//707
f 362//708 366//707 622//709
f 365//711 647//720 648//712
f 366//707 648//712 743//713
f 362//708 367//715 363//714
f 367//715 612//692 611//704
f 623//710 624//716 367//715
f 624//716 740//693 612//692
f 361//706 363//714 368//717
f 364//718 368//717 687//540
f 363//714 611//704 610//705
f 368//717 610//705 753//442
f 364//718 369//719 365//711
f 369//719 646//721 647//720
f 686//534 685//533 369//719
f 685//533 754//537 646//721
f 370//722 374//727 375//723
f 371//724 375//723 582//725
f 374//727 548//736 549//728
f 375//723 549//728 727//729
f 371//724 376//731 372//730
f 376//731 648//712 647//720
f 581//726 580//732 376//731
f 580//732 743//713 648//712
f 370//722 372//730 377//733
f 373//734 377//733 690//631
f 372//730 647//720 646//721
f 377//733 646//721 754//537
f 373//734 378//735 374//727
f 378//735 547//737 548//736
f 689//625 688//624 378//735
f 688//624 751//628 547//737
