# Blender v2.79 (sub 0) OBJ File: 'm3.blend'
# www.blender.org
o Front_Blinckers_Grill_Cube
v 1.251299 -0.278509 3.991424
v 1.251299 -0.278509 3.956640
v 1.580173 -0.278509 3.766427
v 1.580173 -0.278509 3.801212
v 1.251299 -0.272354 3.991424
v 1.251299 -0.272354 3.956640
v 1.580173 -0.272354 3.766427
v 1.580173 -0.272354 3.801212
v 1.249655 -0.266198 3.991424
v 1.249655 -0.266198 3.956640
v 1.578528 -0.266198 3.766427
v 1.578528 -0.266198 3.801212
v 1.249655 -0.260043 3.991424
v 1.249655 -0.260043 3.956640
v 1.578528 -0.260043 3.766427
v 1.578528 -0.260043 3.801212
v 1.248011 -0.253887 3.991424
v 1.248011 -0.253887 3.956640
v 1.576884 -0.253887 3.766427
v 1.576884 -0.253887 3.801212
v 1.248011 -0.247732 3.991424
v 1.248011 -0.247732 3.956640
v 1.576884 -0.247732 3.766427
v 1.576884 -0.247732 3.801212
v 1.246366 -0.241576 3.991424
v 1.246366 -0.241576 3.956640
v 1.575240 -0.241576 3.766427
v 1.575240 -0.241576 3.801212
v 1.246366 -0.235421 3.991424
v 1.246366 -0.235421 3.956640
v 1.575240 -0.235421 3.766427
v 1.575240 -0.235421 3.801212
v 1.244722 -0.229266 3.991424
v 1.244722 -0.229266 3.956640
v 1.573595 -0.229266 3.766427
v 1.573595 -0.229266 3.801212
v 1.244722 -0.223110 3.991424
v 1.244722 -0.223110 3.956640
v 1.573595 -0.223110 3.766427
v 1.573595 -0.223110 3.801212
v 1.243077 -0.216955 3.991424
v 1.243077 -0.216955 3.956640
v 1.571951 -0.216955 3.766427
v 1.571951 -0.216955 3.801212
v 1.243077 -0.210799 3.991424
v 1.243077 -0.210799 3.956640
v 1.571951 -0.210799 3.766427
v 1.571951 -0.210799 3.801212
v 1.241433 -0.204644 3.991424
v 1.241433 -0.204644 3.956640
v 1.570306 -0.204644 3.766427
v 1.570306 -0.204644 3.801212
v 1.241433 -0.198488 3.991424
v 1.241433 -0.198488 3.956640
v 1.570306 -0.198488 3.766427
v 1.570306 -0.198488 3.801212
v 1.239789 -0.192333 3.991424
v 1.239789 -0.192333 3.956640
v 1.568662 -0.192333 3.766427
v 1.568662 -0.192333 3.801212
v 1.239789 -0.186177 3.991424
v 1.239789 -0.186177 3.956640
v 1.568662 -0.186177 3.766427
v 1.568662 -0.186177 3.801212
v 1.238144 -0.180022 3.991424
v 1.238144 -0.180022 3.956640
v 1.567018 -0.180022 3.766427
v 1.567018 -0.180022 3.801212
v 1.238144 -0.173866 3.991424
v 1.238144 -0.173866 3.956640
v 1.567018 -0.173866 3.766427
v 1.567018 -0.173866 3.801212
v 1.236500 -0.167711 3.991424
v 1.236500 -0.167711 3.956640
v 1.565373 -0.167711 3.766427
v 1.565373 -0.167711 3.801212
v 1.236500 -0.161555 3.991424
v 1.236500 -0.161555 3.956640
v 1.565373 -0.161555 3.766427
v 1.565373 -0.161555 3.801212
v 1.234856 -0.155400 3.991424
v 1.234856 -0.155400 3.956640
v 1.563729 -0.155400 3.766427
v 1.563729 -0.155400 3.801212
v 1.234856 -0.149245 3.991424
v 1.234856 -0.149245 3.956640
v 1.563729 -0.149245 3.766427
v 1.563729 -0.149245 3.801212
v 1.233211 -0.143089 3.991424
v 1.233211 -0.143089 3.956640
v 1.562085 -0.143089 3.766427
v 1.562085 -0.143089 3.801212
v 1.233211 -0.136934 3.991424
v 1.233211 -0.136934 3.956640
v 1.562085 -0.136934 3.766427
v 1.562085 -0.136934 3.801212
v 1.231567 -0.130778 3.991424
v 1.231567 -0.130778 3.956640
v 1.560440 -0.130778 3.766427
v 1.560440 -0.130778 3.801212
v 1.231567 -0.124623 3.991424
v 1.231567 -0.124623 3.956640
v 1.560440 -0.124623 3.766427
v 1.560440 -0.124623 3.801212
v 1.229922 -0.118467 3.991424
v 1.229922 -0.118467 3.956640
v 1.558796 -0.118467 3.766427
v 1.558796 -0.118467 3.801212
v 1.229922 -0.112312 3.991424
v 1.229922 -0.112312 3.956640
v 1.558796 -0.112312 3.766427
v 1.558796 -0.112312 3.801212
v 1.228278 -0.106156 3.991424
v 1.228278 -0.106156 3.956640
v 1.557151 -0.106156 3.766427
v 1.557151 -0.106156 3.801212
v 1.228278 -0.100001 3.991424
v 1.228278 -0.100001 3.956640
v 1.557151 -0.100001 3.766427
v 1.557151 -0.100001 3.801212
v 1.226634 -0.093845 3.991424
v 1.226634 -0.093845 3.956640
v 1.555507 -0.093845 3.766427
v 1.555507 -0.093845 3.801212
v 1.226634 -0.087690 3.991424
v 1.226634 -0.087690 3.956640
v 1.555507 -0.087690 3.766427
v 1.555507 -0.087690 3.801212
v 1.224989 -0.081535 3.991424
v 1.224989 -0.081535 3.956640
v 1.553863 -0.081535 3.766427
v 1.553863 -0.081535 3.801212
v 1.224989 -0.075379 3.991424
v 1.224989 -0.075379 3.956640
v 1.553863 -0.075379 3.766427
v 1.553863 -0.075379 3.801212
v 1.223345 -0.069224 3.991424
v 1.223345 -0.069224 3.956640
v 1.552218 -0.069224 3.766427
v 1.552218 -0.069224 3.801212
v 1.223345 -0.063068 3.991424
v 1.223345 -0.063068 3.956640
v 1.552218 -0.063068 3.766427
v 1.552218 -0.063068 3.801212
v 1.221701 -0.056913 3.991424
v 1.221701 -0.056913 3.956640
v 1.550574 -0.056913 3.766427
v 1.550574 -0.056913 3.801212
v 1.221701 -0.050757 3.991424
v 1.221701 -0.050757 3.956640
v 1.550574 -0.050757 3.766427
v 1.550574 -0.050757 3.801212
v -1.251299 -0.278509 3.991424
v -1.251299 -0.278509 3.956640
v -1.580173 -0.278509 3.766427
v -1.580173 -0.278509 3.801212
v -1.251299 -0.272354 3.991424
v -1.251299 -0.272354 3.956640
v -1.580173 -0.272354 3.766427
v -1.580173 -0.272354 3.801212
v -1.249655 -0.266198 3.991424
v -1.249655 -0.266198 3.956640
v -1.578528 -0.266198 3.766427
v -1.578528 -0.266198 3.801212
v -1.249655 -0.260043 3.991424
v -1.249655 -0.260043 3.956640
v -1.578528 -0.260043 3.766427
v -1.578528 -0.260043 3.801212
v -1.248011 -0.253887 3.991424
v -1.248011 -0.253887 3.956640
v -1.576884 -0.253887 3.766427
v -1.576884 -0.253887 3.801212
v -1.248011 -0.247732 3.991424
v -1.248011 -0.247732 3.956640
v -1.576884 -0.247732 3.766427
v -1.576884 -0.247732 3.801212
v -1.246366 -0.241576 3.991424
v -1.246366 -0.241576 3.956640
v -1.575240 -0.241576 3.766427
v -1.575240 -0.241576 3.801212
v -1.246366 -0.235421 3.991424
v -1.246366 -0.235421 3.956640
v -1.575240 -0.235421 3.766427
v -1.575240 -0.235421 3.801212
v -1.244722 -0.229266 3.991424
v -1.244722 -0.229266 3.956640
v -1.573595 -0.229266 3.766427
v -1.573595 -0.229266 3.801212
v -1.244722 -0.223110 3.991424
v -1.244722 -0.223110 3.956640
v -1.573595 -0.223110 3.766427
v -1.573595 -0.223110 3.801212
v -1.243077 -0.216955 3.991424
v -1.243077 -0.216955 3.956640
v -1.571951 -0.216955 3.766427
v -1.571951 -0.216955 3.801212
v -1.243077 -0.210799 3.991424
v -1.243077 -0.210799 3.956640
v -1.571951 -0.210799 3.766427
v -1.571951 -0.210799 3.801212
v -1.241433 -0.204644 3.991424
v -1.241433 -0.204644 3.956640
v -1.570306 -0.204644 3.766427
v -1.570306 -0.204644 3.801212
v -1.241433 -0.198488 3.991424
v -1.241433 -0.198488 3.956640
v -1.570306 -0.198488 3.766427
v -1.570306 -0.198488 3.801212
v -1.239789 -0.192333 3.991424
v -1.239789 -0.192333 3.956640
v -1.568662 -0.192333 3.766427
v -1.568662 -0.192333 3.801212
v -1.239789 -0.186177 3.991424
v -1.239789 -0.186177 3.956640
v -1.568662 -0.186177 3.766427
v -1.568662 -0.186177 3.801212
v -1.238144 -0.180022 3.991424
v -1.238144 -0.180022 3.956640
v -1.567018 -0.180022 3.766427
v -1.567018 -0.180022 3.801212
v -1.238144 -0.173866 3.991424
v -1.238144 -0.173866 3.956640
v -1.567018 -0.173866 3.766427
v -1.567018 -0.173866 3.801212
v -1.236500 -0.167711 3.991424
v -1.236500 -0.167711 3.956640
v -1.565373 -0.167711 3.766427
v -1.565373 -0.167711 3.801212
v -1.236500 -0.161555 3.991424
v -1.236500 -0.161555 3.956640
v -1.565373 -0.161555 3.766427
v -1.565373 -0.161555 3.801212
v -1.234856 -0.155400 3.991424
v -1.234856 -0.155400 3.956640
v -1.563729 -0.155400 3.766427
v -1.563729 -0.155400 3.801212
v -1.234856 -0.149245 3.991424
v -1.234856 -0.149245 3.956640
v -1.563729 -0.149245 3.766427
v -1.563729 -0.149245 3.801212
v -1.233211 -0.143089 3.991424
v -1.233211 -0.143089 3.956640
v -1.562085 -0.143089 3.766427
v -1.562085 -0.143089 3.801212
v -1.233211 -0.136934 3.991424
v -1.233211 -0.136934 3.956640
v -1.562085 -0.136934 3.766427
v -1.562085 -0.136934 3.801212
v -1.231567 -0.130778 3.991424
v -1.231567 -0.130778 3.956640
v -1.560440 -0.130778 3.766427
v -1.560440 -0.130778 3.801212
v -1.231567 -0.124623 3.991424
v -1.231567 -0.124623 3.956640
v -1.560440 -0.124623 3.766427
v -1.560440 -0.124623 3.801212
v -1.229922 -0.118467 3.991424
v -1.229922 -0.118467 3.956640
v -1.558796 -0.118467 3.766427
v -1.558796 -0.118467 3.801212
v -1.229922 -0.112312 3.991424
v -1.229922 -0.112312 3.956640
v -1.558796 -0.112312 3.766427
v -1.558796 -0.112312 3.801212
v -1.228278 -0.106156 3.991424
v -1.228278 -0.106156 3.956640
v -1.557151 -0.106156 3.766427
v -1.557151 -0.106156 3.801212
v -1.228278 -0.100001 3.991424
v -1.228278 -0.100001 3.956640
v -1.557151 -0.100001 3.766427
v -1.557151 -0.100001 3.801212
v -1.226634 -0.093845 3.991424
v -1.226634 -0.093845 3.956640
v -1.555507 -0.093845 3.766427
v -1.555507 -0.093845 3.801212
v -1.226634 -0.087690 3.991424
v -1.226634 -0.087690 3.956640
v -1.555507 -0.087690 3.766427
v -1.555507 -0.087690 3.801212
v -1.224989 -0.081535 3.991424
v -1.224989 -0.081535 3.956640
v -1.553863 -0.081535 3.766427
v -1.553863 -0.081535 3.801212
v -1.224989 -0.075379 3.991424
v -1.224989 -0.075379 3.956640
v -1.553863 -0.075379 3.766427
v -1.553863 -0.075379 3.801212
v -1.223345 -0.069224 3.991424
v -1.223345 -0.069224 3.956640
v -1.552218 -0.069224 3.766427
v -1.552218 -0.069224 3.801212
v -1.223345 -0.063068 3.991424
v -1.223345 -0.063068 3.956640
v -1.552218 -0.063068 3.766427
v -1.552218 -0.063068 3.801212
v -1.221701 -0.056913 3.991424
v -1.221701 -0.056913 3.956640
v -1.550574 -0.056913 3.766427
v -1.550574 -0.056913 3.801212
v -1.221701 -0.050757 3.991424
v -1.221701 -0.050757 3.956640
v -1.550574 -0.050757 3.766427
v -1.550574 -0.050757 3.801212
vn -1.0000 0.0000 0.0000
vn -0.5007 0.0000 -0.8656
vn 1.0000 0.0000 0.0000
vn 0.5007 0.0000 0.8656
vn 0.0000 -1.0000 0.0000
vn 0.0000 1.0000 0.0000
vn 0.5007 0.0000 -0.8656
vn -0.5007 0.0000 0.8656
s off
f 6//1 1//1 5//1
f 7//2 2//2 6//2
f 8//3 3//3 7//3
f 5//4 4//4 8//4
f 2//5 4//5 1//5
f 8//6 6//6 5//6
f 14//1 9//1 13//1
f 15//2 10//2 14//2
f 16//3 11//3 15//3
f 13//4 12//4 16//4
f 10//5 12//5 9//5
f 16//6 14//6 13//6
f 22//1 17//1 21//1
f 23//2 18//2 22//2
f 24//3 19//3 23//3
f 21//4 20//4 24//4
f 18//5 20//5 17//5
f 24//6 22//6 21//6
f 30//1 25//1 29//1
f 31//2 26//2 30//2
f 32//3 27//3 31//3
f 29//4 28//4 32//4
f 26//5 28//5 25//5
f 32//6 30//6 29//6
f 38//1 33//1 37//1
f 39//2 34//2 38//2
f 40//3 35//3 39//3
f 37//4 36//4 40//4
f 34//5 36//5 33//5
f 40//6 38//6 37//6
f 46//1 41//1 45//1
f 47//2 42//2 46//2
f 48//3 43//3 47//3
f 45//4 44//4 48//4
f 42//5 44//5 41//5
f 48//6 46//6 45//6
f 54//1 49//1 53//1
f 55//2 50//2 54//2
f 56//3 51//3 55//3
f 53//4 52//4 56//4
f 50//5 52//5 49//5
f 56//6 54//6 53//6
f 62//1 57//1 61//1
f 63//2 58//2 62//2
f 64//3 59//3 63//3
f 61//4 60//4 64//4
f 58//5 60//5 57//5
f 64//6 62//6 61//6
f 70//1 65//1 69//1
f 71//2 66//2 70//2
f 72//3 67//3 71//3
f 69//4 68//4 72//4
f 66//5 68//5 65//5
f 72//6 70//6 69//6
f 78//1 73//1 77//1
f 79//2 74//2 78//2
f 80//3 75//3 79//3
f 77//4 76//4 80//4
f 74//5 76//5 73//5
f 80//6 78//6 77//6
f 86//1 81//1 85//1
f 87//2 82//2 86//2
f 88//3 83//3 87//3
f 85//4 84//4 88//4
f 82//5 84//5 81//5
f 88//6 86//6 85//6
f 94//1 89//1 93//1
f 95//2 90//2 94//2
f 96//3 91//3 95//3
f 93//4 92//4 96//4
f 90//5 92//5 89//5
f 96//6 94//6 93//6
f 102//1 97//1 101//1
f 103//2 98//2 102//2
f 104//3 99//3 103//3
f 101//4 100//4 104//4
f 98//5 100//5 97//5
f 104//6 102//6 101//6
f 110//1 105//1 109//1
f 111//2 106//2 110//2
f 112//3 107//3 111//3
f 109//4 108//4 112//4
f 106//5 108//5 105//5
f 112//6 110//6 109//6
f 118//1 113//1 117//1
f 119//2 114//2 118//2
f 120//3 115//3 119//3
f 117//4 116//4 120//4
f 114//5 116//5 113//5
f 120//6 118//6 117//6
f 126//1 121//1 125//1
f 127//2 122//2 126//2
f 128//3 123//3 127//3
f 125//4 124//4 128//4
f 122//5 124//5 121//5
f 128//6 126//6 125//6
f 134//1 129//1 133//1
f 135//2 130//2 134//2
f 136//3 131//3 135//3
f 133//4 132//4 136//4
f 130//5 132//5 129//5
f 136//6 134//6 133//6
f 142//1 137//1 141//1
f 143//2 138//2 142//2
f 144//3 139//3 143//3
f 141//4 140//4 144//4
f 138//5 140//5 137//5
f 144//6 142//6 141//6
f 150//1 145//1 149//1
f 151//2 146//2 150//2
f 152//3 147//3 151//3
f 149//4 148//4 152//4
f 146//5 148//5 145//5
f 152//6 150//6 149//6
f 153//3 158//3 157//3
f 154//7 159//7 158//7
f 155//1 160//1 159//1
f 156//8 157//8 160//8
f 156//5 154//5 153//5
f 160//6 158//6 159//6
f 161//3 166//3 165//3
f 162//7 167//7 166//7
f 163//1 168//1 167//1
f 164//8 165//8 168//8
f 164//5 162//5 161//5
f 168//6 166//6 167//6
f 169//3 174//3 173//3
f 170//7 175//7 174//7
f 171//1 176//1 175//1
f 172//8 173//8 176//8
f 172//5 170//5 169//5
f 176//6 174//6 175//6
f 177//3 182//3 181//3
f 178//7 183//7 182//7
f 179//1 184//1 183//1
f 180//8 181//8 184//8
f 180//5 178//5 177//5
f 184//6 182//6 183//6
f 185//3 190//3 189//3
f 186//7 191//7 190//7
f 187//1 192//1 191//1
f 188//8 189//8 192//8
f 188//5 186//5 185//5
f 192//6 190//6 191//6
f 193//3 198//3 197//3
f 194//7 199//7 198//7
f 195//1 200//1 199//1
f 196//8 197//8 200//8
f 196//5 194//5 193//5
f 200//6 198//6 199//6
f 201//3 206//3 205//3
f 202//7 207//7 206//7
f 203//1 208//1 207//1
f 204//8 205//8 208//8
f 204//5 202//5 201//5
f 208//6 206//6 207//6
f 209//3 214//3 213//3
f 210//7 215//7 214//7
f 211//1 216//1 215//1
f 212//8 213//8 216//8
f 212//5 210//5 209//5
f 216//6 214//6 215//6
f 217//3 222//3 221//3
f 218//7 223//7 222//7
f 219//1 224//1 223//1
f 220//8 221//8 224//8
f 220//5 218//5 217//5
f 224//6 222//6 223//6
f 225//3 230//3 229//3
f 226//7 231//7 230//7
f 227//1 232//1 231//1
f 228//8 229//8 232//8
f 228//5 226//5 225//5
f 232//6 230//6 231//6
f 233//3 238//3 237//3
f 234//7 239//7 238//7
f 235//1 240//1 239//1
f 236//8 237//8 240//8
f 236//5 234//5 233//5
f 240//6 238//6 239//6
f 241//3 246//3 245//3
f 242//7 247//7 246//7
f 243//1 248//1 247//1
f 244//8 245//8 248//8
f 244//5 242//5 241//5
f 248//6 246//6 247//6
f 249//3 254//3 253//3
f 250//7 255//7 254//7
f 251//1 256//1 255//1
f 252//8 253//8 256//8
f 252//5 250//5 249//5
f 256//6 254//6 255//6
f 257//3 262//3 261//3
f 258//7 263//7 262//7
f 259//1 264//1 263//1
f 260//8 261//8 264//8
f 260//5 258//5 257//5
f 264//6 262//6 263//6
f 265//3 270//3 269//3
f 266//7 271//7 270//7
f 267//1 272//1 271//1
f 268//8 269//8 272//8
f 268//5 266//5 265//5
f 272//6 270//6 271//6
f 273//3 278//3 277//3
f 274//7 279//7 278//7
f 275//1 280//1 279//1
f 276//8 277//8 280//8
f 276//5 274//5 273//5
f 280//6 278//6 279//6
f 281//3 286//3 285//3
f 282//7 287//7 286//7
f 283//1 288//1 287//1
f 284//8 285//8 288//8
f 284//5 282//5 281//5
f 288//6 286//6 287//6
f 289//3 294//3 293//3
f 290//7 295//7 294//7
f 291//1 296//1 295//1
f 292//8 293//8 296//8
f 292//5 290//5 289//5
f 296//6 294//6 295//6
f 297//3 302//3 301//3
f 298//7 303//7 302//7
f 299//1 304//1 303//1
f 300//8 301//8 304//8
f 300//5 298//5 297//5
f 304//6 302//6 303//6
f 6//1 2//1 1//1
f 7//2 3//2 2//2
f 8//3 4//3 3//3
f 5//4 1//4 4//4
f 2//5 3//5 4//5
f 8//6 7//6 6//6
f 14//1 10//1 9//1
f 15//2 11//2 10//2
f 16//3 12//3 11//3
f 13//4 9//4 12//4
f 10//5 11//5 12//5
f 16//6 15//6 14//6
f 22//1 18//1 17//1
f 23//2 19//2 18//2
f 24//3 20//3 19//3
f 21//4 17//4 20//4
f 18//5 19//5 20//5
f 24//6 23//6 22//6
f 30//1 26//1 25//1
f 31//2 27//2 26//2
f 32//3 28//3 27//3
f 29//4 25//4 28//4
f 26//5 27//5 28//5
f 32//6 31//6 30//6
f 38//1 34//1 33//1
f 39//2 35//2 34//2
f 40//3 36//3 35//3
f 37//4 33//4 36//4
f 34//5 35//5 36//5
f 40//6 39//6 38//6
f 46//1 42//1 41//1
f 47//2 43//2 42//2
f 48//3 44//3 43//3
f 45//4 41//4 44//4
f 42//5 43//5 44//5
f 48//6 47//6 46//6
f 54//1 50//1 49//1
f 55//2 51//2 50//2
f 56//3 52//3 51//3
f 53//4 49//4 52//4
f 50//5 51//5 52//5
f 56//6 55//6 54//6
f 62//1 58//1 57//1
f 63//2 59//2 58//2
f 64//3 60//3 59//3
f 61//4 57//4 60//4
f 58//5 59//5 60//5
f 64//6 63//6 62//6
f 70//1 66//1 65//1
f 71//2 67//2 66//2
f 72//3 68//3 67//3
f 69//4 65//4 68//4
f 66//5 67//5 68//5
f 72//6 71//6 70//6
f 78//1 74//1 73//1
f 79//2 75//2 74//2
f 80//3 76//3 75//3
f 77//4 73//4 76//4
f 74//5 75//5 76//5
f 80//6 79//6 78//6
f 86//1 82//1 81//1
f 87//2 83//2 82//2
f 88//3 84//3 83//3
f 85//4 81//4 84//4
f 82//5 83//5 84//5
f 88//6 87//6 86//6
f 94//1 90//1 89//1
f 95//2 91//2 90//2
f 96//3 92//3 91//3
f 93//4 89//4 92//4
f 90//5 91//5 92//5
f 96//6 95//6 94//6
f 102//1 98//1 97//1
f 103//2 99//2 98//2
f 104//3 100//3 99//3
f 101//4 97//4 100//4
f 98//5 99//5 100//5
f 104//6 103//6 102//6
f 110//1 106//1 105//1
f 111//2 107//2 106//2
f 112//3 108//3 107//3
f 109//4 105//4 108//4
f 106//5 107//5 108//5
f 112//6 111//6 110//6
f 118//1 114//1 113//1
f 119//2 115//2 114//2
f 120//3 116//3 115//3
f 117//4 113//4 116//4
f 114//5 115//5 116//5
f 120//6 119//6 118//6
f 126//1 122//1 121//1
f 127//2 123//2 122//2
f 128//3 124//3 123//3
f 125//4 121//4 124//4
f 122//5 123//5 124//5
f 128//6 127//6 126//6
f 134//1 130//1 129//1
f 135//2 131//2 130//2
f 136//3 132//3 131//3
f 133//4 129//4 132//4
f 130//5 131//5 132//5
f 136//6 135//6 134//6
f 142//1 138//1 137//1
f 143//2 139//2 138//2
f 144//3 140//3 139//3
f 141//4 137//4 140//4
f 138//5 139//5 140//5
f 144//6 143//6 142//6
f 150//1 146//1 145//1
f 151//2 147//2 146//2
f 152//3 148//3 147//3
f 149//4 145//4 148//4
f 146//5 147//5 148//5
f 152//6 151//6 150//6
f 153//3 154//3 158//3
f 154//7 155//7 159//7
f 155//1 156//1 160//1
f 156//8 153//8 157//8
f 156//5 155//5 154//5
f 160//6 157//6 158//6
f 161//3 162//3 166//3
f 162//7 163//7 167//7
f 163//1 164//1 168//1
f 164//8 161//8 165//8
f 164//5 163//5 162//5
f 168//6 165//6 166//6
f 169//3 170//3 174//3
f 170//7 171//7 175//7
f 171//1 172//1 176//1
f 172//8 169//8 173//8
f 172//5 171//5 170//5
f 176//6 173//6 174//6
f 177//3 178//3 182//3
f 178//7 179//7 183//7
f 179//1 180//1 184//1
f 180//8 177//8 181//8
f 180//5 179//5 178//5
f 184//6 181//6 182//6
f 185//3 186//3 190//3
f 186//7 187//7 191//7
f 187//1 188//1 192//1
f 188//8 185//8 189//8
f 188//5 187//5 186//5
f 192//6 189//6 190//6
f 193//3 194//3 198//3
f 194//7 195//7 199//7
f 195//1 196//1 200//1
f 196//8 193//8 197//8
f 196//5 195//5 194//5
f 200//6 197//6 198//6
f 201//3 202//3 206//3
f 202//7 203//7 207//7
f 203//1 204//1 208//1
f 204//8 201//8 205//8
f 204//5 203//5 202//5
f 208//6 205//6 206//6
f 209//3 210//3 214//3
f 210//7 211//7 215//7
f 211//1 212//1 216//1
f 212//8 209//8 213//8
f 212//5 211//5 210//5
f 216//6 213//6 214//6
f 217//3 218//3 222//3
f 218//7 219//7 223//7
f 219//1 220//1 224//1
f 220//8 217//8 221//8
f 220//5 219//5 218//5
f 224//6 221//6 222//6
f 225//3 226//3 230//3
f 226//7 227//7 231//7
f 227//1 228//1 232//1
f 228//8 225//8 229//8
f 228//5 227//5 226//5
f 232//6 229//6 230//6
f 233//3 234//3 238//3
f 234//7 235//7 239//7
f 235//1 236//1 240//1
f 236//8 233//8 237//8
f 236//5 235//5 234//5
f 240//6 237//6 238//6
f 241//3 242//3 246//3
f 242//7 243//7 247//7
f 243//1 244//1 248//1
f 244//8 241//8 245//8
f 244//5 243//5 242//5
f 248//6 245//6 246//6
f 249//3 250//3 254//3
f 250//7 251//7 255//7
f 251//1 252//1 256//1
f 252//8 249//8 253//8
f 252//5 251//5 250//5
f 256//6 253//6 254//6
f 257//3 258//3 262//3
f 258//7 259//7 263//7
f 259//1 260//1 264//1
f 260//8 257//8 261//8
f 260//5 259//5 258//5
f 264//6 261//6 262//6
f 265//3 266//3 270//3
f 266//7 267//7 271//7
f 267//1 268//1 272//1
f 268//8 265//8 269//8
f 268//5 267//5 266//5
f 272//6 269//6 270//6
f 273//3 274//3 278//3
f 274//7 275//7 279//7
f 275//1 276//1 280//1
f 276//8 273//8 277//8
f 276//5 275//5 274//5
f 280//6 277//6 278//6
f 281//3 282//3 286//3
f 282//7 283//7 287//7
f 283//1 284//1 288//1
f 284//8 281//8 285//8
f 284//5 283//5 282//5
f 288//6 285//6 286//6
f 289//3 290//3 294//3
f 290//7 291//7 295//7
f 291//1 292//1 296//1
f 292//8 289//8 293//8
f 292//5 291//5 290//5
f 296//6 293//6 294//6
f 297//3 298//3 302//3
f 298//7 299//7 303//7
f 299//1 300//1 304//1
f 300//8 297//8 301//8
f 300//5 299//5 298//5
f 304//6 301//6 302//6
