# Blender v2.79 (sub 0) OBJ File: 'm3.blend'
# www.blender.org
o Rim_Cap_LF_Circle.003
v 1.627401 -0.852706 3.116418
v 1.620031 -0.834525 3.126074
v 1.625108 -0.814324 3.119423
v 1.640668 -0.811798 3.099036
v 1.648039 -0.829979 3.089379
v 1.642962 -0.850180 3.096031
v 1.629950 -0.854446 3.113079
v 1.620569 -0.838985 3.125369
v 1.623157 -0.817539 3.121978
v 1.638120 -0.810058 3.102375
v 1.647501 -0.825519 3.090085
v 1.644913 -0.846965 3.093475
v 1.632656 -0.855333 3.109534
v 1.621625 -0.843185 3.123986
v 1.621625 -0.821319 3.123986
v 1.632656 -0.809171 3.109534
v 1.635414 -0.809171 3.105920
v 1.646445 -0.821319 3.091468
v 1.646445 -0.843185 3.091468
v 1.635414 -0.855333 3.105920
v 1.623157 -0.846965 3.121978
v 1.620569 -0.825519 3.125369
v 1.629950 -0.810058 3.113079
v 1.644913 -0.817538 3.093475
v 1.647501 -0.838985 3.090085
v 1.638120 -0.854446 3.102375
v 1.625108 -0.850180 3.119423
v 1.620031 -0.829979 3.126074
v 1.627401 -0.811798 3.116418
v 1.642962 -0.814324 3.096031
v 1.648039 -0.834525 3.089379
v 1.640668 -0.852706 3.099036
v 1.614955 -0.878274 3.124110
v 1.598371 -0.837367 3.145837
v 1.609794 -0.791913 3.130871
v 1.644805 -0.786230 3.085001
v 1.661390 -0.827137 3.063274
v 1.649966 -0.872591 3.078240
v 1.620689 -0.882189 3.116597
v 1.599581 -0.847400 3.144251
v 1.605405 -0.799147 3.136621
v 1.639071 -0.782315 3.092514
v 1.660179 -0.817104 3.064860
v 1.654355 -0.865357 3.072490
v 1.626777 -0.884185 3.108621
v 1.601957 -0.856851 3.141139
v 1.601957 -0.807653 3.141139
v 1.626777 -0.780319 3.108621
v 1.632983 -0.780319 3.100490
v 1.657803 -0.807653 3.067972
v 1.657803 -0.856851 3.067972
v 1.632984 -0.884185 3.100490
v 1.605405 -0.865357 3.136621
v 1.599581 -0.817104 3.144251
v 1.620689 -0.782315 3.116597
v 1.654355 -0.799147 3.072490
v 1.660179 -0.847400 3.064860
v 1.639071 -0.882189 3.092514
v 1.609794 -0.872591 3.130871
v 1.598371 -0.827137 3.145837
v 1.614955 -0.786230 3.124110
v 1.649966 -0.791913 3.078240
v 1.661390 -0.837367 3.063274
v 1.644805 -0.878274 3.085001
v 1.600246 -0.893615 3.123198
v 1.578134 -0.839072 3.152168
v 1.593365 -0.778467 3.132213
v 1.640047 -0.770889 3.071054
v 1.662159 -0.825432 3.042084
v 1.646928 -0.886037 3.062038
v 1.607892 -0.898835 3.113181
v 1.579748 -0.852450 3.150053
v 1.587513 -0.788112 3.139880
v 1.632401 -0.765669 3.081071
v 1.660544 -0.812054 3.044199
v 1.652780 -0.876392 3.054372
v 1.616008 -0.901496 3.102547
v 1.582915 -0.865051 3.145904
v 1.582915 -0.799453 3.145904
v 1.616008 -0.763008 3.102547
v 1.624284 -0.763008 3.091705
v 1.657377 -0.799453 3.048348
v 1.657377 -0.865051 3.048348
v 1.624284 -0.901496 3.091705
v 1.587513 -0.876392 3.139880
v 1.579748 -0.812054 3.150053
v 1.607892 -0.765669 3.113181
v 1.652780 -0.788112 3.054372
v 1.660544 -0.852450 3.044199
v 1.632401 -0.898835 3.081071
v 1.593365 -0.886037 3.132213
v 1.578134 -0.825432 3.152168
v 1.600246 -0.770889 3.123198
v 1.646928 -0.778467 3.062038
v 1.662159 -0.839072 3.042084
v 1.640047 -0.893615 3.071054
v 1.605189 -0.893615 3.126971
v 1.583077 -0.839072 3.155941
v 1.598308 -0.778467 3.135986
v 1.644990 -0.770889 3.074827
v 1.667102 -0.825432 3.045857
v 1.651871 -0.886037 3.065811
v 1.612835 -0.898835 3.116954
v 1.584691 -0.852450 3.153826
v 1.592456 -0.788112 3.143653
v 1.637344 -0.765669 3.084844
v 1.665488 -0.812054 3.047972
v 1.657723 -0.876392 3.058145
v 1.620952 -0.901496 3.106320
v 1.587858 -0.865051 3.149677
v 1.587858 -0.799453 3.149677
v 1.620952 -0.763008 3.106320
v 1.629227 -0.763008 3.095478
v 1.662320 -0.799453 3.052121
v 1.662320 -0.865051 3.052121
v 1.629227 -0.901496 3.095478
v 1.592456 -0.876392 3.143653
v 1.584691 -0.812054 3.153826
v 1.612835 -0.765669 3.116954
v 1.657723 -0.788112 3.058145
v 1.665488 -0.852450 3.047972
v 1.637344 -0.898835 3.084844
v 1.598308 -0.886037 3.135986
v 1.583077 -0.825432 3.155941
v 1.605189 -0.770889 3.126971
v 1.651871 -0.778467 3.065811
v 1.667102 -0.839072 3.045857
v 1.644990 -0.893615 3.074826
v 1.623044 -0.767336 3.107381
v 1.615434 -0.769831 3.117350
v 1.608266 -0.774724 3.126741
v 1.601815 -0.781828 3.135193
v 1.596329 -0.790870 3.142380
v 1.592019 -0.801503 3.148027
v 1.589050 -0.813317 3.151917
v 1.587536 -0.825858 3.153900
v 1.587536 -0.838646 3.153900
v 1.589050 -0.851187 3.151917
v 1.592019 -0.863001 3.148027
v 1.596329 -0.873634 3.142380
v 1.601815 -0.882676 3.135193
v 1.608266 -0.889780 3.126741
v 1.615434 -0.894673 3.117350
v 1.623044 -0.897168 3.107381
v 1.630802 -0.897168 3.097216
v 1.638412 -0.894673 3.087246
v 1.645580 -0.889780 3.077856
v 1.652030 -0.882676 3.069404
v 1.657517 -0.873634 3.062216
v 1.661827 -0.863001 3.056569
v 1.664796 -0.851187 3.052679
v 1.666310 -0.838646 3.050696
v 1.666310 -0.825858 3.050696
v 1.664796 -0.813317 3.052679
v 1.661827 -0.801503 3.056569
v 1.657517 -0.790870 3.062216
v 1.652030 -0.781828 3.069404
v 1.645579 -0.774724 3.077856
v 1.638412 -0.769831 3.087247
v 1.630802 -0.767336 3.097216
v 1.629880 -0.780067 3.104555
v 1.629485 -0.850988 3.114017
v 1.612289 -0.875642 3.127602
v 1.622126 -0.836208 3.123659
v 1.598218 -0.832252 3.146037
v 1.625493 -0.817912 3.119247
v 1.612289 -0.788862 3.127602
v 1.638903 -0.813516 3.101679
v 1.647471 -0.788862 3.081509
v 1.646262 -0.828296 3.092037
v 1.661542 -0.832252 3.063074
v 1.642895 -0.846592 3.096449
v 1.647471 -0.875642 3.081509
v 1.631793 -0.852142 3.110993
v 1.622826 -0.840013 3.122742
v 1.623963 -0.820985 3.121252
v 1.636594 -0.812362 3.104703
v 1.645562 -0.824491 3.092954
v 1.644425 -0.843519 3.094444
v 1.634194 -0.852532 3.107848
v 1.623963 -0.843519 3.121252
v 1.622826 -0.824491 3.122742
v 1.631793 -0.812362 3.110993
v 1.644425 -0.820985 3.094444
v 1.645562 -0.840013 3.092954
v 1.636594 -0.852142 3.104703
v 1.625493 -0.846592 3.119247
v 1.622126 -0.828296 3.123659
v 1.629485 -0.813516 3.114017
v 1.642895 -0.817912 3.096449
v 1.646262 -0.836208 3.092037
v 1.638903 -0.850988 3.101679
v 1.634194 -0.811972 3.107848
v 1.617763 -0.880464 3.120430
v 1.627358 -0.849114 3.116804
v 1.598826 -0.842433 3.145240
v 1.621889 -0.832252 3.123969
v 1.607491 -0.795352 3.133888
v 1.627358 -0.815390 3.116804
v 1.641997 -0.784040 3.088681
v 1.641030 -0.815390 3.098892
v 1.660934 -0.822071 3.063871
v 1.646499 -0.832252 3.091727
v 1.652269 -0.869152 3.075223
v 1.641030 -0.849114 3.098892
v 1.623703 -0.883434 3.112648
v 1.600628 -0.852222 3.142880
v 1.603554 -0.803260 3.139046
v 1.636057 -0.781070 3.096463
v 1.659132 -0.812282 3.066231
v 1.656206 -0.861244 3.070065
v 1.629880 -0.884437 3.104555
v 1.603554 -0.861244 3.139046
v 1.600628 -0.812282 3.142880
v 1.623703 -0.781070 3.112648
v 1.656206 -0.803260 3.070065
v 1.659132 -0.852222 3.066231
v 1.636057 -0.883434 3.096463
v 1.607491 -0.869152 3.133888
v 1.598826 -0.822071 3.145240
v 1.617763 -0.784040 3.120430
v 1.652269 -0.795352 3.075223
v 1.660934 -0.842433 3.063871
v 1.641997 -0.880464 3.088681
v 1.622314 -0.864212 3.120271
v 1.610797 -0.835804 3.135359
v 1.618730 -0.804239 3.124966
v 1.643043 -0.800292 3.093112
v 1.654560 -0.828700 3.078024
v 1.646627 -0.860265 3.088417
v 1.626296 -0.866931 3.115053
v 1.611638 -0.842772 3.134258
v 1.615682 -0.809262 3.128959
v 1.639061 -0.797573 3.098329
v 1.653719 -0.821732 3.079125
v 1.649675 -0.855242 3.084424
v 1.630523 -0.868317 3.109515
v 1.613287 -0.849335 3.132097
v 1.613287 -0.815169 3.132097
v 1.630523 -0.796188 3.109515
v 1.634834 -0.796188 3.103868
v 1.652070 -0.815169 3.081286
v 1.652070 -0.849335 3.081286
v 1.634834 -0.868317 3.103868
v 1.615682 -0.855242 3.128959
v 1.611638 -0.821732 3.134258
v 1.626296 -0.797573 3.115053
v 1.649675 -0.809262 3.084424
v 1.653719 -0.842772 3.079125
v 1.639061 -0.866931 3.098329
v 1.618730 -0.860265 3.124966
v 1.610797 -0.828700 3.135359
v 1.622314 -0.800292 3.120271
v 1.646627 -0.804239 3.088417
v 1.654560 -0.835804 3.078024
v 1.643043 -0.864212 3.093112
v 1.612337 -0.763008 3.099745
v 1.604220 -0.765669 3.110379
v 1.596574 -0.770889 3.120396
v 1.589693 -0.778467 3.129411
v 1.583841 -0.788112 3.137077
v 1.579243 -0.799453 3.143101
v 1.576076 -0.812054 3.147250
v 1.574462 -0.825432 3.149365
v 1.574462 -0.839072 3.149365
v 1.576076 -0.852450 3.147250
v 1.579243 -0.865051 3.143101
v 1.583841 -0.876392 3.137077
v 1.589693 -0.886037 3.129411
v 1.596574 -0.893615 3.120396
v 1.604220 -0.898835 3.110379
v 1.612337 -0.901496 3.099745
v 1.620613 -0.901496 3.088902
v 1.628729 -0.898835 3.078268
v 1.636375 -0.893615 3.068251
v 1.643256 -0.886037 3.059236
v 1.649108 -0.876392 3.051569
v 1.653706 -0.865051 3.045546
v 1.656873 -0.852450 3.041396
v 1.658487 -0.839072 3.039281
v 1.658487 -0.825432 3.039281
v 1.656873 -0.812054 3.041396
v 1.653706 -0.799453 3.045546
v 1.649108 -0.788112 3.051569
v 1.643256 -0.778467 3.059236
v 1.636375 -0.770889 3.068251
v 1.628729 -0.765669 3.078268
v 1.620612 -0.763008 3.088902
v 1.596692 -0.890105 3.127854
v 1.608934 -0.896535 3.122065
v 1.577930 -0.832252 3.152435
v 1.583684 -0.845826 3.155145
v 1.596692 -0.774399 3.127854
v 1.595238 -0.783052 3.140008
v 1.643600 -0.774399 3.066398
v 1.641245 -0.767969 3.079733
v 1.662363 -0.832252 3.041817
v 1.666495 -0.818678 3.046652
v 1.643600 -0.890105 3.066398
v 1.654941 -0.881452 3.061789
v 1.616853 -0.900495 3.111689
v 1.586087 -0.858879 3.151998
v 1.589988 -0.793596 3.146887
v 1.633325 -0.764009 3.090109
v 1.664092 -0.805625 3.049800
v 1.660191 -0.870908 3.054911
v 1.625089 -0.901832 3.100899
v 1.589988 -0.870908 3.146887
v 1.586087 -0.805625 3.151998
v 1.620146 -0.762672 3.097126
v 1.616853 -0.764009 3.111689
v 1.660191 -0.793596 3.054911
v 1.664092 -0.858879 3.049800
v 1.633325 -0.900495 3.090109
v 1.595238 -0.881452 3.140008
v 1.583684 -0.818678 3.155145
v 1.608934 -0.767969 3.122065
v 1.654941 -0.783052 3.061789
v 1.666495 -0.845826 3.046652
v 1.641245 -0.896535 3.079733
v 1.601635 -0.890105 3.131627
v 1.603991 -0.896535 3.118292
v 1.582873 -0.832252 3.156208
v 1.578741 -0.845826 3.151372
v 1.601635 -0.774399 3.131627
v 1.590295 -0.783052 3.136235
v 1.648543 -0.774399 3.070171
v 1.636302 -0.767969 3.075960
v 1.667306 -0.832252 3.045590
v 1.661551 -0.818678 3.042879
v 1.648544 -0.890105 3.070171
v 1.649998 -0.881452 3.058016
v 1.611910 -0.900495 3.107916
v 1.581143 -0.858879 3.148225
v 1.585045 -0.793596 3.143114
v 1.628382 -0.764009 3.086336
v 1.659149 -0.805625 3.046027
v 1.655248 -0.870908 3.051138
v 1.620146 -0.901832 3.097126
v 1.585045 -0.870908 3.143114
v 1.581143 -0.805625 3.148225
v 1.625089 -0.762672 3.100899
v 1.611910 -0.764009 3.107916
v 1.655248 -0.793596 3.051138
v 1.659149 -0.858879 3.046027
v 1.628382 -0.900495 3.086335
v 1.590295 -0.881452 3.136235
v 1.578741 -0.818678 3.151372
v 1.603991 -0.767969 3.118292
v 1.649998 -0.783052 3.058016
v 1.661551 -0.845826 3.042879
v 1.636302 -0.896535 3.075960
v 1.603317 -0.893615 3.125543
v 1.581205 -0.839072 3.154513
v 1.596436 -0.778467 3.134558
v 1.643118 -0.770889 3.073398
v 1.665231 -0.825432 3.044428
v 1.649999 -0.886037 3.064383
v 1.610963 -0.898835 3.115525
v 1.582820 -0.852450 3.152397
v 1.590585 -0.788112 3.142224
v 1.635472 -0.765669 3.083415
v 1.663616 -0.812054 3.046543
v 1.655851 -0.876392 3.056716
v 1.619080 -0.901496 3.104892
v 1.585987 -0.865051 3.148248
v 1.585987 -0.799453 3.148248
v 1.619080 -0.763008 3.104892
v 1.627356 -0.763008 3.094049
v 1.660449 -0.799453 3.050693
v 1.660449 -0.865051 3.050693
v 1.627356 -0.901496 3.094049
v 1.590585 -0.876392 3.142224
v 1.582820 -0.812054 3.152397
v 1.610963 -0.765669 3.115525
v 1.655851 -0.788112 3.056716
v 1.663616 -0.852450 3.046543
v 1.635473 -0.898835 3.083415
v 1.596436 -0.886037 3.134558
v 1.581205 -0.825432 3.154512
v 1.603317 -0.770889 3.125543
v 1.649999 -0.778467 3.064383
v 1.665231 -0.839072 3.044428
v 1.643118 -0.893615 3.073398
v 1.626923 -0.767021 3.102298
v 1.619202 -0.768274 3.112414
v 1.611777 -0.771986 3.122141
v 1.604934 -0.778014 3.131106
v 1.598937 -0.786127 3.138963
v 1.594015 -0.796012 3.145412
v 1.590358 -0.807289 3.150203
v 1.588105 -0.819526 3.153154
v 1.587345 -0.832252 3.154151
v 1.588105 -0.844978 3.153154
v 1.590358 -0.857215 3.150204
v 1.594015 -0.868492 3.145412
v 1.598937 -0.878377 3.138963
v 1.604934 -0.886490 3.131106
v 1.611777 -0.892518 3.122141
v 1.619202 -0.896230 3.112414
v 1.626923 -0.897483 3.102298
v 1.634644 -0.896230 3.092182
v 1.642069 -0.892518 3.082455
v 1.648911 -0.886490 3.073491
v 1.654909 -0.878377 3.065633
v 1.659831 -0.868492 3.059185
v 1.663488 -0.857215 3.054393
v 1.665740 -0.844978 3.051442
v 1.666501 -0.832252 3.050446
v 1.665740 -0.819526 3.051442
v 1.663488 -0.807289 3.054393
v 1.659831 -0.796012 3.059185
v 1.654909 -0.786127 3.065633
v 1.648911 -0.778014 3.073491
v 1.642069 -0.771986 3.082455
v 1.634644 -0.768274 3.092182
v 1.635207 -0.832252 3.108621
v 1.632718 -0.796741 3.106722
v 1.624473 -0.865060 3.117524
v 1.620748 -0.861778 3.122404
v 1.611586 -0.839180 3.134407
v 1.611172 -0.832252 3.134950
v 1.617483 -0.807142 3.126682
v 1.620748 -0.802726 3.122404
v 1.640963 -0.799444 3.095919
v 1.644688 -0.802726 3.091039
v 1.653850 -0.825324 3.079036
v 1.654264 -0.832252 3.078494
v 1.647953 -0.857362 3.086761
v 1.644688 -0.861778 3.091039
v 1.628515 -0.867081 3.112229
v 1.612812 -0.845842 3.132801
v 1.614803 -0.812523 3.130192
v 1.636922 -0.797423 3.101215
v 1.652624 -0.818662 3.080642
v 1.650633 -0.851981 3.083251
v 1.632718 -0.867763 3.106722
v 1.614803 -0.851981 3.130192
v 1.612812 -0.818662 3.132801
v 1.628515 -0.797423 3.112229
v 1.650633 -0.812523 3.083251
v 1.652624 -0.845842 3.080642
v 1.636922 -0.867081 3.101215
v 1.617483 -0.857362 3.126682
v 1.611586 -0.825324 3.134407
v 1.624473 -0.799444 3.117524
v 1.647953 -0.807142 3.086761
v 1.653850 -0.839180 3.079036
v 1.640963 -0.865060 3.095919
v 1.616475 -0.762672 3.094323
v 1.608239 -0.764009 3.105114
v 1.600319 -0.767969 3.115489
v 1.593020 -0.774399 3.125051
v 1.586623 -0.783052 3.133433
v 1.581373 -0.793596 3.140311
v 1.577472 -0.805625 3.145422
v 1.575069 -0.818678 3.148570
v 1.574258 -0.832252 3.149632
v 1.575069 -0.845826 3.148570
v 1.577472 -0.858879 3.145422
v 1.581373 -0.870908 3.140311
v 1.586623 -0.881452 3.133433
v 1.593020 -0.890105 3.125051
v 1.600319 -0.896535 3.115489
v 1.608239 -0.900495 3.105114
v 1.616475 -0.901832 3.094323
v 1.624711 -0.900495 3.083533
v 1.632630 -0.896535 3.073157
v 1.639929 -0.890105 3.063595
v 1.646326 -0.881452 3.055214
v 1.651576 -0.870908 3.048335
v 1.655477 -0.858879 3.043224
v 1.657880 -0.845826 3.040077
v 1.658691 -0.832252 3.039014
v 1.657880 -0.818678 3.040077
v 1.655477 -0.805625 3.043224
v 1.651576 -0.793596 3.048335
v 1.646326 -0.783052 3.055214
v 1.639929 -0.774399 3.063595
v 1.632630 -0.767969 3.073158
v 1.624711 -0.764009 3.083533
v 1.599764 -0.890105 3.130198
v 1.607062 -0.896535 3.120636
v 1.581001 -0.832252 3.154779
v 1.581813 -0.845826 3.153717
v 1.599764 -0.774399 3.130198
v 1.593366 -0.783052 3.138580
v 1.646672 -0.774399 3.068742
v 1.639373 -0.767969 3.078305
v 1.665434 -0.832252 3.044161
v 1.664623 -0.818678 3.045224
v 1.646672 -0.890105 3.068742
v 1.653069 -0.881452 3.060361
v 1.614982 -0.900495 3.110260
v 1.584215 -0.858879 3.150569
v 1.588116 -0.793596 3.145458
v 1.631454 -0.764009 3.088680
v 1.662221 -0.805625 3.048371
v 1.658320 -0.870908 3.053482
v 1.623218 -0.901832 3.099470
v 1.588116 -0.870908 3.145458
v 1.584215 -0.805625 3.150569
v 1.623218 -0.762672 3.099470
v 1.614982 -0.764009 3.110260
v 1.658319 -0.793596 3.053483
v 1.662221 -0.858879 3.048371
v 1.631454 -0.900495 3.088680
v 1.593366 -0.881452 3.138580
v 1.581813 -0.818678 3.153717
v 1.607062 -0.767969 3.120636
v 1.653069 -0.783052 3.060361
v 1.664623 -0.845826 3.045224
v 1.639373 -0.896535 3.078304
vt 0.419582 0.355204
vt 0.356619 0.290356
vt 0.375439 0.273010
vt 0.400313 0.266962
vt 0.442203 0.367453
vt 0.417250 0.380813
vt 0.333122 0.484685
vt 0.244295 0.500612
vt 0.240346 0.475323
vt 0.249152 0.451298
vt 0.355876 0.472725
vt 0.353102 0.500888
vt 0.392677 0.628421
vt 0.356619 0.710673
vt 0.333400 0.699911
vt 0.318319 0.679272
vt 0.395377 0.602920
vt 0.417250 0.620852
vt 0.575204 0.646243
vt 0.637441 0.710430
vt 0.618598 0.727757
vt 0.593747 0.733825
vt 0.552671 0.634074
vt 0.577624 0.620713
vt 0.661663 0.516762
vt 0.749763 0.500176
vt 0.753691 0.525444
vt 0.744907 0.549489
vt 0.638997 0.528802
vt 0.641771 0.500639
vt 0.602110 0.373026
vt 0.637441 0.290114
vt 0.660638 0.300856
vt 0.675741 0.321515
vt 0.599497 0.398607
vt 0.577624 0.380675
vt 0.449478 0.342795
vt 0.422151 0.253620
vt 0.447725 0.252538
vt 0.469279 0.359216
vt 0.339435 0.452940
vt 0.250210 0.425722
vt 0.263533 0.403870
vt 0.364089 0.445640
vt 0.369796 0.605559
vt 0.297648 0.664188
vt 0.286889 0.640998
vt 0.377427 0.581062
vt 0.545309 0.658653
vt 0.571887 0.747148
vt 0.546336 0.748250
vt 0.525595 0.642312
vt 0.655350 0.548507
vt 0.743827 0.575045
vt 0.730525 0.596917
vt 0.630784 0.555887
vt 0.624991 0.395889
vt 0.696390 0.336579
vt 0.707171 0.359789
vt 0.617447 0.420466
vt 0.481214 0.336454
vt 0.471739 0.243712
vt 0.497030 0.247639
vt 0.497437 0.356418
vt 0.351818 0.423032
vt 0.269558 0.378990
vt 0.286889 0.360152
vt 0.377427 0.420673
vt 0.351818 0.578667
vt 0.269558 0.622170
vt 0.263533 0.597320
vt 0.364089 0.556117
vt 0.481214 0.665021
vt 0.497030 0.753148
vt 0.471739 0.757099
vt 0.447725 0.748334
vt 0.469279 0.642360
vt 0.497437 0.645109
vt 0.513572 0.664994
vt 0.522299 0.757056
vt 0.642967 0.578416
vt 0.724479 0.621778
vt 0.707171 0.640636
vt 0.617446 0.580855
vt 0.642967 0.422781
vt 0.724479 0.378598
vt 0.730525 0.403468
vt 0.630784 0.445410
vt 0.513572 0.336426
vt 0.522299 0.243669
vt 0.546336 0.252453
vt 0.525595 0.359167
vt 0.369796 0.396109
vt 0.297648 0.336923
vt 0.318319 0.321823
vt 0.395377 0.398784
vt 0.339435 0.548780
vt 0.250210 0.575471
vt 0.249152 0.549917
vt 0.355876 0.529046
vt 0.449478 0.658735
vt 0.422151 0.747277
vt 0.400313 0.733992
vt 0.442203 0.634169
vt 0.624990 0.605339
vt 0.696389 0.663844
vt 0.675739 0.678964
vt 0.599496 0.602743
vt 0.655350 0.452668
vt 0.743827 0.425296
vt 0.744907 0.450870
vt 0.638997 0.472481
vt 0.545309 0.342712
vt 0.571887 0.253490
vt 0.593747 0.266795
vt 0.552671 0.367358
vt 0.392677 0.373206
vt 0.333400 0.301138
vt 0.333122 0.517046
vt 0.240346 0.525887
vt 0.419582 0.646377
vt 0.375439 0.727967
vt 0.602109 0.628240
vt 0.660637 0.699629
vt 0.661663 0.484402
vt 0.753691 0.474880
vt 0.575204 0.355070
vt 0.618599 0.272800
vt 0.289908 0.191026
vt 0.276588 0.089668
vt 0.321172 0.172264
vt 0.354119 0.156647
vt 0.124846 0.500003
vt 0.033422 0.453832
vt 0.126639 0.463595
vt 0.131983 0.427534
vt 0.289908 0.808694
vt 0.181128 0.881893
vt 0.260636 0.787002
vt 0.233627 0.762550
vt 0.702586 0.808337
vt 0.728709 0.935358
vt 0.671322 0.827100
vt 0.638376 0.842718
vt 0.867648 0.499362
vt 0.988089 0.546917
vt 0.865856 0.535770
vt 0.860512 0.571830
vt 0.702587 0.190670
vt 0.789946 0.139790
vt 0.731859 0.212362
vt 0.758868 0.236814
vt 0.360669 0.054765
vt 0.388437 0.144342
vt 0.423791 0.135450
vt 0.051177 0.364549
vt 0.140843 0.392169
vt 0.153117 0.357837
vt 0.136565 0.793789
vt 0.209153 0.735561
vt 0.187439 0.706305
vt 0.639024 0.972588
vt 0.604058 0.855023
vt 0.568704 0.863914
vt 0.969150 0.642151
vt 0.851652 0.607195
vt 0.839377 0.641527
vt 0.878068 0.184295
vt 0.783341 0.263804
vt 0.805056 0.293060
vt 0.449928 0.036932
vt 0.459845 0.130075
vt 0.496248 0.128251
vt 0.086004 0.280432
vt 0.168705 0.324875
vt 0.187439 0.293593
vt 0.086004 0.718156
vt 0.168704 0.675054
vt 0.153117 0.642119
vt 0.496248 0.871114
vt 0.446740 0.991694
vt 0.459845 0.869352
vt 0.423791 0.864039
vt 0.543815 0.991610
vt 0.532651 0.869290
vt 0.932001 0.731876
vt 0.823790 0.674489
vt 0.805056 0.705772
vt 0.932001 0.264971
vt 0.823790 0.324310
vt 0.839377 0.357246
vt 0.540936 0.036853
vt 0.532651 0.130012
vt 0.568704 0.135325
vt 0.136565 0.204712
vt 0.209153 0.264299
vt 0.233627 0.237267
vt 0.051177 0.634098
vt 0.140843 0.607808
vt 0.131983 0.572459
vt 0.351530 0.972836
vt 0.388437 0.855209
vt 0.354119 0.842963
vt 0.878068 0.812644
vt 0.783341 0.735065
vt 0.758867 0.762097
vt 0.969150 0.354632
vt 0.851652 0.391556
vt 0.860512 0.426906
vt 0.630196 0.054532
vt 0.604058 0.144156
vt 0.638377 0.156402
vt 0.200917 0.140299
vt 0.260636 0.212769
vt 0.033422 0.544847
vt 0.126639 0.536407
vt 0.261843 0.935761
vt 0.321172 0.827403
vt 0.809425 0.881351
vt 0.731858 0.786595
vt 0.988089 0.449834
vt 0.865856 0.462957
vt 0.714276 0.089290
vt 0.671323 0.171962
vt 0.304057 0.039862
vt 0.260976 0.061454
vt 0.260129 0.060685
vt 0.218443 0.085701
vt 0.259116 0.059764
vt 0.303044 0.038942
vt 0.007876 0.401044
vt 0.001599 0.449896
vt 0.000751 0.449126
vt -0.001639 0.497669
vt -0.000261 0.448205
vt 0.179413 0.880336
vt 0.142559 0.850194
vt 0.180261 0.881105
vt 0.218443 0.909258
vt 0.178401 0.879416
vt 0.141711 0.849424
vt 0.683067 0.954623
vt 0.727842 0.934571
vt 0.726995 0.933801
vt 0.768680 0.908784
vt 0.725982 0.932880
vt 0.979249 0.593440
vt 0.987221 0.546129
vt 0.986374 0.545359
vt 0.988764 0.496815
vt 0.985361 0.544439
vt 0.807711 0.114149
vt 0.846259 0.145830
vt 0.808558 0.114919
vt 0.768682 0.085226
vt 0.806698 0.113228
vt 0.844399 0.144139
vt 0.845412 0.145060
vt 0.396954 0.011599
vt 0.350662 0.024224
vt 0.349815 0.023454
vt 0.304904 0.040632
vt 0.348802 0.022534
vt 0.395941 0.010679
vt 0.036057 0.308116
vt 0.020538 0.354661
vt 0.019690 0.353891
vt 0.018678 0.352971
vt 0.081818 0.772739
vt 0.111618 0.812517
vt 0.110771 0.811747
vt 0.140699 0.848505
vt 0.109758 0.810827
vt 0.590171 0.982885
vt 0.638157 0.971800
vt 0.637309 0.971030
vt 0.636297 0.970110
vt 0.951068 0.686369
vt 0.968282 0.641363
vt 0.967435 0.640593
vt 0.966422 0.639673
vt 0.950056 0.685448
vt 0.905307 0.221745
vt 0.877201 0.183508
vt 0.876354 0.182738
vt 0.875341 0.181817
vt 0.493563 0.002000
vt 0.445872 0.005202
vt 0.445025 0.004432
vt 0.444012 0.003512
vt 0.081818 0.222456
vt 0.057687 0.264936
vt 0.056840 0.264166
vt 0.035044 0.307196
vt 0.055827 0.263246
vt 0.036057 0.687158
vt 0.057687 0.731842
vt 0.056840 0.731072
vt 0.055827 0.730152
vt 0.035044 0.686238
vt 0.445025 0.990135
vt 0.397801 0.983822
vt 0.445872 0.990906
vt 0.493563 0.992484
vt 0.444012 0.989215
vt 0.396954 0.983051
vt 0.542948 0.990822
vt 0.542100 0.990052
vt 0.541088 0.989132
vt 0.492550 0.991563
vt 0.905307 0.772029
vt 0.931133 0.731088
vt 0.930286 0.730318
vt 0.951916 0.687139
vt 0.929273 0.729398
vt 0.904295 0.771108
vt 0.951068 0.307327
vt 0.931133 0.264183
vt 0.930286 0.263413
vt 0.929273 0.262492
vt 0.590172 0.011432
vt 0.542948 0.005118
vt 0.542100 0.004349
vt 0.541088 0.003428
vt 0.589159 0.010512
vt 0.143402 0.147356
vt 0.111618 0.184168
vt 0.110771 0.183398
vt 0.080805 0.221536
vt 0.109758 0.182478
vt 0.007876 0.594278
vt 0.020538 0.642180
vt 0.019690 0.641410
vt 0.036904 0.687928
vt 0.018678 0.640490
vt 0.304057 0.954950
vt 0.350662 0.972048
vt 0.349815 0.971278
vt 0.348802 0.970357
vt 0.876354 0.811087
vt 0.844569 0.847899
vt 0.877201 0.811857
vt 0.875341 0.810166
vt 0.843722 0.847129
vt 0.979249 0.400207
vt 0.968282 0.353844
vt 0.967435 0.353074
vt 0.966422 0.352154
vt 0.683068 0.039535
vt 0.638158 0.023976
vt 0.637311 0.023206
vt 0.591019 0.012202
vt 0.636298 0.022286
vt 0.180261 0.115461
vt 0.179413 0.114691
vt 0.144249 0.148126
vt 0.178401 0.113770
vt 0.001599 0.546979
vt 0.000751 0.546209
vt 0.008724 0.595048
vt -0.000261 0.545289
vt -0.002652 0.496749
vt 0.260976 0.934973
vt 0.260129 0.934203
vt 0.259116 0.933283
vt 0.808557 0.880564
vt 0.807710 0.879794
vt 0.842709 0.846209
vt 0.806697 0.878874
vt 0.987221 0.449046
vt 0.986374 0.448276
vt 0.980096 0.400977
vt 0.978236 0.399287
vt 0.985361 0.447356
vt 0.727844 0.061051
vt 0.726997 0.060282
vt 0.683915 0.040305
vt 0.725984 0.059361
vt 0.261492 0.061924
vt 0.317771 0.070147
vt 0.237508 0.113121
vt 0.219807 0.086940
vt 0.305421 0.041101
vt 0.002115 0.450365
vt 0.040101 0.408755
vt 0.031181 0.499342
vt -0.000275 0.498909
vt 0.009240 0.402283
vt 0.180777 0.881575
vt 0.143426 0.850982
vt 0.220158 0.910816
vt 0.219807 0.910497
vt 0.143075 0.850663
vt 0.728358 0.935040
vt 0.684781 0.956181
vt 0.770395 0.910341
vt 0.770044 0.910022
vt 0.684430 0.955862
vt 0.987738 0.546598
vt 0.980964 0.594998
vt 0.990479 0.498373
vt 0.990128 0.498054
vt 0.980613 0.594679
vt 0.809075 0.115388
vt 0.854774 0.155957
vt 0.753356 0.112676
vt 0.770046 0.086465
vt 0.846776 0.146299
vt 0.351179 0.024694
vt 0.404861 0.043651
vt 0.398317 0.012838
vt 0.021054 0.355130
vt 0.066520 0.321635
vt 0.037420 0.309355
vt 0.112135 0.812986
vt 0.109421 0.757219
vt 0.152764 0.858630
vt 0.083181 0.773978
vt 0.638673 0.972269
vt 0.591886 0.984443
vt 0.591535 0.984124
vt 0.968799 0.641832
vt 0.952783 0.687926
vt 0.952432 0.687608
vt 0.877717 0.183977
vt 0.907022 0.223303
vt 0.847127 0.146617
vt 0.906671 0.222985
vt 0.446389 0.005671
vt 0.495432 0.034651
vt 0.494926 0.003239
vt 0.058203 0.265405
vt 0.109421 0.241329
vt 0.083181 0.223695
vt 0.058203 0.732311
vt 0.066520 0.676987
vt 0.037420 0.688397
vt 0.446389 0.991375
vt 0.398668 0.984610
vt 0.495277 0.994042
vt 0.494926 0.993724
vt 0.398317 0.984291
vt 0.543464 0.991291
vt 0.591019 0.983655
vt 0.931650 0.731557
vt 0.907022 0.773586
vt 0.906155 0.772799
vt 0.906671 0.773268
vt 0.931650 0.264652
vt 0.952783 0.308885
vt 0.952432 0.308566
vt 0.543464 0.005587
vt 0.586003 0.043494
vt 0.591535 0.012671
vt 0.112135 0.184638
vt 0.167156 0.170923
vt 0.144765 0.148595
vt 0.021054 0.642649
vt 0.040101 0.589912
vt 0.009240 0.595517
vt 0.351179 0.972517
vt 0.305772 0.956508
vt 0.305421 0.956189
vt 0.877717 0.812325
vt 0.845437 0.848686
vt 0.845086 0.848368
vt 0.968799 0.354313
vt 0.980964 0.401764
vt 0.980613 0.401446
vt 0.638674 0.024446
vt 0.673094 0.069840
vt 0.684432 0.040774
vt 0.180777 0.115930
vt 0.002115 0.547448
vt 0.261492 0.935442
vt 0.809074 0.881033
vt 0.987738 0.449515
vt 0.728360 0.061521
vt 0.497716 0.501017
vt 0.219290 0.086471
vt 0.217431 0.084781
vt 0.008724 0.401814
vt -0.000792 0.498439
vt 0.006864 0.400124
vt 0.219290 0.910028
vt 0.217431 0.908338
vt 0.683914 0.955393
vt 0.769527 0.909554
vt 0.767668 0.907863
vt 0.682054 0.953703
vt 0.980096 0.594210
vt 0.989611 0.497585
vt 0.987751 0.495895
vt 0.978236 0.592520
vt 0.769529 0.085996
vt 0.767669 0.084306
vt 0.397801 0.012369
vt 0.036904 0.308886
vt 0.082665 0.773509
vt 0.080805 0.771819
vt 0.589159 0.981965
vt 0.906155 0.222515
vt 0.904295 0.220825
vt 0.494410 0.002770
vt 0.492550 0.001080
vt 0.082665 0.223226
vt 0.494410 0.993254
vt 0.395941 0.982131
vt 0.951916 0.308097
vt 0.950056 0.306406
vt 0.142389 0.146435
vt 0.006864 0.593358
vt 0.304904 0.955719
vt 0.303044 0.954029
vt 0.682056 0.038614
vn 0.7598 -0.0942 0.6433
vn 0.7280 -0.1379 0.6716
vn 0.7324 -0.1546 0.6630
vn 0.7454 -0.1532 0.6488
vn 0.7748 -0.0706 0.6282
vn 0.7668 -0.0635 0.6387
vn 0.7258 -0.0104 0.6878
vn 0.6832 0.0000 0.7302
vn 0.6767 -0.0172 0.7360
vn 0.6852 -0.0323 0.7276
vn 0.7471 -0.0149 0.6645
vn 0.7462 0.0000 0.6657
vn 0.7492 0.0826 0.6571
vn 0.7280 0.1379 0.6716
vn 0.7151 0.1355 0.6857
vn 0.7127 0.1173 0.6915
vn 0.7598 0.0540 0.6479
vn 0.7668 0.0635 0.6387
vn 0.8209 0.0942 0.5632
vn 0.8398 0.1379 0.5251
vn 0.8327 0.1546 0.5316
vn 0.8224 0.1532 0.5479
vn 0.8103 0.0706 0.5817
vn 0.8183 0.0635 0.5712
vn 0.8549 0.0105 0.5187
vn 0.8845 0.0000 0.4665
vn 0.8885 0.0172 0.4586
vn 0.8826 0.0324 0.4690
vn 0.8380 0.0149 0.5454
vn 0.8389 0.0000 0.5442
vn 0.8315 -0.0826 0.5493
vn 0.8398 -0.1379 0.5251
vn 0.8501 -0.1355 0.5089
vn 0.8550 -0.1173 0.5051
vn 0.8253 -0.0540 0.5620
vn 0.8183 -0.0635 0.5712
vn 0.7715 -0.1023 0.6279
vn 0.7517 -0.1678 0.6377
vn 0.7642 -0.1627 0.6240
vn 0.7835 -0.0749 0.6168
vn 0.7283 -0.0310 0.6845
vn 0.6808 -0.0509 0.7307
vn 0.6909 -0.0634 0.7201
vn 0.7497 -0.0292 0.6610
vn 0.7402 0.0678 0.6689
vn 0.7003 0.1112 0.7050
vn 0.7002 0.0921 0.7079
vn 0.7540 0.0424 0.6554
vn 0.8091 0.1022 0.5786
vn 0.8135 0.1678 0.5568
vn 0.8035 0.1627 0.5726
vn 0.8016 0.0749 0.5931
vn 0.8524 0.0310 0.5219
vn 0.8844 0.0509 0.4639
vn 0.8769 0.0634 0.4765
vn 0.8354 0.0292 0.5488
vn 0.8404 -0.0678 0.5376
vn 0.8648 -0.1112 0.4896
vn 0.8675 -0.0921 0.4887
vn 0.8311 -0.0424 0.5545
vn 0.7840 -0.1064 0.6116
vn 0.7721 -0.1745 0.6110
vn 0.7839 -0.1658 0.5983
vn 0.7926 -0.0764 0.6050
vn 0.7331 -0.0504 0.6782
vn 0.6888 -0.0826 0.7202
vn 0.7002 -0.0921 0.7079
vn 0.7540 -0.0424 0.6554
vn 0.7331 0.0504 0.6782
vn 0.6888 0.0826 0.7202
vn 0.6909 0.0634 0.7201
vn 0.7497 0.0292 0.6610
vn 0.7839 0.1064 0.6117
vn 0.7839 0.1658 0.5983
vn 0.7722 0.1745 0.6110
vn 0.7642 0.1627 0.6240
vn 0.7835 0.0749 0.6168
vn 0.7926 0.0764 0.6049
vn 0.7967 0.1063 0.5949
vn 0.7930 0.1745 0.5836
vn 0.8475 0.0503 0.5283
vn 0.8764 0.0826 0.4744
vn 0.8675 0.0921 0.4887
vn 0.8311 0.0424 0.5545
vn 0.8475 -0.0503 0.5283
vn 0.8764 -0.0826 0.4744
vn 0.8769 -0.0634 0.4765
vn 0.8354 -0.0292 0.5488
vn 0.7967 -0.1063 0.5949
vn 0.7930 -0.1745 0.5836
vn 0.8035 -0.1627 0.5726
vn 0.8016 -0.0749 0.5931
vn 0.7402 -0.0678 0.6689
vn 0.7003 -0.1112 0.7050
vn 0.7127 -0.1173 0.6915
vn 0.7598 -0.0540 0.6479
vn 0.7283 0.0310 0.6845
vn 0.6808 0.0509 0.7307
vn 0.6852 0.0323 0.7277
vn 0.7471 0.0149 0.6645
vn 0.7715 0.1022 0.6279
vn 0.7517 0.1678 0.6377
vn 0.7454 0.1532 0.6488
vn 0.7748 0.0706 0.6282
vn 0.8404 0.0678 0.5376
vn 0.8648 0.1112 0.4896
vn 0.8550 0.1173 0.5051
vn 0.8253 0.0540 0.5620
vn 0.8524 -0.0310 0.5219
vn 0.8844 -0.0509 0.4639
vn 0.8826 -0.0324 0.4690
vn 0.8380 -0.0149 0.5454
vn 0.8092 -0.1022 0.5786
vn 0.8134 -0.1678 0.5569
vn 0.8224 -0.1532 0.5479
vn 0.8103 -0.0706 0.5817
vn 0.7492 -0.0826 0.6571
vn 0.7151 -0.1355 0.6857
vn 0.7258 0.0104 0.6878
vn 0.6767 0.0172 0.7360
vn 0.7598 0.0942 0.6433
vn 0.7324 0.1546 0.6630
vn 0.8315 0.0826 0.5493
vn 0.8501 0.1355 0.5089
vn 0.8549 -0.0105 0.5188
vn 0.8885 -0.0172 0.4586
vn 0.8209 -0.0942 0.5632
vn 0.8327 -0.1546 0.5316
vn 0.6878 -0.2041 0.6966
vn 0.6289 -0.3318 0.7031
vn 0.7002 -0.2169 0.6802
vn 0.7136 -0.2268 0.6628
vn 0.6216 0.0000 0.7833
vn 0.5093 -0.0369 0.8598
vn 0.6220 -0.0241 0.7826
vn 0.6245 -0.0479 0.7796
vn 0.6878 0.2041 0.6966
vn 0.5916 0.2908 0.7519
vn 0.6758 0.1901 0.7121
vn 0.6652 0.1736 0.7262
vn 0.8533 0.2041 0.4798
vn 0.8441 0.3318 0.4212
vn 0.8408 0.2169 0.4960
vn 0.8276 0.2268 0.5135
vn 0.9195 0.0000 0.3930
vn 0.9637 0.0369 0.2645
vn 0.9190 0.0241 0.3935
vn 0.9167 0.0479 0.3968
vn 0.8533 -0.2041 0.4798
vn 0.8813 -0.2908 0.3724
vn 0.8651 -0.1901 0.4641
vn 0.8759 -0.1736 0.4502
vn 0.6702 -0.3600 0.6489
vn 0.7272 -0.2353 0.6449
vn 0.7415 -0.2408 0.6262
vn 0.5180 -0.1092 0.8483
vn 0.6277 -0.0714 0.7751
vn 0.6330 -0.0939 0.7685
vn 0.5600 0.2387 0.7933
vn 0.6551 0.1560 0.7392
vn 0.6467 0.1364 0.7504
vn 0.8028 0.3600 0.4753
vn 0.8138 0.2353 0.5314
vn 0.7996 0.2408 0.5501
vn 0.9549 0.1092 0.2759
vn 0.9133 0.0714 0.4010
vn 0.9082 0.0939 0.4079
vn 0.9129 -0.2387 0.3309
vn 0.8858 -0.1560 0.4370
vn 0.8944 -0.1364 0.4259
vn 0.7141 -0.3744 0.5914
vn 0.7559 -0.2447 0.6072
vn 0.7706 -0.2455 0.5882
vn 0.5351 -0.1773 0.8259
vn 0.6389 -0.1159 0.7605
vn 0.6467 -0.1364 0.7504
vn 0.5351 0.1773 0.8259
vn 0.6389 0.1159 0.7605
vn 0.6329 0.0939 0.7685
vn 0.7706 0.2455 0.5882
vn 0.7141 0.3744 0.5914
vn 0.7559 0.2447 0.6072
vn 0.7415 0.2408 0.6262
vn 0.7588 0.3744 0.5328
vn 0.7851 0.2447 0.5690
vn 0.9378 0.1773 0.2984
vn 0.9021 0.1159 0.4157
vn 0.8944 0.1364 0.4259
vn 0.9378 -0.1773 0.2983
vn 0.9021 -0.1159 0.4157
vn 0.9082 -0.0939 0.4079
vn 0.7588 -0.3744 0.5328
vn 0.7851 -0.2447 0.5690
vn 0.7996 -0.2408 0.5501
vn 0.5600 -0.2387 0.7933
vn 0.6551 -0.1560 0.7392
vn 0.6652 -0.1736 0.7262
vn 0.5180 0.1092 0.8483
vn 0.6277 0.0714 0.7751
vn 0.6245 0.0479 0.7795
vn 0.6702 0.3601 0.6489
vn 0.7272 0.2353 0.6449
vn 0.7136 0.2268 0.6628
vn 0.9129 0.2387 0.3309
vn 0.8858 0.1560 0.4370
vn 0.8759 0.1736 0.4502
vn 0.9549 -0.1092 0.2759
vn 0.9133 -0.0714 0.4010
vn 0.9167 -0.0479 0.3968
vn 0.8028 -0.3600 0.4753
vn 0.8138 -0.2353 0.5313
vn 0.8276 -0.2268 0.5135
vn 0.5916 -0.2908 0.7519
vn 0.6758 -0.1901 0.7121
vn 0.5093 0.0369 0.8598
vn 0.6220 0.0241 0.7826
vn 0.6289 0.3318 0.7031
vn 0.7001 0.2169 0.6803
vn 0.8813 0.2908 0.3724
vn 0.8651 0.1901 0.4641
vn 0.9637 -0.0368 0.2645
vn 0.9190 -0.0241 0.3936
vn 0.8441 -0.3318 0.4212
vn 0.8408 -0.2169 0.4960
vn -0.2322 -0.9239 0.3042
vn -0.2860 -0.8819 0.3747
vn -0.3371 -0.8314 0.4416
vn -0.5950 -0.1951 0.7796
vn -0.6038 -0.0980 0.7910
vn -0.6067 0.0000 0.7949
vn -0.6038 -0.0980 0.7911
vn -0.3849 0.7730 0.5043
vn -0.4290 0.7071 0.5621
vn -0.3371 0.8314 0.4416
vn 0.2322 0.9239 -0.3042
vn 0.2860 0.8819 -0.3747
vn 0.3371 0.8314 -0.4416
vn 0.5950 0.1951 -0.7796
vn 0.6038 0.0980 -0.7911
vn 0.6067 0.0000 -0.7949
vn 0.3849 -0.7730 -0.5043
vn 0.4290 -0.7071 -0.5621
vn 0.3371 -0.8314 -0.4416
vn -0.1184 -0.9808 0.1551
vn -0.1761 -0.9569 0.2308
vn -0.2322 -0.9239 0.3041
vn -0.1761 -0.9569 0.2307
vn -0.5606 -0.3827 0.7343
vn -0.5806 -0.2903 0.7607
vn -0.5806 -0.2903 0.7606
vn -0.5044 0.5556 0.6609
vn -0.4690 0.6344 0.6144
vn -0.4690 0.6344 0.6145
vn -0.4689 0.6344 0.6145
vn 0.1184 0.9808 -0.1551
vn 0.1761 0.9569 -0.2307
vn 0.1761 0.9569 -0.2308
vn 0.5605 0.3827 -0.7344
vn 0.5806 0.2903 -0.7606
vn 0.5806 0.2903 -0.7607
vn 0.5045 -0.5556 -0.6609
vn 0.4690 -0.6344 -0.6145
vn 0.0000 -1.0000 0.0000
vn -0.0595 -0.9952 0.0779
vn -0.5044 -0.5556 0.6609
vn -0.5351 -0.4714 0.7010
vn -0.5606 -0.3827 0.7344
vn -0.5605 0.3827 0.7344
vn -0.5351 0.4714 0.7010
vn -0.5606 0.3827 0.7344
vn -0.0595 0.9952 0.0779
vn -0.1184 0.9808 0.1551
vn 0.0000 1.0000 0.0000
vn 0.0595 0.9952 -0.0779
vn 0.5045 0.5556 -0.6609
vn 0.5351 0.4714 -0.7010
vn 0.5044 0.5556 -0.6609
vn 0.5605 -0.3827 -0.7344
vn 0.5351 -0.4714 -0.7010
vn 0.1184 -0.9808 -0.1551
vn 0.0595 -0.9952 -0.0779
vn -0.4290 -0.7071 0.5621
vn -0.4690 -0.6344 0.6144
vn -0.4690 -0.6344 0.6145
vn -0.5045 -0.5555 0.6609
vn -0.5950 0.1951 0.7796
vn -0.5806 0.2903 0.7607
vn -0.5806 0.2903 0.7606
vn -0.2322 0.9239 0.3042
vn -0.1761 0.9569 0.2307
vn -0.1761 0.9569 0.2308
vn 0.4690 0.6344 -0.6145
vn 0.4290 0.7071 -0.5621
vn 0.5951 -0.1951 -0.7796
vn 0.5806 -0.2903 -0.7607
vn 0.2322 -0.9239 -0.3042
vn 0.1761 -0.9569 -0.2307
vn -0.3849 -0.7730 0.5043
vn -0.6038 0.0980 0.7910
vn -0.5950 0.1951 0.7797
vn -0.2860 0.8819 0.3747
vn 0.3849 0.7730 -0.5043
vn 0.6038 -0.0980 -0.7911
vn 0.5950 -0.1951 -0.7796
vn 0.2860 -0.8819 -0.3747
vn 0.1580 -0.7594 0.6312
vn 0.6491 -0.3476 0.6766
vn 0.6097 -0.3128 0.7283
vn 0.1139 -0.7159 0.6888
vn 0.2042 -0.7955 0.5704
vn -0.1157 -0.0844 0.9897
vn 0.5126 -0.0734 0.8555
vn 0.5082 0.0000 0.8612
vn -0.1183 0.0000 0.9930
vn -0.1082 -0.1680 0.9798
vn 0.0728 0.6656 0.7427
vn 0.5750 0.2661 0.7736
vn 0.6096 0.3128 0.7283
vn 0.1139 0.7159 0.6888
vn 0.0348 0.6089 0.7925
vn 0.6505 0.7594 -0.0141
vn 0.8238 0.3476 0.4477
vn 0.8633 0.3128 0.3960
vn 0.6944 0.7159 -0.0717
vn 0.6041 0.7955 0.0465
vn 0.9241 0.0844 -0.3726
vn 0.9604 0.0734 0.2688
vn 0.9648 0.0000 0.2630
vn 0.9266 0.0000 -0.3760
vn 0.9166 0.1680 -0.3627
vn 0.7356 -0.6656 -0.1257
vn 0.8979 -0.2661 0.3506
vn 0.8633 -0.3128 0.3959
vn 0.6944 -0.7159 -0.0717
vn 0.7736 -0.6088 -0.1755
vn 0.2526 -0.8240 0.5072
vn 0.6919 -0.3690 0.6205
vn 0.3023 -0.8445 0.4420
vn -0.0956 -0.2499 0.9635
vn 0.5256 -0.1440 0.8385
vn -0.0784 -0.3295 0.9409
vn 0.0003 0.5463 0.8376
vn 0.5466 0.2090 0.8108
vn -0.0302 0.4784 0.8776
vn 0.5558 0.8240 0.1098
vn 0.7810 0.3690 0.5038
vn 0.5061 0.8445 0.1750
vn 0.9041 0.2499 -0.3464
vn 0.9474 0.1440 0.2858
vn 0.8868 0.3295 -0.3238
vn 0.8080 -0.5462 -0.2206
vn 0.9263 -0.2090 0.3135
vn 0.8386 -0.4783 -0.2606
vn 0.3530 -0.8569 0.3756
vn 0.7365 -0.3762 0.5622
vn 0.4042 -0.8610 0.3085
vn -0.0565 -0.4059 0.9122
vn 0.5466 -0.2090 0.8108
vn -0.0302 -0.4784 0.8776
vn -0.0565 0.4059 0.9122
vn 0.5256 0.1440 0.8385
vn -0.0785 0.3295 0.9409
vn 0.3530 0.8569 0.3756
vn 0.6919 0.3690 0.6205
vn 0.7365 0.3763 0.5622
vn 0.4042 0.8611 0.3085
vn 0.3023 0.8445 0.4420
vn 0.4554 0.8569 0.2414
vn 0.1183 0.9808 -0.1551
vn 0.8650 0.4059 -0.2951
vn 0.9263 0.2090 0.3135
vn 0.8386 0.4784 -0.2606
vn 0.8649 -0.4059 -0.2951
vn 0.9474 -0.1440 0.2858
vn 0.8868 -0.3295 -0.3239
vn 0.4554 -0.8569 0.2414
vn 0.7810 -0.3690 0.5038
vn 0.5061 -0.8445 0.1750
vn 0.0003 -0.5463 0.8376
vn 0.5751 -0.2660 0.7736
vn 0.0348 -0.6088 0.7925
vn -0.0956 0.2499 0.9635
vn 0.5126 0.0734 0.8555
vn -0.1082 0.1680 0.9798
vn 0.2525 0.8240 0.5072
vn 0.6491 0.3476 0.6766
vn 0.2042 0.7955 0.5705
vn 0.8080 0.5463 -0.2205
vn 0.8979 0.2661 0.3506
vn 0.7736 0.6089 -0.1755
vn 0.9041 -0.2499 -0.3464
vn 0.9604 -0.0734 0.2688
vn 0.9166 -0.1680 -0.3628
vn 0.5559 -0.8240 0.1098
vn 0.8238 -0.3476 0.4477
vn 0.6041 -0.7955 0.0465
vn 0.0728 -0.6656 0.7427
vn -0.1158 0.0844 0.9897
vn 0.1580 0.7594 0.6312
vn 0.7356 0.6656 -0.1257
vn 0.9241 -0.0844 -0.3726
vn 0.6504 -0.7594 -0.0141
vn 0.7949 0.0000 0.6067
vn -0.5950 -0.1951 0.7797
vn 0.5951 0.1951 -0.7796
vn 0.3370 -0.8315 -0.4416
vn -0.5605 -0.3827 0.7344
vn -0.5045 0.5556 0.6609
vn -0.5045 -0.5556 0.6609
s 1
f 1/1/1 420/2/2 225/3/3
f 1/1/1 419/4/4 162/5/5
f 162/5/5 195/6/6 1/1/1
f 2/7/7 422/8/8 226/9/9
f 2/7/7 421/10/10 164/11/11
f 164/11/11 197/12/12 2/7/7
f 3/13/13 424/14/14 227/15/15
f 3/13/13 423/16/16 166/17/17
f 166/17/17 199/18/18 3/13/13
f 4/19/19 426/20/20 228/21/21
f 4/19/19 425/22/22 168/23/23
f 168/23/23 201/24/24 4/19/19
f 5/25/25 428/26/26 229/27/27
f 5/25/25 427/28/28 170/29/29
f 170/29/29 203/30/30 5/25/25
f 6/31/31 430/32/32 230/33/33
f 6/31/31 429/34/34 172/35/35
f 172/35/35 205/36/36 6/31/31
f 7/37/37 419/4/4 231/38/38
f 7/37/37 431/39/39 174/40/40
f 174/40/40 162/5/5 7/37/37
f 8/41/41 421/10/10 232/42/42
f 8/41/41 432/43/43 175/44/44
f 175/44/44 164/11/11 8/41/41
f 9/45/45 423/16/16 233/46/46
f 9/45/45 433/47/47 176/48/48
f 176/48/48 166/17/17 9/45/45
f 10/49/49 425/22/22 234/50/50
f 10/49/49 434/51/51 177/52/52
f 177/52/52 168/23/23 10/49/49
f 11/53/53 427/28/28 235/54/54
f 11/53/53 435/55/55 178/56/56
f 178/56/56 170/29/29 11/53/53
f 12/57/57 429/34/34 236/58/58
f 12/57/57 436/59/59 179/60/60
f 179/60/60 172/35/35 12/57/57
f 13/61/61 431/39/39 237/62/62
f 13/61/61 437/63/63 180/64/64
f 180/64/64 174/40/40 13/61/61
f 14/65/65 432/43/43 238/66/66
f 14/65/65 438/67/67 181/68/68
f 181/68/68 175/44/44 14/65/65
f 15/69/69 433/47/47 239/70/70
f 15/69/69 439/71/71 182/72/72
f 182/72/72 176/48/48 15/69/69
f 16/73/73 418/74/74 240/75/75
f 16/73/73 440/76/76 183/77/77
f 183/77/77 193/78/78 16/73/73
f 17/79/79 434/51/51 241/80/80
f 17/79/79 418/74/74 193/78/78
f 193/78/78 177/52/52 17/79/79
f 18/81/81 435/55/55 242/82/82
f 18/81/81 441/83/83 184/84/84
f 184/84/84 178/56/56 18/81/81
f 19/85/85 436/59/59 243/86/86
f 19/85/85 442/87/87 185/88/88
f 185/88/88 179/60/60 19/85/85
f 20/89/89 437/63/63 244/90/90
f 20/89/89 443/91/91 186/92/92
f 186/92/92 180/64/64 20/89/89
f 21/93/93 438/67/67 245/94/94
f 21/93/93 444/95/95 187/96/96
f 187/96/96 181/68/68 21/93/93
f 22/97/97 439/71/71 246/98/98
f 22/97/97 445/99/99 188/100/100
f 188/100/100 182/72/72 22/97/97
f 23/101/101 440/76/76 247/102/102
f 23/101/101 446/103/103 189/104/104
f 189/104/104 183/77/77 23/101/101
f 24/105/105 441/83/83 248/106/106
f 24/105/105 447/107/107 190/108/108
f 190/108/108 184/84/84 24/105/105
f 25/109/109 442/87/87 249/110/110
f 25/109/109 448/111/111 191/112/112
f 191/112/112 185/88/88 25/109/109
f 26/113/113 443/91/91 250/114/114
f 26/113/113 449/115/115 192/116/116
f 192/116/116 186/92/92 26/113/113
f 27/117/117 444/95/95 251/118/118
f 27/117/117 420/2/2 195/6/6
f 195/6/6 187/96/96 27/117/117
f 28/119/119 445/99/99 252/120/120
f 28/119/119 422/8/8 197/12/12
f 197/12/12 188/100/100 28/119/119
f 29/121/121 446/103/103 253/122/122
f 29/121/121 424/14/14 199/18/18
f 199/18/18 189/104/104 29/121/121
f 30/123/123 447/107/107 254/124/124
f 30/123/123 426/20/20 201/24/24
f 201/24/24 190/108/108 30/123/123
f 31/125/125 448/111/111 255/126/126
f 31/125/125 428/26/26 203/30/30
f 203/30/30 191/112/112 31/125/125
f 32/127/127 449/115/115 256/128/128
f 32/127/127 430/32/32 205/36/36
f 205/36/36 192/116/116 32/127/127
f 163/129/129 142/130/130 33/131/131
f 142/130/130 194/132/132 33/131/131
f 194/132/132 225/3/3 33/131/131
f 225/3/3 163/129/129 33/131/131
f 165/133/133 137/134/134 34/135/135
f 137/134/134 196/136/136 34/135/135
f 196/136/136 226/9/9 34/135/135
f 226/9/9 165/133/133 34/135/135
f 167/137/137 132/138/138 35/139/139
f 132/138/138 198/140/140 35/139/139
f 198/140/140 227/15/15 35/139/139
f 227/15/15 167/137/137 35/139/139
f 169/141/141 158/142/142 36/143/143
f 158/142/142 200/144/144 36/143/143
f 200/144/144 228/21/21 36/143/143
f 228/21/21 169/141/141 36/143/143
f 171/145/145 153/146/146 37/147/147
f 153/146/146 202/148/148 37/147/147
f 202/148/148 229/27/27 37/147/147
f 229/27/27 171/145/145 37/147/147
f 173/149/149 148/150/150 38/151/151
f 148/150/150 204/152/152 38/151/151
f 204/152/152 230/33/33 38/151/151
f 230/33/33 173/149/149 38/151/151
f 194/132/132 143/153/153 39/154/154
f 143/153/153 206/155/155 39/154/154
f 206/155/155 231/38/38 39/154/154
f 231/38/38 194/132/132 39/154/154
f 196/136/136 138/156/156 40/157/157
f 138/156/156 207/158/158 40/157/157
f 207/158/158 232/42/42 40/157/157
f 232/42/42 196/136/136 40/157/157
f 198/140/140 133/159/159 41/160/160
f 133/159/159 208/161/161 41/160/160
f 208/161/161 233/46/46 41/160/160
f 233/46/46 198/140/140 41/160/160
f 200/144/144 159/162/162 42/163/163
f 159/162/162 209/164/164 42/163/163
f 209/164/164 234/50/50 42/163/163
f 234/50/50 200/144/144 42/163/163
f 202/148/148 154/165/165 43/166/166
f 154/165/165 210/167/167 43/166/166
f 210/167/167 235/54/54 43/166/166
f 235/54/54 202/148/148 43/166/166
f 204/152/152 149/168/168 44/169/169
f 149/168/168 211/170/170 44/169/169
f 211/170/170 236/58/58 44/169/169
f 236/58/58 204/152/152 44/169/169
f 206/155/155 144/171/171 45/172/172
f 144/171/171 212/173/173 45/172/172
f 212/173/173 237/62/62 45/172/172
f 237/62/62 206/155/155 45/172/172
f 207/158/158 139/174/174 46/175/175
f 139/174/174 213/176/176 46/175/175
f 213/176/176 238/66/66 46/175/175
f 238/66/66 207/158/158 46/175/175
f 208/161/161 134/177/177 47/178/178
f 134/177/177 214/179/179 47/178/178
f 214/179/179 239/70/70 47/178/178
f 239/70/70 208/161/161 47/178/178
f 161/180/180 129/181/181 48/182/182
f 129/181/181 215/183/183 48/182/182
f 215/183/183 240/75/75 48/182/182
f 240/75/75 161/180/180 48/182/182
f 209/164/164 160/184/184 49/185/185
f 160/184/184 161/180/180 49/185/185
f 161/180/180 241/80/80 49/185/185
f 241/80/80 209/164/164 49/185/185
f 210/167/167 155/186/186 50/187/187
f 155/186/186 216/188/188 50/187/187
f 216/188/188 242/82/82 50/187/187
f 242/82/82 210/167/167 50/187/187
f 211/170/170 150/189/189 51/190/190
f 150/189/189 217/191/191 51/190/190
f 217/191/191 243/86/86 51/190/190
f 243/86/86 211/170/170 51/190/190
f 212/173/173 145/192/192 52/193/193
f 145/192/192 218/194/194 52/193/193
f 218/194/194 244/90/90 52/193/193
f 244/90/90 212/173/173 52/193/193
f 213/176/176 140/195/195 53/196/196
f 140/195/195 219/197/197 53/196/196
f 219/197/197 245/94/94 53/196/196
f 245/94/94 213/176/176 53/196/196
f 214/179/179 135/198/198 54/199/199
f 135/198/198 220/200/200 54/199/199
f 220/200/200 246/98/98 54/199/199
f 246/98/98 214/179/179 54/199/199
f 215/183/183 130/201/201 55/202/202
f 130/201/201 221/203/203 55/202/202
f 221/203/203 247/102/102 55/202/202
f 247/102/102 215/183/183 55/202/202
f 216/188/188 156/204/204 56/205/205
f 156/204/204 222/206/206 56/205/205
f 222/206/206 248/106/106 56/205/205
f 248/106/106 216/188/188 56/205/205
f 217/191/191 151/207/207 57/208/208
f 151/207/207 223/209/209 57/208/208
f 223/209/209 249/110/110 57/208/208
f 249/110/110 217/191/191 57/208/208
f 218/194/194 146/210/210 58/211/211
f 146/210/210 224/212/212 58/211/211
f 224/212/212 250/114/114 58/211/211
f 250/114/114 218/194/194 58/211/211
f 219/197/197 141/213/213 59/214/214
f 141/213/213 163/129/129 59/214/214
f 163/129/129 251/118/118 59/214/214
f 251/118/118 219/197/197 59/214/214
f 220/200/200 136/215/215 60/216/216
f 136/215/215 165/133/133 60/216/216
f 165/133/133 252/120/120 60/216/216
f 252/120/120 220/200/200 60/216/216
f 221/203/203 131/217/217 61/218/218
f 131/217/217 167/137/137 61/218/218
f 167/137/137 253/122/122 61/218/218
f 253/122/122 221/203/203 61/218/218
f 222/206/206 157/219/219 62/220/220
f 157/219/219 169/141/141 62/220/220
f 169/141/141 254/124/124 62/220/220
f 254/124/124 222/206/206 62/220/220
f 223/209/209 152/221/221 63/222/222
f 152/221/221 171/145/145 63/222/222
f 171/145/145 255/126/126 63/222/222
f 255/126/126 223/209/209 63/222/222
f 224/212/212 147/223/223 64/224/224
f 147/223/223 173/149/149 64/224/224
f 173/149/149 256/128/128 64/224/224
f 256/128/128 224/212/212 64/224/224
f 322/225/225 353/226/226 65/227/226
f 353/226/226 289/228/227 65/227/226
f 289/228/227 270/229/226 65/227/226
f 65/227/226 464/230/225 322/225/225
f 324/231/228 354/232/229 66/233/229
f 354/232/229 291/234/230 66/233/229
f 291/234/230 265/235/231 66/233/229
f 265/235/231 324/231/228 66/233/229
f 67/236/232 487/237/233 355/238/232
f 355/238/232 293/239/234 67/236/232
f 293/239/234 260/240/232 67/236/232
f 260/240/232 326/241/233 67/236/232
f 328/242/235 356/243/236 68/244/236
f 356/243/236 295/245/237 68/244/236
f 295/245/237 286/246/236 68/244/236
f 286/246/236 328/242/235 68/244/236
f 330/247/238 357/248/239 69/249/239
f 357/248/239 297/250/240 69/249/239
f 297/250/240 281/251/239 69/249/239
f 281/251/239 330/247/238 69/249/239
f 70/252/241 493/253/242 358/254/241
f 358/254/241 299/255/243 70/252/241
f 299/255/243 276/256/241 70/252/241
f 70/252/241 470/257/242 332/258/242
f 333/259/244 359/260/245 71/261/245
f 71/261/245 483/262/246 322/225/225
f 322/225/225 271/263/247 71/261/245
f 71/261/245 465/264/244 333/259/244
f 334/265/248 360/266/249 72/267/250
f 360/266/249 324/231/228 72/267/250
f 324/231/228 266/268/250 72/267/250
f 266/268/250 334/265/248 72/267/250
f 335/269/251 361/270/252 73/271/253
f 73/271/253 487/237/233 326/241/233
f 73/271/253 454/272/233 261/273/254
f 261/273/254 335/269/251 73/271/253
f 336/274/255 362/275/256 74/276/256
f 362/275/256 328/242/235 74/276/256
f 328/242/235 287/277/257 74/276/256
f 287/277/257 336/274/255 74/276/256
f 337/278/258 363/279/259 75/280/259
f 363/279/259 330/247/238 75/280/259
f 330/247/238 282/281/260 75/280/259
f 75/280/259 476/282/258 337/278/258
f 338/283/261 364/284/262 76/285/262
f 364/284/262 332/258/242 76/285/262
f 332/258/242 277/286/262 76/285/262
f 277/286/262 338/283/261 76/285/262
f 339/287/263 365/288/264 77/289/264
f 365/288/264 333/259/244 77/289/264
f 333/259/244 272/290/264 77/289/264
f 272/290/264 339/287/263 77/289/264
f 340/291/265 366/292/266 78/293/266
f 366/292/266 334/265/248 78/293/266
f 78/293/266 460/294/267 267/295/266
f 267/295/266 340/291/265 78/293/266
f 341/296/268 367/297/269 79/298/269
f 367/297/269 335/269/251 79/298/269
f 335/269/251 262/299/269 79/298/269
f 79/298/269 456/300/270 341/296/268
f 80/301/271 504/302/272 368/303/271
f 368/303/271 310/304/273 80/301/271
f 310/304/273 257/305/271 80/301/271
f 257/305/271 343/306/272 80/301/271
f 310/304/273 369/307/274 81/308/274
f 369/307/274 336/274/255 81/308/274
f 336/274/255 288/309/274 81/308/274
f 81/308/274 450/310/273 310/304/273
f 344/311/275 370/312/276 82/313/276
f 82/313/276 498/314/258 337/278/258
f 337/278/258 283/315/276 82/313/276
f 82/313/276 477/316/277 344/311/275
f 345/317/278 371/318/279 83/319/279
f 371/318/279 338/283/261 83/319/279
f 338/283/261 278/320/279 83/319/279
f 278/320/279 345/317/278 83/319/279
f 346/321/280 372/322/281 84/323/281
f 372/322/281 339/287/263 84/323/281
f 339/287/263 273/324/281 84/323/281
f 84/323/281 467/325/280 346/321/280
f 347/326/282 373/327/283 85/328/284
f 373/327/283 340/291/265 85/328/284
f 85/328/284 461/329/285 268/330/283
f 268/330/283 347/326/282 85/328/284
f 348/331/286 374/332/287 86/333/288
f 86/333/288 502/334/268 341/296/268
f 341/296/268 263/335/288 86/333/288
f 263/335/288 348/331/286 86/333/288
f 349/336/289 375/337/290 87/338/291
f 375/337/290 343/306/272 87/338/291
f 343/306/272 258/339/290 87/338/291
f 258/339/290 349/336/289 87/338/291
f 88/340/292 511/341/293 376/342/292
f 376/342/292 344/311/275 88/340/292
f 344/311/275 284/343/292 88/340/292
f 284/343/292 350/344/293 88/340/292
f 351/345/294 377/346/295 89/347/295
f 377/346/295 345/317/278 89/347/295
f 345/317/278 279/348/295 89/347/295
f 279/348/295 351/345/294 89/347/295
f 352/349/296 378/350/297 90/351/297
f 90/351/297 507/352/280 346/321/280
f 346/321/280 274/353/297 90/351/297
f 274/353/297 352/349/296 90/351/297
f 289/228/227 379/354/298 91/355/298
f 91/355/298 508/356/282 347/326/282
f 347/326/282 269/357/298 91/355/298
f 269/357/298 289/228/227 91/355/298
f 291/234/230 380/358/299 92/359/299
f 92/359/299 509/360/300 348/331/286
f 348/331/286 264/361/299 92/359/299
f 92/359/299 458/362/230 291/234/230
f 293/239/234 381/363/301 93/364/301
f 381/363/301 349/336/289 93/364/301
f 349/336/289 259/365/301 93/364/301
f 259/365/301 293/239/234 93/364/301
f 295/245/237 382/366/302 94/367/302
f 382/366/302 350/344/293 94/367/302
f 94/367/302 478/368/293 285/369/302
f 285/369/302 295/245/237 94/367/302
f 297/250/240 383/370/303 95/371/303
f 95/371/303 512/372/294 351/345/294
f 95/371/303 473/373/304 280/374/303
f 280/374/303 297/250/240 95/371/303
f 299/255/243 384/375/305 96/376/305
f 96/376/305 513/377/296 352/349/296
f 352/349/296 275/378/305 96/376/305
f 275/378/305 299/255/243 96/376/305
f 97/379/306 399/380/307 142/130/130
f 97/379/306 398/381/308 321/382/309
f 321/382/309 353/226/226 97/379/306
f 353/226/226 290/383/310 97/379/306
f 98/384/311 394/385/312 137/134/134
f 98/384/311 393/386/313 323/387/314
f 323/387/314 354/232/229 98/384/311
f 354/232/229 292/388/315 98/384/311
f 99/389/316 389/390/317 132/138/138
f 99/389/316 388/391/318 325/392/319
f 325/392/319 355/238/232 99/389/316
f 355/238/232 294/393/320 99/389/316
f 100/394/321 415/395/322 158/142/142
f 100/394/321 414/396/323 327/397/324
f 327/397/324 356/243/236 100/394/321
f 356/243/236 296/398/325 100/394/321
f 101/399/326 410/400/327 153/146/146
f 101/399/326 409/401/328 329/402/329
f 329/402/329 357/248/239 101/399/326
f 357/248/239 298/403/330 101/399/326
f 102/404/331 405/405/332 148/150/150
f 102/404/331 404/406/333 331/407/334
f 331/407/334 358/254/241 102/404/331
f 102/404/331 493/253/242 300/408/335
f 103/409/336 400/410/337 143/153/153
f 103/409/336 399/380/307 290/383/310
f 103/409/336 483/262/246 359/260/245
f 359/260/245 301/411/338 103/409/336
f 104/412/339 395/413/340 138/156/156
f 104/412/339 394/385/312 292/388/315
f 292/388/315 360/266/249 104/412/339
f 360/266/249 302/414/341 104/412/339
f 105/415/342 390/416/343 133/159/159
f 105/415/342 389/417/317 294/393/320
f 294/393/320 361/270/252 105/415/342
f 361/270/252 303/418/344 105/415/342
f 106/419/345 416/420/346 159/162/162
f 106/419/345 415/395/322 296/398/325
f 296/398/325 362/275/256 106/419/345
f 362/275/256 304/421/347 106/419/345
f 107/422/348 411/423/349 154/165/165
f 107/422/348 410/400/327 298/403/330
f 298/403/330 363/279/259 107/422/348
f 363/279/259 305/424/350 107/422/348
f 108/425/351 406/426/352 149/168/168
f 108/425/351 405/427/332 300/408/335
f 300/408/335 364/284/262 108/425/351
f 364/284/262 306/428/353 108/425/351
f 109/429/354 401/430/355 144/171/171
f 109/429/354 400/410/337 301/411/338
f 301/411/338 365/288/264 109/429/354
f 365/288/264 307/431/356 109/429/354
f 110/432/357 396/433/358 139/174/174
f 110/432/357 395/413/340 302/414/341
f 302/414/341 366/292/266 110/432/357
f 366/292/266 308/434/359 110/432/357
f 111/435/360 391/436/361 134/177/177
f 111/435/360 390/416/343 303/418/344
f 303/418/344 367/297/269 111/435/360
f 367/297/269 309/437/362 111/435/360
f 112/438/363 386/439/364 129/181/181
f 112/438/363 385/440/365 342/441/366
f 342/441/366 368/303/271 112/438/363
f 368/303/271 311/442/367 112/438/363
f 113/443/368 385/440/365 160/184/184
f 113/443/368 416/420/346 304/421/347
f 113/443/368 497/444/369 369/307/274
f 369/307/274 342/441/366 113/443/368
f 114/445/370 412/446/371 155/186/186
f 114/445/370 411/423/349 305/424/350
f 114/445/370 498/314/258 370/312/276
f 114/445/370 505/447/275 312/448/372
f 115/449/373 407/450/374 150/189/189
f 115/449/373 406/426/352 306/428/353
f 306/428/353 371/318/279 115/449/373
f 371/318/279 313/451/375 115/449/373
f 116/452/376 402/453/377 145/192/192
f 116/452/376 401/430/355 307/431/356
f 307/431/356 372/322/281 116/452/376
f 372/322/281 314/454/378 116/452/376
f 117/455/379 397/456/380 140/195/195
f 117/455/379 396/433/358 308/434/359
f 308/434/359 373/327/283 117/455/379
f 373/327/283 315/457/381 117/455/379
f 118/458/382 392/459/383 135/198/198
f 118/458/382 391/436/361 309/437/362
f 118/458/382 502/334/268 374/332/287
f 374/332/287 316/460/384 118/458/382
f 119/461/385 387/462/386 130/201/201
f 119/461/385 386/439/364 311/442/367
f 311/442/367 375/337/290 119/461/385
f 375/337/290 317/463/387 119/461/385
f 120/464/388 413/465/389 156/204/204
f 120/464/388 412/446/371 312/448/372
f 312/448/372 376/342/292 120/464/388
f 120/464/388 511/341/293 318/466/390
f 121/467/391 408/468/392 151/207/207
f 121/467/391 407/450/374 313/451/375
f 313/451/375 377/346/295 121/467/391
f 377/346/295 319/469/393 121/467/391
f 122/470/394 403/471/395 146/210/210
f 122/470/394 402/453/377 314/454/378
f 122/470/394 507/352/280 378/350/297
f 378/350/297 320/472/396 122/470/394
f 123/473/397 398/381/308 141/213/213
f 123/473/397 397/456/380 315/457/381
f 315/457/381 379/354/298 123/473/397
f 379/354/298 321/382/309 123/473/397
f 124/474/398 393/386/313 136/215/215
f 124/474/398 392/459/383 316/460/384
f 316/460/384 380/358/299 124/474/398
f 380/358/299 323/387/314 124/474/398
f 125/475/399 388/391/318 131/217/217
f 125/475/399 387/462/386 317/463/387
f 317/463/387 381/363/301 125/475/399
f 381/363/301 325/392/319 125/475/399
f 126/476/400 414/396/323 157/219/219
f 126/476/400 413/465/389 318/466/390
f 318/466/390 382/366/302 126/476/400
f 382/366/302 327/397/324 126/476/400
f 127/477/401 409/401/328 152/221/221
f 127/477/401 408/468/392 319/469/393
f 127/477/401 512/372/294 383/370/303
f 383/370/303 329/402/329 127/477/401
f 128/478/402 404/406/333 147/223/223
f 128/478/402 403/471/395 320/472/396
f 320/472/396 384/375/305 128/478/402
f 384/375/305 331/407/334 128/478/402
f 1/1/1 195/6/6 420/2/2
f 1/1/1 225/3/3 419/4/4
f 162/5/5 417/479/403 195/6/6
f 2/7/7 197/12/12 422/8/8
f 2/7/7 226/9/9 421/10/10
f 164/11/11 417/479/403 197/12/12
f 3/13/13 199/18/18 424/14/14
f 3/13/13 227/15/15 423/16/16
f 166/17/17 417/479/403 199/18/18
f 4/19/19 201/24/24 426/20/20
f 4/19/19 228/21/21 425/22/22
f 168/23/23 417/479/403 201/24/24
f 5/25/25 203/30/30 428/26/26
f 5/25/25 229/27/27 427/28/28
f 170/29/29 417/479/403 203/30/30
f 6/31/31 205/36/36 430/32/32
f 6/31/31 230/33/33 429/34/34
f 172/35/35 417/479/403 205/36/36
f 7/37/37 162/5/5 419/4/4
f 7/37/37 231/38/38 431/39/39
f 174/40/40 417/479/403 162/5/5
f 8/41/41 164/11/11 421/10/10
f 8/41/41 232/42/42 432/43/43
f 175/44/44 417/479/403 164/11/11
f 9/45/45 166/17/17 423/16/16
f 9/45/45 233/46/46 433/47/47
f 176/48/48 417/479/403 166/17/17
f 10/49/49 168/23/23 425/22/22
f 10/49/49 234/50/50 434/51/51
f 177/52/52 417/479/403 168/23/23
f 11/53/53 170/29/29 427/28/28
f 11/53/53 235/54/54 435/55/55
f 178/56/56 417/479/403 170/29/29
f 12/57/57 172/35/35 429/34/34
f 12/57/57 236/58/58 436/59/59
f 179/60/60 417/479/403 172/35/35
f 13/61/61 174/40/40 431/39/39
f 13/61/61 237/62/62 437/63/63
f 180/64/64 417/479/403 174/40/40
f 14/65/65 175/44/44 432/43/43
f 14/65/65 238/66/66 438/67/67
f 181/68/68 417/479/403 175/44/44
f 15/69/69 176/48/48 433/47/47
f 15/69/69 239/70/70 439/71/71
f 182/72/72 417/479/403 176/48/48
f 16/73/73 193/78/78 418/74/74
f 16/73/73 240/75/75 440/76/76
f 183/77/77 417/479/403 193/78/78
f 17/79/79 177/52/52 434/51/51
f 17/79/79 241/80/80 418/74/74
f 193/78/78 417/479/403 177/52/52
f 18/81/81 178/56/56 435/55/55
f 18/81/81 242/82/82 441/83/83
f 184/84/84 417/479/403 178/56/56
f 19/85/85 179/60/60 436/59/59
f 19/85/85 243/86/86 442/87/87
f 185/88/88 417/479/403 179/60/60
f 20/89/89 180/64/64 437/63/63
f 20/89/89 244/90/90 443/91/91
f 186/92/92 417/479/403 180/64/64
f 21/93/93 181/68/68 438/67/67
f 21/93/93 245/94/94 444/95/95
f 187/96/96 417/479/403 181/68/68
f 22/97/97 182/72/72 439/71/71
f 22/97/97 246/98/98 445/99/99
f 188/100/100 417/479/403 182/72/72
f 23/101/101 183/77/77 440/76/76
f 23/101/101 247/102/102 446/103/103
f 189/104/104 417/479/403 183/77/77
f 24/105/105 184/84/84 441/83/83
f 24/105/105 248/106/106 447/107/107
f 190/108/108 417/479/403 184/84/84
f 25/109/109 185/88/88 442/87/87
f 25/109/109 249/110/110 448/111/111
f 191/112/112 417/479/403 185/88/88
f 26/113/113 186/92/92 443/91/91
f 26/113/113 250/114/114 449/115/115
f 192/116/116 417/479/403 186/92/92
f 27/117/117 187/96/96 444/95/95
f 27/117/117 251/118/118 420/2/2
f 195/6/6 417/479/403 187/96/96
f 28/119/119 188/100/100 445/99/99
f 28/119/119 252/120/120 422/8/8
f 197/12/12 417/479/403 188/100/100
f 29/121/121 189/104/104 446/103/103
f 29/121/121 253/122/122 424/14/14
f 199/18/18 417/479/403 189/104/104
f 30/123/123 190/108/108 447/107/107
f 30/123/123 254/124/124 426/20/20
f 201/24/24 417/479/403 190/108/108
f 31/125/125 191/112/112 448/111/111
f 31/125/125 255/126/126 428/26/26
f 203/30/30 417/479/403 191/112/112
f 32/127/127 192/116/116 449/115/115
f 32/127/127 256/128/128 430/32/32
f 205/36/36 417/479/403 192/116/116
f 163/129/129 398/381/308 142/130/130
f 142/130/130 399/380/307 194/132/132
f 194/132/132 419/4/4 225/3/3
f 225/3/3 420/2/2 163/129/129
f 165/133/133 393/386/313 137/134/134
f 137/134/134 394/385/312 196/136/136
f 196/136/136 421/10/10 226/9/9
f 226/9/9 422/8/8 165/133/133
f 167/137/137 388/391/318 132/138/138
f 132/138/138 389/417/317 198/140/140
f 198/140/140 423/16/16 227/15/15
f 227/15/15 424/14/14 167/137/137
f 169/141/141 414/396/323 158/142/142
f 158/142/142 415/395/322 200/144/144
f 200/144/144 425/22/22 228/21/21
f 228/21/21 426/20/20 169/141/141
f 171/145/145 409/401/328 153/146/146
f 153/146/146 410/400/327 202/148/148
f 202/148/148 427/28/28 229/27/27
f 229/27/27 428/26/26 171/145/145
f 173/149/149 404/406/333 148/150/150
f 148/150/150 405/405/332 204/152/152
f 204/152/152 429/34/34 230/33/33
f 230/33/33 430/32/32 173/149/149
f 194/132/132 399/380/307 143/153/153
f 143/153/153 400/410/337 206/155/155
f 206/155/155 431/39/39 231/38/38
f 231/38/38 419/4/4 194/132/132
f 196/136/136 394/385/312 138/156/156
f 138/156/156 395/413/340 207/158/158
f 207/158/158 432/43/43 232/42/42
f 232/42/42 421/10/10 196/136/136
f 198/140/140 389/417/317 133/159/159
f 133/159/159 390/416/343 208/161/161
f 208/161/161 433/47/47 233/46/46
f 233/46/46 423/16/16 198/140/140
f 200/144/144 415/395/322 159/162/162
f 159/162/162 416/420/346 209/164/164
f 209/164/164 434/51/51 234/50/50
f 234/50/50 425/22/22 200/144/144
f 202/148/148 410/400/327 154/165/165
f 154/165/165 411/423/349 210/167/167
f 210/167/167 435/55/55 235/54/54
f 235/54/54 427/28/28 202/148/148
f 204/152/152 405/405/332 149/168/168
f 149/168/168 406/426/352 211/170/170
f 211/170/170 436/59/59 236/58/58
f 236/58/58 429/34/34 204/152/152
f 206/155/155 400/410/337 144/171/171
f 144/171/171 401/430/355 212/173/173
f 212/173/173 437/63/63 237/62/62
f 237/62/62 431/39/39 206/155/155
f 207/158/158 395/413/340 139/174/174
f 139/174/174 396/433/358 213/176/176
f 213/176/176 438/67/67 238/66/66
f 238/66/66 432/43/43 207/158/158
f 208/161/161 390/416/343 134/177/177
f 134/177/177 391/436/361 214/179/179
f 214/179/179 439/71/71 239/70/70
f 239/70/70 433/47/47 208/161/161
f 161/180/180 385/440/365 129/181/181
f 129/181/181 386/439/364 215/183/183
f 215/183/183 440/76/76 240/75/75
f 240/75/75 418/74/74 161/180/180
f 209/164/164 416/420/346 160/184/184
f 160/184/184 385/440/365 161/180/180
f 161/180/180 418/74/74 241/80/80
f 241/80/80 434/51/51 209/164/164
f 210/167/167 411/423/349 155/186/186
f 155/186/186 412/446/371 216/188/188
f 216/188/188 441/83/83 242/82/82
f 242/82/82 435/55/55 210/167/167
f 211/170/170 406/426/352 150/189/189
f 150/189/189 407/450/374 217/191/191
f 217/191/191 442/87/87 243/86/86
f 243/86/86 436/59/59 211/170/170
f 212/173/173 401/430/355 145/192/192
f 145/192/192 402/453/377 218/194/194
f 218/194/194 443/91/91 244/90/90
f 244/90/90 437/63/63 212/173/173
f 213/176/176 396/433/358 140/195/195
f 140/195/195 397/456/380 219/197/197
f 219/197/197 444/95/95 245/94/94
f 245/94/94 438/67/67 213/176/176
f 214/179/179 391/436/361 135/198/198
f 135/198/198 392/459/383 220/200/200
f 220/200/200 445/99/99 246/98/98
f 246/98/98 439/71/71 214/179/179
f 215/183/183 386/439/364 130/201/201
f 130/201/201 387/462/386 221/203/203
f 221/203/203 446/103/103 247/102/102
f 247/102/102 440/76/76 215/183/183
f 216/188/188 412/446/371 156/204/204
f 156/204/204 413/465/389 222/206/206
f 222/206/206 447/107/107 248/106/106
f 248/106/106 441/83/83 216/188/188
f 217/191/191 407/450/374 151/207/207
f 151/207/207 408/468/392 223/209/209
f 223/209/209 448/111/111 249/110/110
f 249/110/110 442/87/87 217/191/191
f 218/194/194 402/453/377 146/210/210
f 146/210/210 403/471/395 224/212/212
f 224/212/212 449/115/115 250/114/114
f 250/114/114 443/91/91 218/194/194
f 219/197/197 397/456/380 141/213/213
f 141/213/213 398/381/308 163/129/129
f 163/129/129 420/2/2 251/118/118
f 251/118/118 444/95/95 219/197/197
f 220/200/200 392/459/383 136/215/215
f 136/215/215 393/386/313 165/133/133
f 165/133/133 422/8/8 252/120/120
f 252/120/120 445/99/99 220/200/200
f 221/203/203 387/462/386 131/217/217
f 131/217/217 388/391/318 167/137/137
f 167/137/137 424/14/14 253/122/122
f 253/122/122 446/103/103 221/203/203
f 222/206/206 413/465/389 157/219/219
f 157/219/219 414/396/323 169/141/141
f 169/141/141 426/20/20 254/124/124
f 254/124/124 447/107/107 222/206/206
f 223/209/209 408/468/392 152/221/221
f 152/221/221 409/401/328 171/145/145
f 171/145/145 428/26/26 255/126/126
f 255/126/126 448/111/111 223/209/209
f 224/212/212 403/471/395 147/223/223
f 147/223/223 404/406/333 173/149/149
f 173/149/149 430/32/32 256/128/128
f 256/128/128 449/115/115 224/212/212
f 322/225/225 483/262/246 353/226/226
f 353/226/226 482/480/227 289/228/227
f 289/228/227 463/481/227 270/229/226
f 65/227/226 270/229/226 464/230/225
f 324/231/228 485/482/228 354/232/229
f 354/232/229 484/483/230 291/234/230
f 291/234/230 458/362/230 265/235/231
f 265/235/231 459/484/404 324/231/228
f 67/236/232 326/241/233 487/237/233
f 355/238/232 486/485/234 293/239/234
f 293/239/234 453/486/234 260/240/232
f 260/240/232 454/272/233 326/241/233
f 328/242/235 489/487/235 356/243/236
f 356/243/236 488/488/237 295/245/237
f 295/245/237 479/489/237 286/246/236
f 286/246/236 480/490/235 328/242/235
f 330/247/238 491/491/405 357/248/239
f 357/248/239 490/492/240 297/250/240
f 297/250/240 474/493/240 281/251/239
f 281/251/239 475/494/238 330/247/238
f 70/252/241 332/258/242 493/253/242
f 358/254/241 492/495/243 299/255/243
f 299/255/243 469/496/406 276/256/241
f 70/252/241 276/256/241 470/257/242
f 333/259/244 494/497/244 359/260/245
f 71/261/245 359/260/245 483/262/246
f 322/225/225 464/230/225 271/263/247
f 71/261/245 271/263/247 465/264/244
f 334/265/248 495/498/407 360/266/249
f 360/266/249 485/482/228 324/231/228
f 324/231/228 459/484/404 266/268/250
f 266/268/250 460/294/267 334/265/248
f 335/269/251 496/499/408 361/270/252
f 73/271/253 361/270/252 487/237/233
f 73/271/253 326/241/233 454/272/233
f 261/273/254 455/500/408 335/269/251
f 336/274/255 497/444/369 362/275/256
f 362/275/256 489/487/235 328/242/235
f 328/242/235 480/490/235 287/277/257
f 287/277/257 481/501/369 336/274/255
f 337/278/258 498/314/258 363/279/259
f 363/279/259 491/491/405 330/247/238
f 330/247/238 475/494/238 282/281/260
f 75/280/259 282/281/260 476/282/258
f 338/283/261 499/502/261 364/284/262
f 364/284/262 493/253/242 332/258/242
f 332/258/242 470/257/242 277/286/262
f 277/286/262 471/503/261 338/283/261
f 339/287/263 500/504/263 365/288/264
f 365/288/264 494/497/244 333/259/244
f 333/259/244 465/264/244 272/290/264
f 272/290/264 466/505/263 339/287/263
f 340/291/265 501/506/409 366/292/266
f 366/292/266 495/498/407 334/265/248
f 78/293/266 334/265/248 460/294/267
f 267/295/266 461/329/285 340/291/265
f 341/296/268 502/334/268 367/297/269
f 367/297/269 496/499/408 335/269/251
f 335/269/251 455/500/408 262/299/269
f 79/298/269 262/299/269 456/300/270
f 80/301/271 343/306/272 504/302/272
f 368/303/271 503/507/273 310/304/273
f 310/304/273 450/310/273 257/305/271
f 257/305/271 451/508/272 343/306/272
f 310/304/273 503/507/273 369/307/274
f 369/307/274 497/444/369 336/274/255
f 336/274/255 481/501/369 288/309/274
f 81/308/274 288/309/274 450/310/273
f 344/311/275 505/447/275 370/312/276
f 82/313/276 370/312/276 498/314/258
f 337/278/258 476/282/258 283/315/276
f 82/313/276 283/315/276 477/316/277
f 345/317/278 506/509/278 371/318/279
f 371/318/279 499/502/261 338/283/261
f 338/283/261 471/503/261 278/320/279
f 278/320/279 472/510/278 345/317/278
f 346/321/280 507/352/280 372/322/281
f 372/322/281 500/504/263 339/287/263
f 339/287/263 466/505/263 273/324/281
f 84/323/281 273/324/281 467/325/280
f 347/326/282 508/356/282 373/327/283
f 373/327/283 501/506/409 340/291/265
f 85/328/284 340/291/265 461/329/285
f 268/330/283 462/511/282 347/326/282
f 348/331/286 509/360/300 374/332/287
f 86/333/288 374/332/287 502/334/268
f 341/296/268 456/300/270 263/335/288
f 263/335/288 457/512/300 348/331/286
f 349/336/289 510/513/289 375/337/290
f 375/337/290 504/302/272 343/306/272
f 343/306/272 451/508/272 258/339/290
f 258/339/290 452/514/289 349/336/289
f 88/340/292 350/344/293 511/341/293
f 376/342/292 505/447/275 344/311/275
f 344/311/275 477/316/277 284/343/292
f 284/343/292 478/368/293 350/344/293
f 351/345/294 512/372/294 377/346/295
f 377/346/295 506/509/278 345/317/278
f 345/317/278 472/510/278 279/348/295
f 279/348/295 473/373/304 351/345/294
f 352/349/296 513/377/296 378/350/297
f 90/351/297 378/350/297 507/352/280
f 346/321/280 467/325/280 274/353/297
f 274/353/297 468/515/296 352/349/296
f 289/228/227 482/480/227 379/354/298
f 91/355/298 379/354/298 508/356/282
f 347/326/282 462/511/282 269/357/298
f 269/357/298 463/481/227 289/228/227
f 291/234/230 484/483/230 380/358/299
f 92/359/299 380/358/299 509/360/300
f 348/331/286 457/512/300 264/361/299
f 92/359/299 264/361/299 458/362/230
f 293/239/234 486/485/234 381/363/301
f 381/363/301 510/513/289 349/336/289
f 349/336/289 452/514/289 259/365/301
f 259/365/301 453/486/234 293/239/234
f 295/245/237 488/488/237 382/366/302
f 382/366/302 511/341/293 350/344/293
f 94/367/302 350/344/293 478/368/293
f 285/369/302 479/489/237 295/245/237
f 297/250/240 490/492/240 383/370/303
f 95/371/303 383/370/303 512/372/294
f 95/371/303 351/345/294 473/373/304
f 280/374/303 474/493/240 297/250/240
f 299/255/243 492/495/243 384/375/305
f 96/376/305 384/375/305 513/377/296
f 352/349/296 468/515/296 275/378/305
f 275/378/305 469/496/406 299/255/243
f 97/379/306 290/383/310 399/380/307
f 97/379/306 142/130/130 398/381/308
f 321/382/309 482/480/227 353/226/226
f 353/226/226 483/262/246 290/383/310
f 98/384/311 292/388/315 394/385/312
f 98/384/311 137/134/134 393/386/313
f 323/387/314 484/483/230 354/232/229
f 354/232/229 485/482/228 292/388/315
f 99/389/316 294/393/320 389/390/317
f 99/389/316 132/138/138 388/391/318
f 325/392/319 486/485/234 355/238/232
f 355/238/232 487/237/233 294/393/320
f 100/394/321 296/398/325 415/395/322
f 100/394/321 158/142/142 414/396/323
f 327/397/324 488/488/237 356/243/236
f 356/243/236 489/487/235 296/398/325
f 101/399/326 298/403/330 410/400/327
f 101/399/326 153/146/146 409/401/328
f 329/402/329 490/492/240 357/248/239
f 357/248/239 491/491/405 298/403/330
f 102/404/331 300/408/335 405/405/332
f 102/404/331 148/150/150 404/406/333
f 331/407/334 492/495/243 358/254/241
f 102/404/331 358/254/241 493/253/242
f 103/409/336 301/411/338 400/410/337
f 103/409/336 143/153/153 399/380/307
f 103/409/336 290/383/310 483/262/246
f 359/260/245 494/497/244 301/411/338
f 104/412/339 302/414/341 395/413/340
f 104/412/339 138/156/156 394/385/312
f 292/388/315 485/482/228 360/266/249
f 360/266/249 495/498/407 302/414/341
f 105/415/342 303/418/344 390/416/343
f 105/415/342 133/159/159 389/417/317
f 294/393/320 487/237/233 361/270/252
f 361/270/252 496/499/408 303/418/344
f 106/419/345 304/421/347 416/420/346
f 106/419/345 159/162/162 415/395/322
f 296/398/325 489/487/235 362/275/256
f 362/275/256 497/444/369 304/421/347
f 107/422/348 305/424/350 411/423/349
f 107/422/348 154/165/165 410/400/327
f 298/403/330 491/491/405 363/279/259
f 363/279/259 498/314/258 305/424/350
f 108/425/351 306/428/353 406/426/352
f 108/425/351 149/168/168 405/427/332
f 300/408/335 493/253/242 364/284/262
f 364/284/262 499/502/261 306/428/353
f 109/429/354 307/431/356 401/430/355
f 109/429/354 144/171/171 400/410/337
f 301/411/338 494/497/244 365/288/264
f 365/288/264 500/504/263 307/431/356
f 110/432/357 308/434/359 396/433/358
f 110/432/357 139/174/174 395/413/340
f 302/414/341 495/498/407 366/292/266
f 366/292/266 501/506/409 308/434/359
f 111/435/360 309/437/362 391/436/361
f 111/435/360 134/177/177 390/416/343
f 303/418/344 496/499/408 367/297/269
f 367/297/269 502/334/268 309/437/362
f 112/438/363 311/442/367 386/439/364
f 112/438/363 129/181/181 385/440/365
f 342/441/366 503/507/273 368/303/271
f 368/303/271 504/302/272 311/442/367
f 113/443/368 342/441/366 385/440/365
f 113/443/368 160/184/184 416/420/346
f 113/443/368 304/421/347 497/444/369
f 369/307/274 503/507/273 342/441/366
f 114/445/370 312/448/372 412/446/371
f 114/445/370 155/186/186 411/423/349
f 114/445/370 305/424/350 498/314/258
f 114/445/370 370/312/276 505/447/275
f 115/449/373 313/451/375 407/450/374
f 115/449/373 150/189/189 406/426/352
f 306/428/353 499/502/261 371/318/279
f 371/318/279 506/509/278 313/451/375
f 116/452/376 314/454/378 402/453/377
f 116/452/376 145/192/192 401/430/355
f 307/431/356 500/504/263 372/322/281
f 372/322/281 507/352/280 314/454/378
f 117/455/379 315/457/381 397/456/380
f 117/455/379 140/195/195 396/433/358
f 308/434/359 501/506/409 373/327/283
f 373/327/283 508/356/282 315/457/381
f 118/458/382 316/460/384 392/459/383
f 118/458/382 135/198/198 391/436/361
f 118/458/382 309/437/362 502/334/268
f 374/332/287 509/360/300 316/460/384
f 119/461/385 317/463/387 387/462/386
f 119/461/385 130/201/201 386/439/364
f 311/442/367 504/302/272 375/337/290
f 375/337/290 510/513/289 317/463/387
f 120/464/388 318/466/390 413/465/389
f 120/464/388 156/204/204 412/446/371
f 312/448/372 505/447/275 376/342/292
f 120/464/388 376/342/292 511/341/293
f 121/467/391 319/469/393 408/468/392
f 121/467/391 151/207/207 407/450/374
f 313/451/375 506/509/278 377/346/295
f 377/346/295 512/372/294 319/469/393
f 122/470/394 320/472/396 403/471/395
f 122/470/394 146/210/210 402/453/377
f 122/470/394 314/454/378 507/352/280
f 378/350/297 513/377/296 320/472/396
f 123/473/397 321/382/309 398/381/308
f 123/473/397 141/213/213 397/456/380
f 315/457/381 508/356/282 379/354/298
f 379/354/298 482/480/227 321/382/309
f 124/474/398 323/387/314 393/386/313
f 124/474/398 136/215/215 392/459/383
f 316/460/384 509/360/300 380/358/299
f 380/358/299 484/483/230 323/387/314
f 125/475/399 325/392/319 388/391/318
f 125/475/399 131/217/217 387/462/386
f 317/463/387 510/513/289 381/363/301
f 381/363/301 486/485/234 325/392/319
f 126/476/400 327/397/324 414/396/323
f 126/476/400 157/219/219 413/465/389
f 318/466/390 511/341/293 382/366/302
f 382/366/302 488/488/237 327/397/324
f 127/477/401 329/402/329 409/401/328
f 127/477/401 152/221/221 408/468/392
f 127/477/401 319/469/393 512/372/294
f 383/370/303 490/492/240 329/402/329
f 128/478/402 331/407/334 404/406/333
f 128/478/402 147/223/223 403/471/395
f 320/472/396 513/377/296 384/375/305
f 384/375/305 492/495/243 331/407/334
