# Blender v2.79 (sub 0) OBJ File: 'breakfast_room_nano.blend'
# www.blender.org
o Area_Light_Plane.001
v -6.258401 7.024958 1.168617
v 5.064907 7.024958 1.168617
v -6.258401 7.024958 -4.831383
v 5.064907 7.024958 -4.831383
vn 0.0000 1.0000 0.0000
s off
f 2//1 3//1 1//1
f 2//1 4//1 3//1
