# Blender v2.82 (sub 7) OBJ File: 'spheres_and_prism_simple.blend'
# www.blender.org
o Plane.001_Plane.010
v -2.429512 0.000000 2.429512
v 2.429512 0.000000 2.429512
v -2.429512 0.000000 -2.429512
v 2.429512 0.000000 -2.429512
vt 1.000000 0.000000
vt 0.000000 1.000000
vt 0.000000 0.000000
vt 1.000000 1.000000
vn 0.0000 1.0000 0.0000
s off
f 2/1/1 3/2/1 1/3/1
f 2/1/1 4/4/1 3/2/1
