# Blender v2.79 (sub 0) OBJ File: 'luxrender_prism.blend'
# www.blender.org
o Plane.003_Plane.002
v -0.511038 -0.112341 -0.158446
v 0.823612 -0.112341 -0.144584
v -0.490233 -0.112341 -0.250998
v 0.918053 -0.112341 -0.250998
v 0.818266 -0.112341 0.083500
v 0.912707 -0.112341 0.190913
v -0.500505 -0.112341 0.081718
v -0.406064 -0.112341 0.189131
v -0.630584 -0.112341 0.140520
v -0.657312 -0.112341 0.269317
v -0.840848 -0.112341 -0.059053
v -0.992310 -0.112341 -0.069244
v -0.653748 -0.112341 -0.247934
v -0.643057 -0.112341 -0.398896
vn 0.0000 -1.0000 0.0000
s off
f 3//1 2//1 1//1
f 2//1 6//1 5//1
f 5//1 8//1 7//1
f 8//1 9//1 7//1
f 10//1 11//1 9//1
f 12//1 13//1 11//1
f 3//1 13//1 14//1
f 3//1 4//1 2//1
f 2//1 4//1 6//1
f 5//1 6//1 8//1
f 8//1 10//1 9//1
f 10//1 12//1 11//1
f 12//1 14//1 13//1
f 3//1 1//1 13//1
