# Blender v2.79 (sub 0) OBJ File: 'ring.blend'
# www.blender.org
o ceiling
v 1 2 1
v -1 2 1
v -1 2 -1
v 1 2 -1
vn -8.74228e-008 -1 -4.37114e-008
vn -8.74228e-008 -1 -4.37114e-008
vn -8.74228e-008 -1 -4.37114e-008
vn -8.74228e-008 -1 -4.37114e-008
s off
f 1//1 2//1 3//1
f 1//1 3//1 4//1
