# Blender v2.79 (sub 0) OBJ File: 'm3_interior.blend'
# www.blender.org
o Bottom_Hull_Plane.013
v 1.546540 -1.130074 2.233484
v 1.584200 -1.130074 -1.000000
v 1.816303 -0.034195 3.047317
v 1.775884 -0.345478 2.417237
v 1.820081 -0.119627 2.687163
v 1.639680 -0.812361 2.236516
v 1.732287 -0.540855 2.312496
v 1.824311 -0.047306 2.883311
v 1.587340 -1.059739 3.832840
v 1.728485 -0.442487 3.735281
v 1.790932 -0.145783 3.474113
v 1.665806 -0.751113 3.827903
v 1.764783 -0.278912 3.626686
v 1.803618 -0.071722 3.272893
v 1.437261 -1.021159 4.019688
v 0.927979 -1.021159 4.322983
v 1.584200 -1.130074 -1.807227
v 1.645085 -0.824962 -1.807227
v 1.829104 -0.095510 -2.512131
v 1.774301 -0.379868 -1.984331
v 1.820024 -0.193041 -2.189377
v 1.712512 -0.598188 -1.870412
v 1.598258 -1.028656 -3.439218
v 1.772491 -0.385358 -3.194476
v 1.708963 -0.658308 -3.348502
v 1.827569 -0.114887 -2.802436
v 1.814065 -0.223745 -3.014689
v 1.419010 -0.936098 -4.018975
v 1.497517 -0.984363 -3.716661
v 0.794125 -1.130074 2.234330
v 0.792100 -1.130074 -1.000000
v 0.794125 -0.034195 3.047317
v 0.794125 -0.345478 2.417237
v 0.794125 -0.119627 2.687163
v 0.794125 -0.812361 2.236516
v 0.794125 -0.540855 2.312496
v 0.794125 -0.047306 2.883311
v 0.794125 -1.059739 3.832840
v 0.794125 -0.442487 3.735281
v 0.794125 -0.145783 3.474113
v 0.794125 -0.751113 3.827903
v 0.794125 -0.278912 3.626686
v 0.794125 -0.071722 3.272893
v 0.718631 -1.021159 4.048582
v 0.463990 -1.021159 4.322983
v 0.805027 -1.130074 -1.807227
v 0.805027 -0.824962 -1.807227
v 0.805027 -0.095510 -2.512131
v 0.805027 -0.379868 -1.984331
v 0.805027 -0.193041 -2.189377
v 0.805027 -0.598188 -1.870412
v 0.805027 -1.028656 -3.439218
v 0.805027 -0.385358 -3.194476
v 0.805027 -0.658308 -3.348502
v 0.805027 -0.114887 -2.802436
v 0.805027 -0.223745 -3.014689
v 0.709505 -0.936098 -4.018975
v 0.779294 -0.984363 -3.716661
v 0.794125 -1.094906 3.033585
v 0.805027 -1.079365 -2.623223
v -1.546540 -1.130074 2.233484
v -1.584200 -1.130074 -1.000000
v 0.000000 -1.130074 2.235176
v 0.000000 -1.130074 -1.000000
v -1.816303 -0.034195 3.047317
v -1.775884 -0.345478 2.417237
v -1.820081 -0.119627 2.687163
v -1.639680 -0.812361 2.236516
v -1.732287 -0.540855 2.312496
v -1.824311 -0.047306 2.883311
v -1.587340 -1.059739 3.832840
v 0.000000 -1.059739 3.832840
v -1.728485 -0.442487 3.735281
v -1.790932 -0.145783 3.474113
v -1.665806 -0.751113 3.827903
v -1.764783 -0.278912 3.626686
v -1.803618 -0.071722 3.272893
v -1.437261 -1.021159 4.019688
v 0.000000 -1.021159 4.077477
v -0.927979 -1.021159 4.322983
v 0.000000 -1.021159 4.322983
v -1.584200 -1.130074 -1.807227
v 0.000000 -1.130074 -1.807227
v -1.645085 -0.824962 -1.807227
v -1.829104 -0.095510 -2.512131
v -1.774301 -0.379868 -1.984331
v -1.820024 -0.193041 -2.189377
v -1.712512 -0.598188 -1.870412
v -1.598258 -1.028656 -3.439218
v 0.000000 -1.028656 -3.439218
v -1.772491 -0.385358 -3.194476
v -1.708963 -0.658308 -3.348502
v -1.827569 -0.114887 -2.802436
v 0.000000 -1.079365 -2.623223
v -1.814065 -0.223745 -3.014689
v -1.419010 -0.936098 -4.018975
v 0.000000 -0.936098 -4.018975
v -1.497517 -0.984363 -3.716661
v 0.000000 -0.984363 -3.716661
v -0.794125 -1.130074 2.234330
v -0.792100 -1.130074 -1.000000
v -0.794125 -0.034195 3.047317
v -0.794125 -0.345478 2.417237
v -0.794125 -0.119627 2.687163
v -0.794125 -0.812361 2.236516
v -0.794125 -0.540855 2.312496
v -0.794125 -0.047306 2.883311
v -0.794125 -1.059739 3.832840
v -0.794125 -0.442487 3.735281
v -0.794125 -0.145783 3.474113
v -0.794125 -0.751113 3.827903
v -0.794125 -0.278912 3.626686
v -0.794125 -0.071722 3.272893
v -0.718631 -1.021159 4.048582
v -0.463990 -1.021159 4.322983
v -0.805027 -1.130074 -1.807227
v -0.805027 -0.824962 -1.807227
v -0.805027 -0.095510 -2.512131
v -0.805027 -0.379868 -1.984331
v -0.805027 -0.193041 -2.189377
v -0.805027 -0.598188 -1.870412
v -0.805027 -1.028656 -3.439218
v -0.805027 -0.385358 -3.194476
v -0.805027 -0.658308 -3.348502
v -0.805027 -0.114887 -2.802436
v -0.805027 -0.223745 -3.014689
v -0.709505 -0.936098 -4.018975
v -0.779294 -0.984363 -3.716661
v -0.794125 -1.094906 3.033585
v 0.000000 -1.094906 3.033585
v -0.805027 -1.079365 -2.623223
vn 0.0000 1.0000 0.0000
vn 0.0000 0.9844 -0.1760
vn 0.0000 0.9875 0.1577
vn 0.0000 0.9793 -0.2022
vn 0.0000 -0.9981 -0.0620
vn -1.0000 -0.0000 0.0000
vn 0.0000 0.9990 -0.0440
vn 1.0000 0.0000 0.0000
vn -0.0063 0.9878 -0.1558
vn -0.0072 0.9839 -0.1785
vn 0.0063 0.9878 -0.1558
vn 0.0072 0.9839 -0.1785
vn 0.0000 0.6642 0.7475
vn 0.6778 0.0996 0.7284
vn 0.5734 0.5981 0.5599
vn 0.0000 0.8767 0.4810
vn 0.6689 0.7385 0.0841
vn 0.6606 0.6529 0.3705
vn 0.0000 0.3839 0.9233
vn 0.6698 0.4531 0.5882
vn 0.6843 0.2680 0.6781
vn 0.0000 0.6289 0.7775
vn 0.0000 0.1554 0.9878
vn 0.6777 0.2707 -0.6837
vn 0.0000 0.7168 -0.6972
vn 0.5320 0.7289 -0.4308
vn 0.6792 0.6044 -0.4162
vn 0.0000 0.6409 -0.7676
vn 0.6724 0.4632 -0.5773
vn 0.0000 0.3882 -0.9216
vn 0.0000 0.9648 -0.2630
vn 0.6643 0.7203 -0.1996
vn 0.0000 0.8291 -0.5591
vn -0.6777 0.7182 -0.1580
vn 0.0000 0.9992 0.0384
vn 0.0000 0.9764 -0.2160
vn 0.0000 0.3905 -0.9206
vn -0.6668 0.4704 -0.5780
vn 0.0000 0.6466 -0.7628
vn -0.6706 0.6419 -0.3718
vn 0.0000 0.8694 -0.4940
vn -0.0002 0.6530 -0.7573
vn -0.6786 0.1026 -0.7273
vn 0.0000 0.1656 -0.9862
vn -0.6833 0.2725 -0.6774
vn -0.6774 0.1126 0.7269
vn 0.0000 0.4878 0.8729
vn 0.0000 0.1727 0.9850
vn -0.6783 0.4843 0.5525
vn 0.0000 0.4409 0.8975
vn 0.0000 0.6693 0.7430
vn -0.6866 0.7028 0.1860
vn 0.0000 0.8659 0.5002
vn 0.0000 0.9676 0.2525
vn -0.6755 0.3133 0.6675
vn -0.6684 0.6398 0.3792
vn -0.6806 0.7319 0.0311
vn -0.6778 0.0996 0.7284
vn -0.5734 0.5981 0.5599
vn -0.6689 0.7385 0.0841
vn -0.6606 0.6529 0.3705
vn -0.6698 0.4531 0.5882
vn -0.6843 0.2680 0.6781
vn -0.6777 0.2707 -0.6837
vn -0.6792 0.6044 -0.4162
vn -0.6724 0.4632 -0.5773
vn 0.0000 0.9937 0.1119
vn -0.6643 0.7203 -0.1996
vn 0.6777 0.7182 -0.1580
vn 0.6668 0.4704 -0.5780
vn 0.6833 0.2725 -0.6774
vn 0.6706 0.6419 -0.3718
vn 0.0002 0.6530 -0.7573
vn 0.6786 0.1026 -0.7273
vn 0.2913 0.9037 -0.3139
vn 0.6774 0.1126 0.7269
vn 0.6783 0.4843 0.5525
vn 0.6866 0.7028 0.1860
vn 0.6755 0.3133 0.6675
vn 0.6684 0.6398 0.3792
vn 0.6806 0.7319 0.0311
vn -0.2913 0.9037 -0.3139
vn -0.3194 0.9292 0.1859
vn -0.5320 0.7289 -0.4308
vn 0.3194 0.9292 0.1859
s off
f 1//1 31//1 30//1
f 72//2 44//2 38//2
f 79//1 45//1 44//1
f 2//1 46//1 31//1
f 58//3 28//3 57//3
f 52//3 29//3 58//3
f 30//1 64//1 63//1
f 38//4 15//4 9//4
f 44//1 16//1 15//1
f 31//1 83//1 64//1
f 94//5 52//5 60//5
f 46//5 94//5 60//5
f 99//3 57//3 97//3
f 90//3 58//3 99//3
f 59//6 38//6 41//6
f 59//6 35//6 30//6
f 59//6 36//6 35//6
f 59//6 33//6 36//6
f 59//6 34//6 33//6
f 59//6 37//6 34//6
f 59//6 32//6 37//6
f 59//6 43//6 32//6
f 59//6 40//6 43//6
f 59//6 42//6 40//6
f 59//6 39//6 42//6
f 59//6 41//6 39//6
f 59//7 63//7 130//7
f 59//7 72//7 38//7
f 60//8 47//8 46//8
f 60//8 51//8 47//8
f 60//8 49//8 51//8
f 60//8 50//8 49//8
f 60//8 48//8 50//8
f 60//8 55//8 48//8
f 60//8 56//8 55//8
f 60//8 53//8 56//8
f 60//8 54//8 53//8
f 60//8 52//8 54//8
f 101//1 61//1 100//1
f 114//2 72//2 108//2
f 115//1 79//1 114//1
f 116//1 62//1 101//1
f 128//3 96//3 98//3
f 122//3 98//3 89//3
f 64//1 100//1 63//1
f 78//4 108//4 71//4
f 80//1 114//1 78//1
f 83//1 101//1 64//1
f 122//5 94//5 131//5
f 94//5 116//5 131//5
f 99//3 127//3 128//3
f 90//3 128//3 122//3
f 129//8 111//8 108//8
f 129//8 100//8 105//8
f 129//8 105//8 106//8
f 129//8 106//8 103//8
f 129//8 103//8 104//8
f 129//8 104//8 107//8
f 129//8 107//8 102//8
f 129//8 102//8 113//8
f 129//8 113//8 110//8
f 129//8 110//8 112//8
f 129//8 112//8 109//8
f 129//8 109//8 111//8
f 129//7 63//7 100//7
f 72//7 129//7 108//7
f 131//6 116//6 117//6
f 131//6 117//6 121//6
f 131//6 121//6 119//6
f 131//6 119//6 120//6
f 131//6 120//6 118//6
f 131//6 118//6 125//6
f 131//6 125//6 126//6
f 131//6 126//6 123//6
f 131//6 123//6 124//6
f 131//6 124//6 122//6
f 1//1 2//1 31//1
f 72//9 79//9 44//9
f 79//1 81//1 45//1
f 2//1 17//1 46//1
f 58//3 29//3 28//3
f 52//3 23//3 29//3
f 30//1 31//1 64//1
f 38//10 44//10 15//10
f 44//1 45//1 16//1
f 31//1 46//1 83//1
f 94//5 90//5 52//5
f 46//5 83//5 94//5
f 99//3 58//3 57//3
f 90//3 52//3 58//3
f 59//7 30//7 63//7
f 59//7 130//7 72//7
f 101//1 62//1 61//1
f 114//11 79//11 72//11
f 115//1 81//1 79//1
f 116//1 82//1 62//1
f 128//3 127//3 96//3
f 122//3 128//3 98//3
f 64//1 101//1 100//1
f 78//12 114//12 108//12
f 80//1 115//1 114//1
f 83//1 116//1 101//1
f 122//5 90//5 94//5
f 94//5 83//5 116//5
f 99//3 97//3 127//3
f 90//3 99//3 128//3
f 129//7 130//7 63//7
f 72//7 130//7 129//7
s 1
f 17//13 47//14 46//15
f 21//16 48//17 50//18
f 22//19 49//20 51//21
f 20//22 50//18 49//20
f 18//23 51//21 47//14
f 54//24 23//25 52//26
f 56//27 24//28 53//29
f 53//29 25//30 54//24
f 48//17 26//31 55//32
f 55//32 27//33 56//27
f 37//34 3//35 8//36
f 7//37 33//38 4//39
f 4//39 34//40 5//41
f 1//42 35//43 6//44
f 6//44 36//45 7//37
f 5//41 37//34 8//36
f 41//46 9//47 12//48
f 42//49 10//50 13//51
f 43//52 11//53 14//54
f 39//55 12//48 10//50
f 40//56 13//51 11//53
f 32//57 14//54 3//35
f 117//58 82//13 116//59
f 118//60 87//16 120//61
f 119//62 88//19 121//63
f 120//61 86//22 119//62
f 121//63 84//23 117//58
f 124//64 89//25 92//30
f 126//65 91//28 95//33
f 123//66 92//30 91//28
f 118//60 93//31 85//67
f 125//68 95//33 93//31
f 65//35 107//69 70//36
f 69//37 103//70 106//71
f 66//39 104//72 103//70
f 61//73 105//74 100//75
f 68//44 106//71 105//74
f 67//41 107//69 104//72
f 71//47 111//76 75//48
f 73//50 112//77 76//51
f 74//53 113//78 77//54
f 75//48 109//79 73//50
f 76//51 110//80 74//53
f 77//54 102//81 65//35
f 17//13 18//23 47//14
f 21//16 19//67 48//17
f 22//19 20//22 49//20
f 20//22 21//16 50//18
f 18//23 22//19 51//21
f 54//24 25//30 23//25
f 56//27 27//33 24//28
f 53//29 24//28 25//30
f 48//17 19//67 26//31
f 55//32 26//31 27//33
f 37//34 32//57 3//35
f 7//37 36//45 33//38
f 4//39 33//38 34//40
f 1//42 30//82 35//43
f 6//44 35//43 36//45
f 5//41 34//40 37//34
f 41//46 38//83 9//47
f 42//49 39//55 10//50
f 43//52 40//56 11//53
f 39//55 41//46 12//48
f 40//56 42//49 13//51
f 32//57 43//52 14//54
f 117//58 84//23 82//13
f 118//60 85//67 87//16
f 119//62 86//22 88//19
f 120//61 87//16 86//22
f 121//63 88//19 84//23
f 124//64 122//84 89//25
f 126//65 123//66 91//28
f 123//66 124//64 92//30
f 118//60 125//68 93//31
f 125//68 126//65 95//33
f 65//35 102//81 107//69
f 69//37 66//39 103//70
f 66//39 67//41 104//72
f 61//73 68//44 105//74
f 68//44 69//37 106//71
f 67//41 70//36 107//69
f 71//47 108//85 111//76
f 73//50 109//79 112//77
f 74//53 110//80 113//78
f 75//48 111//76 109//79
f 76//51 112//77 110//80
f 77//54 113//78 102//81
