# Blender v2.79 (sub 0) OBJ File: 'm3_interior.blend'
# www.blender.org
o Inner_Headlight_Lamp_Sphere.001
v 0.870435 -0.144232 4.102110
v 0.865300 -0.147663 4.102110
v 0.861869 -0.152798 4.102110
v 0.860664 -0.158855 4.102110
v 0.861869 -0.164912 4.102110
v 0.865300 -0.170046 4.102110
v 0.870435 -0.173477 4.102110
v 0.870896 -0.144232 4.099792
v 0.866152 -0.147663 4.097827
v 0.862982 -0.152798 4.096514
v 0.861869 -0.158855 4.096053
v 0.862982 -0.164912 4.096514
v 0.866152 -0.170046 4.097827
v 0.870896 -0.173477 4.099792
v 0.872209 -0.144232 4.097827
v 0.868578 -0.147663 4.094196
v 0.866152 -0.152798 4.091770
v 0.865300 -0.158855 4.090918
v 0.866152 -0.164912 4.091770
v 0.868578 -0.170046 4.094196
v 0.872209 -0.173477 4.097827
v 0.874174 -0.144232 4.096514
v 0.872209 -0.147663 4.091770
v 0.870896 -0.152798 4.088600
v 0.870435 -0.158855 4.087487
v 0.870896 -0.164912 4.088600
v 0.872209 -0.170046 4.091770
v 0.874174 -0.173477 4.096514
v 0.876492 -0.144232 4.096053
v 0.876492 -0.147663 4.090918
v 0.876492 -0.152798 4.087487
v 0.876492 -0.158855 4.086282
v 0.876492 -0.164912 4.087487
v 0.876492 -0.170046 4.090918
v 0.876492 -0.173477 4.096053
v 0.876492 -0.143027 4.102110
v 0.878810 -0.144232 4.096514
v 0.880775 -0.147663 4.091770
v 0.882088 -0.152798 4.088600
v 0.882549 -0.158855 4.087487
v 0.882088 -0.164912 4.088600
v 0.880775 -0.170046 4.091770
v 0.878810 -0.173477 4.096514
v 0.880775 -0.144232 4.097827
v 0.884406 -0.147663 4.094196
v 0.886832 -0.152798 4.091770
v 0.887684 -0.158855 4.090918
v 0.886832 -0.164912 4.091770
v 0.884406 -0.170046 4.094196
v 0.880775 -0.173477 4.097827
v 0.882088 -0.144232 4.099792
v 0.886832 -0.147663 4.097827
v 0.890002 -0.152798 4.096514
v 0.891115 -0.158855 4.096053
v 0.890002 -0.164912 4.096514
v 0.886832 -0.170046 4.097827
v 0.882088 -0.173477 4.099792
v 0.882549 -0.144232 4.102110
v 0.887684 -0.147663 4.102110
v 0.891115 -0.152798 4.102110
v 0.892320 -0.158855 4.102110
v 0.891115 -0.164912 4.102110
v 0.887684 -0.170046 4.102110
v 0.882549 -0.173477 4.102110
v 0.882088 -0.144232 4.104428
v 0.886832 -0.147663 4.106393
v 0.890002 -0.152798 4.107706
v 0.891115 -0.158855 4.108167
v 0.890002 -0.164912 4.107706
v 0.886832 -0.170046 4.106393
v 0.882088 -0.173477 4.104428
v 0.880775 -0.144232 4.106393
v 0.884406 -0.147663 4.110024
v 0.886832 -0.152798 4.112450
v 0.887684 -0.158855 4.113302
v 0.886832 -0.164912 4.112450
v 0.884406 -0.170046 4.110024
v 0.880775 -0.173477 4.106393
v 0.878810 -0.144232 4.107706
v 0.880775 -0.147663 4.112450
v 0.882088 -0.152798 4.115620
v 0.882549 -0.158855 4.116733
v 0.882088 -0.164912 4.115620
v 0.880775 -0.170046 4.112450
v 0.878810 -0.173477 4.107706
v 0.876492 -0.144232 4.108167
v 0.876492 -0.147663 4.113302
v 0.876492 -0.152798 4.116733
v 0.876492 -0.158855 4.117938
v 0.876492 -0.164912 4.116733
v 0.876492 -0.170046 4.113302
v 0.876492 -0.173477 4.108167
v 0.874174 -0.144232 4.107706
v 0.872209 -0.147663 4.112450
v 0.870896 -0.152798 4.115620
v 0.870435 -0.158855 4.116733
v 0.870896 -0.164912 4.115620
v 0.872209 -0.170046 4.112450
v 0.874174 -0.173477 4.107706
v 0.876492 -0.174682 4.102110
v 0.872209 -0.144232 4.106393
v 0.868578 -0.147663 4.110024
v 0.866152 -0.152798 4.112450
v 0.865300 -0.158855 4.113302
v 0.866152 -0.164912 4.112450
v 0.868578 -0.170046 4.110024
v 0.872209 -0.173477 4.106393
v 0.870896 -0.144232 4.104428
v 0.866152 -0.147663 4.106393
v 0.862982 -0.152798 4.107706
v 0.861869 -0.158855 4.108167
v 0.862982 -0.164912 4.107706
v 0.866152 -0.170046 4.106393
v 0.870896 -0.173477 4.104428
v -0.870435 -0.144232 4.102110
v -0.865300 -0.147663 4.102110
v -0.861869 -0.152798 4.102110
v -0.860664 -0.158855 4.102110
v -0.861869 -0.164912 4.102110
v -0.865300 -0.170046 4.102110
v -0.870435 -0.173477 4.102110
v -0.870896 -0.144232 4.099792
v -0.866152 -0.147663 4.097827
v -0.862982 -0.152798 4.096514
v -0.861869 -0.158855 4.096053
v -0.862982 -0.164912 4.096514
v -0.866152 -0.170046 4.097827
v -0.870896 -0.173477 4.099792
v -0.872209 -0.144232 4.097827
v -0.868578 -0.147663 4.094196
v -0.866152 -0.152798 4.091770
v -0.865300 -0.158855 4.090918
v -0.866152 -0.164912 4.091770
v -0.868578 -0.170046 4.094196
v -0.872209 -0.173477 4.097827
v -0.874174 -0.144232 4.096514
v -0.872209 -0.147663 4.091770
v -0.870896 -0.152798 4.088600
v -0.870435 -0.158855 4.087487
v -0.870896 -0.164912 4.088600
v -0.872209 -0.170046 4.091770
v -0.874174 -0.173477 4.096514
v -0.876492 -0.144232 4.096053
v -0.876492 -0.147663 4.090918
v -0.876492 -0.152798 4.087487
v -0.876492 -0.158855 4.086282
v -0.876492 -0.164912 4.087487
v -0.876492 -0.170046 4.090918
v -0.876492 -0.173477 4.096053
v -0.876492 -0.143027 4.102110
v -0.878810 -0.144232 4.096514
v -0.880775 -0.147663 4.091770
v -0.882088 -0.152798 4.088600
v -0.882549 -0.158855 4.087487
v -0.882088 -0.164912 4.088600
v -0.880775 -0.170046 4.091770
v -0.878810 -0.173477 4.096514
v -0.880775 -0.144232 4.097827
v -0.884406 -0.147663 4.094196
v -0.886832 -0.152798 4.091770
v -0.887684 -0.158855 4.090918
v -0.886832 -0.164912 4.091770
v -0.884406 -0.170046 4.094196
v -0.880775 -0.173477 4.097827
v -0.882088 -0.144232 4.099792
v -0.886832 -0.147663 4.097827
v -0.890002 -0.152798 4.096514
v -0.891115 -0.158855 4.096053
v -0.890002 -0.164912 4.096514
v -0.886832 -0.170046 4.097827
v -0.882088 -0.173477 4.099792
v -0.882549 -0.144232 4.102110
v -0.887684 -0.147663 4.102110
v -0.891115 -0.152798 4.102110
v -0.892320 -0.158855 4.102110
v -0.891115 -0.164912 4.102110
v -0.887684 -0.170046 4.102110
v -0.882549 -0.173477 4.102110
v -0.882088 -0.144232 4.104428
v -0.886832 -0.147663 4.106393
v -0.890002 -0.152798 4.107706
v -0.891115 -0.158855 4.108167
v -0.890002 -0.164912 4.107706
v -0.886832 -0.170046 4.106393
v -0.882088 -0.173477 4.104428
v -0.880775 -0.144232 4.106393
v -0.884406 -0.147663 4.110024
v -0.886832 -0.152798 4.112450
v -0.887684 -0.158855 4.113302
v -0.886832 -0.164912 4.112450
v -0.884406 -0.170046 4.110024
v -0.880775 -0.173477 4.106393
v -0.878810 -0.144232 4.107706
v -0.880775 -0.147663 4.112450
v -0.882088 -0.152798 4.115620
v -0.882549 -0.158855 4.116733
v -0.882088 -0.164912 4.115620
v -0.880775 -0.170046 4.112450
v -0.878810 -0.173477 4.107706
v -0.876492 -0.144232 4.108167
v -0.876492 -0.147663 4.113302
v -0.876492 -0.152798 4.116733
v -0.876492 -0.158855 4.117938
v -0.876492 -0.164912 4.116733
v -0.876492 -0.170046 4.113302
v -0.876492 -0.173477 4.108167
v -0.874174 -0.144232 4.107706
v -0.872209 -0.147663 4.112450
v -0.870896 -0.152798 4.115620
v -0.870435 -0.158855 4.116733
v -0.870896 -0.164912 4.115620
v -0.872209 -0.170046 4.112450
v -0.874174 -0.173477 4.107706
v -0.876492 -0.174682 4.102110
v -0.872209 -0.144232 4.106393
v -0.868578 -0.147663 4.110024
v -0.866152 -0.152798 4.112450
v -0.865300 -0.158855 4.113302
v -0.866152 -0.164912 4.112450
v -0.868578 -0.170046 4.110024
v -0.872209 -0.173477 4.106393
v -0.870896 -0.144232 4.104428
v -0.866152 -0.147663 4.106393
v -0.862982 -0.152798 4.107706
v -0.861869 -0.158855 4.108167
v -0.862982 -0.164912 4.107706
v -0.866152 -0.170046 4.106393
v -0.870896 -0.173477 4.104428
vn -0.9626 0.1915 -0.1915
vn -0.5521 -0.8265 -0.1098
vn -0.8203 0.5481 -0.1632
vn -0.8203 -0.5481 -0.1632
vn -0.5523 0.8264 -0.1098
vn -0.9626 -0.1915 -0.1915
vn -0.4681 -0.8265 -0.3128
vn -0.6955 0.5481 -0.4646
vn -0.6954 -0.5482 -0.4647
vn -0.4682 0.8264 -0.3128
vn -0.8160 -0.1915 -0.5454
vn -0.8161 0.1915 -0.5453
vn -0.3126 -0.8265 -0.4682
vn -0.4647 0.5481 -0.6955
vn -0.4647 -0.5481 -0.6955
vn -0.3128 0.8264 -0.4681
vn -0.5454 -0.1915 -0.8160
vn -0.5453 0.1915 -0.8161
vn -0.1099 -0.8264 -0.5522
vn -0.1632 0.5481 -0.8203
vn -0.1633 -0.5481 -0.8203
vn -0.1099 0.8264 -0.5522
vn -0.1914 -0.1915 -0.9626
vn -0.1915 0.1914 -0.9626
vn 0.1095 -0.8265 -0.5522
vn 0.1632 0.5481 -0.8203
vn 0.1631 -0.5482 -0.8203
vn 0.1097 0.8265 -0.5522
vn 0.1914 -0.1915 -0.9626
vn 0.1915 0.1914 -0.9626
vn 0.3127 -0.8265 -0.4681
vn 0.4647 0.5481 -0.6955
vn 0.4647 -0.5481 -0.6955
vn 0.3129 0.8264 -0.4681
vn 0.5454 -0.1915 -0.8160
vn 0.5453 0.1914 -0.8161
vn 0.4681 -0.8265 -0.3128
vn 0.6954 0.5481 -0.4647
vn 0.6954 -0.5482 -0.4647
vn 0.4682 0.8264 -0.3128
vn 0.8160 -0.1915 -0.5454
vn 0.8161 0.1914 -0.5452
vn 0.5522 -0.8265 -0.1098
vn 0.8203 0.5481 -0.1632
vn 0.8203 -0.5482 -0.1632
vn 0.5523 0.8264 -0.1098
vn 0.9626 -0.1915 -0.1915
vn 0.9626 0.1914 -0.1915
vn 0.5522 -0.8265 0.1098
vn 0.8203 0.5481 0.1632
vn 0.8203 -0.5481 0.1632
vn 0.5523 0.8264 0.1098
vn 0.9626 -0.1915 0.1915
vn 0.9626 0.1914 0.1915
vn 0.4680 -0.8265 0.3128
vn 0.6955 0.5481 0.4646
vn 0.6954 -0.5481 0.4647
vn 0.4682 0.8264 0.3128
vn 0.8161 -0.1914 0.5453
vn 0.8161 0.1914 0.5452
vn 0.3126 -0.8265 0.4681
vn 0.4646 0.5482 0.6955
vn 0.4647 -0.5481 0.6954
vn 0.3128 0.8264 0.4681
vn 0.5454 -0.1914 0.8160
vn 0.5453 0.1915 0.8161
vn 0.1099 -0.8264 0.5522
vn 0.1632 0.5481 0.8203
vn 0.1631 -0.5482 0.8203
vn 0.1097 0.8265 0.5522
vn 0.1914 -0.1915 0.9626
vn 0.1915 0.1914 0.9626
vn -0.1099 -0.8264 0.5522
vn -0.1631 0.5482 0.8203
vn -0.1633 -0.5481 0.8203
vn -0.1097 0.8265 0.5522
vn -0.1914 -0.1915 0.9626
vn -0.1915 0.1914 0.9626
vn -0.3126 -0.8265 0.4682
vn -0.4646 0.5481 0.6955
vn -0.4647 -0.5481 0.6955
vn -0.3128 0.8264 0.4681
vn -0.5453 -0.1915 0.8161
vn -0.5453 0.1915 0.8161
vn -0.4680 -0.8265 0.3128
vn -0.6955 0.5481 0.4646
vn -0.6954 -0.5481 0.4647
vn -0.4682 0.8264 0.3128
vn -0.8161 -0.1914 0.5453
vn -0.8161 0.1915 0.5453
vn -0.1949 -0.9801 -0.0388
vn -0.1949 0.9801 -0.0388
vn -0.1653 -0.9800 -0.1104
vn -0.1653 0.9800 -0.1104
vn -0.1104 -0.9800 -0.1653
vn -0.1104 0.9800 -0.1653
vn -0.0387 -0.9800 -0.1950
vn -0.0387 0.9800 -0.1950
vn 0.0387 -0.9800 -0.1949
vn 0.0387 0.9800 -0.1949
vn 0.1105 -0.9800 -0.1653
vn 0.1105 0.9800 -0.1653
vn 0.1653 -0.9800 -0.1104
vn 0.1653 0.9800 -0.1104
vn 0.1949 -0.9801 -0.0388
vn 0.1949 0.9801 -0.0388
vn 0.1949 -0.9801 0.0388
vn 0.1949 0.9801 0.0388
vn 0.1653 -0.9800 0.1104
vn 0.1653 0.9800 0.1104
vn 0.1104 -0.9801 0.1653
vn 0.1104 0.9801 0.1653
vn 0.0387 -0.9800 0.1949
vn 0.0387 0.9800 0.1949
vn -0.0387 -0.9800 0.1950
vn -0.0387 0.9800 0.1950
vn -0.1104 -0.9801 0.1653
vn -0.1104 0.9801 0.1653
vn -0.1653 -0.9800 0.1104
vn -0.1653 0.9800 0.1104
vn -0.5521 -0.8265 0.1098
vn -0.8203 0.5482 0.1632
vn -0.8204 -0.5481 0.1632
vn -0.5523 0.8264 0.1098
vn -0.9626 -0.1915 0.1915
vn -0.1949 -0.9801 0.0388
vn -0.1949 0.9801 0.0388
vn -0.9626 0.1914 0.1915
vn 0.9626 0.1915 -0.1915
vn 0.5521 -0.8265 -0.1098
vn 0.8203 -0.5481 -0.1632
vn 0.5521 0.8265 -0.1098
vn 0.6955 0.5481 -0.4646
vn 0.6954 -0.5481 -0.4647
vn 0.4681 0.8265 -0.3128
vn 0.8161 -0.1915 -0.5453
vn 0.8161 0.1915 -0.5453
vn 0.3126 -0.8265 -0.4682
vn 0.3128 0.8264 -0.4681
vn 0.5453 -0.1915 -0.8161
vn 0.5453 0.1915 -0.8161
vn 0.1099 -0.8264 -0.5522
vn 0.1633 0.5481 -0.8203
vn 0.1633 -0.5481 -0.8203
vn 0.1099 0.8264 -0.5522
vn 0.1914 0.1915 -0.9626
vn -0.1095 -0.8265 -0.5522
vn -0.1631 0.5482 -0.8203
vn -0.1631 -0.5482 -0.8203
vn -0.1097 0.8265 -0.5522
vn -0.1915 -0.1914 -0.9626
vn -0.3127 -0.8265 -0.4682
vn -0.3127 0.8265 -0.4681
vn -0.4682 -0.8264 -0.3128
vn -0.6954 0.5482 -0.4647
vn -0.8160 0.1915 -0.5454
vn -0.5523 -0.8264 -0.1098
vn -0.9626 0.1914 -0.1915
vn -0.5522 -0.8265 0.1098
vn -0.8203 0.5481 0.1632
vn -0.8203 -0.5481 0.1632
vn -0.5522 0.8265 0.1098
vn -0.9626 0.1915 0.1915
vn -0.6955 -0.5481 0.4646
vn -0.4680 0.8265 0.3128
vn -0.8161 0.1914 0.5453
vn -0.3126 -0.8265 0.4681
vn -0.4646 0.5482 0.6955
vn -0.4647 -0.5481 0.6954
vn -0.5454 -0.1914 0.8160
vn -0.5454 0.1914 0.8160
vn -0.1632 0.5481 0.8203
vn -0.1099 0.8264 0.5522
vn -0.1914 0.1915 0.9626
vn 0.1097 -0.8265 0.5522
vn 0.1631 0.5481 0.8203
vn 0.1631 -0.5481 0.8203
vn 0.1915 -0.1914 0.9626
vn 0.3128 -0.8264 0.4681
vn 0.4646 0.5481 0.6955
vn 0.4647 -0.5481 0.6955
vn 0.5453 -0.1915 0.8161
vn 0.4682 -0.8264 0.3128
vn 0.6954 0.5481 0.4647
vn 0.8161 -0.1915 0.5453
vn 0.8161 0.1915 0.5453
vn 0.1104 -0.9800 -0.1653
vn 0.1104 0.9800 -0.1653
vn 0.0387 -0.9800 -0.1950
vn 0.0387 0.9800 -0.1950
vn -0.0387 -0.9800 -0.1949
vn -0.0387 0.9800 -0.1949
vn -0.1105 -0.9800 -0.1653
vn -0.1105 0.9800 -0.1653
vn -0.0387 -0.9800 0.1949
vn -0.0387 0.9800 0.1949
vn 0.0387 -0.9800 0.1950
vn 0.0387 0.9800 0.1950
vn 0.5523 -0.8264 0.1098
vn 0.8203 0.5482 0.1632
vn 0.8203 -0.5482 0.1632
vn 0.9626 0.1915 0.1915
vn -0.5521 0.8265 -0.1098
vn -0.6955 -0.5481 -0.4646
vn -0.4681 0.8265 -0.3128
vn -0.8161 -0.1915 -0.5453
vn -0.3129 -0.8264 -0.4681
vn -0.3127 0.8265 -0.4682
vn -0.5453 -0.1915 -0.8161
vn -0.5454 0.1915 -0.8160
vn -0.1097 -0.8265 -0.5522
vn -0.1631 0.5481 -0.8203
vn -0.1631 -0.5481 -0.8203
vn -0.1095 0.8265 -0.5522
vn -0.1914 0.1915 -0.9626
vn 0.1631 0.5482 -0.8203
vn 0.1632 -0.5481 -0.8203
vn 0.1915 -0.1914 -0.9626
vn 0.3128 -0.8264 -0.4681
vn 0.3126 0.8265 -0.4681
vn 0.5453 -0.1914 -0.8161
vn 0.5454 0.1915 -0.8160
vn 0.4682 -0.8264 -0.3128
vn 0.6955 -0.5481 -0.4646
vn 0.8161 -0.1914 -0.5452
vn 0.8160 0.1915 -0.5454
vn 0.5523 -0.8264 -0.1098
vn 0.8203 0.5482 -0.1632
vn 0.5522 0.8265 -0.1098
vn 0.5522 0.8265 0.1098
vn 0.9626 -0.1914 0.1915
vn 0.6955 -0.5481 0.4646
vn 0.4680 0.8265 0.3128
vn 0.8160 0.1915 0.5454
vn 0.4647 0.5481 0.6955
vn 0.4646 -0.5481 0.6955
vn 0.3126 0.8265 0.4682
vn 0.5454 0.1914 0.8160
vn 0.1631 0.5482 0.8203
vn 0.1632 -0.5481 0.8203
vn 0.1099 0.8264 0.5522
vn 0.1914 0.1915 0.9626
vn -0.1097 -0.8265 0.5522
vn -0.1633 0.5481 0.8203
vn -0.1631 -0.5481 0.8203
vn -0.1915 -0.1914 0.9626
vn -0.3128 -0.8264 0.4681
vn -0.4647 0.5481 0.6954
vn -0.4646 -0.5482 0.6955
vn -0.3126 0.8265 0.4682
vn -0.4682 -0.8264 0.3128
vn -0.6954 0.5481 0.4647
vn -0.8161 -0.1915 0.5453
vn -0.5523 -0.8264 0.1098
vn -0.8204 0.5481 0.1632
vn -0.8203 -0.5482 0.1632
vn -0.5521 0.8265 0.1098
vn 0.6954 0.5482 -0.4647
vn 0.3129 -0.8264 -0.4681
vn 0.3127 0.8265 -0.4681
vn 0.1097 -0.8265 -0.5522
vn 0.1631 0.5481 -0.8203
vn 0.1631 -0.5481 -0.8203
vn 0.1095 0.8265 -0.5522
vn -0.1632 -0.5481 -0.8203
vn -0.3128 -0.8264 -0.4681
vn -0.5453 -0.1914 -0.8161
vn -0.5454 0.1914 -0.8160
vn -0.8161 -0.1914 -0.5452
vn -0.8161 0.1914 -0.5452
vn -0.5522 -0.8265 -0.1098
vn -0.8203 0.5482 -0.1632
vn -0.8203 -0.5482 -0.1632
vn -0.5522 0.8265 -0.1098
vn -0.9626 -0.1914 0.1915
vn -0.4647 0.5481 0.6955
vn -0.4646 -0.5481 0.6955
vn -0.1631 -0.5482 0.8203
vn 0.1633 0.5481 0.8203
vn 0.1633 -0.5481 0.8203
vn 0.3126 -0.8265 0.4682
vn 0.4647 0.5481 0.6954
vn 0.4646 -0.5482 0.6955
vn 0.8161 0.1914 0.5453
vn 0.5521 -0.8265 0.1098
vn 0.8204 0.5481 0.1632
vn 0.8204 -0.5481 0.1632
vn 0.5521 0.8265 0.1098
s off
f 3//1 11//1 4//1
f 6//2 14//2 7//2
f 3//3 9//3 10//3
f 5//4 13//4 6//4
f 2//5 8//5 9//5
f 4//6 12//6 5//6
f 13//7 21//7 14//7
f 9//8 17//8 10//8
f 13//9 19//9 20//9
f 9//10 15//10 16//10
f 12//11 18//11 19//11
f 10//12 18//12 11//12
f 20//13 28//13 21//13
f 16//14 24//14 17//14
f 20//15 26//15 27//15
f 15//16 23//16 16//16
f 19//17 25//17 26//17
f 17//18 25//18 18//18
f 27//19 35//19 28//19
f 23//20 31//20 24//20
f 26//21 34//21 27//21
f 22//22 30//22 23//22
f 25//23 33//23 26//23
f 25//24 31//24 32//24
f 34//25 43//25 35//25
f 31//26 38//26 39//26
f 33//27 42//27 34//27
f 29//28 38//28 30//28
f 33//29 40//29 41//29
f 31//30 40//30 32//30
f 42//31 50//31 43//31
f 39//32 45//32 46//32
f 41//33 49//33 42//33
f 37//34 45//34 38//34
f 40//35 48//35 41//35
f 40//36 46//36 47//36
f 50//37 56//37 57//37
f 45//38 53//38 46//38
f 48//39 56//39 49//39
f 44//40 52//40 45//40
f 47//41 55//41 48//41
f 47//42 53//42 54//42
f 57//43 63//43 64//43
f 52//44 60//44 53//44
f 56//45 62//45 63//45
f 51//46 59//46 52//46
f 54//47 62//47 55//47
f 53//48 61//48 54//48
f 63//49 71//49 64//49
f 60//50 66//50 67//50
f 62//51 70//51 63//51
f 59//52 65//52 66//52
f 61//53 69//53 62//53
f 61//54 67//54 68//54
f 70//55 78//55 71//55
f 66//56 74//56 67//56
f 70//57 76//57 77//57
f 66//58 72//58 73//58
f 68//59 76//59 69//59
f 67//60 75//60 68//60
f 77//61 85//61 78//61
f 73//62 81//62 74//62
f 76//63 84//63 77//63
f 72//64 80//64 73//64
f 75//65 83//65 76//65
f 75//66 81//66 82//66
f 84//67 92//67 85//67
f 80//68 88//68 81//68
f 84//69 90//69 91//69
f 80//70 86//70 87//70
f 82//71 90//71 83//71
f 82//72 88//72 89//72
f 92//73 98//73 99//73
f 87//74 95//74 88//74
f 91//75 97//75 98//75
f 86//76 94//76 87//76
f 90//77 96//77 97//77
f 88//78 96//78 89//78
f 99//79 106//79 107//79
f 94//80 103//80 95//80
f 97//81 106//81 98//81
f 93//82 102//82 94//82
f 96//83 105//83 97//83
f 95//84 104//84 96//84
f 107//85 113//85 114//85
f 103//86 109//86 110//86
f 105//87 113//87 106//87
f 101//88 109//88 102//88
f 105//89 111//89 112//89
f 103//90 111//90 104//90
f 100//91 7//91 14//91
f 1//92 36//92 8//92
f 100//93 14//93 21//93
f 8//94 36//94 15//94
f 100//95 21//95 28//95
f 15//96 36//96 22//96
f 100//97 28//97 35//97
f 22//98 36//98 29//98
f 100//99 35//99 43//99
f 29//100 36//100 37//100
f 100//101 43//101 50//101
f 37//102 36//102 44//102
f 100//103 50//103 57//103
f 44//104 36//104 51//104
f 100//105 57//105 64//105
f 51//106 36//106 58//106
f 100//107 64//107 71//107
f 58//108 36//108 65//108
f 100//109 71//109 78//109
f 65//110 36//110 72//110
f 100//111 78//111 85//111
f 72//112 36//112 79//112
f 100//113 85//113 92//113
f 79//114 36//114 86//114
f 100//115 92//115 99//115
f 86//116 36//116 93//116
f 100//117 99//117 107//117
f 93//118 36//118 101//118
f 100//119 107//119 114//119
f 101//120 36//120 108//120
f 114//121 6//121 7//121
f 109//122 3//122 110//122
f 113//123 5//123 6//123
f 108//124 2//124 109//124
f 111//125 5//125 112//125
f 100//126 114//126 7//126
f 108//127 36//127 1//127
f 110//128 4//128 111//128
f 125//129 117//129 118//129
f 128//130 120//130 121//130
f 117//44 123//44 116//44
f 127//131 119//131 120//131
f 116//132 122//132 115//132
f 126//47 118//47 119//47
f 135//37 127//37 128//37
f 131//133 123//133 124//133
f 134//134 126//134 127//134
f 130//135 122//135 123//135
f 126//136 132//136 125//136
f 132//137 124//137 125//137
f 142//138 134//138 135//138
f 138//32 130//32 131//32
f 134//33 140//33 133//33
f 137//139 129//139 130//139
f 133//140 139//140 132//140
f 139//141 131//141 132//141
f 149//142 141//142 142//142
f 138//143 144//143 137//143
f 148//144 140//144 141//144
f 144//145 136//145 137//145
f 147//29 139//29 140//29
f 139//146 145//146 138//146
f 157//147 148//147 149//147
f 145//148 152//148 144//148
f 156//149 147//149 148//149
f 152//150 143//150 144//150
f 147//151 154//151 146//151
f 154//24 145//24 146//24
f 164//152 156//152 157//152
f 153//14 159//14 152//14
f 163//15 155//15 156//15
f 152//153 158//153 151//153
f 162//17 154//17 155//17
f 161//18 153//18 154//18
f 171//154 163//154 164//154
f 160//155 166//155 159//155
f 170//9 162//9 163//9
f 166//10 158//10 159//10
f 169//11 161//11 162//11
f 161//156 167//156 160//156
f 171//157 177//157 170//157
f 174//3 166//3 167//3
f 170//4 176//4 169//4
f 173//5 165//5 166//5
f 176//6 168//6 169//6
f 175//158 167//158 168//158
f 185//159 177//159 178//159
f 174//160 180//160 173//160
f 184//161 176//161 177//161
f 173//162 179//162 172//162
f 183//125 175//125 176//125
f 182//163 174//163 175//163
f 192//85 184//85 185//85
f 188//86 180//86 181//86
f 184//164 190//164 183//164
f 180//165 186//165 179//165
f 190//89 182//89 183//89
f 182//166 188//166 181//166
f 199//167 191//167 192//167
f 195//168 187//168 188//168
f 198//169 190//169 191//169
f 194//82 186//82 187//82
f 197//170 189//170 190//170
f 196//171 188//171 189//171
f 206//73 198//73 199//73
f 202//172 194//172 195//172
f 205//75 197//75 198//75
f 194//173 200//173 193//173
f 204//77 196//77 197//77
f 196//174 202//174 195//174
f 206//175 212//175 205//175
f 209//176 201//176 202//176
f 205//177 211//177 204//177
f 208//70 200//70 201//70
f 204//178 210//178 203//178
f 210//72 202//72 203//72
f 213//179 220//179 212//179
f 217//180 208//180 209//180
f 220//181 211//181 212//181
f 216//64 207//64 208//64
f 219//182 210//182 211//182
f 210//66 217//66 209//66
f 221//183 227//183 220//183
f 217//184 223//184 216//184
f 227//57 219//57 220//57
f 223//58 215//58 216//58
f 219//185 225//185 218//185
f 225//186 217//186 218//186
f 214//105 128//105 121//105
f 115//106 122//106 150//106
f 214//103 135//103 128//103
f 122//104 129//104 150//104
f 214//187 142//187 135//187
f 129//188 136//188 150//188
f 214//189 149//189 142//189
f 136//190 143//190 150//190
f 214//191 157//191 149//191
f 143//192 151//192 150//192
f 214//193 164//193 157//193
f 151//194 158//194 150//194
f 214//93 171//93 164//93
f 158//94 165//94 150//94
f 214//91 178//91 171//91
f 165//92 172//92 150//92
f 214//126 185//126 178//126
f 172//127 179//127 150//127
f 214//119 192//119 185//119
f 179//120 186//120 150//120
f 214//117 199//117 192//117
f 186//118 193//118 150//118
f 214//195 206//195 199//195
f 193//196 200//196 150//196
f 214//197 213//197 206//197
f 200//198 207//198 150//198
f 214//111 221//111 213//111
f 207//112 215//112 150//112
f 214//109 228//109 221//109
f 215//110 222//110 150//110
f 228//199 120//199 227//199
f 117//200 223//200 224//200
f 227//201 119//201 226//201
f 116//52 222//52 223//52
f 119//53 225//53 226//53
f 214//107 121//107 228//107
f 222//108 115//108 150//108
f 118//202 224//202 225//202
f 3//1 10//1 11//1
f 6//157 13//157 14//157
f 3//3 2//3 9//3
f 5//4 12//4 13//4
f 2//203 1//203 8//203
f 4//6 11//6 12//6
f 13//154 20//154 21//154
f 9//155 16//155 17//155
f 13//204 12//204 19//204
f 9//205 8//205 15//205
f 12//206 11//206 18//206
f 10//156 17//156 18//156
f 20//207 27//207 28//207
f 16//14 23//14 24//14
f 20//15 19//15 26//15
f 15//208 22//208 23//208
f 19//209 18//209 25//209
f 17//210 24//210 25//210
f 27//211 34//211 35//211
f 23//212 30//212 31//212
f 26//213 33//213 34//213
f 22//214 29//214 30//214
f 25//151 32//151 33//151
f 25//215 24//215 31//215
f 34//142 42//142 43//142
f 31//216 30//216 38//216
f 33//217 41//217 42//217
f 29//145 37//145 38//145
f 33//218 32//218 40//218
f 31//146 39//146 40//146
f 42//219 49//219 50//219
f 39//32 38//32 45//32
f 41//33 48//33 49//33
f 37//220 44//220 45//220
f 40//221 47//221 48//221
f 40//222 39//222 46//222
f 50//223 49//223 56//223
f 45//38 52//38 53//38
f 48//224 55//224 56//224
f 44//135 51//135 52//135
f 47//225 54//225 55//225
f 47//226 46//226 53//226
f 57//227 56//227 63//227
f 52//228 59//228 60//228
f 56//131 55//131 62//131
f 51//229 58//229 59//229
f 54//47 61//47 62//47
f 53//129 60//129 61//129
f 63//199 70//199 71//199
f 60//50 59//50 66//50
f 62//51 69//51 70//51
f 59//230 58//230 65//230
f 61//231 68//231 69//231
f 61//202 60//202 67//202
f 70//183 77//183 78//183
f 66//184 73//184 74//184
f 70//232 69//232 76//232
f 66//233 65//233 72//233
f 68//185 75//185 76//185
f 67//234 74//234 75//234
f 77//179 84//179 85//179
f 73//235 80//235 81//235
f 76//236 83//236 84//236
f 72//237 79//237 80//237
f 75//182 82//182 83//182
f 75//238 74//238 81//238
f 84//175 91//175 92//175
f 80//239 87//239 88//239
f 84//240 83//240 90//240
f 80//241 79//241 86//241
f 82//178 89//178 90//178
f 82//242 81//242 88//242
f 92//243 91//243 98//243
f 87//244 94//244 95//244
f 91//245 90//245 97//245
f 86//173 93//173 94//173
f 90//246 89//246 96//246
f 88//174 95//174 96//174
f 99//247 98//247 106//247
f 94//248 102//248 103//248
f 97//249 105//249 106//249
f 93//250 101//250 102//250
f 96//170 104//170 105//170
f 95//171 103//171 104//171
f 107//251 106//251 113//251
f 103//252 102//252 109//252
f 105//164 112//164 113//164
f 101//165 108//165 109//165
f 105//253 104//253 111//253
f 103//166 110//166 111//166
f 114//254 113//254 6//254
f 109//255 2//255 3//255
f 113//256 112//256 5//256
f 108//257 1//257 2//257
f 111//125 4//125 5//125
f 110//163 3//163 4//163
f 125//129 124//129 117//129
f 128//227 127//227 120//227
f 117//44 124//44 123//44
f 127//131 126//131 119//131
f 116//46 123//46 122//46
f 126//47 125//47 118//47
f 135//223 134//223 127//223
f 131//258 130//258 123//258
f 134//39 133//39 126//39
f 130//40 129//40 122//40
f 126//41 133//41 132//41
f 132//226 131//226 124//226
f 142//259 141//259 134//259
f 138//32 137//32 130//32
f 134//33 141//33 140//33
f 137//260 136//260 129//260
f 133//35 140//35 139//35
f 139//222 138//222 131//222
f 149//261 148//261 141//261
f 138//262 145//262 144//262
f 148//263 147//263 140//263
f 144//264 143//264 136//264
f 147//218 146//218 139//218
f 139//30 146//30 145//30
f 157//19 156//19 148//19
f 145//20 153//20 152//20
f 156//265 155//265 147//265
f 152//22 151//22 143//22
f 147//23 155//23 154//23
f 154//215 153//215 145//215
f 164//266 163//266 156//266
f 153//14 160//14 159//14
f 163//15 162//15 155//15
f 152//16 159//16 158//16
f 162//267 161//267 154//267
f 161//268 160//268 153//268
f 171//7 170//7 163//7
f 160//8 167//8 166//8
f 170//204 169//204 162//204
f 166//205 165//205 158//205
f 169//269 168//269 161//269
f 161//270 168//270 167//270
f 171//271 178//271 177//271
f 174//272 173//272 166//272
f 170//273 177//273 176//273
f 173//274 172//274 165//274
f 176//6 175//6 168//6
f 175//1 174//1 167//1
f 185//254 184//254 177//254
f 174//160 181//160 180//160
f 184//161 183//161 176//161
f 173//124 180//124 179//124
f 183//275 182//275 175//275
f 182//163 181//163 174//163
f 192//251 191//251 184//251
f 188//252 187//252 180//252
f 184//87 191//87 190//87
f 180//88 187//88 186//88
f 190//253 189//253 182//253
f 182//90 189//90 188//90
f 199//247 198//247 191//247
f 195//276 194//276 187//276
f 198//277 197//277 190//277
f 194//250 193//250 186//250
f 197//83 196//83 189//83
f 196//84 195//84 188//84
f 206//243 205//243 198//243
f 202//74 201//74 194//74
f 205//278 204//278 197//278
f 194//76 201//76 200//76
f 204//246 203//246 196//246
f 196//78 203//78 202//78
f 206//67 213//67 212//67
f 209//279 208//279 201//279
f 205//280 212//280 211//280
f 208//241 207//241 200//241
f 204//71 211//71 210//71
f 210//242 209//242 202//242
f 213//281 221//281 220//281
f 217//282 216//282 208//282
f 220//283 219//283 211//283
f 216//237 215//237 207//237
f 219//65 218//65 210//65
f 210//238 218//238 217//238
f 221//55 228//55 227//55
f 217//56 224//56 223//56
f 227//232 226//232 219//232
f 223//233 222//233 215//233
f 219//59 226//59 225//59
f 225//284 224//284 217//284
f 228//285 121//285 120//285
f 117//286 116//286 223//286
f 227//287 120//287 119//287
f 116//288 115//288 222//288
f 119//53 118//53 225//53
f 118//202 117//202 224//202
