# Blender v2.79 (sub 0) OBJ File: 'm3_interior.blend'
# www.blender.org
o Sub-Headlight_Glass_Cover_Plane.046
v 1.107328 -0.707430 4.292347
v 1.090328 -0.714299 4.298934
v 1.123489 -0.713927 4.286981
v 1.108034 -0.695735 4.290792
v 1.080389 -0.701061 4.300652
v 1.106065 -0.727478 4.294083
v 1.135004 -0.700434 4.280964
v 1.100380 -0.807671 4.289263
v 1.099466 -0.819366 4.286987
v 1.117518 -0.800999 4.284307
v 1.084257 -0.800977 4.296260
v 1.072430 -0.814329 4.297155
v 1.127216 -0.814378 4.277469
v 1.101897 -0.787623 4.292232
v 1.162462 -0.757241 4.269712
v 1.155650 -0.742983 4.273777
v 1.153732 -0.771581 4.272903
v 1.176033 -0.757169 4.262875
v 1.171760 -0.733641 4.265874
v 1.139146 -0.757365 4.280501
v 1.168603 -0.780758 4.264435
v 1.045246 -0.757860 4.311898
v 1.052095 -0.771921 4.309464
v 1.054114 -0.743717 4.310338
v 1.031468 -0.757932 4.314904
v 1.035674 -0.781122 4.312245
v 1.068816 -0.757736 4.305813
v 1.039001 -0.734681 4.313685
v -1.114472 -0.707430 4.292347
v -1.115179 -0.695735 4.290792
v -1.130633 -0.713927 4.286981
v -1.097472 -0.714299 4.298934
v -1.087533 -0.701061 4.300652
v -1.142148 -0.700434 4.280965
v -1.113210 -0.727478 4.294083
v -1.107525 -0.807671 4.289263
v -1.091402 -0.800977 4.296260
v -1.124663 -0.800999 4.284307
v -1.106611 -0.819366 4.286987
v -1.079574 -0.814329 4.297155
v -1.109041 -0.787623 4.292232
v -1.134360 -0.814378 4.277469
v -1.169606 -0.757241 4.269712
v -1.183178 -0.757169 4.262875
v -1.160877 -0.771581 4.272903
v -1.162795 -0.742983 4.273777
v -1.178904 -0.733641 4.265874
v -1.175748 -0.780758 4.264435
v -1.146290 -0.757365 4.280501
v -1.052391 -0.757860 4.311898
v -1.038612 -0.757932 4.314904
v -1.061258 -0.743717 4.310338
v -1.059240 -0.771921 4.309464
v -1.042818 -0.781122 4.312245
v -1.046146 -0.734681 4.313685
v -1.075961 -0.757736 4.305813
v 1.019401 -0.787831 4.314591
v 1.015682 -0.758015 4.317626
v 1.023684 -0.728137 4.316442
v 1.073349 -0.687793 4.300802
v 1.108804 -0.682370 4.288301
v 1.143564 -0.686971 4.275490
v 1.063509 -0.827680 4.296483
v 1.098383 -0.832731 4.283673
v 1.133952 -0.827758 4.271172
v 1.187671 -0.726820 4.257382
v 1.191505 -0.757086 4.254347
v 1.183617 -0.787414 4.255531
v 1.084335 -0.773464 4.299860
v 1.065850 -0.788277 4.303937
v 1.049901 -0.801003 4.306174
v 1.157508 -0.713591 4.272286
v 1.141900 -0.726500 4.279987
v 1.123654 -0.741525 4.287478
v 1.086564 -0.741833 4.300838
v 1.070188 -0.727203 4.305826
v 1.056050 -0.714635 4.308848
v 1.151616 -0.800973 4.269613
v 1.137727 -0.788221 4.278098
v 1.121482 -0.773380 4.286502
v -1.026546 -0.787831 4.314591
v -1.022826 -0.758015 4.317626
v -1.030828 -0.728137 4.316442
v -1.080493 -0.687793 4.300802
v -1.115948 -0.682370 4.288301
v -1.150708 -0.686971 4.275490
v -1.070653 -0.827680 4.296483
v -1.105527 -0.832731 4.283673
v -1.141097 -0.827758 4.271172
v -1.194816 -0.726820 4.257382
v -1.198649 -0.757086 4.254347
v -1.190762 -0.787414 4.255531
v -1.091480 -0.773464 4.299860
v -1.072995 -0.788277 4.303937
v -1.057045 -0.801003 4.306174
v -1.164653 -0.713591 4.272287
v -1.149045 -0.726500 4.279987
v -1.130798 -0.741525 4.287478
v -1.093708 -0.741833 4.300838
v -1.077332 -0.727203 4.305826
v -1.063195 -0.714635 4.308848
v -1.158761 -0.800973 4.269613
v -1.144872 -0.788221 4.278098
v -1.128627 -0.773380 4.286502
v 1.035218 -0.812686 4.307492
v 1.043032 -0.703097 4.310885
v 1.171797 -0.701740 4.264481
v 1.164327 -0.812680 4.261088
v 1.104041 -0.757550 4.294267
v -1.042363 -0.812686 4.307492
v -1.050176 -0.703097 4.310885
v -1.178942 -0.701740 4.264481
v -1.171471 -0.812680 4.261088
v -1.111185 -0.757550 4.294267
vn 0.3346 0.0884 0.9382
vn 0.2870 0.1192 0.9505
vn 0.3096 0.0706 0.9482
vn 0.2756 0.0337 0.9607
vn 0.3357 0.1525 0.9295
vn 0.3335 0.1328 0.9333
vn 0.2784 0.1361 0.9507
vn 0.2432 0.0767 0.9669
vn 0.3386 0.0210 0.9407
vn 0.3647 0.0644 0.9289
vn 0.3664 -0.0171 0.9303
vn 0.3973 0.0244 0.9174
vn 0.3101 -0.0139 0.9506
vn 0.3382 -0.0523 0.9396
vn 0.3817 0.1096 0.9178
vn 0.4234 0.0605 0.9039
vn 0.3911 0.1213 0.9123
vn 0.3055 -0.1688 0.9371
vn 0.3284 -0.2327 0.9154
vn 0.3319 -0.1889 0.9242
vn 0.2825 -0.2145 0.9350
vn 0.3270 -0.2510 0.9110
vn 0.2733 -0.1309 0.9530
vn 0.2407 -0.1688 0.9558
vn 0.2728 -0.2285 0.9345
vn 0.3601 -0.1693 0.9174
vn 0.3754 -0.2146 0.9017
vn 0.3936 -0.1332 0.9095
vn 0.3826 -0.2279 0.8954
vn 0.4180 -0.1710 0.8922
vn 0.3356 -0.1247 0.9337
vn 0.3088 -0.0880 0.9471
vn 0.3647 -0.0896 0.9268
vn 0.4416 -0.0573 0.8954
vn 0.4568 0.0016 0.8896
vn 0.4256 -0.0208 0.9047
vn 0.4678 -0.0583 0.8819
vn 0.4695 0.0059 0.8829
vn 0.4365 0.0658 0.8973
vn 0.3918 -0.0545 0.9184
vn 0.4238 -0.0913 0.9011
vn 0.4538 -0.1167 0.8834
vn 0.4669 -0.1206 0.8760
vn 0.4821 -0.0578 0.8742
vn 0.4306 -0.1779 0.8848
vn 0.2232 -0.0456 0.9737
vn 0.2026 -0.1087 0.9732
vn 0.2420 -0.0848 0.9666
vn 0.1708 -0.0453 0.9843
vn 0.1885 -0.0444 0.9810
vn 0.2259 -0.1770 0.9579
vn 0.2814 -0.0496 0.9583
vn 0.2430 -0.0093 0.9700
vn 0.2041 0.0203 0.9787
vn 0.1869 0.0259 0.9820
vn 0.2279 0.0870 0.9698
vn -0.3346 0.0884 0.9382
vn -0.2870 0.1192 0.9505
vn -0.3335 0.1328 0.9333
vn -0.3357 0.1525 0.9295
vn -0.2756 0.0337 0.9607
vn -0.3096 0.0706 0.9482
vn -0.2432 0.0767 0.9669
vn -0.2784 0.1361 0.9507
vn -0.3647 0.0644 0.9289
vn -0.3817 0.1096 0.9178
vn -0.3973 0.0244 0.9174
vn -0.3911 0.1213 0.9123
vn -0.4234 0.0605 0.9039
vn -0.3386 0.0210 0.9407
vn -0.3101 -0.0139 0.9506
vn -0.3664 -0.0171 0.9303
vn -0.3382 -0.0523 0.9396
vn -0.3284 -0.2327 0.9154
vn -0.3054 -0.1688 0.9371
vn -0.3320 -0.1889 0.9242
vn -0.2825 -0.2145 0.9350
vn -0.2733 -0.1309 0.9530
vn -0.3270 -0.2510 0.9110
vn -0.2728 -0.2285 0.9345
vn -0.2407 -0.1688 0.9558
vn -0.3356 -0.1247 0.9337
vn -0.3601 -0.1693 0.9174
vn -0.3647 -0.0896 0.9268
vn -0.3936 -0.1332 0.9095
vn -0.3088 -0.0879 0.9471
vn -0.3754 -0.2146 0.9017
vn -0.4180 -0.1710 0.8922
vn -0.3826 -0.2279 0.8954
vn -0.4416 -0.0573 0.8954
vn -0.4568 0.0016 0.8896
vn -0.4678 -0.0583 0.8819
vn -0.4695 0.0059 0.8829
vn -0.4821 -0.0578 0.8742
vn -0.4256 -0.0209 0.9047
vn -0.4365 0.0658 0.8972
vn -0.4538 -0.1167 0.8834
vn -0.4238 -0.0913 0.9011
vn -0.4669 -0.1206 0.8760
vn -0.4306 -0.1779 0.8848
vn -0.3918 -0.0545 0.9184
vn -0.2232 -0.0456 0.9737
vn -0.2026 -0.1087 0.9732
vn -0.1885 -0.0444 0.9810
vn -0.1708 -0.0453 0.9843
vn -0.2420 -0.0848 0.9666
vn -0.2259 -0.1770 0.9579
vn -0.1877 -0.1142 0.9756
vn -0.2041 0.0203 0.9787
vn -0.2430 -0.0093 0.9700
vn -0.1869 0.0259 0.9820
vn -0.2279 0.0870 0.9698
vn -0.2814 -0.0496 0.9583
vn 0.1877 -0.1142 0.9756
s 1
f 1//1 5//2 2//3
f 5//2 76//4 2//3
f 61//5 5//2 4//6
f 60//7 77//8 5//2
f 1//1 6//9 3//10
f 3//10 74//11 73//12
f 2//3 75//13 6//9
f 6//9 109//14 74//11
f 3//10 4//6 1//1
f 7//15 61//5 4//6
f 73//12 7//15 3//10
f 72//16 62//17 7//15
f 11//18 9//19 8//20
f 12//21 64//22 9//19
f 70//23 12//21 11//18
f 71//24 63//25 12//21
f 9//19 10//26 8//20
f 13//27 79//28 10//26
f 64//22 13//27 9//19
f 65//29 78//30 13//27
f 8//20 14//31 11//18
f 11//18 69//32 70//23
f 10//26 80//33 14//31
f 14//31 109//14 69//32
f 15//34 19//35 16//36
f 16//36 72//16 73//12
f 18//37 66//38 19//35
f 19//35 107//39 72//16
f 15//34 20//40 17//41
f 20//40 79//28 17//41
f 73//12 20//40 16//36
f 74//11 80//33 20//40
f 15//34 21//42 18//37
f 18//37 68//43 67//44
f 17//41 78//30 21//42
f 21//42 108//45 68//43
f 22//46 26//47 23//48
f 23//48 71//24 70//23
f 58//49 26//47 25//50
f 26//47 105//51 71//24
f 22//46 27//52 24//53
f 27//52 76//4 24//53
f 70//23 27//52 23//48
f 69//32 75//13 27//52
f 22//46 28//54 25//50
f 25//50 59//55 58//49
f 24//53 77//8 28//54
f 28//54 106//56 59//55
f 29//57 33//58 30//59
f 33//58 85//60 30//59
f 100//61 33//58 32//62
f 101//63 84//64 33//58
f 30//59 31//65 29//57
f 34//66 97//67 31//65
f 85//60 34//66 30//59
f 86//68 96//69 34//66
f 29//57 35//70 32//62
f 32//62 99//71 100//61
f 31//65 98//72 35//70
f 35//70 114//73 99//71
f 39//74 37//75 36//76
f 40//77 94//78 37//75
f 88//79 40//77 39//74
f 87//80 95//81 40//77
f 36//76 41//82 38//83
f 38//83 104//84 103//85
f 37//75 93//86 41//82
f 41//82 114//73 104//84
f 38//83 39//74 36//76
f 42//87 88//79 39//74
f 103//85 42//87 38//83
f 102//88 89//89 42//87
f 43//90 47//91 44//92
f 44//92 90//93 91//94
f 46//95 96//69 47//91
f 47//91 112//96 90//93
f 43//90 48//97 45//98
f 45//98 102//88 103//85
f 44//92 92//99 48//97
f 48//97 113//100 102//88
f 43//90 49//101 46//95
f 49//101 97//67 46//95
f 103//85 49//101 45//98
f 104//84 98//72 49//101
f 50//102 54//103 51//104
f 54//103 82//105 51//104
f 53//106 95//81 54//103
f 54//103 110//107 81//108
f 50//102 55//109 52//110
f 52//110 101//63 100//61
f 51//104 83//111 55//109
f 55//109 111//112 101//63
f 50//102 56//113 53//106
f 56//113 94//78 53//106
f 100//61 56//113 52//110
f 99//71 93//86 56//113
f 1//1 4//6 5//2
f 5//2 77//8 76//4
f 61//5 60//7 5//2
f 60//7 106//56 77//8
f 1//1 2//3 6//9
f 3//10 6//9 74//11
f 2//3 76//4 75//13
f 6//9 75//13 109//14
f 3//10 7//15 4//6
f 7//15 62//17 61//5
f 73//12 72//16 7//15
f 72//16 107//39 62//17
f 11//18 12//21 9//19
f 12//21 63//25 64//22
f 70//23 71//24 12//21
f 71//24 105//51 63//25
f 9//19 13//27 10//26
f 13//27 78//30 79//28
f 64//22 65//29 13//27
f 65//29 108//45 78//30
f 8//20 10//26 14//31
f 11//18 14//31 69//32
f 10//26 79//28 80//33
f 14//31 80//33 109//14
f 15//34 18//37 19//35
f 16//36 19//35 72//16
f 18//37 67//44 66//38
f 19//35 66//38 107//39
f 15//34 16//36 20//40
f 20//40 80//33 79//28
f 73//12 74//11 20//40
f 74//11 109//14 80//33
f 15//34 17//41 21//42
f 18//37 21//42 68//43
f 17//41 79//28 78//30
f 21//42 78//30 108//45
f 22//46 25//50 26//47
f 23//48 26//47 71//24
f 58//49 57//114 26//47
f 26//47 57//114 105//51
f 22//46 23//48 27//52
f 27//52 75//13 76//4
f 70//23 69//32 27//52
f 69//32 109//14 75//13
f 22//46 24//53 28//54
f 25//50 28//54 59//55
f 24//53 76//4 77//8
f 28//54 77//8 106//56
f 29//57 32//62 33//58
f 33//58 84//64 85//60
f 100//61 101//63 33//58
f 101//63 111//112 84//64
f 30//59 34//66 31//65
f 34//66 96//69 97//67
f 85//60 86//68 34//66
f 86//68 112//96 96//69
f 29//57 31//65 35//70
f 32//62 35//70 99//71
f 31//65 97//67 98//72
f 35//70 98//72 114//73
f 39//74 40//77 37//75
f 40//77 95//81 94//78
f 88//79 87//80 40//77
f 87//80 110//107 95//81
f 36//76 37//75 41//82
f 38//83 41//82 104//84
f 37//75 94//78 93//86
f 41//82 93//86 114//73
f 38//83 42//87 39//74
f 42//87 89//89 88//79
f 103//85 102//88 42//87
f 102//88 113//100 89//89
f 43//90 46//95 47//91
f 44//92 47//91 90//93
f 46//95 97//67 96//69
f 47//91 96//69 112//96
f 43//90 44//92 48//97
f 45//98 48//97 102//88
f 44//92 91//94 92//99
f 48//97 92//99 113//100
f 43//90 45//98 49//101
f 49//101 98//72 97//67
f 103//85 104//84 49//101
f 104//84 114//73 98//72
f 50//102 53//106 54//103
f 54//103 81//108 82//105
f 53//106 94//78 95//81
f 54//103 95//81 110//107
f 50//102 51//104 55//109
f 52//110 55//109 101//63
f 51//104 82//105 83//111
f 55//109 83//111 111//112
f 50//102 52//110 56//113
f 56//113 93//86 94//78
f 100//61 99//71 56//113
f 99//71 114//73 93//86
