# Blender v2.82 (sub 7) OBJ File: 'table_scene3.blend'
# www.blender.org
o Blade_Blade_Cube
v -0.380902 0.135557 0.053561
v -0.380330 0.134757 0.054273
v -0.380793 0.135031 0.053141
v -0.380508 0.131774 0.054962
v -0.380205 0.131392 0.053792
v -0.380216 0.132099 0.053834
v -0.382231 0.154014 0.058690
v -0.380521 0.135911 0.055012
v -0.380984 0.136185 0.053880
v -0.380204 0.134362 0.053789
v -0.380620 0.133367 0.055392
v -0.380046 0.134005 0.053177
v -0.380585 0.132871 0.055258
v -0.380191 0.132774 0.053738
v -0.380135 0.133371 0.053522
v -0.380439 0.135284 0.054694
v -0.381939 0.135911 0.054644
v -0.383442 0.153456 0.060445
v -0.383186 0.153741 0.059455
v -0.381768 0.153741 0.059822
v -0.380778 0.135626 0.056002
v -0.380521 0.135911 0.055012
v -0.382734 0.153456 0.060628
v -0.381768 0.153741 0.059822
v -0.382231 0.154014 0.058690
v -0.380204 0.134362 0.053789
v -0.380667 0.134635 0.052657
v -0.380550 0.132375 0.055124
v -0.380731 0.134959 0.055822
v -0.380439 0.135284 0.054694
v -0.380330 0.134757 0.054273
v -0.380654 0.133863 0.055526
v -0.382003 0.132871 0.054891
v -0.381609 0.132774 0.053371
v -0.381968 0.132375 0.054757
v -0.380689 0.134358 0.055659
v -0.381926 0.131774 0.054595
v -0.381623 0.131392 0.053425
v -0.381879 0.131107 0.054415
v -0.381748 0.134757 0.053906
v -0.382072 0.133863 0.055158
v -0.382107 0.134358 0.055292
v -0.381634 0.132099 0.053467
v -0.382037 0.133367 0.055024
v -0.381553 0.133371 0.053154
v -0.380205 0.131392 0.053792
v -0.380500 0.129262 0.052012
v -0.380668 0.131665 0.052660
v -0.381622 0.134362 0.053422
v -0.381857 0.135284 0.054326
v -0.382149 0.134959 0.055454
v -0.380462 0.131107 0.054782
v -0.380037 0.128989 0.053144
v -0.382196 0.135626 0.055634
v -0.381711 0.128704 0.053766
v -0.380046 0.134005 0.053177
v -0.380509 0.134278 0.052045
v -0.380046 0.134005 0.053177
v -0.380598 0.133644 0.052390
v -0.380509 0.134278 0.052045
v -0.380135 0.133371 0.053522
v -0.380654 0.133047 0.052606
v -0.380191 0.132774 0.053738
v -0.380679 0.132372 0.052702
v -0.380216 0.132099 0.053834
v -0.381455 0.128989 0.052777
v -0.381567 0.126643 0.053210
v -0.380150 0.126643 0.053578
v -0.379855 0.126971 0.052441
v -0.379855 0.126971 0.052441
v -0.380318 0.127244 0.051309
v -0.381273 0.126971 0.052073
v -0.381424 0.124589 0.052656
v -0.380006 0.124589 0.053023
v -0.379649 0.124985 0.051646
v -0.379649 0.124985 0.051646
v -0.380112 0.125258 0.050514
v -0.381067 0.124985 0.051279
v -0.381259 0.122234 0.052021
v -0.379841 0.122234 0.052388
v -0.379402 0.122723 0.050692
v -0.379402 0.122723 0.050692
v -0.379865 0.122996 0.049560
v -0.380819 0.122723 0.050325
v -0.381058 0.119356 0.051244
v -0.379640 0.119356 0.051612
v -0.379131 0.119922 0.049647
v -0.379131 0.119922 0.049647
v -0.379594 0.120195 0.048515
v -0.380548 0.119922 0.049279
v -0.380793 0.115568 0.050222
v -0.379375 0.115568 0.050590
v -0.378816 0.116189 0.048434
v -0.378816 0.116189 0.048434
v -0.379279 0.116462 0.047302
v -0.380234 0.116189 0.048067
v -0.380557 0.112200 0.049313
v -0.379139 0.112200 0.049681
v -0.378573 0.112829 0.047495
v -0.378573 0.112829 0.047495
v -0.379036 0.113102 0.046363
v -0.378225 0.100832 0.046155
v -0.378475 0.102702 0.047118
v -0.378336 0.100709 0.046580
v -0.379643 0.100832 0.045787
v -0.379893 0.102702 0.046751
v -0.379638 0.102986 0.045766
v -0.379643 0.100832 0.045787
v -0.378682 0.102917 0.044997
v -0.378713 0.100579 0.045118
v -0.378220 0.102986 0.046133
v -0.378599 0.104474 0.047596
v -0.380017 0.104474 0.047229
v -0.379637 0.104896 0.045763
v -0.379637 0.104896 0.045763
v -0.378681 0.105005 0.044994
v -0.378219 0.104896 0.046130
v -0.378750 0.106630 0.048178
v -0.380168 0.106630 0.047810
v -0.379700 0.107149 0.046008
v -0.379700 0.107149 0.046008
v -0.378746 0.107422 0.045243
v -0.378283 0.107149 0.046375
v -0.378934 0.109260 0.048888
v -0.380352 0.109260 0.048520
v -0.379816 0.109855 0.046453
v -0.379816 0.109855 0.046453
v -0.378861 0.110128 0.045689
v -0.378713 0.100579 0.045118
v -0.378315 0.099272 0.046172
v -0.378775 0.098873 0.045356
v -0.378834 0.097703 0.045586
v -0.379573 0.099272 0.045846
v -0.378775 0.098873 0.045356
v -0.378398 0.109855 0.046821
v -0.378861 0.110128 0.045689
v -0.379991 0.112829 0.047128
v -0.378315 0.099272 0.046172
v -0.378746 0.107422 0.045243
v -0.378398 0.109855 0.046821
v -0.378283 0.107149 0.046375
v -0.378681 0.105005 0.044994
v -0.378219 0.104896 0.046130
v -0.378682 0.102917 0.044997
v -0.378220 0.102986 0.046133
v -0.378225 0.100832 0.046155
v -0.379279 0.116462 0.047302
v -0.380234 0.116189 0.048067
v -0.379594 0.120195 0.048515
v -0.380548 0.119922 0.049279
v -0.379865 0.122996 0.049560
v -0.380819 0.122723 0.050325
v -0.380112 0.125258 0.050514
v -0.381067 0.124985 0.051279
v -0.380318 0.127244 0.051309
v -0.381273 0.126971 0.052073
v -0.380500 0.129262 0.052012
v -0.381455 0.128989 0.052777
v -0.381634 0.132099 0.053467
v -0.380668 0.131665 0.052660
v -0.381623 0.131392 0.053425
v -0.381609 0.132774 0.053371
v -0.380679 0.132372 0.052702
v -0.381553 0.133371 0.053154
v -0.380654 0.133047 0.052606
v -0.381463 0.134005 0.052809
v -0.380598 0.133644 0.052390
v -0.380667 0.134635 0.052657
v -0.381463 0.134005 0.052809
v -0.381622 0.134362 0.053422
v -0.380793 0.135031 0.053141
v -0.381748 0.134757 0.053906
v -0.383186 0.153741 0.059455
v -0.380984 0.136185 0.053880
v -0.381857 0.135284 0.054326
v -0.381939 0.135911 0.054644
v -0.383186 0.153741 0.059455
v -0.380902 0.135557 0.053561
v -0.378834 0.097703 0.045586
v -0.379753 0.100709 0.046213
v -0.379573 0.099272 0.045846
v -0.380121 0.133832 0.054075
v -0.381834 0.133836 0.053605
v -0.381840 0.133832 0.053630
v -0.380115 0.133836 0.054051
v -0.381828 0.133834 0.053581
v -0.380109 0.133834 0.054026
v -0.381821 0.133827 0.053557
v -0.380103 0.133827 0.054003
v -0.381816 0.133814 0.053536
v -0.380097 0.133814 0.053982
v -0.381811 0.133797 0.053518
v -0.380089 0.133776 0.053949
v -0.381808 0.133776 0.053504
v -0.381805 0.133753 0.053495
v -0.380086 0.133753 0.053940
v -0.381804 0.133728 0.053491
v -0.380085 0.133728 0.053936
v -0.381805 0.133703 0.053492
v -0.380086 0.133703 0.053938
v -0.381806 0.133678 0.053499
v -0.380088 0.133678 0.053945
v -0.381810 0.133656 0.053511
v -0.380091 0.133656 0.053957
v -0.381814 0.133638 0.053528
v -0.380095 0.133638 0.053973
v -0.381819 0.133623 0.053548
v -0.380100 0.133623 0.053994
v -0.381825 0.133614 0.053571
v -0.380106 0.133614 0.054016
v -0.381831 0.133610 0.053595
v -0.380112 0.133610 0.054041
v -0.381838 0.133611 0.053620
v -0.380119 0.133611 0.054065
v -0.381844 0.133618 0.053643
v -0.380125 0.133618 0.054089
v -0.381849 0.133631 0.053664
v -0.380130 0.133631 0.054110
v -0.381854 0.133648 0.053683
v -0.380135 0.133648 0.054128
v -0.381858 0.133669 0.053697
v -0.380139 0.133669 0.054142
v -0.381860 0.133692 0.053706
v -0.380141 0.133692 0.054151
v -0.381861 0.133717 0.053710
v -0.380142 0.133717 0.054155
v -0.381860 0.133742 0.053708
v -0.380142 0.133742 0.054154
v -0.381859 0.133767 0.053701
v -0.380140 0.133767 0.054147
v -0.381856 0.133789 0.053689
v -0.380137 0.133789 0.054135
v -0.381851 0.133808 0.053673
v -0.380097 0.133814 0.053982
v -0.380103 0.133827 0.054003
v -0.380088 0.133678 0.053945
v -0.380127 0.133822 0.054098
v -0.381846 0.133822 0.053652
v -0.380133 0.133808 0.054118
v -0.381851 0.133808 0.053673
v -0.381846 0.133822 0.053652
v -0.381831 0.133610 0.053595
v -0.380362 0.131828 0.055015
v -0.382075 0.131831 0.054547
v -0.382081 0.131828 0.054570
v -0.380356 0.131831 0.054992
v -0.382069 0.131830 0.054522
v -0.380350 0.131830 0.054968
v -0.382063 0.131822 0.054499
v -0.380344 0.131822 0.054944
v -0.382057 0.131810 0.054477
v -0.380338 0.131810 0.054923
v -0.382052 0.131793 0.054459
v -0.380330 0.131772 0.054891
v -0.382049 0.131772 0.054445
v -0.382046 0.131749 0.054436
v -0.380328 0.131749 0.054881
v -0.382045 0.131724 0.054432
v -0.380327 0.131724 0.054878
v -0.382046 0.131698 0.054434
v -0.380327 0.131698 0.054879
v -0.382048 0.131674 0.054441
v -0.380329 0.131674 0.054886
v -0.382051 0.131652 0.054453
v -0.380332 0.131652 0.054898
v -0.382055 0.131633 0.054469
v -0.380336 0.131633 0.054915
v -0.382060 0.131619 0.054489
v -0.380342 0.131619 0.054935
v -0.382066 0.131609 0.054511
v -0.380344 0.131822 0.054944
v -0.380350 0.131830 0.054968
v -0.380332 0.131652 0.054898
v -0.382060 0.131619 0.054489
v -0.382066 0.131609 0.054511
v -0.382075 0.131831 0.054547
v -0.381978 0.134361 0.057714
v -0.381048 0.133959 0.057045
v -0.381024 0.134635 0.056950
v -0.380718 0.130822 0.055772
v -0.380801 0.131449 0.056090
v -0.381034 0.135341 0.056991
v -0.383236 0.152898 0.062566
v -0.381989 0.135068 0.057756
v -0.381104 0.133363 0.057262
v -0.380910 0.131976 0.056510
v -0.381035 0.132371 0.056994
v -0.382452 0.135341 0.056624
v -0.383699 0.153171 0.061434
v -0.382281 0.153171 0.061802
v -0.381034 0.135341 0.056991
v -0.382281 0.153171 0.061802
v -0.383236 0.152898 0.062566
v -0.382003 0.133686 0.057810
v -0.381104 0.133363 0.057262
v -0.381194 0.132729 0.057607
v -0.381048 0.133959 0.057045
v -0.382327 0.131976 0.056143
v -0.382453 0.132371 0.056627
v -0.381024 0.134635 0.056950
v -0.382136 0.130822 0.055404
v -0.382219 0.131449 0.055723
v -0.382466 0.133959 0.056678
v -0.382612 0.132729 0.057240
v -0.381505 0.128146 0.055888
v -0.380718 0.130822 0.055772
v -0.381673 0.130549 0.056536
v -0.382522 0.133363 0.056894
v -0.382441 0.134635 0.056582
v -0.380550 0.128419 0.055124
v -0.382059 0.133090 0.058026
v -0.381194 0.132729 0.057607
v -0.381990 0.132098 0.057759
v -0.381194 0.132729 0.057607
v -0.382149 0.132456 0.058372
v -0.381864 0.131703 0.057275
v -0.381035 0.132371 0.056994
v -0.381755 0.131176 0.056855
v -0.380910 0.131976 0.056510
v -0.380801 0.131449 0.056090
v -0.381968 0.128419 0.054756
v -0.380294 0.128704 0.054134
v -0.380444 0.126316 0.054715
v -0.380550 0.128419 0.055124
v -0.381862 0.126316 0.054347
v -0.380444 0.126316 0.054715
v -0.381399 0.126043 0.055479
v -0.380363 0.124192 0.054401
v -0.381781 0.124192 0.054033
v -0.380363 0.124192 0.054401
v -0.381318 0.123919 0.055165
v -0.380281 0.121746 0.054084
v -0.381699 0.121746 0.053717
v -0.380281 0.121746 0.054084
v -0.381236 0.121473 0.054849
v -0.380149 0.118790 0.053576
v -0.381567 0.118790 0.053209
v -0.380149 0.118790 0.053576
v -0.381104 0.118517 0.054341
v -0.379934 0.114948 0.052745
v -0.381351 0.114948 0.052377
v -0.379934 0.114948 0.052745
v -0.380888 0.114675 0.053509
v -0.379706 0.111571 0.051866
v -0.378446 0.100586 0.047006
v -0.379864 0.100586 0.046639
v -0.379642 0.101850 0.048700
v -0.379864 0.100586 0.046639
v -0.379311 0.099915 0.047426
v -0.378730 0.102418 0.048103
v -0.380148 0.102418 0.047736
v -0.380397 0.104052 0.048695
v -0.380148 0.102418 0.047736
v -0.378979 0.104052 0.049062
v -0.380397 0.104052 0.048695
v -0.379913 0.103635 0.049748
v -0.380635 0.106111 0.049613
v -0.379217 0.106111 0.049981
v -0.380635 0.106111 0.049613
v -0.380172 0.105837 0.050745
v -0.380887 0.108665 0.050587
v -0.379311 0.099915 0.047426
v -0.378315 0.099272 0.046172
v -0.378446 0.100586 0.047006
v -0.378834 0.097703 0.045586
v -0.379037 0.098582 0.046368
v -0.379573 0.099272 0.045846
v -0.379470 0.108665 0.050955
v -0.380424 0.108392 0.051719
v -0.380661 0.111298 0.052631
v -0.380887 0.108665 0.050587
v -0.381124 0.111571 0.051499
v -0.381124 0.111571 0.051499
v -0.380424 0.108392 0.051719
v -0.380661 0.111298 0.052631
v -0.379470 0.108665 0.050955
v -0.380172 0.105837 0.050745
v -0.379217 0.106111 0.049981
v -0.379913 0.103635 0.049748
v -0.378979 0.104052 0.049062
v -0.379642 0.101850 0.048700
v -0.378730 0.102418 0.048103
v -0.380888 0.114675 0.053509
v -0.381351 0.114948 0.052377
v -0.381104 0.118517 0.054341
v -0.381567 0.118790 0.053209
v -0.381236 0.121473 0.054849
v -0.381699 0.121746 0.053717
v -0.381318 0.123919 0.055165
v -0.381781 0.124192 0.054033
v -0.381399 0.126043 0.055479
v -0.381862 0.126316 0.054347
v -0.381505 0.128146 0.055888
v -0.381968 0.128419 0.054756
v -0.382219 0.131449 0.055723
v -0.381673 0.130549 0.056536
v -0.381755 0.131176 0.056855
v -0.382327 0.131976 0.056143
v -0.381864 0.131703 0.057275
v -0.382453 0.132371 0.056627
v -0.381990 0.132098 0.057759
v -0.382612 0.132729 0.057240
v -0.382149 0.132456 0.058372
v -0.382612 0.132729 0.057240
v -0.382059 0.133090 0.058026
v -0.382522 0.133363 0.056894
v -0.382136 0.130822 0.055404
v -0.382003 0.133686 0.057810
v -0.382466 0.133959 0.056678
v -0.383699 0.153171 0.061434
v -0.383442 0.153456 0.060445
v -0.382441 0.134635 0.056582
v -0.381989 0.135068 0.057756
v -0.382452 0.135341 0.056624
v -0.383699 0.153171 0.061434
v -0.381978 0.134361 0.057714
v -0.379037 0.098582 0.046368
v -0.378834 0.097703 0.045586
v -0.382558 0.133031 0.056400
v -0.380834 0.133041 0.056822
v -0.382552 0.133041 0.056377
v -0.382563 0.133017 0.056420
v -0.380839 0.133031 0.056845
v -0.382568 0.132998 0.056436
v -0.380845 0.133017 0.056865
v -0.382571 0.132976 0.056448
v -0.380849 0.132998 0.056882
v -0.382573 0.132951 0.056455
v -0.380852 0.132976 0.056894
v -0.380854 0.132926 0.056902
v -0.380854 0.132951 0.056901
v -0.382572 0.132901 0.056453
v -0.382573 0.132926 0.056457
v -0.382570 0.132878 0.056444
v -0.380853 0.132901 0.056898
v -0.382566 0.132857 0.056430
v -0.380851 0.132878 0.056889
v -0.382561 0.132840 0.056412
v -0.380847 0.132857 0.056875
v -0.382556 0.132827 0.056390
v -0.380843 0.132840 0.056857
v -0.382550 0.132820 0.056367
v -0.380837 0.132827 0.056836
v -0.382543 0.132819 0.056342
v -0.380831 0.132820 0.056812
v -0.382537 0.132823 0.056318
v -0.380825 0.132819 0.056788
v -0.382531 0.132832 0.056295
v -0.380818 0.132823 0.056763
v -0.382526 0.132847 0.056275
v -0.380812 0.132832 0.056741
v -0.382522 0.132865 0.056259
v -0.380807 0.132847 0.056721
v -0.382518 0.132887 0.056246
v -0.380803 0.132865 0.056704
v -0.382517 0.132912 0.056240
v -0.380800 0.132887 0.056692
v -0.382516 0.132937 0.056238
v -0.380798 0.132912 0.056685
v -0.382517 0.132962 0.056242
v -0.380798 0.132937 0.056683
v -0.382520 0.132985 0.056251
v -0.380799 0.132962 0.056687
v -0.382523 0.133006 0.056265
v -0.380801 0.132985 0.056696
v -0.382528 0.133023 0.056283
v -0.380805 0.133006 0.056711
v -0.382534 0.133036 0.056305
v -0.380809 0.133023 0.056729
v -0.382540 0.133043 0.056328
v -0.380815 0.133036 0.056750
v -0.380821 0.133043 0.056774
v -0.380827 0.133045 0.056798
v -0.380807 0.132847 0.056721
v -0.380827 0.133045 0.056798
v -0.382546 0.133045 0.056353
v -0.380821 0.133043 0.056774
v -0.382563 0.133017 0.056420
v -0.382558 0.133031 0.056400
v -0.382543 0.132819 0.056342
v -0.382087 0.131818 0.054592
v -0.382092 0.131804 0.054612
v -0.380368 0.131818 0.055037
v -0.382096 0.131785 0.054628
v -0.380373 0.131804 0.055057
v -0.382099 0.131763 0.054640
v -0.380378 0.131785 0.055074
v -0.382101 0.131739 0.054647
v -0.380381 0.131763 0.055086
v -0.380383 0.131713 0.055094
v -0.380383 0.131739 0.055093
v -0.382101 0.131688 0.054645
v -0.382102 0.131713 0.054649
v -0.382098 0.131665 0.054636
v -0.380382 0.131688 0.055090
v -0.382095 0.131644 0.054622
v -0.380380 0.131665 0.055081
v -0.382090 0.131627 0.054604
v -0.380376 0.131644 0.055067
v -0.382084 0.131615 0.054582
v -0.380371 0.131627 0.055049
v -0.382078 0.131607 0.054559
v -0.380366 0.131615 0.055028
v -0.382072 0.131606 0.054534
v -0.380360 0.131607 0.055004
v -0.380353 0.131606 0.054980
v -0.380360 0.131607 0.055004
v -0.380353 0.131606 0.054980
v -0.380373 0.131804 0.055057
v -0.382092 0.131804 0.054612
v -0.382087 0.131818 0.054592
v -0.382072 0.131606 0.054534
v -0.381768 0.153741 0.059822
v -0.382025 0.153456 0.060812
v -0.382025 0.153456 0.060812
v -0.381463 0.134005 0.052809
v -0.380037 0.128989 0.053144
v -0.379991 0.112829 0.047128
v -0.379638 0.102986 0.045766
v -0.379036 0.113102 0.046363
v -0.380509 0.134278 0.052045
v -0.380509 0.134278 0.052045
v -0.382231 0.154014 0.058690
v -0.380093 0.133797 0.053963
v -0.380109 0.133834 0.054026
v -0.380115 0.133836 0.054051
v -0.380100 0.133623 0.053994
v -0.380121 0.133832 0.054075
v -0.380106 0.133614 0.054016
v -0.380127 0.133822 0.054098
v -0.380133 0.133808 0.054118
v -0.380112 0.133610 0.054041
v -0.380137 0.133789 0.054135
v -0.380125 0.133618 0.054089
v -0.380140 0.133767 0.054147
v -0.380130 0.133631 0.054110
v -0.380142 0.133742 0.054154
v -0.380142 0.133717 0.054155
v -0.380135 0.133648 0.054128
v -0.380141 0.133692 0.054151
v -0.380139 0.133669 0.054142
v -0.380119 0.133611 0.054065
v -0.380095 0.133638 0.053973
v -0.380091 0.133656 0.053957
v -0.380086 0.133703 0.053938
v -0.380093 0.133797 0.053963
v -0.380085 0.133728 0.053936
v -0.380089 0.133776 0.053949
v -0.380086 0.133753 0.053940
v -0.381840 0.133832 0.053630
v -0.381825 0.133614 0.053571
v -0.381834 0.133836 0.053605
v -0.381819 0.133623 0.053548
v -0.381828 0.133834 0.053581
v -0.381814 0.133638 0.053528
v -0.381821 0.133827 0.053557
v -0.381810 0.133656 0.053511
v -0.381816 0.133814 0.053536
v -0.381811 0.133797 0.053518
v -0.381806 0.133678 0.053499
v -0.381808 0.133776 0.053504
v -0.381804 0.133728 0.053491
v -0.381805 0.133753 0.053495
v -0.381805 0.133703 0.053492
v -0.381838 0.133611 0.053620
v -0.381844 0.133618 0.053643
v -0.381856 0.133789 0.053689
v -0.381849 0.133631 0.053664
v -0.381859 0.133767 0.053701
v -0.381854 0.133648 0.053683
v -0.381860 0.133742 0.053708
v -0.381858 0.133669 0.053697
v -0.381861 0.133717 0.053710
v -0.381860 0.133692 0.053706
v -0.380334 0.131793 0.054905
v -0.380347 0.131609 0.054957
v -0.380356 0.131831 0.054992
v -0.380336 0.131633 0.054915
v -0.380362 0.131828 0.055015
v -0.380342 0.131619 0.054935
v -0.380347 0.131609 0.054957
v -0.380329 0.131674 0.054886
v -0.380327 0.131698 0.054879
v -0.380338 0.131810 0.054923
v -0.380327 0.131724 0.054878
v -0.380330 0.131772 0.054891
v -0.380328 0.131749 0.054881
v -0.380334 0.131793 0.054905
v -0.382081 0.131828 0.054570
v -0.382069 0.131830 0.054522
v -0.382063 0.131822 0.054499
v -0.382055 0.131633 0.054469
v -0.382057 0.131810 0.054477
v -0.382051 0.131652 0.054453
v -0.382052 0.131793 0.054459
v -0.382048 0.131674 0.054441
v -0.382049 0.131772 0.054445
v -0.382045 0.131724 0.054432
v -0.382046 0.131749 0.054436
v -0.382046 0.131698 0.054434
v -0.382281 0.153171 0.061802
v -0.382149 0.132456 0.058372
v -0.379706 0.111571 0.051866
v -0.382149 0.132456 0.058372
v -0.383236 0.152898 0.062566
v -0.380834 0.133041 0.056822
v -0.380839 0.133031 0.056845
v -0.380825 0.132819 0.056788
v -0.380845 0.133017 0.056865
v -0.380831 0.132820 0.056812
v -0.380849 0.132998 0.056882
v -0.380852 0.132976 0.056894
v -0.380837 0.132827 0.056836
v -0.380854 0.132951 0.056901
v -0.380847 0.132857 0.056875
v -0.380854 0.132926 0.056902
v -0.380851 0.132878 0.056889
v -0.380853 0.132901 0.056898
v -0.380843 0.132840 0.056857
v -0.380818 0.132823 0.056763
v -0.380812 0.132832 0.056741
v -0.380803 0.132865 0.056704
v -0.380815 0.133036 0.056750
v -0.380800 0.132887 0.056692
v -0.380809 0.133023 0.056729
v -0.380798 0.132912 0.056685
v -0.380798 0.132937 0.056683
v -0.380805 0.133006 0.056711
v -0.380799 0.132962 0.056687
v -0.380801 0.132985 0.056696
v -0.382552 0.133041 0.056377
v -0.382546 0.133045 0.056353
v -0.382537 0.132823 0.056318
v -0.382540 0.133043 0.056328
v -0.382531 0.132832 0.056295
v -0.382534 0.133036 0.056305
v -0.382526 0.132847 0.056275
v -0.382528 0.133023 0.056283
v -0.382518 0.132887 0.056246
v -0.382523 0.133006 0.056265
v -0.382517 0.132912 0.056240
v -0.382520 0.132985 0.056251
v -0.382517 0.132962 0.056242
v -0.382516 0.132937 0.056238
v -0.382522 0.132865 0.056259
v -0.382550 0.132820 0.056367
v -0.382556 0.132827 0.056390
v -0.382568 0.132998 0.056436
v -0.382561 0.132840 0.056412
v -0.382571 0.132976 0.056448
v -0.382566 0.132857 0.056430
v -0.382573 0.132951 0.056455
v -0.382570 0.132878 0.056444
v -0.382572 0.132901 0.056453
v -0.382573 0.132926 0.056457
v -0.380368 0.131818 0.055037
v -0.380378 0.131785 0.055074
v -0.380366 0.131615 0.055028
v -0.380381 0.131763 0.055086
v -0.380371 0.131627 0.055049
v -0.380383 0.131739 0.055093
v -0.380383 0.131713 0.055094
v -0.380376 0.131644 0.055067
v -0.380382 0.131688 0.055090
v -0.380380 0.131665 0.055081
v -0.382078 0.131607 0.054559
v -0.382084 0.131615 0.054582
v -0.382090 0.131627 0.054604
v -0.382096 0.131785 0.054628
v -0.382095 0.131644 0.054622
v -0.382101 0.131739 0.054647
v -0.382098 0.131665 0.054636
v -0.382102 0.131713 0.054649
v -0.382101 0.131688 0.054645
v -0.382099 0.131763 0.054640
vn 0.8952 0.3441 -0.2832
vn 0.8630 0.4410 -0.2466
vn 0.8486 0.4753 -0.2325
vn 0.9680 0.0000 0.2509
vn 0.9268 0.1569 -0.3413
vn 0.9213 0.2131 -0.3254
vn 0.9204 0.2195 -0.3235
vn 0.9680 -0.0001 0.2509
vn 0.9002 0.3250 -0.2898
vn -0.9680 0.0000 -0.2509
vn -0.0674 0.9633 0.2599
vn 0.8086 0.5543 -0.1971
vn 0.7876 0.5893 -0.1800
vn -0.9680 -0.0001 -0.2509
vn -0.9680 0.0001 -0.2509
vn 0.9291 0.1002 -0.3559
vn 0.9251 0.1780 -0.3355
vn 0.9292 0.0936 -0.3575
vn 0.7666 0.6208 -0.1639
vn 0.7667 0.6208 -0.1638
vn 0.8345 -0.3498 -0.4257
vn 0.8506 -0.3120 -0.4232
vn 0.8345 -0.3499 -0.4257
vn 0.8663 -0.2707 -0.4197
vn 0.8944 -0.1802 -0.4093
vn 0.9037 -0.1418 -0.4039
vn 0.9218 -0.0365 -0.3859
vn 0.9241 -0.0161 -0.3819
vn 0.9215 0.2107 -0.3262
vn 0.9214 0.2120 -0.3258
vn 0.9190 0.2292 -0.3206
vn 0.9189 0.2299 -0.3204
vn 0.9198 0.2236 -0.3223
vn 0.9200 0.2221 -0.3228
vn 0.9229 0.1989 -0.3296
vn 0.9230 0.1980 -0.3298
vn 0.9254 0.1743 -0.3365
vn 0.9255 0.1739 -0.3366
vn 0.9274 0.1477 -0.3437
vn 0.9274 0.1479 -0.3437
vn 0.9693 -0.0216 0.2450
vn 0.9695 -0.0265 0.2436
vn -0.9663 -0.0217 -0.2567
vn -0.5976 -0.0391 -0.8008
vn -0.6211 -0.0081 -0.7837
vn -0.5842 -0.0540 -0.8098
vn -0.6288 0.0318 -0.7769
vn -0.6296 0.0331 -0.7762
vn -0.6361 0.0798 -0.7675
vn -0.6371 0.0817 -0.7664
vn -0.6408 0.1152 -0.7590
vn -0.6409 0.1165 -0.7587
vn 0.9040 -0.0540 -0.4241
vn 0.8935 -0.0945 -0.4389
vn 0.8884 -0.1163 -0.4442
vn -0.5649 -0.1310 -0.8147
vn -0.5678 -0.0945 -0.8177
vn -0.5607 -0.1164 -0.8198
vn 0.9288 0.1165 -0.3518
vn -0.6436 0.1477 -0.7510
vn 0.9703 -0.0530 0.2362
vn 0.9292 0.0817 -0.3604
vn 0.9288 0.1152 -0.3522
vn 0.9288 0.0798 -0.3618
vn 0.9274 0.0331 -0.3726
vn 0.9270 0.0318 -0.3736
vn 0.9236 -0.0081 -0.3832
vn 0.9265 -0.0035 -0.3763
vn 0.9114 -0.0391 -0.4097
vn -0.6454 0.1739 -0.7438
vn -0.6454 0.1743 -0.7437
vn -0.6466 0.1980 -0.7367
vn -0.6466 0.1989 -0.7364
vn -0.6474 0.2221 -0.7291
vn -0.6474 0.2236 -0.7286
vn -0.6476 0.2300 -0.7265
vn -0.6476 0.2292 -0.7267
vn -0.6471 0.2120 -0.7323
vn -0.6471 0.2107 -0.7327
vn -0.6456 0.1780 -0.7426
vn -0.6456 0.1772 -0.7428
vn -0.6222 -0.0161 -0.7827
vn -0.6385 0.0936 -0.7639
vn -0.6392 0.1002 -0.7625
vn -0.5937 -0.1418 -0.7921
vn -0.6183 -0.0366 -0.7851
vn -0.5534 -0.2708 -0.7877
vn -0.5829 -0.1802 -0.7923
vn -0.5226 -0.3498 -0.7775
vn -0.5379 -0.3120 -0.7831
vn -0.6010 0.5893 -0.5400
vn -0.5905 0.6208 -0.5156
vn -0.6111 0.5543 -0.5651
vn -0.6288 0.4752 -0.6154
vn -0.6345 0.4409 -0.6348
vn -0.6473 0.2195 -0.7299
vn -0.6460 0.3250 -0.6907
vn -0.6471 0.2131 -0.7320
vn -0.6443 0.1569 -0.7485
vn -0.6449 0.3441 -0.6824
vn 0.8895 -0.1310 -0.4377
vn -0.9658 -0.0265 -0.2580
vn -0.9628 -0.0530 -0.2649
vn -0.0673 0.9632 0.2601
vn -0.0116 0.9989 0.0452
vn -0.0674 0.9634 0.2594
vn -0.0119 0.9989 0.0461
vn 0.0442 0.9844 -0.1702
vn 0.0440 0.9843 -0.1709
vn 0.0980 0.9207 -0.3777
vn 0.0979 0.9206 -0.3780
vn 0.1469 0.8107 -0.5668
vn 0.1468 0.8110 -0.5663
vn 0.1886 0.6596 -0.7276
vn 0.2203 0.4762 -0.8513
vn 0.2207 0.4757 -0.8515
vn 0.2417 0.2687 -0.9324
vn 0.2416 0.2689 -0.9324
vn 0.2506 0.0476 -0.9669
vn 0.2504 0.0473 -0.9670
vn 0.2470 -0.1761 -0.9529
vn 0.2470 -0.1764 -0.9528
vn 0.2310 -0.3902 -0.8913
vn 0.2309 -0.3911 -0.8909
vn 0.2033 -0.5856 -0.7847
vn 0.2035 -0.5860 -0.7843
vn 0.1654 -0.7514 -0.6388
vn 0.1656 -0.7515 -0.6386
vn 0.1194 -0.8794 -0.4608
vn 0.1195 -0.8793 -0.4610
vn 0.0675 -0.9633 -0.2598
vn 0.0674 -0.9631 -0.2606
vn 0.0119 -0.9989 -0.0452
vn 0.0117 -0.9988 -0.0471
vn -0.0442 -0.9843 0.1709
vn -0.0442 -0.9845 0.1700
vn -0.0983 -0.9205 0.3782
vn -0.0978 -0.9205 0.3782
vn -0.1470 -0.8101 0.5675
vn -0.1469 -0.8112 0.5661
vn -0.1885 -0.6601 0.7271
vn -0.1884 -0.6601 0.7271
vn -0.2207 -0.4761 0.8512
vn -0.2210 -0.4758 0.8514
vn -0.2417 -0.2683 0.9325
vn -0.2418 -0.2682 0.9325
vn -0.2506 -0.0477 0.9669
vn -0.2507 -0.0472 0.9669
vn -0.2469 0.1757 0.9530
vn -0.2471 0.1763 0.9528
vn -0.2309 0.3903 0.8912
vn -0.2312 0.3908 0.8910
vn -0.2033 0.5857 0.7847
vn -0.2035 0.5859 0.7844
vn -0.1658 0.7513 0.6388
vn 0.9680 -0.0008 0.2510
vn 0.9681 -0.0010 0.2506
vn 0.9676 -0.0005 0.2526
vn -0.1194 0.8793 0.4611
vn -0.1196 0.8792 0.4612
vn -0.1656 0.7514 0.6387
vn -0.9679 0.0004 -0.2514
vn -0.9680 -0.0005 -0.2511
vn -0.9681 0.0002 -0.2504
vn -0.0670 0.9634 0.2595
vn -0.0112 0.9990 0.0431
vn -0.0675 0.9632 0.2601
vn -0.0112 0.9990 0.0434
vn 0.0441 0.9845 -0.1700
vn 0.0441 0.9844 -0.1704
vn 0.0981 0.9206 -0.3779
vn 0.0980 0.9204 -0.3784
vn 0.1471 0.8104 -0.5671
vn 0.1471 0.8101 -0.5676
vn 0.1885 0.6595 -0.7277
vn 0.2206 0.4766 -0.8510
vn 0.2206 0.4762 -0.8512
vn 0.2418 0.2690 -0.9323
vn 0.2416 0.2683 -0.9325
vn 0.2508 0.0474 -0.9669
vn 0.2509 0.0474 -0.9668
vn 0.2471 -0.1765 -0.9528
vn 0.2469 -0.1754 -0.9530
vn 0.2311 -0.3913 -0.8908
vn 0.2305 -0.3899 -0.8915
vn 0.2034 -0.5859 -0.7844
vn 0.2031 -0.5856 -0.7847
vn 0.1656 -0.7513 -0.6388
vn 0.1201 -0.8779 -0.4636
vn 0.1202 -0.8782 -0.4629
vn 0.0674 -0.9632 -0.2602
vn 0.9679 -0.0005 0.2512
vn 0.9680 0.0000 0.2508
vn 0.9682 0.0001 0.2503
vn -0.9682 -0.0002 -0.2501
vn -0.9680 0.0001 -0.2511
vn -0.9681 -0.0002 -0.2504
vn 0.6183 0.0366 0.7851
vn 0.5937 0.1419 0.7921
vn 0.6222 0.0162 0.7827
vn 0.6392 -0.1002 0.7624
vn 0.6443 -0.1569 0.7485
vn 0.6385 -0.0936 0.7639
vn 0.9680 0.0001 0.2509
vn 0.5829 0.1802 0.7923
vn 0.5534 0.2707 0.7877
vn 0.6427 -0.1357 0.7540
vn 0.6471 -0.2131 0.7320
vn 0.6473 -0.2195 0.7299
vn 0.5379 0.3120 0.7831
vn 0.5226 0.3498 0.7775
vn 0.6010 -0.5893 0.5400
vn 0.5905 -0.6208 0.5156
vn 0.6288 -0.4752 0.6154
vn 0.6111 -0.5543 0.5651
vn 0.6449 -0.3441 0.6824
vn 0.6345 -0.4409 0.6348
vn 0.6461 -0.3250 0.6906
vn 0.6395 -0.1026 0.7619
vn 0.6427 -0.1365 0.7538
vn 0.6394 -0.1013 0.7622
vn 0.6374 -0.0836 0.7660
vn 0.6373 -0.0829 0.7662
vn 0.6380 -0.0894 0.7648
vn 0.6382 -0.0909 0.7645
vn 0.6407 -0.1146 0.7592
vn 0.6408 -0.1155 0.7589
vn 0.6430 -0.1394 0.7531
vn 0.6430 -0.1398 0.7530
vn 0.6449 -0.1661 0.7460
vn -0.9662 -0.0216 -0.2567
vn -0.9008 -0.3187 0.2950
vn -0.8837 -0.3569 0.3028
vn -0.8740 -0.3759 0.3081
vn -0.9097 -0.2802 0.3066
vn -0.9045 -0.3116 0.2912
vn -0.9102 -0.2786 0.3064
vn -0.9181 -0.2334 0.3204
vn -0.9188 -0.2312 0.3201
vn -0.9230 -0.1983 0.3297
vn 0.6142 -0.3759 0.6938
vn 0.6036 -0.4167 0.6798
vn 0.6253 -0.3569 0.6940
vn -0.8492 -0.4467 0.2817
vn -0.8497 -0.4373 0.2948
vn -0.8578 -0.4166 0.3010
vn 0.6466 -0.1970 0.7370
vn 0.6449 -0.1659 0.7460
vn -0.9261 -0.1661 0.3388
vn -0.9232 -0.1970 0.3301
vn -0.9261 -0.1659 0.3388
vn 0.6466 -0.1983 0.7366
vn 0.6476 -0.2312 0.7261
vn 0.6468 -0.2334 0.7260
vn 0.6468 -0.2786 0.7100
vn 0.6462 -0.2802 0.7099
vn 0.6440 -0.3187 0.6955
vn 0.6491 -0.3116 0.6940
vn -0.9278 -0.1398 0.3458
vn -0.9279 -0.1394 0.3459
vn -0.9288 -0.1155 0.3521
vn -0.9288 -0.1146 0.3523
vn -0.9292 -0.0909 0.3582
vn -0.9292 -0.0894 0.3585
vn -0.9292 -0.0829 0.3601
vn -0.9292 -0.0836 0.3599
vn -0.9291 -0.1013 0.3556
vn -0.9291 -0.1026 0.3553
vn -0.9280 -0.1357 0.3469
vn -0.9280 -0.1365 0.3467
vn -0.9002 -0.3250 0.2899
vn -0.9204 -0.2195 0.3236
vn -0.8952 -0.3441 0.2832
vn -0.8630 -0.4410 0.2467
vn -0.8486 -0.4752 0.2325
vn -0.8086 -0.5543 0.1971
vn -0.7876 -0.5893 0.1800
vn -0.7666 -0.6209 0.1638
vn -0.7666 -0.6209 0.1639
vn -0.8345 0.3498 0.4257
vn -0.8506 0.3120 0.4232
vn -0.8664 0.2707 0.4197
vn -0.9212 -0.2131 0.3255
vn -0.8944 0.1802 0.4093
vn -0.9037 0.1418 0.4039
vn -0.9241 0.0162 0.3819
vn -0.9292 -0.0936 0.3575
vn -0.9291 -0.1001 0.3559
vn -0.9268 -0.1569 0.3413
vn -0.9218 0.0366 0.3859
vn 0.5994 -0.4373 0.6704
vn 0.6053 -0.4468 0.6588
vn -0.1195 0.8795 0.4607
vn -0.0673 0.9632 0.2602
vn -0.0673 0.9635 0.2592
vn -0.1655 0.7517 0.6384
vn -0.1196 0.8791 0.4613
vn -0.2034 0.5855 0.7848
vn -0.1653 0.7514 0.6388
vn -0.2310 0.3902 0.8913
vn -0.2034 0.5862 0.7842
vn -0.2470 0.1756 0.9530
vn -0.2310 0.3907 0.8911
vn -0.2507 -0.0471 0.9669
vn -0.2470 0.1765 0.9528
vn -0.2418 -0.2679 0.9326
vn -0.2506 -0.0475 0.9669
vn -0.2208 -0.4759 0.8513
vn -0.2417 -0.2692 0.9323
vn -0.1887 -0.6597 0.7274
vn -0.2206 -0.4762 0.8512
vn -0.1471 -0.8106 0.5668
vn -0.1885 -0.6597 0.7275
vn -0.0982 -0.9208 0.3775
vn -0.1468 -0.8104 0.5672
vn -0.0441 -0.9845 0.1697
vn -0.0980 -0.9204 0.3786
vn 0.0119 -0.9989 -0.0462
vn -0.0442 -0.9843 0.1708
vn 0.0673 -0.9634 -0.2597
vn 0.0119 -0.9989 -0.0455
vn 0.1195 -0.8794 -0.4609
vn 0.0673 -0.9633 -0.2599
vn 0.1656 -0.7514 -0.6387
vn 0.1194 -0.8793 -0.4610
vn 0.2034 -0.5854 -0.7848
vn 0.1655 -0.7514 -0.6387
vn 0.2309 -0.3902 -0.8913
vn 0.2034 -0.5860 -0.7844
vn 0.2468 -0.1758 -0.9530
vn 0.2311 -0.3908 -0.8910
vn 0.2505 0.0478 -0.9669
vn 0.2471 -0.1763 -0.9528
vn 0.2416 0.2686 -0.9325
vn 0.2507 0.0470 -0.9669
vn 0.2205 0.4762 -0.8512
vn 0.2417 0.2685 -0.9325
vn 0.1884 0.6598 -0.7275
vn 0.2205 0.4759 -0.8514
vn 0.1470 0.8103 -0.5672
vn 0.1887 0.6600 -0.7272
vn 0.0980 0.9205 -0.3781
vn 0.0440 0.9845 -0.1699
vn 0.0981 0.9203 -0.3786
vn 0.9679 0.0000 0.2512
vn 0.9682 -0.0000 0.2503
vn -0.0119 0.9989 0.0464
vn -0.0120 0.9989 0.0459
vn 0.0441 0.9844 -0.1702
vn -0.9681 -0.0001 -0.2504
vn -0.9679 0.0001 -0.2512
vn -0.9681 -0.0003 -0.2504
vn -0.1201 0.8779 0.4636
vn -0.1201 0.8781 0.4631
vn -0.2032 0.5857 0.7847
vn -0.1655 0.7516 0.6385
vn -0.2309 0.3909 0.8910
vn -0.2033 0.5862 0.7842
vn -0.2470 0.1763 0.9528
vn -0.2310 0.3911 0.8909
vn -0.2470 0.1758 0.9529
vn -0.2418 -0.2686 0.9324
vn -0.2507 -0.0479 0.9669
vn -0.1885 -0.6604 0.7268
vn -0.2207 -0.4758 0.8514
vn -0.1469 -0.8109 0.5665
vn -0.1887 -0.6592 0.7279
vn -0.0980 -0.9206 0.3781
vn -0.1470 -0.8103 0.5673
vn -0.0442 -0.9845 0.1699
vn -0.0981 -0.9203 0.3787
vn 0.0113 -0.9990 -0.0433
vn -0.0440 -0.9843 0.1710
vn 0.0111 -0.9990 -0.0439
vn 0.9679 -0.0002 0.2514
vn 0.9680 0.0005 0.2508
vn 0.9677 -0.0002 0.2520
vn -0.9679 0.0000 -0.2512
vn -0.9678 0.0004 -0.2517
vn 0.9251 0.1772 -0.3357
vn -0.6270 -0.0035 -0.7790
vn -0.6436 0.1479 -0.7509
vn 0.1886 0.6598 -0.7274
vn 0.9680 -0.0007 0.2508
vn 0.9679 -0.0003 0.2515
vn 0.9681 0.0001 0.2504
vn 0.9681 0.0001 0.2507
vn 0.9681 0.0003 0.2507
vn 0.9681 -0.0003 0.2505
vn 0.9680 0.0000 0.2511
vn 0.9680 -0.0010 0.2508
vn 0.9681 -0.0000 0.2505
vn 0.9679 -0.0008 0.2512
vn 0.9680 -0.0002 0.2508
vn 0.9680 0.0012 0.2508
vn 0.9672 -0.0027 0.2539
vn 0.9679 -0.0013 0.2515
vn 0.9687 0.0020 0.2484
vn 0.9690 0.0007 0.2472
vn 0.9681 -0.0002 0.2506
vn 0.9682 0.0005 0.2503
vn 0.9679 -0.0019 0.2512
vn 0.9682 0.0014 0.2503
vn 0.9686 -0.0013 0.2486
vn 0.9682 0.0003 0.2503
vn 0.9682 -0.0014 0.2503
vn -0.9682 -0.0009 -0.2501
vn -0.9680 0.0012 -0.2511
vn -0.9681 -0.0006 -0.2506
vn -0.9679 0.0009 -0.2514
vn -0.9680 -0.0005 -0.2509
vn -0.9680 0.0004 -0.2509
vn -0.9680 0.0002 -0.2508
vn -0.9680 -0.0003 -0.2509
vn -0.9678 0.0006 -0.2516
vn -0.9682 0.0009 -0.2501
vn -0.9681 -0.0005 -0.2507
vn -0.9674 0.0029 -0.2531
vn -0.9674 -0.0000 -0.2534
vn -0.9696 -0.0025 -0.2447
vn -0.9688 -0.0002 -0.2479
vn -0.9681 -0.0010 -0.2506
vn -0.9678 0.0003 -0.2515
vn -0.9681 0.0000 -0.2505
vn -0.9681 0.0006 -0.2507
vn -0.9682 -0.0001 -0.2500
vn -0.9679 -0.0008 -0.2515
vn -0.9677 -0.0002 -0.2520
vn -0.9673 0.0025 -0.2537
vn -0.9685 -0.0006 -0.2489
vn -0.9705 -0.0014 -0.2411
vn 0.1885 0.6600 -0.7272
vn 0.9680 0.0007 0.2510
vn 0.9681 -0.0008 0.2505
vn 0.9680 0.0006 0.2508
vn 0.9679 -0.0014 0.2512
vn 0.9680 -0.0002 0.2510
vn 0.9679 -0.0012 0.2513
vn 0.9674 -0.0005 0.2531
vn 0.9682 -0.0001 0.2503
vn 0.9703 -0.0012 0.2419
vn 0.9678 0.0000 0.2516
vn -0.9679 0.0002 -0.2512
vn -0.9680 -0.0002 -0.2511
vn -0.9680 -0.0000 -0.2511
vn -0.9680 0.0002 -0.2509
vn -0.9684 0.0003 -0.2496
vn -0.9682 -0.0004 -0.2504
vn -0.9682 -0.0020 -0.2500
vn -0.9681 0.0017 -0.2506
vn -0.9665 0.0043 -0.2565
vn -0.9679 0.0003 -0.2512
vn -0.8345 0.3499 0.4257
vn 0.9681 -0.0003 0.2506
vn 0.9682 -0.0006 0.2503
vn 0.9678 0.0007 0.2516
vn 0.9681 -0.0004 0.2506
vn 0.9678 0.0004 0.2515
vn 0.9679 0.0000 0.2511
vn 0.9677 0.0001 0.2521
vn 0.9682 -0.0004 0.2503
vn 0.9677 -0.0001 0.2522
vn 0.9679 0.0006 0.2512
vn 0.9684 0.0002 0.2493
vn 0.9683 -0.0019 0.2498
vn 0.9689 0.0022 0.2476
vn 0.9683 -0.0011 0.2499
vn 0.9680 0.0003 0.2510
vn 0.9685 0.0001 0.2492
vn 0.9685 -0.0001 0.2488
vn 0.9676 0.0001 0.2524
vn 0.9676 0.0000 0.2526
vn 0.9683 0.0004 0.2498
vn 0.9686 -0.0000 0.2485
vn 0.9668 -0.0003 0.2554
vn -0.9680 0.0006 -0.2511
vn -0.9681 0.0003 -0.2506
vn -0.9681 -0.0004 -0.2505
vn -0.9678 0.0000 -0.2518
vn -0.9679 -0.0002 -0.2515
vn -0.9679 -0.0003 -0.2512
vn -0.9680 -0.0003 -0.2510
vn -0.9684 -0.0014 -0.2494
vn -0.9678 0.0011 -0.2518
vn -0.9685 -0.0017 -0.2489
vn -0.9676 0.0005 -0.2525
vn -0.9680 0.0001 -0.2508
vn -0.9682 0.0014 -0.2503
vn -0.9678 0.0003 -0.2516
vn -0.9680 -0.0002 -0.2508
vn -0.9680 -0.0010 -0.2510
vn -0.9681 0.0010 -0.2505
vn -0.9682 -0.0013 -0.2503
vn -0.9681 0.0010 -0.2506
vn -0.9677 0.0002 -0.2523
vn -0.9681 0.0009 -0.2505
vn -0.9679 0.0011 -0.2512
vn -0.9658 0.0020 -0.2592
vn -0.9694 -0.0003 -0.2456
vn 0.9679 -0.0002 0.2512
vn 0.9680 0.0006 0.2511
vn 0.9680 0.0006 0.2509
vn 0.9683 0.0005 0.2498
vn 0.9677 -0.0015 0.2522
vn 0.9675 0.0005 0.2528
vn 0.9684 0.0012 0.2496
vn 0.9681 0.0018 0.2507
vn -0.9678 -0.0001 -0.2516
vn -0.9680 0.0003 -0.2509
vn -0.9679 -0.0000 -0.2514
vn -0.9682 0.0001 -0.2501
vn -0.9679 -0.0010 -0.2512
vn -0.9676 -0.0008 -0.2525
vn -0.9670 0.0025 -0.2546
vn -0.9688 -0.0005 -0.2477
vn -0.9682 -0.0006 -0.2500
vn -0.9679 0.0004 -0.2513
s 1
f 1//1 2//2 3//3
f 4//4 5//4 6//4
f 7//5 8//6 9//7
f 10//8 11//4 12//4
f 13//4 14//4 15//4
f 9//7 16//9 1//1
f 17//10 18//10 19//10
f 20//4 21//4 22//4
f 23//11 24//11 25//11
f 3//3 26//12 27//13
f 28//4 6//4 14//4
f 22//4 29//4 30//4
f 11//4 15//4 12//4
f 31//4 32//4 10//8
f 33//10 34//10 35//10
f 30//4 36//4 31//4
f 37//10 38//10 39//10
f 40//14 41//10 42//10
f 35//10 43//10 37//10
f 44//10 45//15 33//10
f 46//16 47//17 48//18
f 49//14 44//10 41//10
f 50//15 42//10 51//10
f 52//4 53//4 5//4
f 17//10 51//10 54//10
f 38//10 55//10 39//10
f 27//13 56//19 57//20
f 58//21 59//22 60//23
f 61//24 62//25 59//22
f 63//26 64//27 62//25
f 65//28 48//18 64//27
f 66//10 67//10 55//10
f 53//4 68//4 69//4
f 47//17 70//29 71//30
f 72//10 73//10 67//10
f 69//4 74//4 75//4
f 71//30 76//31 77//32
f 78//10 79//10 73//10
f 75//4 80//4 81//4
f 77//32 82//33 83//34
f 84//10 85//10 79//10
f 81//4 86//4 87//4
f 83//34 88//35 89//36
f 90//10 91//10 85//10
f 87//4 92//4 93//4
f 89//36 94//37 95//38
f 96//10 97//10 91//10
f 93//4 98//4 99//4
f 95//38 100//39 101//40
f 102//41 103//4 104//42
f 105//43 106//10 107//10
f 108//44 109//45 110//46
f 111//4 112//4 103//4
f 107//10 113//10 114//10
f 109//45 115//47 116//48
f 117//4 118//4 112//4
f 114//10 119//10 120//10
f 116//48 121//49 122//50
f 123//4 124//4 118//4
f 120//10 125//10 126//10
f 122//50 127//51 128//52
f 129//53 130//54 131//55
f 132//56 133//57 134//58
f 98//4 135//4 99//4
f 100//39 136//59 101//40
f 97//10 126//10 125//10
f 137//60 128//52 127//51
f 102//41 104//42 138//61
f 139//62 140//63 141//64
f 142//65 141//64 143//66
f 144//67 143//66 145//68
f 146//69 144//67 145//68
f 147//70 137//60 148//71
f 149//72 148//71 150//73
f 151//74 150//73 152//75
f 153//76 152//75 154//77
f 155//78 154//77 156//79
f 157//80 156//79 158//81
f 159//82 160//83 161//84
f 162//85 163//86 159//82
f 164//87 165//88 162//85
f 166//89 167//90 164//87
f 168//91 169//92 170//93
f 160//83 158//81 161//84
f 171//94 170//93 172//95
f 173//11 23//11 25//11
f 174//96 175//97 176//98
f 177//99 174//96 176//98
f 178//100 172//95 175//97
f 130//54 179//101 131//55
f 180//102 105//43 181//103
f 110//46 133//57 108//44
f 182//104 183//105 184//106
f 185//107 186//108 183//105
f 187//109 188//110 186//108
f 189//111 190//112 188//110
f 191//113 192//114 190//112
f 192//114 193//115 194//116
f 193//115 195//117 194//116
f 196//118 197//119 195//117
f 198//120 199//121 197//119
f 200//122 201//123 199//121
f 202//124 203//125 201//123
f 204//126 205//127 203//125
f 206//128 207//129 205//127
f 208//130 209//131 207//129
f 210//132 211//133 209//131
f 212//134 213//135 211//133
f 214//136 215//137 213//135
f 216//138 217//139 215//137
f 218//140 219//141 217//139
f 220//142 221//143 219//141
f 222//144 223//145 221//143
f 224//146 225//147 223//145
f 226//148 227//149 225//147
f 228//150 229//151 227//149
f 230//152 231//153 229//151
f 232//154 233//155 231//153
f 234//156 235//157 236//158
f 237//159 184//106 238//160
f 239//161 238//160 233//155
f 240//162 241//163 242//164
f 243//165 244//166 245//167
f 246//168 247//169 244//166
f 248//170 249//171 247//169
f 250//172 251//173 249//171
f 252//174 253//175 251//173
f 253//175 254//176 255//177
f 254//176 256//178 255//177
f 257//179 258//180 256//178
f 259//181 260//182 258//180
f 261//183 262//184 260//182
f 263//185 264//186 262//184
f 265//187 266//128 264//186
f 267//188 268//189 266//128
f 269//190 270//191 268//189
f 271//192 272//193 273//194
f 274//195 275//196 276//197
f 277//198 278//199 279//200
f 280//4 4//4 281//4
f 282//201 283//202 284//203
f 285//4 11//4 32//4
f 286//204 13//4 287//4
f 284//203 279//200 282//201
f 18//10 288//10 289//10
f 21//4 290//4 291//4
f 292//11 23//11 293//11
f 294//205 295//206 278//199
f 281//4 28//4 286//204
f 291//4 29//4 21//4
f 287//4 11//4 296//4
f 297//204 32//4 36//4
f 33//10 298//15 299//10
f 300//4 36//4 29//4
f 37//10 301//10 302//10
f 41//10 303//15 42//10
f 35//10 302//10 298//15
f 44//10 299//10 304//10
f 305//207 306//208 307//209
f 44//10 308//15 41//10
f 42//10 309//10 51//10
f 310//4 52//4 280//4
f 51//10 288//10 54//10
f 55//10 301//10 39//10
f 311//210 312//211 295//206
f 313//212 314//213 315//213
f 316//214 317//215 313//212
f 318//216 319//217 316//214
f 307//209 320//218 318//216
f 67//10 321//10 55//10
f 310//4 68//4 322//4
f 305//207 323//219 324//220
f 73//10 325//10 67//10
f 326//4 74//4 68//4
f 327//221 328//222 323//219
f 79//10 329//10 73//10
f 330//4 80//4 74//4
f 331//223 332//224 328//222
f 85//10 333//10 79//10
f 334//4 86//4 80//4
f 335//225 336//226 332//224
f 91//10 337//10 85//10
f 338//4 92//4 86//4
f 339//227 340//228 336//226
f 97//10 341//10 91//10
f 342//4 98//4 92//4
f 343//229 344//230 340//228
f 103//4 345//41 104//42
f 346//231 106//10 180//102
f 347//232 348//233 349//234
f 112//4 350//4 103//4
f 351//10 113//10 106//10
f 347//232 352//235 353//236
f 118//4 354//4 112//4
f 355//10 119//10 113//10
f 356//237 357//238 352//235
f 124//4 358//4 118//4
f 359//10 125//10 119//10
f 360//239 361//240 357//238
f 362//241 363//242 364//243
f 365//244 366//245 367//246
f 98//4 368//4 124//4
f 369//247 344//230 370//248
f 97//10 371//10 372//10
f 373//249 374//250 375//251
f 345//41 138//61 104//42
f 376//252 377//253 378//254
f 378//254 379//255 380//256
f 380//256 381//257 382//258
f 364//243 381//257 362//241
f 373//249 383//259 384//260
f 384//260 385//261 386//262
f 386//262 387//263 388//264
f 388//264 389//265 390//266
f 390//266 391//267 392//268
f 392//268 393//269 394//270
f 395//271 396//272 397//273
f 398//274 397//273 399//275
f 400//276 399//275 401//277
f 402//278 401//277 403//279
f 404//280 405//281 406//282
f 407//283 393//269 396//272
f 406//282 408//284 409//285
f 410//11 23//11 411//11
f 412//286 413//287 414//288
f 413//287 415//289 414//288
f 409//285 416//290 412//286
f 363//242 417//291 418//292
f 180//102 181//103 346//231
f 367//246 349//234 348//233
f 419//293 420//294 421//295
f 422//296 423//297 419//293
f 424//298 425//299 422//296
f 426//300 427//301 424//298
f 428//302 429//303 426//300
f 428//302 430//304 431//305
f 432//306 430//304 433//307
f 434//308 435//309 432//306
f 436//310 437//311 434//308
f 438//312 439//313 436//310
f 440//314 441//315 438//312
f 442//316 443//317 440//314
f 444//318 445//319 442//316
f 446//320 447//321 444//318
f 448//322 449//323 446//320
f 450//324 451//325 448//322
f 452//326 453//327 450//324
f 454//328 455//329 452//326
f 456//330 457//331 454//328
f 458//332 459//333 456//330
f 460//334 461//335 458//332
f 462//336 463//337 460//334
f 464//338 465//339 462//336
f 466//340 467//341 464//338
f 468//342 469//173 466//340
f 470//343 471//344 468//342
f 472//193 473//345 474//346
f 421//295 475//347 476//348
f 476//348 477//349 470//343
f 478//350 479//351 480//352
f 481//353 243//165 245//167
f 482//296 483//354 481//353
f 484//355 485//356 482//296
f 486//357 487//358 484//355
f 488//359 489//360 486//357
f 488//359 490//307 491//361
f 492//362 490//307 493//363
f 494//143 495//145 492//362
f 496//364 497//365 494//143
f 498//366 499//367 496//364
f 500//368 501//369 498//366
f 502//370 503//371 500//368
f 504//372 505//373 502//370
f 270//191 506//374 504//372
f 507//375 508//376 509//377
f 510//196 511//378 512//379
f 1//1 16//9 2//2
f 4//4 52//4 5//4
f 7//5 513//5 8//6
f 10//8 32//4 11//4
f 13//4 28//4 14//4
f 9//7 8//6 16//9
f 17//10 54//10 18//10
f 20//4 514//4 21//4
f 23//11 515//11 24//11
f 3//3 2//2 26//12
f 28//4 4//4 6//4
f 22//4 21//4 29//4
f 11//4 13//4 15//4
f 31//4 36//4 32//4
f 33//10 45//15 34//10
f 30//4 29//4 36//4
f 37//10 43//10 38//10
f 40//14 49//14 41//10
f 35//10 34//10 43//10
f 44//10 516//15 45//15
f 46//16 517//380 47//17
f 49//14 516//15 44//10
f 50//15 40//14 42//10
f 52//4 322//4 53//4
f 17//10 50//15 51//10
f 38//10 66//10 55//10
f 27//13 26//12 56//19
f 58//21 61//24 59//22
f 61//24 63//26 62//25
f 63//26 65//28 64//27
f 65//28 46//16 48//18
f 66//10 72//10 67//10
f 53//4 322//4 68//4
f 47//17 517//380 70//29
f 72//10 78//10 73//10
f 69//4 68//4 74//4
f 71//30 70//29 76//31
f 78//10 84//10 79//10
f 75//4 74//4 80//4
f 77//32 76//31 82//33
f 84//10 90//10 85//10
f 81//4 80//4 86//4
f 83//34 82//33 88//35
f 90//10 96//10 91//10
f 87//4 86//4 92//4
f 89//36 88//35 94//37
f 96//10 518//10 97//10
f 93//4 92//4 98//4
f 95//38 94//37 100//39
f 102//41 111//4 103//4
f 105//43 180//102 106//10
f 108//44 519//381 109//45
f 111//4 117//4 112//4
f 107//10 106//10 113//10
f 109//45 519//381 115//47
f 117//4 123//4 118//4
f 114//10 113//10 119//10
f 116//48 115//47 121//49
f 123//4 135//4 124//4
f 120//10 119//10 125//10
f 122//50 121//49 127//51
f 129//53 146//69 130//54
f 98//4 124//4 135//4
f 100//39 140//63 136//59
f 97//10 518//10 126//10
f 137//60 520//382 128//52
f 139//62 136//59 140//63
f 142//65 139//62 141//64
f 144//67 142//65 143//66
f 146//69 129//53 144//67
f 147//70 520//382 137//60
f 149//72 147//70 148//71
f 151//74 149//72 150//73
f 153//76 151//74 152//75
f 155//78 153//76 154//77
f 157//80 155//78 156//79
f 159//82 163//86 160//83
f 162//85 165//88 163//86
f 164//87 167//90 165//88
f 166//89 521//89 167//90
f 168//91 522//92 169//92
f 160//83 157//80 158//81
f 171//94 168//91 170//93
f 173//11 411//11 23//11
f 174//96 178//100 175//97
f 177//99 523//99 174//96
f 178//100 171//94 172//95
f 110//46 134//58 133//57
f 182//104 185//107 183//105
f 185//107 187//109 186//108
f 187//109 189//111 188//110
f 189//111 191//113 190//112
f 191//113 524//383 192//114
f 192//114 524//383 193//115
f 193//115 196//118 195//117
f 196//118 198//120 197//119
f 198//120 200//122 199//121
f 200//122 202//124 201//123
f 202//124 204//126 203//125
f 204//126 206//128 205//127
f 206//128 208//130 207//129
f 208//130 210//132 209//131
f 210//132 212//134 211//133
f 212//134 214//136 213//135
f 214//136 216//138 215//137
f 216//138 218//140 217//139
f 218//140 220//142 219//141
f 220//142 222//144 221//143
f 222//144 224//146 223//145
f 224//146 226//148 225//147
f 226//148 228//150 227//149
f 228//150 230//152 229//151
f 230//152 232//154 231//153
f 232//154 239//161 233//155
f 525//384 526//385 527//386
f 526//385 528//387 529//388
f 528//387 530//4 529//388
f 530//4 531//389 532//390
f 529//388 530//4 532//390
f 531//389 533//391 534//392
f 533//391 535//393 536//394
f 535//393 537//395 536//394
f 537//395 538//396 539//397
f 536//394 537//395 539//397
f 538//396 540//398 541//399
f 541//399 539//397 538//396
f 536//394 534//392 533//391
f 534//392 542//193 531//389
f 542//193 532//390 531//389
f 529//388 527//386 526//385
f 527//386 543//400 525//384
f 543//400 544//401 525//384
f 544//401 236//158 235//157
f 525//384 544//401 235//157
f 236//158 545//402 546//403
f 545//402 547//404 548//405
f 547//404 549//406 548//405
f 548//405 546//403 545//402
f 546//403 234//156 236//158
f 237//159 182//104 184//106
f 239//161 237//159 238//160
f 241//163 550//407 551//408
f 550//407 552//409 553//410
f 552//409 554//411 555//412
f 554//411 556//413 557//414
f 556//413 558//415 557//414
f 558//415 559//416 560//417
f 557//414 558//415 560//417
f 559//416 561//418 562//419
f 561//418 563//420 562//419
f 562//419 564//421 559//416
f 564//421 560//417 559//416
f 557//414 555//412 554//411
f 555//412 553//410 552//409
f 553//410 551//408 550//407
f 551//408 242//164 241//163
f 242//164 565//422 240//162
f 565//422 566//423 567//424
f 566//423 568//425 569//426
f 568//425 570//427 571//428
f 570//427 572//429 573//430
f 572//429 574//431 573//430
f 573//430 571//428 570//427
f 571//428 569//426 568//425
f 569//426 567//424 566//423
f 567//424 240//162 565//422
f 243//165 246//168 244//166
f 246//168 248//170 247//169
f 248//170 250//172 249//171
f 250//172 252//174 251//173
f 252//174 575//432 253//175
f 253//175 575//432 254//176
f 254//176 257//179 256//178
f 257//179 259//181 258//180
f 259//181 261//183 260//182
f 261//183 263//185 262//184
f 263//185 265//187 264//186
f 265//187 267//188 266//128
f 267//188 269//190 268//189
f 269//190 576//323 270//191
f 272//193 577//433 578//434
f 577//433 579//435 580//436
f 272//193 578//434 273//194
f 579//435 581//437 580//436
f 580//436 578//434 577//433
f 273//194 582//8 271//192
f 582//8 583//4 584//438
f 271//192 582//8 584//438
f 583//4 585//439 586//440
f 585//439 587//441 586//440
f 586//440 588//442 583//4
f 588//442 584//438 583//4
f 275//196 589//414 276//197
f 276//197 590//443 274//195
f 590//443 591//444 592//445
f 274//195 590//443 592//445
f 591//444 593//15 594//446
f 593//15 595//447 596//448
f 594//446 593//15 596//448
f 595//447 597//449 598//450
f 597//449 599//451 598//450
f 598//450 600//452 595//447
f 600//452 596//448 595//447
f 594//446 592//445 591//444
f 277//198 294//205 278//199
f 280//4 52//4 4//4
f 282//201 601//202 283//202
f 285//4 296//4 11//4
f 286//204 28//4 13//4
f 284//203 277//198 279//200
f 18//10 54//10 288//10
f 21//4 514//4 290//4
f 292//11 515//11 23//11
f 294//205 311//210 295//206
f 281//4 4//4 28//4
f 291//4 300//4 29//4
f 287//4 13//4 11//4
f 297//204 285//4 32//4
f 33//10 35//10 298//15
f 300//4 297//204 36//4
f 37//10 39//10 301//10
f 41//10 308//15 303//15
f 35//10 37//10 302//10
f 44//10 33//10 299//10
f 305//207 324//220 306//208
f 44//10 304//10 308//15
f 42//10 303//15 309//10
f 310//4 322//4 52//4
f 51//10 309//10 288//10
f 55//10 321//10 301//10
f 311//210 602//211 312//211
f 313//212 317//215 314//213
f 316//214 319//217 317//215
f 318//216 320//218 319//217
f 307//209 306//208 320//218
f 67//10 325//10 321//10
f 310//4 326//4 68//4
f 305//207 327//221 323//219
f 73//10 329//10 325//10
f 326//4 330//4 74//4
f 327//221 331//223 328//222
f 79//10 333//10 329//10
f 330//4 334//4 80//4
f 331//223 335//225 332//224
f 85//10 337//10 333//10
f 334//4 338//4 86//4
f 335//225 339//227 336//226
f 91//10 341//10 337//10
f 338//4 342//4 92//4
f 339//227 343//229 340//228
f 97//10 372//10 341//10
f 342//4 603//4 98//4
f 343//229 370//248 344//230
f 103//4 350//4 345//41
f 346//231 351//10 106//10
f 347//232 353//236 348//233
f 112//4 354//4 350//4
f 351//10 355//10 113//10
f 347//232 356//237 352//235
f 118//4 358//4 354//4
f 355//10 359//10 119//10
f 356//237 360//239 357//238
f 124//4 368//4 358//4
f 359//10 371//10 125//10
f 360//239 374//250 361//240
f 362//241 417//291 363//242
f 98//4 603//4 368//4
f 369//247 376//252 344//230
f 97//10 125//10 371//10
f 373//249 361//240 374//250
f 376//252 369//247 377//253
f 378//254 377//253 379//255
f 380//256 379//255 381//257
f 364//243 382//258 381//257
f 373//249 375//251 383//259
f 384//260 383//259 385//261
f 386//262 385//261 387//263
f 388//264 387//263 389//265
f 390//266 389//265 391//267
f 392//268 391//267 393//269
f 395//271 407//283 396//272
f 398//274 395//271 397//273
f 400//276 398//274 399//275
f 402//278 400//276 401//277
f 404//280 604//453 405//281
f 407//283 394//270 393//269
f 406//282 405//281 408//284
f 410//11 293//11 23//11
f 412//286 416//290 413//287
f 413//287 605//289 415//289
f 409//285 408//284 416//290
f 367//246 366//245 349//234
f 419//293 423//297 420//294
f 422//296 425//299 423//297
f 424//298 427//301 425//299
f 426//300 429//303 427//301
f 428//302 431//305 429//303
f 428//302 433//307 430//304
f 432//306 435//309 430//304
f 434//308 437//311 435//309
f 436//310 439//313 437//311
f 438//312 441//315 439//313
f 440//314 443//317 441//315
f 442//316 445//319 443//317
f 444//318 447//321 445//319
f 446//320 449//323 447//321
f 448//322 451//325 449//323
f 450//324 453//327 451//325
f 452//326 455//329 453//327
f 454//328 457//331 455//329
f 456//330 459//333 457//331
f 458//332 461//335 459//333
f 460//334 463//337 461//335
f 462//336 465//339 463//337
f 464//338 467//341 465//339
f 466//340 469//173 467//341
f 468//342 471//344 469//173
f 470//343 477//349 471//344
f 606//454 607//455 608//456
f 607//455 609//457 610//458
f 609//457 611//459 610//458
f 611//459 612//460 613//461
f 610//458 611//459 613//461
f 612//460 614//462 615//463
f 614//462 616//464 617//465
f 616//464 618//466 617//465
f 617//465 615//463 614//462
f 615//463 619//467 612//460
f 619//467 613//461 612//460
f 610//458 608//456 607//455
f 608//456 620//468 606//454
f 620//468 621//193 606//454
f 621//193 474//346 473//345
f 606//454 621//193 473//345
f 474//346 622//469 623//345
f 622//469 624//470 625//471
f 624//470 626//472 625//471
f 626//472 627//473 628//345
f 625//471 626//472 628//345
f 627//473 629//474 630//475
f 630//475 628//345 627//473
f 625//471 623//345 622//469
f 623//345 472//193 474//346
f 421//295 420//294 475//347
f 476//348 475//347 477//349
f 479//351 631//476 480//352
f 631//476 632//477 633//478
f 480//352 631//476 633//478
f 632//477 634//479 635//480
f 634//479 636//481 637//482
f 635//480 634//479 637//482
f 636//481 638//483 639//484
f 638//483 640//485 641//486
f 640//485 642//487 641//486
f 642//487 643//488 644//489
f 641//486 642//487 644//489
f 641//486 639//484 638//483
f 639//484 645//490 636//481
f 645//490 637//482 636//481
f 635//480 633//478 632//477
f 480//352 646//481 478//350
f 646//481 647//491 648//492
f 647//491 649//493 650//494
f 649//493 651//495 652//496
f 651//495 653//497 652//496
f 653//497 654//498 655//499
f 652//496 653//497 655//499
f 652//496 650//494 649//493
f 650//494 648//492 647//491
f 648//492 478//350 646//481
f 481//353 483//354 243//165
f 482//296 485//356 483//354
f 484//355 487//358 485//356
f 486//357 489//360 487//358
f 488//359 491//361 489//360
f 488//359 493//363 490//307
f 492//362 495//145 490//307
f 494//143 497//365 495//145
f 496//364 499//367 497//365
f 498//366 501//369 499//367
f 500//368 503//371 501//369
f 502//370 505//373 503//371
f 504//372 506//374 505//373
f 270//191 576//323 506//374
f 579//435 656//500 581//437
f 656//500 509//377 508//376
f 581//437 656//500 508//376
f 509//377 657//501 658//502
f 657//501 659//377 660//503
f 659//377 661//504 660//503
f 661//504 662//505 663//506
f 660//503 661//504 663//506
f 662//505 664//507 665//192
f 665//192 663//506 662//505
f 660//503 658//502 657//501
f 658//502 507//375 509//377
f 511//378 589//414 275//196
f 275//196 512//379 511//378
f 512//379 666//508 510//196
f 666//508 667//509 510//196
f 667//509 668//510 669//511
f 510//196 667//509 669//511
f 668//510 670//512 671//513
f 670//512 672//514 673//515
f 672//514 674//516 673//515
f 673//515 671//513 670//512
f 671//513 675//517 668//510
f 675//517 669//511 668//510
