# Blender v2.82 (sub 7) OBJ File: 'table_scene3.blend'
# www.blender.org
o Eyes_Eyes_Esfera
v -0.359304 0.350369 -0.017366
v -0.359315 0.350663 -0.016612
v -0.359264 0.350521 -0.017378
v -0.359393 0.350365 -0.016588
v -0.359212 0.350755 -0.015835
v -0.359324 0.350325 -0.015801
v -0.358959 0.350796 -0.015083
v -0.359102 0.350252 -0.015040
v -0.358569 0.350783 -0.014387
v -0.358735 0.350149 -0.014336
v -0.358057 0.350716 -0.013778
v -0.358240 0.350020 -0.013723
v -0.357447 0.350598 -0.013283
v -0.357638 0.349870 -0.013225
v -0.356765 0.350436 -0.012923
v -0.356955 0.349708 -0.012865
v -0.356040 0.350234 -0.012714
v -0.356223 0.349538 -0.012658
v -0.355305 0.350004 -0.012665
v -0.355471 0.349370 -0.012615
v -0.354592 0.349754 -0.012779
v -0.354734 0.349210 -0.012736
v -0.353931 0.349495 -0.013050
v -0.353430 0.348942 -0.013443
v -0.354044 0.349065 -0.013016
v -0.352920 0.348846 -0.013998
v -0.353352 0.349240 -0.013466
v -0.359214 0.350943 -0.016694
v -0.359213 0.350665 -0.017420
v -0.359065 0.351161 -0.015954
v -0.358774 0.351309 -0.015233
v -0.358353 0.351380 -0.014562
v -0.357820 0.351372 -0.013970
v -0.357199 0.351285 -0.013484
v -0.356517 0.351122 -0.013124
v -0.355803 0.350891 -0.012906
v -0.355090 0.350601 -0.012840
v -0.354407 0.350266 -0.012929
v -0.353785 0.349901 -0.013169
v -0.353251 0.349520 -0.013549
v -0.352880 0.348998 -0.014010
v -0.359093 0.351194 -0.016831
v -0.359151 0.350793 -0.017490
v -0.358891 0.351524 -0.016153
v -0.358554 0.351768 -0.015484
v -0.358097 0.351915 -0.014854
v -0.357539 0.351959 -0.014291
v -0.356905 0.351899 -0.013819
v -0.356223 0.351736 -0.013459
v -0.355522 0.351478 -0.013227
v -0.354834 0.351136 -0.013133
v -0.354187 0.350725 -0.013180
v -0.353611 0.350264 -0.013367
v -0.353131 0.349771 -0.013686
v -0.352829 0.349141 -0.014052
v -0.358959 0.351405 -0.017018
v -0.359083 0.350901 -0.017585
v -0.358698 0.351829 -0.016422
v -0.358310 0.352153 -0.015824
v -0.357812 0.352364 -0.015251
v -0.357226 0.352452 -0.014727
v -0.356578 0.352414 -0.014275
v -0.355895 0.352252 -0.013915
v -0.355209 0.351971 -0.013663
v -0.354548 0.351585 -0.013529
v -0.353942 0.351111 -0.013520
v -0.353418 0.350569 -0.013636
v -0.352997 0.349982 -0.013872
v -0.352767 0.349270 -0.014122
v -0.358818 0.351567 -0.017245
v -0.359010 0.350984 -0.017701
v -0.358493 0.352062 -0.016750
v -0.358051 0.352448 -0.016239
v -0.357510 0.352707 -0.015734
v -0.356894 0.352830 -0.015257
v -0.356231 0.352809 -0.014830
v -0.355549 0.352646 -0.014470
v -0.354878 0.352348 -0.014193
v -0.354247 0.351929 -0.014012
v -0.353683 0.351405 -0.013935
v -0.353213 0.350802 -0.013964
v -0.352855 0.350144 -0.014099
v -0.352626 0.349460 -0.014333
v -0.358674 0.351671 -0.017502
v -0.358937 0.351037 -0.017833
v -0.358286 0.352213 -0.017123
v -0.357789 0.352639 -0.016710
v -0.357205 0.352930 -0.016283
v -0.356559 0.353074 -0.015861
v -0.355881 0.353065 -0.015460
v -0.355198 0.352902 -0.015101
v -0.354542 0.352593 -0.014797
v -0.353941 0.352151 -0.014562
v -0.353422 0.351597 -0.014406
v -0.353006 0.350953 -0.014337
v -0.352712 0.350248 -0.014357
v -0.352553 0.349513 -0.014465
v -0.358535 0.351715 -0.017780
v -0.358866 0.351059 -0.017975
v -0.358085 0.352276 -0.017524
v -0.357535 0.352718 -0.017217
v -0.356909 0.353023 -0.016874
v -0.356235 0.353176 -0.016510
v -0.355541 0.353171 -0.016139
v -0.354859 0.353008 -0.015779
v -0.354218 0.352695 -0.015446
v -0.353646 0.352244 -0.015153
v -0.353168 0.351676 -0.014913
v -0.352805 0.351016 -0.014738
v -0.352573 0.350292 -0.014634
v -0.352482 0.349536 -0.014607
v -0.358407 0.351695 -0.018065
v -0.358801 0.351049 -0.018121
v -0.357900 0.352248 -0.017936
v -0.357301 0.352683 -0.017738
v -0.356637 0.352981 -0.017481
v -0.355936 0.353130 -0.017176
v -0.355228 0.353123 -0.016836
v -0.354546 0.352960 -0.016476
v -0.353919 0.352649 -0.016112
v -0.353373 0.352202 -0.015760
v -0.352934 0.351640 -0.015434
v -0.352620 0.350987 -0.015150
v -0.352445 0.350272 -0.014920
v -0.352417 0.349526 -0.014753
v -0.358296 0.351613 -0.018345
v -0.358743 0.351007 -0.018264
v -0.357739 0.352129 -0.018340
v -0.357097 0.352533 -0.018250
v -0.356399 0.352807 -0.018078
v -0.355674 0.352939 -0.017831
v -0.354955 0.352923 -0.017521
v -0.354273 0.352760 -0.017161
v -0.353657 0.352457 -0.016767
v -0.353136 0.352028 -0.016356
v -0.352730 0.351491 -0.015946
v -0.352459 0.350869 -0.015555
v -0.352333 0.350190 -0.015200
v -0.352359 0.349484 -0.014896
v -0.358697 0.350936 -0.018398
v -0.357608 0.351926 -0.018720
v -0.358205 0.351473 -0.018608
v -0.356932 0.352276 -0.018730
v -0.356206 0.352508 -0.018637
v -0.355463 0.352610 -0.018446
v -0.354734 0.352579 -0.018164
v -0.354052 0.352416 -0.017804
v -0.353446 0.352129 -0.017382
v -0.352943 0.351729 -0.016916
v -0.352565 0.351234 -0.016426
v -0.352328 0.350666 -0.015935
v -0.352243 0.350050 -0.015463
v -0.352313 0.349412 -0.015030
v -0.358664 0.350837 -0.018518
v -0.357514 0.351647 -0.019059
v -0.358140 0.351280 -0.018842
v -0.356812 0.351923 -0.019158
v -0.356067 0.352096 -0.019136
v -0.355310 0.352159 -0.018994
v -0.354574 0.352107 -0.018737
v -0.353892 0.351944 -0.018377
v -0.353293 0.351677 -0.017929
v -0.352804 0.351318 -0.017414
v -0.352445 0.350881 -0.016854
v -0.352233 0.350387 -0.016273
v -0.352177 0.349857 -0.015697
v -0.352280 0.349313 -0.015150
v -0.358645 0.350716 -0.018618
v -0.357459 0.351304 -0.019341
v -0.358102 0.351042 -0.019038
v -0.356744 0.351490 -0.019515
v -0.355987 0.351592 -0.019552
v -0.355222 0.351604 -0.019450
v -0.354482 0.351527 -0.019214
v -0.353800 0.351364 -0.018854
v -0.353205 0.351123 -0.018386
v -0.352724 0.350813 -0.017830
v -0.352377 0.350448 -0.017211
v -0.352179 0.350044 -0.016555
v -0.352140 0.349619 -0.015892
v -0.352261 0.349192 -0.015250
v -0.358641 0.350577 -0.018694
v -0.358095 0.350772 -0.019185
v -0.356730 0.350995 -0.019785
v -0.357448 0.350913 -0.019555
v -0.355971 0.351015 -0.019867
v -0.355204 0.350971 -0.019796
v -0.354464 0.350865 -0.019576
v -0.353781 0.350702 -0.019216
v -0.353187 0.350489 -0.018732
v -0.352707 0.350236 -0.018145
v -0.352363 0.349953 -0.017481
v -0.352168 0.349653 -0.016769
v -0.352132 0.349349 -0.016040
v -0.352257 0.349054 -0.015326
v -0.358652 0.350428 -0.018742
v -0.358117 0.350479 -0.019279
v -0.356770 0.350460 -0.019957
v -0.357480 0.350490 -0.019690
v -0.356018 0.350392 -0.020067
v -0.355256 0.350286 -0.020015
v -0.354518 0.350149 -0.019805
v -0.353836 0.349986 -0.019445
v -0.353239 0.349805 -0.018951
v -0.352755 0.349613 -0.018345
v -0.352403 0.349418 -0.017653
v -0.352200 0.349230 -0.016905
v -0.352154 0.349056 -0.016134
v -0.352268 0.348904 -0.015374
v -0.358168 0.350177 -0.019315
v -0.358678 0.350273 -0.018760
v -0.357554 0.350054 -0.019742
v -0.356864 0.349909 -0.020022
v -0.356127 0.349749 -0.020143
v -0.355376 0.349581 -0.020099
v -0.354643 0.349411 -0.019893
v -0.353961 0.349248 -0.019533
v -0.353359 0.349099 -0.019035
v -0.352864 0.348970 -0.018421
v -0.352497 0.348867 -0.017718
v -0.352274 0.348794 -0.016957
v -0.352206 0.348754 -0.016170
v -0.358246 0.349879 -0.019292
v -0.358718 0.350121 -0.018748
v -0.357667 0.349624 -0.019708
v -0.357006 0.349365 -0.019979
v -0.356293 0.349115 -0.020093
v -0.355558 0.348884 -0.020044
v -0.354834 0.348683 -0.019835
v -0.354151 0.348521 -0.019475
v -0.353541 0.348403 -0.018980
v -0.353030 0.348336 -0.018371
v -0.352639 0.348323 -0.017675
v -0.352387 0.348363 -0.016922
v -0.352294 0.348750 -0.015392
v -0.352284 0.348456 -0.016146
v -0.358347 0.349599 -0.019209
v -0.358770 0.349978 -0.018706
v -0.357814 0.349218 -0.019589
v -0.357192 0.348852 -0.019829
v -0.356509 0.348518 -0.019917
v -0.355795 0.348228 -0.019852
v -0.355081 0.347997 -0.019634
v -0.354399 0.347834 -0.019274
v -0.353778 0.347747 -0.018788
v -0.353245 0.347739 -0.018196
v -0.352824 0.347810 -0.017525
v -0.352533 0.347958 -0.016803
v -0.352334 0.348597 -0.015380
v -0.352385 0.348176 -0.016064
v -0.358468 0.349348 -0.019072
v -0.358831 0.349849 -0.018636
v -0.357987 0.348855 -0.019391
v -0.357411 0.348393 -0.019578
v -0.356765 0.347983 -0.019625
v -0.356076 0.347641 -0.019531
v -0.355375 0.347383 -0.019298
v -0.354693 0.347220 -0.018938
v -0.354059 0.347160 -0.018467
v -0.353501 0.347204 -0.017904
v -0.353044 0.347351 -0.017274
v -0.352707 0.347595 -0.016605
v -0.352386 0.348454 -0.015338
v -0.352505 0.347925 -0.015927
v -0.358602 0.349137 -0.018886
v -0.358900 0.349741 -0.018540
v -0.358181 0.348550 -0.019122
v -0.357656 0.348008 -0.019238
v -0.357050 0.347534 -0.019229
v -0.356389 0.347148 -0.019095
v -0.355703 0.346867 -0.018843
v -0.355021 0.346705 -0.018483
v -0.354373 0.346667 -0.018031
v -0.353787 0.346755 -0.017507
v -0.353289 0.346966 -0.016934
v -0.352901 0.347290 -0.016336
v -0.352447 0.348326 -0.015268
v -0.352639 0.347714 -0.015740
v -0.358972 0.349659 -0.018424
v -0.358743 0.348975 -0.018659
v -0.358386 0.348317 -0.018794
v -0.357915 0.347713 -0.018823
v -0.357352 0.347190 -0.018745
v -0.356721 0.346771 -0.018564
v -0.356050 0.346473 -0.018288
v -0.355367 0.346310 -0.017928
v -0.354704 0.346289 -0.017500
v -0.354088 0.346412 -0.017024
v -0.353548 0.346671 -0.016519
v -0.353105 0.347057 -0.016008
v -0.352516 0.348218 -0.015172
v -0.352781 0.347552 -0.015513
v -0.359046 0.349606 -0.018293
v -0.358887 0.348871 -0.018401
v -0.358593 0.348166 -0.018421
v -0.358177 0.347522 -0.018352
v -0.357657 0.346967 -0.018196
v -0.357056 0.346526 -0.017961
v -0.356400 0.346217 -0.017657
v -0.355718 0.346054 -0.017297
v -0.355039 0.346045 -0.016897
v -0.354394 0.346189 -0.016475
v -0.353810 0.346480 -0.016048
v -0.353313 0.346906 -0.015635
v -0.352588 0.348135 -0.015056
v -0.352924 0.347448 -0.015255
v -0.359116 0.349583 -0.018151
v -0.359025 0.348827 -0.018123
v -0.358793 0.348103 -0.018020
v -0.358430 0.347443 -0.017845
v -0.357952 0.346875 -0.017605
v -0.357380 0.346424 -0.017312
v -0.356739 0.346111 -0.016979
v -0.356057 0.345948 -0.016619
v -0.355364 0.345943 -0.016248
v -0.354689 0.346096 -0.015884
v -0.354063 0.346401 -0.015541
v -0.353513 0.346843 -0.015234
v -0.352661 0.348082 -0.014925
v -0.353063 0.347404 -0.014978
v -0.359182 0.349593 -0.018005
v -0.359153 0.348847 -0.017838
v -0.358978 0.348132 -0.017608
v -0.358664 0.347479 -0.017324
v -0.358225 0.346917 -0.016998
v -0.357680 0.346470 -0.016646
v -0.357052 0.346159 -0.016282
v -0.356370 0.345996 -0.015922
v -0.355663 0.345989 -0.015582
v -0.354962 0.346138 -0.015277
v -0.354297 0.346436 -0.015020
v -0.353698 0.346871 -0.014822
v -0.352732 0.348060 -0.014783
v -0.353191 0.347424 -0.014693
v -0.359239 0.349635 -0.017862
v -0.359265 0.348929 -0.017558
v -0.359140 0.348250 -0.017203
v -0.358868 0.347628 -0.016812
v -0.358463 0.347091 -0.016402
v -0.357941 0.346662 -0.015991
v -0.357325 0.346359 -0.015597
v -0.356643 0.346196 -0.015237
v -0.355924 0.346180 -0.014927
v -0.355200 0.346312 -0.014680
v -0.354501 0.346586 -0.014508
v -0.353860 0.346990 -0.014417
v -0.352798 0.348070 -0.014637
v -0.353303 0.347506 -0.014413
v -0.359285 0.349707 -0.017727
v -0.359356 0.349069 -0.017295
v -0.359271 0.348453 -0.016823
v -0.359034 0.347885 -0.016332
v -0.358656 0.347390 -0.015842
v -0.358153 0.346990 -0.015376
v -0.357547 0.346703 -0.014954
v -0.356865 0.346540 -0.014594
v -0.356136 0.346509 -0.014312
v -0.355392 0.346611 -0.014120
v -0.354667 0.346843 -0.014028
v -0.353990 0.347193 -0.014037
v -0.352901 0.348183 -0.014359
v -0.353393 0.347646 -0.014150
v -0.359319 0.349806 -0.017608
v -0.359421 0.349262 -0.017061
v -0.359365 0.348732 -0.016485
v -0.359153 0.348238 -0.015904
v -0.358795 0.347801 -0.015343
v -0.358306 0.347442 -0.014828
v -0.357707 0.347175 -0.014381
v -0.357025 0.347012 -0.014021
v -0.356289 0.346960 -0.013764
v -0.355532 0.347022 -0.013622
v -0.354786 0.347195 -0.013600
v -0.354085 0.347472 -0.013699
v -0.352935 0.348282 -0.014240
v -0.353459 0.347839 -0.013915
v -0.359338 0.349927 -0.017508
v -0.359458 0.349499 -0.016866
v -0.359419 0.349075 -0.016202
v -0.359222 0.348671 -0.015547
v -0.358875 0.348306 -0.014928
v -0.358393 0.347996 -0.014372
v -0.357798 0.347755 -0.013904
v -0.357116 0.347592 -0.013544
v -0.356376 0.347515 -0.013308
v -0.355611 0.347527 -0.013206
v -0.354854 0.347629 -0.013243
v -0.354139 0.347814 -0.013417
v -0.352954 0.348403 -0.014140
v -0.353496 0.348076 -0.013720
v -0.359342 0.350065 -0.017432
v -0.359466 0.349770 -0.016718
v -0.359430 0.349466 -0.015989
v -0.359236 0.349166 -0.015277
v -0.358891 0.348883 -0.014613
v -0.358411 0.348630 -0.014026
v -0.357817 0.348417 -0.013542
v -0.357135 0.348254 -0.013182
v -0.356394 0.348148 -0.012962
v -0.355628 0.348104 -0.012891
v -0.354869 0.348124 -0.012973
v -0.353504 0.348347 -0.013572
v -0.354150 0.348206 -0.013203
v -0.352958 0.348542 -0.014064
v -0.359330 0.350215 -0.017384
v -0.359444 0.350063 -0.016624
v -0.359398 0.349889 -0.015853
v -0.359195 0.349701 -0.015105
v -0.358844 0.349506 -0.014413
v -0.358359 0.349314 -0.013806
v -0.357763 0.349133 -0.013312
v -0.357081 0.348970 -0.012953
v -0.356342 0.348833 -0.012742
v -0.355580 0.348727 -0.012691
v -0.354828 0.348658 -0.012801
v -0.353482 0.348640 -0.013478
v -0.354118 0.348629 -0.013067
v -0.352946 0.348691 -0.014016
v -0.359063 0.350338 -0.018101
v -0.352536 0.348781 -0.014657
v -0.352699 0.349377 -0.014217
v -0.352855 0.348112 -0.014494
v -0.378221 0.350369 -0.007105
v -0.377583 0.350663 -0.006703
v -0.377521 0.350365 -0.006755
v -0.376989 0.350755 -0.006193
v -0.376899 0.350325 -0.006269
v -0.376496 0.350796 -0.005571
v -0.376381 0.350252 -0.005667
v -0.376125 0.350783 -0.004864
v -0.375992 0.350149 -0.004976
v -0.375894 0.350716 -0.004103
v -0.375748 0.350020 -0.004226
v -0.375811 0.350598 -0.003322
v -0.375659 0.349870 -0.003450
v -0.375882 0.350436 -0.002553
v -0.375729 0.349708 -0.002682
v -0.376102 0.350234 -0.001832
v -0.375956 0.349538 -0.001955
v -0.376462 0.350004 -0.001190
v -0.376329 0.349370 -0.001301
v -0.376946 0.349754 -0.000654
v -0.376832 0.349210 -0.000749
v -0.377533 0.349495 -0.000248
v -0.377443 0.349065 -0.000323
v -0.378136 0.348942 -0.000042
v -0.378198 0.349240 0.000011
v -0.378879 0.348846 0.000083
v -0.378253 0.350521 -0.007078
v -0.377707 0.350943 -0.006663
v -0.377168 0.351161 -0.006135
v -0.376722 0.351309 -0.005498
v -0.376390 0.351380 -0.004779
v -0.376184 0.351372 -0.004009
v -0.376115 0.351285 -0.003224
v -0.376185 0.351122 -0.002455
v -0.376392 0.350891 -0.001739
v -0.376726 0.350601 -0.001104
v -0.377173 0.350266 -0.000580
v -0.377713 0.349901 -0.000190
v -0.378322 0.349520 0.000051
v -0.378911 0.348998 0.000110
v -0.378316 0.350665 -0.007058
v -0.377888 0.351194 -0.006637
v -0.377429 0.351524 -0.006097
v -0.377052 0.351768 -0.005450
v -0.376774 0.351915 -0.004723
v -0.376606 0.351959 -0.003949
v -0.376557 0.351899 -0.003160
v -0.376627 0.351736 -0.002392
v -0.376814 0.351478 -0.001678
v -0.377111 0.351136 -0.001049
v -0.377503 0.350725 -0.000533
v -0.377974 0.350264 -0.000152
v -0.378503 0.349771 0.000077
v -0.378975 0.349141 0.000130
v -0.378409 0.350793 -0.007044
v -0.378117 0.351405 -0.006626
v -0.377760 0.351829 -0.006082
v -0.377471 0.352153 -0.005431
v -0.377262 0.352364 -0.004700
v -0.377142 0.352452 -0.003924
v -0.377117 0.352414 -0.003134
v -0.377187 0.352252 -0.002366
v -0.377350 0.351971 -0.001653
v -0.377598 0.351585 -0.001026
v -0.377921 0.351111 -0.000513
v -0.378305 0.350569 -0.000137
v -0.378732 0.349982 0.000087
v -0.379067 0.349270 0.000143
v -0.378526 0.350901 -0.007039
v -0.378385 0.351567 -0.006631
v -0.378147 0.352062 -0.006089
v -0.377960 0.352448 -0.005440
v -0.377832 0.352707 -0.004711
v -0.377768 0.352830 -0.003935
v -0.377771 0.352809 -0.003146
v -0.377841 0.352646 -0.002378
v -0.377976 0.352348 -0.001664
v -0.378168 0.351929 -0.001037
v -0.378410 0.351405 -0.000523
v -0.378692 0.350802 -0.000144
v -0.379000 0.350144 0.000082
v -0.379321 0.349460 0.000146
v -0.379184 0.349377 0.000149
v -0.378663 0.350984 -0.007042
v -0.378679 0.351671 -0.006651
v -0.378572 0.352213 -0.006119
v -0.378498 0.352639 -0.005477
v -0.378458 0.352930 -0.004755
v -0.378456 0.353074 -0.003983
v -0.378491 0.353065 -0.003196
v -0.378561 0.352902 -0.002428
v -0.378664 0.352593 -0.001712
v -0.378795 0.352151 -0.001080
v -0.378948 0.351597 -0.000560
v -0.379117 0.350953 -0.000174
v -0.379294 0.350248 0.000062
v -0.379471 0.349513 0.000136
v -0.378813 0.351037 -0.007052
v -0.378987 0.351715 -0.006686
v -0.379018 0.352276 -0.006169
v -0.379061 0.352718 -0.005541
v -0.379115 0.353023 -0.004829
v -0.379177 0.353176 -0.004065
v -0.379245 0.353171 -0.003282
v -0.379315 0.353008 -0.002514
v -0.379385 0.352695 -0.001794
v -0.379451 0.352244 -0.001155
v -0.379511 0.351676 -0.000624
v -0.379562 0.351016 -0.000224
v -0.379602 0.350292 0.000027
v -0.379629 0.349536 0.000118
v -0.378971 0.351059 -0.007070
v -0.379296 0.351695 -0.006735
v -0.379464 0.352248 -0.006239
v -0.379625 0.352683 -0.005629
v -0.379772 0.352981 -0.004932
v -0.379899 0.353130 -0.004178
v -0.380000 0.353123 -0.003400
v -0.380070 0.352960 -0.002632
v -0.380107 0.352649 -0.001907
v -0.380109 0.352202 -0.001258
v -0.380076 0.351640 -0.000712
v -0.380009 0.350987 -0.000294
v -0.379911 0.350272 -0.000021
v -0.379787 0.349526 0.000093
v -0.379129 0.351049 -0.007095
v -0.379592 0.351613 -0.006794
v -0.379892 0.352129 -0.006324
v -0.380166 0.352533 -0.005737
v -0.380402 0.352807 -0.005058
v -0.380590 0.352939 -0.004316
v -0.380723 0.352923 -0.003544
v -0.380793 0.352760 -0.002776
v -0.380798 0.352457 -0.002045
v -0.380739 0.352028 -0.001384
v -0.380616 0.351491 -0.000820
v -0.380436 0.350869 -0.000379
v -0.380207 0.350190 -0.000080
v -0.379938 0.349484 0.000063
v -0.379418 0.350936 -0.007159
v -0.379280 0.351007 -0.007125
v -0.380281 0.351926 -0.006422
v -0.380658 0.352276 -0.005860
v -0.380976 0.352508 -0.005201
v -0.381221 0.352610 -0.004474
v -0.381382 0.352579 -0.003709
v -0.381453 0.352416 -0.002941
v -0.381429 0.352129 -0.002203
v -0.381313 0.351729 -0.001527
v -0.381109 0.351234 -0.000943
v -0.380826 0.350666 -0.000477
v -0.380476 0.350050 -0.000148
v -0.380076 0.349412 0.000029
v -0.379536 0.350837 -0.007197
v -0.379862 0.351473 -0.006861
v -0.380617 0.351647 -0.006527
v -0.381082 0.351923 -0.005994
v -0.381470 0.352096 -0.005357
v -0.381764 0.352159 -0.004644
v -0.381950 0.352107 -0.003887
v -0.382020 0.351944 -0.003119
v -0.381972 0.351677 -0.002373
v -0.381807 0.351318 -0.001682
v -0.381533 0.350881 -0.001077
v -0.381161 0.350387 -0.000582
v -0.380708 0.349857 -0.000221
v -0.380195 0.349313 -0.000009
v -0.379630 0.350716 -0.007235
v -0.380094 0.351280 -0.006934
v -0.380883 0.351304 -0.006636
v -0.381419 0.351490 -0.006131
v -0.381862 0.351592 -0.005517
v -0.382194 0.351604 -0.004820
v -0.382400 0.351527 -0.004071
v -0.382470 0.351364 -0.003303
v -0.382402 0.351123 -0.002549
v -0.382199 0.350813 -0.001842
v -0.381869 0.350448 -0.001214
v -0.381427 0.350044 -0.000691
v -0.380893 0.349619 -0.000296
v -0.380289 0.349192 -0.000047
v -0.379696 0.350577 -0.007273
v -0.380278 0.351042 -0.007009
v -0.380406 0.350772 -0.007083
v -0.381653 0.350995 -0.006266
v -0.382135 0.351015 -0.005675
v -0.382494 0.350971 -0.004993
v -0.382713 0.350865 -0.004252
v -0.382783 0.350702 -0.003484
v -0.382702 0.350489 -0.002723
v -0.382472 0.350236 -0.002000
v -0.382103 0.349953 -0.001349
v -0.381612 0.349653 -0.000798
v -0.381021 0.349349 -0.000370
v -0.380354 0.349054 -0.000085
v -0.379730 0.350428 -0.007309
v -0.380473 0.350479 -0.007153
v -0.381068 0.350913 -0.006743
v -0.381775 0.350460 -0.006394
v -0.382277 0.350392 -0.005823
v -0.382650 0.350286 -0.005157
v -0.382876 0.350149 -0.004423
v -0.382946 0.349986 -0.003655
v -0.382858 0.349805 -0.002886
v -0.382613 0.349613 -0.002149
v -0.382225 0.349418 -0.001477
v -0.381709 0.349230 -0.000899
v -0.381087 0.349056 -0.000440
v -0.380388 0.348904 -0.000121
v -0.380475 0.350177 -0.007216
v -0.381167 0.350054 -0.006934
v -0.381164 0.350490 -0.006844
v -0.381778 0.349909 -0.006508
v -0.382282 0.349749 -0.005956
v -0.382655 0.349581 -0.005303
v -0.382881 0.349411 -0.004576
v -0.382952 0.349248 -0.003808
v -0.382863 0.349099 -0.003032
v -0.382618 0.348970 -0.002282
v -0.382229 0.348867 -0.001591
v -0.381712 0.348794 -0.000989
v -0.381089 0.348754 -0.000502
v -0.379731 0.350273 -0.007340
v -0.380412 0.349879 -0.007268
v -0.381077 0.349624 -0.007010
v -0.381664 0.349365 -0.006604
v -0.382149 0.349115 -0.006068
v -0.382509 0.348884 -0.005425
v -0.382729 0.348683 -0.004704
v -0.382799 0.348521 -0.003936
v -0.382717 0.348403 -0.003154
v -0.382485 0.348336 -0.002394
v -0.382115 0.348323 -0.001687
v -0.381622 0.348363 -0.001065
v -0.381027 0.348456 -0.000555
v -0.380389 0.348750 -0.000153
v -0.379699 0.350121 -0.007367
v -0.380288 0.349599 -0.007308
v -0.380898 0.349218 -0.007068
v -0.381438 0.348852 -0.006677
v -0.381884 0.348518 -0.006153
v -0.382218 0.348228 -0.005519
v -0.382425 0.347997 -0.004802
v -0.382495 0.347834 -0.004034
v -0.382426 0.347747 -0.003248
v -0.382221 0.347739 -0.002479
v -0.381888 0.347810 -0.001760
v -0.381442 0.347958 -0.001123
v -0.380903 0.348176 -0.000595
v -0.380357 0.348597 -0.000179
v -0.379636 0.349978 -0.007388
v -0.380107 0.349348 -0.007334
v -0.380637 0.348855 -0.007105
v -0.381108 0.348393 -0.006725
v -0.381500 0.347983 -0.006209
v -0.381796 0.347641 -0.005580
v -0.381983 0.347383 -0.004866
v -0.382054 0.347220 -0.004098
v -0.382004 0.347160 -0.003309
v -0.381836 0.347204 -0.002534
v -0.381558 0.347351 -0.001807
v -0.381181 0.347595 -0.001160
v -0.380722 0.347925 -0.000621
v -0.380294 0.348454 -0.000200
v -0.379543 0.349849 -0.007401
v -0.379878 0.349137 -0.007345
v -0.380305 0.348550 -0.007121
v -0.380689 0.348008 -0.006744
v -0.381012 0.347534 -0.006231
v -0.381260 0.347148 -0.005605
v -0.381423 0.346867 -0.004892
v -0.381493 0.346705 -0.004124
v -0.381468 0.346667 -0.003334
v -0.381348 0.346755 -0.002557
v -0.381139 0.346966 -0.001827
v -0.380850 0.347290 -0.001176
v -0.380493 0.347714 -0.000632
v -0.380202 0.348326 -0.000213
v -0.379289 0.349659 -0.007404
v -0.379426 0.349741 -0.007407
v -0.379611 0.348975 -0.007340
v -0.379919 0.348317 -0.007114
v -0.380200 0.347713 -0.006735
v -0.380442 0.347190 -0.006221
v -0.380635 0.346771 -0.005593
v -0.380769 0.346473 -0.004880
v -0.380839 0.346310 -0.004112
v -0.380842 0.346289 -0.003322
v -0.380779 0.346412 -0.002546
v -0.380650 0.346671 -0.001818
v -0.380463 0.347057 -0.001169
v -0.380226 0.347552 -0.000627
v -0.380084 0.348218 -0.000219
v -0.379139 0.349606 -0.007394
v -0.379316 0.348871 -0.007319
v -0.379493 0.348166 -0.007084
v -0.379662 0.347522 -0.006698
v -0.379815 0.346967 -0.006177
v -0.379946 0.346526 -0.005545
v -0.380049 0.346217 -0.004830
v -0.380119 0.346054 -0.004061
v -0.380154 0.346045 -0.003274
v -0.380152 0.346189 -0.002503
v -0.380112 0.346480 -0.001781
v -0.380038 0.346906 -0.001139
v -0.379931 0.347448 -0.000606
v -0.379948 0.348135 -0.000216
v -0.378981 0.349583 -0.007376
v -0.379008 0.348827 -0.007284
v -0.379048 0.348103 -0.007033
v -0.379099 0.347443 -0.006634
v -0.379159 0.346875 -0.006102
v -0.379225 0.346424 -0.005463
v -0.379295 0.346111 -0.004744
v -0.379366 0.345948 -0.003976
v -0.379433 0.345943 -0.003192
v -0.379495 0.346096 -0.002428
v -0.379549 0.346401 -0.001716
v -0.379592 0.346843 -0.001088
v -0.379623 0.347404 -0.000571
v -0.379797 0.348082 -0.000206
v -0.378823 0.349593 -0.007351
v -0.378699 0.348847 -0.007236
v -0.378602 0.348132 -0.006964
v -0.378535 0.347479 -0.006546
v -0.378501 0.346917 -0.006000
v -0.378503 0.346470 -0.005351
v -0.378540 0.346159 -0.004626
v -0.378611 0.345996 -0.003858
v -0.378711 0.345989 -0.003080
v -0.378838 0.346138 -0.002326
v -0.378985 0.346436 -0.001628
v -0.379146 0.346871 -0.001019
v -0.379314 0.347424 -0.000523
v -0.379640 0.348060 -0.000188
v -0.378672 0.349635 -0.007321
v -0.378404 0.348929 -0.007177
v -0.378174 0.348250 -0.006878
v -0.377994 0.347628 -0.006438
v -0.377872 0.347091 -0.005874
v -0.377812 0.346662 -0.005212
v -0.377817 0.346359 -0.004482
v -0.377887 0.346196 -0.003713
v -0.378020 0.346180 -0.002942
v -0.378208 0.346312 -0.002200
v -0.378445 0.346586 -0.001520
v -0.378719 0.346990 -0.000933
v -0.379018 0.347506 -0.000464
v -0.379482 0.348070 -0.000163
v -0.378534 0.349707 -0.007286
v -0.378134 0.349069 -0.007110
v -0.377784 0.348453 -0.006781
v -0.377502 0.347885 -0.006314
v -0.377297 0.347390 -0.005730
v -0.377181 0.346990 -0.005055
v -0.377158 0.346703 -0.004317
v -0.377228 0.346540 -0.003548
v -0.377389 0.346509 -0.002784
v -0.377634 0.346611 -0.002056
v -0.377952 0.346843 -0.001397
v -0.378329 0.347193 -0.000836
v -0.379193 0.348183 -0.000098
v -0.379331 0.348112 -0.000133
v -0.378416 0.349806 -0.007249
v -0.377902 0.349262 -0.007037
v -0.377449 0.348732 -0.006675
v -0.377078 0.348238 -0.006181
v -0.376803 0.347801 -0.005575
v -0.376639 0.347442 -0.004884
v -0.376590 0.347175 -0.004138
v -0.376661 0.347012 -0.003370
v -0.376847 0.346960 -0.002613
v -0.377140 0.347022 -0.001901
v -0.377528 0.347195 -0.001264
v -0.377994 0.347472 -0.000730
v -0.378749 0.347646 -0.000396
v -0.379074 0.348282 -0.000061
v -0.378322 0.349927 -0.007211
v -0.377718 0.349499 -0.006962
v -0.377183 0.349075 -0.006567
v -0.376741 0.348671 -0.006044
v -0.376411 0.348306 -0.005415
v -0.376208 0.347996 -0.004708
v -0.376140 0.347755 -0.003954
v -0.376211 0.347592 -0.003186
v -0.376416 0.347515 -0.002438
v -0.376748 0.347527 -0.001741
v -0.377192 0.347629 -0.001127
v -0.377728 0.347814 -0.000622
v -0.378517 0.347839 -0.000323
v -0.378980 0.348403 -0.000023
v -0.378256 0.350065 -0.007173
v -0.377590 0.349770 -0.006887
v -0.376998 0.349466 -0.006460
v -0.376507 0.349166 -0.005908
v -0.376139 0.348883 -0.005257
v -0.375908 0.348630 -0.004535
v -0.375827 0.348417 -0.003773
v -0.375897 0.348254 -0.003005
v -0.376116 0.348148 -0.002264
v -0.376475 0.348104 -0.001583
v -0.376957 0.348124 -0.000991
v -0.378204 0.348347 -0.000174
v -0.378333 0.348076 -0.000248
v -0.378914 0.348542 0.000015
v -0.378222 0.350215 -0.007137
v -0.377523 0.350063 -0.006818
v -0.376902 0.349889 -0.006359
v -0.376385 0.349701 -0.005781
v -0.375997 0.349506 -0.005109
v -0.375753 0.349314 -0.004372
v -0.375664 0.349133 -0.003603
v -0.375734 0.348970 -0.002834
v -0.375961 0.348833 -0.002101
v -0.376333 0.348727 -0.001434
v -0.376836 0.348658 -0.000864
v -0.377542 0.348206 -0.000515
v -0.378138 0.348640 -0.000104
v -0.378880 0.348691 0.000051
v -0.378969 0.350338 -0.007303
v -0.377446 0.348629 -0.000414
v -0.379642 0.348781 0.000045
vn -0.9557 0.2101 -0.2059
vn -0.9554 0.2952 -0.0062
vn -0.9442 0.2547 -0.2089
vn -0.9775 0.2108 -0.0008
vn -0.9267 0.3228 0.1926
vn -0.9586 0.2026 0.2002
vn -0.8612 0.3369 0.3806
vn -0.9017 0.1864 0.3901
vn -0.7624 0.3376 0.5520
vn -0.8100 0.1631 0.5633
vn -0.6339 0.3251 0.7018
vn -0.6866 0.1334 0.7147
vn -0.4792 0.2996 0.8250
vn -0.5349 0.0981 0.8392
vn -0.3028 0.2616 0.9165
vn -0.3589 0.0583 0.9316
vn -0.1101 0.2117 0.9711
vn -0.1641 0.0151 0.9863
vn 0.0915 0.1516 0.9842
vn 0.0423 -0.0296 0.9987
vn 0.2928 0.0835 0.9525
vn 0.2507 -0.0738 0.9653
vn 0.4830 0.0105 0.8756
vn 0.6283 -0.1509 0.7632
vn 0.4498 -0.1151 0.8857
vn 0.7760 -0.1795 0.6047
vn 0.6511 -0.0634 0.7563
vn -0.9266 0.3749 -0.0276
vn -0.9292 0.2968 -0.2203
vn -0.8851 0.4362 0.1625
vn -0.8083 0.4786 0.3429
vn -0.7002 0.5016 0.5080
vn -0.5649 0.5048 0.6528
vn -0.4064 0.4880 0.7725
vn -0.2295 0.4512 0.8624
vn -0.0398 0.3949 0.9178
vn 0.1554 0.3204 0.9345
vn 0.3473 0.2300 0.9091
vn 0.5258 0.1277 0.8410
vn 0.6806 0.0185 0.7324
vn 0.7877 -0.1341 0.6012
vn -0.8925 0.4466 -0.0640
vn -0.9116 0.3340 -0.2396
vn -0.8356 0.5379 0.1111
vn -0.7454 0.6055 0.2788
vn -0.6263 0.6481 0.4333
vn -0.4829 0.6647 0.5700
vn -0.3200 0.6550 0.6845
vn -0.1426 0.6187 0.7725
vn 0.0434 0.5563 0.8298
vn 0.2309 0.4689 0.8525
vn 0.4117 0.3591 0.8376
vn 0.5763 0.2311 0.7839
vn 0.7154 0.0911 0.6928
vn 0.8030 -0.0914 0.5890
vn -0.8544 0.5070 -0.1139
vn -0.8919 0.3656 -0.2660
vn -0.7805 0.6238 0.0405
vn -0.6752 0.7125 0.1907
vn -0.5438 0.7711 0.3312
vn -0.3917 0.7983 0.4575
vn -0.2241 0.7937 0.5655
vn -0.0463 0.7572 0.6515
vn 0.1354 0.6892 0.7118
vn 0.3145 0.5910 0.7429
vn 0.4829 0.4652 0.7419
vn 0.6322 0.3163 0.7073
vn 0.7539 0.1511 0.6394
vn 0.8209 -0.0535 0.5686
vn -0.8141 0.5536 -0.1754
vn -0.8711 0.3899 -0.2986
vn -0.7221 0.6903 -0.0465
vn -0.6008 0.7952 0.0823
vn -0.4565 0.8656 0.2059
vn -0.2952 0.9003 0.3200
vn -0.1227 0.8988 0.4208
vn 0.0552 0.8613 0.5051
vn 0.2324 0.7884 0.5696
vn 0.4023 0.6817 0.6111
vn 0.5577 0.5440 0.6269
vn 0.6909 0.3798 0.6151
vn 0.7944 0.1961 0.5749
vn 0.8616 0.0015 0.5076
vn -0.7732 0.5845 -0.2460
vn -0.8501 0.4059 -0.3357
vn -0.6628 0.7344 -0.1465
vn -0.5253 0.8499 -0.0422
vn -0.3679 0.9278 0.0623
vn -0.1973 0.9667 0.1631
vn -0.0201 0.9663 0.2566
vn 0.1577 0.9272 0.3397
vn 0.3300 0.8505 0.4096
vn 0.4907 0.7380 0.4633
vn 0.6330 0.5927 0.4980
vn 0.7500 0.4193 0.5116
vn 0.8351 0.2242 0.5024
vn 0.8826 0.0166 0.4698
vn -0.7335 0.5981 -0.3228
vn -0.8296 0.4127 -0.3761
vn -0.6051 0.7540 -0.2555
vn -0.4518 0.8742 -0.1778
vn -0.2816 0.9550 -0.0936
vn -0.1022 0.9947 -0.0067
vn 0.0795 0.9936 0.0796
vn 0.2571 0.9527 0.1623
vn 0.4245 0.8734 0.2386
vn 0.5761 0.7581 0.3058
vn 0.7055 0.6099 0.3609
vn 0.8069 0.4333 0.4014
vn 0.8743 0.2346 0.4249
vn 0.9029 0.0224 0.4292
vn -0.6968 0.5936 -0.4025
vn -0.8107 0.4101 -0.4178
vn -0.5516 0.7481 -0.3689
vn -0.3835 0.8667 -0.3190
vn -0.2013 0.9455 -0.2558
vn -0.0136 0.9831 -0.1828
vn 0.1721 0.9797 -0.1032
vn 0.3493 0.9368 -0.0201
vn 0.5121 0.8566 0.0636
vn 0.6550 0.7416 0.1450
vn 0.7725 0.5952 0.2213
vn 0.8594 0.4217 0.2893
vn 0.9104 0.2269 0.3458
vn 0.9215 0.0187 0.3878
vn -0.6647 0.5711 -0.4817
vn -0.7943 0.3981 -0.4589
vn -0.5047 0.7163 -0.4819
vn -0.3233 0.8271 -0.4598
vn -0.1305 0.8992 -0.4175
vn 0.0647 0.9315 -0.3579
vn 0.2540 0.9244 -0.2844
vn 0.4307 0.8800 -0.2001
vn 0.5892 0.8007 -0.1084
vn 0.7242 0.6895 -0.0123
vn 0.8311 0.5496 0.0848
vn 0.9051 0.3852 0.1798
vn 0.9419 0.2017 0.2686
vn 0.9377 0.0058 0.3473
vn -0.7810 0.3770 -0.4979
vn -0.4663 0.6596 -0.5894
vn -0.6386 0.5311 -0.5569
vn -0.2740 0.7563 -0.5940
vn -0.0721 0.8173 -0.5717
vn 0.1292 0.8415 -0.5246
vn 0.3215 0.8297 -0.4564
vn 0.4978 0.7843 -0.3703
vn 0.6524 0.7080 -0.2703
vn 0.7809 0.6039 -0.1600
vn 0.8788 0.4752 -0.0428
vn 0.9423 0.3258 0.0774
vn 0.9674 0.1601 0.1964
vn 0.9509 -0.0158 0.3091
vn -0.7712 0.3479 -0.5331
vn -0.4384 0.5802 -0.6865
vn -0.6196 0.4753 -0.6246
vn -0.2378 0.6569 -0.7155
vn -0.0292 0.7024 -0.7111
vn 0.1770 0.7160 -0.6753
vn 0.3715 0.6988 -0.6114
vn 0.5473 0.6531 -0.5234
vn 0.6991 0.5819 -0.4155
vn 0.8225 0.4882 -0.2919
vn 0.9137 0.3750 -0.1566
vn 0.9693 0.2457 -0.0137
vn 0.9858 0.1040 0.1322
vn 0.9603 -0.0450 0.2752
vn -0.7657 0.3118 -0.5625
vn -0.4222 0.4812 -0.7682
vn -0.6088 0.4061 -0.6815
vn -0.2166 0.5329 -0.8180
vn -0.0037 0.5592 -0.8290
vn 0.2054 0.5600 -0.8026
vn 0.4013 0.5367 -0.7422
vn 0.5769 0.4917 -0.6522
vn 0.7268 0.4276 -0.5375
vn 0.8470 0.3473 -0.4025
vn 0.9341 0.2532 -0.2517
vn 0.9849 0.1484 -0.0897
vn 0.9963 0.0358 0.0785
vn 0.9657 -0.0807 0.2469
vn -0.7647 0.2706 -0.5848
vn -0.6067 0.3264 -0.7248
vn -0.2117 0.3897 -0.8963
vn -0.4187 0.3669 -0.8307
vn 0.0027 0.3940 -0.9191
vn 0.2129 0.3804 -0.9000
vn 0.4094 0.3506 -0.8423
vn 0.5849 0.3070 -0.7508
vn 0.7342 0.2517 -0.6306
vn 0.8533 0.1870 -0.4868
vn 0.9389 0.1151 -0.3242
vn 0.9883 0.0381 -0.1476
vn 0.9984 -0.0417 0.0377
vn 0.9667 -0.1214 0.2253
vn -0.7682 0.2257 -0.5992
vn -0.6133 0.2400 -0.7525
vn -0.2232 0.2342 -0.9462
vn -0.4281 0.2429 -0.8705
vn -0.0104 0.2145 -0.9767
vn 0.1989 0.1855 -0.9623
vn 0.3951 0.1491 -0.9065
vn 0.5707 0.1073 -0.8141
vn 0.7206 0.0618 -0.6906
vn 0.8407 0.0143 -0.5412
vn 0.9280 -0.0335 -0.3710
vn 0.9794 -0.0805 -0.1849
vn 0.9921 -0.1250 0.0114
vn 0.9633 -0.1652 0.2114
vn -0.6284 0.1509 -0.7631
vn -0.7759 0.1795 -0.6048
vn -0.4498 0.1151 -0.8857
vn -0.2507 0.0738 -0.9653
vn -0.0423 0.0296 -0.9987
vn 0.1641 -0.0151 -0.9863
vn 0.3589 -0.0583 -0.9316
vn 0.5349 -0.0981 -0.8392
vn 0.6866 -0.1334 -0.7147
vn 0.8100 -0.1632 -0.5633
vn 0.9017 -0.1864 -0.3901
vn 0.9586 -0.2025 -0.2001
vn 0.9776 -0.2107 0.0008
vn -0.6512 0.0634 -0.7563
vn -0.7877 0.1342 -0.6013
vn -0.4829 -0.0105 -0.8756
vn -0.2928 -0.0835 -0.9525
vn -0.0915 -0.1516 -0.9842
vn 0.1101 -0.2117 -0.9711
vn 0.3028 -0.2615 -0.9165
vn 0.4792 -0.2996 -0.8250
vn 0.6339 -0.3251 -0.7018
vn 0.7624 -0.3376 -0.5520
vn 0.8612 -0.3369 -0.3806
vn 0.9267 -0.3228 -0.1926
vn 0.9557 -0.2103 0.2059
vn 0.9554 -0.2952 0.0062
vn -0.6806 -0.0185 -0.7324
vn -0.8030 0.0914 -0.5890
vn -0.5258 -0.1277 -0.8410
vn -0.3473 -0.2300 -0.9091
vn -0.1554 -0.3203 -0.9345
vn 0.0398 -0.3949 -0.9179
vn 0.2295 -0.4512 -0.8624
vn 0.4064 -0.4880 -0.7725
vn 0.5649 -0.5048 -0.6528
vn 0.7002 -0.5016 -0.5081
vn 0.8083 -0.4786 -0.3429
vn 0.8851 -0.4362 -0.1625
vn 0.9442 -0.2547 0.2089
vn 0.9266 -0.3749 0.0275
vn -0.7154 -0.0911 -0.6927
vn -0.8209 0.0535 -0.5685
vn -0.5763 -0.2312 -0.7839
vn -0.4117 -0.3591 -0.8376
vn -0.2309 -0.4689 -0.8525
vn -0.0434 -0.5563 -0.8298
vn 0.1426 -0.6187 -0.7725
vn 0.3200 -0.6550 -0.6845
vn 0.4829 -0.6647 -0.5701
vn 0.6263 -0.6481 -0.4333
vn 0.7454 -0.6055 -0.2787
vn 0.8356 -0.5379 -0.1111
vn 0.9293 -0.2965 0.2203
vn 0.8925 -0.4466 0.0639
vn -0.7539 -0.1511 -0.6394
vn -0.8407 0.0221 -0.5411
vn -0.6322 -0.3163 -0.7073
vn -0.4829 -0.4651 -0.7419
vn -0.3145 -0.5910 -0.7429
vn -0.1354 -0.6892 -0.7118
vn 0.0464 -0.7572 -0.6515
vn 0.2241 -0.7937 -0.5655
vn 0.3917 -0.7983 -0.4575
vn 0.5438 -0.7711 -0.3312
vn 0.6752 -0.7125 -0.1907
vn 0.7805 -0.6238 -0.0405
vn 0.9116 -0.3340 0.2396
vn 0.8544 -0.5070 0.1139
vn -0.8616 -0.0016 -0.5076
vn -0.7944 -0.1961 -0.5749
vn -0.6909 -0.3798 -0.6151
vn -0.5577 -0.5440 -0.6269
vn -0.4023 -0.6817 -0.6111
vn -0.2324 -0.7885 -0.5695
vn -0.0552 -0.8613 -0.5051
vn 0.1227 -0.8988 -0.4209
vn 0.2952 -0.9003 -0.3200
vn 0.4565 -0.8656 -0.2058
vn 0.6008 -0.7952 -0.0822
vn 0.7220 -0.6903 0.0465
vn 0.8919 -0.3656 0.2660
vn 0.8141 -0.5536 0.1754
vn -0.8826 -0.0166 -0.4698
vn -0.8351 -0.2243 -0.5023
vn -0.7500 -0.4192 -0.5116
vn -0.6330 -0.5927 -0.4980
vn -0.4907 -0.7380 -0.4632
vn -0.3300 -0.8505 -0.4096
vn -0.1577 -0.9272 -0.3398
vn 0.0201 -0.9663 -0.2566
vn 0.1973 -0.9667 -0.1631
vn 0.3679 -0.9278 -0.0624
vn 0.5253 -0.8499 0.0423
vn 0.6627 -0.7344 0.1465
vn 0.8711 -0.3899 0.2985
vn 0.7732 -0.5845 0.2460
vn -0.9029 -0.0224 -0.4292
vn -0.8743 -0.2346 -0.4248
vn -0.8069 -0.4333 -0.4015
vn -0.7056 -0.6099 -0.3609
vn -0.5760 -0.7581 -0.3057
vn -0.4245 -0.8734 -0.2386
vn -0.2571 -0.9527 -0.1623
vn -0.0795 -0.9937 -0.0796
vn 0.1022 -0.9947 0.0067
vn 0.2816 -0.9550 0.0936
vn 0.4518 -0.8742 0.1778
vn 0.6051 -0.7540 0.2555
vn 0.8500 -0.4059 0.3357
vn 0.7335 -0.5981 0.3228
vn -0.9215 -0.0188 -0.3879
vn -0.9104 -0.2269 -0.3459
vn -0.8594 -0.4217 -0.2893
vn -0.7725 -0.5952 -0.2213
vn -0.6550 -0.7416 -0.1450
vn -0.5121 -0.8566 -0.0636
vn -0.3494 -0.9368 0.0200
vn -0.1722 -0.9796 0.1032
vn 0.0136 -0.9831 0.1828
vn 0.2013 -0.9455 0.2558
vn 0.3835 -0.8667 0.3189
vn 0.5516 -0.7481 0.3688
vn 0.8296 -0.4127 0.3761
vn 0.6968 -0.5936 0.4026
vn -0.9378 -0.0059 -0.3472
vn -0.9419 -0.2017 -0.2687
vn -0.9051 -0.3853 -0.1798
vn -0.8311 -0.5496 -0.0849
vn -0.7242 -0.6895 0.0124
vn -0.5891 -0.8007 0.1084
vn -0.4307 -0.8800 0.2001
vn -0.2540 -0.9244 0.2844
vn -0.0647 -0.9315 0.3580
vn 0.1305 -0.8992 0.4175
vn 0.3233 -0.8271 0.4598
vn 0.5047 -0.7163 0.4818
vn 0.8108 -0.4101 0.4177
vn 0.6647 -0.5710 0.4818
vn -0.9509 0.0158 -0.3091
vn -0.9674 -0.1601 -0.1964
vn -0.9423 -0.3257 -0.0774
vn -0.8789 -0.4752 0.0428
vn -0.7809 -0.6038 0.1600
vn -0.6524 -0.7080 0.2704
vn -0.4978 -0.7843 0.3703
vn -0.3215 -0.8297 0.4563
vn -0.1292 -0.8414 0.5247
vn 0.0721 -0.8173 0.5717
vn 0.2740 -0.7563 0.5940
vn 0.4663 -0.6597 0.5894
vn 0.7809 -0.3770 0.4980
vn 0.6386 -0.5311 0.5569
vn -0.9603 0.0450 -0.2752
vn -0.9858 -0.1040 -0.1321
vn -0.9693 -0.2457 0.0137
vn -0.9137 -0.3750 0.1566
vn -0.8225 -0.4882 0.2919
vn -0.6991 -0.5819 0.4155
vn -0.5473 -0.6531 0.5234
vn -0.3715 -0.6987 0.6114
vn -0.1770 -0.7160 0.6753
vn 0.0291 -0.7024 0.7111
vn 0.2378 -0.6569 0.7155
vn 0.4384 -0.5802 0.6864
vn 0.7712 -0.3479 0.5331
vn 0.6197 -0.4754 0.6245
vn -0.9657 0.0807 -0.2468
vn -0.9963 -0.0357 -0.0785
vn -0.9848 -0.1484 0.0897
vn -0.9341 -0.2533 0.2517
vn -0.8470 -0.3473 0.4025
vn -0.7268 -0.4276 0.5375
vn -0.5769 -0.4917 0.6522
vn -0.4014 -0.5367 0.7422
vn -0.2054 -0.5600 0.8026
vn 0.0037 -0.5592 0.8290
vn 0.2167 -0.5329 0.8180
vn 0.4222 -0.4811 0.7683
vn 0.7657 -0.3118 0.5625
vn 0.6088 -0.4060 0.6815
vn -0.9667 0.1211 -0.2253
vn -0.9984 0.0417 -0.0377
vn -0.9883 -0.0381 0.1476
vn -0.9389 -0.1151 0.3242
vn -0.8532 -0.1870 0.4868
vn -0.7342 -0.2517 0.6306
vn -0.5849 -0.3070 0.7507
vn -0.4094 -0.3507 0.8423
vn -0.2129 -0.3804 0.9000
vn -0.0027 -0.3940 0.9191
vn 0.2117 -0.3897 0.8963
vn 0.6066 -0.3264 0.7249
vn 0.4187 -0.3669 0.8307
vn 0.7647 -0.2704 0.5848
vn -0.9633 0.1651 -0.2115
vn -0.9921 0.1251 -0.0114
vn -0.9794 0.0806 0.1850
vn -0.9280 0.0336 0.3710
vn -0.8407 -0.0143 0.5412
vn -0.7206 -0.0618 0.6906
vn -0.5707 -0.1073 0.8141
vn -0.3951 -0.1491 0.9065
vn -0.1989 -0.1855 0.9623
vn 0.0104 -0.2145 0.9767
vn 0.2232 -0.2342 0.9462
vn 0.6133 -0.2400 0.7525
vn 0.4281 -0.2429 0.8705
vn 0.7682 -0.2257 0.5991
vn -0.8884 0.1999 -0.4133
vn 0.8884 -0.1999 0.4133
vn 0.8406 -0.0221 0.5411
vn 0.7943 -0.3981 0.4589
vn 0.3487 0.2103 -0.9134
vn 0.5158 0.2952 -0.8043
vn 0.5324 0.2107 -0.8198
vn 0.6668 0.3228 -0.6717
vn 0.6905 0.2026 -0.6944
vn 0.7886 0.3369 -0.5143
vn 0.8187 0.1864 -0.5431
vn 0.8785 0.3377 -0.3380
vn 0.9139 0.1632 -0.3718
vn 0.9339 0.3251 -0.1486
vn 0.9735 0.1334 -0.1858
vn 0.9528 0.2996 0.0482
vn 0.9951 0.0982 0.0093
vn 0.9333 0.2616 0.2460
vn 0.9766 0.0583 0.2071
vn 0.8740 0.2118 0.4373
vn 0.9162 0.0151 0.4004
vn 0.7751 0.1516 0.6134
vn 0.8140 -0.0296 0.5801
vn 0.6388 0.0835 0.7648
vn 0.6724 -0.0738 0.7365
vn 0.4706 0.0105 0.8823
vn 0.4971 -0.1150 0.8601
vn 0.2970 -0.1509 0.9429
vn 0.2788 -0.0634 0.9582
vn 0.0837 -0.1795 0.9802
vn 0.3398 0.2547 -0.9053
vn 0.4822 0.3750 -0.7918
vn 0.6189 0.4361 -0.6533
vn 0.7283 0.4786 -0.4905
vn 0.8077 0.5016 -0.3099
vn 0.8552 0.5048 -0.1175
vn 0.8691 0.4880 0.0806
vn 0.8480 0.4512 0.2780
vn 0.7911 0.3949 0.4672
vn 0.6985 0.3204 0.6399
vn 0.5726 0.2300 0.7869
vn 0.4182 0.1277 0.8993
vn 0.2427 0.0185 0.9699
vn 0.0744 -0.1340 0.9882
vn 0.3221 0.2965 -0.8991
vn 0.4331 0.4466 -0.7829
vn 0.5489 0.5379 -0.6398
vn 0.6401 0.6056 -0.4728
vn 0.7048 0.6481 -0.2887
vn 0.7412 0.6647 -0.0939
vn 0.7483 0.6550 0.1050
vn 0.7253 0.6187 0.3017
vn 0.6719 0.5563 0.4889
vn 0.5886 0.4689 0.6585
vn 0.4776 0.3591 0.8019
vn 0.3428 0.2312 0.9105
vn 0.1906 0.0910 0.9774
vn 0.0559 -0.0914 0.9942
vn 0.2963 0.3339 -0.8948
vn 0.3705 0.5070 -0.7783
vn 0.4596 0.6238 -0.6321
vn 0.5281 0.7125 -0.4620
vn 0.5742 0.7711 -0.2752
vn 0.5971 0.7983 -0.0789
vn 0.5962 0.7937 0.1206
vn 0.5714 0.7572 0.3164
vn 0.5228 0.6892 0.5017
vn 0.4512 0.5910 0.6687
vn 0.3586 0.4651 0.8094
vn 0.2481 0.3163 0.9156
vn 0.1248 0.1511 0.9806
vn 0.0290 -0.0536 0.9981
vn 0.2634 0.3656 -0.8927
vn 0.2969 0.5537 -0.7780
vn 0.3548 0.6903 -0.6306
vn 0.3966 0.7951 -0.4588
vn 0.4215 0.8656 -0.2704
vn 0.4292 0.9003 -0.0729
vn 0.4196 0.8988 0.1267
vn 0.3933 0.8613 0.3217
vn 0.3507 0.7884 0.5053
vn 0.2928 0.6817 0.6704
vn 0.2214 0.5440 0.8094
vn 0.1388 0.3798 0.9146
vn 0.0488 0.1961 0.9794
vn -0.0444 0.0016 0.9990
vn -0.0050 -0.0221 0.9997
vn 0.2247 0.3899 -0.8930
vn 0.2154 0.5845 -0.7823
vn 0.2386 0.7344 -0.6354
vn 0.2511 0.8499 -0.4633
vn 0.2529 0.9278 -0.2743
vn 0.2443 0.9667 -0.0764
vn 0.2261 0.9663 0.1231
vn 0.1988 0.9272 0.3175
vn 0.1633 0.8505 0.5000
vn 0.1207 0.7380 0.6640
vn 0.0723 0.5927 0.8022
vn 0.0198 0.4193 0.9077
vn -0.0343 0.2242 0.9739
vn -0.0876 0.0166 0.9960
vn 0.1822 0.4059 -0.8956
vn 0.1295 0.5981 -0.7909
vn 0.1158 0.7540 -0.6465
vn 0.0974 0.8742 -0.4757
vn 0.0751 0.9550 -0.2871
vn 0.0501 0.9947 -0.0893
vn 0.0234 0.9936 0.1101
vn -0.0041 0.9527 0.3040
vn -0.0315 0.8734 0.4860
vn -0.0579 0.7581 0.6496
vn -0.0822 0.6099 0.7882
vn -0.1035 0.4333 0.8953
vn -0.1207 0.2346 0.9646
vn -0.1326 0.0224 0.9909
vn 0.1372 0.4128 -0.9004
vn 0.0426 0.5936 -0.8036
vn -0.0084 0.7481 -0.6635
vn -0.0582 0.8667 -0.4954
vn -0.1046 0.9455 -0.3082
vn -0.1458 0.9831 -0.1111
vn -0.1804 0.9796 0.0880
vn -0.2074 0.9368 0.2818
vn -0.2260 0.8566 0.4639
vn -0.2356 0.7416 0.6281
vn -0.2358 0.5952 0.7682
vn -0.2261 0.4217 0.8781
vn -0.2066 0.2269 0.9517
vn -0.1774 0.0187 0.9840
vn 0.0920 0.4101 -0.9074
vn -0.0414 0.5710 -0.8199
vn -0.1287 0.7164 -0.6858
vn -0.2091 0.8271 -0.5218
vn -0.2788 0.8993 -0.3370
vn -0.3353 0.9315 -0.1410
vn -0.3769 0.9245 0.0578
vn -0.4026 0.8800 0.2519
vn -0.4121 0.8007 0.4347
vn -0.4053 0.6895 0.6003
vn -0.3821 0.5496 0.7429
vn -0.3429 0.3853 0.8567
vn -0.2885 0.2017 0.9360
vn -0.2204 0.0058 0.9754
vn 0.0085 0.3770 -0.9262
vn 0.0484 0.3981 -0.9161
vn -0.2398 0.6597 -0.7123
vn -0.3486 0.7563 -0.5536
vn -0.4399 0.8173 -0.3722
vn -0.5103 0.8414 -0.1777
vn -0.5578 0.8297 0.0206
vn -0.5819 0.7843 0.2153
vn -0.5824 0.7080 0.3995
vn -0.5600 0.6039 0.5673
vn -0.5151 0.4752 0.7133
vn -0.4489 0.3257 0.8321
vn -0.3629 0.1601 0.9180
vn -0.2595 -0.0158 0.9656
vn -0.0262 0.3479 -0.9372
vn -0.1186 0.5311 -0.8390
vn -0.3363 0.5802 -0.7418
vn -0.4700 0.6569 -0.5895
vn -0.5802 0.7024 -0.4122
vn -0.6626 0.7160 -0.2199
vn -0.7151 0.6987 -0.0220
vn -0.7372 0.6531 0.1733
vn -0.7295 0.5819 0.3594
vn -0.6932 0.4882 0.5302
vn -0.6295 0.3750 0.6805
vn -0.5400 0.2456 0.8050
vn -0.4268 0.1040 0.8984
vn -0.2930 -0.0451 0.9550
vn -0.0539 0.3118 -0.9486
vn -0.1857 0.4753 -0.8600
vn -0.4137 0.4812 -0.7729
vn -0.5675 0.5329 -0.6277
vn -0.6929 0.5592 -0.4552
vn -0.7848 0.5600 -0.2655
vn -0.8410 0.5367 -0.0683
vn -0.8613 0.4917 0.1279
vn -0.8469 0.4276 0.3161
vn -0.7993 0.3473 0.4905
vn -0.7204 0.2533 0.6457
vn -0.6123 0.1484 0.7766
vn -0.4775 0.0358 0.8779
vn -0.3197 -0.0807 0.9441
vn -0.0731 0.2705 -0.9599
vn -0.2392 0.4061 -0.8820
vn -0.2767 0.3265 -0.9038
vn -0.6359 0.3897 -0.6662
vn -0.7719 0.3940 -0.4990
vn -0.8705 0.3804 -0.3123
vn -0.9293 0.3506 -0.1161
vn -0.9483 0.3070 0.0809
vn -0.9290 0.2517 0.2715
vn -0.8734 0.1870 0.4497
vn -0.7838 0.1151 0.6102
vn -0.6627 0.0381 0.7479
vn -0.5129 -0.0417 0.8575
vn -0.3383 -0.1213 0.9332
vn -0.0833 0.2257 -0.9706
vn -0.2964 0.2400 -0.9244
vn -0.4679 0.3669 -0.8040
vn -0.6715 0.2341 -0.7031
vn -0.8130 0.2145 -0.5413
vn -0.9151 0.1855 -0.3580
vn -0.9753 0.1491 -0.1632
vn -0.9936 0.1073 0.0344
vn -0.9718 0.0618 0.2274
vn -0.9122 0.0144 0.4095
vn -0.8171 -0.0336 0.5756
vn -0.6892 -0.0806 0.7201
vn -0.5314 -0.1250 0.8378
vn -0.3481 -0.1651 0.9228
vn -0.2971 0.1510 -0.9429
vn -0.4971 0.1150 -0.8601
vn -0.4962 0.2429 -0.8335
vn -0.6724 0.0738 -0.7365
vn -0.8140 0.0296 -0.5801
vn -0.9162 -0.0152 -0.4004
vn -0.9766 -0.0583 -0.2072
vn -0.9951 -0.0981 -0.0093
vn -0.9735 -0.1335 0.1858
vn -0.9139 -0.1632 0.3718
vn -0.8187 -0.1865 0.5431
vn -0.6905 -0.2026 0.6943
vn -0.5324 -0.2108 0.8198
vn -0.0837 0.1794 -0.9802
vn -0.2788 0.0634 -0.9582
vn -0.4705 -0.0105 -0.8823
vn -0.6388 -0.0835 -0.7648
vn -0.7751 -0.1516 -0.6134
vn -0.8740 -0.2117 -0.4373
vn -0.9333 -0.2616 -0.2460
vn -0.9528 -0.2997 -0.0482
vn -0.9339 -0.3251 0.1486
vn -0.8785 -0.3376 0.3380
vn -0.7886 -0.3369 0.5143
vn -0.6668 -0.3228 0.6718
vn -0.5158 -0.2953 0.8042
vn -0.3486 -0.2101 0.9134
vn -0.0744 0.1340 -0.9882
vn -0.2427 -0.0185 -0.9699
vn -0.4182 -0.1277 -0.8993
vn -0.5726 -0.2300 -0.7869
vn -0.6985 -0.3203 -0.6399
vn -0.7911 -0.3949 -0.4672
vn -0.8480 -0.4512 -0.2780
vn -0.8691 -0.4880 -0.0806
vn -0.8552 -0.5047 0.1175
vn -0.8077 -0.5016 0.3099
vn -0.7282 -0.4786 0.4905
vn -0.6189 -0.4362 0.6533
vn -0.4822 -0.3750 0.7917
vn -0.3398 -0.2547 0.9054
vn -0.0559 0.0914 -0.9942
vn -0.1906 -0.0911 -0.9774
vn -0.3428 -0.2311 -0.9105
vn -0.4776 -0.3591 -0.8019
vn -0.5886 -0.4689 -0.6585
vn -0.6719 -0.5563 -0.4889
vn -0.7254 -0.6187 -0.3017
vn -0.7483 -0.6550 -0.1050
vn -0.7412 -0.6647 0.0939
vn -0.7047 -0.6481 0.2887
vn -0.6401 -0.6056 0.4728
vn -0.5489 -0.5379 0.6398
vn -0.4331 -0.4466 0.7830
vn -0.3221 -0.2966 0.8990
vn -0.0290 0.0536 -0.9981
vn -0.1249 -0.1511 -0.9806
vn -0.2481 -0.3163 -0.9156
vn -0.3585 -0.4652 -0.8094
vn -0.4512 -0.5910 -0.6687
vn -0.5228 -0.6892 -0.5017
vn -0.5714 -0.7572 -0.3164
vn -0.5962 -0.7937 -0.1206
vn -0.5971 -0.7983 0.0788
vn -0.5742 -0.7711 0.2752
vn -0.5281 -0.7125 0.4620
vn -0.4596 -0.6238 0.6322
vn -0.3704 -0.5070 0.7783
vn -0.2963 -0.3341 0.8948
vn 0.0444 -0.0016 -0.9990
vn 0.0050 0.0221 -0.9997
vn -0.0487 -0.1961 -0.9794
vn -0.1388 -0.3798 -0.9146
vn -0.2214 -0.5440 -0.8094
vn -0.2928 -0.6817 -0.6704
vn -0.3507 -0.7884 -0.5053
vn -0.3933 -0.8613 -0.3217
vn -0.4196 -0.8988 -0.1267
vn -0.4291 -0.9003 0.0729
vn -0.4215 -0.8656 0.2704
vn -0.3966 -0.7952 0.4587
vn -0.3547 -0.6903 0.6306
vn -0.2968 -0.5537 0.7780
vn -0.2633 -0.3656 0.8927
vn 0.0876 -0.0167 -0.9960
vn 0.0343 -0.2242 -0.9739
vn -0.0199 -0.4192 -0.9077
vn -0.0723 -0.5927 -0.8022
vn -0.1207 -0.7380 -0.6639
vn -0.1633 -0.8505 -0.5000
vn -0.1988 -0.9272 -0.3175
vn -0.2261 -0.9663 -0.1231
vn -0.2443 -0.9667 0.0765
vn -0.2529 -0.9278 0.2743
vn -0.2511 -0.8499 0.4633
vn -0.2386 -0.7344 0.6354
vn -0.2154 -0.5845 0.7823
vn -0.2248 -0.3899 0.8930
vn 0.1326 -0.0224 -0.9909
vn 0.1207 -0.2346 -0.9646
vn 0.1035 -0.4333 -0.8953
vn 0.0822 -0.6099 -0.7882
vn 0.0579 -0.7581 -0.6496
vn 0.0315 -0.8734 -0.4860
vn 0.0041 -0.9527 -0.3040
vn -0.0234 -0.9937 -0.1100
vn -0.0501 -0.9947 0.0893
vn -0.0751 -0.9549 0.2871
vn -0.0974 -0.8742 0.4757
vn -0.1159 -0.7540 0.6465
vn -0.1295 -0.5981 0.7909
vn -0.1821 -0.4059 0.8956
vn 0.1775 -0.0187 -0.9839
vn 0.2066 -0.2269 -0.9518
vn 0.2261 -0.4217 -0.8781
vn 0.2358 -0.5952 -0.7682
vn 0.2356 -0.7416 -0.6281
vn 0.2259 -0.8566 -0.4639
vn 0.2073 -0.9368 -0.2819
vn 0.1804 -0.9796 -0.0880
vn 0.1458 -0.9831 0.1111
vn 0.1046 -0.9455 0.3083
vn 0.0582 -0.8667 0.4954
vn 0.0084 -0.7481 0.6636
vn -0.0426 -0.5936 0.8036
vn -0.1372 -0.4127 0.9005
vn 0.2204 -0.0058 -0.9754
vn 0.2885 -0.2016 -0.9360
vn 0.3429 -0.3853 -0.8567
vn 0.3821 -0.5496 -0.7429
vn 0.4053 -0.6895 -0.6003
vn 0.4121 -0.8007 -0.4347
vn 0.4026 -0.8800 -0.2519
vn 0.3769 -0.9245 -0.0579
vn 0.3353 -0.9315 0.1410
vn 0.2789 -0.8992 0.3370
vn 0.2091 -0.8271 0.5218
vn 0.1287 -0.7163 0.6858
vn 0.0413 -0.5711 0.8199
vn -0.0920 -0.4101 0.9074
vn 0.2595 0.0157 -0.9656
vn 0.3629 -0.1601 -0.9180
vn 0.4490 -0.3257 -0.8321
vn 0.5151 -0.4752 -0.7133
vn 0.5600 -0.6038 -0.5673
vn 0.5824 -0.7080 -0.3994
vn 0.5819 -0.7843 -0.2153
vn 0.5578 -0.8297 -0.0207
vn 0.5103 -0.8414 0.1778
vn 0.4399 -0.8173 0.3722
vn 0.3485 -0.7563 0.5536
vn 0.2397 -0.6597 0.7123
vn -0.0084 -0.3770 0.9262
vn -0.0484 -0.3981 0.9161
vn 0.2930 0.0450 -0.9550
vn 0.4268 -0.1040 -0.8983
vn 0.5400 -0.2456 -0.8050
vn 0.6295 -0.3750 -0.6805
vn 0.6932 -0.4882 -0.5302
vn 0.7295 -0.5819 -0.3594
vn 0.7372 -0.6531 -0.1734
vn 0.7150 -0.6987 0.0220
vn 0.6626 -0.7160 0.2199
vn 0.5802 -0.7024 0.4122
vn 0.4700 -0.6569 0.5895
vn 0.3363 -0.5802 0.7418
vn 0.1186 -0.5311 0.8389
vn 0.0262 -0.3479 0.9372
vn 0.3197 0.0808 -0.9441
vn 0.4775 -0.0358 -0.8779
vn 0.6123 -0.1484 -0.7766
vn 0.7204 -0.2532 -0.6457
vn 0.7993 -0.3473 -0.4905
vn 0.8469 -0.4276 -0.3162
vn 0.8613 -0.4917 -0.1279
vn 0.8410 -0.5367 0.0683
vn 0.7848 -0.5600 0.2655
vn 0.6929 -0.5592 0.4552
vn 0.5675 -0.5329 0.6277
vn 0.4137 -0.4811 0.7729
vn 0.1856 -0.4754 0.8600
vn 0.0538 -0.3118 0.9486
vn 0.3383 0.1213 -0.9332
vn 0.5129 0.0416 -0.8575
vn 0.6627 -0.0381 -0.7479
vn 0.7838 -0.1151 -0.6102
vn 0.8734 -0.1870 -0.4497
vn 0.9290 -0.2516 -0.2715
vn 0.9483 -0.3070 -0.0809
vn 0.9293 -0.3506 0.1161
vn 0.8705 -0.3804 0.3123
vn 0.7719 -0.3940 0.4990
vn 0.6359 -0.3897 0.6662
vn 0.2767 -0.3264 0.9038
vn 0.2392 -0.4061 0.8820
vn 0.0732 -0.2704 0.9600
vn 0.3481 0.1652 -0.9228
vn 0.5314 0.1250 -0.8378
vn 0.6892 0.0805 -0.7201
vn 0.8171 0.0336 -0.5756
vn 0.9122 -0.0143 -0.4096
vn 0.9718 -0.0618 -0.2274
vn 0.9936 -0.1073 -0.0344
vn 0.9753 -0.1491 0.1632
vn 0.9151 -0.1855 0.3580
vn 0.8130 -0.2145 0.5413
vn 0.6714 -0.2342 0.7031
vn 0.4679 -0.3669 0.8040
vn 0.2963 -0.2400 0.9244
vn 0.0833 -0.2256 0.9707
vn 0.1380 0.1999 -0.9700
vn 0.4962 -0.2429 0.8335
vn -0.1380 -0.1999 0.9700
s 1
f 1//1 2//2 3//3
f 4//4 5//5 2//2
f 6//6 7//7 5//5
f 8//8 9//9 7//7
f 10//10 11//11 9//9
f 12//12 13//13 11//11
f 14//14 15//15 13//13
f 16//16 17//17 15//15
f 18//18 19//19 17//17
f 20//20 21//21 19//19
f 22//22 23//23 21//21
f 24//24 23//23 25//25
f 26//26 27//27 24//24
f 3//3 28//28 29//29
f 2//2 30//30 28//28
f 5//5 31//31 30//30
f 7//7 32//32 31//31
f 9//9 33//33 32//32
f 11//11 34//34 33//33
f 13//13 35//35 34//34
f 15//15 36//36 35//35
f 17//17 37//37 36//36
f 19//19 38//38 37//37
f 21//21 39//39 38//38
f 23//23 40//40 39//39
f 41//41 40//40 27//27
f 29//29 42//42 43//43
f 28//28 44//44 42//42
f 30//30 45//45 44//44
f 31//31 46//46 45//45
f 32//32 47//47 46//46
f 33//33 48//48 47//47
f 34//34 49//49 48//48
f 35//35 50//50 49//49
f 36//36 51//51 50//50
f 37//37 52//52 51//51
f 38//38 53//53 52//52
f 39//39 54//54 53//53
f 55//55 54//54 40//40
f 43//43 56//56 57//57
f 42//42 58//58 56//56
f 44//44 59//59 58//58
f 45//45 60//60 59//59
f 46//46 61//61 60//60
f 47//47 62//62 61//61
f 48//48 63//63 62//62
f 49//49 64//64 63//63
f 50//50 65//65 64//64
f 51//51 66//66 65//65
f 52//52 67//67 66//66
f 53//53 68//68 67//67
f 69//69 68//68 54//54
f 57//57 70//70 71//71
f 56//56 72//72 70//70
f 58//58 73//73 72//72
f 59//59 74//74 73//73
f 60//60 75//75 74//74
f 61//61 76//76 75//75
f 62//62 77//77 76//76
f 63//63 78//78 77//77
f 64//64 79//79 78//78
f 65//65 80//80 79//79
f 66//66 81//81 80//80
f 67//67 82//82 81//81
f 68//68 83//83 82//82
f 71//71 84//84 85//85
f 70//70 86//86 84//84
f 72//72 87//87 86//86
f 73//73 88//88 87//87
f 74//74 89//89 88//88
f 75//75 90//90 89//89
f 76//76 91//91 90//90
f 77//77 92//92 91//91
f 78//78 93//93 92//92
f 79//79 94//94 93//93
f 80//80 95//95 94//94
f 81//81 96//96 95//95
f 82//82 97//97 96//96
f 85//85 98//98 99//99
f 84//84 100//100 98//98
f 86//86 101//101 100//100
f 87//87 102//102 101//101
f 88//88 103//103 102//102
f 89//89 104//104 103//103
f 90//90 105//105 104//104
f 91//91 106//106 105//105
f 92//92 107//107 106//106
f 93//93 108//108 107//107
f 94//94 109//109 108//108
f 95//95 110//110 109//109
f 96//96 111//111 110//110
f 99//99 112//112 113//113
f 98//98 114//114 112//112
f 100//100 115//115 114//114
f 101//101 116//116 115//115
f 102//102 117//117 116//116
f 103//103 118//118 117//117
f 104//104 119//119 118//118
f 105//105 120//120 119//119
f 106//106 121//121 120//120
f 107//107 122//122 121//121
f 108//108 123//123 122//122
f 109//109 124//124 123//123
f 110//110 125//125 124//124
f 113//113 126//126 127//127
f 112//112 128//128 126//126
f 114//114 129//129 128//128
f 115//115 130//130 129//129
f 116//116 131//131 130//130
f 117//117 132//132 131//131
f 118//118 133//133 132//132
f 119//119 134//134 133//133
f 120//120 135//135 134//134
f 121//121 136//136 135//135
f 122//122 137//137 136//136
f 123//123 138//138 137//137
f 124//124 139//139 138//138
f 126//126 140//140 127//127
f 126//126 141//141 142//142
f 128//128 143//143 141//141
f 129//129 144//144 143//143
f 130//130 145//145 144//144
f 131//131 146//146 145//145
f 132//132 147//147 146//146
f 133//133 148//148 147//147
f 134//134 149//149 148//148
f 135//135 150//150 149//149
f 136//136 151//151 150//150
f 137//137 152//152 151//151
f 138//138 153//153 152//152
f 142//142 154//154 140//140
f 142//142 155//155 156//156
f 141//141 157//157 155//155
f 143//143 158//158 157//157
f 144//144 159//159 158//158
f 145//145 160//160 159//159
f 146//146 161//161 160//160
f 147//147 162//162 161//161
f 148//148 163//163 162//162
f 149//149 164//164 163//163
f 150//150 165//165 164//164
f 151//151 166//166 165//165
f 152//152 167//167 166//166
f 156//156 168//168 154//154
f 156//156 169//169 170//170
f 155//155 171//171 169//169
f 157//157 172//172 171//171
f 158//158 173//173 172//172
f 159//159 174//174 173//173
f 160//160 175//175 174//174
f 161//161 176//176 175//175
f 162//162 177//177 176//176
f 163//163 178//178 177//177
f 164//164 179//179 178//178
f 165//165 180//180 179//179
f 166//166 181//181 180//180
f 170//170 182//182 168//168
f 169//169 183//183 170//170
f 169//169 184//184 185//185
f 171//171 186//186 184//184
f 172//172 187//187 186//186
f 173//173 188//188 187//187
f 174//174 189//189 188//188
f 175//175 190//190 189//189
f 176//176 191//191 190//190
f 177//177 192//192 191//191
f 178//178 193//193 192//192
f 179//179 194//194 193//193
f 180//180 195//195 194//194
f 183//183 196//196 182//182
f 185//185 197//197 183//183
f 185//185 198//198 199//199
f 184//184 200//200 198//198
f 186//186 201//201 200//200
f 187//187 202//202 201//201
f 188//188 203//203 202//202
f 189//189 204//204 203//203
f 190//190 205//205 204//204
f 191//191 206//206 205//205
f 192//192 207//207 206//206
f 193//193 208//208 207//207
f 194//194 209//209 208//208
f 196//196 210//210 211//211
f 197//197 212//212 210//210
f 198//198 212//212 199//199
f 200//200 213//213 198//198
f 201//201 214//214 200//200
f 202//202 215//215 201//201
f 203//203 216//216 202//202
f 204//204 217//217 203//203
f 205//205 218//218 204//204
f 206//206 219//219 205//205
f 207//207 220//220 206//206
f 208//208 221//221 207//207
f 209//209 222//222 208//208
f 211//211 223//223 224//224
f 210//210 225//225 223//223
f 213//213 225//225 212//212
f 214//214 226//226 213//213
f 215//215 227//227 214//214
f 216//216 228//228 215//215
f 217//217 229//229 216//216
f 218//218 230//230 217//217
f 219//219 231//231 218//218
f 220//220 232//232 219//219
f 221//221 233//233 220//220
f 222//222 234//234 221//221
f 235//235 236//236 222//222
f 224//224 237//237 238//238
f 225//225 237//237 223//223
f 226//226 239//239 225//225
f 227//227 240//240 226//226
f 228//228 241//241 227//227
f 229//229 242//242 228//228
f 230//230 243//243 229//229
f 231//231 244//244 230//230
f 232//232 245//245 231//231
f 233//233 246//246 232//232
f 234//234 247//247 233//233
f 236//236 248//248 234//234
f 249//249 250//250 236//236
f 238//238 251//251 252//252
f 239//239 251//251 237//237
f 240//240 253//253 239//239
f 241//241 254//254 240//240
f 242//242 255//255 241//241
f 243//243 256//256 242//242
f 244//244 257//257 243//243
f 245//245 258//258 244//244
f 246//246 259//259 245//245
f 247//247 260//260 246//246
f 248//248 261//261 247//247
f 250//250 262//262 248//248
f 263//263 264//264 250//250
f 252//252 265//265 266//266
f 253//253 265//265 251//251
f 254//254 267//267 253//253
f 255//255 268//268 254//254
f 256//256 269//269 255//255
f 257//257 270//270 256//256
f 258//258 271//271 257//257
f 259//259 272//272 258//258
f 260//260 273//273 259//259
f 261//261 274//274 260//260
f 262//262 275//275 261//261
f 264//264 276//276 262//262
f 277//277 278//278 264//264
f 265//265 279//279 266//266
f 267//267 280//280 265//265
f 268//268 281//281 267//267
f 269//269 282//282 268//268
f 270//270 283//283 269//269
f 271//271 284//284 270//270
f 272//272 285//285 271//271
f 273//273 286//286 272//272
f 274//274 287//287 273//273
f 275//275 288//288 274//274
f 276//276 289//289 275//275
f 278//278 290//290 276//276
f 291//291 292//292 278//278
f 280//280 293//293 279//279
f 281//281 294//294 280//280
f 282//282 295//295 281//281
f 283//283 296//296 282//282
f 284//284 297//297 283//283
f 285//285 298//298 284//284
f 286//286 299//299 285//285
f 287//287 300//300 286//286
f 288//288 301//301 287//287
f 289//289 302//302 288//288
f 290//290 303//303 289//289
f 292//292 304//304 290//290
f 305//305 306//306 292//292
f 294//294 307//307 293//293
f 295//295 308//308 294//294
f 296//296 309//309 295//295
f 297//297 310//310 296//296
f 298//298 311//311 297//297
f 299//299 312//312 298//298
f 300//300 313//313 299//299
f 301//301 314//314 300//300
f 302//302 315//315 301//301
f 303//303 316//316 302//302
f 304//304 317//317 303//303
f 306//306 318//318 304//304
f 319//319 320//320 306//306
f 308//308 321//321 307//307
f 309//309 322//322 308//308
f 310//310 323//323 309//309
f 311//311 324//324 310//310
f 312//312 325//325 311//311
f 313//313 326//326 312//312
f 314//314 327//327 313//313
f 315//315 328//328 314//314
f 316//316 329//329 315//315
f 317//317 330//330 316//316
f 318//318 331//331 317//317
f 320//320 332//332 318//318
f 333//333 334//334 320//320
f 322//322 335//335 321//321
f 323//323 336//336 322//322
f 324//324 337//337 323//323
f 325//325 338//338 324//324
f 326//326 339//339 325//325
f 327//327 340//340 326//326
f 328//328 341//341 327//327
f 329//329 342//342 328//328
f 330//330 343//343 329//329
f 331//331 344//344 330//330
f 332//332 345//345 331//331
f 334//334 346//346 332//332
f 347//347 348//348 334//334
f 336//336 349//349 335//335
f 337//337 350//350 336//336
f 338//338 351//351 337//337
f 339//339 352//352 338//338
f 340//340 353//353 339//339
f 341//341 354//354 340//340
f 342//342 355//355 341//341
f 343//343 356//356 342//342
f 344//344 357//357 343//343
f 345//345 358//358 344//344
f 346//346 359//359 345//345
f 348//348 360//360 346//346
f 348//348 361//361 362//362
f 350//350 363//363 349//349
f 351//351 364//364 350//350
f 352//352 365//365 351//351
f 353//353 366//366 352//352
f 354//354 367//367 353//353
f 355//355 368//368 354//354
f 356//356 369//369 355//355
f 357//357 370//370 356//356
f 358//358 371//371 357//357
f 359//359 372//372 358//358
f 360//360 373//373 359//359
f 362//362 374//374 360//360
f 362//362 375//375 376//376
f 364//364 377//377 363//363
f 365//365 378//378 364//364
f 366//366 379//379 365//365
f 367//367 380//380 366//366
f 368//368 381//381 367//367
f 369//369 382//382 368//368
f 370//370 383//383 369//369
f 371//371 384//384 370//370
f 372//372 385//385 371//371
f 373//373 386//386 372//372
f 374//374 387//387 373//373
f 376//376 388//388 374//374
f 376//376 389//389 390//390
f 378//378 391//391 377//377
f 379//379 392//392 378//378
f 380//380 393//393 379//379
f 381//381 394//394 380//380
f 382//382 395//395 381//381
f 383//383 396//396 382//382
f 384//384 397//397 383//383
f 385//385 398//398 384//384
f 386//386 399//399 385//385
f 387//387 400//400 386//386
f 388//388 401//401 387//387
f 388//388 402//402 403//403
f 390//390 404//404 402//402
f 392//392 405//405 391//391
f 393//393 406//406 392//392
f 394//394 407//407 393//393
f 395//395 408//408 394//394
f 396//396 409//409 395//395
f 397//397 410//410 396//396
f 398//398 411//411 397//397
f 399//399 412//412 398//398
f 400//400 413//413 399//399
f 401//401 414//414 400//400
f 403//403 415//415 401//401
f 403//403 416//416 417//417
f 402//402 418//418 416//416
f 419//419 405//405 1//1
f 405//405 4//4 1//1
f 406//406 6//6 4//4
f 407//407 8//8 6//6
f 408//408 10//10 8//8
f 409//409 12//12 10//10
f 410//410 14//14 12//12
f 411//411 16//16 14//14
f 412//412 18//18 16//16
f 413//413 20//20 18//18
f 414//414 22//22 20//20
f 415//415 25//25 22//22
f 416//416 25//25 417//417
f 418//418 24//24 416//416
f 418//418 420//420 26//26
f 419//419 1//1 3//3
f 26//26 420//420 41//41
f 419//419 3//3 29//29
f 41//41 420//420 55//55
f 419//419 29//29 43//43
f 55//55 420//420 69//69
f 419//419 43//43 57//57
f 69//69 420//420 421//421
f 419//419 57//57 71//71
f 421//421 420//420 83//83
f 419//419 71//71 85//85
f 83//83 420//420 97//97
f 419//419 85//85 99//99
f 97//97 420//420 111//111
f 419//419 99//99 113//113
f 111//111 420//420 125//125
f 419//419 113//113 127//127
f 125//125 420//420 139//139
f 419//419 127//127 140//140
f 139//139 420//420 153//153
f 419//419 140//140 154//154
f 153//153 420//420 167//167
f 419//419 154//154 168//168
f 167//167 420//420 181//181
f 419//419 168//168 182//182
f 181//181 420//420 195//195
f 419//419 182//182 196//196
f 195//195 420//420 209//209
f 419//419 196//196 211//211
f 209//209 420//420 235//235
f 419//419 211//211 224//224
f 235//235 420//420 249//249
f 419//419 224//224 238//238
f 249//249 420//420 263//263
f 419//419 238//238 252//252
f 263//263 420//420 277//277
f 419//419 252//252 266//266
f 277//277 420//420 291//291
f 419//419 266//266 279//279
f 291//291 420//420 305//305
f 419//419 279//279 293//293
f 305//305 420//420 319//319
f 419//419 293//293 307//307
f 319//319 420//420 333//333
f 419//419 307//307 321//321
f 333//333 420//420 347//347
f 419//419 321//321 335//335
f 347//347 420//420 422//422
f 419//419 335//335 349//349
f 422//422 420//420 361//361
f 419//419 349//349 363//363
f 361//361 420//420 375//375
f 419//419 363//363 377//377
f 375//375 420//420 389//389
f 419//419 377//377 391//391
f 389//389 420//420 404//404
f 419//419 391//391 405//405
f 404//404 420//420 418//418
f 423//423 424//424 425//425
f 425//425 426//426 427//427
f 427//427 428//428 429//429
f 429//429 430//430 431//431
f 431//431 432//432 433//433
f 433//433 434//434 435//435
f 435//435 436//436 437//437
f 437//437 438//438 439//439
f 439//439 440//440 441//441
f 441//441 442//442 443//443
f 443//443 444//444 445//445
f 444//444 446//446 445//445
f 447//447 448//448 446//446
f 449//449 450//450 424//424
f 424//424 451//451 426//426
f 426//426 452//452 428//428
f 428//428 453//453 430//430
f 430//430 454//454 432//432
f 432//432 455//455 434//434
f 434//434 456//456 436//436
f 436//436 457//457 438//438
f 438//438 458//458 440//440
f 440//440 459//459 442//442
f 442//442 460//460 444//444
f 444//444 461//461 447//447
f 461//461 462//462 447//447
f 463//463 464//464 450//450
f 450//450 465//465 451//451
f 451//451 466//466 452//452
f 452//452 467//467 453//453
f 453//453 468//468 454//454
f 454//454 469//469 455//455
f 455//455 470//470 456//456
f 456//456 471//471 457//457
f 457//457 472//472 458//458
f 458//458 473//473 459//459
f 459//459 474//474 460//460
f 460//460 475//475 461//461
f 475//475 476//476 461//461
f 477//477 478//478 464//464
f 464//464 479//479 465//465
f 465//465 480//480 466//466
f 466//466 481//481 467//467
f 467//467 482//482 468//468
f 468//468 483//483 469//469
f 469//469 484//484 470//470
f 470//470 485//485 471//471
f 471//471 486//486 472//472
f 472//472 487//487 473//473
f 473//473 488//488 474//474
f 474//474 489//489 475//475
f 489//489 490//490 475//475
f 491//491 492//492 478//478
f 478//478 493//493 479//479
f 479//479 494//494 480//480
f 480//480 495//495 481//481
f 481//481 496//496 482//482
f 482//482 497//497 483//483
f 483//483 498//498 484//484
f 484//484 499//499 485//485
f 485//485 500//500 486//486
f 486//486 501//501 487//487
f 487//487 502//502 488//488
f 488//488 503//503 489//489
f 489//489 504//504 505//505
f 506//506 507//507 492//492
f 492//492 508//508 493//493
f 493//493 509//509 494//494
f 494//494 510//510 495//495
f 495//495 511//511 496//496
f 496//496 512//512 497//497
f 497//497 513//513 498//498
f 498//498 514//514 499//499
f 499//499 515//515 500//500
f 500//500 516//516 501//501
f 501//501 517//517 502//502
f 502//502 518//518 503//503
f 503//503 519//519 504//504
f 520//520 521//521 507//507
f 507//507 522//522 508//508
f 508//508 523//523 509//509
f 509//509 524//524 510//510
f 510//510 525//525 511//511
f 511//511 526//526 512//512
f 512//512 527//527 513//513
f 513//513 528//528 514//514
f 514//514 529//529 515//515
f 515//515 530//530 516//516
f 516//516 531//531 517//517
f 517//517 532//532 518//518
f 518//518 533//533 519//519
f 534//534 535//535 521//521
f 521//521 536//536 522//522
f 522//522 537//537 523//523
f 523//523 538//538 524//524
f 524//524 539//539 525//525
f 525//525 540//540 526//526
f 526//526 541//541 527//527
f 527//527 542//542 528//528
f 528//528 543//543 529//529
f 529//529 544//544 530//530
f 530//530 545//545 531//531
f 531//531 546//546 532//532
f 532//532 547//547 533//533
f 548//548 549//549 535//535
f 535//535 550//550 536//536
f 536//536 551//551 537//537
f 537//537 552//552 538//538
f 538//538 553//553 539//539
f 539//539 554//554 540//540
f 540//540 555//555 541//541
f 541//541 556//556 542//542
f 542//542 557//557 543//543
f 543//543 558//558 544//544
f 544//544 559//559 545//545
f 545//545 560//560 546//546
f 546//546 561//561 547//547
f 562//562 549//549 563//563
f 549//549 564//564 550//550
f 550//550 565//565 551//551
f 551//551 566//566 552//552
f 552//552 567//567 553//553
f 553//553 568//568 554//554
f 554//554 569//569 555//555
f 555//555 570//570 556//556
f 556//556 571//571 557//557
f 557//557 572//572 558//558
f 558//558 573//573 559//559
f 559//559 574//574 560//560
f 560//560 575//575 561//561
f 576//576 577//577 562//562
f 577//577 578//578 564//564
f 564//564 579//579 565//565
f 565//565 580//580 566//566
f 566//566 581//581 567//567
f 567//567 582//582 568//568
f 568//568 583//583 569//569
f 569//569 584//584 570//570
f 570//570 585//585 571//571
f 571//571 586//586 572//572
f 572//572 587//587 573//573
f 573//573 588//588 574//574
f 574//574 589//589 575//575
f 590//590 591//591 576//576
f 591//591 592//592 578//578
f 578//578 593//593 579//579
f 579//579 594//594 580//580
f 580//580 595//595 581//581
f 581//581 596//596 582//582
f 582//582 597//597 583//583
f 583//583 598//598 584//584
f 584//584 599//599 585//585
f 585//585 600//600 586//586
f 586//586 601//601 587//587
f 587//587 602//602 588//588
f 588//588 603//603 589//589
f 604//604 605//605 590//590
f 606//606 592//592 605//605
f 592//592 607//607 593//593
f 593//593 608//608 594//594
f 594//594 609//609 595//595
f 595//595 610//610 596//596
f 596//596 611//611 597//597
f 597//597 612//612 598//598
f 598//598 613//613 599//599
f 599//599 614//614 600//600
f 600//600 615//615 601//601
f 601//601 616//616 602//602
f 602//602 617//617 603//603
f 618//618 606//606 604//604
f 619//619 620//620 606//606
f 620//620 621//621 607//607
f 607//607 622//622 608//608
f 608//608 623//623 609//609
f 609//609 624//624 610//610
f 610//610 625//625 611//611
f 611//611 626//626 612//612
f 612//612 627//627 613//613
f 613//613 628//628 614//614
f 614//614 629//629 615//615
f 615//615 630//630 616//616
f 616//616 631//631 617//617
f 618//618 632//632 619//619
f 619//619 633//633 634//634
f 633//633 621//621 634//634
f 635//635 622//622 621//621
f 636//636 623//623 622//622
f 637//637 624//624 623//623
f 638//638 625//625 624//624
f 639//639 626//626 625//625
f 640//640 627//627 626//626
f 641//641 628//628 627//627
f 642//642 629//629 628//628
f 643//643 630//630 629//629
f 644//644 631//631 630//630
f 645//645 646//646 632//632
f 632//632 647//647 633//633
f 647//647 635//635 633//633
f 648//648 636//636 635//635
f 649//649 637//637 636//636
f 650//650 638//638 637//637
f 651//651 639//639 638//638
f 652//652 640//640 639//639
f 653//653 641//641 640//640
f 654//654 642//642 641//641
f 655//655 643//643 642//642
f 656//656 644//644 643//643
f 657//657 658//658 644//644
f 659//659 660//660 646//646
f 660//660 647//647 646//646
f 661//661 648//648 647//647
f 662//662 649//649 648//648
f 663//663 650//650 649//649
f 664//664 651//651 650//650
f 665//665 652//652 651//651
f 666//666 653//653 652//652
f 667//667 654//654 653//653
f 668//668 655//655 654//654
f 669//669 656//656 655//655
f 670//670 657//657 656//656
f 671//671 672//672 657//657
f 673//673 674//674 660//660
f 674//674 661//661 660//660
f 675//675 662//662 661//661
f 676//676 663//663 662//662
f 677//677 664//664 663//663
f 678//678 665//665 664//664
f 679//679 666//666 665//665
f 680//680 667//667 666//666
f 681//681 668//668 667//667
f 682//682 669//669 668//668
f 683//683 670//670 669//669
f 684//684 671//671 670//670
f 685//685 686//686 671//671
f 687//687 688//688 674//674
f 688//688 675//675 674//674
f 689//689 676//676 675//675
f 690//690 677//677 676//676
f 691//691 678//678 677//677
f 692//692 679//679 678//678
f 693//693 680//680 679//679
f 694//694 681//681 680//680
f 695//695 682//682 681//681
f 696//696 683//683 682//682
f 697//697 684//684 683//683
f 698//698 685//685 684//684
f 699//699 700//700 685//685
f 701//701 688//688 702//702
f 703//703 689//689 688//688
f 704//704 690//690 689//689
f 705//705 691//691 690//690
f 706//706 692//692 691//691
f 707//707 693//693 692//692
f 708//708 694//694 693//693
f 709//709 695//695 694//694
f 710//710 696//696 695//695
f 711//711 697//697 696//696
f 712//712 698//698 697//697
f 713//713 699//699 698//698
f 714//714 715//715 699//699
f 716//716 703//703 701//701
f 717//717 704//704 703//703
f 718//718 705//705 704//704
f 719//719 706//706 705//705
f 720//720 707//707 706//706
f 721//721 708//708 707//707
f 722//722 709//709 708//708
f 723//723 710//710 709//709
f 724//724 711//711 710//710
f 725//725 712//712 711//711
f 726//726 713//713 712//712
f 727//727 714//714 713//713
f 728//728 729//729 714//714
f 730//730 717//717 716//716
f 731//731 718//718 717//717
f 732//732 719//719 718//718
f 733//733 720//720 719//719
f 734//734 721//721 720//720
f 735//735 722//722 721//721
f 736//736 723//723 722//722
f 737//737 724//724 723//723
f 738//738 725//725 724//724
f 739//739 726//726 725//725
f 740//740 727//727 726//726
f 741//741 728//728 727//727
f 742//742 743//743 728//728
f 744//744 731//731 730//730
f 745//745 732//732 731//731
f 746//746 733//733 732//732
f 747//747 734//734 733//733
f 748//748 735//735 734//734
f 749//749 736//736 735//735
f 750//750 737//737 736//736
f 751//751 738//738 737//737
f 752//752 739//739 738//738
f 753//753 740//740 739//739
f 754//754 741//741 740//740
f 755//755 742//742 741//741
f 756//756 757//757 742//742
f 758//758 745//745 744//744
f 759//759 746//746 745//745
f 760//760 747//747 746//746
f 761//761 748//748 747//747
f 762//762 749//749 748//748
f 763//763 750//750 749//749
f 764//764 751//751 750//750
f 765//765 752//752 751//751
f 766//766 753//753 752//752
f 767//767 754//754 753//753
f 768//768 755//755 754//754
f 769//769 756//756 755//755
f 770//770 771//771 756//756
f 772//772 759//759 758//758
f 773//773 760//760 759//759
f 774//774 761//761 760//760
f 775//775 762//762 761//761
f 776//776 763//763 762//762
f 777//777 764//764 763//763
f 778//778 765//765 764//764
f 779//779 766//766 765//765
f 780//780 767//767 766//766
f 781//781 768//768 767//767
f 782//782 769//769 768//768
f 783//783 770//770 769//769
f 770//770 784//784 785//785
f 786//786 773//773 772//772
f 787//787 774//774 773//773
f 788//788 775//775 774//774
f 789//789 776//776 775//775
f 790//790 777//777 776//776
f 791//791 778//778 777//777
f 792//792 779//779 778//778
f 793//793 780//780 779//779
f 794//794 781//781 780//780
f 795//795 782//782 781//781
f 796//796 783//783 782//782
f 797//797 798//798 783//783
f 798//798 799//799 784//784
f 800//800 787//787 786//786
f 801//801 788//788 787//787
f 802//802 789//789 788//788
f 803//803 790//790 789//789
f 804//804 791//791 790//790
f 805//805 792//792 791//791
f 806//806 793//793 792//792
f 807//807 794//794 793//793
f 808//808 795//795 794//794
f 809//809 796//796 795//795
f 810//810 797//797 796//796
f 811//811 812//812 797//797
f 812//812 813//813 799//799
f 814//814 801//801 800//800
f 815//815 802//802 801//801
f 816//816 803//803 802//802
f 817//817 804//804 803//803
f 818//818 805//805 804//804
f 819//819 806//806 805//805
f 820//820 807//807 806//806
f 821//821 808//808 807//807
f 822//822 809//809 808//808
f 823//823 810//810 809//809
f 824//824 811//811 810//810
f 811//811 825//825 826//826
f 826//826 827//827 813//813
f 828//828 815//815 814//814
f 829//829 816//816 815//815
f 830//830 817//817 816//816
f 831//831 818//818 817//817
f 832//832 819//819 818//818
f 833//833 820//820 819//819
f 834//834 821//821 820//820
f 835//835 822//822 821//821
f 836//836 823//823 822//822
f 837//837 824//824 823//823
f 838//838 839//839 824//824
f 839//839 840//840 825//825
f 825//825 841//841 827//827
f 842//842 423//423 828//828
f 828//828 425//425 829//829
f 829//829 427//427 830//830
f 830//830 429//429 831//831
f 831//831 431//431 832//832
f 832//832 433//433 833//833
f 833//833 435//435 834//834
f 834//834 437//437 835//835
f 835//835 439//439 836//836
f 836//836 441//441 837//837
f 837//837 443//443 838//838
f 838//838 445//445 843//843
f 445//445 840//840 843//843
f 446//446 841//841 840//840
f 841//841 448//448 844//844
f 842//842 449//449 423//423
f 448//448 462//462 844//844
f 842//842 463//463 449//449
f 462//462 476//476 844//844
f 842//842 477//477 463//463
f 476//476 490//490 844//844
f 842//842 491//491 477//477
f 490//490 505//505 844//844
f 842//842 506//506 491//491
f 505//505 504//504 844//844
f 842//842 520//520 506//506
f 504//504 519//519 844//844
f 842//842 534//534 520//520
f 519//519 533//533 844//844
f 842//842 548//548 534//534
f 533//533 547//547 844//844
f 842//842 563//563 548//548
f 547//547 561//561 844//844
f 842//842 562//562 563//563
f 561//561 575//575 844//844
f 842//842 576//576 562//562
f 575//575 589//589 844//844
f 842//842 590//590 576//576
f 589//589 603//603 844//844
f 842//842 604//604 590//590
f 603//603 617//617 844//844
f 842//842 618//618 604//604
f 617//617 631//631 844//844
f 842//842 645//645 618//618
f 631//631 658//658 844//844
f 842//842 659//659 645//645
f 658//658 672//672 844//844
f 842//842 673//673 659//659
f 672//672 686//686 844//844
f 842//842 687//687 673//673
f 686//686 700//700 844//844
f 842//842 702//702 687//687
f 700//700 715//715 844//844
f 842//842 701//701 702//702
f 715//715 729//729 844//844
f 842//842 716//716 701//701
f 729//729 743//743 844//844
f 842//842 730//730 716//716
f 743//743 757//757 844//844
f 842//842 744//744 730//730
f 757//757 771//771 844//844
f 842//842 758//758 744//744
f 771//771 785//785 844//844
f 842//842 772//772 758//758
f 785//785 784//784 844//844
f 842//842 786//786 772//772
f 784//784 799//799 844//844
f 842//842 800//800 786//786
f 799//799 813//813 844//844
f 842//842 814//814 800//800
f 813//813 827//827 844//844
f 842//842 828//828 814//814
f 827//827 841//841 844//844
f 1//1 4//4 2//2
f 4//4 6//6 5//5
f 6//6 8//8 7//7
f 8//8 10//10 9//9
f 10//10 12//12 11//11
f 12//12 14//14 13//13
f 14//14 16//16 15//15
f 16//16 18//18 17//17
f 18//18 20//20 19//19
f 20//20 22//22 21//21
f 22//22 25//25 23//23
f 24//24 27//27 23//23
f 26//26 41//41 27//27
f 3//3 2//2 28//28
f 2//2 5//5 30//30
f 5//5 7//7 31//31
f 7//7 9//9 32//32
f 9//9 11//11 33//33
f 11//11 13//13 34//34
f 13//13 15//15 35//35
f 15//15 17//17 36//36
f 17//17 19//19 37//37
f 19//19 21//21 38//38
f 21//21 23//23 39//39
f 23//23 27//27 40//40
f 41//41 55//55 40//40
f 29//29 28//28 42//42
f 28//28 30//30 44//44
f 30//30 31//31 45//45
f 31//31 32//32 46//46
f 32//32 33//33 47//47
f 33//33 34//34 48//48
f 34//34 35//35 49//49
f 35//35 36//36 50//50
f 36//36 37//37 51//51
f 37//37 38//38 52//52
f 38//38 39//39 53//53
f 39//39 40//40 54//54
f 55//55 69//69 54//54
f 43//43 42//42 56//56
f 42//42 44//44 58//58
f 44//44 45//45 59//59
f 45//45 46//46 60//60
f 46//46 47//47 61//61
f 47//47 48//48 62//62
f 48//48 49//49 63//63
f 49//49 50//50 64//64
f 50//50 51//51 65//65
f 51//51 52//52 66//66
f 52//52 53//53 67//67
f 53//53 54//54 68//68
f 69//69 421//421 68//68
f 57//57 56//56 70//70
f 56//56 58//58 72//72
f 58//58 59//59 73//73
f 59//59 60//60 74//74
f 60//60 61//61 75//75
f 61//61 62//62 76//76
f 62//62 63//63 77//77
f 63//63 64//64 78//78
f 64//64 65//65 79//79
f 65//65 66//66 80//80
f 66//66 67//67 81//81
f 67//67 68//68 82//82
f 68//68 421//421 83//83
f 71//71 70//70 84//84
f 70//70 72//72 86//86
f 72//72 73//73 87//87
f 73//73 74//74 88//88
f 74//74 75//75 89//89
f 75//75 76//76 90//90
f 76//76 77//77 91//91
f 77//77 78//78 92//92
f 78//78 79//79 93//93
f 79//79 80//80 94//94
f 80//80 81//81 95//95
f 81//81 82//82 96//96
f 82//82 83//83 97//97
f 85//85 84//84 98//98
f 84//84 86//86 100//100
f 86//86 87//87 101//101
f 87//87 88//88 102//102
f 88//88 89//89 103//103
f 89//89 90//90 104//104
f 90//90 91//91 105//105
f 91//91 92//92 106//106
f 92//92 93//93 107//107
f 93//93 94//94 108//108
f 94//94 95//95 109//109
f 95//95 96//96 110//110
f 96//96 97//97 111//111
f 99//99 98//98 112//112
f 98//98 100//100 114//114
f 100//100 101//101 115//115
f 101//101 102//102 116//116
f 102//102 103//103 117//117
f 103//103 104//104 118//118
f 104//104 105//105 119//119
f 105//105 106//106 120//120
f 106//106 107//107 121//121
f 107//107 108//108 122//122
f 108//108 109//109 123//123
f 109//109 110//110 124//124
f 110//110 111//111 125//125
f 113//113 112//112 126//126
f 112//112 114//114 128//128
f 114//114 115//115 129//129
f 115//115 116//116 130//130
f 116//116 117//117 131//131
f 117//117 118//118 132//132
f 118//118 119//119 133//133
f 119//119 120//120 134//134
f 120//120 121//121 135//135
f 121//121 122//122 136//136
f 122//122 123//123 137//137
f 123//123 124//124 138//138
f 124//124 125//125 139//139
f 126//126 142//142 140//140
f 126//126 128//128 141//141
f 128//128 129//129 143//143
f 129//129 130//130 144//144
f 130//130 131//131 145//145
f 131//131 132//132 146//146
f 132//132 133//133 147//147
f 133//133 134//134 148//148
f 134//134 135//135 149//149
f 135//135 136//136 150//150
f 136//136 137//137 151//151
f 137//137 138//138 152//152
f 138//138 139//139 153//153
f 142//142 156//156 154//154
f 142//142 141//141 155//155
f 141//141 143//143 157//157
f 143//143 144//144 158//158
f 144//144 145//145 159//159
f 145//145 146//146 160//160
f 146//146 147//147 161//161
f 147//147 148//148 162//162
f 148//148 149//149 163//163
f 149//149 150//150 164//164
f 150//150 151//151 165//165
f 151//151 152//152 166//166
f 152//152 153//153 167//167
f 156//156 170//170 168//168
f 156//156 155//155 169//169
f 155//155 157//157 171//171
f 157//157 158//158 172//172
f 158//158 159//159 173//173
f 159//159 160//160 174//174
f 160//160 161//161 175//175
f 161//161 162//162 176//176
f 162//162 163//163 177//177
f 163//163 164//164 178//178
f 164//164 165//165 179//179
f 165//165 166//166 180//180
f 166//166 167//167 181//181
f 170//170 183//183 182//182
f 169//169 185//185 183//183
f 169//169 171//171 184//184
f 171//171 172//172 186//186
f 172//172 173//173 187//187
f 173//173 174//174 188//188
f 174//174 175//175 189//189
f 175//175 176//176 190//190
f 176//176 177//177 191//191
f 177//177 178//178 192//192
f 178//178 179//179 193//193
f 179//179 180//180 194//194
f 180//180 181//181 195//195
f 183//183 197//197 196//196
f 185//185 199//199 197//197
f 185//185 184//184 198//198
f 184//184 186//186 200//200
f 186//186 187//187 201//201
f 187//187 188//188 202//202
f 188//188 189//189 203//203
f 189//189 190//190 204//204
f 190//190 191//191 205//205
f 191//191 192//192 206//206
f 192//192 193//193 207//207
f 193//193 194//194 208//208
f 194//194 195//195 209//209
f 196//196 197//197 210//210
f 197//197 199//199 212//212
f 198//198 213//213 212//212
f 200//200 214//214 213//213
f 201//201 215//215 214//214
f 202//202 216//216 215//215
f 203//203 217//217 216//216
f 204//204 218//218 217//217
f 205//205 219//219 218//218
f 206//206 220//220 219//219
f 207//207 221//221 220//220
f 208//208 222//222 221//221
f 209//209 235//235 222//222
f 211//211 210//210 223//223
f 210//210 212//212 225//225
f 213//213 226//226 225//225
f 214//214 227//227 226//226
f 215//215 228//228 227//227
f 216//216 229//229 228//228
f 217//217 230//230 229//229
f 218//218 231//231 230//230
f 219//219 232//232 231//231
f 220//220 233//233 232//232
f 221//221 234//234 233//233
f 222//222 236//236 234//234
f 235//235 249//249 236//236
f 224//224 223//223 237//237
f 225//225 239//239 237//237
f 226//226 240//240 239//239
f 227//227 241//241 240//240
f 228//228 242//242 241//241
f 229//229 243//243 242//242
f 230//230 244//244 243//243
f 231//231 245//245 244//244
f 232//232 246//246 245//245
f 233//233 247//247 246//246
f 234//234 248//248 247//247
f 236//236 250//250 248//248
f 249//249 263//263 250//250
f 238//238 237//237 251//251
f 239//239 253//253 251//251
f 240//240 254//254 253//253
f 241//241 255//255 254//254
f 242//242 256//256 255//255
f 243//243 257//257 256//256
f 244//244 258//258 257//257
f 245//245 259//259 258//258
f 246//246 260//260 259//259
f 247//247 261//261 260//260
f 248//248 262//262 261//261
f 250//250 264//264 262//262
f 263//263 277//277 264//264
f 252//252 251//251 265//265
f 253//253 267//267 265//265
f 254//254 268//268 267//267
f 255//255 269//269 268//268
f 256//256 270//270 269//269
f 257//257 271//271 270//270
f 258//258 272//272 271//271
f 259//259 273//273 272//272
f 260//260 274//274 273//273
f 261//261 275//275 274//274
f 262//262 276//276 275//275
f 264//264 278//278 276//276
f 277//277 291//291 278//278
f 265//265 280//280 279//279
f 267//267 281//281 280//280
f 268//268 282//282 281//281
f 269//269 283//283 282//282
f 270//270 284//284 283//283
f 271//271 285//285 284//284
f 272//272 286//286 285//285
f 273//273 287//287 286//286
f 274//274 288//288 287//287
f 275//275 289//289 288//288
f 276//276 290//290 289//289
f 278//278 292//292 290//290
f 291//291 305//305 292//292
f 280//280 294//294 293//293
f 281//281 295//295 294//294
f 282//282 296//296 295//295
f 283//283 297//297 296//296
f 284//284 298//298 297//297
f 285//285 299//299 298//298
f 286//286 300//300 299//299
f 287//287 301//301 300//300
f 288//288 302//302 301//301
f 289//289 303//303 302//302
f 290//290 304//304 303//303
f 292//292 306//306 304//304
f 305//305 319//319 306//306
f 294//294 308//308 307//307
f 295//295 309//309 308//308
f 296//296 310//310 309//309
f 297//297 311//311 310//310
f 298//298 312//312 311//311
f 299//299 313//313 312//312
f 300//300 314//314 313//313
f 301//301 315//315 314//314
f 302//302 316//316 315//315
f 303//303 317//317 316//316
f 304//304 318//318 317//317
f 306//306 320//320 318//318
f 319//319 333//333 320//320
f 308//308 322//322 321//321
f 309//309 323//323 322//322
f 310//310 324//324 323//323
f 311//311 325//325 324//324
f 312//312 326//326 325//325
f 313//313 327//327 326//326
f 314//314 328//328 327//327
f 315//315 329//329 328//328
f 316//316 330//330 329//329
f 317//317 331//331 330//330
f 318//318 332//332 331//331
f 320//320 334//334 332//332
f 333//333 347//347 334//334
f 322//322 336//336 335//335
f 323//323 337//337 336//336
f 324//324 338//338 337//337
f 325//325 339//339 338//338
f 326//326 340//340 339//339
f 327//327 341//341 340//340
f 328//328 342//342 341//341
f 329//329 343//343 342//342
f 330//330 344//344 343//343
f 331//331 345//345 344//344
f 332//332 346//346 345//345
f 334//334 348//348 346//346
f 347//347 422//422 348//348
f 336//336 350//350 349//349
f 337//337 351//351 350//350
f 338//338 352//352 351//351
f 339//339 353//353 352//352
f 340//340 354//354 353//353
f 341//341 355//355 354//354
f 342//342 356//356 355//355
f 343//343 357//357 356//356
f 344//344 358//358 357//357
f 345//345 359//359 358//358
f 346//346 360//360 359//359
f 348//348 362//362 360//360
f 348//348 422//422 361//361
f 350//350 364//364 363//363
f 351//351 365//365 364//364
f 352//352 366//366 365//365
f 353//353 367//367 366//366
f 354//354 368//368 367//367
f 355//355 369//369 368//368
f 356//356 370//370 369//369
f 357//357 371//371 370//370
f 358//358 372//372 371//371
f 359//359 373//373 372//372
f 360//360 374//374 373//373
f 362//362 376//376 374//374
f 362//362 361//361 375//375
f 364//364 378//378 377//377
f 365//365 379//379 378//378
f 366//366 380//380 379//379
f 367//367 381//381 380//380
f 368//368 382//382 381//381
f 369//369 383//383 382//382
f 370//370 384//384 383//383
f 371//371 385//385 384//384
f 372//372 386//386 385//385
f 373//373 387//387 386//386
f 374//374 388//388 387//387
f 376//376 390//390 388//388
f 376//376 375//375 389//389
f 378//378 392//392 391//391
f 379//379 393//393 392//392
f 380//380 394//394 393//393
f 381//381 395//395 394//394
f 382//382 396//396 395//395
f 383//383 397//397 396//396
f 384//384 398//398 397//397
f 385//385 399//399 398//398
f 386//386 400//400 399//399
f 387//387 401//401 400//400
f 388//388 403//403 401//401
f 388//388 390//390 402//402
f 390//390 389//389 404//404
f 392//392 406//406 405//405
f 393//393 407//407 406//406
f 394//394 408//408 407//407
f 395//395 409//409 408//408
f 396//396 410//410 409//409
f 397//397 411//411 410//410
f 398//398 412//412 411//411
f 399//399 413//413 412//412
f 400//400 414//414 413//413
f 401//401 415//415 414//414
f 403//403 417//417 415//415
f 403//403 402//402 416//416
f 402//402 404//404 418//418
f 405//405 406//406 4//4
f 406//406 407//407 6//6
f 407//407 408//408 8//8
f 408//408 409//409 10//10
f 409//409 410//410 12//12
f 410//410 411//411 14//14
f 411//411 412//412 16//16
f 412//412 413//413 18//18
f 413//413 414//414 20//20
f 414//414 415//415 22//22
f 415//415 417//417 25//25
f 416//416 24//24 25//25
f 418//418 26//26 24//24
f 423//423 449//449 424//424
f 425//425 424//424 426//426
f 427//427 426//426 428//428
f 429//429 428//428 430//430
f 431//431 430//430 432//432
f 433//433 432//432 434//434
f 435//435 434//434 436//436
f 437//437 436//436 438//438
f 439//439 438//438 440//440
f 441//441 440//440 442//442
f 443//443 442//442 444//444
f 444//444 447//447 446//446
f 447//447 462//462 448//448
f 449//449 463//463 450//450
f 424//424 450//450 451//451
f 426//426 451//451 452//452
f 428//428 452//452 453//453
f 430//430 453//453 454//454
f 432//432 454//454 455//455
f 434//434 455//455 456//456
f 436//436 456//456 457//457
f 438//438 457//457 458//458
f 440//440 458//458 459//459
f 442//442 459//459 460//460
f 444//444 460//460 461//461
f 461//461 476//476 462//462
f 463//463 477//477 464//464
f 450//450 464//464 465//465
f 451//451 465//465 466//466
f 452//452 466//466 467//467
f 453//453 467//467 468//468
f 454//454 468//468 469//469
f 455//455 469//469 470//470
f 456//456 470//470 471//471
f 457//457 471//471 472//472
f 458//458 472//472 473//473
f 459//459 473//473 474//474
f 460//460 474//474 475//475
f 475//475 490//490 476//476
f 477//477 491//491 478//478
f 464//464 478//478 479//479
f 465//465 479//479 480//480
f 466//466 480//480 481//481
f 467//467 481//481 482//482
f 468//468 482//482 483//483
f 469//469 483//483 484//484
f 470//470 484//484 485//485
f 471//471 485//485 486//486
f 472//472 486//486 487//487
f 473//473 487//487 488//488
f 474//474 488//488 489//489
f 489//489 505//505 490//490
f 491//491 506//506 492//492
f 478//478 492//492 493//493
f 479//479 493//493 494//494
f 480//480 494//494 495//495
f 481//481 495//495 496//496
f 482//482 496//496 497//497
f 483//483 497//497 498//498
f 484//484 498//498 499//499
f 485//485 499//499 500//500
f 486//486 500//500 501//501
f 487//487 501//501 502//502
f 488//488 502//502 503//503
f 489//489 503//503 504//504
f 506//506 520//520 507//507
f 492//492 507//507 508//508
f 493//493 508//508 509//509
f 494//494 509//509 510//510
f 495//495 510//510 511//511
f 496//496 511//511 512//512
f 497//497 512//512 513//513
f 498//498 513//513 514//514
f 499//499 514//514 515//515
f 500//500 515//515 516//516
f 501//501 516//516 517//517
f 502//502 517//517 518//518
f 503//503 518//518 519//519
f 520//520 534//534 521//521
f 507//507 521//521 522//522
f 508//508 522//522 523//523
f 509//509 523//523 524//524
f 510//510 524//524 525//525
f 511//511 525//525 526//526
f 512//512 526//526 527//527
f 513//513 527//527 528//528
f 514//514 528//528 529//529
f 515//515 529//529 530//530
f 516//516 530//530 531//531
f 517//517 531//531 532//532
f 518//518 532//532 533//533
f 534//534 548//548 535//535
f 521//521 535//535 536//536
f 522//522 536//536 537//537
f 523//523 537//537 538//538
f 524//524 538//538 539//539
f 525//525 539//539 540//540
f 526//526 540//540 541//541
f 527//527 541//541 542//542
f 528//528 542//542 543//543
f 529//529 543//543 544//544
f 530//530 544//544 545//545
f 531//531 545//545 546//546
f 532//532 546//546 547//547
f 548//548 563//563 549//549
f 535//535 549//549 550//550
f 536//536 550//550 551//551
f 537//537 551//551 552//552
f 538//538 552//552 553//553
f 539//539 553//553 554//554
f 540//540 554//554 555//555
f 541//541 555//555 556//556
f 542//542 556//556 557//557
f 543//543 557//557 558//558
f 544//544 558//558 559//559
f 545//545 559//559 560//560
f 546//546 560//560 561//561
f 562//562 577//577 549//549
f 549//549 577//577 564//564
f 550//550 564//564 565//565
f 551//551 565//565 566//566
f 552//552 566//566 567//567
f 553//553 567//567 568//568
f 554//554 568//568 569//569
f 555//555 569//569 570//570
f 556//556 570//570 571//571
f 557//557 571//571 572//572
f 558//558 572//572 573//573
f 559//559 573//573 574//574
f 560//560 574//574 575//575
f 576//576 591//591 577//577
f 577//577 591//591 578//578
f 564//564 578//578 579//579
f 565//565 579//579 580//580
f 566//566 580//580 581//581
f 567//567 581//581 582//582
f 568//568 582//582 583//583
f 569//569 583//583 584//584
f 570//570 584//584 585//585
f 571//571 585//585 586//586
f 572//572 586//586 587//587
f 573//573 587//587 588//588
f 574//574 588//588 589//589
f 590//590 605//605 591//591
f 591//591 605//605 592//592
f 578//578 592//592 593//593
f 579//579 593//593 594//594
f 580//580 594//594 595//595
f 581//581 595//595 596//596
f 582//582 596//596 597//597
f 583//583 597//597 598//598
f 584//584 598//598 599//599
f 585//585 599//599 600//600
f 586//586 600//600 601//601
f 587//587 601//601 602//602
f 588//588 602//602 603//603
f 604//604 606//606 605//605
f 606//606 620//620 592//592
f 592//592 620//620 607//607
f 593//593 607//607 608//608
f 594//594 608//608 609//609
f 595//595 609//609 610//610
f 596//596 610//610 611//611
f 597//597 611//611 612//612
f 598//598 612//612 613//613
f 599//599 613//613 614//614
f 600//600 614//614 615//615
f 601//601 615//615 616//616
f 602//602 616//616 617//617
f 618//618 619//619 606//606
f 619//619 634//634 620//620
f 620//620 634//634 621//621
f 607//607 621//621 622//622
f 608//608 622//622 623//623
f 609//609 623//623 624//624
f 610//610 624//624 625//625
f 611//611 625//625 626//626
f 612//612 626//626 627//627
f 613//613 627//627 628//628
f 614//614 628//628 629//629
f 615//615 629//629 630//630
f 616//616 630//630 631//631
f 618//618 645//645 632//632
f 619//619 632//632 633//633
f 633//633 635//635 621//621
f 635//635 636//636 622//622
f 636//636 637//637 623//623
f 637//637 638//638 624//624
f 638//638 639//639 625//625
f 639//639 640//640 626//626
f 640//640 641//641 627//627
f 641//641 642//642 628//628
f 642//642 643//643 629//629
f 643//643 644//644 630//630
f 644//644 658//658 631//631
f 645//645 659//659 646//646
f 632//632 646//646 647//647
f 647//647 648//648 635//635
f 648//648 649//649 636//636
f 649//649 650//650 637//637
f 650//650 651//651 638//638
f 651//651 652//652 639//639
f 652//652 653//653 640//640
f 653//653 654//654 641//641
f 654//654 655//655 642//642
f 655//655 656//656 643//643
f 656//656 657//657 644//644
f 657//657 672//672 658//658
f 659//659 673//673 660//660
f 660//660 661//661 647//647
f 661//661 662//662 648//648
f 662//662 663//663 649//649
f 663//663 664//664 650//650
f 664//664 665//665 651//651
f 665//665 666//666 652//652
f 666//666 667//667 653//653
f 667//667 668//668 654//654
f 668//668 669//669 655//655
f 669//669 670//670 656//656
f 670//670 671//671 657//657
f 671//671 686//686 672//672
f 673//673 687//687 674//674
f 674//674 675//675 661//661
f 675//675 676//676 662//662
f 676//676 677//677 663//663
f 677//677 678//678 664//664
f 678//678 679//679 665//665
f 679//679 680//680 666//666
f 680//680 681//681 667//667
f 681//681 682//682 668//668
f 682//682 683//683 669//669
f 683//683 684//684 670//670
f 684//684 685//685 671//671
f 685//685 700//700 686//686
f 687//687 702//702 688//688
f 688//688 689//689 675//675
f 689//689 690//690 676//676
f 690//690 691//691 677//677
f 691//691 692//692 678//678
f 692//692 693//693 679//679
f 693//693 694//694 680//680
f 694//694 695//695 681//681
f 695//695 696//696 682//682
f 696//696 697//697 683//683
f 697//697 698//698 684//684
f 698//698 699//699 685//685
f 699//699 715//715 700//700
f 701//701 703//703 688//688
f 703//703 704//704 689//689
f 704//704 705//705 690//690
f 705//705 706//706 691//691
f 706//706 707//707 692//692
f 707//707 708//708 693//693
f 708//708 709//709 694//694
f 709//709 710//710 695//695
f 710//710 711//711 696//696
f 711//711 712//712 697//697
f 712//712 713//713 698//698
f 713//713 714//714 699//699
f 714//714 729//729 715//715
f 716//716 717//717 703//703
f 717//717 718//718 704//704
f 718//718 719//719 705//705
f 719//719 720//720 706//706
f 720//720 721//721 707//707
f 721//721 722//722 708//708
f 722//722 723//723 709//709
f 723//723 724//724 710//710
f 724//724 725//725 711//711
f 725//725 726//726 712//712
f 726//726 727//727 713//713
f 727//727 728//728 714//714
f 728//728 743//743 729//729
f 730//730 731//731 717//717
f 731//731 732//732 718//718
f 732//732 733//733 719//719
f 733//733 734//734 720//720
f 734//734 735//735 721//721
f 735//735 736//736 722//722
f 736//736 737//737 723//723
f 737//737 738//738 724//724
f 738//738 739//739 725//725
f 739//739 740//740 726//726
f 740//740 741//741 727//727
f 741//741 742//742 728//728
f 742//742 757//757 743//743
f 744//744 745//745 731//731
f 745//745 746//746 732//732
f 746//746 747//747 733//733
f 747//747 748//748 734//734
f 748//748 749//749 735//735
f 749//749 750//750 736//736
f 750//750 751//751 737//737
f 751//751 752//752 738//738
f 752//752 753//753 739//739
f 753//753 754//754 740//740
f 754//754 755//755 741//741
f 755//755 756//756 742//742
f 756//756 771//771 757//757
f 758//758 759//759 745//745
f 759//759 760//760 746//746
f 760//760 761//761 747//747
f 761//761 762//762 748//748
f 762//762 763//763 749//749
f 763//763 764//764 750//750
f 764//764 765//765 751//751
f 765//765 766//766 752//752
f 766//766 767//767 753//753
f 767//767 768//768 754//754
f 768//768 769//769 755//755
f 769//769 770//770 756//756
f 770//770 785//785 771//771
f 772//772 773//773 759//759
f 773//773 774//774 760//760
f 774//774 775//775 761//761
f 775//775 776//776 762//762
f 776//776 777//777 763//763
f 777//777 778//778 764//764
f 778//778 779//779 765//765
f 779//779 780//780 766//766
f 780//780 781//781 767//767
f 781//781 782//782 768//768
f 782//782 783//783 769//769
f 783//783 798//798 770//770
f 770//770 798//798 784//784
f 786//786 787//787 773//773
f 787//787 788//788 774//774
f 788//788 789//789 775//775
f 789//789 790//790 776//776
f 790//790 791//791 777//777
f 791//791 792//792 778//778
f 792//792 793//793 779//779
f 793//793 794//794 780//780
f 794//794 795//795 781//781
f 795//795 796//796 782//782
f 796//796 797//797 783//783
f 797//797 812//812 798//798
f 798//798 812//812 799//799
f 800//800 801//801 787//787
f 801//801 802//802 788//788
f 802//802 803//803 789//789
f 803//803 804//804 790//790
f 804//804 805//805 791//791
f 805//805 806//806 792//792
f 806//806 807//807 793//793
f 807//807 808//808 794//794
f 808//808 809//809 795//795
f 809//809 810//810 796//796
f 810//810 811//811 797//797
f 811//811 826//826 812//812
f 812//812 826//826 813//813
f 814//814 815//815 801//801
f 815//815 816//816 802//802
f 816//816 817//817 803//803
f 817//817 818//818 804//804
f 818//818 819//819 805//805
f 819//819 820//820 806//806
f 820//820 821//821 807//807
f 821//821 822//822 808//808
f 822//822 823//823 809//809
f 823//823 824//824 810//810
f 824//824 839//839 811//811
f 811//811 839//839 825//825
f 826//826 825//825 827//827
f 828//828 829//829 815//815
f 829//829 830//830 816//816
f 830//830 831//831 817//817
f 831//831 832//832 818//818
f 832//832 833//833 819//819
f 833//833 834//834 820//820
f 834//834 835//835 821//821
f 835//835 836//836 822//822
f 836//836 837//837 823//823
f 837//837 838//838 824//824
f 838//838 843//843 839//839
f 839//839 843//843 840//840
f 825//825 840//840 841//841
f 828//828 423//423 425//425
f 829//829 425//425 427//427
f 830//830 427//427 429//429
f 831//831 429//429 431//431
f 832//832 431//431 433//433
f 833//833 433//433 435//435
f 834//834 435//435 437//437
f 835//835 437//437 439//439
f 836//836 439//439 441//441
f 837//837 441//441 443//443
f 838//838 443//443 445//445
f 445//445 446//446 840//840
f 446//446 448//448 841//841
