# Blender v2.82 (sub 7) OBJ File: 'table_scene3.blend'
# www.blender.org
o GroundSupport_Support_Cilindro.003
v -0.681757 0.051809 -0.155945
v -0.673188 0.023174 -0.195886
v -0.681697 0.023174 -0.155937
v -0.535824 0.051808 0.113095
v -0.571163 0.023174 0.092603
v -0.535798 0.023174 0.113041
v -0.234856 0.051808 0.057443
v -0.265266 0.023174 0.084720
v -0.234900 0.023174 0.057401
v -0.510448 0.051809 -0.367315
v -0.470970 0.023174 -0.377813
v -0.510428 0.023174 -0.367258
v -0.658589 0.051809 -0.234039
v -0.658535 0.023174 -0.234013
v -0.194781 0.051809 -0.245992
v -0.178236 0.023174 -0.208642
v -0.194834 0.023174 -0.245963
v -0.571197 0.051808 0.092653
v -0.602895 0.023174 0.066885
v -0.470981 0.051809 -0.377873
v -0.430346 0.023174 -0.382066
v -0.265229 0.051808 0.084768
v -0.299531 0.023174 0.106952
v -0.638097 0.023174 -0.269378
v -0.547778 0.051809 -0.350713
v -0.547749 0.023174 -0.350660
v -0.178179 0.051809 -0.208662
v -0.167681 0.023174 -0.169184
v -0.602937 0.051808 0.066929
v -0.630214 0.023174 0.036520
v -0.430348 0.051809 -0.382127
v -0.389558 0.023174 -0.379911
v -0.299502 0.051808 0.107005
v -0.336852 0.023174 0.123549
v -0.638147 0.051809 -0.269412
v -0.612379 0.023174 -0.301110
v -0.630262 0.051809 0.036557
v -0.652446 0.023174 0.002255
v -0.167621 0.051808 -0.169195
v -0.163428 0.023174 -0.128561
v -0.336832 0.051808 0.123607
v -0.376310 0.023174 0.134105
v -0.389550 0.051809 -0.379972
v -0.349608 0.023174 -0.371403
v -0.612423 0.051809 -0.301152
v -0.582014 0.023174 -0.328428
v -0.163367 0.051808 -0.128562
v -0.165583 0.023174 -0.087772
v -0.652499 0.051809 0.002284
v -0.669044 0.023174 -0.035067
v -0.349591 0.051809 -0.371461
v -0.311482 0.023174 -0.356749
v -0.376299 0.051808 0.134165
v -0.416934 0.023174 0.138357
v -0.582051 0.051809 -0.328476
v -0.165522 0.051808 -0.087764
v -0.174091 0.023174 -0.047822
v -0.669101 0.051809 -0.035046
v -0.679599 0.023174 -0.074525
v -0.311455 0.051809 -0.356804
v -0.276117 0.023174 -0.336312
v -0.416932 0.051808 0.138418
v -0.457722 0.023174 0.136203
v -0.679659 0.051809 -0.074514
v -0.683851 0.023174 -0.115148
v -0.174033 0.051808 -0.047805
v -0.188745 0.023174 -0.009696
v -0.276082 0.051809 -0.336362
v -0.244385 0.023174 -0.310594
v -0.457730 0.051808 0.136263
v -0.497672 0.023174 0.127694
v -0.188690 0.051808 -0.009670
v -0.209182 0.023174 0.025669
v -0.683912 0.051809 -0.115147
v -0.244343 0.051809 -0.310638
v -0.217066 0.023174 -0.280228
v -0.497689 0.051808 0.127752
v -0.209132 0.051808 0.025703
v -0.217018 0.051809 -0.280265
v -0.416934 0.023174 0.138357
v -0.669044 0.023174 -0.035067
v -0.582014 0.023174 -0.328428
v -0.652615 0.068310 -0.079514
v -0.656419 0.052953 -0.115855
v -0.652615 0.052953 -0.079514
v -0.547300 0.052953 -0.349831
v -0.565317 0.052953 -0.306650
v -0.534665 0.052953 -0.326538
v -0.501278 0.052953 -0.341386
v -0.417641 0.052953 0.110925
v -0.457599 0.052953 0.135269
v -0.416958 0.052953 0.137415
v -0.654492 0.052953 -0.152344
v -0.672285 0.052953 -0.195618
v -0.680763 0.052953 -0.155813
v -0.254798 0.052953 0.038503
v -0.265839 0.052953 0.083972
v -0.235584 0.052953 0.056752
v -0.291669 0.052953 -0.313703
v -0.245034 0.052953 -0.309910
v -0.276651 0.052953 -0.335535
v -0.470798 0.052953 -0.376886
v -0.429639 0.052953 -0.354633
v -0.430322 0.052953 -0.381124
v -0.633771 0.052953 -0.222189
v -0.637321 0.052953 -0.268843
v -0.657684 0.052953 -0.233607
v -0.489867 0.052953 0.101386
v -0.535392 0.052953 0.112190
v -0.497404 0.052953 0.126791
v -0.218956 0.052953 -0.232879
v -0.217814 0.052953 -0.279655
v -0.238844 0.052953 -0.263532
v -0.389681 0.052953 -0.378977
v -0.357413 0.052953 -0.345094
v -0.349876 0.052953 -0.370499
v -0.592482 0.052953 -0.282212
v -0.581440 0.052953 -0.327680
v -0.611696 0.052953 -0.300461
v -0.555611 0.052953 0.069994
v -0.602246 0.052953 0.066202
v -0.570629 0.052953 0.091827
v -0.179125 0.052953 -0.208328
v -0.194665 0.052953 -0.164194
v -0.168608 0.052953 -0.169013
v -0.651617 0.052953 0.001805
v -0.608436 0.052953 0.019823
v -0.628324 0.052953 -0.010829
v -0.311888 0.052953 -0.355899
v -0.164370 0.052953 -0.128536
v -0.192788 0.052953 -0.091365
v -0.166517 0.052953 -0.087895
v -0.643172 0.052953 -0.044216
v -0.678672 0.052953 -0.074696
v -0.668155 0.052953 -0.035381
v -0.523974 0.052953 0.088277
v -0.200400 0.052953 -0.055627
v -0.189595 0.052953 -0.010102
v -0.174995 0.052953 -0.048090
v -0.204107 0.052953 -0.199493
v -0.195662 0.052953 -0.245514
v -0.231791 0.052953 0.010117
v -0.209959 0.052953 0.025135
v -0.629466 0.052953 0.035946
v -0.510114 0.052953 -0.366369
v -0.465980 0.052953 -0.350829
v -0.646880 0.052953 -0.188082
v -0.299980 0.052953 0.106123
v -0.281962 0.052953 0.062942
v -0.312615 0.052953 0.082830
v -0.393151 0.052953 -0.352706
v -0.615488 0.052953 -0.253825
v -0.652615 0.052953 -0.079514
v -0.682909 0.052953 -0.115172
v -0.542492 0.068832 0.050924
v -0.567686 0.068310 0.029813
v -0.568057 0.068832 0.030204
v -0.200400 0.068310 -0.055627
v -0.213508 0.052953 -0.021520
v -0.200400 0.052953 -0.055627
v -0.489867 0.068310 0.101386
v -0.523974 0.052953 0.088277
v -0.489867 0.052953 0.101386
v -0.263282 0.068310 -0.290696
v -0.238844 0.052953 -0.263532
v -0.263282 0.052953 -0.290696
v -0.501278 0.068310 -0.341386
v -0.465980 0.052953 -0.350829
v -0.501278 0.052953 -0.341386
v -0.646880 0.068310 -0.188082
v -0.633771 0.052953 -0.222189
v -0.646880 0.052953 -0.188082
v -0.254798 0.068310 0.038503
v -0.281962 0.052953 0.062942
v -0.254798 0.052953 0.038503
v -0.583998 0.068310 0.046988
v -0.608436 0.052953 0.019823
v -0.583998 0.052953 0.046988
v -0.204107 0.068310 -0.199493
v -0.194665 0.052953 -0.164194
v -0.204107 0.052953 -0.199493
v -0.393151 0.068310 -0.352706
v -0.357413 0.052953 -0.345094
v -0.393151 0.052953 -0.352706
v -0.346001 0.068310 0.097678
v -0.381300 0.052953 0.107121
v -0.346001 0.052953 0.097678
v -0.592482 0.068310 -0.282212
v -0.565317 0.052953 -0.306650
v -0.592482 0.052953 -0.282212
v -0.192788 0.068310 -0.091365
v -0.192788 0.052953 -0.091365
v -0.643172 0.068310 -0.044216
v -0.643172 0.052953 -0.044216
v -0.454129 0.068310 0.108998
v -0.454129 0.052953 0.108998
v -0.291669 0.068310 -0.313703
v -0.291669 0.052953 -0.313703
v -0.534665 0.068310 -0.326538
v -0.534665 0.052953 -0.326538
v -0.654492 0.068310 -0.152344
v -0.654492 0.052953 -0.152344
v -0.231791 0.068310 0.010117
v -0.231791 0.052953 0.010117
v -0.218956 0.068310 -0.232879
v -0.218956 0.052953 -0.232879
v -0.555611 0.068310 0.069994
v -0.555611 0.052953 0.069994
v -0.429639 0.068310 -0.354633
v -0.429639 0.052953 -0.354633
v -0.615488 0.068310 -0.253825
v -0.615488 0.052953 -0.253825
v -0.312615 0.068310 0.082830
v -0.312615 0.052953 0.082830
v -0.628324 0.068310 -0.010829
v -0.628324 0.052953 -0.010829
v -0.190861 0.068310 -0.127854
v -0.190861 0.052953 -0.127854
v -0.417641 0.068310 0.110925
v -0.417641 0.052953 0.110925
v -0.323306 0.068310 -0.331986
v -0.323306 0.052953 -0.331986
v -0.656419 0.068310 -0.115855
v -0.213508 0.068310 -0.021520
v -0.523974 0.068310 0.088277
v -0.238844 0.068310 -0.263532
v -0.465980 0.068310 -0.350829
v -0.633771 0.068310 -0.222189
v -0.281962 0.068310 0.062942
v -0.194665 0.068310 -0.164194
v -0.608436 0.068310 0.019823
v -0.357413 0.068310 -0.345094
v -0.565317 0.068310 -0.306650
v -0.381300 0.068310 0.107121
v -0.217957 0.061187 -0.159887
v -0.214539 0.068310 -0.127243
v -0.217957 0.068310 -0.159887
v -0.239776 0.068310 -0.221586
v -0.225930 0.068832 -0.191775
v -0.239302 0.068832 -0.221843
v -0.429043 0.068832 -0.331494
v -0.396252 0.068310 -0.329224
v -0.396181 0.068832 -0.329758
v -0.595973 0.068310 -0.240401
v -0.575698 0.068832 -0.266272
v -0.596418 0.068832 -0.240707
v -0.323908 0.068310 0.062009
v -0.353719 0.068832 0.075856
v -0.323651 0.068832 0.062483
v -0.214000 0.068832 -0.127257
v -0.216271 0.068310 -0.094466
v -0.215736 0.068832 -0.094396
v -0.607503 0.068310 -0.022123
v -0.621350 0.068832 -0.051934
v -0.607978 0.068832 -0.021866
v -0.333279 0.068832 -0.311098
v -0.305093 0.068310 -0.294188
v -0.304788 0.068832 -0.294632
v -0.418251 0.068310 0.087246
v -0.451098 0.068832 0.086050
v -0.418237 0.068832 0.087786
v -0.632740 0.068310 -0.116465
v -0.631544 0.068832 -0.149313
v -0.633280 0.068832 -0.116451
v -0.234883 0.068310 -0.031726
v -0.250862 0.068832 -0.003002
v -0.234396 0.068832 -0.031494
v -0.513768 0.068310 0.066902
v -0.514000 0.068832 0.067389
v -0.257642 0.068310 -0.249120
v -0.257213 0.068832 -0.249449
v -0.461673 0.068310 -0.327537
v -0.461771 0.068832 -0.328068
v -0.612396 0.068310 -0.211982
v -0.612883 0.068832 -0.212215
v -0.296374 0.068310 0.044144
v -0.296046 0.068832 0.044572
v -0.589638 0.068310 0.005412
v -0.590066 0.068832 0.005740
v -0.217426 0.068832 -0.159986
v -0.363996 0.068832 -0.322903
v -0.333512 0.068310 -0.310611
v -0.550906 0.068310 -0.287853
v -0.523628 0.068832 -0.306192
v -0.551234 0.068832 -0.288281
v -0.385607 0.068310 0.083829
v -0.385509 0.068832 0.084360
v -0.223108 0.068310 -0.062364
v -0.222591 0.068832 -0.062210
v -0.629323 0.068310 -0.083821
v -0.629854 0.068832 -0.083723
v -0.483130 0.068310 0.078678
v -0.483284 0.068832 0.079195
v -0.279594 0.068310 -0.273521
v -0.279223 0.068832 -0.273913
v -0.493381 0.068310 -0.319055
v -0.493561 0.068832 -0.319564
v -0.624171 0.068310 -0.181345
v -0.624689 0.068832 -0.181498
v -0.271582 0.068832 0.022563
v -0.226439 0.068310 -0.191595
v -0.364150 0.068310 -0.322386
v -0.575307 0.068310 -0.265900
v -0.353899 0.068310 0.075347
v -0.620841 0.068310 -0.052113
v -0.451028 0.068310 0.085515
v -0.251306 0.068310 -0.003308
v -0.493381 0.061187 -0.319055
v -0.632740 0.061187 -0.116465
v -0.483130 0.061187 0.078678
v -0.589638 0.061187 0.005412
v -0.364150 0.061187 -0.322386
v -0.550906 0.061187 -0.287853
v -0.523371 0.068310 -0.305718
v -0.385607 0.061187 0.083829
v -0.629323 0.061187 -0.083821
v -0.223108 0.061187 -0.062364
v -0.483130 0.061187 0.078678
v -0.279594 0.061187 -0.273521
v -0.493381 0.061187 -0.319055
v -0.624171 0.061187 -0.181345
v -0.271973 0.061187 0.022192
v -0.271973 0.068310 0.022192
v -0.567686 0.061187 0.029813
v -0.226439 0.061187 -0.191595
v -0.396252 0.061187 -0.329224
v -0.575307 0.061187 -0.265900
v -0.353899 0.061187 0.075347
v -0.216271 0.061187 -0.094466
v -0.620841 0.061187 -0.052113
v -0.451028 0.061187 0.085515
v -0.305093 0.061187 -0.294188
v -0.523371 0.061187 -0.305718
v -0.631009 0.061187 -0.149242
v -0.631009 0.068310 -0.149242
v -0.251306 0.061187 -0.003308
v -0.542186 0.061187 0.050479
v -0.542186 0.068310 0.050479
v -0.239776 0.061187 -0.221586
v -0.429029 0.061187 -0.330955
v -0.429029 0.068310 -0.330955
v -0.595973 0.061187 -0.240401
v -0.323908 0.061187 0.062009
v -0.607503 0.061187 -0.022123
v -0.214539 0.061187 -0.127243
v -0.418251 0.061187 0.087246
v -0.333512 0.061187 -0.310611
v -0.234883 0.061187 -0.031726
v -0.632740 0.061187 -0.116465
v -0.513768 0.061187 0.066902
v -0.257642 0.061187 -0.249120
v -0.461673 0.061187 -0.327537
v -0.612396 0.061187 -0.211982
v -0.296374 0.061187 0.044144
v -0.337166 0.052953 0.122661
v -0.682909 0.052953 -0.115172
v -0.637321 0.052953 -0.268843
v -0.174995 0.052953 -0.048090
v -0.430322 0.052953 -0.381124
v -0.299980 0.052953 0.106123
v -0.651617 0.052953 0.001805
v -0.168608 0.052953 -0.169013
v -0.672285 0.052953 -0.195618
v -0.673246 0.051809 -0.195904
v -0.510114 0.052953 -0.366369
v -0.602246 0.052953 0.066202
v -0.209959 0.052953 0.025135
v -0.179125 0.052953 -0.208328
v -0.680763 0.052953 -0.155813
v -0.535392 0.052953 0.112190
v -0.668155 0.052953 -0.035381
v -0.217814 0.052953 -0.279655
v -0.166517 0.052953 -0.087895
v -0.457599 0.052953 0.135269
v -0.311888 0.052953 -0.355899
v -0.629466 0.052953 0.035946
v -0.376481 0.052953 0.133178
v -0.570629 0.052953 0.091827
v -0.611696 0.052953 -0.300461
v -0.389681 0.052953 -0.378977
v -0.195662 0.052953 -0.245514
v -0.497404 0.052953 0.126791
v -0.657684 0.052953 -0.233607
v -0.470798 0.052953 -0.376886
v -0.245034 0.052953 -0.309910
v -0.265839 0.052953 0.083972
v -0.189595 0.052953 -0.010102
v -0.581440 0.052953 -0.327680
v -0.349876 0.052953 -0.370499
v -0.646278 0.068832 -0.187903
v -0.255253 0.068832 0.038071
v -0.501069 0.068832 -0.340795
v -0.292025 0.068832 -0.313186
v -0.454047 0.068832 0.108375
v -0.201001 0.068832 -0.055806
v -0.642581 0.068832 -0.044425
v -0.346211 0.068832 0.097086
v -0.564935 0.068832 -0.306152
v -0.393233 0.068832 -0.352084
v -0.204699 0.068832 -0.199283
v -0.607938 0.068832 0.019442
v -0.263714 0.068832 -0.290241
v -0.489689 0.068832 0.100784
v -0.651998 0.068832 -0.079628
v -0.417657 0.068832 0.110298
v -0.323576 0.068832 -0.331419
v -0.191488 0.068832 -0.127837
v -0.282344 0.068832 0.062444
v -0.633205 0.068832 -0.221918
v -0.465866 0.068832 -0.350212
v -0.239342 0.068832 -0.263150
v -0.523704 0.068832 0.087711
v -0.214075 0.068832 -0.021790
v -0.655792 0.068832 -0.115871
v -0.627772 0.068832 -0.011129
v -0.193410 0.068832 -0.091447
v -0.614971 0.068832 -0.253469
v -0.219507 0.068832 -0.232580
v -0.555255 0.068832 0.069477
v -0.631544 0.068832 -0.149313
v -0.646278 0.068832 -0.187903
v -0.653869 0.068832 -0.152262
v -0.250862 0.068832 -0.003002
v -0.255253 0.068832 0.038071
v -0.232308 0.068832 0.009761
v -0.534366 0.068832 -0.325987
v -0.493561 0.068832 -0.319564
v -0.501069 0.068832 -0.340795
v -0.292025 0.068832 -0.313186
v -0.279223 0.068832 -0.273913
v -0.263714 0.068832 -0.290241
v -0.451098 0.068832 0.086050
v -0.489689 0.068832 0.100784
v -0.454047 0.068832 0.108375
v -0.193410 0.068832 -0.091447
v -0.222591 0.068832 -0.062210
v -0.201001 0.068832 -0.055806
v -0.621350 0.068832 -0.051934
v -0.651998 0.068832 -0.079628
v -0.642581 0.068832 -0.044425
v -0.353719 0.068832 0.075856
v -0.381414 0.068832 0.106504
v -0.346211 0.068832 0.097086
v -0.575698 0.068832 -0.266272
v -0.564935 0.068832 -0.306152
v -0.592026 0.068832 -0.281780
v -0.396181 0.068832 -0.329758
v -0.357591 0.068832 -0.344493
v -0.393233 0.068832 -0.352084
v -0.204699 0.068832 -0.199283
v -0.217426 0.068832 -0.159986
v -0.195282 0.068832 -0.164080
v -0.568057 0.068832 0.030204
v -0.607938 0.068832 0.019442
v -0.583565 0.068832 0.046533
v -0.296046 0.068832 0.044572
v -0.282344 0.068832 0.062444
v -0.612883 0.068832 -0.212215
v -0.633205 0.068832 -0.221918
v -0.465866 0.068832 -0.350212
v -0.257213 0.068832 -0.249449
v -0.239342 0.068832 -0.263150
v -0.483284 0.068832 0.079195
v -0.523704 0.068832 0.087711
v -0.629854 0.068832 -0.083723
v -0.655792 0.068832 -0.115871
v -0.234396 0.068832 -0.031494
v -0.214075 0.068832 -0.021790
v -0.385509 0.068832 0.084360
v -0.417657 0.068832 0.110298
v -0.551234 0.068832 -0.288281
v -0.333279 0.068832 -0.311098
v -0.323576 0.068832 -0.331419
v -0.191488 0.068832 -0.127837
v -0.590066 0.068832 0.005740
v -0.627772 0.068832 -0.011129
v -0.312914 0.068832 0.082278
v -0.614971 0.068832 -0.253469
v -0.461771 0.068832 -0.328068
v -0.429623 0.068832 -0.354006
v -0.239302 0.068832 -0.221843
v -0.219507 0.068832 -0.232580
v -0.514000 0.068832 0.067389
v -0.555255 0.068832 0.069477
v -0.633280 0.068832 -0.116451
v -0.304788 0.068832 -0.294632
v -0.215736 0.068832 -0.094396
v -0.596418 0.068832 -0.240707
v -0.429043 0.068832 -0.331494
v -0.542492 0.068832 0.050924
v -0.190861 0.052953 -0.127854
v -0.656419 0.052953 -0.115855
v -0.381300 0.052953 0.107121
v -0.376481 0.052953 0.133178
v -0.346001 0.052953 0.097678
v -0.337166 0.052953 0.122661
v -0.323306 0.052953 -0.331986
v -0.547749 0.023174 -0.350660
v -0.510428 0.023174 -0.367258
v -0.470970 0.023174 -0.377813
v -0.430346 0.023174 -0.382066
v -0.389558 0.023174 -0.379911
v -0.349608 0.023174 -0.371403
v -0.311482 0.023174 -0.356749
v -0.276117 0.023174 -0.336312
v -0.244385 0.023174 -0.310594
v -0.217066 0.023174 -0.280228
v -0.194834 0.023174 -0.245963
v -0.178236 0.023174 -0.208642
v -0.167681 0.023174 -0.169184
v -0.163428 0.023174 -0.128561
v -0.165583 0.023174 -0.087772
v -0.174091 0.023174 -0.047822
v -0.188745 0.023174 -0.009696
v -0.265266 0.023174 0.084720
v -0.209182 0.023174 0.025669
v -0.234900 0.023174 0.057401
v -0.299531 0.023174 0.106952
v -0.336852 0.023174 0.123549
v -0.376310 0.023174 0.134105
v -0.457722 0.023174 0.136203
v -0.571163 0.023174 0.092603
v -0.497672 0.023174 0.127694
v -0.535798 0.023174 0.113041
v -0.602895 0.023174 0.066885
v -0.630214 0.023174 0.036520
v -0.652446 0.023174 0.002255
v -0.679599 0.023174 -0.074525
v -0.673188 0.023174 -0.195886
v -0.683851 0.023174 -0.115148
v -0.681697 0.023174 -0.155937
v -0.658535 0.023174 -0.234013
v -0.638097 0.023174 -0.269378
v -0.612379 0.023174 -0.301110
v -0.454129 0.052953 0.108998
v -0.263282 0.052953 -0.290696
v -0.583998 0.052953 0.046988
v -0.213508 0.052953 -0.021520
v -0.523371 0.061187 -0.305718
v -0.550906 0.061187 -0.287853
v -0.575307 0.061187 -0.265900
v -0.595973 0.061187 -0.240401
v -0.612396 0.061187 -0.211982
v -0.624171 0.061187 -0.181345
v -0.631009 0.061187 -0.149242
v -0.629323 0.061187 -0.083821
v -0.620841 0.061187 -0.052113
v -0.607503 0.061187 -0.022123
v -0.589638 0.061187 0.005412
v -0.567686 0.061187 0.029813
v -0.542186 0.061187 0.050479
v -0.513768 0.061187 0.066902
v -0.451028 0.061187 0.085515
v -0.418251 0.061187 0.087246
v -0.385607 0.061187 0.083829
v -0.353899 0.061187 0.075347
v -0.323908 0.061187 0.062009
v -0.296374 0.061187 0.044144
v -0.271973 0.061187 0.022192
v -0.251306 0.061187 -0.003308
v -0.234883 0.061187 -0.031726
v -0.223108 0.061187 -0.062364
v -0.216271 0.061187 -0.094466
v -0.214539 0.061187 -0.127243
v -0.217957 0.061187 -0.159887
v -0.226439 0.061187 -0.191595
v -0.239776 0.061187 -0.221586
v -0.257642 0.061187 -0.249120
v -0.279594 0.061187 -0.273521
v -0.364150 0.061187 -0.322386
v -0.305093 0.061187 -0.294188
v -0.333512 0.061187 -0.310611
v -0.396252 0.061187 -0.329224
v -0.429029 0.061187 -0.330955
v -0.461673 0.061187 -0.327537
v -0.678672 0.052953 -0.074696
v -0.164370 0.052953 -0.128536
v -0.235584 0.052953 0.056752
v -0.276651 0.052953 -0.335535
v -0.416958 0.052953 0.137415
v -0.547300 0.052953 -0.349831
v -0.653869 0.068832 -0.152262
v -0.232308 0.068832 0.009761
v -0.534366 0.068832 -0.325987
v -0.381414 0.068832 0.106504
v -0.592026 0.068832 -0.281780
v -0.357591 0.068832 -0.344493
v -0.195282 0.068832 -0.164080
v -0.583565 0.068832 0.046533
v -0.312914 0.068832 0.082278
v -0.429623 0.068832 -0.354006
v -0.624689 0.068832 -0.181498
v -0.271582 0.068832 0.022563
v -0.523628 0.068832 -0.306192
v -0.363996 0.068832 -0.322903
v -0.225930 0.068832 -0.191775
v -0.418237 0.068832 0.087786
v -0.214000 0.068832 -0.127257
v -0.607978 0.068832 -0.021866
v -0.323651 0.068832 0.062483
vn -0.9303 0.3455 -0.1229
vn -0.9587 -0.0021 -0.2844
vn -0.9914 -0.0021 -0.1309
vn -0.4043 0.3455 0.8468
vn -0.5667 -0.0021 0.8239
vn -0.4309 -0.0021 0.9024
vn 0.6804 0.3455 0.6462
vn 0.6084 -0.0021 0.7936
vn 0.7251 -0.0021 0.6887
vn -0.3129 0.3455 -0.8847
vn -0.1818 -0.0021 -0.9833
vn -0.3334 -0.0021 -0.9428
vn -0.8468 0.3455 -0.4043
vn -0.9024 -0.0021 -0.4309
vn 0.8249 0.3455 -0.4474
vn 0.9428 -0.0021 -0.3334
vn 0.8790 -0.0021 -0.4768
vn -0.5318 0.3455 0.7731
vn -0.6887 -0.0021 0.7251
vn -0.1706 0.3455 -0.9228
vn -0.0258 -0.0021 -0.9997
vn 0.5710 0.3455 0.7447
vn 0.4768 -0.0021 0.8790
vn -0.8239 -0.0021 -0.5667
vn -0.4474 0.3456 -0.8249
vn -0.4768 -0.0021 -0.8790
vn 0.8847 0.3455 -0.3129
vn 0.9833 -0.0021 -0.1818
vn -0.6462 0.3455 0.6804
vn -0.7936 -0.0021 0.6084
vn -0.0242 0.3455 -0.9381
vn 0.1309 -0.0021 -0.9914
vn 0.4474 0.3455 0.8249
vn 0.3334 -0.0021 0.9428
vn -0.7731 0.3456 -0.5318
vn -0.7251 -0.0021 -0.6887
vn -0.7447 0.3455 0.5710
vn -0.8790 -0.0021 0.4768
vn 0.9228 0.3455 -0.1706
vn 0.9997 -0.0021 -0.0258
vn 0.3129 0.3455 0.8847
vn 0.1818 -0.0021 0.9833
vn 0.1229 0.3455 -0.9303
vn 0.2844 -0.0021 -0.9587
vn -0.6804 0.3455 -0.6462
vn -0.6084 -0.0021 -0.7936
vn 0.9381 0.3455 -0.0242
vn 0.9914 -0.0021 0.1309
vn -0.8249 0.3455 0.4474
vn -0.9428 -0.0021 0.3334
vn 0.2669 0.3455 -0.8997
vn 0.4309 -0.0021 -0.9024
vn 0.1706 0.3455 0.9228
vn 0.0258 -0.0021 0.9997
vn -0.5710 0.3455 -0.7447
vn 0.9303 0.3455 0.1229
vn 0.9587 -0.0021 0.2844
vn -0.8847 0.3455 0.3129
vn -0.9833 -0.0021 0.1818
vn 0.4043 0.3455 -0.8468
vn 0.5667 -0.0021 -0.8239
vn 0.0242 0.3455 0.9381
vn -0.1309 -0.0021 0.9914
vn -0.9228 0.3455 0.1706
vn -0.9997 -0.0021 0.0258
vn 0.8997 0.3455 0.2669
vn 0.9024 -0.0021 0.4309
vn 0.5318 0.3455 -0.7731
vn 0.6887 -0.0021 -0.7251
vn -0.1229 0.3455 0.9303
vn -0.2844 -0.0021 0.9587
vn 0.8468 0.3455 0.4043
vn 0.8239 -0.0021 0.5667
vn -0.9381 0.3455 0.0242
vn 0.6462 0.3455 -0.6804
vn 0.7936 -0.0021 -0.6084
vn -0.2669 0.3455 0.8997
vn 0.7731 0.3455 0.5318
vn 0.7447 0.3455 -0.5710
vn -0.0000 -1.0000 -0.0000
vn -0.8939 0.4167 0.1653
vn -0.9997 0.0000 0.0258
vn -0.9833 0.0000 0.1818
vn 0.0000 1.0000 0.0000
vn 0.3941 0.7187 -0.5729
vn 0.6319 0.3975 -0.6653
vn 0.4788 0.7187 -0.5042
vn 0.8715 0.4167 0.2585
vn 0.9024 0.0000 0.4309
vn 0.9587 0.0000 0.2844
vn -0.2585 0.4167 0.8715
vn -0.4309 0.0000 0.9024
vn -0.2844 0.0000 0.9587
vn 0.6260 0.4167 -0.6591
vn 0.7936 0.0000 -0.6084
vn 0.6887 0.0000 -0.7251
vn -0.3031 0.4167 -0.8570
vn -0.1818 0.0000 -0.9833
vn -0.3334 0.0000 -0.9428
vn -0.8715 0.4167 -0.2585
vn -0.9024 0.0000 -0.4309
vn -0.9587 0.0000 -0.2844
vn 0.6592 0.4167 0.6260
vn 0.6084 0.0000 0.7936
vn 0.7251 0.0000 0.6887
vn -0.6260 0.4167 0.6591
vn -0.7936 0.0000 0.6084
vn -0.6887 0.0000 0.7251
vn 0.8570 0.4167 -0.3031
vn 0.9833 0.0000 -0.1818
vn 0.9428 0.0000 -0.3334
vn 0.1190 0.4167 -0.9012
vn 0.2844 0.0000 -0.9587
vn 0.1309 0.0000 -0.9914
vn 0.3031 0.4167 0.8570
vn 0.1818 0.0000 0.9833
vn 0.3334 0.0000 0.9428
vn -0.6591 0.4167 -0.6260
vn -0.6084 0.0000 -0.7936
vn -0.7251 0.0000 -0.6887
vn 0.9012 0.4167 0.1190
vn 0.9914 0.0000 0.1309
vn -0.8570 0.4167 0.3031
vn -0.9428 0.0000 0.3334
vn -0.1190 0.4167 0.9012
vn -0.1309 0.0000 0.9914
vn 0.5152 0.4167 -0.7490
vn 0.5667 0.0000 -0.8239
vn -0.4334 0.4166 -0.7991
vn -0.4768 0.0000 -0.8790
vn -0.9012 0.4166 -0.1190
vn -0.9914 0.0000 -0.1309
vn 0.7490 0.4167 0.5152
vn 0.8239 0.0000 0.5667
vn 0.7991 0.4167 -0.4334
vn 0.8790 0.0000 -0.4768
vn -0.5152 0.4167 0.7490
vn -0.5667 0.0000 0.8239
vn -0.0234 0.4166 -0.9088
vn -0.0258 0.0000 -0.9997
vn -0.7490 0.4167 -0.5152
vn -0.8239 0.0000 -0.5667
vn 0.4334 0.4167 0.7991
vn 0.4768 0.0000 0.8790
vn -0.7991 0.4166 0.4334
vn -0.8790 0.0000 0.4768
vn 0.9088 0.4167 -0.0234
vn 0.9997 0.0000 -0.0258
vn 0.0234 0.4166 0.9088
vn 0.0258 0.0000 0.9997
vn 0.3917 0.4167 -0.8203
vn 0.4309 0.0000 -0.9024
vn -0.9088 0.4166 0.0234
vn 0.8203 0.4167 0.3917
vn -0.3917 0.4166 0.8204
vn 0.7214 0.4167 -0.5531
vn -0.1653 0.4167 -0.8939
vn -0.8203 0.4167 -0.3917
vn 0.5531 0.4167 0.7214
vn 0.8939 0.4167 -0.1653
vn -0.7214 0.4167 0.5531
vn 0.2585 0.4167 -0.8715
vn -0.5531 0.4166 -0.7214
vn 0.1653 0.4167 0.8939
vn -0.9173 0.3975 0.0236
vn -0.9023 0.3975 0.1669
vn -0.8066 0.3975 0.4375
vn -0.6555 0.7187 0.2318
vn -0.6112 0.7187 0.3315
vn 0.0179 0.7187 0.6951
vn -0.1201 0.3975 0.9097
vn -0.0910 0.7187 0.6893
vn 0.7560 0.3975 0.5201
vn 0.5042 0.7187 0.4788
vn 0.5729 0.7187 0.3941
vn -0.4375 0.3975 -0.8066
vn -0.2318 0.7187 -0.6555
vn -0.3315 0.7187 -0.6112
vn -0.6951 0.7187 0.0179
vn -0.9097 0.3975 -0.1201
vn -0.6893 0.7187 -0.0910
vn 0.8066 0.3975 -0.4375
vn 0.6556 0.7186 -0.2319
vn 0.6112 0.7187 -0.3315
vn -0.2996 0.7187 0.6274
vn -0.5201 0.3975 0.7560
vn -0.3941 0.7187 0.5729
vn -0.0236 0.3975 -0.9173
vn 0.0910 0.7187 -0.6894
vn -0.0179 0.7187 -0.6951
vn 0.9173 0.3975 -0.0236
vn 0.6893 0.7187 0.0910
vn 0.6951 0.7187 -0.0179
vn -0.8281 0.3975 -0.3954
vn -0.5729 0.7187 -0.3941
vn -0.6275 0.7187 -0.2996
vn 0.3954 0.3975 -0.8281
vn 0.2996 0.7187 -0.6275
vn -0.7282 0.3975 0.5583
vn -0.5518 0.7187 0.4231
vn 0.1668 0.3975 0.9023
vn 0.1264 0.7187 0.6837
vn 0.8281 0.3975 0.3954
vn 0.6275 0.7187 0.2996
vn -0.5583 0.3975 -0.7282
vn -0.4231 0.7187 -0.5518
vn 0.7282 0.3975 -0.5583
vn 0.5518 0.7187 -0.4231
vn -0.6837 0.7187 0.1264
vn -0.1978 0.7187 0.6666
vn -0.3954 0.3975 0.8280
vn 0.5583 0.3975 0.7282
vn 0.3315 0.7187 0.6112
vn 0.4231 0.7187 0.5518
vn -0.1668 0.3975 -0.9023
vn -0.1264 0.7187 -0.6838
vn -0.8797 0.3975 -0.2610
vn -0.6666 0.7187 -0.1978
vn 0.9023 0.3975 -0.1668
vn 0.6837 0.7187 -0.1264
vn 0.2610 0.3975 -0.8797
vn 0.1978 0.7187 -0.6666
vn -0.6319 0.3975 0.6653
vn -0.4788 0.7187 0.5042
vn 0.3059 0.3975 0.8651
vn 0.2318 0.7187 0.6555
vn 0.8797 0.3975 0.2610
vn 0.6666 0.7187 0.1977
vn -0.5042 0.7187 -0.4788
vn -0.8651 0.3975 0.3059
vn -0.2610 0.3975 0.8797
vn 0.6653 0.3975 0.6319
vn -0.3059 0.3975 -0.8651
vn 0.8651 0.3974 -0.3060
vn 0.1201 0.3975 -0.9097
vn -0.7560 0.3975 -0.5200
vn 0.4375 0.3975 0.8066
vn -0.6653 0.3975 -0.6319
vn 0.9097 0.3975 0.1202
vn 0.5201 0.3975 -0.7560
vn 0.0236 0.3975 0.9173
vn 0.2507 0.6593 0.7089
vn -0.7517 0.6593 0.0194
vn -0.6195 0.6593 -0.4261
vn 0.7209 0.6593 0.2138
vn -0.0194 0.6593 -0.7517
vn 0.3585 0.6593 0.6609
vn -0.6610 0.6593 0.3585
vn 0.7394 0.6593 -0.1367
vn -0.7209 0.6592 -0.2139
vn -0.8997 0.3455 -0.2669
vn -0.2507 0.6593 -0.7089
vn -0.5178 0.6593 0.5452
vn 0.6195 0.6593 0.4261
vn 0.7089 0.6593 -0.2507
vn -0.7455 0.6592 -0.0985
vn -0.3240 0.6593 0.6785
vn -0.7089 0.6593 0.2507
vn 0.5967 0.6593 -0.4575
vn 0.7454 0.6593 0.0984
vn -0.0985 0.6593 0.7454
vn 0.3240 0.6593 -0.6785
vn -0.5967 0.6593 0.4575
vn 0.1367 0.6593 0.7394
vn -0.4262 0.6592 0.6195
vn -0.5452 0.6592 -0.5178
vn 0.0985 0.6593 -0.7454
vn 0.6610 0.6592 -0.3585
vn -0.2139 0.6593 0.7209
vn -0.6785 0.6593 -0.3240
vn -0.1367 0.6593 -0.7394
vn 0.5178 0.6593 -0.5452
vn 0.4575 0.6593 0.5967
vn 0.6785 0.6593 0.3240
vn -0.4575 0.6593 -0.5967
vn 0.2139 0.6593 -0.7209
vn -0.6130 0.7689 -0.1818
vn 0.4636 0.7689 0.4403
vn -0.2132 0.7689 -0.6028
vn 0.3624 0.7689 -0.5268
vn -0.0837 0.7689 0.6339
vn 0.6130 0.7689 0.1819
vn -0.6028 0.7689 0.2132
vn 0.2132 0.7689 0.6028
vn -0.3891 0.7688 -0.5075
vn 0.0837 0.7689 -0.6339
vn 0.6028 0.7689 -0.2132
vn -0.5074 0.7689 0.3891
vn 0.4403 0.7689 -0.4636
vn -0.1819 0.7689 0.6130
vn -0.6287 0.7689 0.1163
vn 0.0165 0.7688 0.6392
vn 0.2755 0.7689 -0.5770
vn 0.6392 0.7689 -0.0165
vn 0.3890 0.7689 0.5074
vn -0.5770 0.7689 -0.2755
vn -0.1163 0.7689 -0.6287
vn 0.5074 0.7689 -0.3890
vn -0.2755 0.7688 0.5770
vn 0.5770 0.7689 0.2755
vn -0.6392 0.7688 0.0165
vn -0.5621 0.7688 0.3049
vn 0.6339 0.7689 0.0837
vn -0.5268 0.7689 -0.3624
vn 0.5621 0.7689 -0.3049
vn -0.3624 0.7689 0.5268
vn -0.7394 0.6592 0.1367
vn 0.7517 0.6593 -0.0194
vn 0.5452 0.6593 0.5178
vn 0.4261 0.6593 -0.6195
vn 0.0194 0.6593 0.7517
vn -0.3585 0.6593 -0.6609
vn -0.6339 0.7688 -0.0837
vn 0.5268 0.7689 0.3624
vn -0.3049 0.7688 -0.5621
vn 0.1163 0.7689 0.6287
vn -0.4636 0.7689 -0.4403
vn 0.1819 0.7689 -0.6130
vn 0.6288 0.7688 -0.1163
vn -0.4403 0.7689 0.4636
vn 0.3049 0.7689 0.5621
vn -0.0165 0.7688 -0.6392
s 1
f 1//1 2//2 3//3
f 4//4 5//5 6//6
f 7//7 8//8 9//9
f 10//10 11//11 12//12
f 2//2 13//13 14//14
f 15//15 16//16 17//17
f 18//18 19//19 5//5
f 20//20 21//21 11//11
f 22//22 23//23 8//8
f 13//13 24//24 14//14
f 25//25 12//12 26//26
f 27//27 28//28 16//16
f 29//29 30//30 19//19
f 31//31 32//32 21//21
f 33//33 34//34 23//23
f 35//35 36//36 24//24
f 37//37 38//38 30//30
f 39//39 40//40 28//28
f 41//41 42//42 34//34
f 43//43 44//44 32//32
f 45//45 46//46 36//36
f 47//47 48//48 40//40
f 49//49 50//50 38//38
f 51//51 52//52 44//44
f 53//53 54//54 42//42
f 55//55 26//26 46//46
f 56//56 57//57 48//48
f 58//58 59//59 50//50
f 60//60 61//61 52//52
f 62//62 63//63 54//54
f 64//64 65//65 59//59
f 66//66 67//67 57//57
f 68//68 69//69 61//61
f 70//70 71//71 63//63
f 72//72 73//73 67//67
f 74//74 3//3 65//65
f 75//75 76//76 69//69
f 77//77 6//6 71//71
f 78//78 9//9 73//73
f 79//79 17//17 76//76
f 80//80 81//80 82//80
f 83//81 84//82 85//83
f 86//84 87//84 88//84
f 89//84 86//84 88//84
f 90//84 91//84 92//84
f 93//84 94//84 95//84
f 96//84 97//84 98//84
f 99//84 100//84 101//84
f 102//84 103//84 104//84
f 105//84 106//84 107//84
f 108//84 109//84 110//84
f 111//84 112//84 113//84
f 114//84 115//84 116//84
f 117//84 118//84 119//84
f 120//84 121//84 122//84
f 123//84 124//84 125//84
f 126//84 127//84 128//84
f 129//84 99//84 101//84
f 91//84 108//84 110//84
f 130//84 131//84 132//84
f 100//84 113//84 112//84
f 133//84 134//84 135//84
f 136//84 122//84 109//84
f 137//84 138//84 139//84
f 140//84 141//84 111//84
f 142//84 98//84 143//84
f 121//84 127//84 144//84
f 145//84 146//84 102//84
f 147//84 107//84 94//84
f 148//84 149//84 150//84
f 104//84 151//84 114//84
f 132//84 137//84 139//84
f 152//84 119//84 106//84
f 153//84 154//84 134//84
f 155//85 156//86 157//87
f 158//88 159//89 160//90
f 161//91 162//92 163//93
f 164//94 165//95 166//96
f 167//97 168//98 169//99
f 170//100 171//101 172//102
f 173//103 174//104 175//105
f 176//106 177//107 178//108
f 179//109 180//110 181//111
f 182//112 183//113 184//114
f 185//115 186//116 187//117
f 188//118 189//119 190//120
f 191//121 160//90 192//122
f 193//123 85//83 194//124
f 195//125 163//93 196//126
f 197//127 166//96 198//128
f 199//129 169//99 200//130
f 201//131 172//102 202//132
f 203//133 175//105 204//134
f 205//135 181//111 206//136
f 207//137 178//108 208//138
f 209//139 184//114 210//140
f 211//141 190//120 212//142
f 213//143 187//117 214//144
f 215//145 194//124 216//146
f 217//147 192//122 218//148
f 219//149 196//126 220//150
f 221//151 198//128 222//152
f 223//153 202//132 84//82
f 224//154 204//134 159//89
f 225//155 208//138 162//92
f 226//156 206//136 165//95
f 227//157 210//140 168//98
f 228//158 212//142 171//101
f 229//159 214//144 174//104
f 230//160 218//148 180//110
f 231//161 216//146 177//107
f 232//162 222//152 183//113
f 233//163 200//130 189//119
f 234//164 220//150 186//116
f 235//83 236//165 237//166
f 238//167 239//168 240//169
f 241//170 242//171 243//172
f 244//173 245//174 246//175
f 247//176 248//177 249//178
f 250//179 251//180 252//181
f 253//182 254//183 255//184
f 256//185 257//186 258//187
f 259//188 260//189 261//190
f 262//191 263//192 264//193
f 265//194 266//195 267//196
f 268//197 155//85 269//198
f 270//199 240//169 271//200
f 272//201 241//170 273//202
f 274//203 246//175 275//204
f 276//205 249//178 277//206
f 278//207 255//184 279//208
f 237//166 250//179 280//209
f 281//210 282//211 256//185
f 283//212 284//213 285//214
f 286//215 261//190 287//216
f 288//217 267//196 289//218
f 290//219 264//193 291//220
f 292//221 269//198 293//222
f 294//223 271//200 295//224
f 296//225 273//202 297//226
f 298//227 275//204 299//228
f 300//229 276//205 277//206
f 157//87 278//207 279//208
f 301//230 280//209 239//168
f 243//172 302//231 281//210
f 303//232 285//214 245//174
f 304//233 287//216 248//177
f 305//234 291//220 254//183
f 251//180 289//218 252//181
f 306//235 293//222 260//189
f 258//187 294//223 295//224
f 284//213 296//225 297//226
f 307//236 300//229 266//195
f 263//192 298//227 299//228
f 308//84 309//84 310//84
f 311//95 253//182 278//207
f 312//93 282//211 302//231
f 313//104 314//237 283//212
f 315//98 259//188 286//215
f 316//110 262//191 290//219
f 317//102 265//194 288//217
f 318//113 268//197 292//221
f 319//108 270//199 294//223
f 320//117 272//201 296//225
f 321//90 274//203 298//227
f 322//120 276//205 323//238
f 324//96 278//207 156//86
f 325//124 237//166 301//230
f 326//126 302//231 242//171
f 327//105 283//212 303//232
f 328//99 286//215 304//233
f 329//132 288//217 251//180
f 330//111 290//219 305//234
f 331//114 292//221 306//235
f 332//138 294//223 257//186
f 333//144 296//225 314//237
f 334//122 298//227 335//239
f 336//142 323//238 307//236
f 337//128 156//86 338//240
f 339//146 301//230 238//167
f 340//150 242//171 341//241
f 342//134 303//232 244//173
f 343//130 304//233 247//176
f 344//136 305//234 253//182
f 345//82 251//180 236//165
f 346//140 306//235 259//188
f 347//92 257//186 282//211
f 348//101 307//236 265//194
f 349//148 335//239 262//191
f 350//152 338//240 268//197
f 351//107 238//167 270//199
f 352//116 341//241 272//201
f 353//89 244//173 274//203
f 354//119 247//176 276//205
f 355//242 53//53 41//41
f 64//64 356//243 74//74
f 357//244 45//45 35//35
f 56//56 358//245 66//66
f 359//246 43//43 31//31
f 22//22 360//247 33//33
f 361//248 58//58 49//49
f 362//249 47//47 39//39
f 363//250 13//13 364//251
f 365//252 20//20 10//10
f 366//253 37//37 29//29
f 367//254 7//7 78//78
f 15//15 368//255 27//27
f 74//74 369//256 1//1
f 358//245 72//72 66//66
f 370//257 18//18 4//4
f 371//258 64//64 58//58
f 75//75 372//259 79//79
f 47//47 373//260 56//56
f 374//261 77//77 70//70
f 375//262 68//68 60//60
f 376//263 49//49 37//37
f 377//264 62//62 53//53
f 368//255 39//39 27//27
f 378//265 29//29 18//18
f 379//266 55//55 45//45
f 380//267 51//51 43//43
f 79//79 381//268 15//15
f 360//247 41//41 33//33
f 382//269 4//4 77//77
f 383//270 35//35 13//13
f 384//271 31//31 20//20
f 68//68 385//272 75//75
f 7//7 386//273 22//22
f 1//1 363//250 364//251
f 62//62 374//261 70//70
f 25//25 365//252 10//10
f 387//274 78//78 72//72
f 388//275 25//25 55//55
f 389//276 60//60 51//51
f 201//131 390//277 170//100
f 203//133 391//278 173//103
f 199//129 392//279 167//97
f 393//280 164//94 197//127
f 394//281 161//91 195//125
f 191//121 395//282 158//88
f 396//283 83//81 193//123
f 397//284 234//164 185//115
f 188//118 398//285 233//163
f 399//286 232//162 182//112
f 400//287 230//160 179//109
f 176//106 401//288 231//161
f 391//278 229//159 173//103
f 390//277 228//158 170//100
f 392//279 227//157 167//97
f 402//289 226//156 164//94
f 403//290 225//155 161//91
f 404//291 223//153 83//81
f 395//282 224//154 158//88
f 234//164 405//292 219//149
f 398//285 199//129 233//163
f 232//162 406//293 221//151
f 230//160 407//294 217//147
f 401//288 215//145 231//161
f 408//295 213//143 229//159
f 409//296 211//141 228//158
f 410//297 209//139 227//157
f 411//298 205//135 226//156
f 412//299 207//137 225//155
f 413//300 203//133 224//154
f 414//301 201//131 223//153
f 405//292 195//125 219//149
f 406//293 197//127 221//151
f 415//302 193//123 215//145
f 217//147 416//303 191//121
f 213//143 397//284 185//115
f 417//304 188//118 211//141
f 209//139 399//286 182//112
f 418//305 179//109 205//135
f 419//306 176//106 207//137
f 420//84 421//84 422//84
f 423//84 424//84 425//84
f 426//84 427//84 428//84
f 429//84 430//84 431//84
f 432//84 433//84 434//84
f 435//84 436//84 437//84
f 438//84 439//84 440//84
f 441//84 442//84 443//84
f 444//84 445//84 446//84
f 447//84 448//84 449//84
f 450//84 451//84 452//84
f 453//84 454//84 455//84
f 424//84 456//84 457//84
f 421//84 458//84 459//84
f 427//84 460//84 428//84
f 431//84 461//84 462//84
f 463//84 464//84 433//84
f 465//84 466//84 439//84
f 437//84 467//84 468//84
f 469//84 470//84 442//84
f 471//84 426//84 445//84
f 448//84 472//84 473//84
f 451//84 474//84 452//84
f 475//84 476//84 454//84
f 456//84 477//84 457//84
f 458//84 478//84 459//84
f 479//84 480//84 460//84
f 462//84 481//84 482//84
f 483//84 484//84 464//84
f 468//84 423//84 425//84
f 485//84 422//84 466//84
f 470//84 432//84 434//84
f 473//84 486//84 429//84
f 476//84 438//84 440//84
f 474//84 487//84 435//84
f 477//84 441//84 443//84
f 488//84 446//84 478//84
f 489//84 449//84 480//84
f 481//84 450//84 482//84
f 490//84 455//84 484//84
f 135//84 128//84 133//84
f 125//84 491//84 130//84
f 492//84 95//84 154//84
f 493//84 92//84 494//84
f 148//84 495//84 496//84
f 138//84 142//84 143//84
f 116//84 497//84 129//84
f 495//84 494//84 496//84
f 1//1 364//251 2//2
f 4//4 18//18 5//5
f 7//7 22//22 8//8
f 10//10 20//20 11//11
f 2//2 364//251 13//13
f 15//15 27//27 16//16
f 18//18 29//29 19//19
f 20//20 31//31 21//21
f 22//22 33//33 23//23
f 13//13 35//35 24//24
f 25//25 10//10 12//12
f 27//27 39//39 28//28
f 29//29 37//37 30//30
f 31//31 43//43 32//32
f 33//33 41//41 34//34
f 35//35 45//45 36//36
f 37//37 49//49 38//38
f 39//39 47//47 40//40
f 41//41 53//53 42//42
f 43//43 51//51 44//44
f 45//45 55//55 46//46
f 47//47 56//56 48//48
f 49//49 58//58 50//50
f 51//51 60//60 52//52
f 53//53 62//62 54//54
f 55//55 25//25 26//26
f 56//56 66//66 57//57
f 58//58 64//64 59//59
f 60//60 68//68 61//61
f 62//62 70//70 63//63
f 64//64 74//74 65//65
f 66//66 72//72 67//67
f 68//68 75//75 69//69
f 70//70 77//77 71//71
f 72//72 78//78 73//73
f 74//74 1//1 3//3
f 75//75 79//79 76//76
f 77//77 4//4 6//6
f 78//78 7//7 9//9
f 79//79 15//15 17//17
f 82//80 498//80 499//80
f 499//80 500//80 501//80
f 501//80 502//80 503//80
f 503//80 504//80 505//80
f 505//80 506//80 507//80
f 507//80 508//80 509//80
f 509//80 510//80 511//80
f 511//80 512//80 513//80
f 513//80 514//80 515//80
f 514//80 516//80 515//80
f 516//80 517//80 515//80
f 515//80 518//80 519//80
f 519//80 520//80 80//80
f 80//80 521//80 522//80
f 521//80 523//80 522//80
f 523//80 524//80 522//80
f 522//80 525//80 526//80
f 526//80 527//80 81//80
f 81//80 528//80 529//80
f 528//80 530//80 529//80
f 530//80 531//80 529//80
f 529//80 532//80 533//80
f 533//80 534//80 82//80
f 82//80 499//80 501//80
f 501//80 503//80 82//80
f 503//80 505//80 82//80
f 505//80 507//80 513//80
f 507//80 509//80 513//80
f 509//80 511//80 513//80
f 515//80 519//80 80//80
f 522//80 526//80 80//80
f 526//80 81//80 80//80
f 529//80 533//80 81//80
f 533//80 82//80 81//80
f 513//80 515//80 80//80
f 82//80 505//80 513//80
f 513//80 80//80 82//80
f 83//81 223//153 84//82
f 86//84 118//84 87//84
f 89//84 145//84 86//84
f 90//84 535//84 91//84
f 93//84 147//84 94//84
f 96//84 149//84 97//84
f 99//84 536//84 100//84
f 102//84 146//84 103//84
f 105//84 152//84 106//84
f 108//84 136//84 109//84
f 111//84 141//84 112//84
f 114//84 151//84 115//84
f 117//84 87//84 118//84
f 120//84 537//84 121//84
f 123//84 140//84 124//84
f 126//84 144//84 127//84
f 129//84 497//84 99//84
f 91//84 535//84 108//84
f 130//84 491//84 131//84
f 100//84 536//84 113//84
f 133//84 153//84 134//84
f 136//84 120//84 122//84
f 137//84 538//84 138//84
f 140//84 123//84 141//84
f 142//84 96//84 98//84
f 121//84 537//84 127//84
f 145//84 89//84 146//84
f 147//84 105//84 107//84
f 148//84 97//84 149//84
f 104//84 103//84 151//84
f 132//84 131//84 137//84
f 152//84 117//84 119//84
f 153//84 492//84 154//84
f 155//85 338//240 156//86
f 158//88 224//154 159//89
f 161//91 225//155 162//92
f 164//94 226//156 165//95
f 167//97 227//157 168//98
f 170//100 228//158 171//101
f 173//103 229//159 174//104
f 176//106 231//161 177//107
f 179//109 230//160 180//110
f 182//112 232//162 183//113
f 185//115 234//164 186//116
f 188//118 233//163 189//119
f 191//121 158//88 160//90
f 193//123 83//81 85//83
f 195//125 161//91 163//93
f 197//127 164//94 166//96
f 199//129 167//97 169//99
f 201//131 170//100 172//102
f 203//133 173//103 175//105
f 205//135 179//109 181//111
f 207//137 176//106 178//108
f 209//139 182//112 184//114
f 211//141 188//118 190//120
f 213//143 185//115 187//117
f 215//145 193//123 194//124
f 217//147 191//121 192//122
f 219//149 195//125 196//126
f 221//151 197//127 198//128
f 223//153 201//131 202//132
f 224//154 203//133 204//134
f 225//155 207//137 208//138
f 226//156 205//135 206//136
f 227//157 209//139 210//140
f 228//158 211//141 212//142
f 229//159 213//143 214//144
f 230//160 217//147 218//148
f 231//161 215//145 216//146
f 232//162 221//151 222//152
f 233//163 199//129 200//130
f 234//164 219//149 220//150
f 235//83 345//82 236//165
f 238//167 301//230 239//168
f 241//170 341//241 242//171
f 244//173 303//232 245//174
f 247//176 304//233 248//177
f 250//179 236//165 251//180
f 253//182 305//234 254//183
f 256//185 282//211 257//186
f 259//188 306//235 260//189
f 262//191 335//239 263//192
f 265//194 307//236 266//195
f 268//197 338//240 155//85
f 270//199 238//167 240//169
f 272//201 341//241 241//170
f 274//203 244//173 246//175
f 276//205 247//176 249//178
f 278//207 253//182 255//184
f 237//166 236//165 250//179
f 281//210 302//231 282//211
f 283//212 314//237 284//213
f 286//215 259//188 261//190
f 288//217 265//194 267//196
f 290//219 262//191 264//193
f 292//221 268//197 269//198
f 294//223 270//199 271//200
f 296//225 272//201 273//202
f 298//227 274//203 275//204
f 300//229 323//238 276//205
f 157//87 156//86 278//207
f 301//230 237//166 280//209
f 243//172 242//171 302//231
f 303//232 283//212 285//214
f 304//233 286//215 287//216
f 305//234 290//219 291//220
f 251//180 288//217 289//218
f 306//235 292//221 293//222
f 258//187 257//186 294//223
f 284//213 314//237 296//225
f 307//236 323//238 300//229
f 263//192 335//239 298//227
f 308//84 539//84 540//84
f 540//84 541//84 542//84
f 542//84 543//84 544//84
f 544//84 545//84 542//84
f 545//84 309//84 542//84
f 309//84 546//84 547//84
f 547//84 548//84 309//84
f 548//84 549//84 309//84
f 549//84 550//84 551//84
f 551//84 552//84 310//84
f 310//84 553//84 554//84
f 554//84 555//84 556//84
f 556//84 557//84 558//84
f 558//84 559//84 556//84
f 559//84 560//84 556//84
f 560//84 561//84 562//84
f 562//84 563//84 564//84
f 564//84 565//84 566//84
f 566//84 567//84 568//84
f 568//84 569//84 570//84
f 569//84 571//84 570//84
f 571//84 572//84 570//84
f 570//84 573//84 574//84
f 574//84 575//84 308//84
f 308//84 540//84 309//84
f 540//84 542//84 309//84
f 549//84 551//84 310//84
f 310//84 554//84 556//84
f 560//84 562//84 564//84
f 564//84 566//84 568//84
f 570//84 574//84 308//84
f 309//84 549//84 310//84
f 310//84 556//84 560//84
f 560//84 564//84 310//84
f 564//84 568//84 310//84
f 568//84 570//84 310//84
f 570//84 308//84 310//84
f 311//95 344//136 253//182
f 312//93 347//92 282//211
f 313//104 333//144 314//237
f 315//98 346//140 259//188
f 316//110 349//148 262//191
f 317//102 348//101 265//194
f 318//113 350//152 268//197
f 319//108 351//107 270//199
f 320//117 352//116 272//201
f 321//90 353//89 274//203
f 322//120 354//119 276//205
f 324//96 311//95 278//207
f 325//124 235//83 237//166
f 326//126 312//93 302//231
f 327//105 313//104 283//212
f 328//99 315//98 286//215
f 329//132 317//102 288//217
f 330//111 316//110 290//219
f 331//114 318//113 292//221
f 332//138 319//108 294//223
f 333//144 320//117 296//225
f 334//122 321//90 298//227
f 336//142 322//120 323//238
f 337//128 324//96 156//86
f 339//146 325//124 301//230
f 340//150 326//126 242//171
f 342//134 327//105 303//232
f 343//130 328//99 304//233
f 344//136 330//111 305//234
f 345//82 329//132 251//180
f 346//140 331//114 306//235
f 347//92 332//138 257//186
f 348//101 336//142 307//236
f 349//148 334//122 335//239
f 350//152 337//128 338//240
f 351//107 339//146 238//167
f 352//116 340//150 341//241
f 353//89 342//134 244//173
f 354//119 343//130 247//176
f 355//242 377//264 53//53
f 64//64 576//307 356//243
f 357//244 379//266 45//45
f 56//56 373//260 358//245
f 359//246 380//267 43//43
f 22//22 386//273 360//247
f 361//248 371//258 58//58
f 362//249 577//308 47//47
f 363//250 383//270 13//13
f 365//252 384//271 20//20
f 366//253 376//263 37//37
f 367//254 578//309 7//7
f 15//15 381//268 368//255
f 74//74 356//243 369//256
f 358//245 387//274 72//72
f 370//257 378//265 18//18
f 371//258 576//307 64//64
f 75//75 385//272 372//259
f 47//47 577//308 373//260
f 374//261 382//269 77//77
f 375//262 579//310 68//68
f 376//263 361//248 49//49
f 377//264 580//311 62//62
f 368//255 362//249 39//39
f 378//265 366//253 29//29
f 379//266 388//275 55//55
f 380//267 389//276 51//51
f 79//79 372//259 381//268
f 360//247 355//242 41//41
f 382//269 370//257 4//4
f 383//270 357//244 35//35
f 384//271 359//246 31//31
f 68//68 579//310 385//272
f 7//7 578//309 386//273
f 1//1 369//256 363//250
f 62//62 580//311 374//261
f 25//25 581//312 365//252
f 387//274 367//254 78//78
f 388//275 581//312 25//25
f 389//276 375//262 60//60
f 201//131 582//313 390//277
f 203//133 583//314 391//278
f 199//129 584//315 392//279
f 393//280 402//289 164//94
f 394//281 403//290 161//91
f 191//121 416//303 395//282
f 396//283 404//291 83//81
f 397//284 585//316 234//164
f 188//118 586//317 398//285
f 399//286 587//318 232//162
f 400//287 588//319 230//160
f 176//106 589//320 401//288
f 391//278 408//295 229//159
f 390//277 409//296 228//158
f 392//279 410//297 227//157
f 402//289 411//298 226//156
f 403//290 412//299 225//155
f 404//291 414//301 223//153
f 395//282 413//300 224//154
f 234//164 585//316 405//292
f 398//285 584//315 199//129
f 232//162 587//318 406//293
f 230//160 588//319 407//294
f 401//288 415//302 215//145
f 408//295 590//321 213//143
f 409//296 417//304 211//141
f 410//297 591//322 209//139
f 411//298 418//305 205//135
f 412//299 419//306 207//137
f 413//300 583//314 203//133
f 414//301 582//313 201//131
f 405//292 394//281 195//125
f 406//293 393//280 197//127
f 415//302 396//283 193//123
f 217//147 407//294 416//303
f 213//143 590//321 397//284
f 417//304 586//317 188//118
f 209//139 591//322 399//286
f 418//305 400//287 179//109
f 419//306 589//320 176//106
f 420//84 592//84 421//84
f 423//84 593//84 424//84
f 426//84 594//84 427//84
f 429//84 486//84 430//84
f 432//84 463//84 433//84
f 435//84 487//84 436//84
f 438//84 465//84 439//84
f 441//84 469//84 442//84
f 444//84 471//84 445//84
f 447//84 595//84 448//84
f 450//84 596//84 451//84
f 453//84 475//84 454//84
f 424//84 593//84 456//84
f 421//84 592//84 458//84
f 427//84 479//84 460//84
f 431//84 430//84 461//84
f 463//84 483//84 464//84
f 465//84 485//84 466//84
f 437//84 436//84 467//84
f 469//84 597//84 470//84
f 471//84 594//84 426//84
f 448//84 595//84 472//84
f 451//84 598//84 474//84
f 475//84 599//84 476//84
f 456//84 600//84 477//84
f 458//84 488//84 478//84
f 479//84 489//84 480//84
f 462//84 461//84 481//84
f 483//84 490//84 484//84
f 468//84 467//84 423//84
f 485//84 420//84 422//84
f 470//84 597//84 432//84
f 473//84 472//84 486//84
f 476//84 599//84 438//84
f 474//84 598//84 487//84
f 477//84 600//84 441//84
f 488//84 444//84 446//84
f 489//84 447//84 449//84
f 481//84 596//84 450//84
f 490//84 453//84 455//84
f 135//84 126//84 128//84
f 125//84 124//84 491//84
f 492//84 93//84 95//84
f 493//84 90//84 92//84
f 148//84 150//84 495//84
f 138//84 538//84 142//84
f 116//84 115//84 497//84
f 495//84 493//84 494//84
