# Blender v2.82 (sub 7) OBJ File: 'table_scene3.blend'
# www.blender.org
o Macbeth_22_neutral5_Cube.028
v 0.065606 0.030128 0.536736
v 0.065606 0.030450 0.537075
v 0.065606 0.063973 0.504550
v 0.065606 0.064295 0.504888
v 0.112312 0.030128 0.536736
v 0.112312 0.030450 0.537075
v 0.112312 0.063973 0.504550
v 0.112312 0.064295 0.504888
vt 0.625000 0.000000
vt 0.375000 0.250000
vt 0.375000 0.000000
vt 0.625000 0.250000
vt 0.375000 0.500000
vt 0.625000 0.500000
vt 0.375000 0.750000
vt 0.625000 0.750000
vt 0.375000 1.000000
vt 0.125000 0.750000
vt 0.125000 0.500000
vt 0.875000 0.500000
vt 0.625000 1.000000
vt 0.875000 0.750000
vn -1.0000 0.0000 0.0000
vn 0.0000 0.7246 -0.6892
vn 1.0000 0.0000 0.0000
vn 0.0000 -0.7246 0.6891
vn 0.0000 -0.6891 -0.7246
vn 0.0000 0.6891 0.7246
vn 0.0000 0.7246 -0.6891
s off
f 2/1/1 3/2/1 1/3/1
f 4/4/2 7/5/2 3/2/2
f 8/6/3 5/7/3 7/5/3
f 6/8/4 1/9/4 5/7/4
f 7/5/5 1/10/5 3/11/5
f 4/12/6 6/8/6 8/6/6
f 2/1/1 4/4/1 3/2/1
f 4/4/7 8/6/7 7/5/7
f 8/6/3 6/8/3 5/7/3
f 6/8/4 2/13/4 1/9/4
f 7/5/5 5/7/5 1/10/5
f 4/12/6 2/14/6 6/8/6
