# Blender v2.82 (sub 7) OBJ File: 'table_scene3.blend'
# www.blender.org
o SwordHandle_SwordHandle_Círculo
v -0.382504 0.158898 0.061456
v -0.382384 0.158219 0.061444
v -0.382493 0.158246 0.061317
v -0.383041 0.158478 0.062872
v -0.383168 0.157841 0.062644
v -0.382999 0.157850 0.062652
v -0.383871 0.158746 0.061665
v -0.383693 0.158146 0.061376
v -0.383783 0.158103 0.061514
v -0.382305 0.158834 0.061746
v -0.382258 0.158146 0.061748
v -0.382305 0.158186 0.061590
v -0.383394 0.158468 0.062818
v -0.383485 0.157850 0.062526
v -0.383333 0.157841 0.062601
v -0.383652 0.158834 0.061397
v -0.383435 0.158219 0.061172
v -0.383575 0.158186 0.061261
v -0.383697 0.158498 0.062629
v -0.383727 0.157896 0.062296
v -0.383618 0.157869 0.062423
v -0.382243 0.158746 0.062087
v -0.382270 0.158058 0.062073
v -0.382247 0.158103 0.061912
v -0.383336 0.158898 0.061240
v -0.383112 0.158265 0.061088
v -0.383278 0.158246 0.061113
v -0.383896 0.158562 0.062340
v -0.383853 0.157969 0.061992
v -0.383806 0.157930 0.062150
v -0.382328 0.158012 0.062226
v -0.382424 0.158604 0.062566
v -0.382418 0.157969 0.062364
v -0.382981 0.158928 0.061223
v -0.382778 0.158274 0.061139
v -0.382943 0.158274 0.061096
v -0.383958 0.158650 0.061998
v -0.383841 0.158058 0.061666
v -0.383864 0.158012 0.061828
v -0.382549 0.158562 0.062689
v -0.382676 0.157896 0.062568
v -0.382535 0.157930 0.062479
v -0.382645 0.158918 0.061347
v -0.382626 0.158265 0.061213
v -0.382864 0.158498 0.062845
v -0.382833 0.157869 0.062627
v -0.383933 0.158698 0.061827
v -0.382389 0.158870 0.061591
v -0.383220 0.158468 0.062863
v -0.383776 0.158792 0.061519
v -0.382255 0.158792 0.061914
v -0.383555 0.158478 0.062739
v -0.383503 0.158870 0.061302
v -0.383812 0.158526 0.062494
v -0.382268 0.158698 0.062259
v -0.383160 0.158918 0.061213
v -0.383945 0.158604 0.062172
v -0.382698 0.158526 0.062783
v -0.382981 0.158928 0.061223
v -0.382855 0.158890 0.061395
v -0.382806 0.158928 0.061268
v -0.383817 0.158658 0.062006
v -0.383933 0.158698 0.061827
v -0.383958 0.158650 0.061998
v -0.382640 0.158585 0.062582
v -0.382698 0.158526 0.062783
v -0.382549 0.158562 0.062689
v -0.382720 0.158881 0.061461
v -0.382504 0.158898 0.061456
v -0.382645 0.158918 0.061347
v -0.382864 0.158498 0.062845
v -0.383051 0.158515 0.062736
v -0.383041 0.158478 0.062872
v -0.383796 0.158698 0.061862
v -0.383871 0.158746 0.061665
v -0.382506 0.158841 0.061666
v -0.382305 0.158834 0.061746
v -0.382389 0.158870 0.061591
v -0.383200 0.158506 0.062728
v -0.383394 0.158468 0.062818
v -0.383220 0.158468 0.062863
v -0.383665 0.158776 0.061606
v -0.383652 0.158834 0.061397
v -0.383776 0.158792 0.061519
v -0.382394 0.158776 0.061935
v -0.382243 0.158746 0.062087
v -0.382255 0.158792 0.061914
v -0.383480 0.158515 0.062624
v -0.383697 0.158498 0.062629
v -0.383555 0.158478 0.062739
v -0.383437 0.158841 0.061424
v -0.383336 0.158898 0.061240
v -0.383503 0.158870 0.061302
v -0.383695 0.158555 0.062420
v -0.383896 0.158562 0.062340
v -0.383812 0.158526 0.062494
v -0.382268 0.158698 0.062259
v -0.382456 0.158658 0.062358
v -0.382329 0.158650 0.062421
v -0.383150 0.158881 0.061350
v -0.383160 0.158918 0.061213
v -0.383945 0.158604 0.062172
v -0.382424 0.158604 0.062566
v -0.382764 0.158555 0.062661
v -0.382436 0.158811 0.061795
v -0.383598 0.158531 0.062533
v -0.382405 0.158698 0.062223
v -0.383298 0.158865 0.061373
v -0.383765 0.158585 0.062291
v -0.384849 0.174533 0.065989
v -0.383665 0.158776 0.061606
v -0.383744 0.158738 0.061727
v -0.383540 0.174606 0.066056
v -0.382394 0.158776 0.061935
v -0.382436 0.158811 0.061795
v -0.384450 0.174301 0.066952
v -0.383480 0.158515 0.062624
v -0.383346 0.158506 0.062690
v -0.384665 0.174606 0.065765
v -0.383437 0.158841 0.061424
v -0.383561 0.158811 0.061503
v -0.384703 0.174326 0.066794
v -0.383695 0.158555 0.062420
v -0.383598 0.158531 0.062533
v -0.383489 0.174533 0.066341
v -0.382405 0.158698 0.062223
v -0.382384 0.158738 0.062080
v -0.384402 0.174660 0.065634
v -0.383150 0.158881 0.061350
v -0.383298 0.158865 0.061373
v -0.384870 0.174380 0.066552
v -0.383806 0.158620 0.062151
v -0.383765 0.158585 0.062291
v -0.383561 0.174453 0.066620
v -0.382536 0.158620 0.062480
v -0.382456 0.158658 0.062358
v -0.384105 0.174685 0.065619
v -0.382855 0.158890 0.061395
v -0.383000 0.158890 0.061358
v -0.384921 0.174453 0.066267
v -0.383796 0.158698 0.061862
v -0.383817 0.158658 0.062006
v -0.383744 0.174380 0.066844
v -0.382764 0.158555 0.062661
v -0.382640 0.158585 0.062582
v -0.383825 0.174676 0.065723
v -0.382602 0.158865 0.061553
v -0.382720 0.158881 0.061461
v -0.384008 0.174326 0.066975
v -0.383051 0.158515 0.062736
v -0.382903 0.158531 0.062713
v -0.384900 0.174493 0.066124
v -0.383611 0.174636 0.065927
v -0.382506 0.158841 0.061666
v -0.384305 0.174301 0.066989
v -0.383200 0.158506 0.062728
v -0.384770 0.174571 0.065867
v -0.383499 0.174571 0.066197
v -0.384585 0.174310 0.066886
v -0.384541 0.174636 0.065686
v -0.384799 0.174350 0.066682
v -0.383510 0.174493 0.066485
v -0.384255 0.174676 0.065612
v -0.384911 0.174415 0.066412
v -0.383640 0.174415 0.066742
v -0.383960 0.174685 0.065657
v -0.383869 0.174350 0.066923
v -0.383707 0.174660 0.065814
v -0.384155 0.174310 0.066997
v -0.384271 0.174775 0.065449
v -0.384105 0.174685 0.065619
v -0.384255 0.174676 0.065612
v -0.385094 0.174447 0.066454
v -0.384921 0.174453 0.066267
v -0.384911 0.174415 0.066412
v -0.383500 0.174447 0.066867
v -0.383744 0.174380 0.066844
v -0.383640 0.174415 0.066742
v -0.383960 0.174685 0.065657
v -0.383732 0.174775 0.065589
v -0.383825 0.174676 0.065723
v -0.383869 0.174350 0.066923
v -0.383961 0.174336 0.067159
v -0.384008 0.174326 0.066975
v -0.383584 0.174755 0.065704
v -0.383611 0.174636 0.065927
v -0.383707 0.174660 0.065814
v -0.384155 0.174310 0.066997
v -0.384334 0.174305 0.067178
v -0.384305 0.174301 0.066989
v -0.385017 0.174596 0.065923
v -0.384770 0.174571 0.065867
v -0.384849 0.174533 0.065989
v -0.383375 0.174688 0.066008
v -0.383499 0.174571 0.066197
v -0.383540 0.174606 0.066056
v -0.384516 0.174305 0.067131
v -0.384585 0.174310 0.066886
v -0.384450 0.174301 0.066952
v -0.384786 0.174688 0.065642
v -0.384541 0.174636 0.065686
v -0.384665 0.174606 0.065765
v -0.384833 0.174336 0.066933
v -0.384799 0.174350 0.066682
v -0.384703 0.174326 0.066794
v -0.383310 0.174596 0.066365
v -0.383510 0.174493 0.066485
v -0.383489 0.174533 0.066341
v -0.384402 0.174660 0.065634
v -0.384870 0.174380 0.066552
v -0.383561 0.174453 0.066620
v -0.384083 0.174786 0.065459
v -0.385081 0.174545 0.066092
v -0.384900 0.174493 0.066124
v -0.383787 0.174365 0.067094
v -0.383463 0.174725 0.065845
v -0.383323 0.174644 0.066183
v -0.384456 0.174755 0.065478
v -0.384954 0.174365 0.066792
v -0.383336 0.174545 0.066545
v -0.385138 0.175365 0.066314
v -0.385017 0.174596 0.065923
v -0.385081 0.174545 0.066092
v -0.383520 0.175545 0.066066
v -0.383375 0.174688 0.066008
v -0.383463 0.174725 0.065845
v -0.384391 0.175124 0.067399
v -0.384516 0.174305 0.067131
v -0.384334 0.174305 0.067178
v -0.384974 0.175463 0.065991
v -0.384786 0.174688 0.065642
v -0.384917 0.174644 0.065770
v -0.383380 0.175463 0.066404
v -0.383310 0.174596 0.066365
v -0.383323 0.174644 0.066183
v -0.384743 0.175135 0.067269
v -0.384833 0.174336 0.066933
v -0.384685 0.174315 0.067048
v -0.384688 0.175545 0.065764
v -0.384456 0.174755 0.065478
v -0.384630 0.174725 0.065543
v -0.385011 0.175185 0.067013
v -0.385042 0.174403 0.066629
v -0.384954 0.174365 0.066792
v -0.383394 0.175365 0.066766
v -0.383401 0.174495 0.066714
v -0.383336 0.174545 0.066545
v -0.384328 0.175595 0.065671
v -0.384083 0.174786 0.065459
v -0.384271 0.174775 0.065449
v -0.385151 0.175267 0.066675
v -0.385107 0.174495 0.066272
v -0.385094 0.174447 0.066454
v -0.383558 0.175267 0.067088
v -0.383631 0.174403 0.066995
v -0.383500 0.174447 0.066867
v -0.383958 0.175606 0.065728
v -0.383732 0.174775 0.065589
v -0.383901 0.174786 0.065506
v -0.383844 0.175185 0.067315
v -0.383961 0.174336 0.067159
v -0.383787 0.174365 0.067094
v -0.383641 0.175574 0.065925
v -0.383584 0.174755 0.065704
v -0.384203 0.175135 0.067409
v -0.384146 0.174315 0.067188
v -0.385074 0.175415 0.066144
v -0.383432 0.175507 0.066229
v -0.384574 0.175124 0.067352
v -0.384844 0.175507 0.065863
v -0.384891 0.175155 0.067154
v -0.383367 0.175415 0.066586
v -0.384513 0.175574 0.065699
v -0.385100 0.175223 0.066851
v -0.383458 0.175315 0.066936
v -0.384140 0.175606 0.065680
v -0.385164 0.175315 0.066493
v -0.383688 0.175223 0.067216
v -0.383789 0.175595 0.065810
v -0.384018 0.175155 0.067380
v -0.383087 0.175182 0.066793
v -0.383922 0.174902 0.067615
v -0.385089 0.174902 0.067312
v -0.383100 0.175370 0.066843
v -0.383935 0.175089 0.067665
v -0.385102 0.175089 0.067363
v -0.385102 0.175089 0.067363
v -0.385420 0.175182 0.066188
v -0.385089 0.174902 0.067312
v -0.383935 0.175089 0.067665
v -0.385089 0.174902 0.067312
v -0.383922 0.174902 0.067615
v -0.383100 0.175370 0.066843
v -0.383922 0.174902 0.067615
v -0.383087 0.175182 0.066793
v -0.383431 0.175650 0.065719
v -0.383087 0.175182 0.066793
v -0.383418 0.175462 0.065668
v -0.384597 0.175650 0.065417
v -0.383418 0.175462 0.065668
v -0.384584 0.175462 0.065366
v -0.385433 0.175370 0.066239
v -0.384584 0.175462 0.065366
v -0.385420 0.175182 0.066188
v -0.383503 0.177330 0.067985
v -0.383100 0.175370 0.066843
v -0.382639 0.177501 0.067576
v -0.383935 0.175089 0.067665
v -0.383100 0.175370 0.066843
v -0.383503 0.177330 0.067985
v -0.383503 0.177330 0.067985
v -0.382639 0.177501 0.067576
v -0.383182 0.178477 0.067717
v -0.383911 0.177074 0.068828
v -0.383503 0.177330 0.067985
v -0.384114 0.178164 0.068634
v -0.383195 0.177672 0.066799
v -0.383143 0.177928 0.065864
v -0.383551 0.178790 0.066462
v -0.382639 0.177501 0.067576
v -0.383195 0.177672 0.066799
v -0.383182 0.178477 0.067717
v -0.384108 0.177842 0.065930
v -0.384919 0.177928 0.065403
v -0.384853 0.178790 0.066124
v -0.383143 0.177928 0.065864
v -0.384108 0.177842 0.065930
v -0.383551 0.178790 0.066462
v -0.385328 0.177672 0.066247
v -0.386192 0.177501 0.066655
v -0.385786 0.178477 0.067042
v -0.384919 0.177928 0.065403
v -0.385328 0.177672 0.066247
v -0.384853 0.178790 0.066124
v -0.385635 0.177330 0.067433
v -0.385688 0.177074 0.068368
v -0.385416 0.178164 0.068297
v -0.386192 0.177501 0.066655
v -0.385635 0.177330 0.067433
v -0.385786 0.178477 0.067042
v -0.383503 0.177330 0.067985
v -0.383911 0.177074 0.068828
v -0.383935 0.175089 0.067665
v -0.385688 0.177074 0.068368
v -0.384723 0.177159 0.068302
v -0.385416 0.178164 0.068297
v -0.384723 0.177159 0.068302
v -0.383911 0.177074 0.068828
v -0.384114 0.178164 0.068634
v -0.383195 0.177672 0.066799
v -0.382639 0.177501 0.067576
v -0.383100 0.175370 0.066843
v -0.383100 0.175370 0.066843
v -0.383431 0.175650 0.065719
v -0.383195 0.177672 0.066799
v -0.383195 0.177672 0.066799
v -0.383431 0.175650 0.065719
v -0.383143 0.177928 0.065864
v -0.384108 0.177842 0.065930
v -0.383143 0.177928 0.065864
v -0.383431 0.175650 0.065719
v -0.383431 0.175650 0.065719
v -0.384597 0.175650 0.065417
v -0.384108 0.177842 0.065930
v -0.384108 0.177842 0.065930
v -0.384597 0.175650 0.065417
v -0.384919 0.177928 0.065403
v -0.385328 0.177672 0.066247
v -0.384919 0.177928 0.065403
v -0.384597 0.175650 0.065417
v -0.384597 0.175650 0.065417
v -0.385433 0.175370 0.066239
v -0.385328 0.177672 0.066247
v -0.385328 0.177672 0.066247
v -0.385433 0.175370 0.066239
v -0.386192 0.177501 0.066655
v -0.385635 0.177330 0.067433
v -0.386192 0.177501 0.066655
v -0.385433 0.175370 0.066239
v -0.385102 0.175089 0.067363
v -0.385635 0.177330 0.067433
v -0.385433 0.175370 0.066239
v -0.385635 0.177330 0.067433
v -0.385102 0.175089 0.067363
v -0.385688 0.177074 0.068368
v -0.384723 0.177159 0.068302
v -0.385688 0.177074 0.068368
v -0.385102 0.175089 0.067363
v -0.383911 0.177074 0.068828
v -0.384723 0.177159 0.068302
v -0.383935 0.175089 0.067665
v -0.385102 0.175089 0.067363
v -0.383935 0.175089 0.067665
v -0.384723 0.177159 0.068302
v -0.383503 0.177330 0.067985
v -0.383182 0.178477 0.067717
v -0.384114 0.178164 0.068634
v -0.383195 0.177672 0.066799
v -0.383551 0.178790 0.066462
v -0.383182 0.178477 0.067717
v -0.384108 0.177842 0.065930
v -0.384853 0.178790 0.066124
v -0.383551 0.178790 0.066462
v -0.385328 0.177672 0.066247
v -0.385786 0.178477 0.067042
v -0.384853 0.178790 0.066124
v -0.385635 0.177330 0.067433
v -0.385416 0.178164 0.068297
v -0.385786 0.178477 0.067042
v -0.384723 0.177159 0.068302
v -0.384114 0.178164 0.068634
v -0.385416 0.178164 0.068297
v -0.384954 0.180445 0.068260
v -0.384500 0.180445 0.068377
v -0.384175 0.180554 0.068057
v -0.384696 0.181512 0.068198
v -0.384304 0.180663 0.067620
v -0.384758 0.180663 0.067502
v -0.384696 0.181512 0.068198
v -0.384758 0.180663 0.067502
v -0.385083 0.180554 0.067822
v -0.384696 0.181512 0.068198
v -0.384500 0.180445 0.068377
v -0.384696 0.181512 0.068198
v -0.385083 0.180554 0.067822
v -0.384954 0.180445 0.068260
v -0.384696 0.181512 0.068198
v -0.384175 0.180554 0.068057
v -0.384304 0.180663 0.067620
v -0.384696 0.181512 0.068198
v -0.382329 0.158650 0.062421
v -0.382806 0.158928 0.061268
v -0.383000 0.158890 0.061358
v -0.382602 0.158865 0.061553
v -0.382903 0.158531 0.062713
v -0.383744 0.158738 0.061727
v -0.383346 0.158506 0.062690
v -0.383561 0.158811 0.061503
v -0.382384 0.158738 0.062080
v -0.383806 0.158620 0.062151
v -0.382536 0.158620 0.062480
v -0.385107 0.174495 0.066272
v -0.383631 0.174403 0.066995
v -0.383901 0.174786 0.065506
v -0.384146 0.174315 0.067188
v -0.384917 0.174644 0.065770
v -0.384685 0.174315 0.067048
v -0.384630 0.174725 0.065543
v -0.385042 0.174403 0.066629
v -0.383401 0.174495 0.066714
v -0.385420 0.175182 0.066188
v -0.384584 0.175462 0.065366
v -0.383418 0.175462 0.065668
v -0.385433 0.175370 0.066239
v -0.384597 0.175650 0.065417
v -0.383431 0.175650 0.065719
v -0.385433 0.175370 0.066239
v -0.385102 0.175089 0.067363
v -0.383935 0.175089 0.067665
v -0.383100 0.175370 0.066843
v -0.383431 0.175650 0.065719
v -0.384597 0.175650 0.065417
vn 0.6964 0.1614 -0.6992
vn 0.8301 0.1285 -0.5426
vn 0.6964 0.1614 -0.6993
vn 0.0740 -0.3252 0.9428
vn -0.1339 -0.3369 0.9320
vn 0.0740 -0.3252 0.9427
vn -0.8893 -0.0149 -0.4571
vn -0.7789 0.0384 -0.6259
vn 0.9277 0.0868 -0.3632
vn 0.9849 0.0384 -0.1687
vn -0.3357 -0.3369 0.8797
vn -0.5226 -0.3252 0.7881
vn -0.3357 -0.3368 0.8797
vn -0.6344 0.0869 -0.7681
vn -0.4619 0.1285 -0.8776
vn -0.6344 0.0868 -0.7681
vn -0.6866 -0.3023 0.6612
vn -0.8202 -0.2695 0.5046
vn -0.6865 -0.3024 0.6613
vn 0.9994 -0.0149 0.0324
vn 0.9703 -0.0705 0.2312
vn 0.9994 -0.0148 0.0324
vn -0.2690 0.1613 -0.9495
vn -0.0642 0.1841 -0.9808
vn -0.2690 0.1614 -0.9495
vn -0.9178 -0.2279 0.3251
vn -0.9751 -0.1795 0.1306
vn -0.9178 -0.2280 0.3251
vn 0.8991 -0.1262 0.4191
vn 0.7889 -0.1794 0.5878
vn 0.7889 -0.1795 0.5878
vn 0.1437 0.1958 -0.9701
vn 0.3456 0.1958 -0.9177
vn 0.1438 0.1958 -0.9700
vn -0.9895 -0.1262 -0.0705
vn -0.9605 -0.0705 -0.2693
vn -0.9895 -0.1261 -0.0705
vn 0.6443 -0.2279 0.7301
vn 0.4717 -0.2695 0.8395
vn 0.5326 0.1841 -0.8261
vn 0.5326 0.1842 -0.8261
vn 0.2789 -0.3024 0.9115
vn 0.2788 -0.3025 0.9115
vn -0.9605 -0.0706 -0.2692
vn 0.8300 0.1284 -0.5427
vn -0.1339 -0.3368 0.9320
vn 0.9849 0.0383 -0.1687
vn -0.5227 -0.3252 0.7881
vn -0.4619 0.1284 -0.8776
vn -0.8202 -0.2696 0.5046
vn 0.9703 -0.0706 0.2313
vn -0.9751 -0.1794 0.1306
vn 0.4719 -0.2695 0.8395
vn -0.0674 0.9633 0.2598
vn -0.0673 0.9633 0.2598
vn -0.0673 0.9633 0.2600
vn -0.0674 0.9633 0.2600
vn -0.0673 0.9632 0.2600
vn -0.0675 0.9633 0.2598
vn -0.0673 0.9633 0.2597
vn -0.0673 0.9632 0.2601
vn -0.0674 0.9633 0.2597
vn -0.0674 0.9634 0.2596
vn -0.0674 0.9633 0.2599
vn -0.0673 0.9633 0.2599
vn -0.0672 0.9633 0.2597
vn -0.0675 0.9633 0.2600
vn -0.0675 0.9633 0.2599
vn -0.0674 0.9632 0.2601
vn -0.0671 0.9634 0.2597
vn -0.0674 0.9632 0.2600
vn -0.0672 0.9633 0.2599
vn -0.0672 0.9633 0.2598
vn -0.0673 0.9634 0.2597
vn -0.8965 0.0559 -0.4394
vn -0.7859 0.1092 -0.6086
vn -0.8966 0.0558 -0.4393
vn 0.9252 0.1578 -0.3451
vn 0.9826 0.1092 -0.1500
vn 0.9252 0.1579 -0.3451
vn -0.3416 -0.2669 0.9011
vn -0.5290 -0.2554 0.8093
vn -0.3415 -0.2671 0.9011
vn -0.6410 0.1579 -0.7511
vn -0.4681 0.1995 -0.8608
vn -0.6410 0.1578 -0.7511
vn -0.6933 -0.2326 0.6820
vn -0.8274 -0.1995 0.5251
vn -0.6934 -0.2324 0.6821
vn 0.9971 0.0558 0.0515
vn 0.9680 -0.0000 0.2509
vn 0.9971 0.0558 0.0516
vn -0.2748 0.2324 -0.9330
vn -0.0692 0.2553 -0.9644
vn -0.2746 0.2325 -0.9330
vn -0.9252 -0.1579 0.3451
vn -0.9826 -0.1092 0.1500
vn -0.9252 -0.1578 0.3451
vn 0.8966 -0.0557 0.4393
vn 0.7860 -0.1093 0.6085
vn 0.8966 -0.0559 0.4393
vn 0.1393 0.2670 -0.9536
vn 0.3415 0.2671 -0.9012
vn 0.1392 0.2670 -0.9536
vn -0.9971 -0.0558 -0.0515
vn -0.9680 -0.0000 -0.2509
vn 0.6410 -0.1579 0.7512
vn 0.4681 -0.1995 0.8608
vn 0.6410 -0.1578 0.7511
vn 0.5291 0.2553 -0.8093
vn 0.6933 0.2325 -0.6821
vn 0.5289 0.2554 -0.8093
vn 0.2747 -0.2325 0.9330
vn 0.0692 -0.2553 0.9644
vn 0.2748 -0.2325 0.9330
vn 0.8276 0.1994 -0.5247
vn 0.8273 0.1995 -0.5251
vn -0.1392 -0.2670 0.9536
vn -0.1394 -0.2670 0.9536
vn -0.7860 0.1093 -0.6085
vn 0.9827 0.1091 -0.1499
vn -0.4681 0.1995 -0.8609
vn -0.8274 -0.1995 0.5250
vn 0.9680 0.0001 0.2508
vn -0.0692 0.2554 -0.9644
vn -0.9826 -0.1093 0.1500
vn 0.7860 -0.1091 0.6085
vn 0.3416 0.2670 -0.9011
vn 0.4680 -0.1996 0.8609
vn 0.6933 0.2326 -0.6821
vn 0.0693 -0.2553 0.9644
vn 0.0449 -0.8506 -0.5239
vn 0.1042 -0.8473 -0.5208
vn 0.0452 -0.8507 -0.5238
vn -0.2153 -0.9545 -0.2064
vn -0.2195 -0.9393 -0.2637
vn -0.2152 -0.9545 -0.2064
vn 0.2885 -0.9545 -0.0758
vn 0.2471 -0.9683 -0.0353
vn 0.1619 -0.8473 -0.5059
vn 0.2153 -0.8506 -0.4797
vn 0.2153 -0.8505 -0.4798
vn 0.1979 -0.9802 -0.0040
vn 0.1428 -0.9896 0.0166
vn 0.1429 -0.9896 0.0167
vn 0.2620 -0.8571 -0.4435
vn 0.3003 -0.8666 -0.3986
vn 0.0843 -0.9961 0.0255
vn 0.0247 -0.9994 0.0227
vn -0.1910 -0.9073 -0.3745
vn -0.1594 -0.8922 -0.4226
vn -0.1909 -0.9074 -0.3745
vn 0.3282 -0.8784 -0.3475
vn 0.3445 -0.8923 -0.2918
vn 0.3281 -0.8784 -0.3474
vn -0.0327 -0.9994 0.0075
vn -0.0861 -0.9961 -0.0186
vn -0.0328 -0.9994 0.0076
vn -0.1181 -0.8784 -0.4631
vn -0.0688 -0.8665 -0.4944
vn -0.1180 -0.8784 -0.4631
vn -0.1329 -0.9896 -0.0549
vn -0.1710 -0.9802 -0.0995
vn -0.1330 -0.9896 -0.0548
vn 0.3487 -0.9074 -0.2346
vn 0.3403 -0.9233 -0.1778
vn -0.0136 -0.8571 -0.5149
vn -0.1989 -0.9683 -0.1509
vn 0.3200 -0.9393 -0.1238
vn -0.2114 -0.9233 -0.3207
vn -0.2114 -0.9234 -0.3205
vn 0.1978 -0.9802 -0.0040
vn 0.3003 -0.8665 -0.3987
vn 0.3446 -0.8922 -0.2919
vn -0.0137 -0.8571 -0.5150
vn -0.1709 -0.9802 -0.0996
vn 0.3404 -0.9234 -0.1775
vn -0.9680 0.0001 -0.2510
vn -0.9680 -0.0001 -0.2509
vn 0.9252 0.1578 -0.3452
vn 0.8274 0.1995 -0.5250
vn -0.3416 -0.2670 0.9011
vn -0.7860 0.1092 -0.6085
vn -0.6411 0.1578 -0.7511
vn 0.9826 0.1092 -0.1501
vn -0.5291 -0.2553 0.8093
vn -0.6933 -0.2325 0.6821
vn -0.4681 0.1996 -0.8608
vn -0.2747 0.2325 -0.9330
vn -0.8275 -0.1995 0.5249
vn -0.9252 -0.1577 0.3451
vn -0.8275 -0.1993 0.5248
vn 0.8966 -0.0558 0.4394
vn -0.0693 0.2554 -0.9644
vn -0.9971 -0.0559 -0.0516
vn -0.9826 -0.1091 0.1500
vn 0.7860 -0.1092 0.6085
vn 0.6410 -0.1579 0.7511
vn 0.3415 0.2670 -0.9011
vn 0.5290 0.2553 -0.8093
vn 0.3415 0.2671 -0.9011
vn 0.4681 -0.1995 0.8609
vn 0.6934 0.2325 -0.6821
vn 0.0693 -0.2554 0.9644
vn -0.8966 0.0559 -0.4393
vn -0.6411 0.1579 -0.7511
vn 0.1392 0.2671 -0.9536
vn -0.9971 -0.0558 -0.0516
vn 0.6410 -0.1578 0.7512
vn 0.5290 0.2554 -0.8093
vn 0.0674 -0.9633 -0.2599
vn -0.9591 -0.1346 0.2489
vn -0.9592 -0.1340 0.2490
vn -0.9591 -0.1347 0.2489
vn -0.2417 -0.2685 0.9324
vn -0.2417 -0.2687 0.9324
vn -0.2417 -0.2685 0.9325
vn 0.7174 -0.1344 0.6836
vn 0.7175 -0.1344 0.6834
vn 0.9592 0.1339 -0.2489
vn 0.9592 0.1343 -0.2489
vn 0.9592 0.1339 -0.2490
vn 0.2417 0.2684 -0.9325
vn 0.2417 0.2685 -0.9325
vn -0.7175 0.1344 -0.6835
vn -0.7175 0.1346 -0.6835
vn 0.4560 -0.3762 0.8066
vn 0.7206 -0.2324 0.6532
vn 0.4098 0.0976 0.9069
vn 0.8421 0.2426 0.4816
vn 0.9294 0.3395 0.1451
vn 0.7581 0.4844 -0.4366
vn 0.4992 0.5329 -0.6833
vn -0.1044 0.5329 -0.8397
vn -0.4506 0.4844 -0.7499
vn -0.8828 0.3395 -0.3246
vn -0.9701 0.2425 0.0119
vn -0.7988 0.0975 0.5936
vn 0.9018 -0.2266 0.3680
vn 0.0637 0.0491 0.9968
vn -0.5399 0.0491 0.8403
vn 0.8151 0.0228 -0.5789
vn 0.9610 0.0347 -0.2743
vn 0.9917 -0.1268 0.0210
vn -0.0743 0.0727 -0.9946
vn 0.2474 0.1682 -0.9542
vn 0.5481 0.0728 -0.8332
vn -0.8770 -0.1267 -0.4634
vn -0.7068 0.0346 -0.7066
vn -0.4313 0.0228 -0.9019
vn -0.7904 -0.3762 0.4835
vn -0.9472 -0.2324 0.2209
vn -0.9670 -0.2266 -0.1164
vn 0.0990 -0.4261 0.8992
vn -0.5234 -0.4261 0.7379
vn -0.2335 -0.3659 0.9009
vn 0.7064 -0.0323 0.7070
vn 0.6806 0.0998 0.7258
vn 0.9468 0.2348 -0.2202
vn 0.9153 0.3605 -0.1796
vn 0.2333 0.3682 -0.9000
vn 0.2186 0.4909 -0.8434
vn -0.7206 0.2348 -0.6524
vn -0.7128 0.3605 -0.6016
vn -0.9609 -0.0322 0.2749
vn -0.9475 0.0998 0.3038
vn -0.2475 -0.1658 0.9546
vn -0.2508 -0.0305 0.9676
vn -0.2499 0.0879 0.9643
vn 0.6478 0.2136 0.7313
vn 0.6478 0.2135 0.7313
vn 0.6387 0.2400 0.7311
vn 0.2025 0.5905 -0.7813
vn 0.2025 0.5904 -0.7813
vn 0.1983 0.6127 -0.7650
vn -0.6952 0.4649 -0.5482
vn -0.6897 0.4885 -0.5345
vn -0.2492 0.1157 0.9615
vn -0.9215 0.2136 0.3245
vn -0.9134 0.2400 0.3287
vn 0.8740 0.4649 -0.1415
vn 0.8624 0.4886 -0.1322
vn 0.8991 -0.1261 0.4191
vn 0.3455 0.1957 -0.9178
vn -0.2196 -0.9392 -0.2638
vn 0.2472 -0.9683 -0.0353
vn 0.1619 -0.8473 -0.5057
vn 0.0844 -0.9961 0.0255
vn -0.1595 -0.8922 -0.4225
vn -0.0861 -0.9961 -0.0187
vn 0.3200 -0.9393 -0.1239
vn -0.9592 -0.1339 0.2490
vn 0.9592 0.1344 -0.2489
s 1
f 1//1 2//2 3//3
f 4//4 5//5 6//6
f 7//7 8//8 9//7
f 10//9 11//10 12//9
f 13//11 14//12 15//13
f 16//14 17//15 18//16
f 19//17 20//18 21//19
f 22//20 23//21 24//22
f 25//23 26//24 27//25
f 28//26 29//27 30//28
f 31//29 32//30 33//31
f 34//32 35//33 36//34
f 37//35 38//36 39//37
f 40//38 41//39 42//38
f 43//40 3//3 44//41
f 45//42 6//6 46//43
f 47//44 9//7 38//36
f 48//45 12//9 2//2
f 49//46 15//13 5//5
f 50//8 18//16 8//8
f 51//47 24//22 11//10
f 52//48 21//19 14//12
f 53//49 27//25 17//15
f 54//50 30//28 20//18
f 55//51 31//29 23//21
f 56//24 36//34 26//24
f 57//52 39//37 29//27
f 32//30 42//38 33//31
f 35//33 43//40 44//41
f 58//53 46//43 41//39
f 59//54 60//55 61//55
f 62//56 63//57 64//58
f 65//54 66//56 67//59
f 68//60 69//55 70//55
f 71//61 72//62 73//63
f 74//64 75//65 63//57
f 76//66 77//67 78//68
f 79//64 80//57 81//57
f 82//65 83//56 84//69
f 85//54 86//65 87//64
f 88//70 89//68 90//71
f 91//65 92//54 93//72
f 94//64 95//73 96//69
f 97//64 98//64 99//62
f 100//54 59//54 101//62
f 102//65 62//56 64//58
f 103//64 65//54 67//59
f 60//55 70//55 61//55
f 104//56 71//61 66//56
f 69//55 76//66 78//68
f 72//62 81//57 73//63
f 75//65 82//65 84//69
f 105//64 87//64 77//67
f 80//57 88//70 90//71
f 83//56 91//65 93//72
f 106//68 96//69 89//68
f 86//65 107//58 97//64
f 108//59 101//62 92//54
f 109//74 102//65 95//73
f 98//64 103//64 99//62
f 110//75 111//76 112//77
f 113//78 114//79 115//80
f 116//81 117//82 118//83
f 119//84 120//85 121//86
f 122//87 123//88 124//89
f 125//90 126//91 127//92
f 128//93 129//94 130//95
f 131//96 132//97 133//98
f 134//99 135//100 136//101
f 137//102 138//103 139//104
f 140//105 141//106 142//105
f 143//107 144//108 145//109
f 146//110 147//111 148//112
f 149//113 150//114 151//115
f 152//106 112//77 141//106
f 153//116 115//80 154//117
f 155//118 118//83 156//119
f 157//120 121//86 111//76
f 158//121 127//92 114//79
f 159//82 124//89 117//82
f 160//122 130//95 120//85
f 161//123 133//98 123//88
f 162//124 136//101 126//91
f 163//125 139//104 129//94
f 164//126 142//105 132//97
f 165//127 145//109 135//100
f 166//128 148//112 138//103
f 167//129 151//115 144//108
f 168//130 154//117 147//111
f 169//131 156//119 150//114
f 170//132 171//133 172//134
f 173//135 174//136 175//137
f 176//138 177//139 178//138
f 179//140 180//141 181//142
f 182//143 183//144 184//145
f 185//146 186//147 187//146
f 188//148 189//149 190//149
f 191//150 192//151 193//152
f 194//153 195//154 196//155
f 197//156 198//157 199//158
f 200//159 201//160 202//161
f 203//162 204//163 205//164
f 206//165 207//166 208//165
f 209//167 170//132 172//134
f 210//168 173//135 175//137
f 211//169 176//138 178//138
f 212//133 179//140 171//133
f 174//136 213//170 214//171
f 177//139 215//172 182//143
f 181//142 185//146 187//146
f 183//144 188//148 184//145
f 214//171 191//150 193//152
f 216//173 196//155 186//147
f 189//149 199//158 190//149
f 192//151 200//159 202//161
f 217//174 208//165 195//154
f 198//157 203//162 205//164
f 201//160 218//175 209//167
f 219//176 210//168 204//163
f 220//177 211//169 207//166
f 221//178 222//77 223//179
f 224//117 225//180 226//181
f 227//118 228//182 229//118
f 230//183 231//184 232//120
f 233//79 234//92 235//185
f 236//186 237//187 238//82
f 239//188 240//189 241//122
f 242//190 243//191 244//192
f 245//91 246//193 247//91
f 248//194 249//104 250//94
f 251//97 252//195 253//196
f 254//197 255//198 256//197
f 257//199 258//200 259//201
f 260//108 261//113 262//202
f 263//130 226//181 264//203
f 265//204 229//118 266//204
f 267//205 232//120 222//77
f 268//180 235//185 225//180
f 269//182 238//82 228//182
f 270//206 241//122 231//184
f 271//187 244//192 237//187
f 272//92 247//91 234//92
f 273//189 250//94 240//189
f 274//96 253//196 243//191
f 275//101 256//197 246//193
f 276//207 259//201 249//104
f 277//208 223//179 252//195
f 278//209 262//202 255//198
f 279//210 264//203 258//200
f 280//113 266//204 261//113
f 281//211 282//211 283//211
f 284//211 285//211 286//211
f 287//212 288//213 289//214
f 290//215 291//216 292//217
f 293//218 294//219 295//218
f 296//220 297//221 298//222
f 299//223 300//224 301//223
f 302//225 303//226 304//225
f 305//227 306//227 307//227
f 308//228 309//228 310//228
f 311//229 312//229 313//229
f 314//230 315//230 316//230
f 317//231 318//231 319//231
f 320//232 321//232 322//232
f 323//233 324//233 325//233
f 326//234 327//234 328//234
f 329//235 330//235 331//235
f 332//236 333//236 334//236
f 335//237 336//237 337//237
f 338//238 339//238 340//238
f 341//239 342//239 343//239
f 344//240 345//240 346//240
f 347//241 348//241 349//241
f 350//242 351//242 352//242
f 353//243 354//243 355//243
f 356//244 357//244 358//244
f 359//245 360//245 361//245
f 362//246 363//246 364//246
f 365//247 366//247 367//247
f 368//248 369//248 370//248
f 371//249 372//249 373//249
f 374//250 375//250 376//250
f 377//251 378//251 379//251
f 380//252 381//252 382//252
f 383//253 384//253 385//253
f 386//254 387//254 388//254
f 389//255 390//255 391//255
f 392//256 393//256 394//256
f 395//257 396//258 397//258
f 398//259 399//260 400//260
f 401//261 402//262 403//262
f 404//263 405//264 406//264
f 407//265 408//266 409//266
f 410//267 411//268 412//268
f 411//268 413//269 412//268
f 414//270 415//271 416//272
f 417//273 418//274 419//275
f 420//276 421//276 422//277
f 413//269 423//269 424//278
f 425//279 426//279 427//280
f 396//258 414//270 397//258
f 405//264 420//276 406//264
f 428//281 429//281 430//282
f 399//260 428//281 400//260
f 409//266 426//279 425//279
f 402//262 417//273 403//262
f 1//1 48//45 2//2
f 4//4 49//46 5//5
f 7//7 50//8 8//8
f 10//9 51//47 11//10
f 13//11 52//48 14//12
f 16//14 53//49 17//15
f 19//17 54//50 20//18
f 22//20 55//51 23//21
f 25//23 56//24 26//24
f 28//26 57//52 29//27
f 31//29 431//283 32//30
f 34//32 432//284 35//33
f 37//35 47//44 38//36
f 40//38 58//53 41//39
f 43//40 1//1 3//3
f 45//42 4//4 6//6
f 47//44 7//7 9//7
f 48//45 10//9 12//9
f 49//46 13//11 15//13
f 50//8 16//14 18//16
f 51//47 22//20 24//22
f 52//48 19//17 21//19
f 53//49 25//23 27//25
f 54//50 28//26 30//28
f 55//51 431//283 31//29
f 56//24 34//32 36//34
f 57//52 37//35 39//37
f 32//30 40//38 42//38
f 35//33 432//284 43//40
f 58//53 45//42 46//43
f 59//54 433//55 60//55
f 62//56 74//64 63//57
f 65//54 104//56 66//56
f 68//60 434//60 69//55
f 71//61 435//61 72//62
f 74//64 436//74 75//65
f 76//66 105//64 77//67
f 79//64 437//64 80//57
f 82//65 438//56 83//56
f 85//54 439//65 86//65
f 88//70 106//68 89//68
f 91//65 108//59 92//54
f 94//64 109//74 95//73
f 97//64 107//58 98//64
f 100//54 433//55 59//54
f 102//65 440//65 62//56
f 103//64 441//69 65//54
f 60//55 68//60 70//55
f 104//56 435//61 71//61
f 69//55 434//60 76//66
f 72//62 79//64 81//57
f 75//65 436//74 82//65
f 105//64 85//54 87//64
f 80//57 437//64 88//70
f 83//56 438//56 91//65
f 106//68 94//64 96//69
f 86//65 439//65 107//58
f 108//59 100//54 101//62
f 109//74 440//65 102//65
f 98//64 441//69 103//64
f 110//75 157//120 111//76
f 113//78 158//121 114//79
f 116//81 159//82 117//82
f 119//84 160//122 120//85
f 122//87 161//123 123//88
f 125//90 162//124 126//91
f 128//93 163//125 129//94
f 131//96 164//126 132//97
f 134//99 165//127 135//100
f 137//102 166//128 138//103
f 140//105 152//106 141//106
f 143//107 167//129 144//108
f 146//110 168//130 147//111
f 149//113 169//131 150//114
f 152//106 110//75 112//77
f 153//116 113//78 115//80
f 155//118 116//81 118//83
f 157//120 119//84 121//86
f 158//121 125//90 127//92
f 159//82 122//87 124//89
f 160//122 128//93 130//95
f 161//123 131//96 133//98
f 162//124 134//99 136//101
f 163//125 137//102 139//104
f 164//126 140//105 142//105
f 165//127 143//107 145//109
f 166//128 146//110 148//112
f 167//129 149//113 151//115
f 168//130 153//116 154//117
f 169//131 155//118 156//119
f 170//132 212//133 171//133
f 173//135 442//285 174//136
f 176//138 443//286 177//139
f 179//140 444//287 180//141
f 182//143 215//172 183//144
f 185//146 216//173 186//147
f 188//148 445//288 189//149
f 191//150 446//289 192//151
f 194//153 217//174 195//154
f 197//156 447//290 198//157
f 200//159 448//160 201//160
f 203//162 219//176 204//163
f 206//165 220//177 207//166
f 209//167 218//175 170//132
f 210//168 449//168 173//135
f 211//169 450//291 176//138
f 212//133 444//287 179//140
f 174//136 442//285 213//170
f 177//139 443//286 215//172
f 181//142 180//141 185//146
f 183//144 445//288 188//148
f 214//171 213//170 191//150
f 216//173 194//153 196//155
f 189//149 197//156 199//158
f 192//151 446//289 200//159
f 217//174 206//165 208//165
f 198//157 447//290 203//162
f 201//160 448//160 218//175
f 219//176 449//168 210//168
f 220//177 450//291 211//169
f 221//178 267//205 222//77
f 224//117 268//180 225//180
f 227//118 269//182 228//182
f 230//183 270//206 231//184
f 233//79 272//92 234//92
f 236//186 271//187 237//187
f 239//188 273//189 240//189
f 242//190 274//96 243//191
f 245//91 275//101 246//193
f 248//194 276//207 249//104
f 251//97 277//208 252//195
f 254//197 278//209 255//198
f 257//199 279//210 258//200
f 260//108 280//113 261//113
f 263//130 224//117 226//181
f 265//204 227//118 229//118
f 267//205 230//183 232//120
f 268//180 233//79 235//185
f 269//182 236//186 238//82
f 270//206 239//188 241//122
f 271//187 242//190 244//192
f 272//92 245//91 247//91
f 273//189 248//194 250//94
f 274//96 251//97 253//196
f 275//101 254//197 256//197
f 276//207 257//199 259//201
f 277//208 221//178 223//179
f 278//209 260//108 262//202
f 279//210 263//130 264//203
f 280//113 265//204 266//204
f 283//211 451//211 281//211
f 451//211 452//211 281//211
f 452//211 453//211 281//211
f 286//211 454//211 284//211
f 454//211 455//211 284//211
f 455//211 456//211 284//211
f 287//212 457//292 288//213
f 290//215 458//216 291//216
f 293//218 459//219 294//219
f 296//220 460//293 297//221
f 299//223 461//224 300//224
f 302//225 462//226 303//226
f 411//268 423//269 413//269
f 396//258 415//271 414//270
f 405//264 421//276 420//276
f 399//260 429//281 428//281
f 409//266 408//266 426//279
f 402//262 418//274 417//273
