# Blender v2.82 (sub 7) OBJ File: 'table_scene3.blend'
# www.blender.org
o SwordDecoration2_SwordDecoration2_Esfera.002
v -0.382088 0.156882 0.062686
v -0.381977 0.157058 0.062391
v -0.382075 0.157154 0.062633
v -0.382559 0.156912 0.063295
v -0.382458 0.157392 0.063190
v -0.382534 0.157402 0.063200
v -0.382394 0.156907 0.063213
v -0.382275 0.157308 0.063007
v -0.382371 0.157360 0.063125
v -0.382193 0.156892 0.062908
v -0.382175 0.157239 0.062841
v -0.381987 0.156870 0.062428
v -0.381887 0.156953 0.062125
v -0.382483 0.156911 0.063284
v -0.382296 0.156901 0.063086
v -0.381954 0.157224 0.062300
v -0.382040 0.157396 0.062501
v -0.382398 0.157818 0.062957
v -0.382473 0.157838 0.062963
v -0.382224 0.157670 0.062810
v -0.382314 0.157762 0.062906
v -0.382132 0.157547 0.062673
v -0.381875 0.157038 0.062078
v -0.381918 0.157354 0.062164
v -0.381989 0.157584 0.062304
v -0.382308 0.158150 0.062609
v -0.382381 0.158176 0.062607
v -0.382148 0.157951 0.062514
v -0.382229 0.158074 0.062577
v -0.382067 0.157786 0.062422
v -0.381857 0.157104 0.062009
v -0.381875 0.157433 0.061996
v -0.381926 0.157699 0.062060
v -0.382196 0.158354 0.062178
v -0.382267 0.158383 0.062168
v -0.382053 0.158124 0.062149
v -0.382124 0.158266 0.062172
v -0.381986 0.157932 0.062111
v -0.381835 0.157144 0.061923
v -0.381857 0.157731 0.061793
v -0.382142 0.158440 0.061688
v -0.382009 0.158319 0.061728
v -0.381898 0.157973 0.061772
v -0.381827 0.157455 0.061813
v -0.382074 0.158409 0.061707
v -0.381949 0.158171 0.061750
v -0.381789 0.157676 0.061530
v -0.382020 0.158341 0.061215
v -0.381895 0.158227 0.061291
v -0.381811 0.157902 0.061437
v -0.381810 0.157155 0.061830
v -0.381780 0.157417 0.061631
v -0.381954 0.158312 0.061243
v -0.381847 0.158089 0.061356
v -0.381728 0.157539 0.061296
v -0.381911 0.158095 0.060794
v -0.381795 0.158000 0.060902
v -0.381734 0.157729 0.061139
v -0.381786 0.157136 0.061737
v -0.381738 0.157323 0.061470
v -0.381847 0.158071 0.060830
v -0.381757 0.157884 0.061006
v -0.381681 0.157334 0.061114
v -0.381826 0.157727 0.060467
v -0.381716 0.157660 0.060600
v -0.381674 0.157468 0.060908
v -0.381765 0.157088 0.061655
v -0.381706 0.157182 0.061345
v -0.381763 0.157710 0.060510
v -0.381686 0.157578 0.060734
v -0.381652 0.157082 0.061003
v -0.381774 0.157272 0.060266
v -0.381668 0.157239 0.060414
v -0.381637 0.157147 0.060766
v -0.381749 0.157016 0.061592
v -0.381686 0.157008 0.061268
v -0.381712 0.157264 0.060312
v -0.381643 0.157200 0.060567
v -0.381681 0.156818 0.061247
v -0.381644 0.156806 0.060972
v -0.381698 0.156777 0.060258
v -0.381759 0.156775 0.060210
v -0.381631 0.156787 0.060521
v -0.381655 0.156781 0.060363
v -0.381627 0.156796 0.060727
v -0.381736 0.156831 0.061542
v -0.381690 0.156630 0.061283
v -0.381658 0.156534 0.061025
v -0.381722 0.156296 0.060351
v -0.381784 0.156286 0.060306
v -0.381651 0.156380 0.060600
v -0.381678 0.156328 0.060451
v -0.381645 0.156449 0.060794
v -0.381740 0.156735 0.061560
v -0.381714 0.156464 0.061374
v -0.381692 0.156292 0.061157
v -0.381783 0.155869 0.060584
v -0.381845 0.155850 0.060543
v -0.381703 0.156018 0.060798
v -0.381735 0.155926 0.060670
v -0.381688 0.156141 0.060962
v -0.381752 0.156650 0.061606
v -0.381749 0.156334 0.061510
v -0.381743 0.156104 0.061354
v -0.381873 0.155538 0.060933
v -0.381938 0.155512 0.060898
v -0.381779 0.155737 0.061093
v -0.381820 0.155614 0.060998
v -0.381753 0.155902 0.061213
v -0.381770 0.156584 0.061676
v -0.381792 0.156255 0.061678
v -0.381806 0.155989 0.061598
v -0.381985 0.155334 0.061363
v -0.382051 0.155305 0.061338
v -0.381874 0.155564 0.061458
v -0.381925 0.155422 0.061404
v -0.381834 0.155756 0.061524
v -0.381793 0.156544 0.061761
v -0.381875 0.155957 0.061865
v -0.382176 0.155248 0.061817
v -0.382040 0.155369 0.061847
v -0.381922 0.155715 0.061863
v -0.381840 0.156233 0.061862
v -0.382107 0.155278 0.061834
v -0.381977 0.155517 0.061857
v -0.381944 0.156012 0.062128
v -0.382299 0.155347 0.062291
v -0.382153 0.155461 0.062285
v -0.382009 0.155785 0.062198
v -0.381817 0.156533 0.061855
v -0.381887 0.156271 0.062043
v -0.382227 0.155376 0.062298
v -0.382079 0.155599 0.062251
v -0.382004 0.156149 0.062362
v -0.382408 0.155593 0.062712
v -0.382254 0.155688 0.062674
v -0.382086 0.155959 0.062495
v -0.381841 0.156552 0.061947
v -0.381929 0.156365 0.062204
v -0.382334 0.155617 0.062711
v -0.382170 0.155804 0.062601
v -0.382051 0.156353 0.062543
v -0.382492 0.155961 0.063039
v -0.382332 0.156028 0.062976
v -0.382146 0.156220 0.062727
v -0.381862 0.156600 0.062029
v -0.381961 0.156506 0.062329
v -0.382417 0.155978 0.063032
v -0.382241 0.156110 0.062873
v -0.382080 0.156606 0.062655
v -0.382545 0.156416 0.063240
v -0.382380 0.156448 0.063162
v -0.382183 0.156541 0.062869
v -0.381879 0.156672 0.062093
v -0.381981 0.156680 0.062406
v -0.382468 0.156424 0.063229
v -0.382284 0.156488 0.063040
v -0.381892 0.156857 0.062143
v -0.381889 0.156760 0.062133
v -0.381807 0.156844 0.061844
v -0.381738 0.156927 0.061552
v -0.384295 0.156882 0.062114
v -0.384249 0.157058 0.061802
v -0.384259 0.156870 0.061839
v -0.384308 0.156901 0.062565
v -0.384294 0.157239 0.062291
v -0.384312 0.156892 0.062359
v -0.384241 0.156911 0.062828
v -0.384261 0.157360 0.062635
v -0.384284 0.156907 0.062723
v -0.384199 0.156953 0.061525
v -0.384204 0.156857 0.061544
v -0.384281 0.157154 0.062061
v -0.384288 0.157308 0.062485
v -0.384180 0.156912 0.062875
v -0.384217 0.157392 0.062734
v -0.384226 0.157224 0.061711
v -0.384251 0.157547 0.062124
v -0.384205 0.157762 0.062416
v -0.384187 0.157038 0.061479
v -0.384247 0.157396 0.061929
v -0.384237 0.157670 0.062288
v -0.384155 0.157402 0.062780
v -0.384156 0.157818 0.062502
v -0.384190 0.157354 0.061575
v -0.384186 0.157786 0.061872
v -0.384120 0.158074 0.062087
v -0.384169 0.157104 0.061410
v -0.384196 0.157584 0.061731
v -0.384160 0.157951 0.061992
v -0.384094 0.157838 0.062543
v -0.384066 0.158150 0.062153
v -0.384147 0.157433 0.061407
v -0.384105 0.157932 0.061562
v -0.384014 0.158266 0.061681
v -0.384147 0.157144 0.061324
v -0.384133 0.157699 0.061487
v -0.384065 0.158124 0.061627
v -0.384002 0.158176 0.062187
v -0.383954 0.158354 0.061722
v -0.384064 0.157731 0.061221
v -0.384099 0.157455 0.061224
v -0.383962 0.158171 0.061228
v -0.384017 0.157973 0.061222
v -0.383832 0.158409 0.061252
v -0.383899 0.158319 0.061238
v -0.384122 0.157155 0.061231
v -0.383763 0.158440 0.061268
v -0.383996 0.157676 0.060958
v -0.384052 0.157417 0.061042
v -0.383860 0.158089 0.060835
v -0.383931 0.157902 0.060888
v -0.383712 0.158312 0.060787
v -0.383786 0.158227 0.060801
v -0.384098 0.157136 0.061138
v -0.383641 0.158341 0.060795
v -0.383935 0.157539 0.060724
v -0.384010 0.157323 0.060881
v -0.383769 0.157884 0.060485
v -0.383853 0.157729 0.060590
v -0.383605 0.158071 0.060374
v -0.383685 0.158000 0.060412
v -0.384077 0.157088 0.061056
v -0.383531 0.158095 0.060374
v -0.383888 0.157334 0.060542
v -0.383978 0.157182 0.060756
v -0.383699 0.157578 0.060213
v -0.383794 0.157468 0.060359
v -0.383522 0.157710 0.060054
v -0.383607 0.157660 0.060110
v -0.384061 0.157016 0.060992
v -0.383447 0.157727 0.060047
v -0.383859 0.157082 0.060431
v -0.383958 0.157008 0.060679
v -0.383655 0.157200 0.060046
v -0.383757 0.157147 0.060217
v -0.383471 0.157264 0.059856
v -0.383559 0.157239 0.059924
v -0.384050 0.156927 0.060953
v -0.383395 0.157272 0.059846
v -0.383953 0.156818 0.060658
v -0.383746 0.156796 0.060177
v -0.383545 0.156781 0.059873
v -0.384048 0.156831 0.060942
v -0.383851 0.156806 0.060400
v -0.383643 0.156787 0.059999
v -0.383457 0.156777 0.059802
v -0.383962 0.156630 0.060695
v -0.383764 0.156449 0.060245
v -0.383568 0.156328 0.059961
v -0.384052 0.156735 0.060961
v -0.383865 0.156534 0.060453
v -0.383664 0.156380 0.060079
v -0.383380 0.156775 0.059790
v -0.383481 0.156296 0.059896
v -0.383986 0.156464 0.060785
v -0.383807 0.156141 0.060413
v -0.383625 0.155926 0.060180
v -0.384064 0.156650 0.061007
v -0.383899 0.156292 0.060585
v -0.383715 0.156018 0.060276
v -0.383405 0.156286 0.059886
v -0.383541 0.155869 0.060128
v -0.384021 0.156334 0.060921
v -0.383873 0.155902 0.060664
v -0.383710 0.155614 0.060508
v -0.384082 0.156584 0.061076
v -0.383950 0.156104 0.060782
v -0.383792 0.155737 0.060571
v -0.383466 0.155850 0.060123
v -0.383632 0.155538 0.060477
v -0.384064 0.156255 0.061089
v -0.383953 0.155756 0.060974
v -0.383815 0.155422 0.060914
v -0.384105 0.156544 0.061162
v -0.384013 0.155989 0.061026
v -0.383886 0.155564 0.060937
v -0.383559 0.155512 0.060478
v -0.383743 0.155334 0.060908
v -0.384082 0.155957 0.061293
v -0.384112 0.156233 0.061273
v -0.383990 0.155517 0.061336
v -0.384041 0.155715 0.061314
v -0.383865 0.155278 0.061378
v -0.383930 0.155369 0.061357
v -0.384129 0.156533 0.061256
v -0.383797 0.155248 0.061397
v -0.384151 0.156012 0.061556
v -0.384159 0.156271 0.061454
v -0.384092 0.155599 0.061729
v -0.384128 0.155785 0.061649
v -0.383986 0.155376 0.061843
v -0.384044 0.155461 0.061795
v -0.384153 0.156552 0.061348
v -0.383920 0.155347 0.061871
v -0.384211 0.156149 0.061789
v -0.384201 0.156365 0.061615
v -0.384182 0.155804 0.062079
v -0.384205 0.155959 0.061946
v -0.384093 0.155617 0.062255
v -0.384145 0.155688 0.062184
v -0.384174 0.156600 0.061430
v -0.384029 0.155593 0.062292
v -0.384258 0.156353 0.061971
v -0.384233 0.156506 0.061740
v -0.384253 0.156110 0.062351
v -0.384265 0.156220 0.062177
v -0.384176 0.155978 0.062576
v -0.384223 0.156028 0.062486
v -0.384191 0.156672 0.061494
v -0.384113 0.155961 0.062619
v -0.384287 0.156606 0.062083
v -0.384253 0.156680 0.061817
v -0.384296 0.156488 0.062518
v -0.384302 0.156541 0.062320
v -0.384227 0.156424 0.062773
v -0.384271 0.156448 0.062672
v -0.384201 0.156760 0.061533
v -0.384165 0.156416 0.062820
v -0.384132 0.156844 0.061241
v -0.383888 0.158383 0.061748
v -0.383672 0.155305 0.060917
vn 0.9171 0.0065 0.3986
vn 0.9404 0.0340 0.3383
vn 0.9196 0.0540 0.3892
vn 0.1533 0.0383 0.9874
vn 0.4000 0.2769 0.8737
vn 0.1680 0.3196 0.9325
vn 0.7052 0.0212 0.7087
vn 0.8323 0.1172 0.5418
vn 0.7133 0.1774 0.6780
vn 0.8843 0.0096 0.4669
vn 0.8878 0.0800 0.4531
vn 0.9389 0.0041 0.3442
vn 0.9556 0.0167 0.2942
vn 0.3873 0.0331 0.9213
vn 0.8270 0.0140 0.5620
vn 0.9442 0.0606 0.3237
vn 0.9256 0.0965 0.3659
vn 0.4308 0.4936 0.7555
vn 0.0763 0.6407 0.7640
vn 0.8453 0.2090 0.4918
vn 0.7330 0.3160 0.6023
vn 0.8968 0.1428 0.4188
vn 0.9575 0.0298 0.2870
vn 0.9498 0.0814 0.3019
vn 0.9346 0.1295 0.3312
vn 0.4769 0.6619 0.5783
vn 0.0563 0.8162 0.5751
vn 0.8649 0.2801 0.4166
vn 0.7627 0.4237 0.4887
vn 0.9101 0.1915 0.3674
vn 0.9602 0.0400 0.2764
vn 0.9568 0.0940 0.2751
vn 0.9458 0.1497 0.2882
vn 0.5339 0.7656 0.3589
vn 0.1264 0.9440 0.3046
vn 0.8889 0.3242 0.3237
vn 0.7990 0.4903 0.3482
vn 0.9266 0.2216 0.3039
vn 0.9637 0.0463 0.2630
vn 0.9579 0.1553 0.2414
vn 0.2028 0.9792 0.0092
vn 0.8388 0.5084 0.1949
vn 0.9446 0.2296 0.2346
vn 0.9644 0.0975 0.2457
vn 0.5957 0.7943 0.1193
vn 0.9153 0.3359 0.2224
vn 0.9699 0.1458 0.1952
vn 0.3285 0.9211 -0.2092
vn 0.8779 0.4769 0.0436
vn 0.9622 0.2155 0.1663
vn 0.9674 0.0480 0.2485
vn 0.9720 0.0914 0.2167
vn 0.6569 0.7449 -0.1170
vn 0.9411 0.3152 0.1223
vn 0.9805 0.1219 0.1541
vn 0.5273 0.7185 -0.4536
vn 0.9126 0.3986 -0.0908
vn 0.9780 0.1802 0.1056
vn 0.9711 0.0450 0.2345
vn 0.9786 0.0764 0.1909
vn 0.7113 0.6223 -0.3269
vn 0.9640 0.2636 0.0334
vn 0.9888 0.0860 0.1222
vn 0.5756 0.5073 -0.6413
vn 0.9395 0.2816 -0.1952
vn 0.9902 0.1272 0.0583
vn 0.9744 0.0377 0.2217
vn 0.9838 0.0539 0.1709
vn 0.7531 0.4395 -0.4896
vn 0.9819 0.1860 -0.0355
vn 0.9938 0.0418 0.1026
vn 0.6056 0.2465 -0.7566
vn 0.9561 0.1368 -0.2592
vn 0.9977 0.0619 0.0294
vn 0.9770 0.0266 0.2117
vn 0.9870 0.0264 0.1586
vn 0.7790 0.2136 -0.5895
vn 0.9929 0.0905 -0.0779
vn 0.9879 -0.0040 0.1552
vn 0.9952 -0.0066 0.0972
vn 0.7863 -0.0332 -0.6170
vn 0.6140 -0.0383 -0.7883
vn 0.9959 -0.0140 -0.0896
vn 0.9606 -0.0213 -0.2770
vn 0.9997 -0.0096 0.0215
vn 0.9789 -0.0019 0.2042
vn 0.9864 -0.0340 0.1611
vn 0.9928 -0.0542 0.1066
vn 0.7740 -0.2769 -0.5694
vn 0.5996 -0.3198 -0.7336
vn 0.9907 -0.1172 -0.0693
vn 0.9529 -0.1772 -0.2462
vn 0.9962 -0.0801 0.0353
vn 0.9782 -0.0163 0.2071
vn 0.9826 -0.0605 0.1756
vn 0.9868 -0.0966 0.1298
vn 0.7436 -0.4935 -0.4511
vn 0.5644 -0.5703 -0.5968
vn 0.9777 -0.2089 -0.0192
vn 0.9333 -0.3160 -0.1704
vn 0.9873 -0.1428 0.0696
vn 0.9763 -0.0297 0.2142
vn 0.9769 -0.0813 0.1974
vn 0.9778 -0.1296 0.1645
vn 0.6976 -0.6621 -0.2736
vn 0.5116 -0.7646 -0.3920
vn 0.9583 -0.2802 0.0560
vn 0.9039 -0.4240 -0.0567
vn 0.9740 -0.1915 0.1210
vn 0.9736 -0.0399 0.2249
vn 0.9699 -0.0939 0.2245
vn 0.9667 -0.1498 0.2075
vn 0.6410 -0.7656 -0.0543
vn 0.4458 -0.8843 -0.1391
vn 0.9343 -0.3239 0.1489
vn 0.8676 -0.4901 0.0838
vn 0.9576 -0.2214 0.1845
vn 0.9701 -0.0463 0.2383
vn 0.9545 -0.1554 0.2544
vn 0.3742 -0.9171 0.1375
vn 0.8277 -0.5085 0.2371
vn 0.9396 -0.2297 0.2538
vn 0.9623 -0.0974 0.2538
vn 0.5787 -0.7942 0.1852
vn 0.9080 -0.3362 0.2503
vn 0.9426 -0.1457 0.3006
vn 0.3031 -0.8601 0.4103
vn 0.7885 -0.4769 0.3884
vn 0.9219 -0.2155 0.3221
vn 0.9664 -0.0480 0.2527
vn 0.9548 -0.0914 0.2827
vn 0.5173 -0.7448 0.4215
vn 0.8820 -0.3153 0.3503
vn 0.9319 -0.1220 0.3416
vn 0.2405 -0.7185 0.6526
vn 0.7535 -0.3988 0.5227
vn 0.9061 -0.1802 0.3828
vn 0.9627 -0.0451 0.2668
vn 0.9481 -0.0765 0.3085
vn 0.4628 -0.6225 0.6312
vn 0.8589 -0.2636 0.4391
vn 0.9236 -0.0862 0.3736
vn 0.1914 -0.5074 0.8402
vn 0.7265 -0.2815 0.6269
vn 0.8938 -0.1271 0.4300
vn 0.9594 -0.0377 0.2795
vn 0.9429 -0.0541 0.3285
vn 0.4206 -0.4394 0.7937
vn 0.8409 -0.1863 0.5081
vn 0.9185 -0.0418 0.3932
vn 0.1612 -0.2465 0.9556
vn 0.7098 -0.1368 0.6910
vn 0.8863 -0.0618 0.4589
vn 0.9568 -0.0264 0.2894
vn 0.9398 -0.0260 0.3408
vn 0.3944 -0.2135 0.8938
vn 0.8299 -0.0904 0.5505
vn 0.9548 0.0018 0.2971
vn 0.9553 -0.0130 0.2955
vn 0.9680 -0.0000 0.2509
vn 0.9785 0.0129 0.2058
vn -0.9952 0.0065 -0.0972
vn -0.9864 0.0340 -0.1611
vn -0.9879 0.0041 -0.1552
vn -0.9959 0.0141 0.0896
vn -0.9962 0.0801 -0.0353
vn -0.9997 0.0096 -0.0215
vn -0.7862 0.0331 0.6171
vn -0.9529 0.1772 0.2462
vn -0.9607 0.0213 0.2769
vn -0.9782 0.0165 -0.2069
vn -0.9790 0.0022 -0.2041
vn -0.9928 0.0543 -0.1065
vn -0.9907 0.1171 0.0693
vn -0.6136 0.0383 0.7887
vn -0.7740 0.2768 0.5695
vn -0.9826 0.0607 -0.1756
vn -0.9873 0.1427 -0.0696
vn -0.9334 0.3159 0.1703
vn -0.9764 0.0298 -0.2141
vn -0.9868 0.0967 -0.1298
vn -0.9777 0.2089 0.0192
vn -0.5995 0.3196 0.7338
vn -0.7436 0.4936 0.4511
vn -0.9769 0.0813 -0.1974
vn -0.9740 0.1914 -0.1210
vn -0.9039 0.4240 0.0566
vn -0.9735 0.0400 -0.2250
vn -0.9778 0.1296 -0.1645
vn -0.9583 0.2803 -0.0560
vn -0.4377 0.6409 0.6307
vn -0.6975 0.6623 0.2736
vn -0.9700 0.0940 -0.2244
vn -0.9576 0.2215 -0.1844
vn -0.8675 0.4903 -0.0837
vn -0.9701 0.0461 -0.2382
vn -0.9667 0.1499 -0.2074
vn -0.9343 0.3240 -0.1489
vn -0.3283 0.8163 0.4752
vn -0.6410 0.7656 0.0543
vn -0.9545 0.1554 -0.2544
vn -0.9623 0.0975 -0.2538
vn -0.9080 0.3360 -0.2503
vn -0.9396 0.2297 -0.2537
vn -0.5787 0.7942 -0.1852
vn -0.8278 0.5084 -0.2371
vn -0.9664 0.0481 -0.2526
vn -0.1818 0.9792 -0.0905
vn -0.9426 0.1458 -0.3005
vn -0.9548 0.0914 -0.2828
vn -0.8820 0.3153 -0.3503
vn -0.9219 0.2154 -0.3221
vn -0.5174 0.7447 -0.4215
vn -0.7886 0.4767 -0.3884
vn -0.9627 0.0451 -0.2669
vn -0.1855 0.9210 -0.3426
vn -0.9319 0.1220 -0.3417
vn -0.9481 0.0766 -0.3086
vn -0.8589 0.2636 -0.4391
vn -0.9061 0.1801 -0.3829
vn -0.4628 0.6226 -0.6310
vn -0.7535 0.3987 -0.5227
vn -0.9594 0.0375 -0.2797
vn -0.2403 0.7189 -0.6522
vn -0.9236 0.0861 -0.3735
vn -0.9429 0.0541 -0.3285
vn -0.8410 0.1861 -0.5080
vn -0.8938 0.1272 -0.4300
vn -0.4204 0.4393 -0.7939
vn -0.7264 0.2814 -0.6270
vn -0.9568 0.0266 -0.2895
vn -0.1915 0.5072 -0.8403
vn -0.9185 0.0418 -0.3931
vn -0.9398 0.0261 -0.3408
vn -0.8300 0.0905 -0.5504
vn -0.8863 0.0618 -0.4589
vn -0.3945 0.2135 -0.8937
vn -0.7098 0.1368 -0.6910
vn -0.9553 0.0130 -0.2955
vn -0.1615 0.2466 -0.9556
vn -0.9389 -0.0042 -0.3443
vn -0.8843 -0.0097 -0.4669
vn -0.7052 -0.0212 -0.7087
vn -0.9548 -0.0020 -0.2972
vn -0.9172 -0.0064 -0.3985
vn -0.8270 -0.0140 -0.5621
vn -0.3874 -0.0332 -0.9213
vn -0.9404 -0.0340 -0.3384
vn -0.8879 -0.0801 -0.4530
vn -0.7133 -0.1772 -0.6781
vn -0.9556 -0.0168 -0.2943
vn -0.9196 -0.0541 -0.3891
vn -0.8323 -0.1172 -0.5418
vn -0.1529 -0.0385 -0.9875
vn -0.4000 -0.2768 -0.8737
vn -0.9442 -0.0605 -0.3238
vn -0.8968 -0.1429 -0.4188
vn -0.7331 -0.3161 -0.6023
vn -0.9574 -0.0300 -0.2872
vn -0.9256 -0.0966 -0.3660
vn -0.8453 -0.2089 -0.4917
vn -0.1678 -0.3197 -0.9325
vn -0.4307 -0.4936 -0.7556
vn -0.9498 -0.0811 -0.3020
vn -0.9101 -0.1914 -0.3674
vn -0.7626 -0.4238 -0.4887
vn -0.9602 -0.0398 -0.2764
vn -0.9346 -0.1296 -0.3312
vn -0.8649 -0.2802 -0.4166
vn -0.2032 -0.5699 -0.7962
vn -0.4770 -0.6619 -0.5783
vn -0.9568 -0.0939 -0.2751
vn -0.9266 -0.2214 -0.3039
vn -0.7990 -0.4902 -0.3483
vn -0.9637 -0.0461 -0.2631
vn -0.9458 -0.1499 -0.2883
vn -0.8890 -0.3239 -0.3237
vn -0.2573 -0.7642 -0.5915
vn -0.5338 -0.7657 -0.3588
vn -0.9579 -0.1554 -0.2414
vn -0.9644 -0.0975 -0.2457
vn -0.9152 -0.3360 -0.2223
vn -0.9445 -0.2297 -0.2346
vn -0.5957 -0.7943 -0.1192
vn -0.8387 -0.5085 -0.1949
vn -0.9674 -0.0480 -0.2485
vn -0.3939 -0.9171 -0.0614
vn -0.9699 -0.1457 -0.1951
vn -0.9720 -0.0914 -0.2166
vn -0.9411 -0.3152 -0.1223
vn -0.9623 -0.2154 -0.1663
vn -0.6569 -0.7448 0.1172
vn -0.8779 -0.4768 -0.0435
vn -0.9711 -0.0449 -0.2343
vn -0.4643 -0.8600 0.2116
vn -0.9805 -0.1219 -0.1541
vn -0.9786 -0.0765 -0.1909
vn -0.9641 -0.2636 -0.0334
vn -0.9780 -0.1802 -0.1055
vn -0.7111 -0.6226 0.3267
vn -0.9126 -0.3987 0.0908
vn -0.9744 -0.0376 -0.2217
vn -0.5270 -0.7189 0.4533
vn -0.9888 -0.0860 -0.1222
vn -0.9838 -0.0539 -0.1709
vn -0.9819 -0.1861 0.0355
vn -0.9902 -0.1272 -0.0584
vn -0.7532 -0.4394 0.4895
vn -0.9395 -0.2815 0.1952
vn -0.9770 -0.0267 -0.2118
vn -0.5757 -0.5072 0.6413
vn -0.9938 -0.0419 -0.1026
vn -0.9870 -0.0263 -0.1586
vn -0.9928 -0.0905 0.0779
vn -0.9977 -0.0618 -0.0294
vn -0.7790 -0.2136 0.5895
vn -0.9560 -0.1368 0.2594
vn -0.9785 -0.0131 -0.2058
vn -0.6055 -0.2466 0.7566
vn -0.9680 -0.0000 -0.2509
vn -0.2585 0.9440 0.2049
vn -0.3219 -0.8844 -0.3380
s 1
f 1//1 2//2 3//3
f 4//4 5//5 6//6
f 7//7 8//8 9//9
f 10//10 3//3 11//11
f 12//12 13//13 2//2
f 14//14 9//9 5//5
f 15//15 11//11 8//8
f 3//3 16//16 17//17
f 6//6 18//18 19//19
f 9//9 20//20 21//21
f 11//11 17//17 22//22
f 2//2 23//23 16//16
f 5//5 21//21 18//18
f 8//8 22//22 20//20
f 17//17 24//24 25//25
f 19//19 26//26 27//27
f 21//21 28//28 29//29
f 22//22 25//25 30//30
f 16//16 31//31 24//24
f 18//18 29//29 26//26
f 20//20 30//30 28//28
f 25//25 32//32 33//33
f 27//27 34//34 35//35
f 29//29 36//36 37//37
f 30//30 33//33 38//38
f 24//24 39//39 32//32
f 26//26 37//37 34//34
f 28//28 38//38 36//36
f 32//32 40//40 33//33
f 34//34 41//41 35//35
f 36//36 42//42 37//37
f 33//33 43//43 38//38
f 39//39 44//44 32//32
f 37//37 45//45 34//34
f 38//38 46//46 36//36
f 44//44 47//47 40//40
f 45//45 48//48 41//41
f 46//46 49//49 42//42
f 40//40 50//50 43//43
f 51//51 52//52 44//44
f 42//42 53//53 45//45
f 43//43 54//54 46//46
f 52//52 55//55 47//47
f 53//53 56//56 48//48
f 54//54 57//57 49//49
f 47//47 58//58 50//50
f 59//59 60//60 52//52
f 49//49 61//61 53//53
f 50//50 62//62 54//54
f 60//60 63//63 55//55
f 61//61 64//64 56//56
f 62//62 65//65 57//57
f 55//55 66//66 58//58
f 67//67 68//68 60//60
f 57//57 69//69 61//61
f 58//58 70//70 62//62
f 68//68 71//71 63//63
f 69//69 72//72 64//64
f 70//70 73//73 65//65
f 63//63 74//74 66//66
f 75//75 76//76 68//68
f 65//65 77//77 69//69
f 66//66 78//78 70//70
f 71//71 79//79 80//80
f 72//72 81//81 82//82
f 73//73 83//83 84//84
f 74//74 80//80 85//85
f 76//76 86//86 79//79
f 77//77 84//84 81//81
f 78//78 85//85 83//83
f 80//80 87//87 88//88
f 82//82 89//89 90//90
f 84//84 91//91 92//92
f 85//85 88//88 93//93
f 79//79 94//94 87//87
f 81//81 92//92 89//89
f 83//83 93//93 91//91
f 88//88 95//95 96//96
f 90//90 97//97 98//98
f 92//92 99//99 100//100
f 93//93 96//96 101//101
f 87//87 102//102 95//95
f 89//89 100//100 97//97
f 91//91 101//101 99//99
f 96//96 103//103 104//104
f 98//98 105//105 106//106
f 100//100 107//107 108//108
f 101//101 104//104 109//109
f 95//95 110//110 103//103
f 97//97 108//108 105//105
f 99//99 109//109 107//107
f 104//104 111//111 112//112
f 106//106 113//113 114//114
f 108//108 115//115 116//116
f 109//109 112//112 117//117
f 103//103 118//118 111//111
f 105//105 116//116 113//113
f 107//107 117//117 115//115
f 111//111 119//119 112//112
f 113//113 120//120 114//114
f 115//115 121//121 116//116
f 112//112 122//122 117//117
f 118//118 123//123 111//111
f 116//116 124//124 113//113
f 117//117 125//125 115//115
f 123//123 126//126 119//119
f 124//124 127//127 120//120
f 125//125 128//128 121//121
f 119//119 129//129 122//122
f 130//130 131//131 123//123
f 121//121 132//132 124//124
f 122//122 133//133 125//125
f 131//131 134//134 126//126
f 132//132 135//135 127//127
f 133//133 136//136 128//128
f 126//126 137//137 129//129
f 138//138 139//139 131//131
f 128//128 140//140 132//132
f 129//129 141//141 133//133
f 139//139 142//142 134//134
f 140//140 143//143 135//135
f 141//141 144//144 136//136
f 134//134 145//145 137//137
f 146//146 147//147 139//139
f 136//136 148//148 140//140
f 137//137 149//149 141//141
f 147//147 150//150 142//142
f 148//148 151//151 143//143
f 149//149 152//152 144//144
f 142//142 153//153 145//145
f 154//154 155//155 147//147
f 144//144 156//156 148//148
f 145//145 157//157 149//149
f 151//151 14//14 4//4
f 152//152 15//15 7//7
f 153//153 1//1 10//10
f 155//155 158//158 12//12
f 156//156 7//7 14//14
f 157//157 10//10 15//15
f 150//150 12//12 1//1
f 159//159 160//160 158//158
f 158//158 160//160 13//13
f 13//13 160//160 23//23
f 23//23 160//160 31//31
f 31//31 160//160 39//39
f 39//39 160//160 51//51
f 51//51 160//160 59//59
f 59//59 160//160 67//67
f 67//67 160//160 75//75
f 75//75 160//160 161//161
f 161//161 160//160 86//86
f 86//86 160//160 94//94
f 94//94 160//160 102//102
f 102//102 160//160 110//110
f 110//110 160//160 118//118
f 118//118 160//160 130//130
f 130//130 160//160 138//138
f 138//138 160//160 146//146
f 146//146 160//160 154//154
f 154//154 160//160 159//159
f 162//162 163//163 164//164
f 165//165 166//166 167//167
f 168//168 169//169 170//170
f 164//164 171//171 172//172
f 167//167 173//173 162//162
f 170//170 174//174 165//165
f 175//175 176//176 168//168
f 173//173 177//177 163//163
f 174//174 178//178 166//166
f 176//176 179//179 169//169
f 163//163 180//180 171//171
f 166//166 181//181 173//173
f 169//169 182//182 174//174
f 183//183 184//184 176//176
f 181//181 185//185 177//177
f 182//182 186//186 178//178
f 184//184 187//187 179//179
f 177//177 188//188 180//180
f 178//178 189//189 181//181
f 179//179 190//190 182//182
f 191//191 192//192 184//184
f 189//189 193//193 185//185
f 190//190 194//194 186//186
f 192//192 195//195 187//187
f 185//185 196//196 188//188
f 186//186 197//197 189//189
f 187//187 198//198 190//190
f 199//199 200//200 192//192
f 193//193 201//201 202//202
f 194//194 203//203 204//204
f 195//195 205//205 206//206
f 196//196 202//202 207//207
f 197//197 204//204 201//201
f 198//198 206//206 203//203
f 200//200 208//208 205//205
f 202//202 209//209 210//210
f 204//204 211//211 212//212
f 206//206 213//213 214//214
f 207//207 210//210 215//215
f 201//201 212//212 209//209
f 203//203 214//214 211//211
f 205//205 216//216 213//213
f 210//210 217//217 218//218
f 212//212 219//219 220//220
f 214//214 221//221 222//222
f 215//215 218//218 223//223
f 209//209 220//220 217//217
f 211//211 222//222 219//219
f 213//213 224//224 221//221
f 218//218 225//225 226//226
f 220//220 227//227 228//228
f 222//222 229//229 230//230
f 223//223 226//226 231//231
f 217//217 228//228 225//225
f 219//219 230//230 227//227
f 221//221 232//232 229//229
f 226//226 233//233 234//234
f 228//228 235//235 236//236
f 230//230 237//237 238//238
f 231//231 234//234 239//239
f 225//225 236//236 233//233
f 227//227 238//238 235//235
f 229//229 240//240 237//237
f 233//233 241//241 234//234
f 235//235 242//242 236//236
f 237//237 243//243 238//238
f 234//234 244//244 239//239
f 236//236 245//245 233//233
f 238//238 246//246 235//235
f 240//240 247//247 237//237
f 245//245 248//248 241//241
f 246//246 249//249 242//242
f 247//247 250//250 243//243
f 241//241 251//251 244//244
f 242//242 252//252 245//245
f 243//243 253//253 246//246
f 254//254 255//255 247//247
f 252//252 256//256 248//248
f 253//253 257//257 249//249
f 255//255 258//258 250//250
f 248//248 259//259 251//251
f 249//249 260//260 252//252
f 250//250 261//261 253//253
f 262//262 263//263 255//255
f 260//260 264//264 256//256
f 261//261 265//265 257//257
f 263//263 266//266 258//258
f 256//256 267//267 259//259
f 257//257 268//268 260//260
f 258//258 269//269 261//261
f 270//270 271//271 263//263
f 268//268 272//272 264//264
f 269//269 273//273 265//265
f 271//271 274//274 266//266
f 264//264 275//275 267//267
f 265//265 276//276 268//268
f 266//266 277//277 269//269
f 278//278 279//279 271//271
f 272//272 280//280 281//281
f 273//273 282//282 283//283
f 274//274 284//284 285//285
f 275//275 281//281 286//286
f 276//276 283//283 280//280
f 277//277 285//285 282//282
f 279//279 287//287 284//284
f 281//281 288//288 289//289
f 283//283 290//290 291//291
f 285//285 292//292 293//293
f 286//286 289//289 294//294
f 280//280 291//291 288//288
f 282//282 293//293 290//290
f 284//284 295//295 292//292
f 289//289 296//296 297//297
f 291//291 298//298 299//299
f 293//293 300//300 301//301
f 294//294 297//297 302//302
f 288//288 299//299 296//296
f 290//290 301//301 298//298
f 292//292 303//303 300//300
f 297//297 304//304 305//305
f 299//299 306//306 307//307
f 301//301 308//308 309//309
f 302//302 305//305 310//310
f 296//296 307//307 304//304
f 298//298 309//309 306//306
f 300//300 311//311 308//308
f 305//305 312//312 313//313
f 307//307 314//314 315//315
f 309//309 316//316 317//317
f 310//310 313//313 318//318
f 304//304 315//315 312//312
f 306//306 317//317 314//314
f 308//308 319//319 316//316
f 313//313 172//172 318//318
f 315//315 162//162 312//312
f 317//317 165//165 314//314
f 319//319 168//168 316//316
f 320//320 318//318 172//172
f 312//312 164//164 313//313
f 314//314 167//167 315//315
f 316//316 170//170 317//317
f 320//320 172//172 171//171
f 320//320 171//171 180//180
f 320//320 180//180 188//188
f 320//320 188//188 196//196
f 320//320 196//196 207//207
f 320//320 207//207 215//215
f 320//320 215//215 223//223
f 320//320 223//223 231//231
f 320//320 231//231 239//239
f 320//320 239//239 244//244
f 320//320 244//244 251//251
f 320//320 251//251 259//259
f 320//320 259//259 267//267
f 320//320 267//267 275//275
f 320//320 275//275 286//286
f 320//320 286//286 294//294
f 320//320 294//294 302//302
f 320//320 302//302 310//310
f 320//320 310//310 318//318
f 27//27 191//191 19//19
f 35//35 199//199 27//27
f 41//41 321//321 35//35
f 48//48 208//208 41//41
f 1//1 12//12 2//2
f 4//4 14//14 5//5
f 7//7 15//15 8//8
f 10//10 1//1 3//3
f 12//12 158//158 13//13
f 14//14 7//7 9//9
f 15//15 10//10 11//11
f 3//3 2//2 16//16
f 6//6 5//5 18//18
f 9//9 8//8 20//20
f 11//11 3//3 17//17
f 2//2 13//13 23//23
f 5//5 9//9 21//21
f 8//8 11//11 22//22
f 17//17 16//16 24//24
f 19//19 18//18 26//26
f 21//21 20//20 28//28
f 22//22 17//17 25//25
f 16//16 23//23 31//31
f 18//18 21//21 29//29
f 20//20 22//22 30//30
f 25//25 24//24 32//32
f 27//27 26//26 34//34
f 29//29 28//28 36//36
f 30//30 25//25 33//33
f 24//24 31//31 39//39
f 26//26 29//29 37//37
f 28//28 30//30 38//38
f 32//32 44//44 40//40
f 34//34 45//45 41//41
f 36//36 46//46 42//42
f 33//33 40//40 43//43
f 39//39 51//51 44//44
f 37//37 42//42 45//45
f 38//38 43//43 46//46
f 44//44 52//52 47//47
f 45//45 53//53 48//48
f 46//46 54//54 49//49
f 40//40 47//47 50//50
f 51//51 59//59 52//52
f 42//42 49//49 53//53
f 43//43 50//50 54//54
f 52//52 60//60 55//55
f 53//53 61//61 56//56
f 54//54 62//62 57//57
f 47//47 55//55 58//58
f 59//59 67//67 60//60
f 49//49 57//57 61//61
f 50//50 58//58 62//62
f 60//60 68//68 63//63
f 61//61 69//69 64//64
f 62//62 70//70 65//65
f 55//55 63//63 66//66
f 67//67 75//75 68//68
f 57//57 65//65 69//69
f 58//58 66//66 70//70
f 68//68 76//76 71//71
f 69//69 77//77 72//72
f 70//70 78//78 73//73
f 63//63 71//71 74//74
f 75//75 161//161 76//76
f 65//65 73//73 77//77
f 66//66 74//74 78//78
f 71//71 76//76 79//79
f 72//72 77//77 81//81
f 73//73 78//78 83//83
f 74//74 71//71 80//80
f 76//76 161//161 86//86
f 77//77 73//73 84//84
f 78//78 74//74 85//85
f 80//80 79//79 87//87
f 82//82 81//81 89//89
f 84//84 83//83 91//91
f 85//85 80//80 88//88
f 79//79 86//86 94//94
f 81//81 84//84 92//92
f 83//83 85//85 93//93
f 88//88 87//87 95//95
f 90//90 89//89 97//97
f 92//92 91//91 99//99
f 93//93 88//88 96//96
f 87//87 94//94 102//102
f 89//89 92//92 100//100
f 91//91 93//93 101//101
f 96//96 95//95 103//103
f 98//98 97//97 105//105
f 100//100 99//99 107//107
f 101//101 96//96 104//104
f 95//95 102//102 110//110
f 97//97 100//100 108//108
f 99//99 101//101 109//109
f 104//104 103//103 111//111
f 106//106 105//105 113//113
f 108//108 107//107 115//115
f 109//109 104//104 112//112
f 103//103 110//110 118//118
f 105//105 108//108 116//116
f 107//107 109//109 117//117
f 111//111 123//123 119//119
f 113//113 124//124 120//120
f 115//115 125//125 121//121
f 112//112 119//119 122//122
f 118//118 130//130 123//123
f 116//116 121//121 124//124
f 117//117 122//122 125//125
f 123//123 131//131 126//126
f 124//124 132//132 127//127
f 125//125 133//133 128//128
f 119//119 126//126 129//129
f 130//130 138//138 131//131
f 121//121 128//128 132//132
f 122//122 129//129 133//133
f 131//131 139//139 134//134
f 132//132 140//140 135//135
f 133//133 141//141 136//136
f 126//126 134//134 137//137
f 138//138 146//146 139//139
f 128//128 136//136 140//140
f 129//129 137//137 141//141
f 139//139 147//147 142//142
f 140//140 148//148 143//143
f 141//141 149//149 144//144
f 134//134 142//142 145//145
f 146//146 154//154 147//147
f 136//136 144//144 148//148
f 137//137 145//145 149//149
f 147//147 155//155 150//150
f 148//148 156//156 151//151
f 149//149 157//157 152//152
f 142//142 150//150 153//153
f 154//154 159//159 155//155
f 144//144 152//152 156//156
f 145//145 153//153 157//157
f 151//151 156//156 14//14
f 152//152 157//157 15//15
f 153//153 150//150 1//1
f 155//155 159//159 158//158
f 156//156 152//152 7//7
f 157//157 153//153 10//10
f 150//150 155//155 12//12
f 162//162 173//173 163//163
f 165//165 174//174 166//166
f 168//168 176//176 169//169
f 164//164 163//163 171//171
f 167//167 166//166 173//173
f 170//170 169//169 174//174
f 175//175 183//183 176//176
f 173//173 181//181 177//177
f 174//174 182//182 178//178
f 176//176 184//184 179//179
f 163//163 177//177 180//180
f 166//166 178//178 181//181
f 169//169 179//179 182//182
f 183//183 191//191 184//184
f 181//181 189//189 185//185
f 182//182 190//190 186//186
f 184//184 192//192 187//187
f 177//177 185//185 188//188
f 178//178 186//186 189//189
f 179//179 187//187 190//190
f 191//191 199//199 192//192
f 189//189 197//197 193//193
f 190//190 198//198 194//194
f 192//192 200//200 195//195
f 185//185 193//193 196//196
f 186//186 194//194 197//197
f 187//187 195//195 198//198
f 199//199 321//321 200//200
f 193//193 197//197 201//201
f 194//194 198//198 203//203
f 195//195 200//200 205//205
f 196//196 193//193 202//202
f 197//197 194//194 204//204
f 198//198 195//195 206//206
f 200//200 321//321 208//208
f 202//202 201//201 209//209
f 204//204 203//203 211//211
f 206//206 205//205 213//213
f 207//207 202//202 210//210
f 201//201 204//204 212//212
f 203//203 206//206 214//214
f 205//205 208//208 216//216
f 210//210 209//209 217//217
f 212//212 211//211 219//219
f 214//214 213//213 221//221
f 215//215 210//210 218//218
f 209//209 212//212 220//220
f 211//211 214//214 222//222
f 213//213 216//216 224//224
f 218//218 217//217 225//225
f 220//220 219//219 227//227
f 222//222 221//221 229//229
f 223//223 218//218 226//226
f 217//217 220//220 228//228
f 219//219 222//222 230//230
f 221//221 224//224 232//232
f 226//226 225//225 233//233
f 228//228 227//227 235//235
f 230//230 229//229 237//237
f 231//231 226//226 234//234
f 225//225 228//228 236//236
f 227//227 230//230 238//238
f 229//229 232//232 240//240
f 233//233 245//245 241//241
f 235//235 246//246 242//242
f 237//237 247//247 243//243
f 234//234 241//241 244//244
f 236//236 242//242 245//245
f 238//238 243//243 246//246
f 240//240 254//254 247//247
f 245//245 252//252 248//248
f 246//246 253//253 249//249
f 247//247 255//255 250//250
f 241//241 248//248 251//251
f 242//242 249//249 252//252
f 243//243 250//250 253//253
f 254//254 262//262 255//255
f 252//252 260//260 256//256
f 253//253 261//261 257//257
f 255//255 263//263 258//258
f 248//248 256//256 259//259
f 249//249 257//257 260//260
f 250//250 258//258 261//261
f 262//262 270//270 263//263
f 260//260 268//268 264//264
f 261//261 269//269 265//265
f 263//263 271//271 266//266
f 256//256 264//264 267//267
f 257//257 265//265 268//268
f 258//258 266//266 269//269
f 270//270 278//278 271//271
f 268//268 276//276 272//272
f 269//269 277//277 273//273
f 271//271 279//279 274//274
f 264//264 272//272 275//275
f 265//265 273//273 276//276
f 266//266 274//274 277//277
f 278//278 322//322 279//279
f 272//272 276//276 280//280
f 273//273 277//277 282//282
f 274//274 279//279 284//284
f 275//275 272//272 281//281
f 276//276 273//273 283//283
f 277//277 274//274 285//285
f 279//279 322//322 287//287
f 281//281 280//280 288//288
f 283//283 282//282 290//290
f 285//285 284//284 292//292
f 286//286 281//281 289//289
f 280//280 283//283 291//291
f 282//282 285//285 293//293
f 284//284 287//287 295//295
f 289//289 288//288 296//296
f 291//291 290//290 298//298
f 293//293 292//292 300//300
f 294//294 289//289 297//297
f 288//288 291//291 299//299
f 290//290 293//293 301//301
f 292//292 295//295 303//303
f 297//297 296//296 304//304
f 299//299 298//298 306//306
f 301//301 300//300 308//308
f 302//302 297//297 305//305
f 296//296 299//299 307//307
f 298//298 301//301 309//309
f 300//300 303//303 311//311
f 305//305 304//304 312//312
f 307//307 306//306 314//314
f 309//309 308//308 316//316
f 310//310 305//305 313//313
f 304//304 307//307 315//315
f 306//306 309//309 317//317
f 308//308 311//311 319//319
f 313//313 164//164 172//172
f 315//315 167//167 162//162
f 317//317 170//170 165//165
f 319//319 175//175 168//168
f 312//312 162//162 164//164
f 314//314 165//165 167//167
f 316//316 168//168 170//170
f 27//27 199//199 191//191
f 35//35 321//321 199//199
f 41//41 208//208 321//321
f 48//48 216//216 208//208
