# Blender v2.82 (sub 7) OBJ File: 'bathroom.blend'
# www.blender.org
o Cylinder
v 0.000000 3.237500 -0.005000
v 0.000000 3.362500 -0.005000
v 0.000975 3.237500 -0.004904
v 0.000975 3.362500 -0.004904
v 0.001913 3.237500 -0.004619
v 0.001913 3.362500 -0.004619
v 0.002778 3.237500 -0.004157
v 0.002778 3.362500 -0.004157
v 0.003536 3.237500 -0.003536
v 0.003536 3.362500 -0.003536
v 0.004157 3.237500 -0.002778
v 0.004157 3.362500 -0.002778
v 0.004619 3.237500 -0.001913
v 0.004619 3.362500 -0.001913
v 0.004904 3.237500 -0.000975
v 0.004904 3.362500 -0.000975
v 0.005000 3.237500 -0.000000
v 0.005000 3.362500 -0.000000
v 0.004904 3.237500 0.000975
v 0.004904 3.362500 0.000975
v 0.004619 3.237500 0.001913
v 0.004619 3.362500 0.001913
v 0.004157 3.237500 0.002778
v 0.004157 3.362500 0.002778
v 0.003536 3.237500 0.003536
v 0.003536 3.362500 0.003536
v 0.002778 3.237500 0.004157
v 0.002778 3.362500 0.004157
v 0.001913 3.237500 0.004619
v 0.001913 3.362500 0.004619
v 0.000975 3.237500 0.004904
v 0.000975 3.362500 0.004904
v -0.000000 3.237500 0.005000
v -0.000000 3.362500 0.005000
v -0.000975 3.237500 0.004904
v -0.000975 3.362500 0.004904
v -0.001913 3.237500 0.004619
v -0.001913 3.362500 0.004619
v -0.002778 3.237500 0.004157
v -0.002778 3.362500 0.004157
v -0.003536 3.237500 0.003536
v -0.003536 3.362500 0.003536
v -0.004157 3.237500 0.002778
v -0.004157 3.362500 0.002778
v -0.004619 3.237500 0.001913
v -0.004619 3.362500 0.001913
v -0.004904 3.237500 0.000975
v -0.004904 3.362500 0.000975
v -0.005000 3.237500 -0.000000
v -0.005000 3.362500 -0.000000
v -0.004904 3.237500 -0.000975
v -0.004904 3.362500 -0.000975
v -0.004619 3.237500 -0.001913
v -0.004619 3.362500 -0.001913
v -0.004157 3.237500 -0.002778
v -0.004157 3.362500 -0.002778
v -0.003536 3.237500 -0.003536
v -0.003536 3.362500 -0.003536
v -0.002778 3.237500 -0.004157
v -0.002778 3.362500 -0.004157
v -0.001913 3.237500 -0.004619
v -0.001913 3.362500 -0.004619
v -0.000975 3.237500 -0.004904
v -0.000975 3.362500 -0.004904
vt 1.000000 1.000000
vt 0.968750 0.500000
vt 1.000000 0.500000
vt 0.968750 1.000000
vt 0.937500 0.500000
vt 0.937500 1.000000
vt 0.906250 0.500000
vt 0.906250 1.000000
vt 0.875000 0.500000
vt 0.875000 1.000000
vt 0.843750 0.500000
vt 0.843750 1.000000
vt 0.812500 0.500000
vt 0.812500 1.000000
vt 0.781250 0.500000
vt 0.781250 1.000000
vt 0.750000 0.500000
vt 0.750000 1.000000
vt 0.718750 0.500000
vt 0.718750 1.000000
vt 0.687500 0.500000
vt 0.687500 1.000000
vt 0.656250 0.500000
vt 0.656250 1.000000
vt 0.625000 0.500000
vt 0.625000 1.000000
vt 0.593750 0.500000
vt 0.593750 1.000000
vt 0.562500 0.500000
vt 0.562500 1.000000
vt 0.531250 0.500000
vt 0.531250 1.000000
vt 0.500000 0.500000
vt 0.500000 1.000000
vt 0.468750 0.500000
vt 0.468750 1.000000
vt 0.437500 0.500000
vt 0.437500 1.000000
vt 0.406250 0.500000
vt 0.406250 1.000000
vt 0.375000 0.500000
vt 0.375000 1.000000
vt 0.343750 0.500000
vt 0.343750 1.000000
vt 0.312500 0.500000
vt 0.312500 1.000000
vt 0.281250 0.500000
vt 0.281250 1.000000
vt 0.250000 0.500000
vt 0.250000 1.000000
vt 0.218750 0.500000
vt 0.218750 1.000000
vt 0.187500 0.500000
vt 0.187500 1.000000
vt 0.156250 0.500000
vt 0.156250 1.000000
vt 0.125000 0.500000
vt 0.125000 1.000000
vt 0.093750 0.500000
vt 0.093750 1.000000
vt 0.062500 0.500000
vt 0.028269 0.341844
vt 0.158156 0.028269
vt 0.471731 0.158156
vt 0.062500 1.000000
vt 0.031250 0.500000
vt 0.031250 1.000000
vt 0.000000 0.500000
vt 0.985388 0.296822
vt 0.796822 0.014612
vt 0.514611 0.203179
vt 0.341844 0.471731
vt 0.296822 0.485388
vt 0.250000 0.490000
vt 0.203179 0.485389
vt 0.158156 0.471731
vt 0.116663 0.449553
vt 0.080295 0.419706
vt 0.050447 0.383337
vt 0.014612 0.296822
vt 0.010000 0.250000
vt 0.014611 0.203179
vt 0.028269 0.158156
vt 0.050447 0.116663
vt 0.080294 0.080294
vt 0.116663 0.050447
vt 0.203178 0.014612
vt 0.250000 0.010000
vt 0.296822 0.014612
vt 0.341844 0.028269
vt 0.383337 0.050447
vt 0.419706 0.080294
vt 0.449553 0.116663
vt 0.485388 0.203178
vt 0.490000 0.250000
vt 0.485388 0.296822
vt 0.471731 0.341844
vt 0.449553 0.383337
vt 0.419706 0.419706
vt 0.383337 0.449553
vt 0.000000 1.000000
vt 0.703179 0.485389
vt 0.750000 0.490000
vt 0.796822 0.485388
vt 0.841844 0.471731
vt 0.883337 0.449553
vt 0.919706 0.419706
vt 0.949553 0.383337
vt 0.971731 0.341844
vt 0.990000 0.250000
vt 0.985388 0.203178
vt 0.971731 0.158156
vt 0.949553 0.116663
vt 0.919706 0.080294
vt 0.883337 0.050447
vt 0.841844 0.028269
vt 0.750000 0.010000
vt 0.703178 0.014612
vt 0.658156 0.028269
vt 0.616663 0.050447
vt 0.580294 0.080294
vt 0.550447 0.116663
vt 0.528269 0.158156
vt 0.510000 0.250000
vt 0.514612 0.296822
vt 0.528269 0.341844
vt 0.550447 0.383337
vt 0.580295 0.419706
vt 0.616663 0.449553
vt 0.658156 0.471731
vn 0.0980 0.0000 -0.9952
vn 0.2903 0.0000 -0.9569
vn 0.4714 0.0000 -0.8819
vn 0.6344 0.0000 -0.7730
vn 0.7730 0.0000 -0.6344
vn 0.8819 0.0000 -0.4714
vn 0.9569 0.0000 -0.2903
vn 0.9952 0.0000 -0.0980
vn 0.9952 0.0000 0.0980
vn 0.9569 0.0000 0.2903
vn 0.8819 0.0000 0.4714
vn 0.7730 0.0000 0.6344
vn 0.6344 0.0000 0.7730
vn 0.4714 0.0000 0.8819
vn 0.2903 0.0000 0.9569
vn 0.0980 0.0000 0.9952
vn -0.0980 0.0000 0.9952
vn -0.2903 0.0000 0.9569
vn -0.4714 0.0000 0.8819
vn -0.6344 0.0000 0.7730
vn -0.7730 0.0000 0.6344
vn -0.8819 0.0000 0.4714
vn -0.9569 0.0000 0.2903
vn -0.9952 0.0000 0.0980
vn -0.9952 0.0000 -0.0980
vn -0.9569 0.0000 -0.2903
vn -0.8819 0.0000 -0.4714
vn -0.7730 0.0000 -0.6344
vn -0.6344 0.0000 -0.7730
vn -0.4714 0.0000 -0.8819
vn 0.0000 1.0000 -0.0001
vn -0.2903 0.0000 -0.9569
vn -0.0980 0.0000 -0.9952
vn 0.0000 -1.0000 -0.0001
vn 0.0000 1.0000 0.0000
vn 0.0000 1.0000 -0.0012
vn 0.0000 1.0000 -0.0006
vn 0.0000 1.0000 0.0009
vn 0.0000 1.0000 -0.0017
vn 0.0000 1.0000 -0.0025
vn 0.0000 1.0000 -0.0009
vn 0.0000 1.0000 0.0002
vn 0.0000 1.0000 -0.0004
vn 0.0000 1.0000 0.0003
vn 0.0000 1.0000 0.0001
vn 0.0000 1.0000 -0.0002
vn 0.0000 -1.0000 -0.0050
vn 0.0000 -1.0000 -0.0025
vn 0.0000 -1.0000 0.0000
vn 0.0000 -1.0000 -0.0009
vn 0.0000 -1.0000 0.0003
vn 0.0000 -1.0000 0.0017
vn 0.0000 -1.0000 0.0012
vn 0.0000 -1.0000 -0.0017
vn 0.0000 -1.0000 -0.0002
vn 0.0000 -1.0000 0.0004
vn 0.0000 -1.0000 0.0001
vn 0.0000 -1.0000 0.0002
s off
f 2/1/1 3/2/1 1/3/1
f 4/4/2 5/5/2 3/2/2
f 6/6/3 7/7/3 5/5/3
f 8/8/4 9/9/4 7/7/4
f 10/10/5 11/11/5 9/9/5
f 12/12/6 13/13/6 11/11/6
f 14/14/7 15/15/7 13/13/7
f 16/16/8 17/17/8 15/15/8
f 18/18/9 19/19/9 17/17/9
f 20/20/10 21/21/10 19/19/10
f 22/22/11 23/23/11 21/21/11
f 24/24/12 25/25/12 23/23/12
f 26/26/13 27/27/13 25/25/13
f 28/28/14 29/29/14 27/27/14
f 30/30/15 31/31/15 29/29/15
f 32/32/16 33/33/16 31/31/16
f 34/34/17 35/35/17 33/33/17
f 36/36/18 37/37/18 35/35/18
f 38/38/19 39/39/19 37/37/19
f 40/40/20 41/41/20 39/39/20
f 42/42/21 43/43/21 41/41/21
f 44/44/22 45/45/22 43/43/22
f 46/46/23 47/47/23 45/45/23
f 48/48/24 49/49/24 47/47/24
f 50/50/25 51/51/25 49/49/25
f 52/52/26 53/53/26 51/51/26
f 54/54/27 55/55/27 53/53/27
f 56/56/28 57/57/28 55/55/28
f 58/58/29 59/59/29 57/57/29
f 60/60/30 61/61/30 59/59/30
f 54/62/31 38/63/31 22/64/31
f 62/65/32 63/66/32 61/61/32
f 64/67/33 1/68/33 63/66/33
f 15/69/34 31/70/34 47/71/34
f 2/1/1 4/4/1 3/2/1
f 4/4/2 6/6/2 5/5/2
f 6/6/3 8/8/3 7/7/3
f 8/8/4 10/10/4 9/9/4
f 10/10/5 12/12/5 11/11/5
f 12/12/6 14/14/6 13/13/6
f 14/14/7 16/16/7 15/15/7
f 16/16/8 18/18/8 17/17/8
f 18/18/9 20/20/9 19/19/9
f 20/20/10 22/22/10 21/21/10
f 22/22/11 24/24/11 23/23/11
f 24/24/12 26/26/12 25/25/12
f 26/26/13 28/28/13 27/27/13
f 28/28/14 30/30/14 29/29/14
f 30/30/15 32/32/15 31/31/15
f 32/32/16 34/34/16 33/33/16
f 34/34/17 36/36/17 35/35/17
f 36/36/18 38/38/18 37/37/18
f 38/38/19 40/40/19 39/39/19
f 40/40/20 42/42/20 41/41/20
f 42/42/21 44/44/21 43/43/21
f 44/44/22 46/46/22 45/45/22
f 46/46/23 48/48/23 47/47/23
f 48/48/24 50/50/24 49/49/24
f 50/50/25 52/52/25 51/51/25
f 52/52/26 54/54/26 53/53/26
f 54/54/27 56/56/27 55/55/27
f 56/56/28 58/58/28 57/57/28
f 58/58/29 60/60/29 59/59/29
f 60/60/30 62/65/30 61/61/30
f 6/72/35 4/73/35 2/74/35
f 2/74/35 64/75/35 6/72/35
f 64/75/35 62/76/35 6/72/35
f 62/76/35 60/77/35 58/78/35
f 58/78/36 56/79/36 54/62/36
f 54/62/37 52/80/37 50/81/37
f 50/81/35 48/82/35 54/62/35
f 48/82/35 46/83/35 54/62/35
f 46/83/38 44/84/38 38/63/38
f 44/84/39 42/85/39 38/63/39
f 42/85/35 40/86/35 38/63/35
f 38/63/35 36/87/35 34/88/35
f 34/88/35 32/89/35 30/90/35
f 30/90/40 28/91/40 26/92/40
f 26/92/35 24/93/35 22/64/35
f 22/64/41 20/94/41 18/95/41
f 18/95/42 16/96/42 22/64/42
f 16/96/35 14/97/35 22/64/35
f 14/97/40 12/98/40 10/99/40
f 10/99/40 8/100/40 6/72/40
f 62/76/35 58/78/35 6/72/35
f 58/78/35 54/62/35 6/72/35
f 38/63/42 34/88/42 22/64/42
f 34/88/43 30/90/43 22/64/43
f 30/90/44 26/92/44 22/64/44
f 14/97/45 10/99/45 22/64/45
f 10/99/35 6/72/35 22/64/35
f 54/62/46 46/83/46 38/63/46
f 6/72/45 54/62/45 22/64/45
f 62/65/32 64/67/32 63/66/32
f 64/67/33 2/101/33 1/68/33
f 63/102/47 1/103/47 3/104/47
f 3/104/48 5/105/48 7/106/48
f 7/106/49 9/107/49 11/108/49
f 11/108/49 13/109/49 7/106/49
f 13/109/50 15/69/50 7/106/50
f 15/69/51 17/110/51 19/111/51
f 19/111/49 21/112/49 15/69/49
f 21/112/49 23/113/49 15/69/49
f 23/113/49 25/114/49 31/70/49
f 25/114/52 27/115/52 31/70/52
f 27/115/48 29/116/48 31/70/48
f 31/70/48 33/117/48 35/118/48
f 35/118/47 37/119/47 39/120/47
f 39/120/49 41/121/49 43/122/49
f 43/122/53 45/123/53 47/71/53
f 47/71/49 49/124/49 51/125/49
f 51/125/49 53/126/49 55/127/49
f 55/127/52 57/128/52 63/102/52
f 57/128/54 59/129/54 63/102/54
f 59/129/49 61/130/49 63/102/49
f 63/102/49 3/104/49 7/106/49
f 31/70/55 35/118/55 47/71/55
f 35/118/56 39/120/56 47/71/56
f 39/120/51 43/122/51 47/71/51
f 47/71/49 51/125/49 63/102/49
f 51/125/49 55/127/49 63/102/49
f 63/102/57 7/106/57 15/69/57
f 15/69/58 23/113/58 31/70/58
f 63/102/57 15/69/57 47/71/57
