# Blender v2.82 (sub 7) OBJ File: 'bathroom.blend'
# www.blender.org
o Window_Wall.001
v -0.167368 1.459500 -2.283720
v -0.721755 1.459500 -2.283720
v -0.721755 1.459500 -2.271420
v -0.721755 2.781770 -2.283720
v -0.167368 2.781770 -2.283720
v -0.167368 2.781770 -2.271420
v -0.721755 2.781770 -2.271420
v -0.167368 2.690921 -2.271420
v -0.645572 2.690921 -2.271420
v -0.645572 1.550350 -2.271420
v -0.603927 2.641251 -2.271420
v -0.167368 2.641251 -2.271420
v 0.269191 2.641251 -2.271420
v -0.603927 1.600020 -2.271420
v -0.167368 1.600020 -2.271420
v 0.269191 1.600020 -2.271420
v 0.310836 2.690921 -2.271420
v 0.310836 1.550350 -2.271420
v 0.387019 2.781770 -2.271420
v 0.387019 1.459500 -2.271420
v -0.167368 1.550350 -2.271420
v -0.167368 1.459500 -2.271420
v 0.387019 1.459500 -2.283720
v 0.387019 2.781770 -2.283720
v -0.721755 1.459500 -2.283720
v -0.721755 2.781770 -2.283720
v -0.721755 2.781770 -2.271420
v -0.721755 1.459500 -2.271420
v -0.603927 2.641251 -2.271420
v -0.167368 2.641251 -2.271420
v 0.269191 2.641251 -2.271420
v 0.269191 2.641251 -2.273850
v -0.167368 2.641251 -2.273850
v -0.603927 2.641251 -2.273850
v -0.603927 1.600020 -2.271420
v -0.603927 1.600020 -2.273850
v -0.167368 1.600020 -2.271420
v -0.167368 1.600020 -2.273850
v 0.269191 1.600020 -2.271420
v 0.269191 1.600020 -2.273850
v 0.387019 1.459500 -2.271420
v -0.167368 1.459500 -2.271420
v 0.387019 1.459500 -2.283720
v -0.603927 2.641251 -2.273850
v -0.603927 1.600020 -2.271420
v -0.603927 1.600020 -2.273850
vt 0.830163 0.735507
vt 0.830163 0.699276
vt 0.891304 0.699276
vt 0.065217 0.778986
vt 0.065217 0.742754
vt 0.126359 0.742754
vt 0.126359 0.778986
vt 0.239130 0.680131
vt 0.239130 0.691511
vt 0.177989 0.691511
vt 0.186391 0.680131
vt 0.177989 0.525880
vt 0.186391 0.537260
vt 0.190984 0.673910
vt 0.239130 0.673910
vt 0.287277 0.673910
vt 0.287277 0.543481
vt 0.291870 0.680131
vt 0.291870 0.537260
vt 0.239130 0.543481
vt 0.300272 0.691511
vt 0.300272 0.525880
vt 0.239130 0.537260
vt 0.190984 0.543481
vt 0.239130 0.525880
vt 0.891304 0.735507
vt 0.952446 0.699275
vt 0.916667 0.395445
vt 0.952899 0.395445
vt 0.952899 0.561077
vt 0.004076 0.778985
vt 0.004076 0.742754
vt 0.916667 0.561077
vt 0.000000 0.000000
vt 0.000000 0.000000
vt 0.000000 0.000000
vt 0.000000 0.000000
vt 0.543478 0.822464
vt 0.482337 0.786232
vt 0.482337 0.822461
vt 0.543478 0.786235
vt 0.604620 0.822464
vt 0.604620 0.786235
vt 0.387681 0.525815
vt 0.351449 0.648098
vt 0.387681 0.648098
vt 0.612772 0.786235
vt 0.612772 0.822464
vt 0.673913 0.822464
vt 0.673913 0.786235
vt 0.735054 0.822461
vt 0.735054 0.786232
vt 0.387681 0.656250
vt 0.351449 0.656250
vt 0.351449 0.778533
vt 0.387681 0.778533
vt 0.891304 0.735507
vt 0.952446 0.699275
vt 0.952446 0.735507
vt 0.387681 0.525815
vt 0.351449 0.525815
vt 0.351449 0.648098
vn 0.0000 -1.0000 0.0000
vn 0.0000 1.0000 0.0000
vn 0.0000 0.0000 1.0000
vn 1.0000 -0.0000 0.0000
vn -1.0000 0.0000 0.0000
s off
f 3/1/1 2/2/1 1/3/1
f 6/4/2 5/5/2 4/6/2
f 6/4/2 4/6/2 7/7/2
f 8/8/3 6/9/3 7/10/3
f 8/8/3 7/10/3 9/11/3
f 3/12/3 9/11/3 7/10/3
f 3/12/3 10/13/3 9/11/3
f 10/13/3 11/14/3 9/11/3
f 12/15/3 9/11/3 11/14/3
f 12/15/3 8/8/3 9/11/3
f 8/8/3 12/15/3 13/16/3
f 16/17/3 17/18/3 13/16/3
f 16/17/3 18/19/3 17/18/3
f 15/20/3 18/19/3 16/17/3
f 18/19/3 19/21/3 17/18/3
f 18/19/3 20/22/3 19/21/3
f 21/23/3 20/22/3 18/19/3
f 15/20/3 21/23/3 18/19/3
f 14/24/3 10/13/3 21/23/3
f 10/13/3 22/25/3 21/23/3
f 21/23/3 22/25/3 20/22/3
f 14/24/3 21/23/3 15/20/3
f 10/13/3 3/12/3 22/25/3
f 3/1/1 1/3/1 22/26/1
f 22/26/1 1/3/1 23/27/1
f 20/28/4 23/29/4 24/30/4
f 5/5/2 19/31/2 24/32/2
f 20/28/4 24/30/4 19/33/4
f 5/5/2 6/4/2 19/31/2
f 6/9/3 17/18/3 19/21/3
f 6/9/3 8/8/3 17/18/3
f 8/8/3 13/16/3 17/18/3
f 10/13/3 14/24/3 11/14/3
f 25/34/4 26/35/4 27/36/4
f 25/34/4 27/36/4 28/37/4
f 30/38/1 32/39/1 31/40/1
f 30/38/1 33/41/1 32/39/1
f 33/41/1 30/38/1 29/42/1
f 33/41/1 29/42/1 34/43/1
f 35/44/4 34/45/4 29/46/4
f 36/47/2 35/48/2 37/49/2
f 36/47/2 37/49/2 38/50/2
f 38/50/2 37/49/2 39/51/2
f 38/50/2 39/51/2 40/52/2
f 40/53/5 39/54/5 31/55/5
f 40/53/5 31/55/5 32/56/5
f 42/57/1 43/58/1 41/59/1
f 45/60/4 46/61/4 44/62/4
