# Blender v2.82 (sub 7) OBJ File: 'bathroom.blend'
# www.blender.org
o WoodFloor
v -1.570120 0.010988 2.248590
v -1.570120 0.010988 -2.132150
v -1.702770 0.010988 -2.132150
v -1.702770 0.010988 2.248590
v -0.768351 0.010988 2.248590
v -0.790153 0.010988 -2.132150
v 1.689940 0.010988 2.248590
v 1.689940 0.010988 -2.132150
v 1.403980 0.010988 -2.132150
v 1.496540 0.010988 2.248590
v 0.521667 0.010988 2.248590
v 0.455417 0.010988 -2.132150
vt 1.000000 0.668600
vt 0.000000 0.668600
vt 0.000000 0.695900
vt 1.000000 0.695900
vt 1.000000 0.504200
vt 0.000000 0.508700
vt 1.000000 0.000000
vt 0.000000 0.000000
vt 0.000000 0.058700
vt 1.000000 0.039700
vt 1.000000 0.239600
vt 0.000000 0.253200
vn 0.0000 1.0000 0.0000
s 1
f 1/1/1 2/2/1 3/3/1
f 1/1/1 3/3/1 4/4/1
f 5/5/1 6/6/1 2/2/1
f 5/5/1 2/2/1 1/1/1
f 7/7/1 8/8/1 9/9/1
f 7/7/1 9/9/1 10/10/1
f 11/11/1 6/6/1 5/5/1
f 10/10/1 9/9/1 12/12/1
f 10/10/1 12/12/1 11/11/1
f 11/11/1 12/12/1 6/6/1
