# Blender v2.78 (sub 0) OBJ File: 'color_checker.blend'
# www.blender.org
o Plane.003
v -0.500000 0.000000 -4.500000
v 0.500000 0.000000 -4.500000
v -0.500000 0.000000 -5.500000
v 0.500000 0.000000 -5.500000
vn 0.0000 1.0000 0.0000
s off
f 2//1 3//1 1//1
f 2//1 4//1 3//1
