# Blender v2.79 (sub 0) OBJ File: 'material_probe.blend'
# www.blender.org
o Plane
v 0.145308 0.084400 -6.759246
v 7.000707 -0.040600 -3.545776
v 7.000707 0.084400 -6.759246
v 13.856106 0.084400 -6.759244
v 0.145308 -0.040600 -0.118074
v 0.145308 -0.040600 -3.545776
v 7.000707 -0.040600 -0.118074
v 13.856106 -0.040600 -3.545774
v 0.145308 0.459400 -9.544254
v 7.000707 0.459400 -9.544254
v 0.145308 1.209400 -11.686568
v 13.856106 0.459400 -9.544252
v 7.000707 1.209400 -11.686566
v -6.710091 0.084400 -6.759248
v -6.710091 0.459400 -9.544256
v -13.565493 0.084400 -6.759250
v -6.710091 1.209400 -11.686570
v -13.565493 0.459400 -9.544258
v -6.710093 -0.040600 -0.118076
v -6.710093 -0.040600 -3.545778
v -13.565493 -0.040600 -3.545780
v 0.145306 -0.040601 3.309628
v -6.495863 -0.040601 6.630212
v 0.145306 -0.040601 6.683772
v -6.710093 -0.040601 3.309626
v -13.137033 -0.040601 6.523096
v -13.565495 -0.040601 3.309626
v -5.853169 -0.040601 9.736568
v 0.145306 -0.040601 9.950798
v -4.996246 -0.040601 12.735808
v 0.145306 -0.040601 13.164270
v -11.851645 -0.040601 9.308104
v -9.280872 -0.040601 11.450418
v 6.143782 -0.040601 9.736568
v 6.786475 -0.040601 6.630214
v 12.142258 -0.040601 9.308106
v 13.427645 -0.040601 6.523098
v 5.286856 -0.040601 12.735808
v 9.571483 -0.040601 11.450420
v 7.000707 -0.040601 3.309628
v 13.856106 -0.040601 3.309628
v 0.145308 2.459398 -12.971956
v 7.000707 4.084398 -13.614648
v 0.145308 4.084398 -13.614650
v 13.856106 2.459398 -12.971954
v 13.856106 4.084398 -13.614646
v 7.000707 2.459398 -12.971954
v 0.145308 5.959398 -13.828882
v 7.000707 5.959398 -13.828880
v 0.145308 7.959398 -13.828882
v 13.856106 5.959398 -13.828878
v 7.000707 7.959398 -13.828880
v -6.710091 4.084398 -13.614652
v -6.710091 5.959398 -13.828882
v -13.565491 4.084398 -13.614652
v -6.710091 7.959398 -13.828882
v -13.565491 5.959398 -13.828884
v -6.710091 2.459398 -12.971958
v -13.565491 2.459398 -12.971960
v 0.145308 9.959398 -13.828882
v 6.786477 11.896898 -13.828880
v 0.145308 11.928148 -13.828882
v 7.000707 9.959398 -13.828880
v 13.427645 11.834398 -13.828878
v 13.856106 9.959398 -13.828878
v 6.143784 13.709398 -13.828879
v 0.145308 13.834398 -13.828881
v 5.286858 15.459398 -13.828879
v 0.145308 15.709398 -13.828881
v 12.142258 13.459398 -13.828879
v 9.571483 14.709398 -13.828879
v -5.853166 13.709398 -13.828881
v -6.495859 11.896898 -13.828882
v -11.851639 13.459398 -13.828881
v -13.137026 11.834398 -13.828882
v -4.996240 15.459398 -13.828881
v -9.280867 14.709398 -13.828881
v -6.710091 9.959398 -13.828882
v -13.565491 9.959398 -13.828884
v 13.856106 -0.040600 -0.118072
v 13.856106 1.209400 -11.686566
v -13.565491 1.209400 -11.686572
v -13.565493 -0.040600 -0.118076
v 13.856106 7.959398 -13.828878
v -13.565491 7.959398 -13.828884
vt 0.495874 0.341234
vt 0.415856 0.170661
vt 0.495873 0.170660
vt 0.495871 0.000086
vt 0.330570 0.341236
vt 0.415857 0.341235
vt 0.330568 0.170661
vt 0.415854 0.000087
vt 0.565795 0.341233
vt 0.565794 0.170659
vt 0.622272 0.341233
vt 0.565792 0.000085
vt 0.622270 0.170659
vt 0.495876 0.511808
vt 0.565797 0.511808
vt 0.495877 0.682382
vt 0.622273 0.511807
vt 0.565798 0.682382
vt 0.330571 0.511810
vt 0.415859 0.511809
vt 0.415860 0.682383
vt 0.245283 0.341236
vt 0.162662 0.506481
vt 0.161328 0.341237
vt 0.245284 0.511810
vt 0.165329 0.671724
vt 0.245286 0.682384
vt 0.085371 0.490490
vt 0.080039 0.341238
vt 0.010745 0.469169
vt 0.000083 0.341238
vt 0.096033 0.639742
vt 0.042728 0.575777
vt 0.085368 0.191985
vt 0.162660 0.175993
vt 0.096028 0.042733
vt 0.165323 0.010750
vt 0.010742 0.213308
vt 0.042724 0.106699
vt 0.245281 0.170662
vt 0.245280 0.000088
vt 0.666884 0.341233
vt 0.710362 0.170658
vt 0.710364 0.341232
vt 0.666881 0.000084
vt 0.710361 0.000084
vt 0.666882 0.170658
vt 0.757321 0.341232
vt 0.757319 0.170658
vt 0.807084 0.341231
vt 0.757318 0.000083
vt 0.807083 0.170657
vt 0.710366 0.511806
vt 0.757322 0.511806
vt 0.710367 0.682380
vt 0.807086 0.511805
vt 0.757324 0.682380
vt 0.666885 0.511807
vt 0.666887 0.682381
vt 0.856848 0.341231
vt 0.905054 0.175987
vt 0.905833 0.341230
vt 0.856846 0.170657
vt 0.903498 0.010743
vt 0.856844 0.000083
vt 0.950153 0.191978
vt 0.953264 0.341230
vt 0.993696 0.213299
vt 0.999917 0.341230
vt 0.943931 0.042725
vt 0.975034 0.106690
vt 0.950155 0.490482
vt 0.905057 0.506474
vt 0.943936 0.639735
vt 0.903504 0.671718
vt 0.993698 0.469160
vt 0.975038 0.575769
vt 0.856849 0.511805
vt 0.856851 0.682379
vt 0.330567 0.000087
vt 0.622269 0.000085
vt 0.622275 0.682381
vt 0.330573 0.682384
vt 0.807081 0.000083
vt 0.807087 0.682380
vn -0.0000 0.9963 0.0863
vn -0.0000 0.9998 0.0194
vn -0.0000 1.0000 0.0000
vn -0.0000 0.9724 0.2331
vn -0.0000 0.8504 0.5262
vn -0.0000 0.5547 0.8321
vn -0.0000 0.2427 0.9701
vn -0.0000 0.0569 0.9984
vn -0.0000 0.0000 1.0000
s 1
f 1/1/1 2/2/2 3/3/1
f 2/2/2 4/4/1 3/3/1
f 5/5/3 2/2/2 6/6/2
f 7/7/3 8/8/2 2/2/2
f 3/3/1 9/9/4 1/1/1
f 10/10/4 11/11/5 9/9/4
f 3/3/1 12/12/4 10/10/4
f 12/12/4 13/13/5 10/10/4
f 9/9/4 14/14/1 1/1/1
f 15/15/4 16/16/1 14/14/1
f 11/11/5 15/15/4 9/9/4
f 17/17/5 18/18/4 15/15/4
f 14/14/1 6/6/2 1/1/1
f 6/6/2 19/19/3 5/5/3
f 16/16/1 20/20/2 14/14/1
f 21/21/2 19/19/3 20/20/2
f 22/22/3 23/23/3 24/24/3
f 25/25/3 26/26/3 23/23/3
f 5/5/3 25/25/3 22/22/3
f 19/19/3 27/27/3 25/25/3
f 24/24/3 28/28/3 29/29/3
f 29/29/3 30/30/3 31/31/3
f 23/23/3 32/32/3 28/28/3
f 28/28/3 33/33/3 30/30/3
f 24/24/3 34/34/3 35/35/3
f 35/35/3 36/36/3 37/37/3
f 29/29/3 38/38/3 34/34/3
f 34/34/3 39/39/3 36/36/3
f 35/35/3 22/22/3 24/24/3
f 40/40/3 5/5/3 22/22/3
f 37/37/3 40/40/3 35/35/3
f 41/41/3 7/7/3 40/40/3
f 42/42/6 43/43/7 44/44/7
f 43/43/7 45/45/6 46/46/7
f 11/11/5 47/47/6 42/42/6
f 13/13/5 45/45/6 47/47/6
f 43/43/7 48/48/8 44/44/7
f 49/49/8 50/50/9 48/48/8
f 46/46/7 49/49/8 43/43/7
f 51/51/8 52/52/9 49/49/8
f 48/48/8 53/53/7 44/44/7
f 54/54/8 55/55/7 53/53/7
f 50/50/9 54/54/8 48/48/8
f 56/56/9 57/57/8 54/54/8
f 44/44/7 58/58/6 42/42/6
f 42/42/6 17/17/5 11/11/5
f 55/55/7 58/58/6 53/53/7
f 59/59/6 17/17/5 58/58/6
f 60/60/9 61/61/9 62/62/9
f 63/63/9 64/64/9 61/61/9
f 50/50/9 63/63/9 60/60/9
f 52/52/9 65/65/9 63/63/9
f 62/62/9 66/66/9 67/67/9
f 67/67/9 68/68/9 69/69/9
f 61/61/9 70/70/9 66/66/9
f 66/66/9 71/71/9 68/68/9
f 62/62/9 72/72/9 73/73/9
f 73/73/9 74/74/9 75/75/9
f 67/67/9 76/76/9 72/72/9
f 72/72/9 77/77/9 74/74/9
f 73/73/9 60/60/9 62/62/9
f 78/78/9 50/50/9 60/60/9
f 75/75/9 78/78/9 73/73/9
f 79/79/9 56/56/9 78/78/9
f 1/1/1 6/6/2 2/2/2
f 2/2/2 8/8/2 4/4/1
f 5/5/3 7/7/3 2/2/2
f 7/7/3 80/80/3 8/8/2
f 3/3/1 10/10/4 9/9/4
f 10/10/4 13/13/5 11/11/5
f 3/3/1 4/4/1 12/12/4
f 12/12/4 81/81/5 13/13/5
f 9/9/4 15/15/4 14/14/1
f 15/15/4 18/18/4 16/16/1
f 11/11/5 17/17/5 15/15/4
f 17/17/5 82/82/5 18/18/4
f 14/14/1 20/20/2 6/6/2
f 6/6/2 20/20/2 19/19/3
f 16/16/1 21/21/2 20/20/2
f 21/21/2 83/83/3 19/19/3
f 22/22/3 25/25/3 23/23/3
f 25/25/3 27/27/3 26/26/3
f 5/5/3 19/19/3 25/25/3
f 19/19/3 83/83/3 27/27/3
f 24/24/3 23/23/3 28/28/3
f 29/29/3 28/28/3 30/30/3
f 23/23/3 26/26/3 32/32/3
f 28/28/3 32/32/3 33/33/3
f 24/24/3 29/29/3 34/34/3
f 35/35/3 34/34/3 36/36/3
f 29/29/3 31/31/3 38/38/3
f 34/34/3 38/38/3 39/39/3
f 35/35/3 40/40/3 22/22/3
f 40/40/3 7/7/3 5/5/3
f 37/37/3 41/41/3 40/40/3
f 41/41/3 80/80/3 7/7/3
f 42/42/6 47/47/6 43/43/7
f 43/43/7 47/47/6 45/45/6
f 11/11/5 13/13/5 47/47/6
f 13/13/5 81/81/5 45/45/6
f 43/43/7 49/49/8 48/48/8
f 49/49/8 52/52/9 50/50/9
f 46/46/7 51/51/8 49/49/8
f 51/51/8 84/84/9 52/52/9
f 48/48/8 54/54/8 53/53/7
f 54/54/8 57/57/8 55/55/7
f 50/50/9 56/56/9 54/54/8
f 56/56/9 85/85/9 57/57/8
f 44/44/7 53/53/7 58/58/6
f 42/42/6 58/58/6 17/17/5
f 55/55/7 59/59/6 58/58/6
f 59/59/6 82/82/5 17/17/5
f 60/60/9 63/63/9 61/61/9
f 63/63/9 65/65/9 64/64/9
f 50/50/9 52/52/9 63/63/9
f 52/52/9 84/84/9 65/65/9
f 62/62/9 61/61/9 66/66/9
f 67/67/9 66/66/9 68/68/9
f 61/61/9 64/64/9 70/70/9
f 66/66/9 70/70/9 71/71/9
f 62/62/9 67/67/9 72/72/9
f 73/73/9 72/72/9 74/74/9
f 67/67/9 69/69/9 76/76/9
f 72/72/9 76/76/9 77/77/9
f 73/73/9 78/78/9 60/60/9
f 78/78/9 56/56/9 50/50/9
f 75/75/9 79/79/9 78/78/9
f 79/79/9 85/85/9 56/56/9
