# Blender v2.78 (sub 0) OBJ File: 'demonstrator_on_table_aligned.blend'
# www.blender.org
o support_sphere
v -0.126116 0.814115 -0.042423
v 0.019878 0.824222 -0.127443
v -0.000143 0.824222 0.070151
v 0.968944 1.597287 -0.680137
v 0.895838 1.450701 -0.637564
v 0.860095 1.555113 -0.802684
v -0.194253 0.824222 0.112170
v -0.294199 0.824222 -0.059456
v -0.161856 0.824222 -0.207543
v 0.963977 1.724060 -0.792161
v 0.818774 1.597287 0.801973
v 0.901691 1.555113 0.660581
v 0.923784 1.724060 0.762636
v -0.637203 1.597295 1.117152
v -0.477113 1.555117 1.152319
v -0.567341 1.724065 1.204862
v -1.386870 1.597287 -0.170173
v -1.370845 1.555114 -0.007051
v -1.448700 1.724060 -0.076624
v -0.394209 1.597287 -1.280951
v -0.544398 1.555114 -1.215303
v -0.502286 1.724060 -1.310847
v 1.063923 1.724060 -0.620535
v 0.791443 1.724060 0.910727
v -0.749075 1.724065 1.124763
v -1.428679 1.724060 -0.274222
v -0.308175 1.724060 -1.352867
v 1.134639 2.864521 0.085328
v 1.118614 2.906694 -0.077799
v 1.050475 3.011112 0.076800
v 0.141983 2.864521 1.196104
v 0.292168 2.906694 1.130454
v 0.124085 3.011111 1.113421
v -1.221170 2.864521 0.595290
v -1.112325 2.906694 0.717836
v -1.148064 3.011112 0.552716
v -1.071006 2.864521 -0.886819
v -1.153921 2.906694 -0.745431
v -1.007924 3.011112 -0.830448
v 0.384973 2.864517 -1.202000
v 0.224883 2.906690 -1.237167
v 0.350854 3.011104 -1.124591
v -0.057976 3.637585 -0.197019
v -0.252087 3.637585 -0.155000
v -0.126115 3.647696 -0.042423
v 0.017395 3.602286 -0.368023
v -0.187692 3.617478 -0.326887
v 0.096550 3.535702 -0.547614
v -0.114619 3.567233 -0.512944
v 0.174296 3.436100 -0.724007
v -0.036382 3.481722 -0.701738
v 0.244993 3.308230 -0.884411
v 0.041564 3.362281 -0.878586
v 0.304414 3.162464 -1.019222
v 0.113428 3.217782 -1.030347
v 0.175055 3.061613 -1.149904
v -0.391428 3.602286 -0.279519
v -0.331169 3.567233 -0.466064
v -0.537772 3.535705 -0.410299
v -0.260166 3.498125 -0.661682
v -0.480480 3.481725 -0.605602
v -0.681503 3.436104 -0.538742
v -0.181942 3.392548 -0.851596
v -0.409928 3.392551 -0.802242
v -0.624583 3.362285 -0.734379
v -0.812211 3.308237 -0.655552
v -0.102230 3.256108 -1.020012
v -0.329900 3.269911 -0.983823
v -0.552151 3.256113 -0.922616
v -0.752775 3.217786 -0.842835
v -0.922065 3.162473 -0.753720
v -0.027110 3.101299 -1.155936
v -0.246645 3.123400 -1.136143
v -0.468695 3.123400 -1.088075
v -0.676763 3.101303 -1.015303
v -0.858334 3.061616 -0.926204
v 0.039101 2.942557 -1.256323
v -0.166660 2.967027 -1.252291
v -0.381094 2.975762 -1.220333
v -0.589544 2.967027 -1.160748
v -0.778554 2.942561 -1.079324
v -0.939789 2.906694 -0.985048
v -0.272104 3.637585 0.042596
v -0.415682 3.617478 -0.071763
v -0.570054 3.567233 -0.198751
v -0.725428 3.481725 -0.331498
v -0.869532 3.362285 -0.460275
v -0.991660 3.217786 -0.575519
v -1.086326 3.061616 -0.671077
v -0.433594 3.602286 0.136640
v -0.592388 3.567233 0.021682
v -0.603194 3.535705 0.235407
v -0.756487 3.498125 -0.106291
v -0.771230 3.481725 0.120568
v -0.769768 3.436104 0.332411
v -0.912933 3.392551 -0.239374
v -0.936446 3.392551 -0.007292
v -0.938237 3.362285 0.217823
v -0.921248 3.308237 0.420627
v -1.048477 3.256113 -0.367223
v -1.084410 3.269915 -0.139516
v -1.094878 3.256113 0.090772
v -1.080998 3.217786 0.306228
v -1.048561 3.162473 0.494768
v -1.154533 3.101303 -0.480671
v -1.203547 3.123404 -0.265767
v -1.226447 3.123404 -0.039730
v -1.221534 3.101303 0.180643
v -1.192907 3.061616 0.380854
v -1.229550 2.942561 -0.574657
v -1.289294 2.967031 -0.377721
v -1.325165 2.975766 -0.163908
v -1.332911 2.967031 0.052751
v -1.313879 2.942561 0.257670
v -1.274041 2.906694 0.440141
v -0.090371 3.637585 0.122695
v -0.243502 3.617478 0.223909
v -0.411979 3.567233 0.331479
v -0.586242 3.481725 0.438228
v -0.753244 3.362285 0.535488
v -0.900587 3.217786 0.616026
v -1.020719 3.061616 0.676527
v -0.050838 3.602286 0.305342
v -0.209236 3.567233 0.420840
v -0.009316 3.535705 0.497162
v -0.381657 3.498125 0.537359
v -0.170459 3.481725 0.621486
v 0.031468 3.436104 0.685559
v -0.556571 3.392548 0.645028
v -0.343119 3.392548 0.739107
v -0.129572 3.362285 0.810374
v 0.068553 3.308237 0.856885
v -0.720045 3.256108 0.734424
v -0.514590 3.269911 0.838964
v -0.298811 3.256108 0.920085
v -0.089612 3.217786 0.973467
v 0.099721 3.162472 1.000879
v -0.860713 3.101299 0.800234
v -0.671472 3.123400 0.913259
v -0.463582 3.123400 1.004888
v -0.252481 3.101299 1.068315
v -0.053219 3.061615 1.102958
v -0.973281 2.942561 0.842536
v -0.804448 2.967027 0.960214
v -0.612188 2.975762 1.060396
v -0.408528 2.967027 1.134718
v -0.207762 2.942561 1.179943
v -0.021909 2.906694 1.198441
v 0.041970 3.637585 -0.025392
v 0.090906 3.617478 0.151519
v 0.141147 3.567233 0.344990
v 0.188823 3.481725 0.543715
v 0.229707 3.362285 0.732598
v 0.260773 3.217786 0.897618
v 0.281189 3.061615 1.030569
v 0.227893 3.602286 -0.006550
v 0.288786 3.567233 0.179786
v 0.423154 3.535705 0.013233
v 0.346321 3.498125 0.379776
v 0.491596 3.481725 0.204910
v 0.614931 3.436104 0.032666
v 0.394665 3.392550 0.579400
v 0.550101 3.392550 0.405463
v 0.683874 3.362285 0.224396
v 0.789336 3.308237 0.050336
v 0.429171 3.256113 0.762502
v 0.592084 3.269915 0.599406
v 0.735917 3.256113 0.419255
v 0.851331 3.217786 0.236788
v 0.935911 3.162473 0.065191
v 0.448288 3.101303 0.916623
v 0.614261 3.123404 0.771568
v 0.765652 3.123404 0.602166
v 0.891208 3.101303 0.420998
v 0.985732 3.061615 0.242191
v 0.453732 2.942561 1.036752
v 0.617826 2.967031 0.912546
v 0.772518 2.975765 0.760655
v 0.906141 2.967031 0.589926
v 1.011191 2.942561 0.412959
v 1.086218 2.906694 0.241920
v 0.125397 3.617478 -0.188891
v 0.324926 3.567233 -0.176887
v 0.528657 3.481725 -0.160821
v 0.720931 3.362285 -0.141337
v 0.887474 3.217786 -0.119889
v 1.020228 3.061616 -0.098222
v 0.213430 3.567233 -0.368356
v 0.421412 3.498125 -0.361274
v 0.299997 3.481722 -0.553478
v 0.626205 3.392551 -0.345563
v 0.508816 3.392548 -0.547144
v 0.377943 3.362281 -0.730326
v 0.811009 3.256113 -0.321799
v 0.706236 3.269911 -0.527141
v 0.579347 3.256108 -0.719604
v 0.441476 3.217782 -0.885759
v 0.963491 3.101303 -0.292353
v 0.876828 3.123400 -0.495031
v 0.762497 3.123400 -0.691359
v 0.628994 3.101299 -0.866757
v 0.488149 3.061613 -1.011907
v 1.079425 2.942561 -0.260412
v 1.012006 2.967027 -0.454858
v 0.915348 2.975762 -0.648920
v 0.794264 2.967027 -0.828759
v 0.658423 2.942557 -0.983354
v 0.518939 2.906690 -1.107562
v 0.315114 2.737744 -1.289711
v 0.229136 2.586729 -1.366990
v 0.136999 2.770557 -1.325717
v 0.128197 2.414937 -1.424003
v 0.033682 2.607861 -1.398768
v 0.016717 2.230906 -1.451996
v -0.081094 2.424169 -1.445250
v -0.098117 2.046874 -1.446934
v -0.199927 2.230906 -1.457291
v -0.208440 1.875075 -1.411331
v -0.313992 2.042424 -1.433997
v -0.416033 1.871134 -1.381756
v -0.066978 2.796339 -1.340148
v -0.185075 2.622500 -1.402745
v -0.287529 2.810696 -1.325030
v -0.307881 2.429339 -1.433425
v -0.413860 2.627772 -1.371709
v -0.509578 2.810696 -1.276962
v -0.425859 2.230906 -1.427143
v -0.535872 2.429339 -1.384071
v -0.634998 2.622500 -1.305352
v -0.716636 2.796339 -1.199514
v -0.530545 2.042424 -1.387123
v -0.644032 2.230906 -1.361158
v -0.747246 2.424169 -1.301048
v -0.832528 2.607861 -1.211259
v -0.896391 2.770561 -1.102019
v -0.617269 1.875075 -1.322834
v -0.732446 2.046871 -1.309621
v -0.839094 2.230906 -1.266744
v -0.929018 2.414937 -1.195148
v -0.997346 2.586733 -1.101493
v -1.043671 2.737751 -0.995571
v -1.176010 2.737748 -0.847482
v -1.276077 2.586733 -0.789594
v -1.265296 2.770561 -0.689214
v -1.361490 2.414937 -0.711212
v -1.366699 2.607861 -0.613523
v -1.422564 2.230906 -0.613837
v -1.446373 2.424169 -0.518730
v -1.453232 2.046874 -0.503065
v -1.494545 2.230906 -0.409435
v -1.453461 1.875075 -0.387139
v -1.507638 2.042424 -0.293758
v -1.489483 1.871134 -0.180570
v -1.342051 2.796339 -0.499672
v -1.438076 2.622500 -0.406704
v -1.395828 2.810699 -0.285250
v -1.505204 2.429339 -0.299389
v -1.479257 2.627772 -0.179526
v -1.418727 2.810699 -0.059214
v -1.535686 2.230906 -0.185250
v -1.528718 2.429339 -0.067307
v -1.484482 2.622500 0.051293
v -1.409055 2.796339 0.161639
v -1.529972 2.042424 -0.073319
v -1.540348 2.230906 0.042636
v -1.515078 2.424169 0.159379
v -1.456037 2.607861 0.268231
v -1.371876 2.770561 0.362725
v -1.495633 1.875075 0.029025
v -1.518657 2.046871 0.142647
v -1.510834 2.230906 0.257327
v -1.470530 2.414937 0.364974
v -1.402576 2.586733 0.458901
v -1.316153 2.737751 0.535684
v -1.216208 2.737748 0.707311
v -1.192072 2.586733 0.820372
v -1.093274 2.770557 0.841133
v -1.143920 2.414937 0.925824
v -1.052622 2.607861 0.960961
v -1.070181 2.230906 1.013999
v -0.987087 2.424169 1.066028
v -0.974305 2.046874 1.077399
v -0.898027 2.230906 1.145618
v -0.864124 1.875079 1.113443
v -0.792057 2.042427 1.193815
v -0.678801 1.871137 1.211531
v -0.936729 2.796339 0.972703
v -0.877987 2.622499 1.092759
v -0.749421 2.810696 1.090106
v -0.796667 2.429339 1.189762
v -0.674653 2.627772 1.202120
v -0.541527 2.810696 1.181735
v -0.697531 2.230906 1.254026
v -0.583213 2.429339 1.283842
v -0.456749 2.622499 1.278421
v -0.328497 2.796339 1.240784
v -0.589311 2.042427 1.283177
v -0.482241 2.230906 1.328877
v -0.363411 2.424169 1.340916
v -0.241643 2.607861 1.318404
v -0.125769 2.770561 1.267564
v -0.481365 1.875079 1.282145
v -0.380424 2.046874 1.339154
v -0.268942 2.230906 1.367148
v -0.154114 2.414937 1.362085
v -0.043790 2.586733 1.326481
v 0.055946 2.737748 1.268019
v 0.250056 2.737751 1.225998
v 0.365043 2.586733 1.237985
v 0.415317 2.770561 1.150438
v 0.480216 2.414937 1.224772
v 0.541848 2.607861 1.148807
v 0.586864 2.230906 1.181895
v 0.662027 2.424169 1.118946
v 0.676792 2.046871 1.110301
v 0.765243 2.230903 1.058838
v 0.745121 1.875075 1.016647
v 0.843832 2.042424 0.972943
v 0.895682 1.871133 0.870700
v 0.588826 2.796339 1.042213
v 0.721160 2.622499 1.023444
v 0.758370 2.810696 0.900350
v 0.838551 2.429339 0.976076
v 0.888009 2.627772 0.863854
v 0.909757 2.810696 0.730946
v 0.930304 2.230903 0.901650
v 0.993987 2.429339 0.802139
v 1.027911 2.622499 0.680194
v 1.031746 2.796339 0.546588
v 0.991471 2.042424 0.807734
v 1.068023 2.230906 0.720027
v 1.116195 2.424169 0.610732
v 1.132410 2.607861 0.487969
v 1.119866 2.770561 0.362055
v 1.023851 1.875075 0.704747
v 1.109260 2.046874 0.626363
v 1.170334 2.230906 0.528992
v 1.201002 2.414937 0.418217
v 1.201235 2.586733 0.302291
v 1.176452 2.737748 0.189374
v 1.196472 2.737751 -0.008219
v 1.243403 2.586733 -0.113874
v 1.175677 2.770561 -0.188746
v 1.266430 2.414937 -0.227494
v 1.213223 2.607861 -0.309586
v 1.258604 2.230906 -0.342175
v 1.221963 2.424169 -0.433112
v 1.218303 2.046871 -0.449821
v 1.196690 2.230903 -0.549852
v 1.150348 1.875075 -0.543749
v 1.139287 2.042424 -0.651133
v 1.058069 1.871133 -0.732040
v 1.126365 2.796339 -0.387204
v 1.149407 2.622500 -0.518868
v 1.043836 2.810696 -0.592288
v 1.140634 2.429335 -0.645145
v 1.049186 2.627772 -0.726862
v 0.929505 2.810696 -0.788618
v 1.098200 2.230903 -0.755408
v 1.023241 2.429335 -0.846727
v 0.917744 2.622497 -0.916673
v 0.791864 2.796335 -0.961609
v 1.027786 2.042424 -0.842604
v 0.968027 2.230903 -0.942510
v 0.878966 2.424165 -1.022100
v 0.767220 2.607858 -1.075458
v 0.643591 2.770554 -1.102436
v 0.939842 1.875075 -0.905220
v 0.891690 2.046874 -1.010672
v 0.817954 2.230906 -1.098848
v 0.722079 2.414937 -1.162246
v 0.611896 2.586729 -1.198287
v 0.496848 2.737744 -1.209610
v -1.147908 2.590674 -0.955547
v -1.096061 2.419384 -1.057792
v -1.017473 2.230906 -1.143683
v -0.914253 2.037639 -1.203794
v -0.794074 1.853946 -1.233653
v -0.667548 1.691247 -1.235283
v -1.243701 2.419384 -0.892584
v -1.182533 2.230906 -0.986498
v -1.320252 2.230906 -0.804876
v -1.090777 2.032469 -1.060924
v -1.246217 2.032469 -0.886988
v -1.368425 2.037639 -0.695581
v -0.973392 1.839307 -1.108290
v -1.140238 1.834035 -0.948705
v -1.280140 1.839307 -0.765038
v -1.384640 1.853946 -0.572819
v -0.841055 1.665469 -1.127062
v -1.010596 1.651112 -0.985199
v -1.161986 1.651112 -0.815795
v -1.283975 1.665469 -0.631437
v -1.372096 1.691250 -0.446904
v -0.705959 1.519248 -1.121600
v -0.870056 1.494781 -0.997396
v -1.024750 1.486046 -0.845500
v -1.158367 1.494781 -0.674773
v -1.263422 1.519248 -0.497804
v -1.338449 1.555114 -0.326769
v -1.310299 2.590674 0.647189
v -1.391517 2.419384 0.566285
v -1.448920 2.230906 0.465004
v -1.474193 2.037639 0.348263
v -1.465453 1.853946 0.224737
v -1.427904 1.691247 0.103900
v -1.280015 2.419384 0.757754
v -1.350430 2.230906 0.670558
v -1.220253 2.230906 0.857663
v -1.392862 2.032469 0.560293
v -1.275471 2.032469 0.761878
v -1.131191 2.037642 0.937252
v -1.401634 1.839307 0.434016
v -1.301417 1.834035 0.642012
v -1.169974 1.839311 0.831824
v -1.019450 1.853950 0.990609
v -1.378596 1.665469 0.302355
v -1.296065 1.651112 0.507440
v -1.181735 1.651112 0.703768
v -1.044093 1.665472 0.876756
v -0.895822 1.691255 1.017586
v -1.331652 1.519248 0.175563
v -1.264232 1.494781 0.370011
v -1.167576 1.486046 0.564072
v -1.046494 1.494784 0.743910
v -0.910650 1.519252 0.898507
v -0.771169 1.555117 1.022712
v 0.163803 2.590674 1.296907
v 0.061763 2.419384 1.349149
v -0.052299 2.230906 1.372444
v -0.171133 2.037642 1.360403
v -0.285908 1.853950 1.313920
v -0.389229 1.691255 1.240869
v 0.278316 2.419384 1.302270
v 0.173634 2.230906 1.342295
v 0.391802 2.230906 1.276308
v 0.055656 2.032469 1.348578
v 0.283646 2.032469 1.299221
v 0.495022 2.037639 1.216201
v -0.067152 1.839311 1.317898
v 0.161635 1.834035 1.286858
v 0.382773 1.839307 1.220500
v 0.580301 1.853946 1.126412
v -0.185246 1.665472 1.255297
v 0.035303 1.651112 1.240183
v 0.257355 1.651112 1.192117
v 0.464410 1.665469 1.114667
v 0.644163 1.691247 1.017171
v -0.291327 1.519252 1.171475
v -0.085569 1.494784 1.167443
v 0.128865 1.486046 1.135483
v 0.337317 1.494781 1.075902
v 0.526328 1.519248 0.994477
v 0.687558 1.555113 0.900198
v 1.237256 2.590674 0.095723
v 1.255407 2.419384 0.208908
v 1.242315 2.230906 0.324586
v 1.194143 2.037639 0.433881
v 1.114468 1.853946 0.528673
v 1.013067 1.691250 0.604366
v 1.277742 2.419384 -0.011528
v 1.283458 2.230906 0.100397
v 1.288118 2.230906 -0.127484
v 1.252974 2.032469 0.214540
v 1.276491 2.032469 -0.017539
v 1.262851 2.037639 -0.244228
v 1.185849 1.839307 0.321858
v 1.227027 1.834035 0.094677
v 1.232253 1.839307 -0.136142
v 1.203810 1.853946 -0.353078
v 1.089821 1.665469 0.414824
v 1.143597 1.651112 0.200400
v 1.166503 1.651112 -0.025634
v 1.156826 1.665469 -0.246488
v 1.119646 1.691247 -0.447570
v 0.977317 1.519248 0.489810
v 1.037068 1.494781 0.292873
v 1.072933 1.486046 0.079062
v 1.080682 1.494781 -0.137599
v 1.061651 1.519248 -0.342518
v 1.021812 1.555113 -0.524990
v 0.426571 2.590671 -1.296380
v 0.539827 2.419384 -1.278665
v 0.645797 2.230906 -1.230467
v 0.734857 2.037642 -1.150878
v 0.800393 1.853946 -1.045810
v 0.841044 1.691250 -0.925982
v 0.337084 2.419384 -1.368024
v 0.445301 2.230906 -1.338874
v 0.230014 2.230906 -1.413725
v 0.544436 2.032473 -1.274612
v 0.330983 2.032473 -1.368692
v 0.111180 2.037642 -1.425766
v 0.625755 1.839311 -1.177605
v 0.422424 1.834035 -1.286970
v 0.204518 1.839311 -1.363268
v -0.010586 1.853946 -1.403252
v 0.684504 1.665469 -1.057550
v 0.497193 1.651112 -1.174954
v 0.289301 1.651112 -1.266583
v 0.076270 1.665469 -1.325631
v -0.126459 1.691250 -1.352412
v 0.721049 1.519252 -0.927383
v 0.552219 1.494781 -1.045063
v 0.359958 1.486046 -1.145246
v 0.156299 1.494781 -1.219566
v -0.044469 1.519252 -1.264789
v -0.230321 1.555114 -1.283291
v -0.376311 1.450701 -1.198269
v -0.351951 1.299340 -1.085727
v -0.533419 1.400192 -1.115418
v -0.320782 1.153574 -0.941734
v -0.513002 1.244022 -0.982468
v -0.283697 1.025704 -0.770408
v -0.481938 1.099523 -0.817448
v -0.242916 0.926103 -0.582008
v -0.441052 0.980083 -0.628565
v -0.201392 0.859523 -0.390190
v -0.393378 0.894574 -0.429840
v -0.343137 0.844333 -0.236368
v -0.700516 1.360509 -1.001468
v -0.681402 1.205700 -0.847352
v -0.866490 1.338408 -0.856417
v -0.646897 1.069261 -0.664247
v -0.844315 1.191897 -0.684251
v -1.017881 1.338408 -0.687014
v -0.598554 0.963688 -0.464626
v -0.802335 1.069261 -0.490314
v -0.988148 1.205700 -0.504102
v -1.143436 1.360509 -0.505846
v -0.541017 0.894578 -0.264632
v -0.743830 0.980086 -0.289758
v -0.936105 1.099527 -0.309240
v -1.103564 1.244026 -0.321638
v -1.237961 1.400192 -0.327039
v -0.480121 0.859523 -0.078294
v -0.675384 0.926103 -0.098081
v -0.867164 1.025704 -0.117513
v -1.041566 1.153574 -0.135185
v -1.188140 1.299340 -0.150038
v -1.302702 1.450701 -0.161647
v -1.272453 1.400192 0.013373
v -1.139702 1.244022 0.035041
v -0.973163 1.099523 0.056491
v -0.780887 0.980083 0.075972
v -0.577158 0.894574 0.092042
v -0.377628 0.844333 0.104046
v -1.215719 1.360509 0.207509
v -1.063237 1.205700 0.236954
v -1.129054 1.338408 0.410183
v -0.878432 1.069261 0.260719
v -0.958464 1.191897 0.442298
v -1.014724 1.338408 0.606512
v -0.673643 0.963688 0.276429
v -0.761043 1.069261 0.462299
v -0.831579 1.205703 0.634758
v -0.881220 1.360512 0.781911
v -0.465659 0.894578 0.283508
v -0.552227 0.980086 0.468632
v -0.630173 1.099527 0.645477
v -0.693706 1.244030 0.800909
v -0.740376 1.400199 0.927063
v -0.269624 0.859523 0.283174
v -0.348780 0.926107 0.462766
v -0.426526 1.025708 0.639158
v -0.497224 1.153578 0.799561
v -0.556643 1.299343 0.934373
v -0.603084 1.450704 1.039742
v -0.427287 1.400199 1.065059
v -0.365657 1.244030 0.945497
v -0.293794 1.099527 0.793737
v -0.215848 0.980086 0.616889
v -0.137611 0.894578 0.428097
v -0.064535 0.844333 0.242044
v -0.225124 1.360512 1.071087
v -0.150001 1.205703 0.935167
v -0.005587 1.338408 1.051293
v -0.070290 1.069261 0.766752
v 0.077668 1.191897 0.898977
v 0.216465 1.338408 1.003226
v 0.007935 0.963688 0.576836
v 0.157700 1.069261 0.717398
v 0.299923 1.205700 0.837773
v 0.424532 1.360508 0.930456
v 0.078941 0.894578 0.381221
v 0.228253 0.980086 0.520754
v 0.372357 1.099527 0.649534
v 0.500549 1.244026 0.757989
v 0.606104 1.400191 0.841356
v 0.139202 0.859523 0.194674
v 0.285542 0.926103 0.325449
v 0.429272 1.025704 0.453898
v 0.559980 1.153574 0.570702
v 0.669836 1.299340 0.668872
v 0.755698 1.450701 0.745602
v -0.199008 1.400192 -1.187805
v 0.000255 1.360509 -1.153162
v 0.211355 1.338408 -1.089736
v 0.419247 1.338408 -0.998106
v 0.608487 1.360509 -0.885081
v 0.768493 1.400195 -0.761374
v -0.162616 1.244026 -1.058315
v 0.046585 1.205700 -1.004933
v -0.122655 1.099527 -0.895222
v 0.262361 1.191897 -0.923813
v 0.090889 1.069261 -0.823956
v -0.081771 0.980086 -0.706334
v 0.467820 1.205700 -0.819276
v 0.304341 1.069261 -0.729876
v 0.129429 0.963688 -0.622213
v -0.042994 0.894574 -0.505689
v 0.648361 1.244026 -0.700873
v 0.501019 1.099527 -0.620335
v 0.334016 0.980086 -0.523079
v 0.159754 0.894578 -0.416328
v -0.008728 0.844333 -0.308756
v 0.796331 1.299340 -0.579618
v 0.669017 1.153574 -0.505477
v 0.517539 1.025704 -0.417260
v 0.350962 0.926103 -0.320253
v 0.181364 0.859523 -0.221488
v 0.834100 1.400191 0.586229
v 0.739431 1.244022 0.490669
v 0.617306 1.099523 0.375426
v 0.473202 0.980083 0.246650
v 0.317824 0.894574 0.113902
v 0.163456 0.844333 -0.013085
v 0.902304 1.360508 0.395823
v 0.796247 1.205700 0.282375
v 0.951318 1.338408 0.180918
v 0.660706 1.069261 0.154527
v 0.832180 1.191897 0.054667
v 0.974218 1.338408 -0.045117
v 0.504261 0.963687 0.021443
v 0.684222 1.069261 -0.077555
v 0.842652 1.205700 -0.175620
v 0.969308 1.360508 -0.265489
v 0.340162 0.894574 -0.106534
v 0.519006 0.980086 -0.205419
v 0.686011 1.099527 -0.302674
v 0.828771 1.244026 -0.391079
v 0.940679 1.400191 -0.465707
vn 0.0000 -1.0000 0.0000
vn 0.1054 -0.9925 -0.0614
vn 0.0910 -0.9925 0.0813
vn 0.7729 -0.4472 -0.4501
vn 0.7200 -0.5530 -0.4193
vn 0.6941 -0.4776 -0.5385
vn -0.0492 -0.9925 0.1116
vn -0.1214 -0.9925 -0.0123
vn -0.0258 -0.9925 -0.1192
vn 0.7692 -0.3556 -0.5309
vn 0.6669 -0.4472 0.5960
vn 0.7267 -0.4776 0.4938
vn 0.7426 -0.3556 0.5675
vn -0.3607 -0.4472 0.8184
vn -0.2450 -0.4776 0.8437
vn -0.3102 -0.3556 0.8816
vn -0.8899 -0.4472 -0.0902
vn -0.8781 -0.4776 0.0276
vn -0.9344 -0.3556 -0.0226
vn -0.1892 -0.4472 -0.8742
vn -0.2976 -0.4776 -0.8266
vn -0.2673 -0.3556 -0.8956
vn 0.8414 -0.3556 -0.4070
vn 0.6471 -0.3556 0.6744
vn -0.4415 -0.3556 0.8238
vn -0.9199 -0.3555 -0.1653
vn -0.1270 -0.3556 -0.9260
vn 0.8899 0.4472 0.0902
vn 0.8781 0.4776 -0.0276
vn 0.8289 0.5530 0.0840
vn 0.1892 0.4472 0.8742
vn 0.2976 0.4776 0.8266
vn 0.1762 0.5530 0.8143
vn -0.7729 0.4472 0.4501
vn -0.6941 0.4776 0.5385
vn -0.7200 0.5530 0.4193
vn -0.6669 0.4472 -0.5960
vn -0.7267 0.4776 -0.4938
vn -0.6212 0.5530 -0.5552
vn 0.3607 0.4472 -0.8184
vn 0.2450 0.4776 -0.8437
vn 0.3360 0.5530 -0.7624
vn 0.0492 0.9925 -0.1116
vn -0.0910 0.9925 -0.0813
vn 0.0000 1.0000 0.0000
vn 0.1021 0.9674 -0.2317
vn -0.0444 0.9777 -0.2051
vn 0.1576 0.9205 -0.3575
vn 0.0065 0.9420 -0.3353
vn 0.2120 0.8506 -0.4811
vn 0.0610 0.8821 -0.4671
vn 0.2616 0.7611 -0.5935
vn 0.1153 0.7988 -0.5904
vn 0.3033 0.6591 -0.6882
vn 0.1657 0.6981 -0.6965
vn 0.2092 0.5891 -0.7805
vn -0.1888 0.9674 -0.1687
vn -0.1446 0.9420 -0.3026
vn -0.2913 0.9205 -0.2604
vn -0.0951 0.8933 -0.4392
vn -0.2487 0.8821 -0.4001
vn -0.3920 0.8506 -0.3503
vn -0.0406 0.8196 -0.5714
vn -0.1994 0.8196 -0.5371
vn -0.3492 0.7988 -0.4899
vn -0.4836 0.7611 -0.4321
vn 0.0150 0.7247 -0.6889
vn -0.1436 0.7342 -0.6635
vn -0.2986 0.7247 -0.6210
vn -0.4389 0.6981 -0.5656
vn -0.5607 0.6591 -0.5011
vn 0.0676 0.6168 -0.7842
vn -0.0856 0.6322 -0.7700
vn -0.2405 0.6322 -0.7365
vn -0.3858 0.6168 -0.6860
vn -0.5133 0.5891 -0.6241
vn 0.1145 0.5026 -0.8569
vn -0.0298 0.5196 -0.8538
vn -0.1800 0.5257 -0.8314
vn -0.3260 0.5196 -0.7897
vn -0.4586 0.5026 -0.7328
vn -0.5720 0.4776 -0.6668
vn -0.1054 0.9925 0.0614
vn -0.2087 0.9777 -0.0211
vn -0.3169 0.9420 -0.1098
vn -0.4254 0.8821 -0.2023
vn -0.5259 0.7988 -0.2921
vn -0.6112 0.6981 -0.3728
vn -0.6776 0.5891 -0.4402
vn -0.2188 0.9674 0.1274
vn -0.3325 0.9420 0.0440
vn -0.3376 0.9205 0.1966
vn -0.4470 0.8933 -0.0453
vn -0.4573 0.8821 0.1129
vn -0.4543 0.8506 0.2645
vn -0.5560 0.8196 -0.1380
vn -0.5724 0.8196 0.0237
vn -0.5738 0.7988 0.1807
vn -0.5604 0.7611 0.3264
vn -0.6505 0.7247 -0.2271
vn -0.6755 0.7342 -0.0684
vn -0.6829 0.7247 0.0920
vn -0.6736 0.6981 0.2427
vn -0.6499 0.6591 0.3784
vn -0.7249 0.6168 -0.3066
vn -0.7588 0.6322 -0.1565
vn -0.7748 0.6322 0.0011
vn -0.7717 0.6168 0.1550
vn -0.7522 0.5891 0.2953
vn -0.7795 0.5026 -0.3737
vn -0.8213 0.5196 -0.2355
vn -0.8463 0.5257 -0.0857
vn -0.8518 0.5196 0.0660
vn -0.8386 0.5026 0.2097
vn -0.8109 0.4776 0.3380
vn 0.0258 0.9925 0.1192
vn -0.0846 0.9777 0.1920
vn -0.2024 0.9420 0.2675
vn -0.3239 0.8821 0.3421
vn -0.4404 0.7988 0.4099
vn -0.5434 0.6981 0.4661
vn -0.6280 0.5891 0.5084
vn 0.0536 0.9674 0.2474
vn -0.0609 0.9420 0.3298
vn 0.0826 0.9205 0.3819
vn -0.1812 0.8933 0.4112
vn -0.0339 0.8821 0.4698
vn 0.1112 0.8506 0.5138
vn -0.3030 0.8196 0.4862
vn -0.1544 0.8196 0.5517
vn -0.0054 0.7988 0.6016
vn 0.1372 0.7611 0.6339
vn -0.4171 0.7247 0.5485
vn -0.2738 0.7342 0.6212
vn -0.1235 0.7247 0.6779
vn 0.0226 0.6981 0.7156
vn 0.1591 0.6591 0.7350
vn -0.5156 0.6168 0.5947
vn -0.3833 0.6322 0.6733
vn -0.2383 0.6322 0.7372
vn -0.0910 0.6168 0.7818
vn 0.0484 0.5891 0.8066
vn -0.5963 0.5026 0.6259
vn -0.4778 0.5196 0.7083
vn -0.3431 0.5257 0.7784
vn -0.2004 0.5196 0.8305
vn -0.0597 0.5026 0.8624
vn 0.0708 0.4776 0.8757
vn 0.1214 0.9925 0.0123
vn 0.1564 0.9777 0.1398
vn 0.1918 0.9420 0.2751
vn 0.2252 0.8821 0.4137
vn 0.2537 0.7988 0.5455
vn 0.2753 0.6981 0.6609
vn 0.2895 0.5891 0.7544
vn 0.2519 0.9674 0.0255
vn 0.2949 0.9420 0.1598
vn 0.3887 0.9205 0.0394
vn 0.3350 0.8933 0.2994
vn 0.4364 0.8821 0.1775
vn 0.5230 0.8506 0.0530
vn 0.3687 0.8196 0.4385
vn 0.4770 0.8196 0.3173
vn 0.5704 0.7988 0.1910
vn 0.6453 0.7611 0.0654
vn 0.3928 0.7247 0.5661
vn 0.5062 0.7342 0.4524
vn 0.6066 0.7247 0.3269
vn 0.6876 0.6981 0.1996
vn 0.7482 0.6591 0.0758
vn 0.4062 0.6168 0.6742
vn 0.5219 0.6322 0.5726
vn 0.6275 0.6322 0.4545
vn 0.7154 0.6168 0.3282
vn 0.7821 0.5891 0.2032
vn 0.4110 0.5026 0.7605
vn 0.5260 0.5196 0.6733
vn 0.6343 0.5257 0.5668
vn 0.7279 0.5196 0.4473
vn 0.8018 0.5026 0.3233
vn 0.8547 0.4776 0.2033
vn 0.1813 0.9777 -0.1056
vn 0.3209 0.9420 -0.0974
vn 0.4631 0.8821 -0.0863
vn 0.5972 0.7988 -0.0727
vn 0.7136 0.6981 -0.0576
vn 0.8069 0.5891 -0.0422
vn 0.2431 0.9420 -0.2311
vn 0.3883 0.8933 -0.2261
vn 0.3036 0.8821 -0.3601
vn 0.5309 0.8196 -0.2152
vn 0.4492 0.8196 -0.3556
vn 0.3580 0.7988 -0.4835
vn 0.6598 0.7247 -0.1986
vn 0.5867 0.7342 -0.3417
vn 0.4984 0.7247 -0.4758
vn 0.4023 0.6981 -0.5922
vn 0.7667 0.6168 -0.1780
vn 0.7059 0.6322 -0.3194
vn 0.6261 0.6322 -0.4563
vn 0.5332 0.6168 -0.5790
vn 0.4349 0.5891 -0.6810
vn 0.8503 0.5026 -0.1559
vn 0.8029 0.5196 -0.2922
vn 0.7351 0.5257 -0.4281
vn 0.6503 0.5196 -0.5541
vn 0.5552 0.5026 -0.6626
vn 0.4574 0.4776 -0.7501
vn 0.3102 0.3556 -0.8816
vn 0.2497 0.2494 -0.9356
vn 0.1818 0.3793 -0.9073
vn 0.1789 0.1289 -0.9754
vn 0.1091 0.2653 -0.9579
vn 0.1008 0.0000 -0.9949
vn 0.0288 0.1371 -0.9901
vn 0.0204 -0.1289 -0.9914
vn -0.0540 0.0023 -0.9985
vn -0.0570 -0.2494 -0.9667
vn -0.1335 -0.1294 -0.9825
vn -0.2048 -0.2496 -0.9464
vn 0.0389 0.3969 -0.9170
vn -0.0437 0.2753 -0.9603
vn -0.1151 0.4066 -0.9063
vn -0.1293 0.1407 -0.9816
vn -0.2032 0.2789 -0.9386
vn -0.2700 0.4066 -0.8728
vn -0.2116 0.0024 -0.9774
vn -0.2882 0.1407 -0.9472
vn -0.3573 0.2753 -0.8925
vn -0.4146 0.3969 -0.8189
vn -0.2847 -0.1294 -0.9498
vn -0.3637 0.0023 -0.9315
vn -0.4357 0.1371 -0.8896
vn -0.4955 0.2653 -0.8271
vn -0.5407 0.3793 -0.7508
vn -0.3479 -0.2494 -0.9037
vn -0.4286 -0.1289 -0.8943
vn -0.5032 0.0000 -0.8641
vn -0.5663 0.1289 -0.8141
vn -0.6143 0.2494 -0.7486
vn -0.6471 0.3555 -0.6744
vn -0.7426 0.3556 -0.5675
vn -0.8126 0.2494 -0.5266
vn -0.8067 0.3793 -0.4532
vn -0.8723 0.1289 -0.4715
vn -0.8773 0.2653 -0.3998
vn -0.9150 0.0000 -0.4033
vn -0.9328 0.1371 -0.3334
vn -0.9366 -0.1289 -0.3257
vn -0.9663 0.0023 -0.2571
vn -0.9370 -0.2494 -0.2445
vn -0.9757 -0.1294 -0.1766
vn -0.9634 -0.2496 -0.0976
vn -0.8601 0.3969 -0.3203
vn -0.9268 0.2753 -0.2551
vn -0.8975 0.4066 -0.1705
vn -0.9735 0.1407 -0.1803
vn -0.9554 0.2789 -0.0968
vn -0.9135 0.4066 -0.0129
vn -0.9949 0.0024 -0.1008
vn -0.9899 0.1407 -0.0186
vn -0.9592 0.2753 0.0640
vn -0.9069 0.3969 0.1413
vn -0.9913 -0.1294 -0.0227
vn -0.9983 0.0023 0.0581
vn -0.9807 0.1371 0.1395
vn -0.9397 0.2653 0.2157
vn -0.8812 0.3793 0.2822
vn -0.9670 -0.2494 0.0516
vn -0.9829 -0.1289 0.1312
vn -0.9774 0.0000 0.2116
vn -0.9492 0.1289 0.2870
vn -0.9018 0.2494 0.3529
vn -0.8414 0.3556 0.4070
vn -0.7692 0.3556 0.5309
vn -0.7520 0.2494 0.6102
vn -0.6803 0.3793 0.6271
vn -0.7180 0.1289 0.6839
vn -0.6514 0.2653 0.7109
vn -0.6663 0.0000 0.7456
vn -0.6053 0.1371 0.7841
vn -0.5992 -0.1289 0.7901
vn -0.5432 0.0023 0.8396
vn -0.5221 -0.2494 0.8156
vn -0.4695 -0.1294 0.8734
vn -0.3905 -0.2495 0.8861
vn -0.5705 0.3969 0.7190
vn -0.5291 0.2753 0.8026
vn -0.4396 0.4066 0.8009
vn -0.4723 0.1407 0.8701
vn -0.3873 0.2789 0.8787
vn -0.2946 0.4066 0.8648
vn -0.4033 0.0024 0.9150
vn -0.3236 0.1407 0.9357
vn -0.2355 0.2753 0.9320
vn -0.1459 0.3969 0.9062
vn -0.3279 -0.1294 0.9358
vn -0.2532 0.0023 0.9674
vn -0.1704 0.1371 0.9758
vn -0.0852 0.2653 0.9604
vn -0.0039 0.3793 0.9253
vn -0.2497 -0.2494 0.9356
vn -0.1789 -0.1289 0.9754
vn -0.1008 0.0000 0.9949
vn -0.0204 0.1289 0.9914
vn 0.0570 0.2494 0.9667
vn 0.1270 0.3556 0.9260
vn 0.2673 0.3556 0.8956
vn 0.3479 0.2494 0.9037
vn 0.3862 0.3793 0.8408
vn 0.4285 0.1289 0.8943
vn 0.4748 0.2653 0.8391
vn 0.5032 0.0000 0.8641
vn 0.5586 0.1371 0.8180
vn 0.5663 -0.1289 0.8141
vn 0.6306 0.0023 0.7761
vn 0.6143 -0.2494 0.7486
vn 0.6856 -0.1294 0.7164
vn 0.7220 -0.2495 0.6453
vn 0.5076 0.3969 0.7647
vn 0.5999 0.2753 0.7512
vn 0.6258 0.4066 0.6655
vn 0.6816 0.1407 0.7180
vn 0.7160 0.2789 0.6399
vn 0.7314 0.4066 0.5474
vn 0.7456 0.0024 0.6663
vn 0.7898 0.1407 0.5969
vn 0.8137 0.2753 0.5120
vn 0.8167 0.3969 0.4188
vn 0.7886 -0.1294 0.6011
vn 0.8418 0.0023 0.5398
vn 0.8754 0.1371 0.4635
vn 0.8870 0.2653 0.3778
vn 0.8788 0.3793 0.2896
vn 0.8127 -0.2494 0.5266
vn 0.8723 -0.1289 0.4715
vn 0.9150 0.0000 0.4033
vn 0.9366 0.1289 0.3257
vn 0.9370 0.2494 0.2445
vn 0.9199 0.3556 0.1653
vn 0.9344 0.3556 0.0226
vn 0.9670 0.2494 -0.0516
vn 0.9190 0.3793 -0.1075
vn 0.9829 0.1289 -0.1312
vn 0.9448 0.2653 -0.1922
vn 0.9774 0.0000 -0.2116
vn 0.9506 0.1371 -0.2785
vn 0.9492 -0.1289 -0.2870
vn 0.9330 0.0023 -0.3600
vn 0.9018 -0.2494 -0.3529
vn 0.8932 -0.1294 -0.4306
vn 0.8368 -0.2496 -0.4873
vn 0.8842 0.3969 -0.2464
vn 0.8998 0.2753 -0.3384
vn 0.8263 0.4066 -0.3895
vn 0.8935 0.1407 -0.4263
vn 0.8298 0.2789 -0.4833
vn 0.7466 0.4066 -0.5264
vn 0.8641 0.0024 -0.5032
vn 0.8118 0.1407 -0.5667
vn 0.7384 0.2753 -0.6156
vn 0.6507 0.3969 -0.6474
vn 0.8153 -0.1294 -0.5643
vn 0.7735 0.0023 -0.6338
vn 0.7114 0.1371 -0.6893
vn 0.6334 0.2653 -0.7269
vn 0.5470 0.3793 -0.7463
vn 0.7520 -0.2494 -0.6102
vn 0.7180 -0.1289 -0.6839
vn 0.6663 0.0000 -0.7456
vn 0.5992 0.1289 -0.7901
vn 0.5221 0.2494 -0.8156
vn 0.4415 0.3556 -0.8238
vn -0.7220 0.2495 -0.6453
vn -0.6856 0.1294 -0.7164
vn -0.6306 -0.0023 -0.7761
vn -0.5586 -0.1371 -0.8180
vn -0.4748 -0.2653 -0.8391
vn -0.3862 -0.3793 -0.8408
vn -0.7886 0.1294 -0.6011
vn -0.7456 -0.0024 -0.6663
vn -0.8418 -0.0023 -0.5398
vn -0.6816 -0.1407 -0.7181
vn -0.7898 -0.1407 -0.5969
vn -0.8754 -0.1371 -0.4635
vn -0.5999 -0.2753 -0.7512
vn -0.7160 -0.2789 -0.6399
vn -0.8137 -0.2753 -0.5120
vn -0.8870 -0.2653 -0.3778
vn -0.5076 -0.3969 -0.7647
vn -0.6258 -0.4066 -0.6655
vn -0.7314 -0.4066 -0.5474
vn -0.8167 -0.3969 -0.4188
vn -0.8788 -0.3793 -0.2896
vn -0.4110 -0.5026 -0.7605
vn -0.5260 -0.5196 -0.6733
vn -0.6343 -0.5257 -0.5668
vn -0.7279 -0.5196 -0.4473
vn -0.8018 -0.5026 -0.3233
vn -0.8547 -0.4776 -0.2033
vn -0.8368 0.2495 0.4873
vn -0.8932 0.1294 0.4306
vn -0.9330 -0.0023 0.3600
vn -0.9506 -0.1371 0.2785
vn -0.9448 -0.2653 0.1922
vn -0.9190 -0.3793 0.1075
vn -0.8153 0.1294 0.5643
vn -0.8641 -0.0024 0.5032
vn -0.7735 -0.0023 0.6338
vn -0.8936 -0.1407 0.4263
vn -0.8118 -0.1407 0.5667
vn -0.7114 -0.1371 0.6893
vn -0.8998 -0.2753 0.3384
vn -0.8298 -0.2789 0.4833
vn -0.7384 -0.2753 0.6156
vn -0.6334 -0.2653 0.7268
vn -0.8842 -0.3969 0.2464
vn -0.8263 -0.4066 0.3895
vn -0.7466 -0.4066 0.5265
vn -0.6507 -0.3969 0.6474
vn -0.5470 -0.3793 0.7463
vn -0.8503 -0.5026 0.1559
vn -0.8029 -0.5196 0.2922
vn -0.7351 -0.5257 0.4281
vn -0.6503 -0.5196 0.5541
vn -0.5552 -0.5026 0.6626
vn -0.4574 -0.4776 0.7501
vn 0.2048 0.2495 0.9464
vn 0.1335 0.1294 0.9825
vn 0.0540 -0.0023 0.9985
vn -0.0288 -0.1371 0.9901
vn -0.1091 -0.2653 0.9579
vn -0.1818 -0.3793 0.9073
vn 0.2847 0.1294 0.9498
vn 0.2116 -0.0024 0.9774
vn 0.3637 -0.0023 0.9315
vn 0.1293 -0.1407 0.9815
vn 0.2882 -0.1407 0.9472
vn 0.4357 -0.1371 0.8896
vn 0.0437 -0.2753 0.9603
vn 0.2032 -0.2789 0.9386
vn 0.3573 -0.2753 0.8925
vn 0.4955 -0.2653 0.8271
vn -0.0389 -0.3969 0.9170
vn 0.1151 -0.4066 0.9063
vn 0.2700 -0.4066 0.8728
vn 0.4146 -0.3969 0.8189
vn 0.5407 -0.3793 0.7508
vn -0.1145 -0.5026 0.8569
vn 0.0298 -0.5196 0.8538
vn 0.1799 -0.5257 0.8314
vn 0.3260 -0.5196 0.7897
vn 0.4586 -0.5026 0.7328
vn 0.5720 -0.4776 0.6668
vn 0.9634 0.2495 0.0976
vn 0.9757 0.1294 0.1766
vn 0.9663 -0.0023 0.2571
vn 0.9328 -0.1371 0.3334
vn 0.8773 -0.2653 0.3998
vn 0.8067 -0.3793 0.4532
vn 0.9913 0.1294 0.0227
vn 0.9949 -0.0024 0.1008
vn 0.9983 -0.0023 -0.0581
vn 0.9735 -0.1407 0.1803
vn 0.9899 -0.1407 0.0186
vn 0.9807 -0.1371 -0.1395
vn 0.9268 -0.2753 0.2551
vn 0.9554 -0.2789 0.0968
vn 0.9592 -0.2753 -0.0640
vn 0.9397 -0.2653 -0.2157
vn 0.8601 -0.3969 0.3203
vn 0.8975 -0.4066 0.1705
vn 0.9135 -0.4066 0.0129
vn 0.9069 -0.3969 -0.1413
vn 0.8812 -0.3793 -0.2822
vn 0.7796 -0.5026 0.3737
vn 0.8213 -0.5196 0.2355
vn 0.8463 -0.5257 0.0857
vn 0.8518 -0.5196 -0.0660
vn 0.8386 -0.5026 -0.2097
vn 0.8110 -0.4776 -0.3380
vn 0.3905 0.2495 -0.8861
vn 0.4695 0.1294 -0.8734
vn 0.5432 -0.0023 -0.8396
vn 0.6053 -0.1371 -0.7841
vn 0.6513 -0.2653 -0.7109
vn 0.6803 -0.3793 -0.6271
vn 0.3279 0.1294 -0.9358
vn 0.4033 -0.0024 -0.9150
vn 0.2532 -0.0023 -0.9674
vn 0.4723 -0.1407 -0.8701
vn 0.3236 -0.1407 -0.9357
vn 0.1704 -0.1371 -0.9758
vn 0.5291 -0.2753 -0.8026
vn 0.3873 -0.2789 -0.8787
vn 0.2355 -0.2753 -0.9320
vn 0.0852 -0.2653 -0.9604
vn 0.5705 -0.3969 -0.7190
vn 0.4396 -0.4066 -0.8009
vn 0.2946 -0.4066 -0.8648
vn 0.1459 -0.3969 -0.9062
vn 0.0039 -0.3793 -0.9253
vn 0.5963 -0.5026 -0.6259
vn 0.4778 -0.5196 -0.7083
vn 0.3431 -0.5257 -0.7784
vn 0.2004 -0.5196 -0.8305
vn 0.0597 -0.5026 -0.8624
vn -0.0708 -0.4776 -0.8757
vn -0.1762 -0.5530 -0.8143
vn -0.1591 -0.6591 -0.7350
vn -0.2895 -0.5891 -0.7544
vn -0.1372 -0.7611 -0.6339
vn -0.2753 -0.6981 -0.6609
vn -0.1112 -0.8506 -0.5138
vn -0.2537 -0.7988 -0.5455
vn -0.0826 -0.9205 -0.3819
vn -0.2252 -0.8821 -0.4137
vn -0.0536 -0.9674 -0.2474
vn -0.1918 -0.9420 -0.2751
vn -0.1564 -0.9777 -0.1398
vn -0.4062 -0.6168 -0.6742
vn -0.3928 -0.7247 -0.5661
vn -0.5219 -0.6322 -0.5726
vn -0.3687 -0.8196 -0.4385
vn -0.5062 -0.7342 -0.4524
vn -0.6275 -0.6322 -0.4545
vn -0.3350 -0.8933 -0.2994
vn -0.4770 -0.8196 -0.3173
vn -0.6066 -0.7247 -0.3269
vn -0.7154 -0.6168 -0.3282
vn -0.2949 -0.9420 -0.1598
vn -0.4364 -0.8821 -0.1775
vn -0.5704 -0.7988 -0.1910
vn -0.6876 -0.6981 -0.1996
vn -0.7821 -0.5891 -0.2032
vn -0.2519 -0.9674 -0.0255
vn -0.3887 -0.9205 -0.0394
vn -0.5230 -0.8506 -0.0530
vn -0.6453 -0.7611 -0.0654
vn -0.7482 -0.6591 -0.0758
vn -0.8289 -0.5530 -0.0840
vn -0.8069 -0.5891 0.0422
vn -0.7136 -0.6981 0.0576
vn -0.5972 -0.7988 0.0728
vn -0.4631 -0.8821 0.0863
vn -0.3209 -0.9420 0.0974
vn -0.1813 -0.9777 0.1056
vn -0.7667 -0.6168 0.1780
vn -0.6598 -0.7247 0.1986
vn -0.7059 -0.6322 0.3194
vn -0.5309 -0.8196 0.2152
vn -0.5867 -0.7342 0.3417
vn -0.6261 -0.6322 0.4563
vn -0.3883 -0.8933 0.2261
vn -0.4492 -0.8196 0.3556
vn -0.4984 -0.7247 0.4759
vn -0.5332 -0.6168 0.5790
vn -0.2431 -0.9420 0.2311
vn -0.3036 -0.8821 0.3601
vn -0.3580 -0.7988 0.4835
vn -0.4023 -0.6981 0.5922
vn -0.4349 -0.5891 0.6810
vn -0.1021 -0.9674 0.2317
vn -0.1576 -0.9205 0.3575
vn -0.2120 -0.8506 0.4811
vn -0.2616 -0.7611 0.5935
vn -0.3033 -0.6591 0.6881
vn -0.3360 -0.5530 0.7624
vn -0.2092 -0.5891 0.7805
vn -0.1657 -0.6981 0.6965
vn -0.1153 -0.7988 0.5904
vn -0.0610 -0.8821 0.4671
vn -0.0065 -0.9420 0.3353
vn 0.0444 -0.9777 0.2051
vn -0.0676 -0.6168 0.7842
vn -0.0150 -0.7247 0.6889
vn 0.0856 -0.6322 0.7700
vn 0.0406 -0.8196 0.5714
vn 0.1436 -0.7342 0.6636
vn 0.2405 -0.6322 0.7365
vn 0.0951 -0.8933 0.4392
vn 0.1994 -0.8196 0.5371
vn 0.2986 -0.7247 0.6210
vn 0.3858 -0.6168 0.6860
vn 0.1446 -0.9420 0.3026
vn 0.2487 -0.8821 0.4001
vn 0.3492 -0.7988 0.4899
vn 0.4389 -0.6981 0.5656
vn 0.5133 -0.5891 0.6241
vn 0.1888 -0.9674 0.1687
vn 0.2913 -0.9205 0.2604
vn 0.3920 -0.8506 0.3503
vn 0.4836 -0.7611 0.4321
vn 0.5607 -0.6591 0.5011
vn 0.6212 -0.5530 0.5552
vn -0.0484 -0.5891 -0.8066
vn 0.0910 -0.6168 -0.7818
vn 0.2383 -0.6322 -0.7372
vn 0.3833 -0.6322 -0.6733
vn 0.5156 -0.6168 -0.5947
vn 0.6280 -0.5891 -0.5084
vn -0.0226 -0.6981 -0.7156
vn 0.1235 -0.7247 -0.6779
vn 0.0054 -0.7988 -0.6016
vn 0.2738 -0.7342 -0.6212
vn 0.1544 -0.8196 -0.5517
vn 0.0339 -0.8821 -0.4698
vn 0.4171 -0.7247 -0.5485
vn 0.3030 -0.8196 -0.4862
vn 0.1812 -0.8933 -0.4112
vn 0.0609 -0.9420 -0.3298
vn 0.5434 -0.6981 -0.4661
vn 0.4404 -0.7988 -0.4099
vn 0.3239 -0.8821 -0.3421
vn 0.2024 -0.9420 -0.2675
vn 0.0846 -0.9777 -0.1920
vn 0.6499 -0.6591 -0.3784
vn 0.5604 -0.7611 -0.3264
vn 0.4543 -0.8506 -0.2646
vn 0.3376 -0.9205 -0.1966
vn 0.2188 -0.9674 -0.1274
vn 0.6776 -0.5891 0.4402
vn 0.6112 -0.6981 0.3728
vn 0.5259 -0.7988 0.2921
vn 0.4254 -0.8821 0.2023
vn 0.3169 -0.9420 0.1098
vn 0.2087 -0.9777 0.0211
vn 0.7249 -0.6168 0.3066
vn 0.6506 -0.7247 0.2271
vn 0.7588 -0.6322 0.1565
vn 0.5560 -0.8196 0.1380
vn 0.6755 -0.7342 0.0684
vn 0.7748 -0.6322 -0.0011
vn 0.4470 -0.8933 0.0453
vn 0.5724 -0.8196 -0.0237
vn 0.6829 -0.7247 -0.0920
vn 0.7717 -0.6168 -0.1550
vn 0.3325 -0.9420 -0.0440
vn 0.4573 -0.8821 -0.1129
vn 0.5738 -0.7988 -0.1807
vn 0.6736 -0.6981 -0.2427
vn 0.7522 -0.5891 -0.2953
s 1
f 1//1 2//2 3//3
f 4//4 5//5 6//6
f 1//1 3//3 7//7
f 1//1 7//7 8//8
f 1//1 8//8 9//9
f 4//4 6//6 10//10
f 11//11 12//12 13//13
f 14//14 15//15 16//16
f 17//17 18//18 19//19
f 20//20 21//21 22//22
f 4//4 10//10 23//23
f 11//11 13//13 24//24
f 14//14 16//16 25//25
f 17//17 19//19 26//26
f 20//20 22//22 27//27
f 28//28 29//29 30//30
f 31//31 32//32 33//33
f 34//34 35//35 36//36
f 37//37 38//38 39//39
f 40//40 41//41 42//42
f 43//43 44//44 45//45
f 46//46 47//47 43//43
f 48//48 49//49 46//46
f 50//50 51//51 48//48
f 52//52 53//53 50//50
f 54//54 55//55 52//52
f 42//42 56//56 54//54
f 43//43 47//47 44//44
f 47//47 57//57 44//44
f 46//46 49//49 47//47
f 49//49 58//58 47//47
f 47//47 58//58 57//57
f 58//58 59//59 57//57
f 48//48 51//51 49//49
f 51//51 60//60 49//49
f 49//49 60//60 58//58
f 60//60 61//61 58//58
f 58//58 61//61 59//59
f 61//61 62//62 59//59
f 50//50 53//53 51//51
f 53//53 63//63 51//51
f 51//51 63//63 60//60
f 63//63 64//64 60//60
f 60//60 64//64 61//61
f 64//64 65//65 61//61
f 61//61 65//65 62//62
f 65//65 66//66 62//62
f 52//52 55//55 53//53
f 55//55 67//67 53//53
f 53//53 67//67 63//63
f 67//67 68//68 63//63
f 63//63 68//68 64//64
f 68//68 69//69 64//64
f 64//64 69//69 65//65
f 69//69 70//70 65//65
f 65//65 70//70 66//66
f 70//70 71//71 66//66
f 54//54 56//56 55//55
f 56//56 72//72 55//55
f 55//55 72//72 67//67
f 72//72 73//73 67//67
f 67//67 73//73 68//68
f 73//73 74//74 68//68
f 68//68 74//74 69//69
f 74//74 75//75 69//69
f 69//69 75//75 70//70
f 75//75 76//76 70//70
f 70//70 76//76 71//71
f 76//76 39//39 71//71
f 42//42 41//41 56//56
f 41//41 77//77 56//56
f 56//56 77//77 72//72
f 77//77 78//78 72//72
f 72//72 78//78 73//73
f 78//78 79//79 73//73
f 73//73 79//79 74//74
f 79//79 80//80 74//74
f 74//74 80//80 75//75
f 80//80 81//81 75//75
f 75//75 81//81 76//76
f 81//81 82//82 76//76
f 76//76 82//82 39//39
f 82//82 37//37 39//39
f 44//44 83//83 45//45
f 57//57 84//84 44//44
f 59//59 85//85 57//57
f 62//62 86//86 59//59
f 66//66 87//87 62//62
f 71//71 88//88 66//66
f 39//39 89//89 71//71
f 44//44 84//84 83//83
f 84//84 90//90 83//83
f 57//57 85//85 84//84
f 85//85 91//91 84//84
f 84//84 91//91 90//90
f 91//91 92//92 90//90
f 59//59 86//86 85//85
f 86//86 93//93 85//85
f 85//85 93//93 91//91
f 93//93 94//94 91//91
f 91//91 94//94 92//92
f 94//94 95//95 92//92
f 62//62 87//87 86//86
f 87//87 96//96 86//86
f 86//86 96//96 93//93
f 96//96 97//97 93//93
f 93//93 97//97 94//94
f 97//97 98//98 94//94
f 94//94 98//98 95//95
f 98//98 99//99 95//95
f 66//66 88//88 87//87
f 88//88 100//100 87//87
f 87//87 100//100 96//96
f 100//100 101//101 96//96
f 96//96 101//101 97//97
f 101//101 102//102 97//97
f 97//97 102//102 98//98
f 102//102 103//103 98//98
f 98//98 103//103 99//99
f 103//103 104//104 99//99
f 71//71 89//89 88//88
f 89//89 105//105 88//88
f 88//88 105//105 100//100
f 105//105 106//106 100//100
f 100//100 106//106 101//101
f 106//106 107//107 101//101
f 101//101 107//107 102//102
f 107//107 108//108 102//102
f 102//102 108//108 103//103
f 108//108 109//109 103//103
f 103//103 109//109 104//104
f 109//109 36//36 104//104
f 39//39 38//38 89//89
f 38//38 110//110 89//89
f 89//89 110//110 105//105
f 110//110 111//111 105//105
f 105//105 111//111 106//106
f 111//111 112//112 106//106
f 106//106 112//112 107//107
f 112//112 113//113 107//107
f 107//107 113//113 108//108
f 113//113 114//114 108//108
f 108//108 114//114 109//109
f 114//114 115//115 109//109
f 109//109 115//115 36//36
f 115//115 34//34 36//36
f 83//83 116//116 45//45
f 90//90 117//117 83//83
f 92//92 118//118 90//90
f 95//95 119//119 92//92
f 99//99 120//120 95//95
f 104//104 121//121 99//99
f 36//36 122//122 104//104
f 83//83 117//117 116//116
f 117//117 123//123 116//116
f 90//90 118//118 117//117
f 118//118 124//124 117//117
f 117//117 124//124 123//123
f 124//124 125//125 123//123
f 92//92 119//119 118//118
f 119//119 126//126 118//118
f 118//118 126//126 124//124
f 126//126 127//127 124//124
f 124//124 127//127 125//125
f 127//127 128//128 125//125
f 95//95 120//120 119//119
f 120//120 129//129 119//119
f 119//119 129//129 126//126
f 129//129 130//130 126//126
f 126//126 130//130 127//127
f 130//130 131//131 127//127
f 127//127 131//131 128//128
f 131//131 132//132 128//128
f 99//99 121//121 120//120
f 121//121 133//133 120//120
f 120//120 133//133 129//129
f 133//133 134//134 129//129
f 129//129 134//134 130//130
f 134//134 135//135 130//130
f 130//130 135//135 131//131
f 135//135 136//136 131//131
f 131//131 136//136 132//132
f 136//136 137//137 132//132
f 104//104 122//122 121//121
f 122//122 138//138 121//121
f 121//121 138//138 133//133
f 138//138 139//139 133//133
f 133//133 139//139 134//134
f 139//139 140//140 134//134
f 134//134 140//140 135//135
f 140//140 141//141 135//135
f 135//135 141//141 136//136
f 141//141 142//142 136//136
f 136//136 142//142 137//137
f 142//142 33//33 137//137
f 36//36 35//35 122//122
f 35//35 143//143 122//122
f 122//122 143//143 138//138
f 143//143 144//144 138//138
f 138//138 144//144 139//139
f 144//144 145//145 139//139
f 139//139 145//145 140//140
f 145//145 146//146 140//140
f 140//140 146//146 141//141
f 146//146 147//147 141//141
f 141//141 147//147 142//142
f 147//147 148//148 142//142
f 142//142 148//148 33//33
f 148//148 31//31 33//33
f 116//116 149//149 45//45
f 123//123 150//150 116//116
f 125//125 151//151 123//123
f 128//128 152//152 125//125
f 132//132 153//153 128//128
f 137//137 154//154 132//132
f 33//33 155//155 137//137
f 116//116 150//150 149//149
f 150//150 156//156 149//149
f 123//123 151//151 150//150
f 151//151 157//157 150//150
f 150//150 157//157 156//156
f 157//157 158//158 156//156
f 125//125 152//152 151//151
f 152//152 159//159 151//151
f 151//151 159//159 157//157
f 159//159 160//160 157//157
f 157//157 160//160 158//158
f 160//160 161//161 158//158
f 128//128 153//153 152//152
f 153//153 162//162 152//152
f 152//152 162//162 159//159
f 162//162 163//163 159//159
f 159//159 163//163 160//160
f 163//163 164//164 160//160
f 160//160 164//164 161//161
f 164//164 165//165 161//161
f 132//132 154//154 153//153
f 154//154 166//166 153//153
f 153//153 166//166 162//162
f 166//166 167//167 162//162
f 162//162 167//167 163//163
f 167//167 168//168 163//163
f 163//163 168//168 164//164
f 168//168 169//169 164//164
f 164//164 169//169 165//165
f 169//169 170//170 165//165
f 137//137 155//155 154//154
f 155//155 171//171 154//154
f 154//154 171//171 166//166
f 171//171 172//172 166//166
f 166//166 172//172 167//167
f 172//172 173//173 167//167
f 167//167 173//173 168//168
f 173//173 174//174 168//168
f 168//168 174//174 169//169
f 174//174 175//175 169//169
f 169//169 175//175 170//170
f 175//175 30//30 170//170
f 33//33 32//32 155//155
f 32//32 176//176 155//155
f 155//155 176//176 171//171
f 176//176 177//177 171//171
f 171//171 177//177 172//172
f 177//177 178//178 172//172
f 172//172 178//178 173//173
f 178//178 179//179 173//173
f 173//173 179//179 174//174
f 179//179 180//180 174//174
f 174//174 180//180 175//175
f 180//180 181//181 175//175
f 175//175 181//181 30//30
f 181//181 28//28 30//30
f 149//149 43//43 45//45
f 156//156 182//182 149//149
f 158//158 183//183 156//156
f 161//161 184//184 158//158
f 165//165 185//185 161//161
f 170//170 186//186 165//165
f 30//30 187//187 170//170
f 149//149 182//182 43//43
f 182//182 46//46 43//43
f 156//156 183//183 182//182
f 183//183 188//188 182//182
f 182//182 188//188 46//46
f 188//188 48//48 46//46
f 158//158 184//184 183//183
f 184//184 189//189 183//183
f 183//183 189//189 188//188
f 189//189 190//190 188//188
f 188//188 190//190 48//48
f 190//190 50//50 48//48
f 161//161 185//185 184//184
f 185//185 191//191 184//184
f 184//184 191//191 189//189
f 191//191 192//192 189//189
f 189//189 192//192 190//190
f 192//192 193//193 190//190
f 190//190 193//193 50//50
f 193//193 52//52 50//50
f 165//165 186//186 185//185
f 186//186 194//194 185//185
f 185//185 194//194 191//191
f 194//194 195//195 191//191
f 191//191 195//195 192//192
f 195//195 196//196 192//192
f 192//192 196//196 193//193
f 196//196 197//197 193//193
f 193//193 197//197 52//52
f 197//197 54//54 52//52
f 170//170 187//187 186//186
f 187//187 198//198 186//186
f 186//186 198//198 194//194
f 198//198 199//199 194//194
f 194//194 199//199 195//195
f 199//199 200//200 195//195
f 195//195 200//200 196//196
f 200//200 201//201 196//196
f 196//196 201//201 197//197
f 201//201 202//202 197//197
f 197//197 202//202 54//54
f 202//202 42//42 54//54
f 30//30 29//29 187//187
f 29//29 203//203 187//187
f 187//187 203//203 198//198
f 203//203 204//204 198//198
f 198//198 204//204 199//199
f 204//204 205//205 199//199
f 199//199 205//205 200//200
f 205//205 206//206 200//200
f 200//200 206//206 201//201
f 206//206 207//207 201//201
f 201//201 207//207 202//202
f 207//207 208//208 202//202
f 202//202 208//208 42//42
f 208//208 40//40 42//42
f 209//209 41//41 40//40
f 210//210 211//211 209//209
f 212//212 213//213 210//210
f 214//214 215//215 212//212
f 216//216 217//217 214//214
f 218//218 219//219 216//216
f 27//27 220//220 218//218
f 209//209 211//211 41//41
f 211//211 77//77 41//41
f 210//210 213//213 211//211
f 213//213 221//221 211//211
f 211//211 221//221 77//77
f 221//221 78//78 77//77
f 212//212 215//215 213//213
f 215//215 222//222 213//213
f 213//213 222//222 221//221
f 222//222 223//223 221//221
f 221//221 223//223 78//78
f 223//223 79//79 78//78
f 214//214 217//217 215//215
f 217//217 224//224 215//215
f 215//215 224//224 222//222
f 224//224 225//225 222//222
f 222//222 225//225 223//223
f 225//225 226//226 223//223
f 223//223 226//226 79//79
f 226//226 80//80 79//79
f 216//216 219//219 217//217
f 219//219 227//227 217//217
f 217//217 227//227 224//224
f 227//227 228//228 224//224
f 224//224 228//228 225//225
f 228//228 229//229 225//225
f 225//225 229//229 226//226
f 229//229 230//230 226//226
f 226//226 230//230 80//80
f 230//230 81//81 80//80
f 218//218 220//220 219//219
f 220//220 231//231 219//219
f 219//219 231//231 227//227
f 231//231 232//232 227//227
f 227//227 232//232 228//228
f 232//232 233//233 228//228
f 228//228 233//233 229//229
f 233//233 234//234 229//229
f 229//229 234//234 230//230
f 234//234 235//235 230//230
f 230//230 235//235 81//81
f 235//235 82//82 81//81
f 27//27 22//22 220//220
f 22//22 236//236 220//220
f 220//220 236//236 231//231
f 236//236 237//237 231//231
f 231//231 237//237 232//232
f 237//237 238//238 232//232
f 232//232 238//238 233//233
f 238//238 239//239 233//233
f 233//233 239//239 234//234
f 239//239 240//240 234//234
f 234//234 240//240 235//235
f 240//240 241//241 235//235
f 235//235 241//241 82//82
f 241//241 37//37 82//82
f 242//242 38//38 37//37
f 243//243 244//244 242//242
f 245//245 246//246 243//243
f 247//247 248//248 245//245
f 249//249 250//250 247//247
f 251//251 252//252 249//249
f 26//26 253//253 251//251
f 242//242 244//244 38//38
f 244//244 110//110 38//38
f 243//243 246//246 244//244
f 246//246 254//254 244//244
f 244//244 254//254 110//110
f 254//254 111//111 110//110
f 245//245 248//248 246//246
f 248//248 255//255 246//246
f 246//246 255//255 254//254
f 255//255 256//256 254//254
f 254//254 256//256 111//111
f 256//256 112//112 111//111
f 247//247 250//250 248//248
f 250//250 257//257 248//248
f 248//248 257//257 255//255
f 257//257 258//258 255//255
f 255//255 258//258 256//256
f 258//258 259//259 256//256
f 256//256 259//259 112//112
f 259//259 113//113 112//112
f 249//249 252//252 250//250
f 252//252 260//260 250//250
f 250//250 260//260 257//257
f 260//260 261//261 257//257
f 257//257 261//261 258//258
f 261//261 262//262 258//258
f 258//258 262//262 259//259
f 262//262 263//263 259//259
f 259//259 263//263 113//113
f 263//263 114//114 113//113
f 251//251 253//253 252//252
f 253//253 264//264 252//252
f 252//252 264//264 260//260
f 264//264 265//265 260//260
f 260//260 265//265 261//261
f 265//265 266//266 261//261
f 261//261 266//266 262//262
f 266//266 267//267 262//262
f 262//262 267//267 263//263
f 267//267 268//268 263//263
f 263//263 268//268 114//114
f 268//268 115//115 114//114
f 26//26 19//19 253//253
f 19//19 269//269 253//253
f 253//253 269//269 264//264
f 269//269 270//270 264//264
f 264//264 270//270 265//265
f 270//270 271//271 265//265
f 265//265 271//271 266//266
f 271//271 272//272 266//266
f 266//266 272//272 267//267
f 272//272 273//273 267//267
f 267//267 273//273 268//268
f 273//273 274//274 268//268
f 268//268 274//274 115//115
f 274//274 34//34 115//115
f 275//275 35//35 34//34
f 276//276 277//277 275//275
f 278//278 279//279 276//276
f 280//280 281//281 278//278
f 282//282 283//283 280//280
f 284//284 285//285 282//282
f 25//25 286//286 284//284
f 275//275 277//277 35//35
f 277//277 143//143 35//35
f 276//276 279//279 277//277
f 279//279 287//287 277//277
f 277//277 287//287 143//143
f 287//287 144//144 143//143
f 278//278 281//281 279//279
f 281//281 288//288 279//279
f 279//279 288//288 287//287
f 288//288 289//289 287//287
f 287//287 289//289 144//144
f 289//289 145//145 144//144
f 280//280 283//283 281//281
f 283//283 290//290 281//281
f 281//281 290//290 288//288
f 290//290 291//291 288//288
f 288//288 291//291 289//289
f 291//291 292//292 289//289
f 289//289 292//292 145//145
f 292//292 146//146 145//145
f 282//282 285//285 283//283
f 285//285 293//293 283//283
f 283//283 293//293 290//290
f 293//293 294//294 290//290
f 290//290 294//294 291//291
f 294//294 295//295 291//291
f 291//291 295//295 292//292
f 295//295 296//296 292//292
f 292//292 296//296 146//146
f 296//296 147//147 146//146
f 284//284 286//286 285//285
f 286//286 297//297 285//285
f 285//285 297//297 293//293
f 297//297 298//298 293//293
f 293//293 298//298 294//294
f 298//298 299//299 294//294
f 294//294 299//299 295//295
f 299//299 300//300 295//295
f 295//295 300//300 296//296
f 300//300 301//301 296//296
f 296//296 301//301 147//147
f 301//301 148//148 147//147
f 25//25 16//16 286//286
f 16//16 302//302 286//286
f 286//286 302//302 297//297
f 302//302 303//303 297//297
f 297//297 303//303 298//298
f 303//303 304//304 298//298
f 298//298 304//304 299//299
f 304//304 305//305 299//299
f 299//299 305//305 300//300
f 305//305 306//306 300//300
f 300//300 306//306 301//301
f 306//306 307//307 301//301
f 301//301 307//307 148//148
f 307//307 31//31 148//148
f 308//308 32//32 31//31
f 309//309 310//310 308//308
f 311//311 312//312 309//309
f 313//313 314//314 311//311
f 315//315 316//316 313//313
f 317//317 318//318 315//315
f 24//24 319//319 317//317
f 308//308 310//310 32//32
f 310//310 176//176 32//32
f 309//309 312//312 310//310
f 312//312 320//320 310//310
f 310//310 320//320 176//176
f 320//320 177//177 176//176
f 311//311 314//314 312//312
f 314//314 321//321 312//312
f 312//312 321//321 320//320
f 321//321 322//322 320//320
f 320//320 322//322 177//177
f 322//322 178//178 177//177
f 313//313 316//316 314//314
f 316//316 323//323 314//314
f 314//314 323//323 321//321
f 323//323 324//324 321//321
f 321//321 324//324 322//322
f 324//324 325//325 322//322
f 322//322 325//325 178//178
f 325//325 179//179 178//178
f 315//315 318//318 316//316
f 318//318 326//326 316//316
f 316//316 326//326 323//323
f 326//326 327//327 323//323
f 323//323 327//327 324//324
f 327//327 328//328 324//324
f 324//324 328//328 325//325
f 328//328 329//329 325//325
f 325//325 329//329 179//179
f 329//329 180//180 179//179
f 317//317 319//319 318//318
f 319//319 330//330 318//318
f 318//318 330//330 326//326
f 330//330 331//331 326//326
f 326//326 331//331 327//327
f 331//331 332//332 327//327
f 327//327 332//332 328//328
f 332//332 333//333 328//328
f 328//328 333//333 329//329
f 333//333 334//334 329//329
f 329//329 334//334 180//180
f 334//334 181//181 180//180
f 24//24 13//13 319//319
f 13//13 335//335 319//319
f 319//319 335//335 330//330
f 335//335 336//336 330//330
f 330//330 336//336 331//331
f 336//336 337//337 331//331
f 331//331 337//337 332//332
f 337//337 338//338 332//332
f 332//332 338//338 333//333
f 338//338 339//339 333//333
f 333//333 339//339 334//334
f 339//339 340//340 334//334
f 334//334 340//340 181//181
f 340//340 28//28 181//181
f 341//341 29//29 28//28
f 342//342 343//343 341//341
f 344//344 345//345 342//342
f 346//346 347//347 344//344
f 348//348 349//349 346//346
f 350//350 351//351 348//348
f 23//23 352//352 350//350
f 341//341 343//343 29//29
f 343//343 203//203 29//29
f 342//342 345//345 343//343
f 345//345 353//353 343//343
f 343//343 353//353 203//203
f 353//353 204//204 203//203
f 344//344 347//347 345//345
f 347//347 354//354 345//345
f 345//345 354//354 353//353
f 354//354 355//355 353//353
f 353//353 355//355 204//204
f 355//355 205//205 204//204
f 346//346 349//349 347//347
f 349//349 356//356 347//347
f 347//347 356//356 354//354
f 356//356 357//357 354//354
f 354//354 357//357 355//355
f 357//357 358//358 355//355
f 355//355 358//358 205//205
f 358//358 206//206 205//205
f 348//348 351//351 349//349
f 351//351 359//359 349//349
f 349//349 359//359 356//356
f 359//359 360//360 356//356
f 356//356 360//360 357//357
f 360//360 361//361 357//357
f 357//357 361//361 358//358
f 361//361 362//362 358//358
f 358//358 362//362 206//206
f 362//362 207//207 206//206
f 350//350 352//352 351//351
f 352//352 363//363 351//351
f 351//351 363//363 359//359
f 363//363 364//364 359//359
f 359//359 364//364 360//360
f 364//364 365//365 360//360
f 360//360 365//365 361//361
f 365//365 366//366 361//361
f 361//361 366//366 362//362
f 366//366 367//367 362//362
f 362//362 367//367 207//207
f 367//367 208//208 207//207
f 23//23 10//10 352//352
f 10//10 368//368 352//352
f 352//352 368//368 363//363
f 368//368 369//369 363//363
f 363//363 369//369 364//364
f 369//369 370//370 364//364
f 364//364 370//370 365//365
f 370//370 371//371 365//365
f 365//365 371//371 366//366
f 371//371 372//372 366//366
f 366//366 372//372 367//367
f 372//372 373//373 367//367
f 367//367 373//373 208//208
f 373//373 40//40 208//208
f 241//241 242//242 37//37
f 240//240 374//374 241//241
f 239//239 375//375 240//240
f 238//238 376//376 239//239
f 237//237 377//377 238//238
f 236//236 378//378 237//237
f 22//22 379//379 236//236
f 241//241 374//374 242//242
f 374//374 243//243 242//242
f 240//240 375//375 374//374
f 375//375 380//380 374//374
f 374//374 380//380 243//243
f 380//380 245//245 243//243
f 239//239 376//376 375//375
f 376//376 381//381 375//375
f 375//375 381//381 380//380
f 381//381 382//382 380//380
f 380//380 382//382 245//245
f 382//382 247//247 245//245
f 238//238 377//377 376//376
f 377//377 383//383 376//376
f 376//376 383//383 381//381
f 383//383 384//384 381//381
f 381//381 384//384 382//382
f 384//384 385//385 382//382
f 382//382 385//385 247//247
f 385//385 249//249 247//247
f 237//237 378//378 377//377
f 378//378 386//386 377//377
f 377//377 386//386 383//383
f 386//386 387//387 383//383
f 383//383 387//387 384//384
f 387//387 388//388 384//384
f 384//384 388//388 385//385
f 388//388 389//389 385//385
f 385//385 389//389 249//249
f 389//389 251//251 249//249
f 236//236 379//379 378//378
f 379//379 390//390 378//378
f 378//378 390//390 386//386
f 390//390 391//391 386//386
f 386//386 391//391 387//387
f 391//391 392//392 387//387
f 387//387 392//392 388//388
f 392//392 393//393 388//388
f 388//388 393//393 389//389
f 393//393 394//394 389//389
f 389//389 394//394 251//251
f 394//394 26//26 251//251
f 22//22 21//21 379//379
f 21//21 395//395 379//379
f 379//379 395//395 390//390
f 395//395 396//396 390//390
f 390//390 396//396 391//391
f 396//396 397//397 391//391
f 391//391 397//397 392//392
f 397//397 398//398 392//392
f 392//392 398//398 393//393
f 398//398 399//399 393//393
f 393//393 399//399 394//394
f 399//399 400//400 394//394
f 394//394 400//400 26//26
f 400//400 17//17 26//26
f 274//274 275//275 34//34
f 273//273 401//401 274//274
f 272//272 402//402 273//273
f 271//271 403//403 272//272
f 270//270 404//404 271//271
f 269//269 405//405 270//270
f 19//19 406//406 269//269
f 274//274 401//401 275//275
f 401//401 276//276 275//275
f 273//273 402//402 401//401
f 402//402 407//407 401//401
f 401//401 407//407 276//276
f 407//407 278//278 276//276
f 272//272 403//403 402//402
f 403//403 408//408 402//402
f 402//402 408//408 407//407
f 408//408 409//409 407//407
f 407//407 409//409 278//278
f 409//409 280//280 278//278
f 271//271 404//404 403//403
f 404//404 410//410 403//403
f 403//403 410//410 408//408
f 410//410 411//411 408//408
f 408//408 411//411 409//409
f 411//411 412//412 409//409
f 409//409 412//412 280//280
f 412//412 282//282 280//280
f 270//270 405//405 404//404
f 405//405 413//413 404//404
f 404//404 413//413 410//410
f 413//413 414//414 410//410
f 410//410 414//414 411//411
f 414//414 415//415 411//411
f 411//411 415//415 412//412
f 415//415 416//416 412//412
f 412//412 416//416 282//282
f 416//416 284//284 282//282
f 269//269 406//406 405//405
f 406//406 417//417 405//405
f 405//405 417//417 413//413
f 417//417 418//418 413//413
f 413//413 418//418 414//414
f 418//418 419//419 414//414
f 414//414 419//419 415//415
f 419//419 420//420 415//415
f 415//415 420//420 416//416
f 420//420 421//421 416//416
f 416//416 421//421 284//284
f 421//421 25//25 284//284
f 19//19 18//18 406//406
f 18//18 422//422 406//406
f 406//406 422//422 417//417
f 422//422 423//423 417//417
f 417//417 423//423 418//418
f 423//423 424//424 418//418
f 418//418 424//424 419//419
f 424//424 425//425 419//419
f 419//419 425//425 420//420
f 425//425 426//426 420//420
f 420//420 426//426 421//421
f 426//426 427//427 421//421
f 421//421 427//427 25//25
f 427//427 14//14 25//25
f 307//307 308//308 31//31
f 306//306 428//428 307//307
f 305//305 429//429 306//306
f 304//304 430//430 305//305
f 303//303 431//431 304//304
f 302//302 432//432 303//303
f 16//16 433//433 302//302
f 307//307 428//428 308//308
f 428//428 309//309 308//308
f 306//306 429//429 428//428
f 429//429 434//434 428//428
f 428//428 434//434 309//309
f 434//434 311//311 309//309
f 305//305 430//430 429//429
f 430//430 435//435 429//429
f 429//429 435//435 434//434
f 435//435 436//436 434//434
f 434//434 436//436 311//311
f 436//436 313//313 311//311
f 304//304 431//431 430//430
f 431//431 437//437 430//430
f 430//430 437//437 435//435
f 437//437 438//438 435//435
f 435//435 438//438 436//436
f 438//438 439//439 436//436
f 436//436 439//439 313//313
f 439//439 315//315 313//313
f 303//303 432//432 431//431
f 432//432 440//440 431//431
f 431//431 440//440 437//437
f 440//440 441//441 437//437
f 437//437 441//441 438//438
f 441//441 442//442 438//438
f 438//438 442//442 439//439
f 442//442 443//443 439//439
f 439//439 443//443 315//315
f 443//443 317//317 315//315
f 302//302 433//433 432//432
f 433//433 444//444 432//432
f 432//432 444//444 440//440
f 444//444 445//445 440//440
f 440//440 445//445 441//441
f 445//445 446//446 441//441
f 441//441 446//446 442//442
f 446//446 447//447 442//442
f 442//442 447//447 443//443
f 447//447 448//448 443//443
f 443//443 448//448 317//317
f 448//448 24//24 317//317
f 16//16 15//15 433//433
f 15//15 449//449 433//433
f 433//433 449//449 444//444
f 449//449 450//450 444//444
f 444//444 450//450 445//445
f 450//450 451//451 445//445
f 445//445 451//451 446//446
f 451//451 452//452 446//446
f 446//446 452//452 447//447
f 452//452 453//453 447//447
f 447//447 453//453 448//448
f 453//453 454//454 448//448
f 448//448 454//454 24//24
f 454//454 11//11 24//24
f 340//340 341//341 28//28
f 339//339 455//455 340//340
f 338//338 456//456 339//339
f 337//337 457//457 338//338
f 336//336 458//458 337//337
f 335//335 459//459 336//336
f 13//13 460//460 335//335
f 340//340 455//455 341//341
f 455//455 342//342 341//341
f 339//339 456//456 455//455
f 456//456 461//461 455//455
f 455//455 461//461 342//342
f 461//461 344//344 342//342
f 338//338 457//457 456//456
f 457//457 462//462 456//456
f 456//456 462//462 461//461
f 462//462 463//463 461//461
f 461//461 463//463 344//344
f 463//463 346//346 344//344
f 337//337 458//458 457//457
f 458//458 464//464 457//457
f 457//457 464//464 462//462
f 464//464 465//465 462//462
f 462//462 465//465 463//463
f 465//465 466//466 463//463
f 463//463 466//466 346//346
f 466//466 348//348 346//346
f 336//336 459//459 458//458
f 459//459 467//467 458//458
f 458//458 467//467 464//464
f 467//467 468//468 464//464
f 464//464 468//468 465//465
f 468//468 469//469 465//465
f 465//465 469//469 466//466
f 469//469 470//470 466//466
f 466//466 470//470 348//348
f 470//470 350//350 348//348
f 335//335 460//460 459//459
f 460//460 471//471 459//459
f 459//459 471//471 467//467
f 471//471 472//472 467//467
f 467//467 472//472 468//468
f 472//472 473//473 468//468
f 468//468 473//473 469//469
f 473//473 474//474 469//469
f 469//469 474//474 470//470
f 474//474 475//475 470//470
f 470//470 475//475 350//350
f 475//475 23//23 350//350
f 13//13 12//12 460//460
f 12//12 476//476 460//460
f 460//460 476//476 471//471
f 476//476 477//477 471//471
f 471//471 477//477 472//472
f 477//477 478//478 472//472
f 472//472 478//478 473//473
f 478//478 479//479 473//473
f 473//473 479//479 474//474
f 479//479 480//480 474//474
f 474//474 480//480 475//475
f 480//480 481//481 475//475
f 475//475 481//481 23//23
f 481//481 4//4 23//23
f 373//373 209//209 40//40
f 372//372 482//482 373//373
f 371//371 483//483 372//372
f 370//370 484//484 371//371
f 369//369 485//485 370//370
f 368//368 486//486 369//369
f 10//10 487//487 368//368
f 373//373 482//482 209//209
f 482//482 210//210 209//209
f 372//372 483//483 482//482
f 483//483 488//488 482//482
f 482//482 488//488 210//210
f 488//488 212//212 210//210
f 371//371 484//484 483//483
f 484//484 489//489 483//483
f 483//483 489//489 488//488
f 489//489 490//490 488//488
f 488//488 490//490 212//212
f 490//490 214//214 212//212
f 370//370 485//485 484//484
f 485//485 491//491 484//484
f 484//484 491//491 489//489
f 491//491 492//492 489//489
f 489//489 492//492 490//490
f 492//492 493//493 490//490
f 490//490 493//493 214//214
f 493//493 216//216 214//214
f 369//369 486//486 485//485
f 486//486 494//494 485//485
f 485//485 494//494 491//491
f 494//494 495//495 491//491
f 491//491 495//495 492//492
f 495//495 496//496 492//492
f 492//492 496//496 493//493
f 496//496 497//497 493//493
f 493//493 497//497 216//216
f 497//497 218//218 216//216
f 368//368 487//487 486//486
f 487//487 498//498 486//486
f 486//486 498//498 494//494
f 498//498 499//499 494//494
f 494//494 499//499 495//495
f 499//499 500//500 495//495
f 495//495 500//500 496//496
f 500//500 501//501 496//496
f 496//496 501//501 497//497
f 501//501 502//502 497//497
f 497//497 502//502 218//218
f 502//502 27//27 218//218
f 10//10 6//6 487//487
f 6//6 503//503 487//487
f 487//487 503//503 498//498
f 503//503 504//504 498//498
f 498//498 504//504 499//499
f 504//504 505//505 499//499
f 499//499 505//505 500//500
f 505//505 506//506 500//500
f 500//500 506//506 501//501
f 506//506 507//507 501//501
f 501//501 507//507 502//502
f 507//507 508//508 502//502
f 502//502 508//508 27//27
f 508//508 20//20 27//27
f 509//509 21//21 20//20
f 510//510 511//511 509//509
f 512//512 513//513 510//510
f 514//514 515//515 512//512
f 516//516 517//517 514//514
f 518//518 519//519 516//516
f 9//9 520//520 518//518
f 509//509 511//511 21//21
f 511//511 395//395 21//21
f 510//510 513//513 511//511
f 513//513 521//521 511//511
f 511//511 521//521 395//395
f 521//521 396//396 395//395
f 512//512 515//515 513//513
f 515//515 522//522 513//513
f 513//513 522//522 521//521
f 522//522 523//523 521//521
f 521//521 523//523 396//396
f 523//523 397//397 396//396
f 514//514 517//517 515//515
f 517//517 524//524 515//515
f 515//515 524//524 522//522
f 524//524 525//525 522//522
f 522//522 525//525 523//523
f 525//525 526//526 523//523
f 523//523 526//526 397//397
f 526//526 398//398 397//397
f 516//516 519//519 517//517
f 519//519 527//527 517//517
f 517//517 527//527 524//524
f 527//527 528//528 524//524
f 524//524 528//528 525//525
f 528//528 529//529 525//525
f 525//525 529//529 526//526
f 529//529 530//530 526//526
f 526//526 530//530 398//398
f 530//530 399//399 398//398
f 518//518 520//520 519//519
f 520//520 531//531 519//519
f 519//519 531//531 527//527
f 531//531 532//532 527//527
f 527//527 532//532 528//528
f 532//532 533//533 528//528
f 528//528 533//533 529//529
f 533//533 534//534 529//529
f 529//529 534//534 530//530
f 534//534 535//535 530//530
f 530//530 535//535 399//399
f 535//535 400//400 399//399
f 9//9 8//8 520//520
f 8//8 536//536 520//520
f 520//520 536//536 531//531
f 536//536 537//537 531//531
f 531//531 537//537 532//532
f 537//537 538//538 532//532
f 532//532 538//538 533//533
f 538//538 539//539 533//533
f 533//533 539//539 534//534
f 539//539 540//540 534//534
f 534//534 540//540 535//535
f 540//540 541//541 535//535
f 535//535 541//541 400//400
f 541//541 17//17 400//400
f 541//541 18//18 17//17
f 540//540 542//542 541//541
f 539//539 543//543 540//540
f 538//538 544//544 539//539
f 537//537 545//545 538//538
f 536//536 546//546 537//537
f 8//8 547//547 536//536
f 541//541 542//542 18//18
f 542//542 422//422 18//18
f 540//540 543//543 542//542
f 543//543 548//548 542//542
f 542//542 548//548 422//422
f 548//548 423//423 422//422
f 539//539 544//544 543//543
f 544//544 549//549 543//543
f 543//543 549//549 548//548
f 549//549 550//550 548//548
f 548//548 550//550 423//423
f 550//550 424//424 423//423
f 538//538 545//545 544//544
f 545//545 551//551 544//544
f 544//544 551//551 549//549
f 551//551 552//552 549//549
f 549//549 552//552 550//550
f 552//552 553//553 550//550
f 550//550 553//553 424//424
f 553//553 425//425 424//424
f 537//537 546//546 545//545
f 546//546 554//554 545//545
f 545//545 554//554 551//551
f 554//554 555//555 551//551
f 551//551 555//555 552//552
f 555//555 556//556 552//552
f 552//552 556//556 553//553
f 556//556 557//557 553//553
f 553//553 557//557 425//425
f 557//557 426//426 425//425
f 536//536 547//547 546//546
f 547//547 558//558 546//546
f 546//546 558//558 554//554
f 558//558 559//559 554//554
f 554//554 559//559 555//555
f 559//559 560//560 555//555
f 555//555 560//560 556//556
f 560//560 561//561 556//556
f 556//556 561//561 557//557
f 561//561 562//562 557//557
f 557//557 562//562 426//426
f 562//562 427//427 426//426
f 8//8 7//7 547//547
f 7//7 563//563 547//547
f 547//547 563//563 558//558
f 563//563 564//564 558//558
f 558//558 564//564 559//559
f 564//564 565//565 559//559
f 559//559 565//565 560//560
f 565//565 566//566 560//560
f 560//560 566//566 561//561
f 566//566 567//567 561//561
f 561//561 567//567 562//562
f 567//567 568//568 562//562
f 562//562 568//568 427//427
f 568//568 14//14 427//427
f 568//568 15//15 14//14
f 567//567 569//569 568//568
f 566//566 570//570 567//567
f 565//565 571//571 566//566
f 564//564 572//572 565//565
f 563//563 573//573 564//564
f 7//7 574//574 563//563
f 568//568 569//569 15//15
f 569//569 449//449 15//15
f 567//567 570//570 569//569
f 570//570 575//575 569//569
f 569//569 575//575 449//449
f 575//575 450//450 449//449
f 566//566 571//571 570//570
f 571//571 576//576 570//570
f 570//570 576//576 575//575
f 576//576 577//577 575//575
f 575//575 577//577 450//450
f 577//577 451//451 450//450
f 565//565 572//572 571//571
f 572//572 578//578 571//571
f 571//571 578//578 576//576
f 578//578 579//579 576//576
f 576//576 579//579 577//577
f 579//579 580//580 577//577
f 577//577 580//580 451//451
f 580//580 452//452 451//451
f 564//564 573//573 572//572
f 573//573 581//581 572//572
f 572//572 581//581 578//578
f 581//581 582//582 578//578
f 578//578 582//582 579//579
f 582//582 583//583 579//579
f 579//579 583//583 580//580
f 583//583 584//584 580//580
f 580//580 584//584 452//452
f 584//584 453//453 452//452
f 563//563 574//574 573//573
f 574//574 585//585 573//573
f 573//573 585//585 581//581
f 585//585 586//586 581//581
f 581//581 586//586 582//582
f 586//586 587//587 582//582
f 582//582 587//587 583//583
f 587//587 588//588 583//583
f 583//583 588//588 584//584
f 588//588 589//589 584//584
f 584//584 589//589 453//453
f 589//589 454//454 453//453
f 7//7 3//3 574//574
f 3//3 590//590 574//574
f 574//574 590//590 585//585
f 590//590 591//591 585//585
f 585//585 591//591 586//586
f 591//591 592//592 586//586
f 586//586 592//592 587//587
f 592//592 593//593 587//587
f 587//587 593//593 588//588
f 593//593 594//594 588//588
f 588//588 594//594 589//589
f 594//594 595//595 589//589
f 589//589 595//595 454//454
f 595//595 11//11 454//454
f 508//508 509//509 20//20
f 507//507 596//596 508//508
f 506//506 597//597 507//507
f 505//505 598//598 506//506
f 504//504 599//599 505//505
f 503//503 600//600 504//504
f 6//6 601//601 503//503
f 508//508 596//596 509//509
f 596//596 510//510 509//509
f 507//507 597//597 596//596
f 597//597 602//602 596//596
f 596//596 602//602 510//510
f 602//602 512//512 510//510
f 506//506 598//598 597//597
f 598//598 603//603 597//597
f 597//597 603//603 602//602
f 603//603 604//604 602//602
f 602//602 604//604 512//512
f 604//604 514//514 512//512
f 505//505 599//599 598//598
f 599//599 605//605 598//598
f 598//598 605//605 603//603
f 605//605 606//606 603//603
f 603//603 606//606 604//604
f 606//606 607//607 604//604
f 604//604 607//607 514//514
f 607//607 516//516 514//514
f 504//504 600//600 599//599
f 600//600 608//608 599//599
f 599//599 608//608 605//605
f 608//608 609//609 605//605
f 605//605 609//609 606//606
f 609//609 610//610 606//606
f 606//606 610//610 607//607
f 610//610 611//611 607//607
f 607//607 611//611 516//516
f 611//611 518//518 516//516
f 503//503 601//601 600//600
f 601//601 612//612 600//600
f 600//600 612//612 608//608
f 612//612 613//613 608//608
f 608//608 613//613 609//609
f 613//613 614//614 609//609
f 609//609 614//614 610//610
f 614//614 615//615 610//610
f 610//610 615//615 611//611
f 615//615 616//616 611//611
f 611//611 616//616 518//518
f 616//616 9//9 518//518
f 6//6 5//5 601//601
f 5//5 617//617 601//601
f 601//601 617//617 612//612
f 617//617 618//618 612//612
f 612//612 618//618 613//613
f 618//618 619//619 613//613
f 613//613 619//619 614//614
f 619//619 620//620 614//614
f 614//614 620//620 615//615
f 620//620 621//621 615//615
f 615//615 621//621 616//616
f 621//621 2//2 616//616
f 616//616 2//2 9//9
f 2//2 1//1 9//9
f 595//595 12//12 11//11
f 594//594 622//622 595//595
f 593//593 623//623 594//594
f 592//592 624//624 593//593
f 591//591 625//625 592//592
f 590//590 626//626 591//591
f 3//3 627//627 590//590
f 595//595 622//622 12//12
f 622//622 476//476 12//12
f 594//594 623//623 622//622
f 623//623 628//628 622//622
f 622//622 628//628 476//476
f 628//628 477//477 476//476
f 593//593 624//624 623//623
f 624//624 629//629 623//623
f 623//623 629//629 628//628
f 629//629 630//630 628//628
f 628//628 630//630 477//477
f 630//630 478//478 477//477
f 592//592 625//625 624//624
f 625//625 631//631 624//624
f 624//624 631//631 629//629
f 631//631 632//632 629//629
f 629//629 632//632 630//630
f 632//632 633//633 630//630
f 630//630 633//633 478//478
f 633//633 479//479 478//478
f 591//591 626//626 625//625
f 626//626 634//634 625//625
f 625//625 634//634 631//631
f 634//634 635//635 631//631
f 631//631 635//635 632//632
f 635//635 636//636 632//632
f 632//632 636//636 633//633
f 636//636 637//637 633//633
f 633//633 637//637 479//479
f 637//637 480//480 479//479
f 590//590 627//627 626//626
f 627//627 638//638 626//626
f 626//626 638//638 634//634
f 638//638 639//639 634//634
f 634//634 639//639 635//635
f 639//639 640//640 635//635
f 635//635 640//640 636//636
f 640//640 641//641 636//636
f 636//636 641//641 637//637
f 641//641 642//642 637//637
f 637//637 642//642 480//480
f 642//642 481//481 480//480
f 3//3 2//2 627//627
f 2//2 621//621 627//627
f 627//627 621//621 638//638
f 621//621 620//620 638//638
f 638//638 620//620 639//639
f 620//620 619//619 639//639
f 639//639 619//619 640//640
f 619//619 618//618 640//640
f 640//640 618//618 641//641
f 618//618 617//617 641//641
f 641//641 617//617 642//642
f 617//617 5//5 642//642
f 642//642 5//5 481//481
f 5//5 4//4 481//481
