o shortblock

v 130.0 165.0  65.0
v  82.0 165.0 225.0
v 240.0 165.0 272.0
v 290.0 165.0 114.0

v 290.0   0.0 114.0
v 290.0 165.0 114.0
v 240.0 165.0 272.0
v 240.0   0.0 272.0

v 130.0   0.0  65.0
v 130.0 165.0  65.0
v 290.0 165.0 114.0
v 290.0   0.0 114.0

v  82.0   0.0 225.0
v  82.0 165.0 225.0
v 130.0 165.0  65.0
v 130.0   0.0  65.0

v 240.0   0.0 272.0
v 240.0 165.0 272.0
v  82.0 165.0 225.0
v  82.0   0.0 225.0

f 1 3 2
f 1 4 3

f 5 7 6
f 5 8 7

f 9 11 10    
f 9 12 11   

f 13 15 14    
f 13 16 15    

f 17 19 18    
f 17 20 19