# Blender v2.79 (sub 0) OBJ File: 'amici_prism.blend'
# www.blender.org
o Plane.001
v -10.000000 0.000000 10.719140
v 10.000000 0.000000 10.719140
v -10.000000 0.000000 -9.280860
v 10.000000 0.000000 -9.280860
vn 0.0000 1.0000 0.0000
s off
f 2//1 3//1 1//1
f 2//1 4//1 3//1
