# Blender v2.79 (sub 0) OBJ File: 'm3.blend'
# www.blender.org
o Door-Window_Trim_Plane.028
v 1.583383 0.365814 1.075914
v 1.584272 0.368209 0.979504
v 1.585499 0.361037 1.075884
v 1.583079 0.364985 1.109235
v 1.581267 0.370591 1.075884
v 1.582088 0.373140 0.979504
v 1.586457 0.363277 0.979504
v 1.584991 0.360673 1.109118
v 1.581169 0.369303 1.109118
v 1.592513 0.390263 0.091192
v 1.596043 0.399706 -0.289204
v 1.594698 0.385331 0.091192
v 1.588984 0.380823 0.471413
v 1.590329 0.395194 0.091192
v 1.593859 0.404638 -0.289204
v 1.598228 0.394774 -0.289204
v 1.591169 0.375892 0.471413
v 1.586800 0.385755 0.471412
v 1.601659 0.414775 -0.896233
v 1.601969 0.415633 -0.930778
v 1.603776 0.409996 -0.896182
v 1.600763 0.412354 -0.798703
v 1.599543 0.419553 -0.896182
v 1.600056 0.419944 -0.930573
v 1.603880 0.411313 -0.930573
v 1.602948 0.407423 -0.798703
v 1.598579 0.417286 -0.798703
v -1.590527 0.365813 1.075914
v -1.588411 0.370591 1.075884
v -1.590224 0.364985 1.109235
v -1.592643 0.361037 1.075884
v -1.591417 0.368208 0.979504
v -1.589232 0.373140 0.979504
v -1.588313 0.369303 1.109118
v -1.592136 0.360673 1.109118
v -1.593601 0.363277 0.979504
v -1.599658 0.390263 0.091193
v -1.597474 0.395194 0.091193
v -1.596129 0.380823 0.471413
v -1.601842 0.385331 0.091193
v -1.603188 0.399706 -0.289204
v -1.601004 0.404638 -0.289204
v -1.593944 0.385755 0.471413
v -1.598313 0.375892 0.471413
v -1.605372 0.394774 -0.289204
v -1.608804 0.414775 -0.896233
v -1.606687 0.419552 -0.896182
v -1.607908 0.412354 -0.798703
v -1.610920 0.409996 -0.896182
v -1.609114 0.415633 -0.930778
v -1.607201 0.419944 -0.930573
v -1.605723 0.417286 -0.798703
v -1.610092 0.407423 -0.798703
v -1.611024 0.411313 -0.930573
v 1.603622 0.412001 -0.933429
v 1.601986 0.415710 -0.933839
v 1.600346 0.419398 -0.933429
v 1.584709 0.361247 1.110771
v 1.583069 0.364940 1.111005
v 1.581432 0.368645 1.110771
v 1.588641 0.358345 0.979504
v 1.587615 0.356261 1.075826
v 1.586904 0.356364 1.108884
v 1.596394 0.422218 -0.798703
v 1.597426 0.424327 -0.896079
v 1.598143 0.424249 -0.930163
v 1.605132 0.402491 -0.798703
v 1.605892 0.405216 -0.896080
v 1.605789 0.406987 -0.930163
v 1.579904 0.378071 0.979504
v 1.579151 0.375370 1.075826
v 1.579259 0.373624 1.108884
v 1.588226 0.368020 0.788502
v 1.586042 0.372951 0.788502
v 1.583858 0.377883 0.788502
v 1.591675 0.409569 -0.289204
v 1.588145 0.400126 0.091193
v 1.584615 0.390687 0.471413
v 1.600412 0.389843 -0.289204
v 1.596882 0.380399 0.091193
v 1.593353 0.370960 0.471413
v 1.601173 0.402659 -0.606820
v 1.598989 0.407591 -0.606820
v 1.596804 0.412522 -0.606820
v -1.610767 0.412001 -0.933429
v -1.609131 0.415710 -0.933839
v -1.607490 0.419398 -0.933429
v -1.591853 0.361247 1.110771
v -1.590213 0.364940 1.111005
v -1.588576 0.368645 1.110771
v -1.595786 0.358345 0.979504
v -1.594759 0.356261 1.075826
v -1.594048 0.356364 1.108884
v -1.603539 0.422218 -0.798703
v -1.604571 0.424327 -0.896079
v -1.605287 0.424249 -0.930163
v -1.612277 0.402491 -0.798703
v -1.613036 0.405216 -0.896079
v -1.612933 0.406987 -0.930163
v -1.587048 0.378071 0.979504
v -1.586296 0.375370 1.075826
v -1.586403 0.373624 1.108884
v -1.595371 0.368020 0.788502
v -1.593186 0.372951 0.788502
v -1.591002 0.377883 0.788502
v -1.598819 0.409569 -0.289204
v -1.595289 0.400126 0.091193
v -1.591760 0.390686 0.471413
v -1.607557 0.389843 -0.289204
v -1.604027 0.380399 0.091193
v -1.600497 0.370960 0.471413
v -1.608318 0.402659 -0.606820
v -1.606133 0.407591 -0.606820
v -1.603949 0.412522 -0.606820
v 1.604980 0.408888 -0.932198
v 1.598974 0.422450 -0.932199
v 1.586078 0.358183 1.110069
v 1.580071 0.371745 1.110069
v 1.590411 0.363088 0.788502
v 1.581673 0.382814 0.788502
v 1.594620 0.417454 -0.606820
v 1.603358 0.397728 -0.606820
v -1.612125 0.408888 -0.932198
v -1.606118 0.422450 -0.932198
v -1.593222 0.358183 1.110069
v -1.587216 0.371745 1.110069
v -1.597555 0.363088 0.788502
v -1.588818 0.382814 0.788502
v -1.601764 0.417454 -0.606820
v -1.610502 0.397728 -0.606820
v 1.592524 0.369863 1.076098
v 1.593414 0.372257 0.979689
v 1.594640 0.365086 1.076069
v 1.592221 0.369034 1.109405
v 1.590408 0.374641 1.076069
v 1.591230 0.377189 0.979689
v 1.595598 0.367326 0.979689
v 1.594133 0.364722 1.109288
v 1.590310 0.373352 1.109288
v 1.601655 0.394312 0.091378
v 1.605185 0.403755 -0.289018
v 1.603839 0.389380 0.091378
v 1.598126 0.384872 0.471598
v 1.599470 0.399243 0.091378
v 1.603001 0.408687 -0.289018
v 1.607370 0.398824 -0.289018
v 1.600310 0.379941 0.471598
v 1.595941 0.389804 0.471598
v 1.610801 0.418825 -0.896049
v 1.611111 0.419683 -0.930611
v 1.612917 0.414046 -0.895998
v 1.609905 0.416403 -0.798518
v 1.608685 0.423601 -0.895998
v 1.609199 0.423993 -0.930406
v 1.613021 0.415362 -0.930406
v 1.612089 0.411472 -0.798518
v 1.607720 0.421335 -0.798518
v -1.599669 0.369863 1.076098
v -1.597553 0.374641 1.076069
v -1.599365 0.369034 1.109405
v -1.601785 0.365086 1.076069
v -1.600558 0.372257 0.979689
v -1.598374 0.377189 0.979689
v -1.597455 0.373352 1.109288
v -1.601277 0.364722 1.109288
v -1.602743 0.367326 0.979689
v -1.608799 0.394312 0.091378
v -1.606615 0.399243 0.091378
v -1.605270 0.384872 0.471598
v -1.610984 0.389380 0.091378
v -1.612329 0.403755 -0.289018
v -1.610145 0.408687 -0.289018
v -1.603086 0.389804 0.471598
v -1.607455 0.379941 0.471598
v -1.614514 0.398824 -0.289018
v -1.617946 0.418825 -0.896049
v -1.615829 0.423601 -0.895998
v -1.617049 0.416403 -0.798518
v -1.620061 0.414046 -0.895998
v -1.618256 0.419683 -0.930611
v -1.616343 0.423993 -0.930406
v -1.614865 0.421335 -0.798518
v -1.619234 0.411472 -0.798518
v -1.620166 0.415362 -0.930406
v 1.612764 0.416050 -0.933278
v 1.611128 0.419759 -0.933688
v 1.609488 0.423447 -0.933278
v 1.593851 0.365296 1.110927
v 1.592211 0.368989 1.111161
v 1.590574 0.372694 1.110927
v 1.597783 0.362394 0.979689
v 1.596757 0.360310 1.076010
v 1.596046 0.360413 1.109054
v 1.605536 0.426267 -0.798518
v 1.606568 0.428376 -0.895896
v 1.607285 0.428298 -0.929996
v 1.614274 0.406540 -0.798518
v 1.615032 0.409266 -0.895896
v 1.614930 0.411037 -0.929996
v 1.589045 0.382121 0.979689
v 1.588292 0.379420 1.076010
v 1.588400 0.377674 1.109054
v 1.597368 0.372069 0.788687
v 1.595184 0.377000 0.788687
v 1.592999 0.381932 0.788687
v 1.600816 0.413618 -0.289018
v 1.597286 0.404175 0.091378
v 1.593757 0.394736 0.471598
v 1.609554 0.393892 -0.289018
v 1.606024 0.384449 0.091378
v 1.602495 0.375009 0.471598
v 1.610315 0.406708 -0.606635
v 1.608130 0.411640 -0.606635
v 1.605946 0.416571 -0.606635
v -1.619909 0.416050 -0.933278
v -1.618273 0.419759 -0.933688
v -1.616632 0.423447 -0.933278
v -1.600995 0.365296 1.110927
v -1.599355 0.368989 1.111161
v -1.597719 0.372694 1.110927
v -1.604927 0.362394 0.979689
v -1.603901 0.360310 1.076010
v -1.603190 0.360413 1.109054
v -1.612680 0.426267 -0.798518
v -1.613712 0.428376 -0.895896
v -1.614429 0.428298 -0.929996
v -1.621418 0.406540 -0.798518
v -1.622177 0.409266 -0.895896
v -1.622075 0.411037 -0.929996
v -1.596190 0.382121 0.979689
v -1.595437 0.379420 1.076010
v -1.595545 0.377674 1.109054
v -1.604512 0.372069 0.788687
v -1.602328 0.377000 0.788687
v -1.600144 0.381932 0.788687
v -1.607961 0.413618 -0.289018
v -1.604431 0.404175 0.091378
v -1.600901 0.394736 0.471598
v -1.616698 0.393892 -0.289018
v -1.613168 0.384449 0.091378
v -1.609639 0.375009 0.471598
v -1.617459 0.406708 -0.606635
v -1.615275 0.411640 -0.606635
v -1.613091 0.416571 -0.606635
v 1.614123 0.412937 -0.932047
v 1.608116 0.426499 -0.932047
v 1.595220 0.362232 1.110224
v 1.589213 0.375794 1.110224
v 1.599552 0.367137 0.788687
v 1.590815 0.386863 0.788687
v 1.603761 0.421503 -0.606635
v 1.612499 0.401777 -0.606635
v -1.621267 0.412937 -0.932047
v -1.615260 0.426499 -0.932047
v -1.602364 0.362232 1.110224
v -1.596357 0.375794 1.110224
v -1.606697 0.367137 0.788687
v -1.597959 0.386863 0.788687
v -1.610906 0.421503 -0.606635
v -1.619644 0.401777 -0.606635
vn -0.9141 -0.4050 -0.0185
vn -0.9142 -0.4049 -0.0185
vn -0.9142 -0.4048 -0.0185
vn -0.9142 -0.4048 -0.0184
vn -0.9142 -0.4050 -0.0155
vn -0.9142 -0.4049 -0.0155
vn -0.9142 -0.4049 -0.0184
vn -0.9141 -0.4050 -0.0184
vn -0.9142 -0.4050 -0.0157
vn -0.9142 -0.4049 -0.0154
vn -0.9142 -0.4050 -0.0185
vn -0.9142 -0.4048 -0.0183
vn -0.9142 -0.4050 -0.0151
vn -0.9143 -0.4046 -0.0183
vn -0.9142 -0.4049 -0.0152
vn -0.9141 -0.4050 -0.0183
vn -0.9142 -0.4049 -0.0151
vn 0.9142 -0.4049 -0.0185
vn 0.9141 -0.4050 -0.0184
vn 0.9142 -0.4049 -0.0157
vn 0.9142 -0.4049 -0.0184
vn 0.9142 -0.4050 -0.0155
vn 0.9142 -0.4049 -0.0155
vn 0.9141 -0.4050 -0.0185
vn 0.9142 -0.4050 -0.0185
vn 0.9141 -0.4050 -0.0183
vn 0.9142 -0.4048 -0.0183
vn 0.9142 -0.4049 -0.0151
vn 0.9142 -0.4049 -0.0153
vn 0.9142 -0.4050 -0.0151
vn 0.9140 -0.4052 -0.0183
vn 0.9142 0.4049 0.0185
vn 0.9142 0.4050 0.0185
vn 0.9141 0.4050 0.0185
vn 0.9142 0.4049 0.0184
vn 0.9143 0.4048 0.0155
vn 0.9142 0.4048 0.0184
vn 0.9142 0.4050 0.0156
vn 0.9141 0.4050 0.0184
vn 0.9141 0.4051 0.0184
vn 0.9142 0.4049 0.0156
vn 0.9143 0.4048 0.0156
vn 0.9142 0.4049 0.0183
vn 0.9142 0.4049 0.0152
vn 0.9141 0.4050 0.0183
vn 0.9141 0.4052 0.0183
vn 0.9142 0.4049 0.0151
vn -0.9142 0.4049 0.0185
vn -0.9141 0.4050 0.0184
vn -0.9143 0.4048 0.0156
vn -0.9142 0.4050 0.0184
vn -0.9142 0.4049 0.0155
vn -0.9142 0.4048 0.0184
vn -0.9142 0.4050 0.0157
vn -0.9142 0.4050 0.0155
vn -0.9142 0.4050 0.0185
vn -0.9141 0.4050 0.0185
vn -0.9142 0.4048 0.0183
vn -0.9143 0.4047 0.0183
vn -0.9142 0.4050 0.0152
vn -0.9142 0.4050 0.0151
vn -0.9142 0.4048 0.0185
vn -0.9142 0.4049 0.0183
vn -0.9141 0.4050 0.0183
vn -0.9142 0.4049 0.0151
vn 0.1510 -0.3058 -0.9400
vn 0.0545 -0.0860 -0.9948
vn -0.0272 0.0986 -0.9948
vn -0.1268 0.3214 -0.9384
vn 0.0690 -0.1935 0.9787
vn 0.0092 -0.0592 0.9982
vn -0.0376 0.0464 0.9982
vn -0.0962 0.1796 0.9790
vn 0.4052 -0.9140 -0.0189
vn 0.4051 -0.9141 -0.0155
vn 0.4048 -0.9144 0.0116
vn 0.1925 -0.4677 0.8626
vn -0.4052 0.9140 0.0189
vn -0.4051 0.9141 0.0155
vn -0.4047 0.9144 -0.0106
vn -0.2805 0.6595 -0.6974
vn 0.4053 -0.9139 -0.0224
vn 0.4054 -0.9128 -0.0487
vn 0.2963 -0.6396 -0.7093
vn -0.4053 0.9139 0.0225
vn -0.4054 0.9128 0.0496
vn -0.2163 0.4521 0.8653
vn -0.1510 -0.3058 -0.9401
vn -0.0546 -0.0860 -0.9948
vn 0.0272 0.0986 -0.9948
vn 0.1269 0.3214 -0.9384
vn -0.0690 -0.1934 0.9787
vn -0.0092 -0.0592 0.9982
vn 0.0376 0.0464 0.9982
vn 0.0962 0.1795 0.9791
vn -0.4052 -0.9140 -0.0189
vn -0.4052 -0.9141 -0.0155
vn -0.4047 -0.9144 0.0116
vn -0.1933 -0.4724 0.8599
vn 0.4052 0.9140 0.0189
vn 0.4052 0.9141 0.0155
vn 0.4047 0.9144 -0.0106
vn 0.2807 0.6625 -0.6945
vn -0.4053 -0.9139 -0.0224
vn -0.4053 -0.9129 -0.0486
vn -0.2941 -0.6375 -0.7121
vn 0.4053 0.9139 0.0225
vn 0.4053 0.9128 0.0495
vn 0.2134 0.4484 0.8680
vn -0.4053 -0.9140 -0.0189
vn -0.9142 -0.4049 -0.0157
vn -0.9142 -0.4049 -0.0183
vn -0.9142 -0.4050 -0.0152
vn -0.9141 -0.4051 -0.0183
vn 0.9142 -0.4050 -0.0184
vn 0.9142 -0.4049 -0.0154
vn 0.9142 -0.4048 -0.0184
vn 0.9142 -0.4048 -0.0185
vn 0.9143 -0.4047 -0.0183
vn 0.9142 -0.4049 -0.0183
vn 0.9142 0.4048 0.0185
vn 0.9142 0.4050 0.0157
vn 0.9142 0.4050 0.0155
vn 0.9142 0.4049 0.0155
vn 0.9142 0.4048 0.0183
vn 0.9142 0.4050 0.0152
vn 0.9143 0.4047 0.0183
vn -0.9142 0.4050 0.0156
vn -0.9141 0.4051 0.0184
vn -0.9142 0.4049 0.0156
vn -0.9142 0.4049 0.0184
vn -0.9143 0.4049 0.0151
vn -0.9141 0.4052 0.0183
vn -0.9142 0.4049 0.0152
vn 0.1510 -0.3058 -0.9401
vn 0.0546 -0.0860 -0.9948
vn -0.0271 0.0985 -0.9948
vn 0.0690 -0.1934 0.9787
vn -0.0376 0.0465 0.9982
vn -0.0962 0.1795 0.9791
vn 0.4052 -0.9141 -0.0155
vn 0.4047 -0.9144 0.0116
vn 0.1933 -0.4724 0.8599
vn -0.4052 0.9141 0.0155
vn -0.2807 0.6625 -0.6945
vn 0.4053 -0.9140 -0.0189
vn 0.4054 -0.9139 -0.0224
vn 0.4053 -0.9129 -0.0486
vn 0.2941 -0.6375 -0.7121
vn -0.4053 0.9128 0.0495
vn -0.2134 0.4484 0.8680
vn -0.1510 -0.3059 -0.9400
vn 0.1268 0.3215 -0.9384
vn -0.0690 -0.1935 0.9787
vn 0.0376 0.0465 0.9982
vn 0.0962 0.1796 0.9790
vn -0.4051 -0.9141 -0.0155
vn -0.4048 -0.9144 0.0116
vn -0.1925 -0.4677 0.8627
vn 0.4051 0.9141 0.0155
vn 0.2806 0.6594 -0.6975
vn -0.4054 -0.9129 -0.0487
vn -0.2963 -0.6396 -0.7093
vn 0.4054 0.9128 0.0496
vn 0.2163 0.4521 0.8653
vn 0.4053 0.9140 0.0189
s off
f 5//1 2//1 1//1
f 6//2 74//2 2//2
f 71//1 6//1 5//1
f 70//2 75//2 6//2
f 1//1 7//1 3//1
f 3//3 61//3 62//3
f 2//2 73//2 7//2
f 7//2 119//2 61//2
f 1//4 8//4 4//4
f 4//5 58//5 59//5
f 3//4 63//4 8//4
f 8//6 117//6 58//6
f 1//7 9//7 5//7
f 5//8 72//8 71//8
f 4//9 60//9 9//9
f 9//10 118//10 72//10
f 14//2 11//2 10//2
f 15//2 83//2 11//2
f 77//2 15//2 14//2
f 76//2 84//2 15//2
f 10//11 16//11 12//11
f 12//11 79//11 80//11
f 11//2 82//2 16//2
f 16//2 122//2 79//2
f 12//2 13//2 10//2
f 17//2 74//2 13//2
f 80//2 17//2 12//2
f 81//1 73//1 17//1
f 10//2 18//2 14//2
f 14//2 78//2 77//2
f 13//2 75//2 18//2
f 18//2 120//2 78//2
f 19//12 24//12 20//12
f 20//13 57//13 56//13
f 23//14 66//14 24//14
f 24//15 116//15 57//15
f 19//16 25//16 21//16
f 21//16 69//16 68//16
f 20//17 55//17 25//17
f 25//17 115//17 69//17
f 21//1 22//1 19//1
f 26//2 83//2 22//2
f 68//1 26//1 21//1
f 67//1 82//1 26//1
f 19//2 27//2 23//2
f 23//3 64//3 65//3
f 22//2 84//2 27//2
f 27//2 121//2 64//2
f 32//18 29//18 28//18
f 33//18 101//18 29//18
f 104//18 33//18 32//18
f 105//18 100//18 33//18
f 28//19 34//19 30//19
f 30//20 90//20 89//20
f 29//19 102//19 34//19
f 34//20 126//20 90//20
f 28//21 35//21 31//21
f 31//21 93//21 92//21
f 30//22 88//22 35//22
f 35//23 125//23 93//23
f 28//18 36//18 32//18
f 32//18 103//18 104//18
f 31//18 91//18 36//18
f 36//18 127//18 103//18
f 41//18 38//18 37//18
f 42//18 107//18 38//18
f 113//18 42//18 41//18
f 114//18 106//18 42//18
f 37//18 43//18 39//18
f 39//24 105//24 104//24
f 38//18 108//18 43//18
f 43//18 128//18 105//18
f 39//18 40//18 37//18
f 44//24 110//24 40//24
f 104//24 44//24 39//24
f 103//18 111//18 44//18
f 37//18 45//18 41//18
f 41//18 112//18 113//18
f 40//25 109//25 45//25
f 45//18 130//18 112//18
f 46//26 51//26 47//26
f 47//27 96//27 95//27
f 50//28 87//28 51//28
f 51//29 124//29 96//29
f 46//18 52//18 48//18
f 48//18 114//18 113//18
f 47//18 94//18 52//18
f 52//24 129//24 114//24
f 48//18 49//18 46//18
f 53//24 98//24 49//24
f 113//24 53//24 48//24
f 112//18 97//18 53//18
f 46//26 54//26 50//26
f 50//30 85//30 86//30
f 49//31 99//31 54//31
f 54//28 123//28 85//28
f 132//32 135//32 131//32
f 204//32 136//32 132//32
f 136//33 201//33 135//33
f 205//34 200//34 136//34
f 131//33 137//33 132//33
f 133//32 191//32 137//32
f 132//32 203//32 204//32
f 137//32 249//32 203//32
f 131//35 138//35 133//35
f 134//36 188//36 138//36
f 133//37 193//37 192//37
f 138//38 247//38 193//38
f 131//39 139//39 134//39
f 135//40 202//40 139//40
f 134//41 190//41 189//41
f 139//42 248//42 190//42
f 141//32 144//32 140//32
f 213//32 145//32 141//32
f 145//32 207//32 144//32
f 214//32 206//32 145//32
f 140//33 146//33 141//33
f 142//32 209//32 146//32
f 141//34 212//34 213//34
f 146//32 252//32 212//32
f 143//34 142//34 140//34
f 204//32 147//32 143//32
f 147//32 210//32 142//32
f 203//32 211//32 147//32
f 140//32 148//32 143//32
f 144//32 208//32 148//32
f 143//32 205//32 204//32
f 148//34 250//34 205//34
f 149//43 154//43 153//43
f 150//44 187//44 154//44
f 153//43 196//43 195//43
f 154//44 246//44 196//44
f 149//45 155//45 150//45
f 151//46 199//46 155//46
f 150//47 185//47 186//47
f 155//44 245//44 185//44
f 152//32 151//32 149//32
f 213//32 156//32 152//32
f 156//34 198//34 151//34
f 212//32 197//32 156//32
f 149//32 157//32 152//32
f 153//32 194//32 157//32
f 152//32 214//32 213//32
f 157//32 251//32 214//32
f 159//48 162//48 158//48
f 231//48 163//48 159//48
f 163//48 234//48 162//48
f 230//48 235//48 163//48
f 158//49 164//49 159//49
f 160//50 220//50 164//50
f 159//51 232//51 231//51
f 164//52 256//52 232//52
f 158//53 165//53 160//53
f 161//53 223//53 165//53
f 160//54 218//54 219//54
f 165//55 255//55 218//55
f 158//48 166//48 161//48
f 162//48 233//48 166//48
f 161//48 221//48 222//48
f 166//48 257//48 221//48
f 168//56 171//56 167//56
f 237//56 172//56 168//56
f 172//48 243//48 171//48
f 236//48 244//48 172//48
f 167//48 173//48 168//48
f 169//48 235//48 173//48
f 168//48 238//48 237//48
f 173//57 258//57 238//57
f 170//48 169//48 167//48
f 240//57 174//57 170//57
f 174//48 234//48 169//48
f 241//57 233//57 174//57
f 167//48 175//48 170//48
f 171//48 242//48 175//48
f 170//48 239//48 240//48
f 175//48 260//48 239//48
f 176//58 181//58 180//58
f 177//59 226//59 181//59
f 180//60 217//60 216//60
f 181//61 254//61 217//61
f 176//48 182//48 177//48
f 178//57 244//57 182//57
f 177//62 224//62 225//62
f 182//57 259//57 224//57
f 179//48 178//48 176//48
f 228//57 183//57 179//57
f 183//48 243//48 178//48
f 227//48 242//48 183//48
f 176//63 184//63 179//63
f 180//60 215//60 184//60
f 179//64 229//64 228//64
f 184//65 253//65 229//65
f 55//66 245//66 115//66
f 55//67 186//67 185//67
f 56//68 187//68 186//68
f 57//69 246//69 187//69
f 58//70 247//70 188//70
f 58//71 189//71 59//71
f 59//72 190//72 60//72
f 118//73 190//73 248//73
f 119//74 191//74 61//74
f 61//75 192//75 62//75
f 62//76 193//76 63//76
f 117//77 193//77 247//77
f 64//78 251//78 194//78
f 65//79 194//79 195//79
f 66//80 195//80 196//80
f 66//81 246//81 116//81
f 67//74 252//74 122//74
f 68//82 197//82 67//82
f 69//83 198//83 68//83
f 69//84 245//84 199//84
f 120//78 200//78 250//78
f 70//85 201//85 200//85
f 71//86 202//86 201//86
f 118//87 202//87 72//87
f 121//78 206//78 251//78
f 76//78 207//78 206//78
f 77//78 208//78 207//78
f 78//78 250//78 208//78
f 122//74 209//74 79//74
f 79//74 210//74 80//74
f 80//74 211//74 81//74
f 81//74 249//74 119//74
f 85//88 253//88 215//88
f 85//89 216//89 86//89
f 86//90 217//90 87//90
f 124//91 217//91 254//91
f 88//92 255//92 125//92
f 88//93 219//93 218//93
f 90//94 219//94 89//94
f 126//95 220//95 90//95
f 127//96 221//96 257//96
f 91//97 222//97 221//97
f 92//98 223//98 222//98
f 125//99 223//99 93//99
f 94//100 259//100 129//100
f 95//101 224//101 94//101
f 96//102 225//102 95//102
f 96//103 254//103 226//103
f 97//96 260//96 227//96
f 98//104 227//104 228//104
f 99//105 228//105 229//105
f 99//106 253//106 123//106
f 128//100 230//100 100//100
f 100//107 231//107 101//107
f 101//108 232//108 102//108
f 126//109 232//109 256//109
f 129//100 236//100 106//100
f 106//100 237//100 107//100
f 107//100 238//100 108//100
f 108//100 258//100 128//100
f 130//96 239//96 260//96
f 109//110 240//110 239//110
f 110//96 241//96 240//96
f 111//96 257//96 241//96
f 5//2 6//2 2//2
f 6//2 75//2 74//2
f 71//2 70//2 6//2
f 70//2 120//2 75//2
f 1//2 2//2 7//2
f 3//2 7//2 61//2
f 2//2 74//2 73//2
f 7//2 73//2 119//2
f 1//7 3//7 8//7
f 4//5 8//5 58//5
f 3//7 62//7 63//7
f 8//6 63//6 117//6
f 1//8 4//8 9//8
f 5//8 9//8 72//8
f 4//6 59//6 60//6
f 9//111 60//111 118//111
f 14//2 15//2 11//2
f 15//2 84//2 83//2
f 77//2 76//2 15//2
f 76//2 121//2 84//2
f 10//11 11//11 16//11
f 12//11 16//11 79//11
f 11//1 83//1 82//1
f 16//2 82//2 122//2
f 12//2 17//2 13//2
f 17//2 73//2 74//2
f 80//2 81//2 17//2
f 81//2 119//2 73//2
f 10//2 13//2 18//2
f 14//2 18//2 78//2
f 13//1 74//1 75//1
f 18//2 75//2 120//2
f 19//112 23//112 24//112
f 20//113 24//113 57//113
f 23//112 65//112 66//112
f 24//15 66//15 116//15
f 19//114 20//114 25//114
f 21//114 25//114 69//114
f 20//17 56//17 55//17
f 25//13 55//13 115//13
f 21//2 26//2 22//2
f 26//1 82//1 83//1
f 68//1 67//1 26//1
f 67//2 122//2 82//2
f 19//2 22//2 27//2
f 23//2 27//2 64//2
f 22//2 83//2 84//2
f 27//2 84//2 121//2
f 32//18 33//18 29//18
f 33//18 100//18 101//18
f 104//18 105//18 33//18
f 105//18 128//18 100//18
f 28//21 29//21 34//21
f 30//20 34//20 90//20
f 29//115 101//115 102//115
f 34//116 102//116 126//116
f 28//117 30//117 35//117
f 31//117 35//117 93//117
f 30//20 89//20 88//20
f 35//23 88//23 125//23
f 28//18 31//18 36//18
f 32//18 36//18 103//18
f 31//118 92//118 91//118
f 36//18 91//18 127//18
f 41//18 42//18 38//18
f 42//25 106//25 107//25
f 113//18 114//18 42//18
f 114//24 129//24 106//24
f 37//18 38//18 43//18
f 39//24 43//24 105//24
f 38//24 107//24 108//24
f 43//18 108//18 128//18
f 39//18 44//18 40//18
f 44//18 111//18 110//18
f 104//18 103//18 44//18
f 103//18 127//18 111//18
f 37//118 40//118 45//118
f 41//18 45//18 112//18
f 40//25 110//25 109//25
f 45//18 109//18 130//18
f 46//27 50//27 51//27
f 47//119 51//119 96//119
f 50//28 86//28 87//28
f 51//28 87//28 124//28
f 46//18 47//18 52//18
f 48//18 52//18 114//18
f 47//118 95//118 94//118
f 52//18 94//18 129//18
f 48//24 53//24 49//24
f 53//18 97//18 98//18
f 113//18 112//18 53//18
f 112//18 130//18 97//18
f 46//26 49//26 54//26
f 50//28 54//28 85//28
f 49//120 98//120 99//120
f 54//28 99//28 123//28
f 132//32 136//32 135//32
f 204//32 205//32 136//32
f 136//32 200//32 201//32
f 205//32 250//32 200//32
f 131//32 133//32 137//32
f 133//121 192//121 191//121
f 132//32 137//32 203//32
f 137//32 191//32 249//32
f 131//37 134//37 138//37
f 134//122 189//122 188//122
f 133//37 138//37 193//37
f 138//123 188//123 247//123
f 131//35 135//35 139//35
f 135//39 201//39 202//39
f 134//38 139//38 190//38
f 139//124 202//124 248//124
f 141//32 145//32 144//32
f 213//32 214//32 145//32
f 145//33 206//33 207//33
f 214//32 251//32 206//32
f 140//32 142//32 146//32
f 142//33 210//33 209//33
f 141//32 146//32 212//32
f 146//32 209//32 252//32
f 143//32 147//32 142//32
f 204//34 203//34 147//34
f 147//34 211//34 210//34
f 203//32 249//32 211//32
f 140//32 144//32 148//32
f 144//32 207//32 208//32
f 143//32 148//32 205//32
f 148//32 208//32 250//32
f 149//125 150//125 154//125
f 150//126 186//126 187//126
f 153//127 154//127 196//127
f 154//44 187//44 246//44
f 149//43 151//43 155//43
f 151//45 198//45 199//45
f 150//126 155//126 185//126
f 155//47 199//47 245//47
f 152//32 156//32 151//32
f 213//34 212//34 156//34
f 156//33 197//33 198//33
f 212//32 252//32 197//32
f 149//121 153//121 157//121
f 153//32 195//32 194//32
f 152//32 157//32 214//32
f 157//32 194//32 251//32
f 159//57 163//57 162//57
f 231//48 230//48 163//48
f 163//57 235//57 234//57
f 230//48 258//48 235//48
f 158//51 160//51 164//51
f 160//128 219//128 220//128
f 159//129 164//129 232//129
f 164//130 220//130 256//130
f 158//131 161//131 165//131
f 161//131 222//131 223//131
f 160//52 165//52 218//52
f 165//128 223//128 255//128
f 158//57 162//57 166//57
f 162//48 234//48 233//48
f 161//48 166//48 221//48
f 166//48 233//48 257//48
f 168//48 172//48 171//48
f 237//48 236//48 172//48
f 172//48 244//48 243//48
f 236//57 259//57 244//57
f 167//57 169//57 173//57
f 169//57 234//57 235//57
f 168//48 173//48 238//48
f 173//48 235//48 258//48
f 170//48 174//48 169//48
f 240//48 241//48 174//48
f 174//48 233//48 234//48
f 241//48 257//48 233//48
f 167//48 171//48 175//48
f 171//48 243//48 242//48
f 170//56 175//56 239//56
f 175//48 242//48 260//48
f 176//63 177//63 181//63
f 177//58 225//58 226//58
f 180//132 181//132 217//132
f 181//60 226//60 254//60
f 176//48 178//48 182//48
f 178//48 243//48 244//48
f 177//48 182//48 224//48
f 182//48 244//48 259//48
f 179//48 183//48 178//48
f 228//48 227//48 183//48
f 183//48 242//48 243//48
f 227//48 260//48 242//48
f 176//64 180//64 184//64
f 180//65 216//65 215//65
f 179//133 184//133 229//133
f 184//134 215//134 253//134
f 55//135 185//135 245//135
f 55//136 56//136 186//136
f 56//137 57//137 187//137
f 57//69 116//69 246//69
f 58//138 117//138 247//138
f 58//71 188//71 189//71
f 59//139 189//139 190//139
f 118//140 60//140 190//140
f 119//74 249//74 191//74
f 61//141 191//141 192//141
f 62//142 192//142 193//142
f 117//143 63//143 193//143
f 64//78 121//78 251//78
f 65//144 64//144 194//144
f 66//80 65//80 195//80
f 66//145 196//145 246//145
f 67//146 197//146 252//146
f 68//147 198//147 197//147
f 69//148 199//148 198//148
f 69//149 115//149 245//149
f 120//78 70//78 200//78
f 70//85 71//85 201//85
f 71//150 72//150 202//150
f 118//151 248//151 202//151
f 121//78 76//78 206//78
f 76//78 77//78 207//78
f 77//78 78//78 208//78
f 78//78 120//78 250//78
f 122//74 252//74 209//74
f 79//146 209//146 210//146
f 80//74 210//74 211//74
f 81//74 211//74 249//74
f 85//152 123//152 253//152
f 85//89 215//89 216//89
f 86//90 216//90 217//90
f 124//153 87//153 217//153
f 88//154 218//154 255//154
f 88//93 89//93 219//93
f 90//155 220//155 219//155
f 126//156 256//156 220//156
f 127//96 91//96 221//96
f 91//157 92//157 222//157
f 92//158 93//158 223//158
f 125//159 255//159 223//159
f 94//100 224//100 259//100
f 95//160 225//160 224//160
f 96//102 226//102 225//102
f 96//161 124//161 254//161
f 97//96 130//96 260//96
f 98//104 97//104 227//104
f 99//162 98//162 228//162
f 99//163 229//163 253//163
f 128//100 258//100 230//100
f 100//107 230//107 231//107
f 101//164 231//164 232//164
f 126//165 102//165 232//165
f 129//100 259//100 236//100
f 106//166 236//166 237//166
f 107//100 237//100 238//100
f 108//100 238//100 258//100
f 130//96 109//96 239//96
f 109//96 110//96 240//96
f 110//96 111//96 241//96
f 111//96 127//96 257//96
