# Blender v2.79 (sub 0) OBJ File: 'm3.blend'
# www.blender.org
o Grid_Lights_Bottom_2_Plane.060
v 16.752359 -1.197790 -19.512604
v 18.732361 -1.197790 -19.512604
v 16.752359 0.516940 -20.502605
v 18.732359 0.516940 -20.502605
v 12.792358 -1.197791 -19.512606
v 14.772359 -1.197790 -19.512606
v 12.792358 0.516940 -20.502605
v 14.772359 0.516940 -20.502605
v 8.832358 -1.197791 -19.512606
v 10.812358 -1.197791 -19.512606
v 8.832358 0.516940 -20.502607
v 10.812358 0.516940 -20.502605
v 4.872357 -1.197791 -19.512606
v 6.852358 -1.197791 -19.512606
v 4.872357 0.516939 -20.502607
v 6.852358 0.516939 -20.502607
v 0.912357 -1.197791 -19.512608
v 2.892357 -1.197791 -19.512606
v 0.912357 0.516939 -20.502607
v 2.892357 0.516939 -20.502607
v -3.047644 -1.197791 -19.512608
v -1.067644 -1.197791 -19.512608
v -3.047644 0.516939 -20.502609
v -1.067644 0.516939 -20.502607
v -7.007647 -1.197791 -19.512608
v -5.027645 -1.197791 -19.512608
v -7.007647 0.516939 -20.502609
v -5.027645 0.516939 -20.502609
v -10.967648 -1.197791 -19.512609
v -8.987646 -1.197791 -19.512608
v -10.967648 0.516939 -20.502609
v -8.987646 0.516939 -20.502609
v -14.927645 -1.197792 -19.512609
v -12.947645 -1.197792 -19.512609
v -14.927645 0.516939 -20.502609
v -12.947645 0.516939 -20.502609
v -18.887648 -1.197792 -19.512609
v -16.907644 -1.197792 -19.512609
v -18.887648 0.516938 -20.502611
v -16.907644 0.516939 -20.502611
v 16.752354 -1.197766 19.512608
v 18.732353 -1.197766 19.512608
v 16.752354 0.516966 20.502605
v 18.732353 0.516966 20.502605
v 12.792353 -1.197766 19.512606
v 14.772353 -1.197766 19.512606
v 12.792353 0.516966 20.502605
v 14.772352 0.516966 20.502605
v 8.832353 -1.197766 19.512606
v 10.812352 -1.197766 19.512606
v 8.832353 0.516966 20.502604
v 10.812352 0.516966 20.502605
v 4.872352 -1.197766 19.512606
v 6.852352 -1.197766 19.512606
v 4.872352 0.516966 20.502604
v 6.852352 0.516966 20.502604
v 0.912350 -1.197766 19.512604
v 2.892351 -1.197766 19.512606
v 0.912350 0.516965 20.502604
v 2.892351 0.516966 20.502604
v -3.047651 -1.197766 19.512604
v -1.067652 -1.197766 19.512604
v -3.047651 0.516965 20.502602
v -1.067652 0.516965 20.502604
v -7.007654 -1.197767 19.512604
v -5.027653 -1.197767 19.512604
v -7.007654 0.516965 20.502602
v -5.027653 0.516965 20.502602
v -10.967655 -1.197767 19.512602
v -8.987654 -1.197767 19.512604
v -10.967655 0.516965 20.502602
v -8.987654 0.516965 20.502602
v -14.927652 -1.197767 19.512602
v -12.947653 -1.197767 19.512602
v -14.927652 0.516965 20.502602
v -12.947653 0.516965 20.502602
v -18.887655 -1.197767 19.512602
v -16.907652 -1.197767 19.512602
v -18.887655 0.516965 20.502600
v -16.907652 0.516965 20.502600
vn 0.0000 -0.5000 -0.8660
vn 0.0000 -0.5000 0.8660
s off
f 1//1 4//1 2//1
f 5//1 8//1 6//1
f 9//1 12//1 10//1
f 13//1 16//1 14//1
f 17//1 20//1 18//1
f 21//1 24//1 22//1
f 25//1 28//1 26//1
f 29//1 32//1 30//1
f 33//1 36//1 34//1
f 37//1 40//1 38//1
f 44//2 41//2 42//2
f 48//2 45//2 46//2
f 52//2 49//2 50//2
f 56//2 53//2 54//2
f 60//2 57//2 58//2
f 64//2 61//2 62//2
f 68//2 65//2 66//2
f 72//2 69//2 70//2
f 76//2 73//2 74//2
f 80//2 77//2 78//2
f 1//1 3//1 4//1
f 5//1 7//1 8//1
f 9//1 11//1 12//1
f 13//1 15//1 16//1
f 17//1 19//1 20//1
f 21//1 23//1 24//1
f 25//1 27//1 28//1
f 29//1 31//1 32//1
f 33//1 35//1 36//1
f 37//1 39//1 40//1
f 44//2 43//2 41//2
f 48//2 47//2 45//2
f 52//2 51//2 49//2
f 56//2 55//2 53//2
f 60//2 59//2 57//2
f 64//2 63//2 61//2
f 68//2 67//2 65//2
f 72//2 71//2 69//2
f 76//2 75//2 73//2
f 80//2 79//2 77//2
