# Blender v2.79 (sub 0) OBJ File: 'm3.blend'
# www.blender.org
o Grid_Lights_Bottom_1_Plane.059
v 19.052982 -1.334533 15.624496
v 19.052982 -1.334533 17.604498
v 20.042984 0.380196 15.624496
v 20.042984 0.380196 17.604498
v 19.052982 -1.334534 11.664496
v 19.052982 -1.334533 13.644497
v 20.042984 0.380196 11.664496
v 20.042984 0.380196 13.644497
v 19.052984 -1.334534 7.704496
v 19.052984 -1.334534 9.684496
v 20.042984 0.380196 7.704496
v 20.042984 0.380196 9.684496
v 19.052984 -1.334534 3.744496
v 19.052984 -1.334534 5.724496
v 20.042984 0.380196 3.744496
v 20.042984 0.380196 5.724496
v 19.052984 -1.334534 -0.215506
v 19.052984 -1.334534 1.764497
v 20.042984 0.380196 -0.215506
v 20.042984 0.380196 1.764497
v 19.052984 -1.334534 -4.175505
v 19.052984 -1.334534 -2.195503
v 20.042986 0.380196 -4.175505
v 20.042986 0.380196 -2.195503
v 19.052984 -1.334534 -8.135504
v 19.052984 -1.334534 -6.155502
v 20.042986 0.380195 -8.135504
v 20.042986 0.380196 -6.155502
v 19.052984 -1.334534 -12.095503
v 19.052984 -1.334534 -10.115501
v 20.042986 0.380195 -12.095503
v 20.042986 0.380195 -10.115501
v 19.052986 -1.334535 -16.055504
v 19.052984 -1.334535 -14.075504
v 20.042986 0.380195 -16.055504
v 20.042986 0.380195 -14.075504
v 19.052986 -1.334535 -20.015503
v 19.052986 -1.334535 -18.035503
v 20.042986 0.380195 -20.015503
v 20.042986 0.380195 -18.035503
v -19.052986 -1.334509 15.624495
v -19.052986 -1.334509 17.604494
v -20.042984 0.380222 15.624494
v -20.042984 0.380222 17.604494
v -19.052986 -1.334509 11.664494
v -19.052986 -1.334509 13.644494
v -20.042984 0.380222 11.664494
v -20.042984 0.380222 13.644494
v -19.052984 -1.334509 7.704493
v -19.052984 -1.334509 9.684494
v -20.042984 0.380222 7.704493
v -20.042984 0.380222 9.684494
v -19.052984 -1.334510 3.744493
v -19.052984 -1.334510 5.724492
v -20.042984 0.380222 3.744493
v -20.042984 0.380222 5.724492
v -19.052984 -1.334510 -0.215509
v -19.052984 -1.334510 1.764493
v -20.042984 0.380221 -0.215509
v -20.042984 0.380221 1.764493
v -19.052984 -1.334510 -4.175508
v -19.052984 -1.334510 -2.195507
v -20.042982 0.380221 -4.175508
v -20.042982 0.380221 -2.195507
v -19.052984 -1.334510 -8.135508
v -19.052984 -1.334510 -6.155506
v -20.042982 0.380221 -8.135508
v -20.042982 0.380221 -6.155506
v -19.052984 -1.334510 -12.095507
v -19.052984 -1.334510 -10.115505
v -20.042982 0.380221 -12.095507
v -20.042982 0.380221 -10.115505
v -19.052982 -1.334510 -16.055504
v -19.052984 -1.334510 -14.075508
v -20.042982 0.380221 -16.055504
v -20.042982 0.380221 -14.075508
v -19.052982 -1.334511 -20.015503
v -19.052982 -1.334510 -18.035503
v -20.042982 0.380221 -20.015503
v -20.042982 0.380221 -18.035503
vn 0.8660 -0.5000 0.0000
vn -0.8660 -0.5000 0.0000
s off
f 1//1 4//1 2//1
f 5//1 8//1 6//1
f 9//1 12//1 10//1
f 13//1 16//1 14//1
f 17//1 20//1 18//1
f 21//1 24//1 22//1
f 25//1 28//1 26//1
f 29//1 32//1 30//1
f 33//1 36//1 34//1
f 37//1 40//1 38//1
f 44//2 41//2 42//2
f 48//2 45//2 46//2
f 52//2 49//2 50//2
f 56//2 53//2 54//2
f 60//2 57//2 58//2
f 64//2 61//2 62//2
f 68//2 65//2 66//2
f 72//2 69//2 70//2
f 76//2 73//2 74//2
f 80//2 77//2 78//2
f 1//1 3//1 4//1
f 5//1 7//1 8//1
f 9//1 11//1 12//1
f 13//1 15//1 16//1
f 17//1 19//1 20//1
f 21//1 23//1 24//1
f 25//1 27//1 28//1
f 29//1 31//1 32//1
f 33//1 35//1 36//1
f 37//1 39//1 40//1
f 44//2 43//2 41//2
f 48//2 47//2 45//2
f 52//2 51//2 49//2
f 56//2 55//2 53//2
f 60//2 59//2 57//2
f 64//2 63//2 61//2
f 68//2 67//2 65//2
f 72//2 71//2 69//2
f 76//2 75//2 73//2
f 80//2 79//2 77//2
