# Blender v2.79 (sub 0) OBJ File: 'm3.blend'
# www.blender.org
o Headlight_Lamp_Base_Cylinder.001
v 1.233522 -0.099653 4.072349
v 1.221346 -0.095967 4.072357
v 1.232687 -0.101668 4.074603
v 1.244737 -0.105656 4.072357
v 1.233800 -0.098981 4.067533
v 1.221479 -0.095202 4.067533
v 1.220946 -0.098262 4.074635
v 1.243397 -0.107561 4.074635
v 1.245184 -0.105021 4.067533
v 1.268639 -0.134769 4.072349
v 1.262635 -0.123554 4.072357
v 1.266624 -0.135604 4.074603
v 1.272324 -0.146945 4.072357
v 1.269310 -0.134491 4.067533
v 1.263270 -0.123107 4.067533
v 1.260730 -0.124894 4.074635
v 1.270029 -0.147345 4.074635
v 1.273089 -0.146812 4.067533
v 1.268639 -0.184432 4.072349
v 1.272324 -0.172256 4.072357
v 1.266624 -0.183597 4.074603
v 1.262635 -0.195648 4.072357
v 1.269310 -0.184710 4.067533
v 1.273089 -0.172390 4.067533
v 1.270029 -0.171857 4.074635
v 1.260730 -0.194308 4.074635
v 1.263270 -0.196095 4.067533
v 1.233522 -0.219549 4.072349
v 1.244738 -0.213546 4.072357
v 1.232687 -0.217534 4.074603
v 1.221346 -0.223235 4.072357
v 1.233800 -0.220221 4.067533
v 1.245184 -0.214181 4.067533
v 1.243397 -0.211640 4.074635
v 1.220947 -0.220940 4.074635
v 1.221479 -0.224000 4.067533
v 1.183859 -0.219549 4.072349
v 1.196035 -0.223235 4.072357
v 1.184694 -0.217534 4.074603
v 1.172644 -0.213546 4.072357
v 1.183581 -0.220221 4.067533
v 1.195902 -0.224000 4.067533
v 1.196434 -0.220940 4.074635
v 1.173984 -0.211640 4.074635
v 1.172197 -0.214181 4.067533
v 1.148742 -0.184432 4.072349
v 1.154746 -0.195648 4.072357
v 1.150757 -0.183597 4.074603
v 1.145057 -0.172256 4.072357
v 1.148071 -0.184710 4.067533
v 1.154111 -0.196095 4.067533
v 1.156651 -0.194308 4.074635
v 1.147352 -0.171857 4.074635
v 1.144292 -0.172390 4.067533
v 1.183859 -0.099653 4.072349
v 1.172644 -0.105656 4.072357
v 1.184694 -0.101668 4.074603
v 1.196035 -0.095967 4.072357
v 1.183581 -0.098981 4.067533
v 1.172197 -0.105021 4.067533
v 1.173984 -0.107561 4.074635
v 1.196434 -0.098262 4.074635
v 1.195902 -0.095202 4.067533
v 1.148742 -0.134769 4.072349
v 1.145057 -0.146945 4.072357
v 1.150757 -0.135604 4.074603
v 1.154746 -0.123554 4.072357
v 1.148071 -0.134491 4.067533
v 1.144292 -0.146812 4.067533
v 1.147352 -0.147345 4.074635
v 1.156651 -0.124894 4.074635
v 1.154111 -0.123107 4.067533
v 1.191943 -0.200033 4.078623
v 1.189145 -0.206787 4.077344
v 1.199122 -0.198533 4.079251
v 1.187927 -0.193896 4.079251
v 1.181132 -0.201478 4.077503
v 1.198566 -0.208699 4.077503
v 1.197592 -0.186396 4.080767
v 1.225438 -0.200033 4.078623
v 1.228236 -0.206787 4.077344
v 1.229454 -0.193896 4.079251
v 1.218259 -0.198533 4.079251
v 1.218815 -0.208699 4.077503
v 1.236249 -0.201478 4.077503
v 1.219789 -0.186396 4.080767
v 1.225438 -0.119169 4.078623
v 1.228236 -0.112414 4.077344
v 1.218259 -0.120668 4.079251
v 1.229454 -0.125305 4.079251
v 1.236249 -0.117724 4.077503
v 1.218815 -0.110502 4.077503
v 1.219789 -0.132806 4.080767
v 1.249123 -0.176348 4.078623
v 1.255877 -0.179146 4.077344
v 1.247623 -0.169170 4.079251
v 1.242986 -0.180364 4.079251
v 1.250568 -0.187159 4.077503
v 1.257789 -0.169725 4.077503
v 1.235486 -0.170700 4.080767
v 1.249123 -0.142853 4.078623
v 1.255877 -0.140055 4.077344
v 1.242986 -0.138838 4.079251
v 1.247623 -0.150032 4.079251
v 1.257789 -0.149476 4.077503
v 1.250568 -0.132042 4.077503
v 1.235485 -0.148502 4.080767
v 1.191943 -0.119169 4.078623
v 1.189145 -0.112414 4.077344
v 1.187927 -0.125305 4.079251
v 1.199122 -0.120668 4.079251
v 1.198566 -0.110502 4.077503
v 1.181132 -0.117724 4.077503
v 1.197592 -0.132806 4.080767
v 1.168259 -0.142853 4.078623
v 1.161504 -0.140055 4.077344
v 1.169758 -0.150032 4.079251
v 1.174395 -0.138838 4.079251
v 1.166814 -0.132042 4.077503
v 1.159592 -0.149476 4.077503
v 1.181896 -0.148502 4.080767
v 1.168259 -0.176348 4.078623
v 1.161504 -0.179146 4.077344
v 1.174395 -0.180364 4.079251
v 1.169758 -0.169170 4.079251
v 1.159592 -0.169725 4.077503
v 1.166814 -0.187159 4.077503
v 1.181896 -0.170700 4.080767
v 1.233800 -0.098981 4.025776
v 1.221479 -0.095202 4.025776
v 1.233800 -0.098981 4.044295
v 1.245184 -0.105021 4.025776
v 1.233800 -0.098981 4.004495
v 1.221479 -0.095202 4.004495
v 1.221479 -0.095202 4.044295
v 1.245184 -0.105021 4.044295
v 1.245184 -0.105021 4.004495
v 1.269310 -0.134491 4.025776
v 1.263270 -0.123107 4.025776
v 1.269310 -0.134491 4.044295
v 1.273089 -0.146812 4.025776
v 1.269310 -0.134491 4.004495
v 1.263270 -0.123107 4.004495
v 1.263270 -0.123107 4.044295
v 1.273089 -0.146812 4.044295
v 1.273089 -0.146812 4.004495
v 1.269310 -0.184710 4.025776
v 1.273089 -0.172390 4.025776
v 1.269310 -0.184710 4.044295
v 1.263270 -0.196095 4.025776
v 1.269310 -0.184710 4.004495
v 1.273089 -0.172390 4.004495
v 1.273089 -0.172390 4.044295
v 1.263270 -0.196095 4.044295
v 1.263270 -0.196095 4.004495
v 1.233800 -0.220221 4.025776
v 1.245184 -0.214181 4.025776
v 1.233800 -0.220221 4.044295
v 1.221479 -0.224000 4.025776
v 1.233800 -0.220221 4.004495
v 1.245184 -0.214181 4.004495
v 1.245184 -0.214181 4.044295
v 1.221479 -0.224000 4.044295
v 1.221479 -0.224000 4.004495
v 1.183581 -0.220221 4.025776
v 1.195902 -0.224000 4.025776
v 1.183581 -0.220221 4.044295
v 1.172197 -0.214181 4.025776
v 1.183581 -0.220221 4.004495
v 1.195902 -0.224000 4.004495
v 1.195902 -0.224000 4.044295
v 1.172197 -0.214181 4.044295
v 1.172197 -0.214181 4.004495
v 1.148071 -0.184710 4.025776
v 1.154111 -0.196095 4.025776
v 1.148071 -0.184710 4.044295
v 1.144292 -0.172390 4.025776
v 1.148071 -0.184710 4.004495
v 1.154111 -0.196095 4.004495
v 1.154111 -0.196095 4.044295
v 1.144292 -0.172390 4.044295
v 1.144292 -0.172390 4.004495
v 1.183581 -0.098981 4.025776
v 1.172197 -0.105021 4.025776
v 1.183581 -0.098981 4.044295
v 1.195902 -0.095202 4.025776
v 1.183581 -0.098981 4.004495
v 1.172197 -0.105021 4.004495
v 1.172197 -0.105021 4.044295
v 1.195902 -0.095202 4.044295
v 1.195902 -0.095202 4.004495
v 1.148071 -0.134491 4.025776
v 1.144292 -0.146812 4.025776
v 1.148071 -0.134491 4.044295
v 1.154111 -0.123107 4.025776
v 1.148071 -0.134491 4.004495
v 1.144292 -0.146812 4.004495
v 1.144292 -0.146812 4.044295
v 1.154111 -0.123107 4.044295
v 1.154111 -0.123107 4.004495
v 1.173897 -0.194394 4.077662
v 1.182023 -0.186269 4.079593
v 1.192381 -0.175910 4.081468
v 1.185626 -0.159601 4.081468
v 1.170976 -0.159601 4.079593
v 1.159486 -0.159601 4.077662
v 1.208691 -0.136536 4.081468
v 1.208691 -0.121886 4.079593
v 1.208691 -0.110396 4.077662
v 1.243484 -0.124808 4.077662
v 1.235359 -0.132933 4.079593
v 1.225000 -0.143291 4.081468
v 1.231755 -0.159601 4.081468
v 1.246405 -0.159601 4.079593
v 1.257895 -0.159601 4.077662
v 1.225000 -0.175910 4.081468
v 1.235359 -0.186269 4.079593
v 1.243484 -0.194394 4.077662
v 1.208691 -0.182666 4.081468
v 1.208691 -0.197315 4.079593
v 1.208691 -0.208806 4.077662
v 1.192381 -0.143291 4.081468
v 1.182023 -0.132933 4.079593
v 1.173897 -0.124808 4.077662
v 1.221479 -0.095202 3.981835
v 1.233800 -0.098981 3.981835
v 1.245184 -0.105021 3.981835
v 1.240717 -0.111372 4.075855
v 1.231018 -0.105698 4.075775
v 1.220147 -0.102852 4.075855
v 1.208691 -0.093878 4.067533
v 1.208691 -0.094704 4.072365
v 1.208691 -0.097181 4.074667
v 1.255164 -0.113127 4.044295
v 1.255164 -0.113127 4.025776
v 1.255164 -0.113127 4.004495
v 1.263270 -0.123107 3.981835
v 1.269310 -0.134491 3.981835
v 1.273089 -0.146812 3.981835
v 1.265439 -0.148144 4.075855
v 1.262594 -0.137273 4.075775
v 1.256919 -0.127575 4.075855
v 1.274414 -0.159601 4.044295
v 1.274414 -0.159601 4.025776
v 1.274414 -0.159601 4.004495
v 1.273089 -0.172390 3.981835
v 1.269310 -0.184710 3.981835
v 1.263270 -0.196095 3.981835
v 1.256919 -0.191627 4.075855
v 1.262594 -0.181928 4.075775
v 1.265439 -0.171057 4.075855
v 1.255164 -0.206074 4.044295
v 1.255164 -0.206074 4.025776
v 1.255164 -0.206074 4.004495
v 1.245184 -0.214181 3.981835
v 1.233800 -0.220221 3.981835
v 1.221479 -0.224000 3.981835
v 1.220147 -0.216349 4.075855
v 1.231018 -0.213504 4.075775
v 1.240717 -0.207829 4.075855
v 1.208691 -0.225324 4.044295
v 1.208691 -0.225324 4.025776
v 1.208691 -0.225324 4.004495
v 1.195902 -0.224000 3.981835
v 1.183581 -0.220221 3.981835
v 1.172197 -0.214181 3.981835
v 1.176664 -0.207829 4.075855
v 1.186363 -0.213504 4.075775
v 1.197234 -0.216349 4.075855
v 1.162217 -0.206074 4.044295
v 1.162217 -0.206074 4.025776
v 1.162217 -0.206074 4.004495
v 1.154111 -0.196095 3.981835
v 1.148071 -0.184710 3.981835
v 1.144292 -0.172390 3.981835
v 1.151942 -0.171057 4.075855
v 1.154787 -0.181928 4.075775
v 1.160462 -0.191627 4.075855
v 1.142967 -0.159601 4.044295
v 1.142967 -0.159601 4.025776
v 1.142967 -0.159601 4.004495
v 1.144292 -0.146812 3.981835
v 1.148071 -0.134491 3.981835
v 1.154111 -0.123107 3.981835
v 1.160462 -0.127575 4.075855
v 1.154787 -0.137273 4.075775
v 1.151942 -0.148144 4.075855
v 1.162217 -0.113127 4.044295
v 1.162217 -0.113127 4.025776
v 1.162217 -0.113127 4.004495
v 1.172197 -0.105021 3.981835
v 1.183581 -0.098981 3.981835
v 1.195902 -0.095202 3.981835
v 1.197234 -0.102852 4.075855
v 1.186363 -0.105698 4.075775
v 1.176664 -0.111372 4.075855
v 1.208691 -0.093878 4.044295
v 1.208691 -0.093878 4.025776
v 1.208691 -0.093878 4.004495
v 1.255164 -0.113127 4.067533
v 1.254580 -0.113711 4.072365
v 1.252828 -0.115464 4.074667
v 1.274414 -0.159601 4.067533
v 1.273588 -0.159601 4.072365
v 1.271110 -0.159601 4.074667
v 1.255164 -0.206074 4.067533
v 1.254580 -0.205490 4.072365
v 1.252828 -0.203738 4.074667
v 1.208691 -0.225324 4.067533
v 1.208691 -0.224498 4.072365
v 1.208691 -0.222020 4.074667
v 1.162217 -0.206074 4.067533
v 1.162801 -0.205490 4.072365
v 1.164553 -0.203738 4.074667
v 1.142967 -0.159601 4.067533
v 1.143793 -0.159601 4.072365
v 1.146271 -0.159601 4.074667
v 1.162217 -0.113127 4.067533
v 1.162801 -0.113712 4.072365
v 1.164553 -0.115464 4.074667
v 1.221479 -0.095202 4.058674
v 1.233800 -0.098981 4.058674
v 1.245184 -0.105021 4.058674
v 1.263270 -0.123107 4.058674
v 1.269310 -0.134491 4.058674
v 1.273089 -0.146812 4.058674
v 1.273089 -0.172390 4.058674
v 1.269310 -0.184710 4.058674
v 1.263270 -0.196095 4.058674
v 1.245184 -0.214181 4.058674
v 1.233800 -0.220221 4.058674
v 1.221479 -0.224000 4.058674
v 1.195902 -0.224000 4.058674
v 1.183581 -0.220221 4.058674
v 1.172197 -0.214181 4.058674
v 1.154111 -0.196095 4.058674
v 1.148071 -0.184710 4.058674
v 1.144292 -0.172390 4.058674
v 1.172197 -0.105021 4.058674
v 1.183581 -0.098981 4.058674
v 1.195902 -0.095202 4.058674
v 1.144292 -0.146812 4.058674
v 1.148071 -0.134491 4.058674
v 1.154111 -0.123107 4.058674
v 1.208691 -0.159601 4.083426
v 1.208691 -0.093878 3.981835
v 1.208691 -0.102137 4.075934
v 1.255164 -0.113127 3.981835
v 1.249324 -0.118968 4.075934
v 1.274414 -0.159601 3.981835
v 1.266154 -0.159601 4.075934
v 1.255164 -0.206074 3.981835
v 1.249324 -0.200234 4.075934
v 1.208691 -0.225324 3.981835
v 1.208691 -0.217065 4.075934
v 1.162217 -0.206074 3.981835
v 1.168057 -0.200234 4.075934
v 1.142967 -0.159601 3.981835
v 1.151227 -0.159601 4.075934
v 1.162217 -0.113128 3.981835
v 1.168057 -0.118968 4.075934
v 1.208691 -0.093878 4.058674
v 1.255164 -0.113127 4.058674
v 1.274414 -0.159601 4.058674
v 1.255164 -0.206074 4.058674
v 1.208691 -0.225324 4.058674
v 1.162217 -0.206074 4.058674
v 1.142967 -0.159601 4.058674
v 1.162217 -0.113127 4.058674
v -1.233522 -0.099653 4.072349
v -1.221346 -0.095967 4.072357
v -1.232687 -0.101668 4.074603
v -1.244737 -0.105656 4.072357
v -1.233800 -0.098981 4.067533
v -1.221479 -0.095202 4.067533
v -1.220946 -0.098262 4.074635
v -1.243397 -0.107561 4.074635
v -1.245184 -0.105021 4.067533
v -1.268639 -0.134769 4.072349
v -1.262635 -0.123554 4.072357
v -1.266624 -0.135604 4.074603
v -1.272324 -0.146945 4.072357
v -1.269310 -0.134491 4.067533
v -1.263270 -0.123107 4.067533
v -1.260730 -0.124894 4.074635
v -1.270029 -0.147345 4.074635
v -1.273089 -0.146812 4.067533
v -1.268639 -0.184432 4.072349
v -1.272324 -0.172256 4.072357
v -1.266624 -0.183597 4.074603
v -1.262635 -0.195648 4.072357
v -1.269310 -0.184710 4.067533
v -1.273089 -0.172390 4.067533
v -1.270029 -0.171857 4.074635
v -1.260730 -0.194308 4.074635
v -1.263270 -0.196095 4.067533
v -1.233522 -0.219549 4.072349
v -1.244738 -0.213546 4.072357
v -1.232687 -0.217534 4.074603
v -1.221346 -0.223235 4.072357
v -1.233800 -0.220221 4.067533
v -1.245184 -0.214181 4.067533
v -1.243397 -0.211640 4.074635
v -1.220947 -0.220940 4.074635
v -1.221479 -0.224000 4.067533
v -1.183859 -0.219549 4.072349
v -1.196035 -0.223235 4.072357
v -1.184694 -0.217534 4.074603
v -1.172644 -0.213546 4.072357
v -1.183581 -0.220221 4.067533
v -1.195902 -0.224000 4.067533
v -1.196434 -0.220940 4.074635
v -1.173984 -0.211640 4.074635
v -1.172197 -0.214181 4.067533
v -1.148742 -0.184432 4.072349
v -1.154746 -0.195648 4.072357
v -1.150757 -0.183597 4.074603
v -1.145057 -0.172256 4.072357
v -1.148071 -0.184710 4.067533
v -1.154111 -0.196095 4.067533
v -1.156651 -0.194308 4.074635
v -1.147352 -0.171857 4.074635
v -1.144292 -0.172390 4.067533
v -1.183859 -0.099653 4.072349
v -1.172644 -0.105656 4.072357
v -1.184694 -0.101668 4.074603
v -1.196035 -0.095967 4.072357
v -1.183581 -0.098981 4.067533
v -1.172197 -0.105021 4.067533
v -1.173984 -0.107561 4.074635
v -1.196434 -0.098262 4.074635
v -1.195902 -0.095202 4.067533
v -1.148742 -0.134769 4.072349
v -1.145057 -0.146945 4.072357
v -1.150757 -0.135604 4.074603
v -1.154746 -0.123554 4.072357
v -1.148071 -0.134491 4.067533
v -1.144292 -0.146812 4.067533
v -1.147352 -0.147345 4.074635
v -1.156651 -0.124894 4.074635
v -1.154111 -0.123107 4.067533
v -1.191943 -0.200033 4.078623
v -1.189145 -0.206787 4.077344
v -1.199122 -0.198533 4.079251
v -1.187927 -0.193896 4.079251
v -1.181132 -0.201478 4.077503
v -1.198566 -0.208699 4.077503
v -1.197592 -0.186396 4.080767
v -1.225438 -0.200033 4.078623
v -1.228236 -0.206787 4.077344
v -1.229454 -0.193896 4.079251
v -1.218259 -0.198533 4.079251
v -1.218815 -0.208699 4.077503
v -1.236249 -0.201478 4.077503
v -1.219789 -0.186396 4.080767
v -1.225438 -0.119169 4.078623
v -1.228236 -0.112414 4.077344
v -1.218259 -0.120668 4.079251
v -1.229454 -0.125305 4.079251
v -1.236249 -0.117724 4.077503
v -1.218815 -0.110502 4.077503
v -1.219789 -0.132806 4.080767
v -1.249123 -0.176348 4.078623
v -1.255877 -0.179146 4.077344
v -1.247623 -0.169170 4.079251
v -1.242986 -0.180364 4.079251
v -1.250568 -0.187159 4.077503
v -1.257789 -0.169725 4.077503
v -1.235486 -0.170700 4.080767
v -1.249123 -0.142853 4.078623
v -1.255877 -0.140055 4.077344
v -1.242986 -0.138838 4.079251
v -1.247623 -0.150032 4.079251
v -1.257789 -0.149476 4.077503
v -1.250568 -0.132042 4.077503
v -1.235485 -0.148502 4.080767
v -1.191943 -0.119169 4.078623
v -1.189145 -0.112414 4.077344
v -1.187927 -0.125305 4.079251
v -1.199122 -0.120668 4.079251
v -1.198566 -0.110502 4.077503
v -1.181132 -0.117724 4.077503
v -1.197592 -0.132806 4.080767
v -1.168259 -0.142853 4.078623
v -1.161504 -0.140055 4.077344
v -1.169758 -0.150032 4.079251
v -1.174395 -0.138838 4.079251
v -1.166814 -0.132042 4.077503
v -1.159592 -0.149476 4.077503
v -1.181896 -0.148502 4.080767
v -1.168259 -0.176348 4.078623
v -1.161504 -0.179146 4.077344
v -1.174395 -0.180364 4.079251
v -1.169758 -0.169170 4.079251
v -1.159592 -0.169725 4.077503
v -1.166814 -0.187159 4.077503
v -1.181896 -0.170700 4.080767
v -1.233800 -0.098981 4.025776
v -1.221479 -0.095202 4.025776
v -1.233800 -0.098981 4.044295
v -1.245184 -0.105021 4.025776
v -1.233800 -0.098981 4.004495
v -1.221479 -0.095202 4.004495
v -1.221479 -0.095202 4.044295
v -1.245184 -0.105021 4.044295
v -1.245184 -0.105021 4.004495
v -1.269310 -0.134491 4.025776
v -1.263270 -0.123107 4.025776
v -1.269310 -0.134491 4.044295
v -1.273089 -0.146812 4.025776
v -1.269310 -0.134491 4.004495
v -1.263270 -0.123107 4.004495
v -1.263270 -0.123107 4.044295
v -1.273089 -0.146812 4.044295
v -1.273089 -0.146812 4.004495
v -1.269310 -0.184710 4.025776
v -1.273089 -0.172390 4.025776
v -1.269310 -0.184710 4.044295
v -1.263270 -0.196095 4.025776
v -1.269310 -0.184710 4.004495
v -1.273089 -0.172390 4.004495
v -1.273089 -0.172390 4.044295
v -1.263270 -0.196095 4.044295
v -1.263270 -0.196095 4.004495
v -1.233800 -0.220221 4.025776
v -1.245184 -0.214181 4.025776
v -1.233800 -0.220221 4.044295
v -1.221479 -0.224000 4.025776
v -1.233800 -0.220221 4.004495
v -1.245184 -0.214181 4.004495
v -1.245184 -0.214181 4.044295
v -1.221479 -0.224000 4.044295
v -1.221479 -0.224000 4.004495
v -1.183581 -0.220221 4.025776
v -1.195902 -0.224000 4.025776
v -1.183581 -0.220221 4.044295
v -1.172197 -0.214181 4.025776
v -1.183581 -0.220221 4.004495
v -1.195902 -0.224000 4.004495
v -1.195902 -0.224000 4.044295
v -1.172197 -0.214181 4.044295
v -1.172197 -0.214181 4.004495
v -1.148071 -0.184710 4.025776
v -1.154111 -0.196095 4.025776
v -1.148071 -0.184710 4.044295
v -1.144292 -0.172390 4.025776
v -1.148071 -0.184710 4.004495
v -1.154111 -0.196095 4.004495
v -1.154111 -0.196095 4.044295
v -1.144292 -0.172390 4.044295
v -1.144292 -0.172390 4.004495
v -1.183581 -0.098981 4.025776
v -1.172197 -0.105021 4.025776
v -1.183581 -0.098981 4.044295
v -1.195902 -0.095202 4.025776
v -1.183581 -0.098981 4.004495
v -1.172197 -0.105021 4.004495
v -1.172197 -0.105021 4.044295
v -1.195902 -0.095202 4.044295
v -1.195902 -0.095202 4.004495
v -1.148071 -0.134491 4.025776
v -1.144292 -0.146812 4.025776
v -1.148071 -0.134491 4.044295
v -1.154111 -0.123107 4.025776
v -1.148071 -0.134491 4.004495
v -1.144292 -0.146812 4.004495
v -1.144292 -0.146812 4.044295
v -1.154111 -0.123107 4.044295
v -1.154111 -0.123107 4.004495
v -1.173897 -0.194394 4.077662
v -1.182023 -0.186269 4.079593
v -1.192381 -0.175910 4.081468
v -1.185626 -0.159601 4.081468
v -1.170976 -0.159601 4.079593
v -1.159486 -0.159601 4.077662
v -1.208691 -0.136536 4.081468
v -1.208691 -0.121886 4.079593
v -1.208691 -0.110396 4.077662
v -1.243484 -0.124808 4.077662
v -1.235359 -0.132933 4.079593
v -1.225000 -0.143291 4.081468
v -1.231755 -0.159601 4.081468
v -1.246405 -0.159601 4.079593
v -1.257895 -0.159601 4.077662
v -1.225000 -0.175910 4.081468
v -1.235359 -0.186269 4.079593
v -1.243484 -0.194394 4.077662
v -1.208691 -0.182666 4.081468
v -1.208691 -0.197315 4.079593
v -1.208691 -0.208806 4.077662
v -1.192381 -0.143291 4.081468
v -1.182023 -0.132933 4.079593
v -1.173897 -0.124808 4.077662
v -1.221479 -0.095202 3.981835
v -1.233800 -0.098981 3.981835
v -1.245184 -0.105021 3.981835
v -1.240717 -0.111372 4.075855
v -1.231018 -0.105698 4.075775
v -1.220147 -0.102852 4.075855
v -1.208691 -0.093878 4.067533
v -1.208691 -0.094704 4.072365
v -1.208691 -0.097181 4.074667
v -1.255164 -0.113127 4.044295
v -1.255164 -0.113127 4.025776
v -1.255164 -0.113127 4.004495
v -1.263270 -0.123107 3.981835
v -1.269310 -0.134491 3.981835
v -1.273089 -0.146812 3.981835
v -1.265439 -0.148144 4.075855
v -1.262594 -0.137273 4.075775
v -1.256919 -0.127575 4.075855
v -1.274414 -0.159601 4.044295
v -1.274414 -0.159601 4.025776
v -1.274414 -0.159601 4.004495
v -1.273089 -0.172390 3.981835
v -1.269310 -0.184710 3.981835
v -1.263270 -0.196095 3.981835
v -1.256919 -0.191627 4.075855
v -1.262594 -0.181928 4.075775
v -1.265439 -0.171057 4.075855
v -1.255164 -0.206074 4.044295
v -1.255164 -0.206074 4.025776
v -1.255164 -0.206074 4.004495
v -1.245184 -0.214181 3.981835
v -1.233800 -0.220221 3.981835
v -1.221479 -0.224000 3.981835
v -1.220147 -0.216349 4.075855
v -1.231018 -0.213504 4.075775
v -1.240717 -0.207829 4.075855
v -1.208691 -0.225324 4.044295
v -1.208691 -0.225324 4.025776
v -1.208691 -0.225324 4.004495
v -1.195902 -0.224000 3.981835
v -1.183581 -0.220221 3.981835
v -1.172197 -0.214181 3.981835
v -1.176664 -0.207829 4.075855
v -1.186363 -0.213504 4.075775
v -1.197234 -0.216349 4.075855
v -1.162217 -0.206074 4.044295
v -1.162217 -0.206074 4.025776
v -1.162217 -0.206074 4.004495
v -1.154111 -0.196095 3.981835
v -1.148071 -0.184710 3.981835
v -1.144292 -0.172390 3.981835
v -1.151942 -0.171057 4.075855
v -1.154787 -0.181928 4.075775
v -1.160462 -0.191627 4.075855
v -1.142967 -0.159601 4.044295
v -1.142967 -0.159601 4.025776
v -1.142967 -0.159601 4.004495
v -1.144292 -0.146812 3.981835
v -1.148071 -0.134491 3.981835
v -1.154111 -0.123107 3.981835
v -1.160462 -0.127575 4.075855
v -1.154787 -0.137273 4.075775
v -1.151942 -0.148144 4.075855
v -1.162217 -0.113127 4.044295
v -1.162217 -0.113127 4.025776
v -1.162217 -0.113127 4.004495
v -1.172197 -0.105021 3.981835
v -1.183581 -0.098981 3.981835
v -1.195902 -0.095202 3.981835
v -1.197234 -0.102852 4.075855
v -1.186363 -0.105698 4.075775
v -1.176664 -0.111372 4.075855
v -1.208691 -0.093878 4.044295
v -1.208691 -0.093878 4.025776
v -1.208691 -0.093878 4.004495
v -1.255164 -0.113127 4.067533
v -1.254580 -0.113711 4.072365
v -1.252828 -0.115464 4.074667
v -1.274414 -0.159601 4.067533
v -1.273588 -0.159601 4.072365
v -1.271110 -0.159601 4.074667
v -1.255164 -0.206074 4.067533
v -1.254580 -0.205490 4.072365
v -1.252828 -0.203738 4.074667
v -1.208691 -0.225324 4.067533
v -1.208691 -0.224498 4.072365
v -1.208691 -0.222020 4.074667
v -1.162217 -0.206074 4.067533
v -1.162801 -0.205490 4.072365
v -1.164553 -0.203738 4.074667
v -1.142967 -0.159601 4.067533
v -1.143793 -0.159601 4.072365
v -1.146271 -0.159601 4.074667
v -1.162217 -0.113127 4.067533
v -1.162801 -0.113712 4.072365
v -1.164553 -0.115464 4.074667
v -1.221479 -0.095202 4.058674
v -1.233800 -0.098981 4.058674
v -1.245184 -0.105021 4.058674
v -1.263270 -0.123107 4.058674
v -1.269310 -0.134491 4.058674
v -1.273089 -0.146812 4.058674
v -1.273089 -0.172390 4.058674
v -1.269310 -0.184710 4.058674
v -1.263270 -0.196095 4.058674
v -1.245184 -0.214181 4.058674
v -1.233800 -0.220221 4.058674
v -1.221479 -0.224000 4.058674
v -1.195902 -0.224000 4.058674
v -1.183581 -0.220221 4.058674
v -1.172197 -0.214181 4.058674
v -1.154111 -0.196095 4.058674
v -1.148071 -0.184710 4.058674
v -1.144292 -0.172390 4.058674
v -1.172197 -0.105021 4.058674
v -1.183581 -0.098981 4.058674
v -1.195902 -0.095202 4.058674
v -1.144292 -0.146812 4.058674
v -1.148071 -0.134491 4.058674
v -1.154111 -0.123107 4.058674
v -1.208691 -0.159601 4.083426
v -1.208691 -0.093878 3.981835
v -1.208691 -0.102137 4.075934
v -1.255164 -0.113127 3.981835
v -1.249324 -0.118968 4.075934
v -1.274414 -0.159601 3.981835
v -1.266154 -0.159601 4.075934
v -1.255164 -0.206074 3.981835
v -1.249324 -0.200234 4.075934
v -1.208691 -0.225324 3.981835
v -1.208691 -0.217065 4.075934
v -1.162217 -0.206074 3.981835
v -1.168057 -0.200234 4.075934
v -1.142967 -0.159601 3.981835
v -1.151227 -0.159601 4.075934
v -1.162217 -0.113128 3.981835
v -1.168057 -0.118968 4.075934
v -1.208691 -0.093878 4.058674
v -1.255164 -0.113127 4.058674
v -1.274414 -0.159601 4.058674
v -1.255164 -0.206074 4.058674
v -1.208691 -0.225324 4.058674
v -1.162217 -0.206074 4.058674
v -1.142967 -0.159601 4.058674
v -1.162217 -0.113127 4.058674
vn 0.3816 0.9212 0.0756
vn 0.1737 0.8746 0.4527
vn 0.3441 0.8307 0.4377
vn 0.1976 0.9770 0.0798
vn 0.0000 0.8845 0.4665
vn 0.3827 0.9239 0.0000
vn 0.1990 0.9800 0.0000
vn 0.0000 0.9964 0.0840
vn 0.0967 0.4964 0.8627
vn 0.1994 0.4816 0.8534
vn 0.0905 0.2186 0.9716
vn 0.0000 0.4916 0.8708
vn 0.0437 0.2277 0.9727
vn 0.2827 0.4194 0.8627
vn 0.4955 0.7413 0.4527
vn 0.3476 0.3476 0.8708
vn 0.6255 0.6254 0.4665
vn 0.1302 0.1919 0.9727
vn 0.5511 0.8306 0.0798
vn 0.7046 0.7046 0.0840
vn 0.5522 0.8337 0.0000
vn 0.9212 0.3816 0.0756
vn 0.7413 0.4956 0.4527
vn 0.8307 0.3441 0.4377
vn 0.8306 0.5511 0.0798
vn 0.8337 0.5522 0.0000
vn 0.4194 0.2827 0.8626
vn 0.4815 0.1995 0.8534
vn 0.2185 0.0905 0.9716
vn 0.1920 0.1301 0.9727
vn 0.4965 0.0966 0.8626
vn 0.8746 0.1737 0.4527
vn 0.4916 0.0000 0.8708
vn 0.8845 0.0000 0.4665
vn 0.2278 0.0436 0.9727
vn 0.9770 0.1976 0.0798
vn 0.9239 0.3827 0.0000
vn 0.9965 0.0000 0.0840
vn 0.9800 0.1990 0.0000
vn 0.9212 -0.3816 0.0756
vn 0.8746 -0.1737 0.4527
vn 0.8307 -0.3441 0.4377
vn 0.9770 -0.1976 0.0798
vn 0.9239 -0.3827 0.0000
vn 1.0000 0.0000 0.0000
vn 0.4965 -0.0966 0.8626
vn 0.4815 -0.1995 0.8534
vn 0.2185 -0.0905 0.9716
vn 0.2278 -0.0436 0.9727
vn 0.4194 -0.2827 0.8626
vn 0.7413 -0.4956 0.4527
vn 0.3476 -0.3476 0.8708
vn 0.6254 -0.6254 0.4665
vn 0.1920 -0.1301 0.9727
vn 0.8306 -0.5511 0.0798
vn 0.7046 -0.7046 0.0840
vn 0.8337 -0.5522 0.0000
vn 0.3815 -0.9212 0.0756
vn 0.4956 -0.7412 0.4527
vn 0.3441 -0.8307 0.4377
vn 0.5511 -0.8306 0.0798
vn 0.3827 -0.9239 0.0000
vn 0.5522 -0.8337 0.0000
vn 0.2827 -0.4194 0.8627
vn 0.1994 -0.4816 0.8534
vn 0.0905 -0.2186 0.9716
vn 0.1302 -0.1919 0.9727
vn 0.0967 -0.4964 0.8627
vn 0.1737 -0.8746 0.4527
vn 0.0000 -0.4916 0.8708
vn 0.0000 -0.8845 0.4665
vn 0.0437 -0.2277 0.9727
vn 0.1976 -0.9770 0.0798
vn 0.0000 -0.9964 0.0840
vn 0.1990 -0.9800 0.0000
vn -0.3816 -0.9212 0.0756
vn -0.1737 -0.8746 0.4527
vn -0.3441 -0.8307 0.4377
vn -0.1976 -0.9770 0.0798
vn -0.3827 -0.9239 0.0000
vn -0.1990 -0.9800 0.0000
vn -0.0967 -0.4964 0.8627
vn -0.1995 -0.4816 0.8534
vn -0.0905 -0.2186 0.9716
vn -0.0437 -0.2277 0.9727
vn -0.2827 -0.4194 0.8626
vn -0.4956 -0.7412 0.4527
vn -0.3476 -0.3476 0.8708
vn -0.6254 -0.6254 0.4665
vn -0.1302 -0.1919 0.9727
vn -0.5511 -0.8306 0.0798
vn -0.7071 -0.7071 0.0000
vn -0.5522 -0.8337 0.0000
vn -0.9212 -0.3816 0.0756
vn -0.7413 -0.4956 0.4527
vn -0.8307 -0.3441 0.4377
vn -0.8306 -0.5511 0.0798
vn -0.9239 -0.3827 0.0000
vn -0.8337 -0.5522 0.0000
vn -0.7046 -0.7046 0.0840
vn -0.4194 -0.2827 0.8626
vn -0.4815 -0.1995 0.8534
vn -0.2185 -0.0905 0.9716
vn -0.1920 -0.1301 0.9727
vn -0.4965 -0.0966 0.8626
vn -0.8746 -0.1737 0.4527
vn -0.4916 0.0000 0.8708
vn -0.8845 0.0000 0.4665
vn -0.2278 -0.0436 0.9727
vn -0.9770 -0.1976 0.0798
vn -0.9965 0.0000 0.0840
vn -0.9800 -0.1990 0.0000
vn -0.3816 0.9212 0.0756
vn -0.4956 0.7412 0.4527
vn -0.3441 0.8307 0.4377
vn -0.5511 0.8306 0.0798
vn -0.6254 0.6254 0.4665
vn -0.3827 0.9239 0.0000
vn -0.7071 0.7071 0.0000
vn -0.7046 0.7046 0.0840
vn -0.2827 0.4194 0.8627
vn -0.1994 0.4816 0.8534
vn -0.0905 0.2186 0.9716
vn -0.3476 0.3476 0.8708
vn -0.1302 0.1919 0.9727
vn -0.0967 0.4964 0.8627
vn -0.1737 0.8746 0.4527
vn -0.0437 0.2277 0.9727
vn -0.1976 0.9770 0.0798
vn -0.1990 0.9800 0.0000
vn -0.9212 0.3816 0.0756
vn -0.8746 0.1737 0.4527
vn -0.8307 0.3441 0.4377
vn -0.9770 0.1976 0.0798
vn -0.9239 0.3827 0.0000
vn -0.9800 0.1990 0.0000
vn -0.4965 0.0966 0.8626
vn -0.4815 0.1995 0.8534
vn -0.2185 0.0905 0.9716
vn -0.2278 0.0436 0.9727
vn -0.4194 0.2827 0.8626
vn -0.7413 0.4956 0.4527
vn -0.1920 0.1301 0.9727
vn -0.8306 0.5511 0.0798
vn -0.8337 0.5522 0.0000
vn -0.0635 -0.1533 0.9861
vn -0.1068 -0.1570 0.9818
vn -0.0739 -0.1786 0.9811
vn -0.0802 -0.1289 0.9884
vn -0.1316 -0.1316 0.9825
vn -0.1609 -0.1610 0.9737
vn -0.0355 -0.1866 0.9818
vn -0.0345 -0.1479 0.9884
vn 0.0000 -0.1861 0.9825
vn 0.0000 -0.1446 0.9895
vn 0.0000 -0.2277 0.9737
vn -0.0452 -0.1092 0.9930
vn -0.1022 -0.1022 0.9895
vn 0.0000 -0.1012 0.9948
vn -0.0715 -0.0715 0.9948
vn 0.0635 -0.1533 0.9861
vn 0.0355 -0.1866 0.9818
vn 0.0739 -0.1786 0.9811
vn 0.0344 -0.1479 0.9884
vn 0.1068 -0.1570 0.9818
vn 0.0802 -0.1289 0.9884
vn 0.1316 -0.1316 0.9825
vn 0.1022 -0.1022 0.9895
vn 0.1609 -0.1610 0.9737
vn 0.0452 -0.1092 0.9930
vn 0.0715 -0.0715 0.9948
vn 0.0635 0.1533 0.9861
vn 0.1068 0.1570 0.9818
vn 0.0739 0.1786 0.9811
vn 0.0802 0.1289 0.9884
vn 0.1316 0.1316 0.9825
vn 0.1609 0.1610 0.9737
vn 0.0355 0.1866 0.9818
vn 0.0344 0.1479 0.9884
vn 0.0000 0.1861 0.9825
vn 0.0000 0.1446 0.9895
vn 0.0000 0.2277 0.9737
vn 0.0452 0.1092 0.9930
vn 0.1022 0.1022 0.9895
vn 0.0000 0.1012 0.9948
vn 0.0715 0.0715 0.9948
vn 0.1533 -0.0635 0.9861
vn 0.1571 -0.1068 0.9818
vn 0.1785 -0.0739 0.9811
vn 0.1289 -0.0802 0.9884
vn 0.1867 -0.0355 0.9818
vn 0.1479 -0.0344 0.9884
vn 0.1861 0.0000 0.9825
vn 0.1445 0.0000 0.9895
vn 0.2276 0.0000 0.9738
vn 0.1092 -0.0452 0.9930
vn 0.1012 0.0000 0.9948
vn 0.1533 0.0635 0.9861
vn 0.1866 0.0355 0.9818
vn 0.1785 0.0739 0.9811
vn 0.1480 0.0344 0.9884
vn 0.1571 0.1068 0.9818
vn 0.1289 0.0802 0.9884
vn 0.1091 0.0452 0.9930
vn -0.0635 0.1533 0.9861
vn -0.0355 0.1866 0.9818
vn -0.0739 0.1786 0.9811
vn -0.0344 0.1479 0.9884
vn -0.1068 0.1570 0.9818
vn -0.0802 0.1289 0.9884
vn -0.1316 0.1316 0.9825
vn -0.1022 0.1022 0.9895
vn -0.1609 0.1610 0.9737
vn -0.0452 0.1092 0.9930
vn -0.0715 0.0715 0.9948
vn -0.1533 0.0635 0.9861
vn -0.1571 0.1068 0.9818
vn -0.1785 0.0739 0.9811
vn -0.1289 0.0802 0.9884
vn -0.1867 0.0355 0.9818
vn -0.1479 0.0344 0.9884
vn -0.1861 0.0000 0.9825
vn -0.1445 0.0000 0.9895
vn -0.2276 0.0000 0.9738
vn -0.1092 0.0452 0.9930
vn -0.1012 0.0000 0.9948
vn -0.1533 -0.0635 0.9861
vn -0.1866 -0.0355 0.9818
vn -0.1785 -0.0739 0.9811
vn -0.1479 -0.0344 0.9884
vn -0.1571 -0.1068 0.9818
vn -0.1289 -0.0802 0.9884
vn -0.1092 -0.0452 0.9930
vn 0.0000 1.0000 0.0000
vn 0.7071 0.7071 0.0000
vn 0.9239 0.3826 0.0000
vn 0.9800 -0.1990 0.0000
vn 0.7071 -0.7071 0.0000
vn 0.0000 -1.0000 0.0000
vn -1.0000 0.0000 0.0000
vn -0.5522 0.8337 0.0000
vn -0.4955 0.7413 0.4527
vn -0.6255 0.6254 0.4665
vn -0.3815 -0.9212 0.0756
vn -0.2827 -0.4194 0.8627
vn -0.1994 -0.4816 0.8534
vn 0.3816 -0.9212 0.0756
vn 0.0436 -0.2277 0.9727
vn 0.4956 0.7412 0.4527
vn 0.6254 0.6254 0.4665
vn -0.0344 -0.1479 0.9884
vn -0.1867 -0.0355 0.9818
vn -0.1866 0.0355 0.9818
vn -0.1480 0.0344 0.9884
vn 0.1867 0.0355 0.9818
vn 0.1479 0.0344 0.9884
vn 0.1866 -0.0355 0.9818
vn -0.9239 0.3826 0.0000
vn 0.0000 0.0000 1.0000
s 1
f 5//1 2//2 1//3
f 6//4 232//5 2//2
f 322//6 6//4 5//1
f 321//7 231//8 6//4
f 1//3 7//9 3//10
f 7//9 229//11 3//10
f 2//2 233//12 7//9
f 233//12 230//13 7//9
f 1//3 8//14 4//15
f 4//15 302//16 301//17
f 229//11 8//14 3//10
f 228//18 302//16 8//14
f 4//15 5//1 1//3
f 9//19 322//6 5//1
f 301//17 9//19 4//15
f 300//20 323//21 9//19
f 14//22 11//23 10//24
f 15//25 301//17 11//23
f 14//22 324//26 15//25
f 324//26 300//20 15//25
f 10//24 16//27 12//28
f 16//27 241//29 12//28
f 11//23 302//16 16//27
f 302//16 242//30 16//27
f 10//24 17//31 13//32
f 13//32 305//33 304//34
f 241//29 17//31 12//28
f 240//35 305//33 17//31
f 13//32 14//22 10//24
f 18//36 325//37 14//22
f 304//34 18//36 13//32
f 303//38 326//39 18//36
f 23//40 20//41 19//42
f 24//43 304//34 20//41
f 328//44 24//43 23//40
f 24//43 364//45 303//38
f 19//42 25//46 21//47
f 25//46 250//48 21//47
f 20//41 305//33 25//46
f 305//33 251//49 25//46
f 19//42 26//50 22//51
f 22//51 308//52 307//53
f 250//48 26//50 21//47
f 249//54 308//52 26//50
f 22//51 23//40 19//42
f 27//55 328//44 23//40
f 307//53 27//55 22//51
f 306//56 329//57 27//55
f 32//58 29//59 28//60
f 33//61 307//53 29//59
f 331//62 33//61 32//58
f 330//63 306//56 33//61
f 28//60 34//64 30//65
f 34//64 259//66 30//65
f 29//59 308//52 34//64
f 308//52 260//67 34//64
f 28//60 35//68 31//69
f 31//69 311//70 310//71
f 259//66 35//68 30//65
f 258//72 311//70 35//68
f 31//69 32//58 28//60
f 36//73 331//62 32//58
f 310//71 36//73 31//69
f 309//74 332//75 36//73
f 41//76 38//77 37//78
f 42//79 310//71 38//77
f 334//80 42//79 41//76
f 333//81 309//74 42//79
f 37//78 43//82 39//83
f 43//82 268//84 39//83
f 38//77 311//70 43//82
f 311//70 269//85 43//82
f 37//78 44//86 40//87
f 40//87 314//88 313//89
f 268//84 44//86 39//83
f 267//90 314//88 44//86
f 40//87 41//76 37//78
f 45//91 334//80 41//76
f 313//89 45//91 40//87
f 45//91 367//92 335//93
f 50//94 47//95 46//96
f 51//97 313//89 47//95
f 337//98 51//97 50//94
f 336//99 312//100 51//97
f 46//96 52//101 48//102
f 52//101 277//103 48//102
f 47//95 314//88 52//101
f 314//88 278//104 52//101
f 46//96 53//105 49//106
f 49//106 317//107 316//108
f 277//103 53//105 48//102
f 276//109 317//107 53//105
f 49//106 50//94 46//96
f 54//110 337//98 50//94
f 316//108 54//110 49//106
f 315//111 338//112 54//110
f 59//113 56//114 55//115
f 60//116 319//117 56//114
f 340//118 60//116 59//113
f 60//116 369//119 318//120
f 55//115 61//121 57//122
f 61//121 295//123 57//122
f 56//114 320//124 61//121
f 320//124 296//125 61//121
f 55//115 62//126 58//127
f 58//127 233//12 232//5
f 295//123 62//126 57//122
f 294//128 233//12 62//126
f 58//127 59//113 55//115
f 63//129 340//118 59//113
f 232//5 63//129 58//127
f 231//8 341//130 63//129
f 68//131 65//132 64//133
f 69//134 316//108 65//132
f 343//135 69//134 68//131
f 342//136 315//111 69//134
f 64//133 70//137 66//138
f 70//137 286//139 66//138
f 65//132 317//107 70//137
f 317//107 287//140 70//137
f 64//133 71//141 67//142
f 67//142 320//124 319//117
f 286//139 71//141 66//138
f 285//143 320//124 71//141
f 67//142 68//131 64//133
f 72//144 343//135 68//131
f 319//117 72//144 67//142
f 318//120 344//145 72//144
f 73//146 77//147 74//148
f 74//148 267//90 268//84
f 76//149 201//150 77//147
f 77//147 357//151 267//90
f 73//146 78//152 75//153
f 75//153 221//154 220//155
f 74//148 269//85 78//152
f 78//152 355//156 221//154
f 75//153 76//149 73//146
f 79//157 202//158 76//149
f 220//155 79//157 75//153
f 219//159 203//160 79//157
f 80//161 84//162 81//163
f 81//163 258//72 259//66
f 83//164 221//154 84//162
f 84//162 355//156 258//72
f 80//161 85//165 82//166
f 82//166 218//167 217//168
f 81//163 260//67 85//165
f 85//165 353//169 218//167
f 82//166 83//164 80//161
f 86//170 220//155 83//164
f 217//168 86//170 82//166
f 216//171 219//159 86//170
f 87//172 91//173 88//174
f 88//174 228//18 229//11
f 90//175 210//176 91//173
f 91//173 349//177 228//18
f 87//172 92//178 89//179
f 89//179 209//180 208//181
f 88//174 230//13 92//178
f 92//178 347//182 209//180
f 89//179 90//175 87//172
f 93//183 211//184 90//175
f 208//181 93//183 89//179
f 207//185 212//186 93//183
f 94//187 98//188 95//189
f 95//189 249//54 250//48
f 97//190 218//167 98//188
f 98//188 353//169 249//54
f 94//187 99//191 96//192
f 96//192 215//193 214//194
f 95//189 251//49 99//191
f 99//191 351//195 215//193
f 96//192 97//190 94//187
f 100//196 217//168 97//190
f 214//194 100//196 96//192
f 213//197 216//171 100//196
f 101//198 105//199 102//200
f 102//200 240//35 241//29
f 104//201 215//193 105//199
f 105//199 351//195 240//35
f 101//198 106//202 103//203
f 103//203 210//176 211//184
f 102//200 242//30 106//202
f 106//202 349//177 210//176
f 103//203 104//201 101//198
f 107//204 214//194 104//201
f 211//184 107//204 103//203
f 212//186 213//197 107//204
f 108//205 112//206 109//207
f 109//207 294//128 295//123
f 111//208 209//180 112//206
f 112//206 347//182 294//128
f 108//205 113//209 110//210
f 110//210 224//211 223//212
f 109//207 296//125 113//209
f 113//209 361//213 224//211
f 110//210 111//208 108//205
f 114//214 208//181 111//208
f 223//212 114//214 110//210
f 222//215 207//185 114//214
f 115//216 119//217 116//218
f 116//218 285//143 286//139
f 118//219 224//211 119//217
f 119//217 361//213 285//143
f 115//216 120//220 117//221
f 117//221 206//222 205//223
f 116//218 287//140 120//220
f 120//220 359//224 206//222
f 117//221 118//219 115//216
f 121//225 223//212 118//219
f 205//223 121//225 117//221
f 204//226 222//215 121//225
f 122//227 126//228 123//229
f 123//229 276//109 277//103
f 125//230 206//222 126//228
f 126//228 359//224 276//109
f 122//227 127//231 124//232
f 124//232 201//150 202//158
f 123//229 278//104 127//231
f 127//231 357//151 201//150
f 124//232 125//230 122//227
f 128//233 205//223 125//230
f 202//158 128//233 124//232
f 203//160 204//226 128//233
f 133//6 130//7 129//6
f 134//7 298//234 130//7
f 226//6 134//7 133//6
f 225//7 299//234 134//7
f 130//7 131//6 129//6
f 131//6 321//7 322//6
f 298//234 135//7 130//7
f 297//234 321//7 135//7
f 131//6 132//21 129//6
f 136//21 235//235 132//21
f 322//6 136//21 131//6
f 323//21 234//235 136//21
f 132//21 133//6 129//6
f 137//21 226//6 133//6
f 235//235 137//21 132//21
f 236//235 227//21 137//21
f 142//37 139//26 138//37
f 143//26 235//235 139//26
f 238//37 143//26 142//37
f 237//26 236//235 143//26
f 139//26 140//236 138//37
f 144//26 325//37 140//236
f 235//235 144//26 139//26
f 234//235 324//26 144//26
f 140//236 141//39 138//37
f 145//39 244//45 141//39
f 325//37 145//39 140//236
f 326//39 243//45 145//39
f 141//39 142//37 138//37
f 146//39 238//37 142//37
f 244//45 146//39 141//39
f 245//45 239//39 146//39
f 151//44 148//237 147//44
f 152//237 244//45 148//237
f 247//44 152//237 151//44
f 246//237 245//45 152//237
f 148//237 149//44 147//44
f 153//237 328//44 149//44
f 244//45 153//237 148//237
f 243//45 327//237 153//237
f 149//44 150//57 147//44
f 154//57 253//238 150//57
f 328//44 154//57 149//44
f 329//57 252//238 154//57
f 150//57 151//44 147//44
f 155//57 247//44 151//44
f 253//238 155//57 150//57
f 254//238 248//57 155//57
f 160//62 157//63 156//62
f 157//63 254//238 253//238
f 256//62 161//63 160//62
f 255//63 254//238 161//63
f 157//63 158//62 156//62
f 162//63 331//62 158//62
f 253//238 162//63 157//63
f 252//238 330//63 162//63
f 158//62 159//75 156//62
f 163//75 262//239 159//75
f 331//62 163//75 158//62
f 332//75 261//239 163//75
f 159//75 160//62 156//62
f 164//75 256//62 160//62
f 262//239 164//75 159//75
f 263//239 257//75 164//75
f 169//80 166//81 165//80
f 170//81 262//239 166//81
f 265//80 170//81 169//80
f 170//81 354//239 263//239
f 166//81 167//80 165//80
f 171//81 334//80 167//80
f 262//239 171//81 166//81
f 261//239 333//81 171//81
f 167//80 168//93 165//80
f 172//93 271//92 168//93
f 334//80 172//93 167//80
f 335//93 270//92 172//93
f 168//93 169//80 165//80
f 173//93 265//80 169//80
f 168//93 272//92 173//93
f 272//92 266//93 173//93
f 178//98 175//99 174//98
f 179//99 271//92 175//99
f 274//98 179//99 178//98
f 273//99 272//92 179//99
f 175//99 176//98 174//98
f 180//99 337//98 176//98
f 271//92 180//99 175//99
f 270//92 336//99 180//99
f 176//98 177//112 174//98
f 181//112 280//240 177//112
f 337//98 181//112 176//98
f 338//112 279//240 181//112
f 177//112 178//98 174//98
f 182//112 274//98 178//98
f 177//112 281//240 182//112
f 281//240 275//112 182//112
f 187//118 184//241 183//118
f 188//241 289//119 184//241
f 292//118 188//241 187//118
f 291//241 290//119 188//241
f 184//241 185//118 183//118
f 189//241 340//118 185//118
f 289//119 189//241 184//241
f 288//119 339//241 189//241
f 185//118 186//130 183//118
f 190//130 298//234 186//130
f 340//118 190//130 185//118
f 341//130 297//234 190//130
f 186//130 187//118 183//118
f 191//130 292//118 187//118
f 298//234 191//130 186//130
f 299//234 293//130 191//130
f 196//135 193//136 192//135
f 197//136 280//240 193//136
f 283//135 197//136 196//135
f 282//136 281//240 197//136
f 193//136 194//135 192//135
f 198//136 343//135 194//135
f 280//240 198//136 193//136
f 279//240 342//136 198//136
f 194//135 195//145 192//135
f 199//145 289//119 195//145
f 343//135 199//145 194//135
f 344//145 288//119 199//145
f 195//145 196//135 192//135
f 200//145 283//135 196//135
f 289//119 200//145 195//145
f 290//119 284//145 200//145
f 371//127 374//113 370//115
f 601//5 375//129 371//127
f 375//129 691//118 374//113
f 600//8 690//130 375//129
f 370//115 376//126 371//127
f 598//123 376//126 372//122
f 371//127 602//12 601//5
f 599//128 602//12 376//126
f 370//115 377//121 372//122
f 373//242 671//124 377//121
f 377//121 598//123 372//122
f 671//124 597//125 377//121
f 374//113 373//242 370//115
f 691//118 378//116 374//113
f 378//116 670//243 373//242
f 692//241 669//120 378//116
f 380//142 383//131 379//133
f 670//243 384//144 380//142
f 383//131 693//145 694//135
f 669//120 693//145 384//144
f 379//133 385//141 380//142
f 610//139 385//141 381//138
f 380//142 671//124 670//243
f 611//143 671//124 385//141
f 379//133 386//137 381//138
f 382//132 674//107 386//137
f 386//137 610//139 381//138
f 674//107 609//140 386//137
f 383//131 382//132 379//133
f 694//135 387//134 383//131
f 387//134 673//108 382//132
f 695//136 672//111 387//134
f 389//106 392//94 388//96
f 673//108 393//110 389//106
f 393//110 697//98 392//94
f 393//110 733//240 696//112
f 388//96 394//105 389//106
f 619//103 394//105 390//102
f 389//106 674//107 673//108
f 620//109 674//107 394//105
f 388//96 395//101 390//102
f 391//95 677//88 395//101
f 395//101 619//103 390//102
f 677//88 618//104 395//101
f 392//94 391//95 388//96
f 697//98 396//97 392//94
f 396//97 676//89 391//95
f 698//99 675//100 396//97
f 398//87 401//244 397//78
f 676//89 402//91 398//87
f 402//91 700//80 401//244
f 675//100 699//93 402//91
f 397//78 403//245 398//87
f 628//84 403//245 399//246
f 398//87 677//88 676//89
f 629//90 677//88 403//245
f 397//78 404//82 399//246
f 400//77 680//70 404//82
f 404//82 628//84 399//246
f 680//70 627//85 404//82
f 401//244 400//77 397//78
f 700//80 405//79 401//244
f 405//79 679//71 400//77
f 701//81 678//74 405//79
f 407//69 410//247 406//60
f 679//71 411//73 407//69
f 411//73 703//62 410//247
f 678//74 702//75 411//73
f 406//60 412//68 407//69
f 637//66 412//68 408//65
f 407//69 680//70 679//71
f 638//248 680//70 412//68
f 406//60 413//64 408//65
f 409//59 683//52 413//64
f 413//64 637//66 408//65
f 683//52 636//67 413//64
f 410//247 409//59 406//60
f 703//62 414//61 410//247
f 414//61 682//53 409//59
f 414//61 736//238 681//56
f 416//51 419//40 415//42
f 682//53 420//55 416//51
f 419//40 705//57 706//44
f 681//56 705//57 420//55
f 415//42 421//50 416//51
f 646//48 421//50 417//47
f 416//51 683//52 682//53
f 647//54 683//52 421//50
f 415//42 422//46 417//47
f 418//41 686//33 422//46
f 422//46 646//48 417//47
f 686//33 645//49 422//46
f 419//40 418//41 415//42
f 706//44 423//43 419//40
f 423//43 685//34 418//41
f 707//237 684//38 423//43
f 425//249 428//1 424//3
f 688//250 429//19 425//249
f 429//19 709//6 428//1
f 429//19 738//235 708//21
f 424//3 430//14 425//249
f 664//11 430//14 426//10
f 425//249 689//16 688//250
f 665//18 689//16 430//14
f 424//3 431//9 426//10
f 427//2 602//12 431//9
f 431//9 664//11 426//10
f 602//12 663//13 431//9
f 428//1 427//2 424//3
f 709//6 432//4 428//1
f 432//4 601//5 427//2
f 710//7 600//8 432//4
f 434//32 437//22 433//24
f 685//34 438//36 434//32
f 438//36 712//37 437//22
f 684//38 711//39 438//36
f 433//24 439//31 434//32
f 655//29 439//31 435//28
f 434//32 686//33 685//34
f 656//35 686//33 439//31
f 433//24 440//27 435//28
f 436//23 689//16 440//27
f 440//27 655//29 435//28
f 689//16 654//30 440//27
f 437//22 436//23 433//24
f 712//37 441//25 437//22
f 441//25 688//250 436//23
f 441//25 738//235 687//20
f 442//161 446//165 445//166
f 443//163 636//67 446//165
f 445//166 570//167 571//168
f 446//165 726//169 570//167
f 442//161 447//162 443//163
f 444//164 590//154 447//162
f 443//163 638//248 637//66
f 447//162 724//156 638//248
f 445//166 444//164 442//161
f 571//168 448//170 445//166
f 448//170 589//155 444//164
f 572//171 588//159 448//170
f 449//146 453//152 452//251
f 450//148 627//85 453//152
f 452//251 590//154 589//155
f 453//152 724//156 590//154
f 449//146 454//147 450//148
f 451//149 587//150 454//147
f 450//148 629//90 628//84
f 454//147 722//151 629//90
f 452//251 451//149 449//146
f 589//155 455//157 452//251
f 455//157 586//158 451//149
f 588//159 585//160 455//157
f 456//205 460//209 459//210
f 457//207 597//125 460//209
f 459//210 579//211 580//212
f 460//209 718//213 579//211
f 456//205 461//206 457//207
f 458//208 578//180 461//206
f 457//207 599//128 598//123
f 461//206 716//182 599//128
f 459//210 458//208 456//205
f 580//212 462//214 459//210
f 462//214 577//181 458//208
f 581//215 576//185 462//214
f 463//227 467//231 466//232
f 464//229 618//104 467//231
f 466//232 587//150 586//158
f 467//231 722//151 587//150
f 463//227 468//252 464//229
f 465//230 584//222 468//252
f 464//229 620//109 619//103
f 468//252 720//224 620//109
f 466//232 465//230 463//227
f 586//158 469//233 466//232
f 469//233 583//223 465//230
f 585//160 582//226 469//233
f 470//216 474//253 473//254
f 471//218 609//140 474//253
f 473//254 584//222 583//223
f 474//253 720//224 584//222
f 470//216 475//217 471//218
f 472//219 579//211 475//217
f 471//218 611//143 610//139
f 475//217 718//213 611//143
f 473//254 472//219 470//216
f 583//223 476//225 473//254
f 476//225 580//212 472//219
f 582//226 581//215 476//225
f 477//172 481//178 480//179
f 478//174 663//13 481//178
f 480//179 578//180 577//181
f 481//178 716//182 578//180
f 477//172 482//173 478//174
f 479//175 593//176 482//173
f 478//174 665//18 664//11
f 482//173 730//177 665//18
f 480//179 479//175 477//172
f 577//181 483//183 480//179
f 483//183 592//184 479//175
f 576//185 591//186 483//183
f 484//198 488//202 487//203
f 485//200 654//30 488//202
f 487//203 593//176 592//184
f 488//202 730//177 593//176
f 484//198 489//255 485//200
f 486//256 575//193 489//255
f 485//200 656//35 655//29
f 489//255 728//195 656//35
f 487//203 486//256 484//198
f 592//184 490//204 487//203
f 490//204 574//194 486//256
f 591//186 573//197 490//204
f 491//187 495//257 494//192
f 492//189 645//49 495//257
f 494//192 575//193 574//194
f 495//257 728//195 575//193
f 491//187 496//188 492//189
f 493//190 570//167 496//188
f 492//189 647//54 646//48
f 496//188 726//169 647//54
f 494//192 493//190 491//187
f 574//194 497//196 494//192
f 497//196 571//168 493//190
f 573//197 572//171 497//196
f 499//130 502//118 498//118
f 667//234 503//130 499//130
f 503//130 595//118 502//118
f 668//234 594//130 503//130
f 500//118 499//130 498//118
f 500//118 690//130 504//130
f 504//130 667//234 499//130
f 690//130 666//234 504//130
f 501//241 500//118 498//118
f 604//119 505//241 501//241
f 505//241 691//118 500//118
f 505//241 732//119 692//241
f 502//118 501//241 498//118
f 595//118 506//241 502//118
f 506//241 604//119 501//241
f 596//241 605//119 506//241
f 508//145 511//135 507//135
f 604//119 512//145 508//145
f 512//145 607//135 511//135
f 605//119 606//145 512//145
f 509//258 508//145 507//135
f 694//135 513//145 509//258
f 513//145 604//119 508//145
f 693//145 603//119 513//145
f 510//136 509//258 507//135
f 613//240 514//136 510//136
f 514//136 694//135 509//258
f 612//240 695//136 514//136
f 511//135 510//136 507//135
f 607//135 515//136 511//135
f 515//136 613//240 510//136
f 608//136 614//240 515//136
f 517//112 520//98 516//98
f 613//240 521//112 517//112
f 521//112 616//98 520//98
f 614//240 615//112 521//112
f 518//98 517//112 516//98
f 697//98 522//112 518//98
f 522//112 613//240 517//112
f 696//112 612//240 522//112
f 519//99 518//98 516//98
f 519//99 621//92 523//99
f 523//99 697//98 518//98
f 621//92 698//99 523//99
f 520//98 519//99 516//98
f 616//98 524//99 520//98
f 524//99 622//92 519//99
f 617//99 623//92 524//99
f 526//93 529//80 525//80
f 526//93 623//92 530//93
f 530//93 625//80 529//80
f 530//93 721//92 624//93
f 527//80 526//93 525//80
f 700//80 531//93 527//80
f 531//93 622//92 526//93
f 699//93 621//92 531//93
f 528//81 527//80 525//80
f 631//239 532//81 528//81
f 527//80 701//81 700//80
f 630//239 701//81 532//81
f 529//80 528//81 525//80
f 625//80 533//81 529//80
f 533//81 631//239 528//81
f 626//81 632//239 533//81
f 535//75 538//62 534//62
f 631//239 539//75 535//75
f 539//75 634//62 538//62
f 539//75 723//239 633//75
f 536//62 535//75 534//62
f 703//62 540//75 536//62
f 540//75 631//239 535//75
f 702//75 630//239 540//75
f 537//63 536//62 534//62
f 640//238 541//63 537//63
f 541//63 703//62 536//62
f 639//238 704//63 541//63
f 538//62 537//63 534//62
f 634//62 542//63 538//62
f 537//63 641//238 640//238
f 635//63 641//238 542//63
f 544//57 547//44 543//44
f 640//238 548//57 544//57
f 548//57 643//44 547//44
f 641//238 642//57 548//57
f 545//44 544//57 543//44
f 706//44 549//57 545//44
f 544//57 639//238 640//238
f 705//57 639//238 549//57
f 546//237 545//44 543//44
f 649//45 550//237 546//237
f 550//237 706//44 545//44
f 648//45 707//237 550//237
f 547//44 546//237 543//44
f 643//44 551//237 547//44
f 546//237 650//45 649//45
f 644//237 650//45 551//237
f 553//21 556//6 552//6
f 658//235 557//21 553//21
f 557//21 661//6 556//6
f 659//235 660//21 557//21
f 554//6 553//21 552//6
f 709//6 558//21 554//6
f 558//21 658//235 553//21
f 708//21 657//235 558//21
f 555//7 554//6 552//6
f 667//234 559//7 555//7
f 559//7 709//6 554//6
f 666//234 710//7 559//7
f 556//6 555//7 552//6
f 661//6 560//7 556//6
f 560//7 667//234 555//7
f 662//7 668//234 560//7
f 562//39 565//37 561//37
f 649//45 566//39 562//39
f 566//39 652//37 565//37
f 650//45 651//39 566//39
f 563//37 562//39 561//37
f 712//37 567//39 563//37
f 567//39 649//45 562//39
f 711//39 648//45 567//39
f 564//26 563//37 561//37
f 658//235 568//26 564//26
f 568//26 712//37 563//37
f 657//235 713//26 568//26
f 565//37 564//26 561//37
f 652//37 569//26 565//37
f 569//26 658//235 564//26
f 653//26 659//235 569//26
f 5//1 6//4 2//2
f 6//4 231//8 232//5
f 322//6 321//7 6//4
f 321//7 362//234 231//8
f 1//3 2//2 7//9
f 7//9 230//13 229//11
f 2//2 232//5 233//12
f 233//12 347//182 230//13
f 1//3 3//10 8//14
f 4//15 8//14 302//16
f 229//11 228//18 8//14
f 228//18 349//177 302//16
f 4//15 9//19 5//1
f 9//19 323//21 322//6
f 301//17 300//20 9//19
f 300//20 363//235 323//21
f 14//22 15//25 11//23
f 15//25 300//20 301//17
f 14//22 325//37 324//26
f 324//26 363//235 300//20
f 10//24 11//23 16//27
f 16//27 242//30 241//29
f 11//23 301//17 302//16
f 302//16 349//177 242//30
f 10//24 12//28 17//31
f 13//32 17//31 305//33
f 241//29 240//35 17//31
f 240//35 351//195 305//33
f 13//32 18//36 14//22
f 18//36 326//39 325//37
f 304//34 303//38 18//36
f 303//38 364//45 326//39
f 23//40 24//43 20//41
f 24//43 303//38 304//34
f 328//44 327//237 24//43
f 24//43 327//237 364//45
f 19//42 20//41 25//46
f 25//46 251//49 250//48
f 20//41 304//34 305//33
f 305//33 351//195 251//49
f 19//42 21//47 26//50
f 22//51 26//50 308//52
f 250//48 249//54 26//50
f 249//54 353//169 308//52
f 22//51 27//55 23//40
f 27//55 329//57 328//44
f 307//53 306//56 27//55
f 306//56 365//238 329//57
f 32//58 33//61 29//59
f 33//61 306//56 307//53
f 331//62 330//63 33//61
f 330//63 365//238 306//56
f 28//60 29//59 34//64
f 34//64 260//67 259//66
f 29//59 307//53 308//52
f 308//52 353//169 260//67
f 28//60 30//65 35//68
f 31//69 35//68 311//70
f 259//66 258//72 35//68
f 258//72 355//156 311//70
f 31//69 36//73 32//58
f 36//73 332//75 331//62
f 310//71 309//74 36//73
f 309//74 366//239 332//75
f 41//76 42//79 38//77
f 42//79 309//74 310//71
f 334//80 333//81 42//79
f 333//81 366//239 309//74
f 37//78 38//77 43//82
f 43//82 269//85 268//84
f 38//77 310//71 311//70
f 311//70 355//156 269//85
f 37//78 39//83 44//86
f 40//87 44//86 314//88
f 268//84 267//90 44//86
f 267//90 357//151 314//88
f 40//87 45//91 41//76
f 45//91 335//93 334//80
f 313//89 312//100 45//91
f 45//91 312//100 367//92
f 50//94 51//97 47//95
f 51//97 312//100 313//89
f 337//98 336//99 51//97
f 336//99 367//92 312//100
f 46//96 47//95 52//101
f 52//101 278//104 277//103
f 47//95 313//89 314//88
f 314//88 357//151 278//104
f 46//96 48//102 53//105
f 49//106 53//105 317//107
f 277//103 276//109 53//105
f 276//109 359//224 317//107
f 49//106 54//110 50//94
f 54//110 338//112 337//98
f 316//108 315//111 54//110
f 315//111 368//240 338//112
f 59//113 60//116 56//114
f 60//116 318//120 319//117
f 340//118 339//241 60//116
f 60//116 339//241 369//119
f 55//115 56//114 61//121
f 61//121 296//125 295//123
f 56//114 319//117 320//124
f 320//124 361//213 296//125
f 55//115 57//122 62//126
f 58//127 62//126 233//12
f 295//123 294//128 62//126
f 294//128 347//182 233//12
f 58//127 63//129 59//113
f 63//129 341//130 340//118
f 232//5 231//8 63//129
f 231//8 362//234 341//130
f 68//131 69//134 65//132
f 69//134 315//111 316//108
f 343//135 342//136 69//134
f 342//136 368//240 315//111
f 64//133 65//132 70//137
f 70//137 287//140 286//139
f 65//132 316//108 317//107
f 317//107 359//224 287//140
f 64//133 66//138 71//141
f 67//142 71//141 320//124
f 286//139 285//143 71//141
f 285//143 361//213 320//124
f 67//142 72//144 68//131
f 72//144 344//145 343//135
f 319//117 318//120 72//144
f 318//120 369//119 344//145
f 73//146 76//149 77//147
f 74//148 77//147 267//90
f 76//149 202//158 201//150
f 77//147 201//150 357//151
f 73//146 74//148 78//152
f 75//153 78//152 221//154
f 74//148 268//84 269//85
f 78//152 269//85 355//156
f 75//153 79//157 76//149
f 79//157 203//160 202//158
f 220//155 219//159 79//157
f 219//159 345//259 203//160
f 80//161 83//164 84//162
f 81//163 84//162 258//72
f 83//164 220//155 221//154
f 84//162 221//154 355//156
f 80//161 81//163 85//165
f 82//166 85//165 218//167
f 81//163 259//66 260//67
f 85//165 260//67 353//169
f 82//166 86//170 83//164
f 86//170 219//159 220//155
f 217//168 216//171 86//170
f 216//171 345//259 219//159
f 87//172 90//175 91//173
f 88//174 91//173 228//18
f 90//175 211//184 210//176
f 91//173 210//176 349//177
f 87//172 88//174 92//178
f 89//179 92//178 209//180
f 88//174 229//11 230//13
f 92//178 230//13 347//182
f 89//179 93//183 90//175
f 93//183 212//186 211//184
f 208//181 207//185 93//183
f 207//185 345//259 212//186
f 94//187 97//190 98//188
f 95//189 98//188 249//54
f 97//190 217//168 218//167
f 98//188 218//167 353//169
f 94//187 95//189 99//191
f 96//192 99//191 215//193
f 95//189 250//48 251//49
f 99//191 251//49 351//195
f 96//192 100//196 97//190
f 100//196 216//171 217//168
f 214//194 213//197 100//196
f 213//197 345//259 216//171
f 101//198 104//201 105//199
f 102//200 105//199 240//35
f 104//201 214//194 215//193
f 105//199 215//193 351//195
f 101//198 102//200 106//202
f 103//203 106//202 210//176
f 102//200 241//29 242//30
f 106//202 242//30 349//177
f 103//203 107//204 104//201
f 107//204 213//197 214//194
f 211//184 212//186 107//204
f 212//186 345//259 213//197
f 108//205 111//208 112//206
f 109//207 112//206 294//128
f 111//208 208//181 209//180
f 112//206 209//180 347//182
f 108//205 109//207 113//209
f 110//210 113//209 224//211
f 109//207 295//123 296//125
f 113//209 296//125 361//213
f 110//210 114//214 111//208
f 114//214 207//185 208//181
f 223//212 222//215 114//214
f 222//215 345//259 207//185
f 115//216 118//219 119//217
f 116//218 119//217 285//143
f 118//219 223//212 224//211
f 119//217 224//211 361//213
f 115//216 116//218 120//220
f 117//221 120//220 206//222
f 116//218 286//139 287//140
f 120//220 287//140 359//224
f 117//221 121//225 118//219
f 121//225 222//215 223//212
f 205//223 204//226 121//225
f 204//226 345//259 222//215
f 122//227 125//230 126//228
f 123//229 126//228 276//109
f 125//230 205//223 206//222
f 126//228 206//222 359//224
f 122//227 123//229 127//231
f 124//232 127//231 201//150
f 123//229 277//103 278//104
f 127//231 278//104 357//151
f 124//232 128//233 125//230
f 128//233 204//226 205//223
f 202//158 203//160 128//233
f 203//160 345//259 204//226
f 133//6 134//7 130//7
f 134//7 299//234 298//234
f 226//6 225//7 134//7
f 225//7 346//234 299//234
f 130//7 135//7 131//6
f 131//6 135//7 321//7
f 298//234 297//234 135//7
f 297//234 362//234 321//7
f 131//6 136//21 132//21
f 136//21 234//235 235//235
f 322//6 323//21 136//21
f 323//21 363//235 234//235
f 132//21 137//21 133//6
f 137//21 227//21 226//6
f 235//235 236//235 137//21
f 236//235 348//235 227//21
f 142//37 143//26 139//26
f 143//26 236//235 235//235
f 238//37 237//26 143//26
f 237//26 348//235 236//235
f 139//26 144//26 140//236
f 144//26 324//26 325//37
f 235//235 234//235 144//26
f 234//235 363//235 324//26
f 140//236 145//39 141//39
f 145//39 243//45 244//45
f 325//37 326//39 145//39
f 326//39 364//45 243//45
f 141//39 146//39 142//37
f 146//39 239//39 238//37
f 244//45 245//45 146//39
f 245//45 350//45 239//39
f 151//44 152//237 148//237
f 152//237 245//45 244//45
f 247//44 246//237 152//237
f 246//237 350//45 245//45
f 148//237 153//237 149//44
f 153//237 327//237 328//44
f 244//45 243//45 153//237
f 243//45 364//45 327//237
f 149//44 154//57 150//57
f 154//57 252//238 253//238
f 328//44 329//57 154//57
f 329//57 365//238 252//238
f 150//57 155//57 151//44
f 155//57 248//57 247//44
f 253//238 254//238 155//57
f 254//238 352//238 248//57
f 160//62 161//63 157//63
f 157//63 161//63 254//238
f 256//62 255//63 161//63
f 255//63 352//238 254//238
f 157//63 162//63 158//62
f 162//63 330//63 331//62
f 253//238 252//238 162//63
f 252//238 365//238 330//63
f 158//62 163//75 159//75
f 163//75 261//239 262//239
f 331//62 332//75 163//75
f 332//75 366//239 261//239
f 159//75 164//75 160//62
f 164//75 257//75 256//62
f 262//239 263//239 164//75
f 263//239 354//239 257//75
f 169//80 170//81 166//81
f 170//81 263//239 262//239
f 265//80 264//81 170//81
f 170//81 264//81 354//239
f 166//81 171//81 167//80
f 171//81 333//81 334//80
f 262//239 261//239 171//81
f 261//239 366//239 333//81
f 167//80 172//93 168//93
f 172//93 270//92 271//92
f 334//80 335//93 172//93
f 335//93 367//92 270//92
f 168//93 173//93 169//80
f 173//93 266//93 265//80
f 168//93 271//92 272//92
f 272//92 356//92 266//93
f 178//98 179//99 175//99
f 179//99 272//92 271//92
f 274//98 273//99 179//99
f 273//99 356//92 272//92
f 175//99 180//99 176//98
f 180//99 336//99 337//98
f 271//92 270//92 180//99
f 270//92 367//92 336//99
f 176//98 181//112 177//112
f 181//112 279//240 280//240
f 337//98 338//112 181//112
f 338//112 368//240 279//240
f 177//112 182//112 178//98
f 182//112 275//112 274//98
f 177//112 280//240 281//240
f 281//240 358//240 275//112
f 187//118 188//241 184//241
f 188//241 290//119 289//119
f 292//118 291//241 188//241
f 291//241 360//119 290//119
f 184//241 189//241 185//118
f 189//241 339//241 340//118
f 289//119 288//119 189//241
f 288//119 369//119 339//241
f 185//118 190//130 186//130
f 190//130 297//234 298//234
f 340//118 341//130 190//130
f 341//130 362//234 297//234
f 186//130 191//130 187//118
f 191//130 293//130 292//118
f 298//234 299//234 191//130
f 299//234 346//234 293//130
f 196//135 197//136 193//136
f 197//136 281//240 280//240
f 283//135 282//136 197//136
f 282//136 358//240 281//240
f 193//136 198//136 194//135
f 198//136 342//136 343//135
f 280//240 279//240 198//136
f 279//240 368//240 342//136
f 194//135 199//145 195//145
f 199//145 288//119 289//119
f 343//135 344//145 199//145
f 344//145 369//119 288//119
f 195//145 200//145 196//135
f 200//145 284//145 283//135
f 289//119 290//119 200//145
f 290//119 360//119 284//145
f 371//127 375//129 374//113
f 601//5 600//8 375//129
f 375//129 690//130 691//118
f 600//8 731//234 690//130
f 370//115 372//122 376//126
f 598//123 599//128 376//126
f 371//127 376//126 602//12
f 599//128 716//182 602//12
f 370//115 373//242 377//121
f 373//242 670//243 671//124
f 377//121 597//125 598//123
f 671//124 718//213 597//125
f 374//113 378//116 373//242
f 691//118 692//241 378//116
f 378//116 669//120 670//243
f 692//241 732//119 669//120
f 380//142 384//144 383//131
f 670//243 669//120 384//144
f 383//131 384//144 693//145
f 669//120 732//119 693//145
f 379//133 381//138 385//141
f 610//139 611//143 385//141
f 380//142 385//141 671//124
f 611//143 718//213 671//124
f 379//133 382//132 386//137
f 382//132 673//108 674//107
f 386//137 609//140 610//139
f 674//107 720//224 609//140
f 383//131 387//134 382//132
f 694//135 695//136 387//134
f 387//134 672//111 673//108
f 695//136 733//240 672//111
f 389//106 393//110 392//94
f 673//108 672//111 393//110
f 393//110 696//112 697//98
f 393//110 672//111 733//240
f 388//96 390//102 394//105
f 619//103 620//109 394//105
f 389//106 394//105 674//107
f 620//109 720//224 674//107
f 388//96 391//95 395//101
f 391//95 676//89 677//88
f 395//101 618//104 619//103
f 677//88 722//151 618//104
f 392//94 396//97 391//95
f 697//98 698//99 396//97
f 396//97 675//100 676//89
f 698//99 734//92 675//100
f 398//87 402//91 401//244
f 676//89 675//100 402//91
f 402//91 699//93 700//80
f 675//100 734//92 699//93
f 397//78 399//246 403//245
f 628//84 629//90 403//245
f 398//87 403//245 677//88
f 629//90 722//151 677//88
f 397//78 400//77 404//82
f 400//77 679//71 680//70
f 404//82 627//85 628//84
f 680//70 724//156 627//85
f 401//244 405//79 400//77
f 700//80 701//81 405//79
f 405//79 678//74 679//71
f 701//81 735//239 678//74
f 407//69 411//73 410//247
f 679//71 678//74 411//73
f 411//73 702//75 703//62
f 678//74 735//239 702//75
f 406//60 408//65 412//68
f 637//66 638//248 412//68
f 407//69 412//68 680//70
f 638//248 724//156 680//70
f 406//60 409//59 413//64
f 409//59 682//53 683//52
f 413//64 636//67 637//66
f 683//52 726//169 636//67
f 410//247 414//61 409//59
f 703//62 704//63 414//61
f 414//61 681//56 682//53
f 414//61 704//63 736//238
f 416//51 420//55 419//40
f 682//53 681//56 420//55
f 419//40 420//55 705//57
f 681//56 736//238 705//57
f 415//42 417//47 421//50
f 646//48 647//54 421//50
f 416//51 421//50 683//52
f 647//54 726//169 683//52
f 415//42 418//41 422//46
f 418//41 685//34 686//33
f 422//46 645//49 646//48
f 686//33 728//195 645//49
f 419//40 423//43 418//41
f 706//44 707//237 423//43
f 423//43 684//38 685//34
f 707//237 737//45 684//38
f 425//249 429//19 428//1
f 688//250 687//20 429//19
f 429//19 708//21 709//6
f 429//19 687//20 738//235
f 424//3 426//10 430//14
f 664//11 665//18 430//14
f 425//249 430//14 689//16
f 665//18 730//177 689//16
f 424//3 427//2 431//9
f 427//2 601//5 602//12
f 431//9 663//13 664//11
f 602//12 716//182 663//13
f 428//1 432//4 427//2
f 709//6 710//7 432//4
f 432//4 600//8 601//5
f 710//7 731//234 600//8
f 434//32 438//36 437//22
f 685//34 684//38 438//36
f 438//36 711//39 712//37
f 684//38 737//45 711//39
f 433//24 435//28 439//31
f 655//29 656//35 439//31
f 434//32 439//31 686//33
f 656//35 728//195 686//33
f 433//24 436//23 440//27
f 436//23 688//250 689//16
f 440//27 654//30 655//29
f 689//16 730//177 654//30
f 437//22 441//25 436//23
f 712//37 713//26 441//25
f 441//25 687//20 688//250
f 441//25 713//26 738//235
f 442//161 443//163 446//165
f 443//163 637//66 636//67
f 445//166 446//165 570//167
f 446//165 636//67 726//169
f 442//161 444//164 447//162
f 444//164 589//155 590//154
f 443//163 447//162 638//248
f 447//162 590//154 724//156
f 445//166 448//170 444//164
f 571//168 572//171 448//170
f 448//170 588//159 589//155
f 572//171 714//259 588//159
f 449//146 450//148 453//152
f 450//148 628//84 627//85
f 452//251 453//152 590//154
f 453//152 627//85 724//156
f 449//146 451//149 454//147
f 451//149 586//158 587//150
f 450//148 454//147 629//90
f 454//147 587//150 722//151
f 452//251 455//157 451//149
f 589//155 588//159 455//157
f 455//157 585//160 586//158
f 588//159 714//259 585//160
f 456//205 457//207 460//209
f 457//207 598//123 597//125
f 459//210 460//209 579//211
f 460//209 597//125 718//213
f 456//205 458//208 461//206
f 458//208 577//181 578//180
f 457//207 461//206 599//128
f 461//206 578//180 716//182
f 459//210 462//214 458//208
f 580//212 581//215 462//214
f 462//214 576//185 577//181
f 581//215 714//259 576//185
f 463//227 464//229 467//231
f 464//229 619//103 618//104
f 466//232 467//231 587//150
f 467//231 618//104 722//151
f 463//227 465//230 468//252
f 465//230 583//223 584//222
f 464//229 468//252 620//109
f 468//252 584//222 720//224
f 466//232 469//233 465//230
f 586//158 585//160 469//233
f 469//233 582//226 583//223
f 585//160 714//259 582//226
f 470//216 471//218 474//253
f 471//218 610//139 609//140
f 473//254 474//253 584//222
f 474//253 609//140 720//224
f 470//216 472//219 475//217
f 472//219 580//212 579//211
f 471//218 475//217 611//143
f 475//217 579//211 718//213
f 473//254 476//225 472//219
f 583//223 582//226 476//225
f 476//225 581//215 580//212
f 582//226 714//259 581//215
f 477//172 478//174 481//178
f 478//174 664//11 663//13
f 480//179 481//178 578//180
f 481//178 663//13 716//182
f 477//172 479//175 482//173
f 479//175 592//184 593//176
f 478//174 482//173 665//18
f 482//173 593//176 730//177
f 480//179 483//183 479//175
f 577//181 576//185 483//183
f 483//183 591//186 592//184
f 576//185 714//259 591//186
f 484//198 485//200 488//202
f 485//200 655//29 654//30
f 487//203 488//202 593//176
f 488//202 654//30 730//177
f 484//198 486//256 489//255
f 486//256 574//194 575//193
f 485//200 489//255 656//35
f 489//255 575//193 728//195
f 487//203 490//204 486//256
f 592//184 591//186 490//204
f 490//204 573//197 574//194
f 591//186 714//259 573//197
f 491//187 492//189 495//257
f 492//189 646//48 645//49
f 494//192 495//257 575//193
f 495//257 645//49 728//195
f 491//187 493//190 496//188
f 493//190 571//168 570//167
f 492//189 496//188 647//54
f 496//188 570//167 726//169
f 494//192 497//196 493//190
f 574//194 573//197 497//196
f 497//196 572//171 571//168
f 573//197 714//259 572//171
f 499//130 503//130 502//118
f 667//234 668//234 503//130
f 503//130 594//130 595//118
f 668//234 715//234 594//130
f 500//118 504//130 499//130
f 500//118 691//118 690//130
f 504//130 666//234 667//234
f 690//130 731//234 666//234
f 501//241 505//241 500//118
f 604//119 603//119 505//241
f 505//241 692//241 691//118
f 505//241 603//119 732//119
f 502//118 506//241 501//241
f 595//118 596//241 506//241
f 506//241 605//119 604//119
f 596//241 717//119 605//119
f 508//145 512//145 511//135
f 604//119 605//119 512//145
f 512//145 606//145 607//135
f 605//119 717//119 606//145
f 509//258 513//145 508//145
f 694//135 693//145 513//145
f 513//145 603//119 604//119
f 693//145 732//119 603//119
f 510//136 514//136 509//258
f 613//240 612//240 514//136
f 514//136 695//136 694//135
f 612//240 733//240 695//136
f 511//135 515//136 510//136
f 607//135 608//136 515//136
f 515//136 614//240 613//240
f 608//136 719//240 614//240
f 517//112 521//112 520//98
f 613//240 614//240 521//112
f 521//112 615//112 616//98
f 614//240 719//240 615//112
f 518//98 522//112 517//112
f 697//98 696//112 522//112
f 522//112 612//240 613//240
f 696//112 733//240 612//240
f 519//99 523//99 518//98
f 519//99 622//92 621//92
f 523//99 698//99 697//98
f 621//92 734//92 698//99
f 520//98 524//99 519//99
f 616//98 617//99 524//99
f 524//99 623//92 622//92
f 617//99 721//92 623//92
f 526//93 530//93 529//80
f 526//93 622//92 623//92
f 530//93 624//93 625//80
f 530//93 623//92 721//92
f 527//80 531//93 526//93
f 700//80 699//93 531//93
f 531//93 621//92 622//92
f 699//93 734//92 621//92
f 528//81 532//81 527//80
f 631//239 630//239 532//81
f 527//80 532//81 701//81
f 630//239 735//239 701//81
f 529//80 533//81 528//81
f 625//80 626//81 533//81
f 533//81 632//239 631//239
f 626//81 723//239 632//239
f 535//75 539//75 538//62
f 631//239 632//239 539//75
f 539//75 633//75 634//62
f 539//75 632//239 723//239
f 536//62 540//75 535//75
f 703//62 702//75 540//75
f 540//75 630//239 631//239
f 702//75 735//239 630//239
f 537//63 541//63 536//62
f 640//238 639//238 541//63
f 541//63 704//63 703//62
f 639//238 736//238 704//63
f 538//62 542//63 537//63
f 634//62 635//63 542//63
f 537//63 542//63 641//238
f 635//63 725//238 641//238
f 544//57 548//57 547//44
f 640//238 641//238 548//57
f 548//57 642//57 643//44
f 641//238 725//238 642//57
f 545//44 549//57 544//57
f 706//44 705//57 549//57
f 544//57 549//57 639//238
f 705//57 736//238 639//238
f 546//237 550//237 545//44
f 649//45 648//45 550//237
f 550//237 707//237 706//44
f 648//45 737//45 707//237
f 547//44 551//237 546//237
f 643//44 644//237 551//237
f 546//237 551//237 650//45
f 644//237 727//45 650//45
f 553//21 557//21 556//6
f 658//235 659//235 557//21
f 557//21 660//21 661//6
f 659//235 729//235 660//21
f 554//6 558//21 553//21
f 709//6 708//21 558//21
f 558//21 657//235 658//235
f 708//21 738//235 657//235
f 555//7 559//7 554//6
f 667//234 666//234 559//7
f 559//7 710//7 709//6
f 666//234 731//234 710//7
f 556//6 560//7 555//7
f 661//6 662//7 560//7
f 560//7 668//234 667//234
f 662//7 715//234 668//234
f 562//39 566//39 565//37
f 649//45 650//45 566//39
f 566//39 651//39 652//37
f 650//45 727//45 651//39
f 563//37 567//39 562//39
f 712//37 711//39 567//39
f 567//39 648//45 649//45
f 711//39 737//45 648//45
f 564//26 568//26 563//37
f 658//235 657//235 568//26
f 568//26 713//26 712//37
f 657//235 738//235 713//26
f 565//37 569//26 564//26
f 652//37 653//26 569//26
f 569//26 659//235 658//235
f 653//26 729//235 659//235
