# Blender v2.79 (sub 0) OBJ File: 'm3.blend'
# www.blender.org
o LF_Axle_Mesh.009
v 1.533427 -0.853252 3.211888
v 1.535829 -0.872360 3.208807
v 1.539681 -0.890479 3.203827
v 1.544876 -0.907435 3.197087
v 1.551309 -0.923052 3.188725
v 1.558874 -0.937155 3.178882
v 1.567463 -0.949569 3.167695
v 1.576970 -0.960119 3.155306
v 1.587290 -0.968629 3.141852
v 1.598315 -0.974925 3.127473
v 1.609941 -0.978831 3.112309
v 1.622059 -0.980172 3.096499
v 1.634114 -0.978831 3.080639
v 1.645675 -0.974925 3.065426
v 1.656636 -0.968629 3.050999
v 1.666892 -0.960119 3.037496
v 1.676335 -0.949569 3.025058
v 1.684860 -0.937155 3.013823
v 1.692360 -0.923052 3.003930
v 1.698729 -0.907435 2.995519
v 1.703861 -0.890479 2.988730
v 1.707648 -0.872360 2.983701
v 1.709986 -0.853252 2.980571
v 1.710768 -0.833332 2.979481
v 1.709954 -0.813411 2.980547
v 1.707584 -0.794304 2.983652
v 1.703764 -0.776185 2.988657
v 1.698601 -0.759229 2.995421
v 1.692200 -0.743612 3.003808
v 1.684667 -0.729509 3.013676
v 1.676111 -0.717094 3.024886
v 1.666635 -0.706544 3.037301
v 1.656347 -0.698034 3.050779
v 1.645354 -0.691738 3.065182
v 1.633761 -0.687832 3.080370
v 1.621674 -0.686491 3.096205
v 1.609588 -0.687832 3.112040
v 1.597995 -0.691738 3.127229
v 1.587001 -0.698034 3.141632
v 1.576714 -0.706544 3.155110
v 1.567238 -0.717094 3.167524
v 1.558681 -0.729509 3.178735
v 1.551149 -0.743612 3.188603
v 1.544748 -0.759229 3.196989
v 1.539584 -0.776185 3.203754
v 1.535764 -0.794304 3.208759
v 1.533395 -0.813411 3.211864
v 1.532581 -0.833332 3.212929
v 1.621771 -0.833332 3.096279
v 1.364805 -0.853252 3.083183
v 1.367207 -0.872360 3.080102
v 1.371059 -0.890479 3.075122
v 1.376255 -0.907435 3.068382
v 1.382688 -0.923052 3.060020
v 1.390252 -0.937155 3.050176
v 1.398841 -0.949569 3.038990
v 1.408349 -0.960119 3.026600
v 1.418669 -0.968629 3.013147
v 1.429694 -0.974925 2.998768
v 1.441319 -0.978831 2.983604
v 1.453438 -0.980172 2.967793
v 1.465492 -0.978831 2.951934
v 1.477053 -0.974925 2.936721
v 1.488015 -0.968629 2.922294
v 1.498270 -0.960119 2.908791
v 1.507714 -0.949569 2.896353
v 1.516239 -0.937155 2.885118
v 1.523739 -0.923052 2.875225
v 1.530108 -0.907435 2.866814
v 1.535239 -0.890479 2.860024
v 1.539027 -0.872360 2.854995
v 1.541365 -0.853252 2.851866
v 1.542146 -0.833332 2.850776
v 1.541333 -0.813411 2.851842
v 1.538963 -0.794304 2.854947
v 1.535143 -0.776185 2.859951
v 1.529979 -0.759229 2.866716
v 1.523578 -0.743612 2.875103
v 1.516046 -0.729509 2.884970
v 1.507489 -0.717094 2.896181
v 1.498014 -0.706544 2.908595
v 1.487726 -0.698034 2.922073
v 1.476733 -0.691738 2.936476
v 1.465140 -0.687832 2.951665
v 1.453053 -0.686491 2.967500
v 1.440967 -0.687832 2.983335
v 1.429374 -0.691738 2.998523
v 1.418380 -0.698034 3.012926
v 1.408092 -0.706544 3.026405
v 1.398617 -0.717094 3.038819
v 1.390060 -0.729509 3.050029
v 1.382528 -0.743612 3.059897
v 1.376127 -0.759229 3.068284
v 1.370963 -0.776185 3.075049
v 1.367143 -0.794304 3.080053
v 1.364773 -0.813411 3.083158
v 1.363960 -0.833332 3.084224
v 1.307126 -0.841731 2.933292
v 1.308138 -0.849787 2.931993
v 1.309762 -0.857427 2.929893
v 1.311953 -0.864576 2.927051
v 1.314666 -0.871160 2.923526
v 1.317855 -0.877107 2.919375
v 1.321476 -0.882341 2.914659
v 1.325485 -0.886789 2.909435
v 1.329836 -0.890377 2.903762
v 1.334485 -0.893032 2.897700
v 1.339386 -0.894679 2.891306
v 1.344496 -0.895244 2.884640
v 1.349578 -0.894679 2.877954
v 1.354453 -0.893032 2.871539
v 1.359074 -0.890377 2.865456
v 1.363399 -0.886789 2.859763
v 1.367380 -0.882341 2.854518
v 1.370975 -0.877107 2.849782
v 1.374137 -0.871160 2.845610
v 1.376822 -0.864576 2.842064
v 1.378986 -0.857427 2.839201
v 1.380583 -0.849787 2.837081
v 1.381568 -0.841731 2.835762
v 1.381898 -0.833332 2.835302
v 1.381555 -0.824933 2.835751
v 1.380556 -0.816876 2.837060
v 1.378945 -0.809237 2.839170
v 1.376768 -0.802088 2.842023
v 1.374069 -0.795503 2.845559
v 1.370893 -0.789557 2.849720
v 1.367285 -0.784322 2.854446
v 1.363290 -0.779874 2.859680
v 1.358953 -0.776286 2.865363
v 1.354318 -0.773631 2.871436
v 1.349429 -0.771985 2.877840
v 1.344334 -0.771419 2.884516
v 1.339237 -0.771985 2.891193
v 1.334350 -0.773631 2.897597
v 1.329714 -0.776286 2.903670
v 1.325377 -0.779874 2.909352
v 1.321382 -0.784322 2.914587
v 1.317774 -0.789557 2.919313
v 1.314598 -0.795503 2.923474
v 1.311899 -0.802088 2.927010
v 1.309722 -0.809237 2.929862
v 1.308111 -0.816876 2.931973
v 1.307112 -0.824933 2.933281
v 1.306769 -0.833332 2.933731
v 1.186530 -0.841731 2.841244
v 1.187543 -0.849787 2.839945
v 1.189167 -0.857427 2.837845
v 1.191358 -0.864576 2.835003
v 1.194070 -0.871160 2.831478
v 1.197260 -0.877107 2.827327
v 1.200881 -0.882341 2.822611
v 1.204890 -0.886789 2.817387
v 1.209241 -0.890377 2.811714
v 1.213889 -0.893032 2.805652
v 1.218791 -0.894679 2.799258
v 1.223901 -0.895244 2.792592
v 1.228983 -0.894679 2.785905
v 1.233858 -0.893032 2.779491
v 1.238479 -0.890377 2.773408
v 1.242803 -0.886789 2.767715
v 1.246785 -0.882341 2.762470
v 1.250379 -0.877107 2.757733
v 1.253541 -0.871160 2.753562
v 1.256227 -0.864576 2.750016
v 1.258390 -0.857427 2.747154
v 1.259988 -0.849787 2.745033
v 1.260973 -0.841731 2.743714
v 1.261303 -0.833332 2.743254
v 1.260960 -0.824933 2.743703
v 1.259961 -0.816876 2.745013
v 1.258350 -0.809237 2.747123
v 1.256173 -0.802088 2.749975
v 1.253474 -0.795503 2.753511
v 1.250298 -0.789557 2.757671
v 1.246690 -0.784322 2.762398
v 1.242695 -0.779874 2.767632
v 1.238358 -0.776286 2.773315
v 1.233722 -0.773631 2.779388
v 1.228834 -0.771985 2.785792
v 1.223738 -0.771419 2.792469
v 1.218642 -0.771985 2.799145
v 1.213754 -0.773631 2.805549
v 1.209119 -0.776286 2.811622
v 1.204782 -0.779874 2.817304
v 1.200786 -0.784322 2.822539
v 1.197178 -0.789557 2.827265
v 1.194003 -0.795503 2.831426
v 1.191304 -0.802088 2.834962
v 1.189127 -0.809237 2.837814
v 1.187516 -0.816876 2.839924
v 1.186517 -0.824933 2.841233
v 1.186174 -0.833332 2.841683
v 1.223779 -0.833332 2.792499
vt 0.000000 0.000000
vt 0.000000 0.000000
vt 0.000000 0.000000
vt 0.000000 0.000000
vt 0.000000 0.000000
vt 0.000000 0.000000
vt 0.000000 0.000000
vt 0.000000 0.000000
vt 0.000000 0.000000
vt 0.000000 0.000000
vt 0.000000 0.000000
vt 0.000000 0.000000
vt 0.000000 0.000000
vt 0.000000 0.000000
vt 0.000000 0.000000
vt 0.000000 0.000000
vt 0.000000 0.000000
vt 0.000000 0.000000
vt 0.000000 0.000000
vt 0.000000 0.000000
vt 0.000000 0.000000
vt 0.000000 0.000000
vt 0.000000 0.000000
vt 0.000000 0.000000
vt 0.000000 0.000000
vt 0.000000 0.000000
vt 0.000000 0.000000
vt 0.000000 0.000000
vt 0.000000 0.000000
vt 0.000000 0.000000
vt 0.000000 0.000000
vt 0.000000 0.000000
vt 0.000000 0.000000
vt 0.000000 0.000000
vt 0.000000 0.000000
vt 0.000000 0.000000
vt 0.000000 0.000000
vt 0.000000 0.000000
vt 0.000000 0.000000
vt 0.000000 0.000000
vt 0.000000 0.000000
vt 0.000000 0.000000
vt 0.000000 0.000000
vt 0.000000 0.000000
vt 0.000000 0.000000
vt 0.000000 0.000000
vt 0.000000 0.000000
vt 0.000000 0.000000
vt 0.000000 0.000000
vt 0.000000 0.000000
vt 0.000000 0.000000
vt 0.000000 0.000000
vt 0.000000 0.000000
vt 0.000000 0.000000
vt 0.000000 0.000000
vt 0.000000 0.000000
vt 0.000000 0.000000
vt 0.000000 0.000000
vt 0.000000 0.000000
vt 0.000000 0.000000
vt 0.000000 0.000000
vt 0.000000 0.000000
vt 0.000000 0.000000
vt 0.000000 0.000000
vt 0.000000 0.000000
vt 0.000000 0.000000
vt 0.000000 0.000000
vt 0.000000 0.000000
vt 0.000000 0.000000
vt 0.000000 0.000000
vt 0.000000 0.000000
vt 0.000000 0.000000
vt 0.000000 0.000000
vt 0.000000 0.000000
vt 0.000000 0.000000
vt 0.000000 0.000000
vt 0.000000 0.000000
vt 0.000000 0.000000
vt 0.000000 0.000000
vt 0.000000 0.000000
vt 0.000000 0.000000
vt 0.000000 0.000000
vt 0.000000 0.000000
vt 0.000000 0.000000
vt 0.000000 0.000000
vt 0.000000 0.000000
vt 0.000000 0.000000
vt 0.000000 0.000000
vt 0.000000 0.000000
vt 0.000000 0.000000
vt 0.000000 0.000000
vt 0.000000 0.000000
vt 0.000000 0.000000
vt 0.000000 0.000000
vt 0.000000 0.000000
vt 0.000000 0.000000
vt 0.000000 0.000000
vt 0.000000 0.000000
vt 0.000000 0.000000
vt 0.000000 0.000000
vt 0.000000 0.000000
vt 0.000000 0.000000
vt 0.000000 0.000000
vt 0.000000 0.000000
vt 0.000000 0.000000
vt 0.000000 0.000000
vt 0.000000 0.000000
vt 0.000000 0.000000
vt 0.000000 0.000000
vt 0.000000 0.000000
vt 0.000000 0.000000
vt 0.000000 0.000000
vt 0.000000 0.000000
vt 0.000000 0.000000
vt 0.000000 0.000000
vt 0.000000 0.000000
vt 0.000000 0.000000
vt 0.000000 0.000000
vt 0.000000 0.000000
vt 0.000000 0.000000
vt 0.000000 0.000000
vt 0.000000 0.000000
vt 0.000000 0.000000
vt 0.000000 0.000000
vt 0.000000 0.000000
vt 0.000000 0.000000
vt 0.000000 0.000000
vt 0.000000 0.000000
vt 0.000000 0.000000
vt 0.000000 0.000000
vt 0.000000 0.000000
vt 0.000000 0.000000
vt 0.000000 0.000000
vt 0.000000 0.000000
vt 0.000000 0.000000
vt 0.000000 0.000000
vt 0.000000 0.000000
vt 0.000000 0.000000
vt 0.000000 0.000000
vt 0.000000 0.000000
vt 0.000000 0.000000
vt 0.000000 0.000000
vt 0.000000 0.000000
vt 0.000000 0.000000
vt 0.000000 0.000000
vt 0.000000 0.000000
vt 0.000000 0.000000
vt 0.000000 0.000000
vt 0.000000 0.000000
vt 0.000000 0.000000
vt 0.000000 0.000000
vt 0.000000 0.000000
vt 0.000000 0.000000
vt 0.000000 0.000000
vt 0.000000 0.000000
vt 0.000000 0.000000
vt 0.000000 0.000000
vt 0.000000 0.000000
vt 0.000000 0.000000
vt 0.000000 0.000000
vt 0.000000 0.000000
vt 0.000000 0.000000
vt 0.000000 0.000000
vt 0.000000 0.000000
vt 0.000000 0.000000
vt 0.000000 0.000000
vt 0.000000 0.000000
vt 0.000000 0.000000
vt 0.000000 0.000000
vt 0.000000 0.000000
vt 0.000000 0.000000
vt 0.000000 0.000000
vt 0.000000 0.000000
vt 0.000000 0.000000
vt 0.000000 0.000000
vt 0.000000 0.000000
vt 0.000000 0.000000
vt 0.000000 0.000000
vt 0.000000 0.000000
vt 0.000000 0.000000
vt 0.000000 0.000000
vt 0.000000 0.000000
vt 0.000000 0.000000
vt 0.000000 0.000000
vt 0.000000 0.000000
vt 0.000000 0.000000
vt 0.000000 0.000000
vt 0.000000 0.000000
vt 0.000000 0.000000
vt 0.000000 0.000000
vt 0.000000 0.000000
vt 0.000000 0.000000
vt 0.000000 0.000000
vt 0.000000 0.000000
vn -0.7955 -0.0021 -0.6060
vn -0.7946 -0.0007 -0.6071
vn -0.7954 -0.0004 -0.6061
vn -0.7939 -0.0024 -0.6080
vn -0.7943 -0.0022 -0.6076
vn -0.7951 -0.0008 -0.6065
vn -0.7954 -0.0020 -0.6061
vn -0.7944 -0.0003 -0.6073
vn -0.7944 -0.0020 -0.6074
vn -0.7950 -0.0008 -0.6066
vn -0.7938 -0.0025 -0.6082
vn -0.7947 -0.0007 -0.6070
vn -0.7954 -0.0001 -0.6061
vn -0.7957 -0.0024 -0.6056
vn -0.7952 -0.0007 -0.6064
vn -0.7954 -0.0021 -0.6060
vn -0.7949 -0.0008 -0.6068
vn -0.7944 -0.0001 -0.6074
vn -0.7944 -0.0019 -0.6074
vn -0.7945 -0.0005 -0.6073
vn -0.7954 -0.0002 -0.6061
vn -0.7941 -0.0024 -0.6078
vn -0.7944 -0.0021 -0.6075
vn -0.7952 -0.0006 -0.6063
vn -0.7945 -0.0004 -0.6073
vn -0.7949 -0.0008 -0.6067
vn -0.7960 -0.0025 -0.6053
vn -0.7947 -0.0008 -0.6069
vn -0.7954 -0.0003 -0.6061
vn -0.7959 -0.0024 -0.6054
vn -0.7944 -0.0002 -0.6074
vn -0.7956 -0.0022 -0.6059
vn -0.7946 -0.0006 -0.6072
vn -0.7945 -0.0006 -0.6072
vn -0.7942 -0.0023 -0.6077
vn 0.7944 0.0020 0.6074
vn -0.7953 -0.0005 -0.6063
vn -0.7943 -0.0021 -0.6075
vn -0.7951 -0.0007 -0.6064
vn -0.7957 -0.0023 -0.6057
vn -0.7948 -0.0008 -0.6069
vn -0.7953 -0.0005 -0.6062
vn -0.0684 0.2801 0.9575
vn 0.3840 -0.8482 0.3649
vn 0.8455 0.4769 -0.2401
vn 0.8797 -0.3813 -0.2843
vn -0.0421 0.3824 0.9230
vn 0.0779 -0.6381 0.7660
vn 0.8052 0.5626 -0.1874
vn 0.5870 0.8036 0.0982
vn -0.0866 -0.1703 0.9816
vn 0.8461 -0.4758 -0.2403
vn 0.9238 0.1713 -0.3423
vn 0.9333 -0.0571 -0.3547
vn 0.4533 -0.8481 0.2742
vn 0.0316 0.5626 0.8261
vn 0.1300 -0.7044 0.6978
vn 0.2496 0.8036 0.5403
vn -0.0960 -0.0571 0.9937
vn 0.6501 -0.7597 0.0165
vn 0.4521 0.8487 0.2745
vn -0.0960 0.0582 0.9937
vn 0.3154 -0.8328 0.4549
vn 0.8793 0.3824 -0.2841
vn 0.9059 -0.2790 -0.3186
vn -0.0086 0.4769 0.8789
vn 0.2495 -0.8029 0.5414
vn 0.7066 0.7053 -0.0583
vn 0.5208 0.8334 0.1846
vn -0.0422 -0.3813 0.9235
vn 0.7074 -0.7044 -0.0586
vn 0.0780 0.6390 0.7652
vn -0.0086 -0.4758 0.8795
vn 0.5220 -0.8328 0.1843
vn 0.1875 0.7605 0.6217
vn 0.1874 -0.7597 0.6227
vn 0.7587 0.6390 -0.1266
vn 0.0315 -0.5616 0.8268
vn -0.9332 -0.0582 0.3546
vn 0.6491 0.7605 0.0169
vn -0.0866 0.1713 0.9814
vn 0.8058 -0.5616 -0.1876
vn 0.9056 0.2801 -0.3185
vn 0.7595 -0.6381 -0.1269
vn 0.1301 0.7052 0.6969
vn 0.9240 -0.1702 -0.3424
vn 0.3155 0.8334 0.4537
vn -0.0684 -0.2790 0.9579
vn 0.5880 -0.8029 0.0979
vn 0.3840 0.8487 0.3637
vn 0.0407 0.9977 -0.0534
vn 0.2722 -0.8937 -0.3566
vn -0.6054 -0.0672 0.7931
vn -0.1991 0.9446 0.2609
vn -0.3396 -0.8286 0.4450
vn -0.4554 0.6607 0.5967
vn 0.0407 -0.9977 -0.0534
vn 0.6054 -0.0672 -0.7931
vn 0.5944 0.2003 -0.7788
vn 0.5028 -0.5598 -0.6587
vn -0.5944 -0.2003 0.7788
vn 0.1991 0.9446 -0.2609
vn 0.4554 0.6607 -0.5967
vn -0.4009 -0.7506 0.5252
vn -0.5423 0.4486 0.7104
vn 0.5423 -0.4486 -0.7104
vn 0.5028 0.5598 -0.6587
vn -0.0407 -0.9977 0.0534
vn -0.5731 0.3282 0.7509
vn -0.0408 0.9977 0.0534
vn 0.1991 -0.9446 -0.2609
vn -0.5731 -0.3282 0.7509
vn -0.1215 0.9797 0.1592
vn 0.5944 -0.2003 -0.7788
vn -0.3396 0.8286 0.4450
vn 0.4009 -0.7506 -0.5252
vn 0.5731 0.3282 -0.7509
vn 0.4554 -0.6607 -0.5967
vn -0.5944 0.2003 0.7788
vn 0.2722 0.8937 -0.3566
vn -0.4554 -0.6607 0.5967
vn 0.4009 0.7506 -0.5252
vn -0.2722 -0.8937 0.3566
vn -0.2722 0.8937 0.3566
vn 0.1215 -0.9797 -0.1592
vn -0.5028 -0.5598 0.6587
vn -0.4009 0.7506 0.5252
vn 0.3396 -0.8286 -0.4450
vn -0.5423 -0.4486 0.7104
vn 0.1215 0.9797 -0.1592
vn 0.3396 0.8286 -0.4450
vn -0.1991 -0.9446 0.2609
vn -0.5028 0.5598 0.6587
vn 0.5731 -0.3282 -0.7509
vn 0.5423 0.4486 -0.7104
vn -0.1215 -0.9797 0.1592
vn -0.6054 0.0672 0.7931
vn -0.0407 0.9977 0.0534
vn -0.0408 -0.9977 0.0534
vn 0.0408 -0.9977 -0.0534
vn -0.6054 0.0671 0.7931
vn 0.7955 0.0021 0.6060
vn 0.7946 0.0007 0.6071
vn 0.7954 0.0003 0.6061
vn 0.7939 0.0024 0.6080
vn 0.7943 0.0022 0.6076
vn 0.7951 0.0008 0.6065
vn 0.7954 0.0020 0.6061
vn 0.7944 0.0003 0.6074
vn 0.7950 0.0008 0.6066
vn 0.7938 0.0025 0.6082
vn 0.7947 0.0007 0.6070
vn 0.7954 0.0001 0.6061
vn 0.7957 0.0024 0.6056
vn 0.7952 0.0007 0.6063
vn 0.7949 0.0008 0.6068
vn 0.7944 0.0000 0.6074
vn 0.7945 0.0004 0.6073
vn 0.7954 0.0002 0.6061
vn 0.7941 0.0024 0.6078
vn 0.7944 0.0021 0.6074
vn 0.7952 0.0006 0.6063
vn 0.7949 0.0008 0.6067
vn 0.7954 0.0019 0.6061
vn 0.7961 0.0025 0.6052
vn 0.7948 0.0008 0.6069
vn 0.7959 0.0024 0.6055
vn 0.7944 0.0002 0.6074
vn 0.7956 0.0022 0.6059
vn 0.7946 0.0006 0.6072
vn 0.7944 0.0019 0.6074
vn 0.7945 0.0006 0.6072
vn 0.7942 0.0023 0.6077
vn 0.7953 0.0006 0.6062
vn 0.7943 0.0021 0.6076
vn 0.7957 0.0023 0.6057
vn 0.7953 0.0005 0.6062
vn 0.3840 -0.8481 0.3649
vn 0.8456 0.4769 -0.2401
vn 0.8797 -0.3813 -0.2842
vn -0.0866 -0.1702 0.9816
vn 0.4533 -0.8482 0.2742
vn -0.0959 0.0582 0.9937
vn 0.7066 0.7052 -0.0583
vn 0.5209 0.8334 0.1846
vn 0.0780 0.6390 0.7653
vn 0.0316 -0.5617 0.8268
s off
f 17/1/1 49/2/1 18/3/1
f 40/4/2 49/2/2 41/5/2
f 27/6/3 49/2/3 28/7/3
f 10/8/4 49/2/4 11/9/4
f 7/10/5 49/2/5 8/11/5
f 33/12/6 49/2/6 34/13/6
f 19/14/7 49/2/7 20/15/7
f 45/16/8 49/2/8 46/17/8
f 3/18/9 49/2/9 4/19/9
f 34/13/10 49/2/10 35/20/10
f 23/21/7 49/2/7 24/22/7
f 11/9/11 49/2/11 12/23/11
f 39/24/12 49/2/12 40/4/12
f 24/22/13 49/2/13 25/25/13
f 14/26/14 49/2/14 15/27/14
f 31/28/15 49/2/15 32/29/15
f 18/3/16 49/2/16 19/14/16
f 36/30/17 49/2/17 37/31/17
f 47/32/18 49/2/18 48/33/18
f 1/34/19 49/2/19 2/35/19
f 43/36/20 49/2/20 44/37/20
f 25/25/21 49/2/21 26/38/21
f 9/39/22 49/2/22 10/8/22
f 5/40/23 49/2/23 6/41/23
f 30/42/24 49/2/24 31/28/24
f 20/15/7 49/2/7 21/43/7
f 44/37/25 49/2/25 45/16/25
f 4/19/9 49/2/9 5/40/9
f 35/20/26 49/2/26 36/30/26
f 21/43/7 49/2/7 22/44/7
f 12/23/27 49/2/27 13/45/27
f 38/46/28 49/2/28 39/24/28
f 26/38/29 49/2/29 27/6/29
f 13/45/30 49/2/30 14/26/30
f 46/17/31 49/2/31 47/32/31
f 16/47/32 49/2/32 17/1/32
f 41/5/33 49/2/33 42/48/33
f 2/35/9 49/2/9 3/18/9
f 42/48/34 49/2/34 43/36/34
f 22/44/7 49/2/7 23/21/7
f 8/11/35 49/2/35 9/39/35
f 1/34/36 49/2/36 48/33/36
f 29/49/37 49/2/37 30/42/37
f 6/41/38 49/2/38 7/10/38
f 32/29/39 49/2/39 33/12/39
f 15/27/40 49/2/40 16/47/40
f 37/31/41 49/2/41 38/46/41
f 28/7/42 49/2/42 29/49/42
f 71/50/43 118/51/43 70/52/43
f 85/53/44 132/54/44 84/55/44
f 53/56/45 102/57/45 101/58/45
f 93/59/46 142/60/46 141/61/46
f 70/52/47 117/62/47 69/63/47
f 79/64/48 128/65/48 127/66/48
f 54/67/49 103/68/49 102/57/49
f 58/69/50 107/70/50 106/71/50
f 74/72/51 123/73/51 122/74/51
f 92/75/52 141/61/52 140/76/52
f 50/77/53 99/78/53 98/79/53
f 97/80/54 144/81/54 96/82/54
f 85/53/55 134/83/55 133/84/55
f 68/85/56 115/86/56 67/87/56
f 80/88/57 129/89/57 128/65/57
f 64/90/58 111/91/58 63/92/58
f 73/93/59 122/74/59 121/94/59
f 89/95/60 136/96/60 88/97/60
f 60/98/61 109/99/61 108/100/61
f 73/93/62 120/101/62 72/102/62
f 84/55/63 131/103/63 83/104/63
f 52/105/64 101/58/64 100/106/64
f 94/107/65 143/108/65 142/60/65
f 69/63/66 116/109/66 68/85/66
f 82/110/67 131/103/67 130/111/67
f 56/112/68 105/113/68 104/114/68
f 59/115/69 108/100/69 107/70/69
f 77/116/70 124/117/70 76/118/70
f 90/119/71 137/120/71 89/95/71
f 67/87/72 114/121/72 66/122/72
f 78/123/73 125/124/73 77/116/73
f 86/125/74 135/126/74 134/83/74
f 65/127/75 112/128/75 64/90/75
f 81/129/76 130/111/76 129/89/76
f 55/130/77 104/114/77 103/68/77
f 79/64/78 126/131/78 78/123/78
f 97/80/79 98/79/79 50/77/79
f 57/132/80 106/71/80 105/113/80
f 72/102/81 119/133/81 71/50/81
f 91/134/82 140/76/82 139/135/82
f 51/136/83 100/106/83 99/78/83
f 91/134/84 138/137/84 90/119/84
f 66/122/85 113/138/85 65/127/85
f 96/82/86 143/108/86 95/139/86
f 63/92/87 110/140/87 62/141/87
f 76/118/88 123/73/88 75/142/88
f 88/97/89 135/126/89 87/143/89
f 62/141/90 109/99/90 61/144/90
f 11/9/91 61/144/91 60/98/91
f 40/4/92 88/97/92 39/24/92
f 25/25/93 73/93/93 24/22/93
f 15/27/94 63/92/94 14/26/94
f 32/29/95 80/88/95 31/28/95
f 19/14/96 67/87/96 18/3/96
f 37/31/97 85/53/97 36/30/97
f 48/33/98 96/82/98 47/32/98
f 1/34/99 51/136/99 50/77/99
f 44/37/100 92/75/100 43/36/100
f 26/38/101 74/72/101 25/25/101
f 9/39/102 59/115/102 58/69/102
f 5/40/103 55/130/103 54/67/103
f 31/28/104 79/64/104 30/42/104
f 21/43/105 69/63/105 20/15/105
f 45/16/106 93/59/106 44/37/106
f 4/19/107 54/67/107 53/56/107
f 36/30/108 84/55/108 35/20/108
f 22/44/109 70/52/109 21/43/109
f 13/45/110 61/144/110 12/23/110
f 39/24/111 87/143/111 38/46/111
f 27/6/112 75/142/112 26/38/112
f 14/26/113 62/141/113 13/45/113
f 47/32/114 95/139/114 46/17/114
f 17/1/115 65/127/115 16/47/115
f 42/48/116 90/119/116 41/5/116
f 2/35/117 52/105/117 51/136/117
f 43/36/118 91/134/118 42/48/118
f 23/21/119 71/50/119 22/44/119
f 8/11/120 58/69/120 57/132/120
f 48/33/93 50/77/93 1/34/93
f 30/42/121 78/123/121 29/49/121
f 6/41/122 56/112/122 55/130/122
f 33/12/123 81/129/123 32/29/123
f 16/47/124 64/90/124 15/27/124
f 38/46/125 86/125/125 37/31/125
f 29/49/126 77/116/126 28/7/126
f 18/3/127 66/122/127 17/1/127
f 41/5/128 89/95/128 40/4/128
f 28/7/129 76/118/129 27/6/129
f 10/8/130 60/98/130 59/115/130
f 7/10/131 57/132/131 56/112/131
f 34/13/132 82/110/132 33/12/132
f 20/15/133 68/85/133 19/14/133
f 46/17/134 94/107/134 45/16/134
f 3/18/135 53/56/135 52/105/135
f 35/20/136 83/104/136 34/13/136
f 24/22/137 72/102/137 23/21/137
f 124/117/112 171/145/112 123/73/112
f 136/96/111 183/146/111 135/126/111
f 110/140/138 157/147/138 109/99/138
f 119/133/109 166/148/109 118/51/109
f 133/84/139 180/149/139 132/54/139
f 101/58/107 150/150/107 149/151/107
f 141/61/106 190/152/106 189/153/106
f 118/51/105 165/154/105 117/62/105
f 128/65/104 175/155/104 127/66/104
f 102/57/103 151/156/103 150/150/103
f 106/71/102 155/157/102 154/158/102
f 123/73/101 170/159/101 122/74/101
f 141/61/100 188/160/100 140/76/100
f 98/79/99 147/161/99 146/162/99
f 144/81/98 193/163/98 192/164/98
f 134/83/140 181/165/140 133/84/140
f 116/109/96 163/166/96 115/86/96
f 129/89/95 176/167/95 128/65/95
f 112/128/94 159/168/94 111/91/94
f 122/74/93 169/169/93 121/94/93
f 136/96/92 185/170/92 184/171/92
f 108/100/91 157/147/91 156/172/91
f 121/94/141 168/173/141 120/101/141
f 132/54/136 179/174/136 131/103/136
f 100/106/135 149/151/135 148/175/135
f 142/60/134 191/176/134 190/152/134
f 117/62/133 164/177/133 116/109/133
f 131/103/132 178/178/132 130/111/132
f 104/114/131 153/179/131 152/180/131
f 107/70/130 156/172/130 155/157/130
f 125/124/129 172/181/129 124/117/129
f 138/137/128 185/170/128 137/120/128
f 115/86/127 162/182/127 114/121/127
f 126/131/126 173/183/126 125/124/126
f 135/126/125 182/184/125 134/83/125
f 113/138/124 160/185/124 112/128/124
f 130/111/123 177/186/123 129/89/123
f 103/68/122 152/180/122 151/156/122
f 127/66/121 174/187/121 126/131/121
f 145/188/93 146/162/93 98/79/93
f 105/113/120 154/158/120 153/179/120
f 120/101/119 167/189/119 119/133/119
f 140/76/118 187/190/118 139/135/118
f 99/78/117 148/175/117 147/161/117
f 139/135/116 186/191/116 138/137/116
f 114/121/115 161/192/115 113/138/115
f 144/81/114 191/176/114 143/108/114
f 111/91/113 158/193/113 110/140/113
f 162/182/142 163/166/142 194/194/142
f 185/170/143 186/191/143 194/194/143
f 172/181/144 173/183/144 194/194/144
f 155/157/145 156/172/145 194/194/145
f 152/180/146 153/179/146 194/194/146
f 178/178/147 179/174/147 194/194/147
f 164/177/148 165/154/148 194/194/148
f 190/152/149 191/176/149 194/194/149
f 148/175/36 149/151/36 194/194/36
f 179/174/150 180/149/150 194/194/150
f 168/173/148 169/169/148 194/194/148
f 156/172/151 157/147/151 194/194/151
f 184/171/152 185/170/152 194/194/152
f 169/169/153 170/159/153 194/194/153
f 159/168/154 160/185/154 194/194/154
f 176/167/155 177/186/155 194/194/155
f 163/166/142 164/177/142 194/194/142
f 181/165/156 182/184/156 194/194/156
f 192/164/157 193/163/157 194/194/157
f 146/162/36 147/161/36 194/194/36
f 188/160/158 189/153/158 194/194/158
f 170/159/159 171/145/159 194/194/159
f 154/158/160 155/157/160 194/194/160
f 150/150/161 151/156/161 194/194/161
f 175/155/162 176/167/162 194/194/162
f 165/154/148 166/148/148 194/194/148
f 189/153/158 190/152/158 194/194/158
f 149/151/36 150/150/36 194/194/36
f 180/149/163 181/165/163 194/194/163
f 166/148/164 167/189/164 194/194/164
f 157/147/165 158/193/165 194/194/165
f 183/146/166 184/171/166 194/194/166
f 171/145/144 172/181/144 194/194/144
f 158/193/167 159/168/167 194/194/167
f 191/176/168 192/164/168 194/194/168
f 161/192/169 162/182/169 194/194/169
f 186/191/170 187/190/170 194/194/170
f 147/161/171 148/175/171 194/194/171
f 187/190/172 188/160/172 194/194/172
f 167/189/148 168/173/148 194/194/148
f 153/179/173 154/158/173 194/194/173
f 146/162/9 193/163/9 194/194/9
f 174/187/174 175/155/174 194/194/174
f 151/156/175 152/180/175 194/194/175
f 177/186/147 178/178/147 194/194/147
f 160/185/176 161/192/176 194/194/176
f 182/184/166 183/146/166 194/194/166
f 173/183/177 174/187/177 194/194/177
f 71/50/43 119/133/43 118/51/43
f 85/53/178 133/84/178 132/54/178
f 53/56/179 54/67/179 102/57/179
f 93/59/180 94/107/180 142/60/180
f 70/52/47 118/51/47 117/62/47
f 79/64/48 80/88/48 128/65/48
f 54/67/49 55/130/49 103/68/49
f 58/69/50 59/115/50 107/70/50
f 74/72/181 75/142/181 123/73/181
f 92/75/52 93/59/52 141/61/52
f 50/77/53 51/136/53 99/78/53
f 97/80/54 145/188/54 144/81/54
f 85/53/182 86/125/182 134/83/182
f 68/85/56 116/109/56 115/86/56
f 80/88/57 81/129/57 129/89/57
f 64/90/58 112/128/58 111/91/58
f 73/93/59 74/72/59 122/74/59
f 89/95/60 137/120/60 136/96/60
f 60/98/61 61/144/61 109/99/61
f 73/93/183 121/94/183 120/101/183
f 84/55/63 132/54/63 131/103/63
f 52/105/64 53/56/64 101/58/64
f 94/107/65 95/139/65 143/108/65
f 69/63/66 117/62/66 116/109/66
f 82/110/67 83/104/67 131/103/67
f 56/112/184 57/132/184 105/113/184
f 59/115/185 60/98/185 108/100/185
f 77/116/70 125/124/70 124/117/70
f 90/119/71 138/137/71 137/120/71
f 67/87/186 115/86/186 114/121/186
f 78/123/73 126/131/73 125/124/73
f 86/125/74 87/143/74 135/126/74
f 65/127/75 113/138/75 112/128/75
f 81/129/76 82/110/76 130/111/76
f 55/130/77 56/112/77 104/114/77
f 79/64/187 127/66/187 126/131/187
f 97/80/79 145/188/79 98/79/79
f 57/132/80 58/69/80 106/71/80
f 72/102/81 120/101/81 119/133/81
f 91/134/82 92/75/82 140/76/82
f 51/136/83 52/105/83 100/106/83
f 91/134/84 139/135/84 138/137/84
f 66/122/85 114/121/85 113/138/85
f 96/82/86 144/81/86 143/108/86
f 63/92/87 111/91/87 110/140/87
f 76/118/88 124/117/88 123/73/88
f 88/97/89 136/96/89 135/126/89
f 62/141/90 110/140/90 109/99/90
f 11/9/91 12/23/91 61/144/91
f 40/4/92 89/95/92 88/97/92
f 25/25/93 74/72/93 73/93/93
f 15/27/94 64/90/94 63/92/94
f 32/29/95 81/129/95 80/88/95
f 19/14/96 68/85/96 67/87/96
f 37/31/97 86/125/97 85/53/97
f 48/33/98 97/80/98 96/82/98
f 1/34/99 2/35/99 51/136/99
f 44/37/100 93/59/100 92/75/100
f 26/38/101 75/142/101 74/72/101
f 9/39/102 10/8/102 59/115/102
f 5/40/103 6/41/103 55/130/103
f 31/28/104 80/88/104 79/64/104
f 21/43/105 70/52/105 69/63/105
f 45/16/106 94/107/106 93/59/106
f 4/19/107 5/40/107 54/67/107
f 36/30/139 85/53/139 84/55/139
f 22/44/109 71/50/109 70/52/109
f 13/45/110 62/141/110 61/144/110
f 39/24/111 88/97/111 87/143/111
f 27/6/112 76/118/112 75/142/112
f 14/26/113 63/92/113 62/141/113
f 47/32/114 96/82/114 95/139/114
f 17/1/115 66/122/115 65/127/115
f 42/48/116 91/134/116 90/119/116
f 2/35/117 3/18/117 52/105/117
f 43/36/118 92/75/118 91/134/118
f 23/21/119 72/102/119 71/50/119
f 8/11/120 9/39/120 58/69/120
f 48/33/93 97/80/93 50/77/93
f 30/42/121 79/64/121 78/123/121
f 6/41/122 7/10/122 56/112/122
f 33/12/123 82/110/123 81/129/123
f 16/47/124 65/127/124 64/90/124
f 38/46/125 87/143/125 86/125/125
f 29/49/126 78/123/126 77/116/126
f 18/3/127 67/87/127 66/122/127
f 41/5/128 90/119/128 89/95/128
f 28/7/129 77/116/129 76/118/129
f 10/8/130 11/9/130 60/98/130
f 7/10/131 8/11/131 57/132/131
f 34/13/132 83/104/132 82/110/132
f 20/15/133 69/63/133 68/85/133
f 46/17/134 95/139/134 94/107/134
f 3/18/135 4/19/135 53/56/135
f 35/20/136 84/55/136 83/104/136
f 24/22/137 73/93/137 72/102/137
f 124/117/112 172/181/112 171/145/112
f 136/96/111 184/171/111 183/146/111
f 110/140/138 158/193/138 157/147/138
f 119/133/109 167/189/109 166/148/109
f 133/84/139 181/165/139 180/149/139
f 101/58/107 102/57/107 150/150/107
f 141/61/106 142/60/106 190/152/106
f 118/51/105 166/148/105 165/154/105
f 128/65/104 176/167/104 175/155/104
f 102/57/103 103/68/103 151/156/103
f 106/71/102 107/70/102 155/157/102
f 123/73/101 171/145/101 170/159/101
f 141/61/100 189/153/100 188/160/100
f 98/79/99 99/78/99 147/161/99
f 144/81/98 145/188/98 193/163/98
f 134/83/140 182/184/140 181/165/140
f 116/109/96 164/177/96 163/166/96
f 129/89/95 177/186/95 176/167/95
f 112/128/94 160/185/94 159/168/94
f 122/74/93 170/159/93 169/169/93
f 136/96/92 137/120/92 185/170/92
f 108/100/91 109/99/91 157/147/91
f 121/94/137 169/169/137 168/173/137
f 132/54/136 180/149/136 179/174/136
f 100/106/135 101/58/135 149/151/135
f 142/60/134 143/108/134 191/176/134
f 117/62/133 165/154/133 164/177/133
f 131/103/132 179/174/132 178/178/132
f 104/114/131 105/113/131 153/179/131
f 107/70/130 108/100/130 156/172/130
f 125/124/129 173/183/129 172/181/129
f 138/137/128 186/191/128 185/170/128
f 115/86/127 163/166/127 162/182/127
f 126/131/126 174/187/126 173/183/126
f 135/126/125 183/146/125 182/184/125
f 113/138/124 161/192/124 160/185/124
f 130/111/123 178/178/123 177/186/123
f 103/68/122 104/114/122 152/180/122
f 127/66/121 175/155/121 174/187/121
f 145/188/93 193/163/93 146/162/93
f 105/113/120 106/71/120 154/158/120
f 120/101/119 168/173/119 167/189/119
f 140/76/118 188/160/118 187/190/118
f 99/78/117 100/106/117 148/175/117
f 139/135/116 187/190/116 186/191/116
f 114/121/115 162/182/115 161/192/115
f 144/81/114 192/164/114 191/176/114
f 111/91/113 159/168/113 158/193/113
