# Blender v2.79 (sub 0) OBJ File: 'm3.blend'
# www.blender.org
o RF_Axle_Mesh.010
v -1.712824 -0.853252 3.116445
v -1.710486 -0.872360 3.113316
v -1.706698 -0.890479 3.108287
v -1.701567 -0.907435 3.101497
v -1.695198 -0.923052 3.093087
v -1.687698 -0.937155 3.083194
v -1.679173 -0.949569 3.071959
v -1.669729 -0.960119 3.059520
v -1.659474 -0.968630 3.046018
v -1.648512 -0.974926 3.031590
v -1.636951 -0.978832 3.016377
v -1.624897 -0.980172 3.000518
v -1.612778 -0.978832 2.984707
v -1.601153 -0.974926 2.969543
v -1.590127 -0.968630 2.955165
v -1.579808 -0.960119 2.941711
v -1.570300 -0.949569 2.929321
v -1.561711 -0.937155 2.918135
v -1.554147 -0.923052 2.908291
v -1.547714 -0.907435 2.899930
v -1.542518 -0.890479 2.893189
v -1.538666 -0.872360 2.888209
v -1.536264 -0.853252 2.885128
v -1.535419 -0.833332 2.884087
v -1.536232 -0.813411 2.885153
v -1.538602 -0.794304 2.888258
v -1.542422 -0.776185 2.893263
v -1.547586 -0.759229 2.900028
v -1.553987 -0.743612 2.908414
v -1.561519 -0.729509 2.918282
v -1.570076 -0.717095 2.929492
v -1.579551 -0.706545 2.941907
v -1.589839 -0.698034 2.955385
v -1.600832 -0.691738 2.969788
v -1.612426 -0.687832 2.984977
v -1.624512 -0.686491 3.000811
v -1.636598 -0.687832 3.016646
v -1.648192 -0.691738 3.031835
v -1.659185 -0.698034 3.046238
v -1.669473 -0.706545 3.059716
v -1.678948 -0.717095 3.072130
v -1.687505 -0.729509 3.083341
v -1.695037 -0.743612 3.093209
v -1.701438 -0.759229 3.101595
v -1.706602 -0.776185 3.108360
v -1.710422 -0.794304 3.113365
v -1.712792 -0.813411 3.116470
v -1.713605 -0.833332 3.117536
v -1.624608 -0.833332 3.000738
v -1.544202 -0.853252 3.245151
v -1.541865 -0.872360 3.242021
v -1.538077 -0.890479 3.236992
v -1.532945 -0.907435 3.230203
v -1.526577 -0.923052 3.221792
v -1.519076 -0.937155 3.211899
v -1.510551 -0.949569 3.200664
v -1.501108 -0.960119 3.188226
v -1.490852 -0.968630 3.174723
v -1.479891 -0.974926 3.160295
v -1.468330 -0.978832 3.145082
v -1.456275 -0.980172 3.129223
v -1.444157 -0.978831 3.113413
v -1.432532 -0.974926 3.098248
v -1.421506 -0.968630 3.083870
v -1.411187 -0.960119 3.070416
v -1.401679 -0.949569 3.058027
v -1.393090 -0.937155 3.046840
v -1.385526 -0.923052 3.036997
v -1.379093 -0.907435 3.028635
v -1.373897 -0.890479 3.021894
v -1.370045 -0.872360 3.016914
v -1.367643 -0.853252 3.013834
v -1.366798 -0.833332 3.012792
v -1.367611 -0.813411 3.013858
v -1.369981 -0.794304 3.016963
v -1.373801 -0.776185 3.021968
v -1.378965 -0.759229 3.028733
v -1.385365 -0.743612 3.037119
v -1.392898 -0.729509 3.046987
v -1.401455 -0.717095 3.058198
v -1.410930 -0.706545 3.070612
v -1.421218 -0.698034 3.084090
v -1.432211 -0.691738 3.098493
v -1.443804 -0.687832 3.113682
v -1.455891 -0.686491 3.129517
v -1.467977 -0.687832 3.145351
v -1.479570 -0.691738 3.160540
v -1.490564 -0.698034 3.174943
v -1.500852 -0.706545 3.188421
v -1.510327 -0.717095 3.200835
v -1.518884 -0.729509 3.212046
v -1.526416 -0.743612 3.221914
v -1.532817 -0.759229 3.230300
v -1.537981 -0.776185 3.237065
v -1.541800 -0.794304 3.242070
v -1.544170 -0.813411 3.245175
v -1.544984 -0.833332 3.246241
v -1.384406 -0.841731 3.261255
v -1.383420 -0.849787 3.259936
v -1.381823 -0.857427 3.257815
v -1.379660 -0.864576 3.254952
v -1.376974 -0.871161 3.251406
v -1.373812 -0.877107 3.247235
v -1.370218 -0.882341 3.242498
v -1.366236 -0.886789 3.237254
v -1.361912 -0.890378 3.231560
v -1.357290 -0.893032 3.225477
v -1.352416 -0.894679 3.219063
v -1.347333 -0.895244 3.212376
v -1.342224 -0.894679 3.205710
v -1.337322 -0.893032 3.199317
v -1.332674 -0.890378 3.193254
v -1.328323 -0.886789 3.187582
v -1.324314 -0.882341 3.182358
v -1.320693 -0.877107 3.177641
v -1.317503 -0.871161 3.173491
v -1.314791 -0.864576 3.169965
v -1.312600 -0.857427 3.167123
v -1.310976 -0.849787 3.165024
v -1.309963 -0.841731 3.163725
v -1.309607 -0.833332 3.163286
v -1.309950 -0.824933 3.163735
v -1.310949 -0.816876 3.165044
v -1.312560 -0.809237 3.167154
v -1.314737 -0.802088 3.170007
v -1.317436 -0.795503 3.173542
v -1.320611 -0.789557 3.177703
v -1.324219 -0.784323 3.182430
v -1.328214 -0.779874 3.187664
v -1.332552 -0.776286 3.193347
v -1.337187 -0.773632 3.199420
v -1.342075 -0.771985 3.205824
v -1.347171 -0.771419 3.212500
v -1.352267 -0.771985 3.219177
v -1.357155 -0.773632 3.225581
v -1.361790 -0.776286 3.231653
v -1.366128 -0.779874 3.237336
v -1.370123 -0.784323 3.242570
v -1.373731 -0.789557 3.247297
v -1.376907 -0.795503 3.251458
v -1.379606 -0.802088 3.254994
v -1.381783 -0.809237 3.257846
v -1.383393 -0.816877 3.259956
v -1.384393 -0.824933 3.261265
v -1.384736 -0.833332 3.261715
v -1.263811 -0.841731 3.353303
v -1.262825 -0.849787 3.351984
v -1.261228 -0.857427 3.349863
v -1.259065 -0.864576 3.347000
v -1.256379 -0.871161 3.343454
v -1.253217 -0.877107 3.339283
v -1.249623 -0.882341 3.334546
v -1.245641 -0.886789 3.329302
v -1.241317 -0.890378 3.323608
v -1.236695 -0.893032 3.317525
v -1.231821 -0.894679 3.311111
v -1.226738 -0.895244 3.304424
v -1.221629 -0.894679 3.297758
v -1.216727 -0.893032 3.291364
v -1.212078 -0.890378 3.285302
v -1.207727 -0.886789 3.279630
v -1.203719 -0.882341 3.274406
v -1.200097 -0.877107 3.269689
v -1.196908 -0.871161 3.265539
v -1.194196 -0.864576 3.262013
v -1.192005 -0.857427 3.259171
v -1.190381 -0.849787 3.257071
v -1.189368 -0.841731 3.255773
v -1.189012 -0.833332 3.255333
v -1.189355 -0.824933 3.255783
v -1.190354 -0.816876 3.257092
v -1.191964 -0.809237 3.259202
v -1.194142 -0.802088 3.262054
v -1.196840 -0.795503 3.265590
v -1.200016 -0.789557 3.269751
v -1.203624 -0.784323 3.274478
v -1.207619 -0.779874 3.279712
v -1.211957 -0.776286 3.285395
v -1.216592 -0.773632 3.291468
v -1.221480 -0.771985 3.297872
v -1.226576 -0.771419 3.304548
v -1.231672 -0.771985 3.311224
v -1.236560 -0.773632 3.317628
v -1.241195 -0.776286 3.323701
v -1.245533 -0.779874 3.329384
v -1.249528 -0.784323 3.334618
v -1.253136 -0.789557 3.339345
v -1.256312 -0.795503 3.343506
v -1.259011 -0.802088 3.347042
v -1.261188 -0.809237 3.349894
v -1.262798 -0.816876 3.352004
v -1.263798 -0.824933 3.353313
v -1.264140 -0.833332 3.353763
v -1.226617 -0.833332 3.304517
vt 0.000000 0.000000
vt 0.000000 0.000000
vt 0.000000 0.000000
vt 0.000000 0.000000
vt 0.000000 0.000000
vt 0.000000 0.000000
vt 0.000000 0.000000
vt 0.000000 0.000000
vt 0.000000 0.000000
vt 0.000000 0.000000
vt 0.000000 0.000000
vt 0.000000 0.000000
vt 0.000000 0.000000
vt 0.000000 0.000000
vt 0.000000 0.000000
vt 0.000000 0.000000
vt 0.000000 0.000000
vt 0.000000 0.000000
vt 0.000000 0.000000
vt 0.000000 0.000000
vt 0.000000 0.000000
vt 0.000000 0.000000
vt 0.000000 0.000000
vt 0.000000 0.000000
vt 0.000000 0.000000
vt 0.000000 0.000000
vt 0.000000 0.000000
vt 0.000000 0.000000
vt 0.000000 0.000000
vt 0.000000 0.000000
vt 0.000000 0.000000
vt 0.000000 0.000000
vt 0.000000 0.000000
vt 0.000000 0.000000
vt 0.000000 0.000000
vt 0.000000 0.000000
vt 0.000000 0.000000
vt 0.000000 0.000000
vt 0.000000 0.000000
vt 0.000000 0.000000
vt 0.000000 0.000000
vt 0.000000 0.000000
vt 0.000000 0.000000
vt 0.000000 0.000000
vt 0.000000 0.000000
vt 0.000000 0.000000
vt 0.000000 0.000000
vt 0.000000 0.000000
vt 0.000000 0.000000
vt 0.000000 0.000000
vt 0.000000 0.000000
vt 0.000000 0.000000
vt 0.000000 0.000000
vt 0.000000 0.000000
vt 0.000000 0.000000
vt 0.000000 0.000000
vt 0.000000 0.000000
vt 0.000000 0.000000
vt 0.000000 0.000000
vt 0.000000 0.000000
vt 0.000000 0.000000
vt 0.000000 0.000000
vt 0.000000 0.000000
vt 0.000000 0.000000
vt 0.000000 0.000000
vt 0.000000 0.000000
vt 0.000000 0.000000
vt 0.000000 0.000000
vt 0.000000 0.000000
vt 0.000000 0.000000
vt 0.000000 0.000000
vt 0.000000 0.000000
vt 0.000000 0.000000
vt 0.000000 0.000000
vt 0.000000 0.000000
vt 0.000000 0.000000
vt 0.000000 0.000000
vt 0.000000 0.000000
vt 0.000000 0.000000
vt 0.000000 0.000000
vt 0.000000 0.000000
vt 0.000000 0.000000
vt 0.000000 0.000000
vt 0.000000 0.000000
vt 0.000000 0.000000
vt 0.000000 0.000000
vt 0.000000 0.000000
vt 0.000000 0.000000
vt 0.000000 0.000000
vt 0.000000 0.000000
vt 0.000000 0.000000
vt 0.000000 0.000000
vt 0.000000 0.000000
vt 0.000000 0.000000
vt 0.000000 0.000000
vt 0.000000 0.000000
vt 0.000000 0.000000
vt 0.000000 0.000000
vt 0.000000 0.000000
vt 0.000000 0.000000
vt 0.000000 0.000000
vt 0.000000 0.000000
vt 0.000000 0.000000
vt 0.000000 0.000000
vt 0.000000 0.000000
vt 0.000000 0.000000
vt 0.000000 0.000000
vt 0.000000 0.000000
vt 0.000000 0.000000
vt 0.000000 0.000000
vt 0.000000 0.000000
vt 0.000000 0.000000
vt 0.000000 0.000000
vt 0.000000 0.000000
vt 0.000000 0.000000
vt 0.000000 0.000000
vt 0.000000 0.000000
vt 0.000000 0.000000
vt 0.000000 0.000000
vt 0.000000 0.000000
vt 0.000000 0.000000
vt 0.000000 0.000000
vt 0.000000 0.000000
vt 0.000000 0.000000
vt 0.000000 0.000000
vt 0.000000 0.000000
vt 0.000000 0.000000
vt 0.000000 0.000000
vt 0.000000 0.000000
vt 0.000000 0.000000
vt 0.000000 0.000000
vt 0.000000 0.000000
vt 0.000000 0.000000
vt 0.000000 0.000000
vt 0.000000 0.000000
vt 0.000000 0.000000
vt 0.000000 0.000000
vt 0.000000 0.000000
vt 0.000000 0.000000
vt 0.000000 0.000000
vt 0.000000 0.000000
vt 0.000000 0.000000
vt 0.000000 0.000000
vt 0.000000 0.000000
vt 0.000000 0.000000
vt 0.000000 0.000000
vt 0.000000 0.000000
vt 0.000000 0.000000
vt 0.000000 0.000000
vt 0.000000 0.000000
vt 0.000000 0.000000
vt 0.000000 0.000000
vt 0.000000 0.000000
vt 0.000000 0.000000
vt 0.000000 0.000000
vt 0.000000 0.000000
vt 0.000000 0.000000
vt 0.000000 0.000000
vt 0.000000 0.000000
vt 0.000000 0.000000
vt 0.000000 0.000000
vt 0.000000 0.000000
vt 0.000000 0.000000
vt 0.000000 0.000000
vt 0.000000 0.000000
vt 0.000000 0.000000
vt 0.000000 0.000000
vt 0.000000 0.000000
vt 0.000000 0.000000
vt 0.000000 0.000000
vt 0.000000 0.000000
vt 0.000000 0.000000
vt 0.000000 0.000000
vt 0.000000 0.000000
vt 0.000000 0.000000
vt 0.000000 0.000000
vt 0.000000 0.000000
vt 0.000000 0.000000
vt 0.000000 0.000000
vt 0.000000 0.000000
vt 0.000000 0.000000
vt 0.000000 0.000000
vt 0.000000 0.000000
vt 0.000000 0.000000
vt 0.000000 0.000000
vt 0.000000 0.000000
vt 0.000000 0.000000
vt 0.000000 0.000000
vt 0.000000 0.000000
vt 0.000000 0.000000
vt 0.000000 0.000000
vt 0.000000 0.000000
vt 0.000000 0.000000
vt 0.000000 0.000000
vn 0.7943 -0.0022 0.6075
vn 0.7952 -0.0007 0.6064
vn 0.7945 -0.0004 0.6073
vn 0.7959 -0.0024 0.6054
vn 0.7956 -0.0022 0.6059
vn 0.7947 -0.0008 0.6069
vn 0.7944 -0.0020 0.6074
vn 0.7954 -0.0003 0.6061
vn 0.7954 -0.0020 0.6061
vn 0.7948 -0.0008 0.6069
vn 0.7960 -0.0025 0.6053
vn 0.7951 -0.0007 0.6065
vn 0.7944 -0.0001 0.6074
vn 0.7941 -0.0024 0.6078
vn 0.7946 -0.0007 0.6071
vn 0.7944 -0.0021 0.6074
vn 0.7949 -0.0008 0.6067
vn 0.7954 -0.0001 0.6061
vn 0.7954 -0.0019 0.6061
vn 0.7953 -0.0005 0.6062
vn 0.7944 -0.0002 0.6074
vn 0.7958 -0.0024 0.6056
vn 0.7954 -0.0021 0.6060
vn 0.7946 -0.0006 0.6072
vn 0.7953 -0.0004 0.6062
vn 0.7949 -0.0008 0.6068
vn 0.7938 -0.0025 0.6082
vn 0.7951 -0.0008 0.6065
vn 0.7944 -0.0003 0.6074
vn 0.7939 -0.0024 0.6080
vn 0.7954 -0.0002 0.6061
vn 0.7942 -0.0022 0.6076
vn 0.7952 -0.0006 0.6063
vn 0.7953 -0.0006 0.6062
vn 0.7944 -0.0019 0.6074
vn 0.7956 -0.0023 0.6058
vn -0.7954 0.0020 -0.6061
vn 0.7945 -0.0006 0.6072
vn 0.7955 -0.0021 0.6060
vn 0.7947 -0.0007 0.6070
vn 0.7942 -0.0023 0.6077
vn 0.7950 -0.0008 0.6066
vn 0.7945 -0.0005 0.6073
vn -0.9056 0.2801 0.3185
vn -0.4533 -0.8482 -0.2742
vn 0.0086 0.4769 -0.8789
vn 0.0422 -0.3813 -0.9235
vn -0.8793 0.3824 0.2841
vn -0.7595 -0.6381 0.1269
vn -0.0316 0.5626 -0.8261
vn -0.2495 0.8036 -0.5403
vn -0.9240 -0.1703 0.3424
vn 0.0086 -0.4758 -0.8795
vn 0.0866 0.1713 -0.9814
vn 0.0960 -0.0571 -0.9937
vn -0.3840 -0.8481 -0.3649
vn -0.8052 0.5626 0.1874
vn -0.7074 -0.7044 0.0586
vn -0.5870 0.8036 -0.0982
vn -0.9333 -0.0571 0.3547
vn -0.1874 -0.7597 -0.6227
vn -0.3840 0.8487 -0.3637
vn -0.9332 0.0582 0.3546
vn -0.5220 -0.8328 -0.1843
vn 0.0421 0.3824 -0.9231
vn 0.0684 -0.2790 -0.9579
vn -0.8456 0.4769 0.2401
vn -0.5880 -0.8029 -0.0979
vn -0.1301 0.7052 -0.6969
vn -0.3155 0.8334 -0.4537
vn -0.8797 -0.3813 0.2843
vn -0.1300 -0.7044 -0.6978
vn -0.7587 0.6390 0.1266
vn -0.8461 -0.4758 0.2403
vn -0.3154 -0.8328 -0.4549
vn -0.6491 0.7605 -0.0169
vn -0.6501 -0.7597 -0.0165
vn -0.0780 0.6390 -0.7652
vn -0.8058 -0.5617 0.1876
vn -0.0960 -0.0582 0.9937
vn -0.1875 0.7605 -0.6217
vn -0.9238 0.1713 0.3423
vn -0.0316 -0.5616 -0.8268
vn 0.0684 0.2801 -0.9575
vn -0.0779 -0.6381 -0.7660
vn -0.7066 0.7053 0.0583
vn 0.0866 -0.1702 -0.9816
vn -0.5209 0.8334 -0.1846
vn -0.9059 -0.2790 0.3186
vn -0.2495 -0.8029 -0.5414
vn -0.4521 0.8487 -0.2745
vn 0.0407 0.9977 -0.0534
vn 0.2722 -0.8937 -0.3566
vn -0.6054 -0.0672 0.7931
vn -0.1991 0.9446 0.2609
vn -0.3396 -0.8286 0.4450
vn -0.4554 0.6607 0.5967
vn 0.0407 -0.9977 -0.0534
vn 0.6054 -0.0672 -0.7931
vn 0.5944 0.2003 -0.7788
vn 0.5028 -0.5598 -0.6587
vn -0.5944 -0.2003 0.7788
vn 0.1991 0.9446 -0.2609
vn 0.4554 0.6607 -0.5967
vn -0.4009 -0.7506 0.5252
vn -0.5423 0.4486 0.7104
vn 0.5423 -0.4486 -0.7104
vn 0.5028 0.5598 -0.6587
vn -0.0407 -0.9977 0.0534
vn -0.5731 0.3282 0.7509
vn -0.0407 0.9977 0.0534
vn 0.1991 -0.9446 -0.2609
vn -0.5731 -0.3282 0.7509
vn -0.1215 0.9797 0.1592
vn 0.5944 -0.2003 -0.7788
vn -0.3396 0.8286 0.4450
vn 0.4009 -0.7506 -0.5252
vn 0.5731 0.3282 -0.7509
vn 0.4554 -0.6607 -0.5967
vn -0.5944 0.2003 0.7788
vn 0.2722 0.8937 -0.3566
vn -0.4554 -0.6607 0.5967
vn 0.4009 0.7506 -0.5252
vn -0.2722 -0.8937 0.3566
vn -0.2722 0.8937 0.3566
vn 0.1215 -0.9797 -0.1592
vn -0.5028 -0.5598 0.6587
vn -0.4009 0.7506 0.5252
vn 0.3396 -0.8286 -0.4450
vn -0.5423 -0.4486 0.7104
vn 0.1215 0.9797 -0.1592
vn 0.3396 0.8286 -0.4450
vn -0.1991 -0.9446 0.2609
vn -0.5028 0.5598 0.6587
vn 0.5731 -0.3282 -0.7509
vn 0.5423 0.4486 -0.7104
vn -0.1215 -0.9797 0.1592
vn -0.6054 0.0672 0.7931
vn -0.5731 -0.3283 0.7509
vn -0.0408 0.9977 0.0534
vn 0.0408 -0.9977 -0.0534
vn -0.6054 -0.0671 0.7931
vn 0.0408 0.9977 -0.0534
vn -0.6054 0.0671 0.7931
vn -0.7943 0.0021 -0.6075
vn -0.7952 0.0007 -0.6064
vn -0.7945 0.0003 -0.6073
vn -0.7959 0.0024 -0.6054
vn -0.7956 0.0022 -0.6059
vn -0.7947 0.0008 -0.6070
vn -0.7944 0.0020 -0.6074
vn -0.7954 0.0003 -0.6061
vn -0.7954 0.0019 -0.6061
vn -0.7948 0.0008 -0.6069
vn -0.7944 0.0019 -0.6074
vn -0.7960 0.0025 -0.6052
vn -0.7951 0.0007 -0.6064
vn -0.7944 0.0001 -0.6074
vn -0.7940 0.0024 -0.6079
vn -0.7946 0.0007 -0.6071
vn -0.7944 0.0021 -0.6074
vn -0.7950 0.0008 -0.6067
vn -0.7954 0.0000 -0.6061
vn -0.7953 0.0005 -0.6062
vn -0.7944 0.0002 -0.6074
vn -0.7957 0.0024 -0.6056
vn -0.7954 0.0021 -0.6060
vn -0.7946 0.0006 -0.6072
vn -0.7954 0.0004 -0.6061
vn -0.7949 0.0008 -0.6068
vn -0.7938 0.0025 -0.6082
vn -0.7951 0.0008 -0.6065
vn -0.7944 0.0003 -0.6074
vn -0.7939 0.0024 -0.6080
vn -0.7954 0.0002 -0.6061
vn -0.7942 0.0022 -0.6076
vn -0.7953 0.0006 -0.6063
vn -0.7953 0.0005 -0.6063
vn -0.7956 0.0023 -0.6058
vn -0.7945 0.0006 -0.6072
vn -0.7955 0.0021 -0.6060
vn -0.7947 0.0007 -0.6070
vn -0.7942 0.0023 -0.6077
vn -0.7950 0.0008 -0.6066
vn -0.7945 0.0005 -0.6073
vn -0.8792 0.3824 0.2841
vn -0.2496 0.8036 -0.5403
vn -0.9240 -0.1702 0.3424
vn 0.0087 -0.4758 -0.8795
vn 0.0865 0.1713 -0.9814
vn -0.3840 -0.8482 -0.3649
vn -0.3841 0.8487 -0.3636
vn -0.9332 0.0581 0.3546
vn -0.8455 0.4769 0.2401
vn -0.8797 -0.3813 0.2842
vn -0.8058 -0.5616 0.1876
vn -0.0960 -0.0581 0.9937
vn -0.7066 0.7052 0.0583
vn 0.6054 -0.0671 -0.7931
vn -0.1992 0.9446 0.2609
vn 0.3396 -0.8287 -0.4450
s off
f 17/1/1 18/2/1 49/3/1
f 40/4/2 41/5/2 49/3/2
f 27/6/3 28/7/3 49/3/3
f 10/8/4 11/9/4 49/3/4
f 7/10/5 8/11/5 49/3/5
f 33/12/6 34/13/6 49/3/6
f 19/14/7 20/15/7 49/3/7
f 45/16/8 46/17/8 49/3/8
f 3/18/9 4/19/9 49/3/9
f 34/13/10 35/20/10 49/3/10
f 23/21/7 24/22/7 49/3/7
f 11/9/11 12/23/11 49/3/11
f 39/24/12 40/4/12 49/3/12
f 24/22/13 25/25/13 49/3/13
f 14/26/14 15/27/14 49/3/14
f 31/28/15 32/29/15 49/3/15
f 18/2/16 19/14/16 49/3/16
f 36/30/17 37/31/17 49/3/17
f 47/32/18 48/33/18 49/3/18
f 1/34/19 2/35/19 49/3/19
f 43/36/20 44/37/20 49/3/20
f 25/25/21 26/38/21 49/3/21
f 9/39/22 10/8/22 49/3/22
f 5/40/23 6/41/23 49/3/23
f 30/42/24 31/28/24 49/3/24
f 20/15/7 21/43/7 49/3/7
f 44/37/25 45/16/25 49/3/25
f 4/19/9 5/40/9 49/3/9
f 35/20/26 36/30/26 49/3/26
f 21/43/7 22/44/7 49/3/7
f 12/23/27 13/45/27 49/3/27
f 38/46/28 39/24/28 49/3/28
f 26/38/29 27/6/29 49/3/29
f 13/45/30 14/26/30 49/3/30
f 46/17/31 47/32/31 49/3/31
f 16/47/32 17/1/32 49/3/32
f 41/5/33 42/48/33 49/3/33
f 2/35/9 3/18/9 49/3/9
f 42/48/34 43/36/34 49/3/34
f 22/44/35 23/21/35 49/3/35
f 8/11/36 9/39/36 49/3/36
f 1/34/37 48/33/37 49/3/37
f 29/49/38 30/42/38 49/3/38
f 6/41/39 7/10/39 49/3/39
f 32/29/40 33/12/40 49/3/40
f 15/27/41 16/47/41 49/3/41
f 37/31/42 38/46/42 49/3/42
f 28/7/43 29/49/43 49/3/43
f 118/50/44 71/51/44 70/52/44
f 132/53/45 85/54/45 84/55/45
f 53/56/46 102/57/46 54/58/46
f 93/59/47 142/60/47 94/61/47
f 117/62/48 70/52/48 69/63/48
f 79/64/49 128/65/49 80/66/49
f 54/58/50 103/67/50 55/68/50
f 58/69/51 107/70/51 59/71/51
f 74/72/52 123/73/52 75/74/52
f 92/75/53 141/76/53 93/59/53
f 50/77/54 99/78/54 51/79/54
f 144/80/55 97/81/55 96/82/55
f 85/54/56 134/83/56 86/84/56
f 115/85/57 68/86/57 67/87/57
f 80/66/58 129/88/58 81/89/58
f 111/90/59 64/91/59 63/92/59
f 73/93/60 122/94/60 74/72/60
f 136/95/61 89/96/61 88/97/61
f 60/98/62 109/99/62 61/100/62
f 120/101/63 73/93/63 72/102/63
f 131/103/64 84/55/64 83/104/64
f 52/105/65 101/106/65 53/56/65
f 94/61/66 143/107/66 95/108/66
f 116/109/67 69/63/67 68/86/67
f 82/110/68 131/103/68 83/104/68
f 56/111/69 105/112/69 57/113/69
f 59/71/70 108/114/70 60/98/70
f 124/115/71 77/116/71 76/117/71
f 137/118/72 90/119/72 89/96/72
f 114/120/73 67/87/73 66/121/73
f 125/122/74 78/123/74 77/116/74
f 86/84/75 135/124/75 87/125/75
f 112/126/76 65/127/76 64/91/76
f 81/89/77 130/128/77 82/110/77
f 55/68/78 104/129/78 56/111/78
f 126/130/79 79/64/79 78/123/79
f 98/131/80 97/81/80 50/77/80
f 57/113/81 106/132/81 58/69/81
f 119/133/82 72/102/82 71/51/82
f 91/134/83 140/135/83 92/75/83
f 51/79/84 100/136/84 52/105/84
f 138/137/85 91/134/85 90/119/85
f 113/138/86 66/121/86 65/127/86
f 143/107/87 96/82/87 95/108/87
f 110/139/88 63/92/88 62/140/88
f 123/73/89 76/117/89 75/74/89
f 135/124/90 88/97/90 87/125/90
f 109/99/91 62/140/91 61/100/91
f 11/9/92 61/100/92 12/23/92
f 88/97/93 40/4/93 39/24/93
f 73/93/94 25/25/94 24/22/94
f 63/92/95 15/27/95 14/26/95
f 80/66/96 32/29/96 31/28/96
f 67/87/97 19/14/97 18/2/97
f 85/54/98 37/31/98 36/30/98
f 47/32/99 97/81/99 48/33/99
f 1/34/100 51/79/100 2/35/100
f 92/75/101 44/37/101 43/36/101
f 74/72/102 26/38/102 25/25/102
f 9/39/103 59/71/103 10/8/103
f 5/40/104 55/68/104 6/41/104
f 79/64/105 31/28/105 30/42/105
f 69/63/106 21/43/106 20/15/106
f 93/59/107 45/16/107 44/37/107
f 4/19/108 54/58/108 5/40/108
f 84/55/109 36/30/109 35/20/109
f 70/52/110 22/44/110 21/43/110
f 61/100/111 13/45/111 12/23/111
f 87/125/112 39/24/112 38/46/112
f 75/74/113 27/6/113 26/38/113
f 62/140/114 14/26/114 13/45/114
f 95/108/115 47/32/115 46/17/115
f 65/127/116 17/1/116 16/47/116
f 90/119/117 42/48/117 41/5/117
f 2/35/118 52/105/118 3/18/118
f 91/134/119 43/36/119 42/48/119
f 71/51/120 23/21/120 22/44/120
f 8/11/121 58/69/121 9/39/121
f 50/77/94 48/33/94 1/34/94
f 78/123/122 30/42/122 29/49/122
f 6/41/123 56/111/123 7/10/123
f 81/89/124 33/12/124 32/29/124
f 64/91/125 16/47/125 15/27/125
f 86/84/126 38/46/126 37/31/126
f 77/116/127 29/49/127 28/7/127
f 66/121/128 18/2/128 17/1/128
f 89/96/129 41/5/129 40/4/129
f 76/117/130 28/7/130 27/6/130
f 10/8/131 60/98/131 11/9/131
f 7/10/132 57/113/132 8/11/132
f 82/110/133 34/13/133 33/12/133
f 68/86/134 20/15/134 19/14/134
f 94/61/135 46/17/135 45/16/135
f 3/18/136 53/56/136 4/19/136
f 83/104/137 35/20/137 34/13/137
f 72/102/138 24/22/138 23/21/138
f 171/141/139 124/115/139 123/73/139
f 183/142/112 136/95/112 135/124/112
f 157/143/140 110/139/140 109/99/140
f 166/144/110 119/133/110 118/50/110
f 180/145/109 133/146/109 132/53/109
f 101/106/108 150/147/108 102/57/108
f 189/148/107 142/60/107 141/76/107
f 165/149/106 118/50/106 117/62/106
f 175/150/105 128/65/105 127/151/105
f 102/57/104 151/152/104 103/67/104
f 106/132/103 155/153/103 107/70/103
f 122/94/102 171/141/102 123/73/102
f 188/154/101 141/76/101 140/135/101
f 98/131/100 147/155/100 99/78/100
f 192/156/99 145/157/99 144/80/99
f 181/158/141 134/83/141 133/146/141
f 163/159/97 116/109/97 115/85/97
f 176/160/96 129/88/96 128/65/96
f 159/161/95 112/126/95 111/90/95
f 121/162/142 170/163/142 122/94/142
f 184/164/93 137/118/93 136/95/93
f 108/114/143 157/143/143 109/99/143
f 168/165/144 121/162/144 120/101/144
f 179/166/137 132/53/137 131/103/137
f 100/136/136 149/167/136 101/106/136
f 190/168/135 143/107/135 142/60/135
f 164/169/134 117/62/134 116/109/134
f 178/170/133 131/103/133 130/128/133
f 104/129/132 153/171/132 105/112/132
f 107/70/131 156/172/131 108/114/131
f 172/173/130 125/122/130 124/115/130
f 185/174/129 138/137/129 137/118/129
f 162/175/128 115/85/128 114/120/128
f 173/176/127 126/130/127 125/122/127
f 182/177/126 135/124/126 134/83/126
f 160/178/125 113/138/125 112/126/125
f 177/179/124 130/128/124 129/88/124
f 103/67/123 152/180/123 104/129/123
f 174/181/122 127/151/122 126/130/122
f 146/182/94 145/157/94 98/131/94
f 105/112/121 154/183/121 106/132/121
f 167/184/120 120/101/120 119/133/120
f 187/185/119 140/135/119 139/186/119
f 99/78/118 148/187/118 100/136/118
f 186/188/117 139/186/117 138/137/117
f 161/189/116 114/120/116 113/138/116
f 191/190/115 144/80/115 143/107/115
f 158/191/114 111/90/114 110/139/114
f 162/175/145 194/192/145 163/159/145
f 185/174/146 194/192/146 186/188/146
f 172/173/147 194/192/147 173/176/147
f 155/153/148 194/192/148 156/172/148
f 152/180/149 194/192/149 153/171/149
f 178/170/150 194/192/150 179/166/150
f 164/169/151 194/192/151 165/149/151
f 190/168/152 194/192/152 191/190/152
f 148/187/153 194/192/153 149/167/153
f 179/166/154 194/192/154 180/145/154
f 168/165/155 194/192/155 169/193/155
f 156/172/156 194/192/156 157/143/156
f 184/164/157 194/192/157 185/174/157
f 169/193/158 194/192/158 170/163/158
f 159/161/159 194/192/159 160/178/159
f 176/160/160 194/192/160 177/179/160
f 163/159/161 194/192/161 164/169/161
f 181/158/162 194/192/162 182/177/162
f 192/156/163 194/192/163 193/194/163
f 146/182/37 194/192/37 147/155/37
f 188/154/164 194/192/164 189/148/164
f 170/163/165 194/192/165 171/141/165
f 154/183/166 194/192/166 155/153/166
f 150/147/167 194/192/167 151/152/167
f 175/150/168 194/192/168 176/160/168
f 165/149/151 194/192/151 166/144/151
f 189/148/169 194/192/169 190/168/169
f 149/167/37 194/192/37 150/147/37
f 180/145/170 194/192/170 181/158/170
f 166/144/155 194/192/155 167/184/155
f 157/143/171 194/192/171 158/191/171
f 183/142/172 194/192/172 184/164/172
f 171/141/173 194/192/173 172/173/173
f 158/191/174 194/192/174 159/161/174
f 191/190/175 194/192/175 192/156/175
f 161/189/176 194/192/176 162/175/176
f 186/188/177 194/192/177 187/185/177
f 147/155/37 194/192/37 148/187/37
f 187/185/178 194/192/178 188/154/178
f 167/184/155 194/192/155 168/165/155
f 153/171/179 194/192/179 154/183/179
f 146/182/9 194/192/9 193/194/9
f 174/181/180 194/192/180 175/150/180
f 151/152/181 194/192/181 152/180/181
f 177/179/182 194/192/182 178/170/182
f 160/178/183 194/192/183 161/189/183
f 182/177/184 194/192/184 183/142/184
f 173/176/185 194/192/185 174/181/185
f 118/50/44 119/133/44 71/51/44
f 132/53/45 133/146/45 85/54/45
f 53/56/46 101/106/46 102/57/46
f 93/59/47 141/76/47 142/60/47
f 117/62/186 118/50/186 70/52/186
f 79/64/49 127/151/49 128/65/49
f 54/58/50 102/57/50 103/67/50
f 58/69/187 106/132/187 107/70/187
f 74/72/188 122/94/188 123/73/188
f 92/75/189 140/135/189 141/76/189
f 50/77/190 98/131/190 99/78/190
f 144/80/55 145/157/55 97/81/55
f 85/54/191 133/146/191 134/83/191
f 115/85/57 116/109/57 68/86/57
f 80/66/58 128/65/58 129/88/58
f 111/90/59 112/126/59 64/91/59
f 73/93/60 121/162/60 122/94/60
f 136/95/61 137/118/61 89/96/61
f 60/98/192 108/114/192 109/99/192
f 120/101/193 121/162/193 73/93/193
f 131/103/64 132/53/64 84/55/64
f 52/105/65 100/136/65 101/106/65
f 94/61/66 142/60/66 143/107/66
f 116/109/194 117/62/194 69/63/194
f 82/110/68 130/128/68 131/103/68
f 56/111/69 104/129/69 105/112/69
f 59/71/70 107/70/70 108/114/70
f 124/115/195 125/122/195 77/116/195
f 137/118/72 138/137/72 90/119/72
f 114/120/73 115/85/73 67/87/73
f 125/122/74 126/130/74 78/123/74
f 86/84/75 134/83/75 135/124/75
f 112/126/76 113/138/76 65/127/76
f 81/89/77 129/88/77 130/128/77
f 55/68/78 103/67/78 104/129/78
f 126/130/196 127/151/196 79/64/196
f 98/131/197 145/157/197 97/81/197
f 57/113/81 105/112/81 106/132/81
f 119/133/82 120/101/82 72/102/82
f 91/134/83 139/186/83 140/135/83
f 51/79/84 99/78/84 100/136/84
f 138/137/85 139/186/85 91/134/85
f 113/138/198 114/120/198 66/121/198
f 143/107/87 144/80/87 96/82/87
f 110/139/88 111/90/88 63/92/88
f 123/73/89 124/115/89 76/117/89
f 135/124/90 136/95/90 88/97/90
f 109/99/91 110/139/91 62/140/91
f 11/9/92 60/98/92 61/100/92
f 88/97/93 89/96/93 40/4/93
f 73/93/94 74/72/94 25/25/94
f 63/92/95 64/91/95 15/27/95
f 80/66/96 81/89/96 32/29/96
f 67/87/97 68/86/97 19/14/97
f 85/54/98 86/84/98 37/31/98
f 47/32/99 96/82/99 97/81/99
f 1/34/100 50/77/100 51/79/100
f 92/75/101 93/59/101 44/37/101
f 74/72/102 75/74/102 26/38/102
f 9/39/103 58/69/103 59/71/103
f 5/40/104 54/58/104 55/68/104
f 79/64/105 80/66/105 31/28/105
f 69/63/106 70/52/106 21/43/106
f 93/59/107 94/61/107 45/16/107
f 4/19/108 53/56/108 54/58/108
f 84/55/109 85/54/109 36/30/109
f 70/52/110 71/51/110 22/44/110
f 61/100/140 62/140/140 13/45/140
f 87/125/112 88/97/112 39/24/112
f 75/74/113 76/117/113 27/6/113
f 62/140/114 63/92/114 14/26/114
f 95/108/115 96/82/115 47/32/115
f 65/127/116 66/121/116 17/1/116
f 90/119/117 91/134/117 42/48/117
f 2/35/118 51/79/118 52/105/118
f 91/134/119 92/75/119 43/36/119
f 71/51/120 72/102/120 23/21/120
f 8/11/121 57/113/121 58/69/121
f 50/77/94 97/81/94 48/33/94
f 78/123/122 79/64/122 30/42/122
f 6/41/123 55/68/123 56/111/123
f 81/89/124 82/110/124 33/12/124
f 64/91/125 65/127/125 16/47/125
f 86/84/126 87/125/126 38/46/126
f 77/116/127 78/123/127 29/49/127
f 66/121/128 67/87/128 18/2/128
f 89/96/129 90/119/129 41/5/129
f 76/117/130 77/116/130 28/7/130
f 10/8/131 59/71/131 60/98/131
f 7/10/132 56/111/132 57/113/132
f 82/110/133 83/104/133 34/13/133
f 68/86/134 69/63/134 20/15/134
f 94/61/135 95/108/135 46/17/135
f 3/18/136 52/105/136 53/56/136
f 83/104/137 84/55/137 35/20/137
f 72/102/138 73/93/138 24/22/138
f 171/141/113 172/173/113 124/115/113
f 183/142/112 184/164/112 136/95/112
f 157/143/111 158/191/111 110/139/111
f 166/144/110 167/184/110 119/133/110
f 180/145/109 181/158/109 133/146/109
f 101/106/108 149/167/108 150/147/108
f 189/148/107 190/168/107 142/60/107
f 165/149/106 166/144/106 118/50/106
f 175/150/105 176/160/105 128/65/105
f 102/57/104 150/147/104 151/152/104
f 106/132/103 154/183/103 155/153/103
f 122/94/102 170/163/102 171/141/102
f 188/154/101 189/148/101 141/76/101
f 98/131/100 146/182/100 147/155/100
f 192/156/199 193/194/199 145/157/199
f 181/158/98 182/177/98 134/83/98
f 163/159/97 164/169/97 116/109/97
f 176/160/96 177/179/96 129/88/96
f 159/161/200 160/178/200 112/126/200
f 121/162/94 169/193/94 170/163/94
f 184/164/93 185/174/93 137/118/93
f 108/114/92 156/172/92 157/143/92
f 168/165/138 169/193/138 121/162/138
f 179/166/137 180/145/137 132/53/137
f 100/136/136 148/187/136 149/167/136
f 190/168/135 191/190/135 143/107/135
f 164/169/134 165/149/134 117/62/134
f 178/170/133 179/166/133 131/103/133
f 104/129/132 152/180/132 153/171/132
f 107/70/131 155/153/131 156/172/131
f 172/173/130 173/176/130 125/122/130
f 185/174/201 186/188/201 138/137/201
f 162/175/128 163/159/128 115/85/128
f 173/176/127 174/181/127 126/130/127
f 182/177/126 183/142/126 135/124/126
f 160/178/125 161/189/125 113/138/125
f 177/179/124 178/170/124 130/128/124
f 103/67/123 151/152/123 152/180/123
f 174/181/122 175/150/122 127/151/122
f 146/182/94 193/194/94 145/157/94
f 105/112/121 153/171/121 154/183/121
f 167/184/120 168/165/120 120/101/120
f 187/185/119 188/154/119 140/135/119
f 99/78/118 147/155/118 148/187/118
f 186/188/117 187/185/117 139/186/117
f 161/189/116 162/175/116 114/120/116
f 191/190/115 192/156/115 144/80/115
f 158/191/114 159/161/114 111/90/114
