# Blender v2.79 (sub 0) OBJ File: 'm3.blend'
# www.blender.org
o Rim_Cap_RF_Circle.013
v -1.666921 -0.853489 2.985427
v -1.674298 -0.835293 2.995091
v -1.669217 -0.815075 2.988434
v -1.653644 -0.812547 2.968031
v -1.646267 -0.830743 2.958367
v -1.651348 -0.850961 2.965024
v -1.664371 -0.855231 2.982085
v -1.673759 -0.839756 2.994386
v -1.671169 -0.818293 2.990992
v -1.656194 -0.810806 2.971373
v -1.646806 -0.826280 2.959072
v -1.649396 -0.847744 2.962466
v -1.661663 -0.856118 2.978538
v -1.672703 -0.843960 2.993001
v -1.672703 -0.822076 2.993001
v -1.661663 -0.809918 2.978538
v -1.658902 -0.809918 2.974921
v -1.647862 -0.822076 2.960456
v -1.647862 -0.843960 2.960456
v -1.658902 -0.856118 2.974920
v -1.671169 -0.847744 2.990992
v -1.673759 -0.826280 2.994386
v -1.664371 -0.810806 2.982085
v -1.649396 -0.818293 2.962466
v -1.646806 -0.839756 2.959072
v -1.656194 -0.855231 2.971373
v -1.669217 -0.850961 2.988434
v -1.674298 -0.830743 2.995091
v -1.666921 -0.812547 2.985427
v -1.651348 -0.815075 2.965024
v -1.646267 -0.835293 2.958367
v -1.653644 -0.853489 2.968031
v -1.671062 -0.879078 2.999473
v -1.687659 -0.838137 3.021218
v -1.676227 -0.792646 3.006240
v -1.641187 -0.786958 2.960333
v -1.624589 -0.827899 2.938587
v -1.636022 -0.873390 2.953566
v -1.665323 -0.882996 2.991954
v -1.686448 -0.848179 3.019630
v -1.680619 -0.799886 3.011995
v -1.646926 -0.783040 2.967852
v -1.625801 -0.817858 2.940175
v -1.631629 -0.866150 2.947811
v -1.659230 -0.884993 2.983972
v -1.684070 -0.857638 3.016516
v -1.684070 -0.808399 3.016516
v -1.659230 -0.781043 2.983972
v -1.653018 -0.781043 2.975834
v -1.628178 -0.808399 2.943290
v -1.628178 -0.857638 2.943290
v -1.653018 -0.884993 2.975834
v -1.680619 -0.866150 3.011995
v -1.686448 -0.817858 3.019630
v -1.665323 -0.783040 2.991954
v -1.631629 -0.799886 2.947811
v -1.625801 -0.848179 2.940175
v -1.646926 -0.882996 2.967852
v -1.676227 -0.873390 3.006240
v -1.687659 -0.827899 3.021218
v -1.671062 -0.786958 2.999473
v -1.636022 -0.792646 2.953566
v -1.624589 -0.838137 2.938587
v -1.641187 -0.879078 2.960333
v -1.666299 -0.894431 3.013432
v -1.688429 -0.839844 3.042426
v -1.673186 -0.779189 3.022455
v -1.626466 -0.771605 2.961245
v -1.604336 -0.826193 2.932251
v -1.619579 -0.886847 2.952223
v -1.658647 -0.899655 3.003407
v -1.686813 -0.853232 3.040309
v -1.679042 -0.788842 3.030128
v -1.634118 -0.766381 2.971270
v -1.605951 -0.812804 2.934368
v -1.613722 -0.877194 2.944550
v -1.650524 -0.902318 2.992764
v -1.683644 -0.865844 3.036156
v -1.683644 -0.800192 3.036156
v -1.650524 -0.763718 2.992764
v -1.642241 -0.763718 2.981913
v -1.609121 -0.800192 2.938521
v -1.609121 -0.865844 2.938521
v -1.642241 -0.902318 2.981913
v -1.679042 -0.877195 3.030128
v -1.686813 -0.812804 3.040309
v -1.658647 -0.766381 3.003407
v -1.613723 -0.788842 2.944550
v -1.605951 -0.853232 2.934368
v -1.634118 -0.899655 2.971270
v -1.673186 -0.886847 3.022455
v -1.688429 -0.826193 3.042426
v -1.666299 -0.771605 3.013432
v -1.619579 -0.779189 2.952223
v -1.604336 -0.839844 2.932251
v -1.626466 -0.894431 2.961245
v -1.671246 -0.894431 3.009656
v -1.693377 -0.839844 3.038650
v -1.678133 -0.779189 3.018678
v -1.631413 -0.771605 2.957469
v -1.609283 -0.826193 2.928475
v -1.624526 -0.886847 2.948447
v -1.663594 -0.899655 2.999631
v -1.691761 -0.853232 3.036533
v -1.683990 -0.788842 3.026351
v -1.639065 -0.766381 2.967494
v -1.610899 -0.812804 2.930592
v -1.618670 -0.877194 2.940773
v -1.655471 -0.902318 2.988988
v -1.688591 -0.865844 3.032380
v -1.688591 -0.800192 3.032380
v -1.655471 -0.763718 2.988988
v -1.647188 -0.763718 2.978137
v -1.614068 -0.800192 2.934745
v -1.614068 -0.865844 2.934745
v -1.647188 -0.902318 2.978137
v -1.683990 -0.877195 3.026351
v -1.691761 -0.812804 3.036533
v -1.663594 -0.766381 2.999631
v -1.618670 -0.788842 2.940773
v -1.610899 -0.853232 2.930592
v -1.639065 -0.899655 2.967494
v -1.678133 -0.886847 3.018678
v -1.693377 -0.826193 3.038650
v -1.671246 -0.771605 3.009656
v -1.624526 -0.779189 2.948447
v -1.609283 -0.839844 2.928475
v -1.631413 -0.894431 2.957469
v -1.657047 -0.768049 2.987248
v -1.664663 -0.770546 2.997226
v -1.671836 -0.775443 3.006624
v -1.678293 -0.782553 3.015083
v -1.683783 -0.791603 3.022276
v -1.688097 -0.802244 3.027928
v -1.691069 -0.814067 3.031821
v -1.692584 -0.826619 3.033806
v -1.692584 -0.839417 3.033806
v -1.691069 -0.851969 3.031821
v -1.688097 -0.863793 3.027928
v -1.683783 -0.874433 3.022276
v -1.678293 -0.883483 3.015083
v -1.671836 -0.890593 3.006624
v -1.664663 -0.895490 2.997226
v -1.657047 -0.897987 2.987248
v -1.649282 -0.897987 2.977075
v -1.641667 -0.895490 2.967098
v -1.634493 -0.890593 2.957699
v -1.628036 -0.883483 2.949241
v -1.622546 -0.874433 2.942047
v -1.618232 -0.863792 2.936395
v -1.615260 -0.851969 2.932503
v -1.613746 -0.839417 2.930518
v -1.613746 -0.826619 2.930518
v -1.615260 -0.814067 2.932503
v -1.618232 -0.802244 2.936395
v -1.622546 -0.791603 2.942047
v -1.628036 -0.782553 2.949241
v -1.634493 -0.775443 2.957699
v -1.641667 -0.770546 2.967098
v -1.649282 -0.768049 2.977075
v -1.656124 -0.780791 2.979903
v -1.665154 -0.851770 2.982782
v -1.673729 -0.876444 3.002968
v -1.672520 -0.836978 2.992431
v -1.687812 -0.833018 3.021419
v -1.669149 -0.818666 2.988016
v -1.673729 -0.789593 3.002968
v -1.655729 -0.814267 2.970433
v -1.638519 -0.789593 2.956838
v -1.648363 -0.829058 2.960784
v -1.624436 -0.833018 2.938387
v -1.651734 -0.847370 2.965199
v -1.638519 -0.876444 2.956838
v -1.662844 -0.852925 2.979755
v -1.671819 -0.840785 2.991513
v -1.670681 -0.821742 2.990022
v -1.658039 -0.813112 2.973460
v -1.649064 -0.825251 2.961702
v -1.650202 -0.844294 2.963193
v -1.660442 -0.853315 2.976608
v -1.670681 -0.844294 2.990022
v -1.671819 -0.825251 2.991513
v -1.662844 -0.813112 2.979755
v -1.650202 -0.821742 2.963193
v -1.649064 -0.840785 2.961702
v -1.658039 -0.852925 2.973460
v -1.669149 -0.847370 2.988016
v -1.672520 -0.829059 2.992431
v -1.665154 -0.814267 2.982782
v -1.651734 -0.818666 2.965199
v -1.648363 -0.836978 2.960784
v -1.655729 -0.851770 2.970433
v -1.660442 -0.812722 2.976608
v -1.668251 -0.881270 2.995790
v -1.667283 -0.849894 2.985571
v -1.687204 -0.843207 3.020621
v -1.672756 -0.833018 2.992741
v -1.678531 -0.796088 3.009259
v -1.667283 -0.816142 2.985571
v -1.643998 -0.784766 2.964015
v -1.653600 -0.816142 2.967644
v -1.625045 -0.822829 2.939185
v -1.648127 -0.833018 2.960474
v -1.633717 -0.869948 2.950547
v -1.653600 -0.849894 2.967644
v -1.662306 -0.884242 2.988002
v -1.685400 -0.853005 3.018258
v -1.682472 -0.804002 3.014422
v -1.649942 -0.781794 2.971804
v -1.626848 -0.813032 2.941547
v -1.629777 -0.862034 2.945384
v -1.656124 -0.885245 2.979903
v -1.682472 -0.862034 3.014422
v -1.685400 -0.813032 3.018258
v -1.662306 -0.781794 2.988002
v -1.629777 -0.804002 2.945384
v -1.626848 -0.853005 2.941547
v -1.649942 -0.884242 2.971803
v -1.678531 -0.869948 3.009259
v -1.687204 -0.822829 3.020621
v -1.668251 -0.784766 2.995790
v -1.633717 -0.796088 2.950547
v -1.625045 -0.843207 2.939185
v -1.643998 -0.881270 2.964015
v -1.669298 -0.865004 2.991356
v -1.680824 -0.836573 3.006456
v -1.672885 -0.804982 2.996055
v -1.648552 -0.801032 2.964175
v -1.637025 -0.829463 2.949074
v -1.644965 -0.861054 2.959476
v -1.665313 -0.867725 2.986134
v -1.679983 -0.843546 3.005354
v -1.675935 -0.810010 3.000051
v -1.652537 -0.798311 2.969396
v -1.637867 -0.822490 2.950177
v -1.641914 -0.856027 2.955479
v -1.661082 -0.869112 2.980591
v -1.678332 -0.850115 3.003191
v -1.678332 -0.815921 3.003191
v -1.661082 -0.796924 2.980591
v -1.656768 -0.796924 2.974939
v -1.639518 -0.815921 2.952339
v -1.639518 -0.850115 2.952339
v -1.656768 -0.869112 2.974939
v -1.675935 -0.856027 3.000051
v -1.679983 -0.822490 3.005354
v -1.665313 -0.798311 2.986134
v -1.641914 -0.810010 2.955479
v -1.637867 -0.843546 2.950177
v -1.652537 -0.867725 2.969396
v -1.672885 -0.861054 2.996055
v -1.680824 -0.829463 3.006456
v -1.669298 -0.801032 2.991356
v -1.644965 -0.804982 2.959476
v -1.637025 -0.836573 2.949074
v -1.648552 -0.865004 2.964175
v -1.646849 -0.763718 2.995569
v -1.654972 -0.766381 3.006212
v -1.662624 -0.771605 3.016237
v -1.669511 -0.779189 3.025259
v -1.675368 -0.788842 3.032932
v -1.679969 -0.800192 3.038961
v -1.683139 -0.812804 3.043113
v -1.684755 -0.826193 3.045230
v -1.684755 -0.839844 3.045230
v -1.683139 -0.853232 3.043113
v -1.679969 -0.865844 3.038961
v -1.675368 -0.877195 3.032932
v -1.669511 -0.886847 3.025259
v -1.662624 -0.894431 3.016237
v -1.654972 -0.899655 3.006212
v -1.646849 -0.902318 2.995569
v -1.638566 -0.902318 2.984718
v -1.630443 -0.899655 2.974075
v -1.622791 -0.894431 2.964050
v -1.615904 -0.886847 2.955027
v -1.610048 -0.877194 2.947354
v -1.605446 -0.865844 2.941326
v -1.602277 -0.853232 2.937173
v -1.600661 -0.839844 2.935056
v -1.600661 -0.826193 2.935056
v -1.602277 -0.812804 2.937173
v -1.605446 -0.800192 2.941326
v -1.610048 -0.788842 2.947355
v -1.615905 -0.779189 2.955027
v -1.622791 -0.771605 2.964050
v -1.630443 -0.766381 2.974075
v -1.638567 -0.763718 2.984718
v -1.669856 -0.890919 3.018092
v -1.667498 -0.897354 3.004746
v -1.688633 -0.833018 3.042693
v -1.692769 -0.846604 3.037853
v -1.669856 -0.775118 3.018092
v -1.681206 -0.783778 3.022704
v -1.622909 -0.775118 2.956585
v -1.635161 -0.768683 2.962379
v -1.604132 -0.833018 2.931984
v -1.609891 -0.819433 2.929272
v -1.622909 -0.890919 2.956585
v -1.621454 -0.882258 2.944421
v -1.659572 -0.901317 2.994362
v -1.690364 -0.859667 3.034703
v -1.686460 -0.794330 3.029588
v -1.643087 -0.764720 2.972764
v -1.612295 -0.806369 2.932422
v -1.616199 -0.871706 2.937537
v -1.651330 -0.902655 2.983562
v -1.686460 -0.871706 3.029588
v -1.690364 -0.806369 3.034703
v -1.646382 -0.763382 2.987339
v -1.659572 -0.764720 2.994362
v -1.616199 -0.794330 2.937537
v -1.612295 -0.859667 2.932422
v -1.643087 -0.901316 2.972763
v -1.681206 -0.882259 3.022704
v -1.692769 -0.819433 3.037853
v -1.667498 -0.768683 3.004746
v -1.621454 -0.783778 2.944421
v -1.609891 -0.846604 2.929272
v -1.635161 -0.897354 2.962379
v -1.674803 -0.890919 3.014316
v -1.662551 -0.897354 3.008522
v -1.693581 -0.833018 3.038917
v -1.687821 -0.846604 3.041629
v -1.674803 -0.775118 3.014316
v -1.676258 -0.783778 3.026480
v -1.627856 -0.775118 2.952809
v -1.630214 -0.768683 2.966156
v -1.609079 -0.833018 2.928208
v -1.604944 -0.819433 2.933048
v -1.627856 -0.890919 2.952809
v -1.616507 -0.882258 2.948197
v -1.654625 -0.901317 2.998138
v -1.685417 -0.859667 3.038479
v -1.681513 -0.794330 3.033364
v -1.638140 -0.764720 2.976540
v -1.607348 -0.806369 2.936198
v -1.611252 -0.871706 2.941313
v -1.646382 -0.902655 2.987339
v -1.681513 -0.871706 3.033364
v -1.685417 -0.806369 3.038479
v -1.651330 -0.763382 2.983562
v -1.654625 -0.764720 2.998138
v -1.611252 -0.794330 2.941313
v -1.607348 -0.859667 2.936198
v -1.638140 -0.901316 2.976539
v -1.676258 -0.882259 3.026480
v -1.687821 -0.819433 3.041629
v -1.662551 -0.768683 3.008522
v -1.616507 -0.783778 2.948197
v -1.604944 -0.846604 2.933048
v -1.630214 -0.897354 2.966155
v -1.669373 -0.894431 3.011086
v -1.691503 -0.839844 3.040079
v -1.676260 -0.779189 3.020108
v -1.629540 -0.771605 2.958899
v -1.607410 -0.826193 2.929905
v -1.622653 -0.886847 2.949876
v -1.661721 -0.899655 3.001060
v -1.689888 -0.853232 3.037962
v -1.682117 -0.788842 3.027781
v -1.637192 -0.766381 2.968924
v -1.609026 -0.812804 2.932022
v -1.616797 -0.877194 2.942203
v -1.653598 -0.902318 2.990418
v -1.686718 -0.865844 3.033810
v -1.686718 -0.800192 3.033810
v -1.653598 -0.763718 2.990418
v -1.645315 -0.763718 2.979567
v -1.612195 -0.800192 2.936175
v -1.612195 -0.865844 2.936175
v -1.645315 -0.902318 2.979567
v -1.682117 -0.877195 3.027781
v -1.689888 -0.812804 3.037962
v -1.661721 -0.766381 3.001060
v -1.616797 -0.788842 2.942203
v -1.609026 -0.853232 2.932022
v -1.637192 -0.899655 2.968924
v -1.676260 -0.886847 3.020108
v -1.691503 -0.826193 3.040079
v -1.669373 -0.771605 3.011086
v -1.622653 -0.779189 2.949876
v -1.607410 -0.839844 2.929905
v -1.629540 -0.894431 2.958899
v -1.653165 -0.767734 2.982162
v -1.660892 -0.768988 2.992286
v -1.668323 -0.772704 3.002021
v -1.675171 -0.778736 3.010993
v -1.681173 -0.786855 3.018857
v -1.686099 -0.796748 3.025311
v -1.689760 -0.808035 3.030106
v -1.692014 -0.820282 3.033059
v -1.692775 -0.833018 3.034056
v -1.692014 -0.845754 3.033059
v -1.689760 -0.858001 3.030106
v -1.686099 -0.869288 3.025311
v -1.681173 -0.879181 3.018857
v -1.675171 -0.887300 3.010993
v -1.668323 -0.893333 3.002021
v -1.660892 -0.897048 2.992286
v -1.653165 -0.898302 2.982162
v -1.645437 -0.897048 2.972038
v -1.638006 -0.893333 2.962303
v -1.631158 -0.887300 2.953331
v -1.625156 -0.879181 2.945467
v -1.620230 -0.869288 2.939013
v -1.616570 -0.858001 2.934217
v -1.614316 -0.845754 2.931264
v -1.613554 -0.833018 2.930267
v -1.614316 -0.820282 2.931264
v -1.616570 -0.808035 2.934217
v -1.620230 -0.796748 2.939013
v -1.625156 -0.786855 2.945467
v -1.631158 -0.778736 2.953331
v -1.638006 -0.772704 2.962303
v -1.645437 -0.768988 2.972038
v -1.661456 -0.833018 2.975834
v -1.658965 -0.797478 2.977735
v -1.667217 -0.865853 2.988546
v -1.670945 -0.862569 2.993430
v -1.680114 -0.839952 3.005443
v -1.680528 -0.833018 3.005986
v -1.674212 -0.807888 2.997711
v -1.670945 -0.803468 2.993430
v -1.650713 -0.800183 2.966924
v -1.646985 -0.803468 2.962039
v -1.637816 -0.826085 2.950027
v -1.637401 -0.833018 2.949484
v -1.643717 -0.858149 2.957758
v -1.646985 -0.862569 2.962039
v -1.663171 -0.867875 2.983246
v -1.678887 -0.846619 3.003835
v -1.676894 -0.813273 3.001225
v -1.654758 -0.798161 2.972223
v -1.639043 -0.819418 2.951634
v -1.641035 -0.852763 2.954245
v -1.658965 -0.868558 2.977735
v -1.676894 -0.852763 3.001225
v -1.678887 -0.819418 3.003835
v -1.663171 -0.798161 2.983246
v -1.641035 -0.813273 2.954245
v -1.639043 -0.846619 2.951634
v -1.654758 -0.867875 2.972223
v -1.674212 -0.858149 2.997711
v -1.680114 -0.826085 3.005443
v -1.667217 -0.800183 2.988546
v -1.643717 -0.807888 2.957758
v -1.637816 -0.839952 2.950027
v -1.650713 -0.865853 2.966924
v -1.642708 -0.763382 2.990143
v -1.650951 -0.764720 3.000942
v -1.658877 -0.768683 3.011327
v -1.666181 -0.775118 3.020896
v -1.672584 -0.783778 3.029285
v -1.677838 -0.794330 3.036169
v -1.681742 -0.806369 3.041284
v -1.684147 -0.819433 3.044434
v -1.684959 -0.833018 3.045498
v -1.684147 -0.846604 3.044434
v -1.681742 -0.859667 3.041284
v -1.677838 -0.871706 3.036169
v -1.672584 -0.882259 3.029285
v -1.666181 -0.890919 3.020896
v -1.658876 -0.897354 3.011327
v -1.650951 -0.901317 3.000942
v -1.642708 -0.902655 2.990143
v -1.634465 -0.901317 2.979344
v -1.626539 -0.897354 2.968960
v -1.619234 -0.890919 2.959390
v -1.612832 -0.882258 2.951002
v -1.607578 -0.871706 2.944118
v -1.603673 -0.859667 2.939003
v -1.601269 -0.846604 2.935853
v -1.600457 -0.833018 2.934789
v -1.601269 -0.819433 2.935853
v -1.603673 -0.806369 2.939003
v -1.607578 -0.794330 2.944118
v -1.612832 -0.783778 2.951002
v -1.619235 -0.775118 2.959390
v -1.626539 -0.768683 2.968960
v -1.634465 -0.764720 2.979344
v -1.672930 -0.890919 3.015745
v -1.665625 -0.897354 3.006175
v -1.691707 -0.833018 3.040346
v -1.690896 -0.846604 3.039283
v -1.672930 -0.775118 3.015745
v -1.679332 -0.783778 3.024133
v -1.625983 -0.775118 2.954239
v -1.633288 -0.768683 2.963809
v -1.607206 -0.833018 2.929638
v -1.608018 -0.819433 2.930701
v -1.625983 -0.890919 2.954239
v -1.619581 -0.882258 2.945851
v -1.657699 -0.901317 2.995791
v -1.688491 -0.859667 3.036133
v -1.684587 -0.794330 3.031018
v -1.641214 -0.764720 2.974193
v -1.610422 -0.806369 2.933851
v -1.614326 -0.871706 2.938967
v -1.649457 -0.902655 2.984992
v -1.684587 -0.871706 3.031018
v -1.688491 -0.806369 3.036133
v -1.649457 -0.763382 2.984992
v -1.657699 -0.764720 2.995791
v -1.614326 -0.794330 2.938967
v -1.610422 -0.859667 2.933851
v -1.641214 -0.901316 2.974193
v -1.679332 -0.882259 3.024133
v -1.690896 -0.819433 3.039283
v -1.665625 -0.768683 3.006175
v -1.619581 -0.783778 2.945851
v -1.608018 -0.846604 2.930701
v -1.633288 -0.897354 2.963809
vt 0.419582 0.355204
vt 0.375439 0.273010
vt 0.356619 0.290356
vt 0.442203 0.367453
vt 0.400313 0.266962
vt 0.417250 0.380813
vt 0.333122 0.484685
vt 0.240346 0.475323
vt 0.244295 0.500612
vt 0.355876 0.472725
vt 0.249152 0.451298
vt 0.353102 0.500888
vt 0.392677 0.628421
vt 0.333400 0.699911
vt 0.356619 0.710673
vt 0.395377 0.602920
vt 0.318319 0.679272
vt 0.417250 0.620852
vt 0.575204 0.646243
vt 0.618598 0.727757
vt 0.637441 0.710430
vt 0.552671 0.634074
vt 0.593747 0.733825
vt 0.577624 0.620713
vt 0.661663 0.516762
vt 0.753691 0.525444
vt 0.749763 0.500176
vt 0.638997 0.528802
vt 0.744907 0.549489
vt 0.641771 0.500639
vt 0.602110 0.373026
vt 0.660638 0.300856
vt 0.637441 0.290114
vt 0.599497 0.398607
vt 0.675741 0.321515
vt 0.577624 0.380675
vt 0.449478 0.342795
vt 0.422151 0.253620
vt 0.469279 0.359216
vt 0.447725 0.252538
vt 0.339435 0.452940
vt 0.250210 0.425722
vt 0.364089 0.445640
vt 0.263533 0.403870
vt 0.369796 0.605559
vt 0.297648 0.664188
vt 0.377427 0.581062
vt 0.286889 0.640998
vt 0.545309 0.658653
vt 0.571887 0.747148
vt 0.525595 0.642312
vt 0.546336 0.748250
vt 0.655350 0.548507
vt 0.743827 0.575045
vt 0.630784 0.555887
vt 0.730525 0.596917
vt 0.624991 0.395889
vt 0.696390 0.336579
vt 0.617447 0.420466
vt 0.707171 0.359789
vt 0.481214 0.336454
vt 0.471739 0.243712
vt 0.497437 0.356418
vt 0.497030 0.247639
vt 0.351818 0.423032
vt 0.269558 0.378990
vt 0.377427 0.420673
vt 0.286889 0.360152
vt 0.351818 0.578667
vt 0.269558 0.622170
vt 0.364089 0.556117
vt 0.263533 0.597320
vt 0.481214 0.665021
vt 0.471739 0.757099
vt 0.497030 0.753148
vt 0.469279 0.642360
vt 0.447725 0.748334
vt 0.497437 0.645109
vt 0.513572 0.664994
vt 0.522299 0.757056
vt 0.642967 0.578416
vt 0.724479 0.621778
vt 0.617446 0.580855
vt 0.707171 0.640636
vt 0.642967 0.422781
vt 0.724479 0.378598
vt 0.630784 0.445410
vt 0.730525 0.403468
vt 0.513572 0.336426
vt 0.522299 0.243669
vt 0.525595 0.359167
vt 0.546336 0.252453
vt 0.369796 0.396109
vt 0.297648 0.336923
vt 0.395377 0.398784
vt 0.318319 0.321823
vt 0.339435 0.548780
vt 0.250210 0.575471
vt 0.355876 0.529046
vt 0.249152 0.549917
vt 0.449478 0.658735
vt 0.422151 0.747277
vt 0.442203 0.634169
vt 0.400313 0.733992
vt 0.624990 0.605339
vt 0.696389 0.663844
vt 0.599496 0.602743
vt 0.675739 0.678964
vt 0.655350 0.452668
vt 0.743827 0.425296
vt 0.638997 0.472481
vt 0.744907 0.450870
vt 0.545309 0.342712
vt 0.571887 0.253490
vt 0.552671 0.367358
vt 0.593747 0.266795
vt 0.392677 0.373206
vt 0.333400 0.301138
vt 0.333122 0.517046
vt 0.240346 0.525887
vt 0.419582 0.646377
vt 0.375439 0.727967
vt 0.602109 0.628240
vt 0.660637 0.699629
vt 0.661663 0.484402
vt 0.753691 0.474880
vt 0.575204 0.355070
vt 0.618599 0.272800
vt 0.289908 0.191026
vt 0.321172 0.172264
vt 0.276588 0.089668
vt 0.354119 0.156647
vt 0.124846 0.500003
vt 0.126639 0.463595
vt 0.033422 0.453832
vt 0.131983 0.427534
vt 0.289908 0.808694
vt 0.260636 0.787002
vt 0.181128 0.881893
vt 0.233627 0.762550
vt 0.702586 0.808337
vt 0.671322 0.827100
vt 0.728709 0.935358
vt 0.638376 0.842718
vt 0.867648 0.499362
vt 0.865856 0.535770
vt 0.988089 0.546917
vt 0.860512 0.571830
vt 0.702587 0.190670
vt 0.731859 0.212362
vt 0.789946 0.139790
vt 0.758868 0.236814
vt 0.388437 0.144342
vt 0.360669 0.054765
vt 0.423791 0.135450
vt 0.140843 0.392169
vt 0.051177 0.364549
vt 0.153117 0.357837
vt 0.209153 0.735561
vt 0.136565 0.793789
vt 0.187439 0.706305
vt 0.604058 0.855023
vt 0.639024 0.972588
vt 0.568704 0.863914
vt 0.851652 0.607195
vt 0.969150 0.642151
vt 0.839377 0.641527
vt 0.783341 0.263804
vt 0.878068 0.184295
vt 0.805056 0.293060
vt 0.459845 0.130075
vt 0.449928 0.036932
vt 0.496248 0.128251
vt 0.168705 0.324875
vt 0.086004 0.280432
vt 0.187439 0.293593
vt 0.168704 0.675054
vt 0.086004 0.718156
vt 0.153117 0.642119
vt 0.496248 0.871114
vt 0.459845 0.869352
vt 0.446740 0.991694
vt 0.423791 0.864039
vt 0.532651 0.869290
vt 0.543815 0.991610
vt 0.823790 0.674489
vt 0.932001 0.731876
vt 0.805056 0.705772
vt 0.823790 0.324310
vt 0.932001 0.264971
vt 0.839377 0.357246
vt 0.532651 0.130012
vt 0.540936 0.036853
vt 0.568704 0.135325
vt 0.209153 0.264299
vt 0.136565 0.204712
vt 0.233627 0.237267
vt 0.140843 0.607808
vt 0.051177 0.634098
vt 0.131983 0.572459
vt 0.388437 0.855209
vt 0.351530 0.972836
vt 0.354119 0.842963
vt 0.783341 0.735065
vt 0.878068 0.812644
vt 0.758867 0.762097
vt 0.851652 0.391556
vt 0.969150 0.354632
vt 0.860512 0.426906
vt 0.604058 0.144156
vt 0.630196 0.054532
vt 0.638377 0.156402
vt 0.260636 0.212769
vt 0.200917 0.140299
vt 0.126639 0.536407
vt 0.033422 0.544847
vt 0.321172 0.827403
vt 0.261843 0.935761
vt 0.731858 0.786595
vt 0.809425 0.881351
vt 0.865856 0.462957
vt 0.988089 0.449834
vt 0.671323 0.171962
vt 0.714276 0.089290
vt 0.304057 0.039862
vt 0.260129 0.060685
vt 0.260976 0.061454
vt 0.218443 0.085701
vt 0.259116 0.059764
vt 0.303044 0.038942
vt 0.007876 0.401044
vt 0.000751 0.449126
vt 0.001599 0.449896
vt -0.001639 0.497669
vt -0.000261 0.448205
vt 0.179413 0.880336
vt 0.180261 0.881105
vt 0.142559 0.850194
vt 0.218443 0.909258
vt 0.178401 0.879416
vt 0.141711 0.849424
vt 0.683067 0.954623
vt 0.726995 0.933801
vt 0.727842 0.934571
vt 0.768680 0.908784
vt 0.725982 0.932880
vt 0.979249 0.593440
vt 0.986374 0.545359
vt 0.987221 0.546129
vt 0.988764 0.496815
vt 0.985361 0.544439
vt 0.807711 0.114149
vt 0.808558 0.114919
vt 0.846259 0.145830
vt 0.768682 0.085226
vt 0.806698 0.113228
vt 0.845412 0.145060
vt 0.844399 0.144139
vt 0.396954 0.011599
vt 0.349815 0.023454
vt 0.350662 0.024224
vt 0.304904 0.040632
vt 0.348802 0.022534
vt 0.395941 0.010679
vt 0.036057 0.308116
vt 0.019690 0.353891
vt 0.020538 0.354661
vt 0.018678 0.352971
vt 0.081818 0.772739
vt 0.110771 0.811747
vt 0.111618 0.812517
vt 0.109758 0.810827
vt 0.140699 0.848505
vt 0.590171 0.982885
vt 0.637309 0.971030
vt 0.638157 0.971800
vt 0.636297 0.970110
vt 0.951068 0.686369
vt 0.967435 0.640593
vt 0.968282 0.641363
vt 0.966422 0.639673
vt 0.950056 0.685448
vt 0.905307 0.221745
vt 0.876354 0.182738
vt 0.877201 0.183508
vt 0.875341 0.181817
vt 0.493563 0.002000
vt 0.445025 0.004432
vt 0.445872 0.005202
vt 0.444012 0.003512
vt 0.081818 0.222456
vt 0.056840 0.264166
vt 0.057687 0.264936
vt 0.055827 0.263246
vt 0.035044 0.307196
vt 0.036057 0.687158
vt 0.056840 0.731072
vt 0.057687 0.731842
vt 0.055827 0.730152
vt 0.035044 0.686238
vt 0.445025 0.990135
vt 0.445872 0.990906
vt 0.397801 0.983822
vt 0.493563 0.992484
vt 0.444012 0.989215
vt 0.396954 0.983051
vt 0.542100 0.990052
vt 0.542948 0.990822
vt 0.541088 0.989132
vt 0.492550 0.991563
vt 0.905307 0.772029
vt 0.930286 0.730318
vt 0.931133 0.731088
vt 0.951916 0.687139
vt 0.929273 0.729398
vt 0.904295 0.771108
vt 0.951068 0.307327
vt 0.930286 0.263413
vt 0.931133 0.264183
vt 0.929273 0.262492
vt 0.590172 0.011432
vt 0.542100 0.004349
vt 0.542948 0.005118
vt 0.541088 0.003428
vt 0.589159 0.010512
vt 0.143402 0.147356
vt 0.110771 0.183398
vt 0.111618 0.184168
vt 0.109758 0.182478
vt 0.080805 0.221536
vt 0.007876 0.594278
vt 0.019690 0.641410
vt 0.020538 0.642180
vt 0.036904 0.687928
vt 0.018678 0.640490
vt 0.304057 0.954950
vt 0.349815 0.971278
vt 0.350662 0.972048
vt 0.348802 0.970357
vt 0.876354 0.811087
vt 0.877201 0.811857
vt 0.844569 0.847899
vt 0.875341 0.810166
vt 0.843722 0.847129
vt 0.979249 0.400207
vt 0.967435 0.353074
vt 0.968282 0.353844
vt 0.966422 0.352154
vt 0.683068 0.039535
vt 0.637311 0.023206
vt 0.638158 0.023976
vt 0.591019 0.012202
vt 0.636298 0.022286
vt 0.179413 0.114691
vt 0.180261 0.115461
vt 0.144249 0.148126
vt 0.178401 0.113770
vt 0.000751 0.546209
vt 0.001599 0.546979
vt 0.008724 0.595048
vt -0.000261 0.545289
vt -0.002652 0.496749
vt 0.260129 0.934203
vt 0.260976 0.934973
vt 0.259116 0.933283
vt 0.807710 0.879794
vt 0.808557 0.880564
vt 0.806697 0.878874
vt 0.842709 0.846209
vt 0.986374 0.448276
vt 0.987221 0.449046
vt 0.980096 0.400977
vt 0.985361 0.447356
vt 0.978236 0.399287
vt 0.726997 0.060282
vt 0.727844 0.061051
vt 0.683915 0.040305
vt 0.725984 0.059361
vt 0.261492 0.061924
vt 0.317771 0.070147
vt 0.219807 0.086940
vt 0.237508 0.113121
vt 0.305421 0.041101
vt 0.002115 0.450365
vt 0.040101 0.408755
vt -0.000275 0.498909
vt 0.031181 0.499342
vt 0.009240 0.402283
vt 0.180777 0.881575
vt 0.143426 0.850982
vt 0.219807 0.910497
vt 0.220158 0.910816
vt 0.143075 0.850663
vt 0.728358 0.935040
vt 0.684781 0.956181
vt 0.770044 0.910022
vt 0.770395 0.910341
vt 0.684430 0.955862
vt 0.987738 0.546598
vt 0.980964 0.594998
vt 0.990128 0.498054
vt 0.990479 0.498373
vt 0.980613 0.594679
vt 0.809075 0.115388
vt 0.854774 0.155957
vt 0.770046 0.086465
vt 0.753356 0.112676
vt 0.846776 0.146299
vt 0.351179 0.024694
vt 0.404861 0.043651
vt 0.398317 0.012838
vt 0.021054 0.355130
vt 0.066520 0.321635
vt 0.037420 0.309355
vt 0.112135 0.812986
vt 0.109421 0.757219
vt 0.152764 0.858630
vt 0.083181 0.773978
vt 0.638673 0.972269
vt 0.591886 0.984443
vt 0.591535 0.984124
vt 0.968799 0.641832
vt 0.952783 0.687926
vt 0.952432 0.687608
vt 0.877717 0.183977
vt 0.907022 0.223303
vt 0.847127 0.146617
vt 0.906671 0.222985
vt 0.446389 0.005671
vt 0.495432 0.034651
vt 0.494926 0.003239
vt 0.058203 0.265405
vt 0.109421 0.241329
vt 0.083181 0.223695
vt 0.058203 0.732311
vt 0.066520 0.676987
vt 0.037420 0.688397
vt 0.446389 0.991375
vt 0.398668 0.984610
vt 0.494926 0.993724
vt 0.495277 0.994042
vt 0.398317 0.984291
vt 0.543464 0.991291
vt 0.591019 0.983655
vt 0.931650 0.731557
vt 0.907022 0.773586
vt 0.906671 0.773268
vt 0.906155 0.772799
vt 0.931650 0.264652
vt 0.952783 0.308885
vt 0.952432 0.308566
vt 0.543464 0.005587
vt 0.586003 0.043494
vt 0.591535 0.012671
vt 0.112135 0.184638
vt 0.167156 0.170923
vt 0.144765 0.148595
vt 0.021054 0.642649
vt 0.040101 0.589912
vt 0.009240 0.595517
vt 0.351179 0.972517
vt 0.305772 0.956508
vt 0.305421 0.956189
vt 0.877717 0.812325
vt 0.845437 0.848686
vt 0.845086 0.848368
vt 0.968799 0.354313
vt 0.980964 0.401764
vt 0.980613 0.401446
vt 0.638674 0.024446
vt 0.673094 0.069840
vt 0.684432 0.040774
vt 0.180777 0.115930
vt 0.002115 0.547448
vt 0.261492 0.935442
vt 0.809074 0.881033
vt 0.987738 0.449515
vt 0.728360 0.061521
vt 0.497716 0.501017
vt 0.219290 0.086471
vt 0.217431 0.084781
vt 0.008724 0.401814
vt -0.000792 0.498439
vt 0.006864 0.400124
vt 0.219290 0.910028
vt 0.217431 0.908338
vt 0.683914 0.955393
vt 0.769527 0.909554
vt 0.767668 0.907863
vt 0.682054 0.953703
vt 0.980096 0.594210
vt 0.989611 0.497585
vt 0.987751 0.495895
vt 0.978236 0.592520
vt 0.769529 0.085996
vt 0.767669 0.084306
vt 0.397801 0.012369
vt 0.036904 0.308886
vt 0.082665 0.773509
vt 0.080805 0.771819
vt 0.589159 0.981965
vt 0.906155 0.222515
vt 0.904295 0.220825
vt 0.494410 0.002770
vt 0.492550 0.001080
vt 0.082665 0.223226
vt 0.494410 0.993254
vt 0.395941 0.982131
vt 0.951916 0.308097
vt 0.950056 0.306406
vt 0.142389 0.146435
vt 0.006864 0.593358
vt 0.304904 0.955719
vt 0.303044 0.954029
vt 0.682056 0.038614
vn -0.8209 -0.0942 -0.5632
vn -0.8327 -0.1546 -0.5316
vn -0.8398 -0.1379 -0.5251
vn -0.8103 -0.0706 -0.5817
vn -0.8224 -0.1532 -0.5478
vn -0.8183 -0.0635 -0.5712
vn -0.8549 -0.0105 -0.5187
vn -0.8885 -0.0172 -0.4586
vn -0.8845 0.0000 -0.4664
vn -0.8380 -0.0149 -0.5454
vn -0.8826 -0.0323 -0.4690
vn -0.8389 0.0000 -0.5442
vn -0.8314 0.0826 -0.5494
vn -0.8501 0.1355 -0.5089
vn -0.8398 0.1379 -0.5251
vn -0.8253 0.0540 -0.5620
vn -0.8550 0.1173 -0.5051
vn -0.8183 0.0635 -0.5712
vn -0.7598 0.0942 -0.6433
vn -0.7324 0.1546 -0.6630
vn -0.7280 0.1379 -0.6716
vn -0.7748 0.0705 -0.6282
vn -0.7454 0.1532 -0.6488
vn -0.7668 0.0635 -0.6386
vn -0.7258 0.0105 -0.6878
vn -0.6767 0.0172 -0.7360
vn -0.6832 0.0000 -0.7302
vn -0.7471 0.0149 -0.6645
vn -0.6852 0.0324 -0.7276
vn -0.7462 0.0000 -0.6657
vn -0.7492 -0.0826 -0.6571
vn -0.7151 -0.1355 -0.6857
vn -0.7280 -0.1379 -0.6716
vn -0.7598 -0.0540 -0.6479
vn -0.7127 -0.1173 -0.6915
vn -0.7668 -0.0635 -0.6386
vn -0.8092 -0.1022 -0.5786
vn -0.8135 -0.1678 -0.5568
vn -0.8016 -0.0749 -0.5931
vn -0.8035 -0.1627 -0.5726
vn -0.8524 -0.0310 -0.5220
vn -0.8844 -0.0509 -0.4639
vn -0.8354 -0.0292 -0.5488
vn -0.8769 -0.0635 -0.4765
vn -0.8404 0.0678 -0.5376
vn -0.8648 0.1112 -0.4895
vn -0.8311 0.0424 -0.5545
vn -0.8675 0.0921 -0.4887
vn -0.7715 0.1022 -0.6279
vn -0.7517 0.1678 -0.6378
vn -0.7835 0.0749 -0.6168
vn -0.7642 0.1627 -0.6240
vn -0.7283 0.0310 -0.6845
vn -0.6808 0.0509 -0.7307
vn -0.7497 0.0292 -0.6611
vn -0.6909 0.0634 -0.7201
vn -0.7403 -0.0678 -0.6689
vn -0.7003 -0.1112 -0.7050
vn -0.7541 -0.0425 -0.6554
vn -0.7002 -0.0921 -0.7079
vn -0.7967 -0.1063 -0.5950
vn -0.7930 -0.1745 -0.5836
vn -0.7926 -0.0764 -0.6050
vn -0.7839 -0.1659 -0.5983
vn -0.8475 -0.0504 -0.5283
vn -0.8764 -0.0826 -0.4744
vn -0.8311 -0.0424 -0.5545
vn -0.8675 -0.0921 -0.4887
vn -0.8475 0.0504 -0.5283
vn -0.8764 0.0826 -0.4744
vn -0.8354 0.0292 -0.5488
vn -0.8769 0.0635 -0.4765
vn -0.7967 0.1063 -0.5950
vn -0.7930 0.1745 -0.5837
vn -0.7839 0.1659 -0.5983
vn -0.8016 0.0749 -0.5931
vn -0.8035 0.1627 -0.5726
vn -0.7926 0.0764 -0.6049
vn -0.7840 0.1063 -0.6116
vn -0.7721 0.1745 -0.6110
vn -0.7331 0.0504 -0.6782
vn -0.6888 0.0826 -0.7202
vn -0.7540 0.0425 -0.6554
vn -0.7002 0.0921 -0.7079
vn -0.7331 -0.0504 -0.6782
vn -0.6887 -0.0826 -0.7202
vn -0.7497 -0.0292 -0.6610
vn -0.6909 -0.0634 -0.7201
vn -0.7840 -0.1063 -0.6116
vn -0.7721 -0.1745 -0.6110
vn -0.7835 -0.0749 -0.6168
vn -0.7643 -0.1627 -0.6240
vn -0.8404 -0.0678 -0.5376
vn -0.8648 -0.1112 -0.4895
vn -0.8253 -0.0540 -0.5620
vn -0.8551 -0.1173 -0.5051
vn -0.8524 0.0310 -0.5220
vn -0.8844 0.0509 -0.4639
vn -0.8380 0.0149 -0.5454
vn -0.8826 0.0323 -0.4690
vn -0.8092 0.1022 -0.5785
vn -0.8135 0.1678 -0.5569
vn -0.8103 0.0706 -0.5817
vn -0.8224 0.1532 -0.5478
vn -0.7402 0.0678 -0.6689
vn -0.7003 0.1112 -0.7051
vn -0.7598 0.0540 -0.6479
vn -0.7127 0.1173 -0.6915
vn -0.7283 -0.0310 -0.6846
vn -0.6808 -0.0509 -0.7307
vn -0.7471 -0.0149 -0.6645
vn -0.6852 -0.0324 -0.7276
vn -0.7715 -0.1022 -0.6279
vn -0.7517 -0.1678 -0.6378
vn -0.7748 -0.0706 -0.6282
vn -0.7454 -0.1532 -0.6488
vn -0.8314 -0.0826 -0.5494
vn -0.8501 -0.1355 -0.5089
vn -0.8549 0.0105 -0.5187
vn -0.8885 0.0172 -0.4586
vn -0.8209 0.0942 -0.5632
vn -0.8327 0.1546 -0.5316
vn -0.7493 0.0825 -0.6571
vn -0.7151 0.1355 -0.6857
vn -0.7259 -0.0105 -0.6878
vn -0.6767 -0.0172 -0.7360
vn -0.7598 -0.0942 -0.6433
vn -0.7324 -0.1546 -0.6630
vn -0.8533 -0.2041 -0.4797
vn -0.8408 -0.2169 -0.4960
vn -0.8441 -0.3318 -0.4211
vn -0.8275 -0.2268 -0.5135
vn -0.9195 0.0000 -0.3930
vn -0.9190 -0.0241 -0.3936
vn -0.9637 -0.0369 -0.2645
vn -0.9167 -0.0479 -0.3968
vn -0.8533 0.2041 -0.4797
vn -0.8651 0.1901 -0.4641
vn -0.8813 0.2908 -0.3724
vn -0.8759 0.1736 -0.4502
vn -0.6878 0.2041 -0.6966
vn -0.7002 0.2169 -0.6802
vn -0.6288 0.3318 -0.7031
vn -0.7136 0.2268 -0.6628
vn -0.6216 0.0000 -0.7833
vn -0.6220 0.0241 -0.7826
vn -0.5093 0.0369 -0.8598
vn -0.6245 0.0479 -0.7795
vn -0.6878 -0.2041 -0.6966
vn -0.6758 -0.1901 -0.7121
vn -0.5917 -0.2908 -0.7519
vn -0.6652 -0.1736 -0.7262
vn -0.8138 -0.2353 -0.5314
vn -0.8027 -0.3601 -0.4753
vn -0.7996 -0.2408 -0.5501
vn -0.9133 -0.0714 -0.4010
vn -0.9549 -0.1092 -0.2759
vn -0.9082 -0.0939 -0.4078
vn -0.8858 0.1560 -0.4370
vn -0.9130 0.2387 -0.3309
vn -0.8944 0.1364 -0.4259
vn -0.7272 0.2353 -0.6448
vn -0.6702 0.3600 -0.6489
vn -0.7415 0.2408 -0.6262
vn -0.6277 0.0714 -0.7751
vn -0.5180 0.1092 -0.8484
vn -0.6330 0.0939 -0.7685
vn -0.6551 -0.1560 -0.7392
vn -0.5600 -0.2387 -0.7933
vn -0.6467 -0.1364 -0.7504
vn -0.7851 -0.2447 -0.5689
vn -0.7588 -0.3745 -0.5328
vn -0.7706 -0.2455 -0.5882
vn -0.9021 -0.1159 -0.4157
vn -0.9378 -0.1773 -0.2983
vn -0.8944 -0.1364 -0.4259
vn -0.9021 0.1159 -0.4157
vn -0.9378 0.1773 -0.2983
vn -0.9082 0.0939 -0.4078
vn -0.7706 0.2455 -0.5882
vn -0.7851 0.2447 -0.5690
vn -0.7588 0.3744 -0.5328
vn -0.7996 0.2408 -0.5501
vn -0.7559 0.2447 -0.6073
vn -0.7141 0.3744 -0.5914
vn -0.6389 0.1159 -0.7605
vn -0.5352 0.1774 -0.8259
vn -0.6467 0.1364 -0.7504
vn -0.6389 -0.1159 -0.7605
vn -0.5351 -0.1773 -0.8259
vn -0.6330 -0.0939 -0.7685
vn -0.7558 -0.2447 -0.6073
vn -0.7141 -0.3744 -0.5914
vn -0.7415 -0.2408 -0.6262
vn -0.8858 -0.1560 -0.4370
vn -0.9130 -0.2387 -0.3309
vn -0.8759 -0.1736 -0.4502
vn -0.9133 0.0714 -0.4010
vn -0.9549 0.1092 -0.2759
vn -0.9167 0.0479 -0.3968
vn -0.8138 0.2353 -0.5314
vn -0.8027 0.3601 -0.4753
vn -0.8276 0.2268 -0.5135
vn -0.6551 0.1560 -0.7392
vn -0.5600 0.2387 -0.7933
vn -0.6652 0.1736 -0.7262
vn -0.6277 -0.0714 -0.7751
vn -0.5180 -0.1092 -0.8483
vn -0.6245 -0.0479 -0.7795
vn -0.7272 -0.2353 -0.6448
vn -0.6702 -0.3601 -0.6490
vn -0.7136 -0.2268 -0.6628
vn -0.8651 -0.1901 -0.4641
vn -0.8813 -0.2908 -0.3724
vn -0.9190 0.0241 -0.3936
vn -0.9637 0.0369 -0.2645
vn -0.8408 0.2169 -0.4960
vn -0.8441 0.3318 -0.4211
vn -0.6758 0.1901 -0.7121
vn -0.5917 0.2908 -0.7519
vn -0.6220 -0.0241 -0.7826
vn -0.5093 -0.0369 -0.8598
vn -0.7002 -0.2169 -0.6802
vn -0.6288 -0.3318 -0.7031
vn -0.2322 -0.9239 0.3042
vn -0.2860 -0.8819 0.3747
vn -0.3371 -0.8314 0.4416
vn -0.5951 -0.1951 0.7796
vn -0.6038 -0.0980 0.7911
vn -0.6067 0.0000 0.7949
vn -0.3849 0.7730 0.5043
vn -0.4290 0.7071 0.5621
vn -0.3371 0.8314 0.4416
vn 0.2322 0.9239 -0.3042
vn 0.2860 0.8819 -0.3747
vn 0.3370 0.8314 -0.4416
vn 0.5950 0.1951 -0.7796
vn 0.6038 0.0980 -0.7911
vn 0.6067 0.0000 -0.7949
vn 0.3849 -0.7730 -0.5043
vn 0.4290 -0.7071 -0.5621
vn 0.3371 -0.8314 -0.4416
vn -0.1184 -0.9808 0.1551
vn -0.1761 -0.9569 0.2307
vn -0.1761 -0.9569 0.2308
vn -0.5606 -0.3826 0.7344
vn -0.5806 -0.2903 0.7607
vn -0.5806 -0.2903 0.7606
vn -0.5045 0.5556 0.6609
vn -0.4690 0.6344 0.6144
vn -0.4690 0.6344 0.6145
vn 0.1184 0.9808 -0.1551
vn 0.1761 0.9569 -0.2307
vn 0.5606 0.3827 -0.7344
vn 0.5806 0.2903 -0.7607
vn 0.5605 0.3827 -0.7344
vn 0.5045 -0.5556 -0.6609
vn 0.4690 -0.6344 -0.6145
vn 0.0000 -1.0000 0.0000
vn -0.0595 -0.9952 0.0779
vn -0.5044 -0.5556 0.6609
vn -0.5351 -0.4714 0.7010
vn -0.5605 -0.3827 0.7344
vn -0.5605 0.3827 0.7344
vn -0.5351 0.4714 0.7010
vn -0.0595 0.9952 0.0779
vn -0.1184 0.9808 0.1551
vn 0.0000 1.0000 0.0000
vn 0.0595 0.9952 -0.0779
vn 0.5044 0.5556 -0.6609
vn 0.5351 0.4714 -0.7010
vn 0.5350 0.4714 -0.7011
vn 0.5606 0.3826 -0.7344
vn 0.5045 0.5556 -0.6609
vn 0.5605 -0.3827 -0.7344
vn 0.5351 -0.4714 -0.7010
vn 0.1184 -0.9808 -0.1551
vn 0.0595 -0.9952 -0.0779
vn -0.4290 -0.7071 0.5621
vn -0.4690 -0.6344 0.6144
vn -0.4690 -0.6344 0.6145
vn -0.5950 0.1951 0.7796
vn -0.5806 0.2902 0.7606
vn -0.5806 0.2903 0.7606
vn -0.2322 0.9239 0.3042
vn -0.1761 0.9569 0.2307
vn 0.4690 0.6344 -0.6144
vn 0.4290 0.7071 -0.5621
vn 0.4690 0.6344 -0.6145
vn 0.5950 -0.1951 -0.7796
vn 0.5806 -0.2903 -0.7607
vn 0.2322 -0.9239 -0.3042
vn 0.1761 -0.9569 -0.2307
vn 0.1761 -0.9569 -0.2308
vn -0.3849 -0.7730 0.5043
vn -0.6038 0.0980 0.7911
vn -0.2860 0.8819 0.3747
vn 0.3849 0.7730 -0.5043
vn 0.6038 -0.0980 -0.7911
vn 0.6038 -0.0980 -0.7910
vn 0.5951 -0.1951 -0.7796
vn 0.5950 -0.1951 -0.7797
vn 0.2860 -0.8819 -0.3747
vn -0.6505 -0.7594 0.0141
vn -0.8238 -0.3476 -0.4477
vn -0.6944 -0.7159 0.0717
vn -0.8633 -0.3128 -0.3959
vn -0.6041 -0.7955 -0.0465
vn -0.9241 -0.0844 0.3727
vn -0.9604 -0.0734 -0.2688
vn -0.9266 0.0000 0.3759
vn -0.9648 0.0000 -0.2630
vn -0.9166 -0.1680 0.3628
vn -0.7356 0.6656 0.1257
vn -0.8979 0.2661 -0.3506
vn -0.6944 0.7159 0.0717
vn -0.8633 0.3128 -0.3959
vn -0.7736 0.6089 0.1755
vn -0.1580 0.7594 -0.6312
vn -0.6491 0.3476 -0.6766
vn -0.1139 0.7159 -0.6888
vn -0.6096 0.3128 -0.7283
vn -0.2043 0.7955 -0.5704
vn 0.1157 0.0844 -0.9897
vn -0.5126 0.0734 -0.8555
vn 0.1182 0.0000 -0.9930
vn -0.5082 0.0000 -0.8612
vn 0.1082 0.1680 -0.9798
vn -0.0728 -0.6656 -0.7427
vn -0.5750 -0.2661 -0.7736
vn -0.1139 -0.7159 -0.6888
vn -0.6096 -0.3128 -0.7283
vn -0.0347 -0.6089 -0.7925
vn -0.5558 -0.8240 -0.1098
vn -0.7810 -0.3690 -0.5038
vn -0.5061 -0.8445 -0.1750
vn -0.9041 -0.2499 0.3465
vn -0.9474 -0.1440 -0.2858
vn -0.8868 -0.3295 0.3239
vn -0.8080 0.5462 0.2206
vn -0.9263 0.2090 -0.3135
vn -0.8386 0.4784 0.2606
vn -0.2526 0.8240 -0.5072
vn -0.6919 0.3690 -0.6205
vn -0.3023 0.8445 -0.4420
vn 0.0957 0.2499 -0.9635
vn -0.5256 0.1440 -0.8385
vn 0.0785 0.3295 -0.9409
vn -0.0004 -0.5462 -0.8376
vn -0.5466 -0.2090 -0.8108
vn 0.0302 -0.4784 -0.8776
vn -0.4554 -0.8569 -0.2414
vn -0.7365 -0.3763 -0.5621
vn -0.4042 -0.8610 -0.3085
vn -0.8649 -0.4059 0.2951
vn -0.9263 -0.2090 -0.3135
vn -0.8386 -0.4784 0.2606
vn -0.8649 0.4059 0.2951
vn -0.9474 0.1440 -0.2858
vn -0.8868 0.3295 0.3239
vn -0.4554 0.8569 -0.2414
vn -0.7810 0.3690 -0.5038
vn -0.4042 0.8610 -0.3085
vn -0.7365 0.3763 -0.5621
vn -0.5061 0.8445 -0.1750
vn -0.3530 0.8569 -0.3756
vn 0.1183 0.9808 -0.1551
vn 0.0565 0.4059 -0.9122
vn -0.5466 0.2090 -0.8108
vn 0.0302 0.4784 -0.8776
vn 0.0566 -0.4059 -0.9121
vn -0.5256 -0.1440 -0.8385
vn 0.0784 -0.3295 -0.9409
vn -0.3530 -0.8569 -0.3756
vn -0.6919 -0.3690 -0.6205
vn -0.3022 -0.8445 -0.4420
vn -0.8080 -0.5462 0.2206
vn -0.8979 -0.2661 -0.3506
vn -0.7736 -0.6089 0.1755
vn -0.9041 0.2499 0.3465
vn -0.9604 0.0734 -0.2688
vn -0.9166 0.1680 0.3628
vn -0.5559 0.8240 -0.1098
vn -0.8238 0.3476 -0.4477
vn -0.6041 0.7955 -0.0465
vn -0.0004 0.5462 -0.8376
vn -0.5750 0.2660 -0.7736
vn -0.0348 0.6088 -0.7925
vn 0.0957 -0.2499 -0.9635
vn -0.5126 -0.0734 -0.8555
vn 0.1082 -0.1680 -0.9798
vn -0.2526 -0.8240 -0.5072
vn -0.6491 -0.3476 -0.6766
vn -0.2043 -0.7955 -0.5704
vn -0.7356 -0.6656 0.1257
vn -0.9241 0.0844 0.3726
vn -0.6505 0.7594 0.0141
vn -0.0727 0.6656 -0.7427
vn 0.1157 -0.0844 -0.9897
vn -0.1579 -0.7594 -0.6312
vn -0.7949 0.0000 -0.6067
vn -0.6068 0.0000 0.7949
vn -0.3370 0.8314 0.4416
vn 0.3371 0.8314 -0.4416
vn 0.3370 0.8315 -0.4416
vn 0.5951 0.1951 -0.7796
vn 0.6068 0.0000 -0.7949
vn 0.5950 0.1951 -0.7797
vn 0.3370 -0.8315 -0.4416
vn 0.5045 -0.5555 -0.6609
vn -0.5045 -0.5556 0.6609
vn 0.5606 -0.3827 -0.7344
s 1
f 1/1/1 225/2/2 420/3/3
f 1/1/1 162/4/4 419/5/5
f 162/4/4 1/1/1 195/6/6
f 2/7/7 226/8/8 422/9/9
f 2/7/7 164/10/10 421/11/11
f 164/10/10 2/7/7 197/12/12
f 3/13/13 227/14/14 424/15/15
f 3/13/13 166/16/16 423/17/17
f 166/16/16 3/13/13 199/18/18
f 4/19/19 228/20/20 426/21/21
f 4/19/19 168/22/22 425/23/23
f 168/22/22 4/19/19 201/24/24
f 5/25/25 229/26/26 428/27/27
f 5/25/25 170/28/28 427/29/29
f 170/28/28 5/25/25 203/30/30
f 6/31/31 230/32/32 430/33/33
f 6/31/31 172/34/34 429/35/35
f 172/34/34 6/31/31 205/36/36
f 7/37/37 231/38/38 419/5/5
f 7/37/37 174/39/39 431/40/40
f 174/39/39 7/37/37 162/4/4
f 8/41/41 232/42/42 421/11/11
f 8/41/41 175/43/43 432/44/44
f 175/43/43 8/41/41 164/10/10
f 9/45/45 233/46/46 423/17/17
f 9/45/45 176/47/47 433/48/48
f 176/47/47 9/45/45 166/16/16
f 10/49/49 234/50/50 425/23/23
f 10/49/49 177/51/51 434/52/52
f 177/51/51 10/49/49 168/22/22
f 11/53/53 235/54/54 427/29/29
f 11/53/53 178/55/55 435/56/56
f 178/55/55 11/53/53 170/28/28
f 12/57/57 236/58/58 429/35/35
f 12/57/57 179/59/59 436/60/60
f 179/59/59 12/57/57 172/34/34
f 13/61/61 237/62/62 431/40/40
f 13/61/61 180/63/63 437/64/64
f 180/63/63 13/61/61 174/39/39
f 14/65/65 238/66/66 432/44/44
f 14/65/65 181/67/67 438/68/68
f 181/67/67 14/65/65 175/43/43
f 15/69/69 239/70/70 433/48/48
f 15/69/69 182/71/71 439/72/72
f 182/71/71 15/69/69 176/47/47
f 16/73/73 240/74/74 418/75/75
f 16/73/73 183/76/76 440/77/77
f 183/76/76 16/73/73 193/78/78
f 17/79/79 241/80/80 434/52/52
f 17/79/79 193/78/78 418/75/75
f 193/78/78 17/79/79 177/51/51
f 18/81/81 242/82/82 435/56/56
f 18/81/81 184/83/83 441/84/84
f 184/83/83 18/81/81 178/55/55
f 19/85/85 243/86/86 436/60/60
f 19/85/85 185/87/87 442/88/88
f 185/87/87 19/85/85 179/59/59
f 20/89/89 244/90/90 437/64/64
f 20/89/89 186/91/91 443/92/92
f 186/91/91 20/89/89 180/63/63
f 21/93/93 245/94/94 438/68/68
f 21/93/93 187/95/95 444/96/96
f 187/95/95 21/93/93 181/67/67
f 22/97/97 246/98/98 439/72/72
f 22/97/97 188/99/99 445/100/100
f 188/99/99 22/97/97 182/71/71
f 23/101/101 247/102/102 440/77/77
f 23/101/101 189/103/103 446/104/104
f 189/103/103 23/101/101 183/76/76
f 24/105/105 248/106/106 441/84/84
f 24/105/105 190/107/107 447/108/108
f 190/107/107 24/105/105 184/83/83
f 25/109/109 249/110/110 442/88/88
f 25/109/109 191/111/111 448/112/112
f 191/111/111 25/109/109 185/87/87
f 26/113/113 250/114/114 443/92/92
f 26/113/113 192/115/115 449/116/116
f 192/115/115 26/113/113 186/91/91
f 27/117/117 251/118/118 444/96/96
f 27/117/117 195/6/6 420/3/3
f 195/6/6 27/117/117 187/95/95
f 28/119/119 252/120/120 445/100/100
f 28/119/119 197/12/12 422/9/9
f 197/12/12 28/119/119 188/99/99
f 29/121/121 253/122/122 446/104/104
f 29/121/121 199/18/18 424/15/15
f 199/18/18 29/121/121 189/103/103
f 30/123/123 254/124/124 447/108/108
f 30/123/123 201/24/24 426/21/21
f 201/24/24 30/123/123 190/107/107
f 31/125/125 255/126/126 448/112/112
f 31/125/125 203/30/30 428/27/27
f 203/30/30 31/125/125 191/111/111
f 32/127/127 256/128/128 449/116/116
f 32/127/127 205/36/36 430/33/33
f 205/36/36 32/127/127 192/115/115
f 163/129/129 33/130/130 142/131/131
f 142/131/131 33/130/130 194/132/132
f 194/132/132 33/130/130 225/2/2
f 225/2/2 33/130/130 163/129/129
f 165/133/133 34/134/134 137/135/135
f 137/135/135 34/134/134 196/136/136
f 196/136/136 34/134/134 226/8/8
f 226/8/8 34/134/134 165/133/133
f 167/137/137 35/138/138 132/139/139
f 132/139/139 35/138/138 198/140/140
f 198/140/140 35/138/138 227/14/14
f 227/14/14 35/138/138 167/137/137
f 169/141/141 36/142/142 158/143/143
f 158/143/143 36/142/142 200/144/144
f 200/144/144 36/142/142 228/20/20
f 228/20/20 36/142/142 169/141/141
f 171/145/145 37/146/146 153/147/147
f 153/147/147 37/146/146 202/148/148
f 202/148/148 37/146/146 229/26/26
f 229/26/26 37/146/146 171/145/145
f 173/149/149 38/150/150 148/151/151
f 148/151/151 38/150/150 204/152/152
f 204/152/152 38/150/150 230/32/32
f 230/32/32 38/150/150 173/149/149
f 194/132/132 39/153/153 143/154/154
f 143/154/154 39/153/153 206/155/155
f 206/155/155 39/153/153 231/38/38
f 231/38/38 39/153/153 194/132/132
f 196/136/136 40/156/156 138/157/157
f 138/157/157 40/156/156 207/158/158
f 207/158/158 40/156/156 232/42/42
f 232/42/42 40/156/156 196/136/136
f 198/140/140 41/159/159 133/160/160
f 133/160/160 41/159/159 208/161/161
f 208/161/161 41/159/159 233/46/46
f 233/46/46 41/159/159 198/140/140
f 200/144/144 42/162/162 159/163/163
f 159/163/163 42/162/162 209/164/164
f 209/164/164 42/162/162 234/50/50
f 234/50/50 42/162/162 200/144/144
f 202/148/148 43/165/165 154/166/166
f 154/166/166 43/165/165 210/167/167
f 210/167/167 43/165/165 235/54/54
f 235/54/54 43/165/165 202/148/148
f 204/152/152 44/168/168 149/169/169
f 149/169/169 44/168/168 211/170/170
f 211/170/170 44/168/168 236/58/58
f 236/58/58 44/168/168 204/152/152
f 206/155/155 45/171/171 144/172/172
f 144/172/172 45/171/171 212/173/173
f 212/173/173 45/171/171 237/62/62
f 237/62/62 45/171/171 206/155/155
f 207/158/158 46/174/174 139/175/175
f 139/175/175 46/174/174 213/176/176
f 213/176/176 46/174/174 238/66/66
f 238/66/66 46/174/174 207/158/158
f 208/161/161 47/177/177 134/178/178
f 134/178/178 47/177/177 214/179/179
f 214/179/179 47/177/177 239/70/70
f 239/70/70 47/177/177 208/161/161
f 161/180/180 48/181/181 129/182/182
f 129/182/182 48/181/181 215/183/183
f 215/183/183 48/181/181 240/74/74
f 240/74/74 48/181/181 161/180/180
f 209/164/164 49/184/184 160/185/185
f 160/185/185 49/184/184 161/180/180
f 161/180/180 49/184/184 241/80/80
f 241/80/80 49/184/184 209/164/164
f 210/167/167 50/186/186 155/187/187
f 155/187/187 50/186/186 216/188/188
f 216/188/188 50/186/186 242/82/82
f 242/82/82 50/186/186 210/167/167
f 211/170/170 51/189/189 150/190/190
f 150/190/190 51/189/189 217/191/191
f 217/191/191 51/189/189 243/86/86
f 243/86/86 51/189/189 211/170/170
f 212/173/173 52/192/192 145/193/193
f 145/193/193 52/192/192 218/194/194
f 218/194/194 52/192/192 244/90/90
f 244/90/90 52/192/192 212/173/173
f 213/176/176 53/195/195 140/196/196
f 140/196/196 53/195/195 219/197/197
f 219/197/197 53/195/195 245/94/94
f 245/94/94 53/195/195 213/176/176
f 214/179/179 54/198/198 135/199/199
f 135/199/199 54/198/198 220/200/200
f 220/200/200 54/198/198 246/98/98
f 246/98/98 54/198/198 214/179/179
f 215/183/183 55/201/201 130/202/202
f 130/202/202 55/201/201 221/203/203
f 221/203/203 55/201/201 247/102/102
f 247/102/102 55/201/201 215/183/183
f 216/188/188 56/204/204 156/205/205
f 156/205/205 56/204/204 222/206/206
f 222/206/206 56/204/204 248/106/106
f 248/106/106 56/204/204 216/188/188
f 217/191/191 57/207/207 151/208/208
f 151/208/208 57/207/207 223/209/209
f 223/209/209 57/207/207 249/110/110
f 249/110/110 57/207/207 217/191/191
f 218/194/194 58/210/210 146/211/211
f 146/211/211 58/210/210 224/212/212
f 224/212/212 58/210/210 250/114/114
f 250/114/114 58/210/210 218/194/194
f 219/197/197 59/213/213 141/214/214
f 141/214/214 59/213/213 163/129/129
f 163/129/129 59/213/213 251/118/118
f 251/118/118 59/213/213 219/197/197
f 220/200/200 60/215/215 136/216/216
f 136/216/216 60/215/215 165/133/133
f 165/133/133 60/215/215 252/120/120
f 252/120/120 60/215/215 220/200/200
f 221/203/203 61/217/217 131/218/218
f 131/218/218 61/217/217 167/137/137
f 167/137/137 61/217/217 253/122/122
f 253/122/122 61/217/217 221/203/203
f 222/206/206 62/219/219 157/220/220
f 157/220/220 62/219/219 169/141/141
f 169/141/141 62/219/219 254/124/124
f 254/124/124 62/219/219 222/206/206
f 223/209/209 63/221/221 152/222/222
f 152/222/222 63/221/221 171/145/145
f 171/145/145 63/221/221 255/126/126
f 255/126/126 63/221/221 223/209/209
f 224/212/212 64/223/223 147/224/224
f 147/224/224 64/223/223 173/149/149
f 173/149/149 64/223/223 256/128/128
f 256/128/128 64/223/223 224/212/212
f 322/225/225 65/226/226 353/227/226
f 353/227/226 65/226/226 289/228/227
f 289/228/227 65/226/226 270/229/226
f 65/226/226 322/225/225 464/230/225
f 324/231/228 66/232/229 354/233/229
f 354/233/229 66/232/229 291/234/230
f 291/234/230 66/232/229 265/235/229
f 265/235/229 66/232/229 324/231/228
f 67/236/231 355/237/231 487/238/232
f 355/237/231 67/236/231 293/239/233
f 293/239/233 67/236/231 260/240/231
f 260/240/231 67/236/231 326/241/232
f 328/242/234 68/243/235 356/244/235
f 356/244/235 68/243/235 295/245/236
f 295/245/236 68/243/235 286/246/235
f 286/246/235 68/243/235 328/242/234
f 330/247/237 69/248/238 357/249/238
f 357/249/238 69/248/238 297/250/239
f 297/250/239 69/248/238 281/251/238
f 281/251/238 69/248/238 330/247/237
f 70/252/240 358/253/240 493/254/241
f 358/253/240 70/252/240 299/255/242
f 299/255/242 70/252/240 276/256/240
f 70/252/240 332/257/241 470/258/241
f 333/259/243 71/260/244 359/261/245
f 71/260/244 322/225/225 483/262/225
f 322/225/225 71/260/244 271/263/244
f 71/260/244 333/259/243 465/264/243
f 334/265/246 72/266/247 360/267/247
f 360/267/247 72/266/247 324/231/228
f 324/231/228 72/266/247 266/268/248
f 266/268/248 72/266/247 334/265/246
f 335/269/249 73/270/250 361/271/251
f 73/270/250 326/241/232 487/238/232
f 73/270/250 261/272/251 454/273/232
f 261/272/251 73/270/250 335/269/249
f 336/274/252 74/275/253 362/276/253
f 362/276/253 74/275/253 328/242/234
f 328/242/234 74/275/253 287/277/253
f 287/277/253 74/275/253 336/274/252
f 337/278/254 75/279/255 363/280/255
f 363/280/255 75/279/255 330/247/237
f 330/247/237 75/279/255 282/281/255
f 75/279/255 337/278/254 476/282/256
f 338/283/257 76/284/258 364/285/258
f 364/285/258 76/284/258 332/257/241
f 332/257/241 76/284/258 277/286/258
f 277/286/258 76/284/258 338/283/257
f 339/287/259 77/288/260 365/289/260
f 365/289/260 77/288/260 333/259/243
f 333/259/243 77/288/260 272/290/260
f 272/290/260 77/288/260 339/287/259
f 340/291/261 78/292/262 366/293/262
f 366/293/262 78/292/262 334/265/246
f 78/292/262 267/294/262 460/295/263
f 267/294/262 78/292/262 340/291/261
f 341/296/264 79/297/265 367/298/265
f 367/298/265 79/297/265 335/269/249
f 335/269/249 79/297/265 262/299/265
f 79/297/265 341/296/264 456/300/264
f 80/301/266 368/302/266 504/303/267
f 368/302/266 80/301/266 310/304/268
f 310/304/268 80/301/266 257/305/266
f 257/305/266 80/301/266 343/306/267
f 310/304/268 81/307/269 369/308/269
f 369/308/269 81/307/269 336/274/252
f 336/274/252 81/307/269 288/309/269
f 81/307/269 310/304/268 450/310/268
f 344/311/270 82/312/271 370/313/272
f 82/312/271 337/278/254 498/314/273
f 337/278/254 82/312/271 283/315/271
f 82/312/271 344/311/270 477/316/274
f 345/317/275 83/318/276 371/319/276
f 371/319/276 83/318/276 338/283/257
f 338/283/257 83/318/276 278/320/276
f 278/320/276 83/318/276 345/317/275
f 346/321/277 84/322/278 372/323/278
f 372/323/278 84/322/278 339/287/259
f 339/287/259 84/322/278 273/324/278
f 84/322/278 346/321/277 467/325/277
f 347/326/279 85/327/280 373/328/281
f 373/328/281 85/327/280 340/291/261
f 85/327/280 268/329/280 461/330/261
f 268/329/280 85/327/280 347/326/279
f 348/331/282 86/332/283 374/333/284
f 86/332/283 341/296/264 502/334/264
f 341/296/264 86/332/283 263/335/284
f 263/335/284 86/332/283 348/331/282
f 349/336/285 87/337/286 375/338/286
f 375/338/286 87/337/286 343/306/267
f 343/306/267 87/337/286 258/339/286
f 258/339/286 87/337/286 349/336/285
f 88/340/287 376/341/287 511/342/288
f 376/341/287 88/340/287 344/311/270
f 344/311/270 88/340/287 284/343/289
f 284/343/289 88/340/287 350/344/288
f 351/345/290 89/346/291 377/347/291
f 377/347/291 89/346/291 345/317/275
f 345/317/275 89/346/291 279/348/291
f 279/348/291 89/346/291 351/345/290
f 352/349/292 90/350/293 378/351/293
f 90/350/293 346/321/277 507/352/277
f 346/321/277 90/350/293 274/353/294
f 274/353/294 90/350/293 352/349/292
f 289/228/227 91/354/295 379/355/295
f 91/354/295 347/326/279 508/356/279
f 347/326/279 91/354/295 269/357/295
f 269/357/295 91/354/295 289/228/227
f 291/234/230 92/358/296 380/359/296
f 92/358/296 348/331/282 509/360/282
f 348/331/282 92/358/296 264/361/296
f 92/358/296 291/234/230 458/362/230
f 293/239/233 93/363/297 381/364/297
f 381/364/297 93/363/297 349/336/285
f 349/336/285 93/363/297 259/365/297
f 259/365/297 93/363/297 293/239/233
f 295/245/236 94/366/298 382/367/298
f 382/367/298 94/366/298 350/344/288
f 94/366/298 285/368/298 478/369/288
f 285/368/298 94/366/298 295/245/236
f 297/250/239 95/370/299 383/371/300
f 95/370/299 351/345/290 512/372/301
f 95/370/299 280/373/300 473/374/302
f 280/373/300 95/370/299 297/250/239
f 299/255/242 96/375/303 384/376/303
f 96/375/303 352/349/292 513/377/292
f 352/349/292 96/375/303 275/378/303
f 275/378/303 96/375/303 299/255/242
f 97/379/304 142/131/131 399/380/305
f 97/379/304 321/381/306 398/382/307
f 321/381/306 97/379/304 353/227/226
f 353/227/226 97/379/304 290/383/308
f 98/384/309 137/135/135 394/385/310
f 98/384/309 323/386/311 393/387/312
f 323/386/311 98/384/309 354/233/229
f 354/233/229 98/384/309 292/388/313
f 99/389/314 132/139/139 389/390/315
f 99/389/314 325/391/316 388/392/317
f 325/391/316 99/389/314 355/237/231
f 355/237/231 99/389/314 294/393/318
f 100/394/319 158/143/143 415/395/320
f 100/394/319 327/396/321 414/397/322
f 327/396/321 100/394/319 356/244/235
f 356/244/235 100/394/319 296/398/323
f 101/399/324 153/147/147 410/400/325
f 101/399/324 329/401/326 409/402/327
f 329/401/326 101/399/324 357/249/238
f 357/249/238 101/399/324 298/403/328
f 102/404/329 148/151/151 405/405/330
f 102/404/329 331/406/331 404/407/332
f 331/406/331 102/404/329 358/253/240
f 102/404/329 300/408/333 493/254/241
f 103/409/334 143/154/154 400/410/335
f 103/409/334 290/383/308 399/380/305
f 103/409/334 359/261/245 483/262/225
f 359/261/245 103/409/334 301/411/336
f 104/412/337 138/157/157 395/413/338
f 104/412/337 292/388/313 394/385/310
f 292/388/313 104/412/337 360/267/247
f 360/267/247 104/412/337 302/414/339
f 105/415/340 133/160/160 390/416/341
f 105/415/340 294/393/318 389/417/315
f 294/393/318 105/415/340 361/271/251
f 361/271/251 105/415/340 303/418/342
f 106/419/343 159/163/163 416/420/344
f 106/419/343 296/398/323 415/395/320
f 296/398/323 106/419/343 362/276/253
f 362/276/253 106/419/343 304/421/345
f 107/422/346 154/166/166 411/423/347
f 107/422/346 298/403/328 410/400/325
f 298/403/328 107/422/346 363/280/255
f 363/280/255 107/422/346 305/424/348
f 108/425/349 149/169/169 406/426/350
f 108/425/349 300/408/333 405/427/330
f 300/408/333 108/425/349 364/285/258
f 364/285/258 108/425/349 306/428/351
f 109/429/352 144/172/172 401/430/353
f 109/429/352 301/411/336 400/410/335
f 301/411/336 109/429/352 365/289/260
f 365/289/260 109/429/352 307/431/354
f 110/432/355 139/175/175 396/433/356
f 110/432/355 302/414/339 395/413/338
f 302/414/339 110/432/355 366/293/262
f 366/293/262 110/432/355 308/434/357
f 111/435/358 134/178/178 391/436/359
f 111/435/358 303/418/342 390/416/341
f 303/418/342 111/435/358 367/298/265
f 367/298/265 111/435/358 309/437/360
f 112/438/361 129/182/182 386/439/362
f 112/438/361 342/440/363 385/441/364
f 342/440/363 112/438/361 368/302/266
f 368/302/266 112/438/361 311/442/365
f 113/443/366 160/185/185 385/441/364
f 113/443/366 304/421/345 416/420/344
f 113/443/366 369/308/269 497/444/367
f 369/308/269 113/443/366 342/440/363
f 114/445/368 155/187/187 412/446/369
f 114/445/368 305/424/348 411/423/347
f 114/445/368 370/313/272 498/314/273
f 114/445/368 312/447/370 505/448/274
f 115/449/371 150/190/190 407/450/372
f 115/449/371 306/428/351 406/426/350
f 306/428/351 115/449/371 371/319/276
f 371/319/276 115/449/371 313/451/373
f 116/452/374 145/193/193 402/453/375
f 116/452/374 307/431/354 401/430/353
f 307/431/354 116/452/374 372/323/278
f 372/323/278 116/452/374 314/454/376
f 117/455/377 140/196/196 397/456/378
f 117/455/377 308/434/357 396/433/356
f 308/434/357 117/455/377 373/328/281
f 373/328/281 117/455/377 315/457/379
f 118/458/380 135/199/199 392/459/381
f 118/458/380 309/437/360 391/436/359
f 118/458/380 374/333/284 502/334/264
f 374/333/284 118/458/380 316/460/382
f 119/461/383 130/202/202 387/462/384
f 119/461/383 311/442/365 386/439/362
f 311/442/365 119/461/383 375/338/286
f 375/338/286 119/461/383 317/463/385
f 120/464/386 156/205/205 413/465/387
f 120/464/386 312/447/370 412/446/369
f 312/447/370 120/464/386 376/341/287
f 120/464/386 318/466/388 511/342/288
f 121/467/389 151/208/208 408/468/390
f 121/467/389 313/451/373 407/450/372
f 313/451/373 121/467/389 377/347/291
f 377/347/291 121/467/389 319/469/391
f 122/470/392 146/211/211 403/471/393
f 122/470/392 314/454/376 402/453/375
f 122/470/392 378/351/293 507/352/277
f 378/351/293 122/470/392 320/472/394
f 123/473/395 141/214/214 398/382/307
f 123/473/395 315/457/379 397/456/378
f 315/457/379 123/473/395 379/355/295
f 379/355/295 123/473/395 321/381/306
f 124/474/396 136/216/216 393/387/312
f 124/474/396 316/460/382 392/459/381
f 316/460/382 124/474/396 380/359/296
f 380/359/296 124/474/396 323/386/311
f 125/475/397 131/218/218 388/392/317
f 125/475/397 317/463/385 387/462/384
f 317/463/385 125/475/397 381/364/297
f 381/364/297 125/475/397 325/391/316
f 126/476/398 157/220/220 414/397/322
f 126/476/398 318/466/388 413/465/387
f 318/466/388 126/476/398 382/367/298
f 382/367/298 126/476/398 327/396/321
f 127/477/399 152/222/222 409/402/327
f 127/477/399 319/469/391 408/468/390
f 127/477/399 383/371/300 512/372/301
f 383/371/300 127/477/399 329/401/326
f 128/478/400 147/224/224 404/407/332
f 128/478/400 320/472/394 403/471/393
f 320/472/394 128/478/400 384/376/303
f 384/376/303 128/478/400 331/406/331
f 1/1/1 420/3/3 195/6/6
f 1/1/1 419/5/5 225/2/2
f 162/4/4 195/6/6 417/479/401
f 2/7/7 422/9/9 197/12/12
f 2/7/7 421/11/11 226/8/8
f 164/10/10 197/12/12 417/479/401
f 3/13/13 424/15/15 199/18/18
f 3/13/13 423/17/17 227/14/14
f 166/16/16 199/18/18 417/479/401
f 4/19/19 426/21/21 201/24/24
f 4/19/19 425/23/23 228/20/20
f 168/22/22 201/24/24 417/479/401
f 5/25/25 428/27/27 203/30/30
f 5/25/25 427/29/29 229/26/26
f 170/28/28 203/30/30 417/479/401
f 6/31/31 430/33/33 205/36/36
f 6/31/31 429/35/35 230/32/32
f 172/34/34 205/36/36 417/479/401
f 7/37/37 419/5/5 162/4/4
f 7/37/37 431/40/40 231/38/38
f 174/39/39 162/4/4 417/479/401
f 8/41/41 421/11/11 164/10/10
f 8/41/41 432/44/44 232/42/42
f 175/43/43 164/10/10 417/479/401
f 9/45/45 423/17/17 166/16/16
f 9/45/45 433/48/48 233/46/46
f 176/47/47 166/16/16 417/479/401
f 10/49/49 425/23/23 168/22/22
f 10/49/49 434/52/52 234/50/50
f 177/51/51 168/22/22 417/479/401
f 11/53/53 427/29/29 170/28/28
f 11/53/53 435/56/56 235/54/54
f 178/55/55 170/28/28 417/479/401
f 12/57/57 429/35/35 172/34/34
f 12/57/57 436/60/60 236/58/58
f 179/59/59 172/34/34 417/479/401
f 13/61/61 431/40/40 174/39/39
f 13/61/61 437/64/64 237/62/62
f 180/63/63 174/39/39 417/479/401
f 14/65/65 432/44/44 175/43/43
f 14/65/65 438/68/68 238/66/66
f 181/67/67 175/43/43 417/479/401
f 15/69/69 433/48/48 176/47/47
f 15/69/69 439/72/72 239/70/70
f 182/71/71 176/47/47 417/479/401
f 16/73/73 418/75/75 193/78/78
f 16/73/73 440/77/77 240/74/74
f 183/76/76 193/78/78 417/479/401
f 17/79/79 434/52/52 177/51/51
f 17/79/79 418/75/75 241/80/80
f 193/78/78 177/51/51 417/479/401
f 18/81/81 435/56/56 178/55/55
f 18/81/81 441/84/84 242/82/82
f 184/83/83 178/55/55 417/479/401
f 19/85/85 436/60/60 179/59/59
f 19/85/85 442/88/88 243/86/86
f 185/87/87 179/59/59 417/479/401
f 20/89/89 437/64/64 180/63/63
f 20/89/89 443/92/92 244/90/90
f 186/91/91 180/63/63 417/479/401
f 21/93/93 438/68/68 181/67/67
f 21/93/93 444/96/96 245/94/94
f 187/95/95 181/67/67 417/479/401
f 22/97/97 439/72/72 182/71/71
f 22/97/97 445/100/100 246/98/98
f 188/99/99 182/71/71 417/479/401
f 23/101/101 440/77/77 183/76/76
f 23/101/101 446/104/104 247/102/102
f 189/103/103 183/76/76 417/479/401
f 24/105/105 441/84/84 184/83/83
f 24/105/105 447/108/108 248/106/106
f 190/107/107 184/83/83 417/479/401
f 25/109/109 442/88/88 185/87/87
f 25/109/109 448/112/112 249/110/110
f 191/111/111 185/87/87 417/479/401
f 26/113/113 443/92/92 186/91/91
f 26/113/113 449/116/116 250/114/114
f 192/115/115 186/91/91 417/479/401
f 27/117/117 444/96/96 187/95/95
f 27/117/117 420/3/3 251/118/118
f 195/6/6 187/95/95 417/479/401
f 28/119/119 445/100/100 188/99/99
f 28/119/119 422/9/9 252/120/120
f 197/12/12 188/99/99 417/479/401
f 29/121/121 446/104/104 189/103/103
f 29/121/121 424/15/15 253/122/122
f 199/18/18 189/103/103 417/479/401
f 30/123/123 447/108/108 190/107/107
f 30/123/123 426/21/21 254/124/124
f 201/24/24 190/107/107 417/479/401
f 31/125/125 448/112/112 191/111/111
f 31/125/125 428/27/27 255/126/126
f 203/30/30 191/111/111 417/479/401
f 32/127/127 449/116/116 192/115/115
f 32/127/127 430/33/33 256/128/128
f 205/36/36 192/115/115 417/479/401
f 163/129/129 142/131/131 398/382/307
f 142/131/131 194/132/132 399/380/305
f 194/132/132 225/2/2 419/5/5
f 225/2/2 163/129/129 420/3/3
f 165/133/133 137/135/135 393/387/312
f 137/135/135 196/136/136 394/385/310
f 196/136/136 226/8/8 421/11/11
f 226/8/8 165/133/133 422/9/9
f 167/137/137 132/139/139 388/392/317
f 132/139/139 198/140/140 389/417/315
f 198/140/140 227/14/14 423/17/17
f 227/14/14 167/137/137 424/15/15
f 169/141/141 158/143/143 414/397/322
f 158/143/143 200/144/144 415/395/320
f 200/144/144 228/20/20 425/23/23
f 228/20/20 169/141/141 426/21/21
f 171/145/145 153/147/147 409/402/327
f 153/147/147 202/148/148 410/400/325
f 202/148/148 229/26/26 427/29/29
f 229/26/26 171/145/145 428/27/27
f 173/149/149 148/151/151 404/407/332
f 148/151/151 204/152/152 405/405/330
f 204/152/152 230/32/32 429/35/35
f 230/32/32 173/149/149 430/33/33
f 194/132/132 143/154/154 399/380/305
f 143/154/154 206/155/155 400/410/335
f 206/155/155 231/38/38 431/40/40
f 231/38/38 194/132/132 419/5/5
f 196/136/136 138/157/157 394/385/310
f 138/157/157 207/158/158 395/413/338
f 207/158/158 232/42/42 432/44/44
f 232/42/42 196/136/136 421/11/11
f 198/140/140 133/160/160 389/417/315
f 133/160/160 208/161/161 390/416/341
f 208/161/161 233/46/46 433/48/48
f 233/46/46 198/140/140 423/17/17
f 200/144/144 159/163/163 415/395/320
f 159/163/163 209/164/164 416/420/344
f 209/164/164 234/50/50 434/52/52
f 234/50/50 200/144/144 425/23/23
f 202/148/148 154/166/166 410/400/325
f 154/166/166 210/167/167 411/423/347
f 210/167/167 235/54/54 435/56/56
f 235/54/54 202/148/148 427/29/29
f 204/152/152 149/169/169 405/405/330
f 149/169/169 211/170/170 406/426/350
f 211/170/170 236/58/58 436/60/60
f 236/58/58 204/152/152 429/35/35
f 206/155/155 144/172/172 400/410/335
f 144/172/172 212/173/173 401/430/353
f 212/173/173 237/62/62 437/64/64
f 237/62/62 206/155/155 431/40/40
f 207/158/158 139/175/175 395/413/338
f 139/175/175 213/176/176 396/433/356
f 213/176/176 238/66/66 438/68/68
f 238/66/66 207/158/158 432/44/44
f 208/161/161 134/178/178 390/416/341
f 134/178/178 214/179/179 391/436/359
f 214/179/179 239/70/70 439/72/72
f 239/70/70 208/161/161 433/48/48
f 161/180/180 129/182/182 385/441/364
f 129/182/182 215/183/183 386/439/362
f 215/183/183 240/74/74 440/77/77
f 240/74/74 161/180/180 418/75/75
f 209/164/164 160/185/185 416/420/344
f 160/185/185 161/180/180 385/441/364
f 161/180/180 241/80/80 418/75/75
f 241/80/80 209/164/164 434/52/52
f 210/167/167 155/187/187 411/423/347
f 155/187/187 216/188/188 412/446/369
f 216/188/188 242/82/82 441/84/84
f 242/82/82 210/167/167 435/56/56
f 211/170/170 150/190/190 406/426/350
f 150/190/190 217/191/191 407/450/372
f 217/191/191 243/86/86 442/88/88
f 243/86/86 211/170/170 436/60/60
f 212/173/173 145/193/193 401/430/353
f 145/193/193 218/194/194 402/453/375
f 218/194/194 244/90/90 443/92/92
f 244/90/90 212/173/173 437/64/64
f 213/176/176 140/196/196 396/433/356
f 140/196/196 219/197/197 397/456/378
f 219/197/197 245/94/94 444/96/96
f 245/94/94 213/176/176 438/68/68
f 214/179/179 135/199/199 391/436/359
f 135/199/199 220/200/200 392/459/381
f 220/200/200 246/98/98 445/100/100
f 246/98/98 214/179/179 439/72/72
f 215/183/183 130/202/202 386/439/362
f 130/202/202 221/203/203 387/462/384
f 221/203/203 247/102/102 446/104/104
f 247/102/102 215/183/183 440/77/77
f 216/188/188 156/205/205 412/446/369
f 156/205/205 222/206/206 413/465/387
f 222/206/206 248/106/106 447/108/108
f 248/106/106 216/188/188 441/84/84
f 217/191/191 151/208/208 407/450/372
f 151/208/208 223/209/209 408/468/390
f 223/209/209 249/110/110 448/112/112
f 249/110/110 217/191/191 442/88/88
f 218/194/194 146/211/211 402/453/375
f 146/211/211 224/212/212 403/471/393
f 224/212/212 250/114/114 449/116/116
f 250/114/114 218/194/194 443/92/92
f 219/197/197 141/214/214 397/456/378
f 141/214/214 163/129/129 398/382/307
f 163/129/129 251/118/118 420/3/3
f 251/118/118 219/197/197 444/96/96
f 220/200/200 136/216/216 392/459/381
f 136/216/216 165/133/133 393/387/312
f 165/133/133 252/120/120 422/9/9
f 252/120/120 220/200/200 445/100/100
f 221/203/203 131/218/218 387/462/384
f 131/218/218 167/137/137 388/392/317
f 167/137/137 253/122/122 424/15/15
f 253/122/122 221/203/203 446/104/104
f 222/206/206 157/220/220 413/465/387
f 157/220/220 169/141/141 414/397/322
f 169/141/141 254/124/124 426/21/21
f 254/124/124 222/206/206 447/108/108
f 223/209/209 152/222/222 408/468/390
f 152/222/222 171/145/145 409/402/327
f 171/145/145 255/126/126 428/27/27
f 255/126/126 223/209/209 448/112/112
f 224/212/212 147/224/224 403/471/393
f 147/224/224 173/149/149 404/407/332
f 173/149/149 256/128/128 430/33/33
f 256/128/128 224/212/212 449/116/116
f 322/225/225 353/227/226 483/262/225
f 353/227/226 289/228/227 482/480/227
f 289/228/227 270/229/226 463/481/227
f 65/226/226 464/230/225 270/229/226
f 324/231/228 354/233/229 485/482/228
f 354/233/229 291/234/230 484/483/402
f 291/234/230 265/235/229 458/362/230
f 265/235/229 324/231/228 459/484/228
f 67/236/231 487/238/232 326/241/232
f 355/237/231 293/239/233 486/485/403
f 293/239/233 260/240/231 453/486/233
f 260/240/231 326/241/232 454/273/232
f 328/242/234 356/244/235 489/487/234
f 356/244/235 295/245/236 488/488/404
f 295/245/236 286/246/235 479/489/405
f 286/246/235 328/242/234 480/490/234
f 330/247/237 357/249/238 491/491/406
f 357/249/238 297/250/239 490/492/407
f 297/250/239 281/251/238 474/493/239
f 281/251/238 330/247/237 475/494/408
f 70/252/240 493/254/241 332/257/241
f 358/253/240 299/255/242 492/495/242
f 299/255/242 276/256/240 469/496/409
f 70/252/240 470/258/241 276/256/240
f 333/259/243 359/261/245 494/497/243
f 71/260/244 483/262/225 359/261/245
f 322/225/225 271/263/244 464/230/225
f 71/260/244 465/264/243 271/263/244
f 334/265/246 360/267/247 495/498/263
f 360/267/247 324/231/228 485/482/228
f 324/231/228 266/268/248 459/484/228
f 266/268/248 334/265/246 460/295/263
f 335/269/249 361/271/251 496/499/249
f 73/270/250 487/238/232 361/271/251
f 73/270/250 454/273/232 326/241/232
f 261/272/251 335/269/249 455/500/249
f 336/274/252 362/276/253 497/444/367
f 362/276/253 328/242/234 489/487/234
f 328/242/234 287/277/253 480/490/234
f 287/277/253 336/274/252 481/501/252
f 337/278/254 363/280/255 498/314/273
f 363/280/255 330/247/237 491/491/406
f 330/247/237 282/281/255 475/494/408
f 75/279/255 476/282/256 282/281/255
f 338/283/257 364/285/258 499/502/257
f 364/285/258 332/257/241 493/254/241
f 332/257/241 277/286/258 470/258/241
f 277/286/258 338/283/257 471/503/410
f 339/287/259 365/289/260 500/504/259
f 365/289/260 333/259/243 494/497/243
f 333/259/243 272/290/260 465/264/243
f 272/290/260 339/287/259 466/505/259
f 340/291/261 366/293/262 501/506/411
f 366/293/262 334/265/246 495/498/263
f 78/292/262 460/295/263 334/265/246
f 267/294/262 340/291/261 461/330/261
f 341/296/264 367/298/265 502/334/264
f 367/298/265 335/269/249 496/499/249
f 335/269/249 262/299/265 455/500/249
f 79/297/265 456/300/264 262/299/265
f 80/301/266 504/303/267 343/306/267
f 368/302/266 310/304/268 503/507/268
f 310/304/268 257/305/266 450/310/268
f 257/305/266 343/306/267 451/508/267
f 310/304/268 369/308/269 503/507/268
f 369/308/269 336/274/252 497/444/367
f 336/274/252 288/309/269 481/501/252
f 81/307/269 450/310/268 288/309/269
f 344/311/270 370/313/272 505/448/274
f 82/312/271 498/314/273 370/313/272
f 337/278/254 283/315/271 476/282/256
f 82/312/271 477/316/274 283/315/271
f 345/317/275 371/319/276 506/509/412
f 371/319/276 338/283/257 499/502/257
f 338/283/257 278/320/276 471/503/410
f 278/320/276 345/317/275 472/510/275
f 346/321/277 372/323/278 507/352/277
f 372/323/278 339/287/259 500/504/259
f 339/287/259 273/324/278 466/505/259
f 84/322/278 467/325/277 273/324/278
f 347/326/279 373/328/281 508/356/279
f 373/328/281 340/291/261 501/506/411
f 85/327/280 461/330/261 340/291/261
f 268/329/280 347/326/279 462/511/279
f 348/331/282 374/333/284 509/360/282
f 86/332/283 502/334/264 374/333/284
f 341/296/264 263/335/284 456/300/264
f 263/335/284 348/331/282 457/512/282
f 349/336/285 375/338/286 510/513/285
f 375/338/286 343/306/267 504/303/267
f 343/306/267 258/339/286 451/508/267
f 258/339/286 349/336/285 452/514/285
f 88/340/287 511/342/288 350/344/288
f 376/341/287 344/311/270 505/448/274
f 344/311/270 284/343/289 477/316/274
f 284/343/289 350/344/288 478/369/288
f 351/345/290 377/347/291 512/372/301
f 377/347/291 345/317/275 506/509/412
f 345/317/275 279/348/291 472/510/275
f 279/348/291 351/345/290 473/374/302
f 352/349/292 378/351/293 513/377/292
f 90/350/293 507/352/277 378/351/293
f 346/321/277 274/353/294 467/325/277
f 274/353/294 352/349/292 468/515/292
f 289/228/227 379/355/295 482/480/227
f 91/354/295 508/356/279 379/355/295
f 347/326/279 269/357/295 462/511/279
f 269/357/295 289/228/227 463/481/227
f 291/234/230 380/359/296 484/483/402
f 92/358/296 509/360/282 380/359/296
f 348/331/282 264/361/296 457/512/282
f 92/358/296 458/362/230 264/361/296
f 293/239/233 381/364/297 486/485/403
f 381/364/297 349/336/285 510/513/285
f 349/336/285 259/365/297 452/514/285
f 259/365/297 293/239/233 453/486/233
f 295/245/236 382/367/298 488/488/404
f 382/367/298 350/344/288 511/342/288
f 94/366/298 478/369/288 350/344/288
f 285/368/298 295/245/236 479/489/405
f 297/250/239 383/371/300 490/492/407
f 95/370/299 512/372/301 383/371/300
f 95/370/299 473/374/302 351/345/290
f 280/373/300 297/250/239 474/493/239
f 299/255/242 384/376/303 492/495/242
f 96/375/303 513/377/292 384/376/303
f 352/349/292 275/378/303 468/515/292
f 275/378/303 299/255/242 469/496/409
f 97/379/304 399/380/305 290/383/308
f 97/379/304 398/382/307 142/131/131
f 321/381/306 353/227/226 482/480/227
f 353/227/226 290/383/308 483/262/225
f 98/384/309 394/385/310 292/388/313
f 98/384/309 393/387/312 137/135/135
f 323/386/311 354/233/229 484/483/402
f 354/233/229 292/388/313 485/482/228
f 99/389/314 389/390/315 294/393/318
f 99/389/314 388/392/317 132/139/139
f 325/391/316 355/237/231 486/485/403
f 355/237/231 294/393/318 487/238/232
f 100/394/319 415/395/320 296/398/323
f 100/394/319 414/397/322 158/143/143
f 327/396/321 356/244/235 488/488/404
f 356/244/235 296/398/323 489/487/234
f 101/399/324 410/400/325 298/403/328
f 101/399/324 409/402/327 153/147/147
f 329/401/326 357/249/238 490/492/407
f 357/249/238 298/403/328 491/491/406
f 102/404/329 405/405/330 300/408/333
f 102/404/329 404/407/332 148/151/151
f 331/406/331 358/253/240 492/495/242
f 102/404/329 493/254/241 358/253/240
f 103/409/334 400/410/335 301/411/336
f 103/409/334 399/380/305 143/154/154
f 103/409/334 483/262/225 290/383/308
f 359/261/245 301/411/336 494/497/243
f 104/412/337 395/413/338 302/414/339
f 104/412/337 394/385/310 138/157/157
f 292/388/313 360/267/247 485/482/228
f 360/267/247 302/414/339 495/498/263
f 105/415/340 390/416/341 303/418/342
f 105/415/340 389/417/315 133/160/160
f 294/393/318 361/271/251 487/238/232
f 361/271/251 303/418/342 496/499/249
f 106/419/343 416/420/344 304/421/345
f 106/419/343 415/395/320 159/163/163
f 296/398/323 362/276/253 489/487/234
f 362/276/253 304/421/345 497/444/367
f 107/422/346 411/423/347 305/424/348
f 107/422/346 410/400/325 154/166/166
f 298/403/328 363/280/255 491/491/406
f 363/280/255 305/424/348 498/314/273
f 108/425/349 406/426/350 306/428/351
f 108/425/349 405/427/330 149/169/169
f 300/408/333 364/285/258 493/254/241
f 364/285/258 306/428/351 499/502/257
f 109/429/352 401/430/353 307/431/354
f 109/429/352 400/410/335 144/172/172
f 301/411/336 365/289/260 494/497/243
f 365/289/260 307/431/354 500/504/259
f 110/432/355 396/433/356 308/434/357
f 110/432/355 395/413/338 139/175/175
f 302/414/339 366/293/262 495/498/263
f 366/293/262 308/434/357 501/506/411
f 111/435/358 391/436/359 309/437/360
f 111/435/358 390/416/341 134/178/178
f 303/418/342 367/298/265 496/499/249
f 367/298/265 309/437/360 502/334/264
f 112/438/361 386/439/362 311/442/365
f 112/438/361 385/441/364 129/182/182
f 342/440/363 368/302/266 503/507/268
f 368/302/266 311/442/365 504/303/267
f 113/443/366 385/441/364 342/440/363
f 113/443/366 416/420/344 160/185/185
f 113/443/366 497/444/367 304/421/345
f 369/308/269 342/440/363 503/507/268
f 114/445/368 412/446/369 312/447/370
f 114/445/368 411/423/347 155/187/187
f 114/445/368 498/314/273 305/424/348
f 114/445/368 505/448/274 370/313/272
f 115/449/371 407/450/372 313/451/373
f 115/449/371 406/426/350 150/190/190
f 306/428/351 371/319/276 499/502/257
f 371/319/276 313/451/373 506/509/412
f 116/452/374 402/453/375 314/454/376
f 116/452/374 401/430/353 145/193/193
f 307/431/354 372/323/278 500/504/259
f 372/323/278 314/454/376 507/352/277
f 117/455/377 397/456/378 315/457/379
f 117/455/377 396/433/356 140/196/196
f 308/434/357 373/328/281 501/506/411
f 373/328/281 315/457/379 508/356/279
f 118/458/380 392/459/381 316/460/382
f 118/458/380 391/436/359 135/199/199
f 118/458/380 502/334/264 309/437/360
f 374/333/284 316/460/382 509/360/282
f 119/461/383 387/462/384 317/463/385
f 119/461/383 386/439/362 130/202/202
f 311/442/365 375/338/286 504/303/267
f 375/338/286 317/463/385 510/513/285
f 120/464/386 413/465/387 318/466/388
f 120/464/386 412/446/369 156/205/205
f 312/447/370 376/341/287 505/448/274
f 120/464/386 511/342/288 376/341/287
f 121/467/389 408/468/390 319/469/391
f 121/467/389 407/450/372 151/208/208
f 313/451/373 377/347/291 506/509/412
f 377/347/291 319/469/391 512/372/301
f 122/470/392 403/471/393 320/472/394
f 122/470/392 402/453/375 146/211/211
f 122/470/392 507/352/277 314/454/376
f 378/351/293 320/472/394 513/377/292
f 123/473/395 398/382/307 321/381/306
f 123/473/395 397/456/378 141/214/214
f 315/457/379 379/355/295 508/356/279
f 379/355/295 321/381/306 482/480/227
f 124/474/396 393/387/312 323/386/311
f 124/474/396 392/459/381 136/216/216
f 316/460/382 380/359/296 509/360/282
f 380/359/296 323/386/311 484/483/402
f 125/475/397 388/392/317 325/391/316
f 125/475/397 387/462/384 131/218/218
f 317/463/385 381/364/297 510/513/285
f 381/364/297 325/391/316 486/485/403
f 126/476/398 414/397/322 327/396/321
f 126/476/398 413/465/387 157/220/220
f 318/466/388 382/367/298 511/342/288
f 382/367/298 327/396/321 488/488/404
f 127/477/399 409/402/327 329/401/326
f 127/477/399 408/468/390 152/222/222
f 127/477/399 512/372/301 319/469/391
f 383/371/300 329/401/326 490/492/407
f 128/478/400 404/407/332 331/406/331
f 128/478/400 403/471/393 147/224/224
f 320/472/394 384/376/303 513/377/292
f 384/376/303 331/406/331 492/495/242
