# Blender v2.79 (sub 0) OBJ File: 'm3.blend'
# www.blender.org
o Rim_Nuts_RR_Cylinder.005
v -1.626921 -0.726893 -2.667116
v -1.665934 -0.726893 -2.667116
v -1.626921 -0.743786 -2.657363
v -1.665934 -0.743786 -2.657363
v -1.626921 -0.743786 -2.637856
v -1.665934 -0.743786 -2.637856
v -1.626921 -0.726893 -2.628103
v -1.665934 -0.726893 -2.628103
v -1.626921 -0.709999 -2.637856
v -1.665934 -0.709999 -2.637856
v -1.626921 -0.709999 -2.657363
v -1.665934 -0.709999 -2.657363
v -1.665934 -0.726893 -2.660982
v -1.665934 -0.738473 -2.654296
v -1.665934 -0.738473 -2.640924
v -1.665934 -0.726893 -2.634238
v -1.665934 -0.715312 -2.640924
v -1.665934 -0.715312 -2.654296
v -1.645236 -0.726893 -2.660982
v -1.645236 -0.738473 -2.654296
v -1.645236 -0.738473 -2.640924
v -1.645236 -0.726893 -2.634238
v -1.645236 -0.715312 -2.640924
v -1.645236 -0.715312 -2.654296
v -1.645236 -0.726893 -2.647610
v -1.626921 -0.822361 -2.723684
v -1.665934 -0.822361 -2.723684
v -1.626921 -0.825278 -2.704396
v -1.665934 -0.825278 -2.704396
v -1.626921 -0.810033 -2.692227
v -1.665934 -0.810033 -2.692227
v -1.626921 -0.791871 -2.699344
v -1.665934 -0.791871 -2.699344
v -1.626921 -0.788954 -2.718632
v -1.665934 -0.788954 -2.718632
v -1.626921 -0.804199 -2.730801
v -1.665934 -0.804199 -2.730801
v -1.665934 -0.817567 -2.719857
v -1.665934 -0.819566 -2.706635
v -1.665934 -0.809116 -2.698292
v -1.665934 -0.796665 -2.703171
v -1.665934 -0.794666 -2.716393
v -1.665934 -0.805116 -2.724736
v -1.645236 -0.817567 -2.719857
v -1.645236 -0.819566 -2.706635
v -1.645236 -0.809116 -2.698292
v -1.645236 -0.796665 -2.703171
v -1.645236 -0.794666 -2.716393
v -1.645236 -0.805116 -2.724736
v -1.645236 -0.807116 -2.711514
v -1.626921 -0.926130 -2.684365
v -1.665934 -0.926130 -2.684365
v -1.626921 -0.912876 -2.670052
v -1.665934 -0.912876 -2.670052
v -1.626921 -0.893854 -2.674374
v -1.665934 -0.893854 -2.674374
v -1.626921 -0.888086 -2.693008
v -1.665934 -0.888086 -2.693008
v -1.626921 -0.901340 -2.707320
v -1.665934 -0.901340 -2.707320
v -1.626921 -0.920362 -2.702999
v -1.665934 -0.920362 -2.702999
v -1.665934 -0.920148 -2.685724
v -1.665934 -0.911062 -2.675912
v -1.665934 -0.898022 -2.678874
v -1.665934 -0.894068 -2.691649
v -1.665934 -0.903154 -2.701460
v -1.665934 -0.916194 -2.698498
v -1.645236 -0.920148 -2.685724
v -1.645236 -0.911062 -2.675912
v -1.645236 -0.898022 -2.678874
v -1.645236 -0.894068 -2.691649
v -1.645236 -0.903154 -2.701460
v -1.645236 -0.916194 -2.698498
v -1.645236 -0.907108 -2.688686
v -1.626921 -0.960140 -2.578736
v -1.665934 -0.960140 -2.578736
v -1.626921 -0.940686 -2.580165
v -1.665934 -0.940686 -2.580165
v -1.626921 -0.932196 -2.597727
v -1.665934 -0.932196 -2.597727
v -1.626921 -0.943161 -2.613861
v -1.665934 -0.943161 -2.613860
v -1.626921 -0.962615 -2.612432
v -1.665934 -0.962615 -2.612432
v -1.626921 -0.971105 -2.594870
v -1.665934 -0.971105 -2.594870
v -1.665934 -0.957471 -2.584259
v -1.665934 -0.944134 -2.585238
v -1.665934 -0.938314 -2.597278
v -1.665934 -0.945831 -2.608338
v -1.665934 -0.959167 -2.607358
v -1.665934 -0.964987 -2.595319
v -1.645236 -0.957471 -2.584259
v -1.645236 -0.944134 -2.585238
v -1.645236 -0.938314 -2.597278
v -1.645236 -0.945831 -2.608338
v -1.645236 -0.959167 -2.607358
v -1.645236 -0.964987 -2.595319
v -1.645236 -0.951651 -2.596298
v -1.626921 -0.898808 -2.486257
v -1.665934 -0.898808 -2.486257
v -1.626921 -0.887788 -2.502352
v -1.665934 -0.887788 -2.502352
v -1.626921 -0.896216 -2.519944
v -1.665934 -0.896216 -2.519944
v -1.626921 -0.915665 -2.521440
v -1.665934 -0.915665 -2.521440
v -1.626921 -0.926686 -2.505345
v -1.665934 -0.926686 -2.505345
v -1.626921 -0.918257 -2.487754
v -1.665934 -0.918257 -2.487754
v -1.665934 -0.901459 -2.491789
v -1.665934 -0.893904 -2.502823
v -1.665934 -0.899682 -2.514882
v -1.665934 -0.913015 -2.515908
v -1.665934 -0.920570 -2.504875
v -1.665934 -0.914792 -2.492815
v -1.645236 -0.901459 -2.491789
v -1.645236 -0.893904 -2.502823
v -1.645236 -0.899682 -2.514882
v -1.645236 -0.913015 -2.515908
v -1.645236 -0.920570 -2.504875
v -1.645236 -0.914792 -2.492815
v -1.645236 -0.907237 -2.503849
v -1.626921 -0.788270 -2.476493
v -1.665934 -0.788270 -2.476493
v -1.626921 -0.793973 -2.495148
v -1.665934 -0.793973 -2.495148
v -1.626921 -0.812980 -2.499536
v -1.665934 -0.812980 -2.499536
v -1.626921 -0.826283 -2.485270
v -1.665934 -0.826283 -2.485270
v -1.626921 -0.820580 -2.466615
v -1.665934 -0.820580 -2.466615
v -1.626921 -0.801574 -2.462227
v -1.665934 -0.801574 -2.462227
v -1.665934 -0.794247 -2.477873
v -1.665934 -0.798157 -2.490661
v -1.665934 -0.811186 -2.493670
v -1.665934 -0.820306 -2.483890
v -1.665934 -0.816397 -2.471102
v -1.665934 -0.803367 -2.468093
v -1.645236 -0.794247 -2.477873
v -1.645236 -0.798157 -2.490661
v -1.645236 -0.811186 -2.493670
v -1.645236 -0.820306 -2.483890
v -1.645236 -0.816397 -2.471102
v -1.645236 -0.803367 -2.468093
v -1.645236 -0.807277 -2.480881
v -1.626921 -0.711677 -2.556790
v -1.665934 -0.711677 -2.556790
v -1.626921 -0.729814 -2.563971
v -1.665934 -0.729814 -2.563971
v -1.626921 -0.745101 -2.551854
v -1.665934 -0.745101 -2.551854
v -1.626921 -0.742251 -2.532557
v -1.665934 -0.742251 -2.532557
v -1.626921 -0.724115 -2.525376
v -1.665934 -0.724115 -2.525376
v -1.626921 -0.708827 -2.537493
v -1.665934 -0.708827 -2.537493
v -1.665934 -0.716484 -2.552980
v -1.665934 -0.728918 -2.557902
v -1.665934 -0.739397 -2.549596
v -1.665934 -0.737444 -2.536367
v -1.665934 -0.725011 -2.531445
v -1.665934 -0.714531 -2.539751
v -1.645236 -0.716484 -2.552980
v -1.645236 -0.728918 -2.557902
v -1.645236 -0.739397 -2.549596
v -1.645236 -0.737444 -2.536367
v -1.645236 -0.725011 -2.531445
v -1.645236 -0.714531 -2.539751
v -1.645236 -0.726964 -2.544674
v -1.626921 -0.726893 -2.667116
v -1.665934 -0.726893 -2.667116
v -1.626921 -0.743786 -2.657363
v -1.665934 -0.743786 -2.657363
v -1.626921 -0.743786 -2.637856
v -1.665934 -0.743786 -2.637856
v -1.626921 -0.726893 -2.628103
v -1.665934 -0.726893 -2.628103
v -1.626921 -0.709999 -2.637856
v -1.665934 -0.709999 -2.637856
v -1.626921 -0.709999 -2.657363
v -1.665934 -0.709999 -2.657363
v -1.665934 -0.726893 -2.660982
v -1.665934 -0.738473 -2.654296
v -1.665934 -0.738473 -2.640924
v -1.665934 -0.726893 -2.634238
v -1.665934 -0.715312 -2.640924
v -1.665934 -0.715312 -2.654296
v -1.645236 -0.726893 -2.660982
v -1.645236 -0.738473 -2.654296
v -1.645236 -0.738473 -2.640924
v -1.645236 -0.726893 -2.634238
v -1.645236 -0.715312 -2.640924
v -1.645236 -0.715312 -2.654296
v -1.645236 -0.726893 -2.647610
v -1.626921 -0.822361 -2.723684
v -1.665934 -0.822361 -2.723684
v -1.626921 -0.825278 -2.704396
v -1.665934 -0.825278 -2.704396
v -1.626921 -0.810033 -2.692227
v -1.665934 -0.810033 -2.692227
v -1.626921 -0.791871 -2.699344
v -1.665934 -0.791871 -2.699344
v -1.626921 -0.788954 -2.718632
v -1.665934 -0.788954 -2.718632
v -1.626921 -0.804199 -2.730801
v -1.665934 -0.804199 -2.730801
v -1.665934 -0.817567 -2.719857
v -1.665934 -0.819566 -2.706635
v -1.665934 -0.809116 -2.698292
v -1.665934 -0.796665 -2.703171
v -1.665934 -0.794666 -2.716393
v -1.665934 -0.805116 -2.724736
v -1.645236 -0.817567 -2.719857
v -1.645236 -0.819566 -2.706635
v -1.645236 -0.809116 -2.698292
v -1.645236 -0.796665 -2.703171
v -1.645236 -0.794666 -2.716393
v -1.645236 -0.805116 -2.724736
v -1.645236 -0.807116 -2.711514
v -1.626921 -0.926130 -2.684365
v -1.665934 -0.926130 -2.684365
v -1.626921 -0.912876 -2.670052
v -1.665934 -0.912876 -2.670052
v -1.626921 -0.893854 -2.674374
v -1.665934 -0.893854 -2.674374
v -1.626921 -0.888086 -2.693008
v -1.665934 -0.888086 -2.693008
v -1.626921 -0.901340 -2.707320
v -1.665934 -0.901340 -2.707320
v -1.626921 -0.920362 -2.702999
v -1.665934 -0.920362 -2.702999
v -1.665934 -0.920148 -2.685724
v -1.665934 -0.911062 -2.675912
v -1.665934 -0.898022 -2.678874
v -1.665934 -0.894068 -2.691649
v -1.665934 -0.903154 -2.701460
v -1.665934 -0.916194 -2.698498
v -1.645236 -0.920148 -2.685724
v -1.645236 -0.911062 -2.675912
v -1.645236 -0.898022 -2.678874
v -1.645236 -0.894068 -2.691649
v -1.645236 -0.903154 -2.701460
v -1.645236 -0.916194 -2.698498
v -1.645236 -0.907108 -2.688686
v -1.626921 -0.960140 -2.578736
v -1.665934 -0.960140 -2.578736
v -1.626921 -0.940686 -2.580165
v -1.665934 -0.940686 -2.580165
v -1.626921 -0.932196 -2.597727
v -1.665934 -0.932196 -2.597727
v -1.626921 -0.943161 -2.613861
v -1.665934 -0.943161 -2.613860
v -1.626921 -0.962615 -2.612432
v -1.665934 -0.962615 -2.612432
v -1.626921 -0.971105 -2.594870
v -1.665934 -0.971105 -2.594870
v -1.665934 -0.957471 -2.584259
v -1.665934 -0.944134 -2.585238
v -1.665934 -0.938314 -2.597278
v -1.665934 -0.945831 -2.608338
v -1.665934 -0.959167 -2.607358
v -1.665934 -0.964987 -2.595319
v -1.645236 -0.957471 -2.584259
v -1.645236 -0.944134 -2.585238
v -1.645236 -0.938314 -2.597278
v -1.645236 -0.945831 -2.608338
v -1.645236 -0.959167 -2.607358
v -1.645236 -0.964987 -2.595319
v -1.645236 -0.951651 -2.596298
v -1.626921 -0.898808 -2.486257
v -1.665934 -0.898808 -2.486257
v -1.626921 -0.887788 -2.502352
v -1.665934 -0.887788 -2.502352
v -1.626921 -0.896216 -2.519944
v -1.665934 -0.896216 -2.519944
v -1.626921 -0.915665 -2.521440
v -1.665934 -0.915665 -2.521440
v -1.626921 -0.926686 -2.505345
v -1.665934 -0.926686 -2.505345
v -1.626921 -0.918257 -2.487754
v -1.665934 -0.918257 -2.487754
v -1.665934 -0.901459 -2.491789
v -1.665934 -0.893904 -2.502823
v -1.665934 -0.899682 -2.514882
v -1.665934 -0.913015 -2.515908
v -1.665934 -0.920570 -2.504875
v -1.665934 -0.914792 -2.492815
v -1.645236 -0.901459 -2.491789
v -1.645236 -0.893904 -2.502823
v -1.645236 -0.899682 -2.514882
v -1.645236 -0.913015 -2.515908
v -1.645236 -0.920570 -2.504875
v -1.645236 -0.914792 -2.492815
v -1.645236 -0.907237 -2.503849
v -1.626921 -0.788270 -2.476493
v -1.665934 -0.788270 -2.476493
v -1.626921 -0.793973 -2.495148
v -1.665934 -0.793973 -2.495148
v -1.626921 -0.812980 -2.499536
v -1.665934 -0.812980 -2.499536
v -1.626921 -0.826283 -2.485270
v -1.665934 -0.826283 -2.485270
v -1.626921 -0.820580 -2.466615
v -1.665934 -0.820580 -2.466615
v -1.626921 -0.801574 -2.462227
v -1.665934 -0.801574 -2.462227
v -1.665934 -0.794247 -2.477873
v -1.665934 -0.798157 -2.490661
v -1.665934 -0.811186 -2.493670
v -1.665934 -0.820306 -2.483890
v -1.665934 -0.816397 -2.471102
v -1.665934 -0.803367 -2.468093
v -1.645236 -0.794247 -2.477873
v -1.645236 -0.798157 -2.490661
v -1.645236 -0.811186 -2.493670
v -1.645236 -0.820306 -2.483890
v -1.645236 -0.816397 -2.471102
v -1.645236 -0.803367 -2.468093
v -1.645236 -0.807277 -2.480881
v -1.626921 -0.711677 -2.556790
v -1.665934 -0.711677 -2.556790
v -1.626921 -0.729814 -2.563971
v -1.665934 -0.729814 -2.563971
v -1.626921 -0.745101 -2.551854
v -1.665934 -0.745101 -2.551854
v -1.626921 -0.742251 -2.532557
v -1.665934 -0.742251 -2.532557
v -1.626921 -0.724115 -2.525376
v -1.665934 -0.724115 -2.525376
v -1.626921 -0.708827 -2.537493
v -1.665934 -0.708827 -2.537493
v -1.665934 -0.716484 -2.552980
v -1.665934 -0.728918 -2.557902
v -1.665934 -0.739397 -2.549596
v -1.665934 -0.737444 -2.536367
v -1.665934 -0.725011 -2.531445
v -1.665934 -0.714531 -2.539751
v -1.645236 -0.716484 -2.552980
v -1.645236 -0.728918 -2.557902
v -1.645236 -0.739397 -2.549596
v -1.645236 -0.737444 -2.536367
v -1.645236 -0.725011 -2.531445
v -1.645236 -0.714531 -2.539751
v -1.645236 -0.726964 -2.544674
vn 0.0000 -0.5000 -0.8660
vn 0.0000 -1.0000 0.0000
vn 0.0000 -0.5000 0.8660
vn 0.0000 0.5000 0.8660
vn -1.0000 -0.0000 0.0000
vn 0.0000 0.5000 -0.8660
vn 0.0000 1.0000 0.0000
vn 1.0000 0.0000 0.0000
vn 0.0000 -0.9888 -0.1495
vn 0.0000 -0.6239 0.7815
vn 0.0000 0.3649 0.9311
vn 0.0000 0.9888 0.1495
vn 0.0000 -0.3649 -0.9311
vn 0.0000 0.6239 -0.7815
vn 0.0000 -0.7337 0.6794
vn 0.0000 0.2215 0.9751
vn 0.0000 0.9553 0.2957
vn 0.0000 0.7337 -0.6794
vn 0.0000 -0.9553 -0.2957
vn 0.0000 -0.2215 -0.9751
vn -1.0000 0.0001 0.0000
vn -1.0000 -0.0001 0.0000
vn 0.0000 0.0732 0.9973
vn 0.0000 0.9003 0.4352
vn -0.0000 0.8271 -0.5621
vn 0.0000 -0.0732 -0.9973
vn 0.0000 -0.8271 0.5621
vn 0.0000 -0.9003 -0.4352
vn 0.0000 0.8251 0.5650
vn 0.0000 0.9018 -0.4321
vn 0.0000 0.0767 -0.9971
vn 0.0000 -0.8251 -0.5650
vn 0.0000 -0.0767 0.9971
vn 0.0000 -0.9018 0.4321
vn 0.0000 0.9563 -0.2924
vn 0.0000 0.2249 -0.9744
vn 0.0000 -0.7314 -0.6820
vn 0.0000 -0.9563 0.2924
vn 0.0000 0.7314 0.6820
vn 0.0000 -0.2249 0.9744
vn 0.0000 -0.2250 0.9744
vn 0.0000 0.2250 -0.9744
vn 0.0000 0.3681 -0.9298
vn 0.0000 -0.6211 -0.7837
vn 0.0000 -0.9893 0.1461
vn 0.0000 -0.3681 0.9298
vn 0.0000 0.9893 -0.1461
vn 0.0000 0.6211 0.7837
vn 0.0000 0.2215 0.9752
vn 0.0000 -0.2215 -0.9752
vn 0.0000 -0.7313 -0.6820
vn 0.0000 0.6212 0.7837
s off
f 2//1 1//1 3//1
f 4//2 3//2 5//2
f 5//3 7//3 8//3
f 8//4 7//4 9//4
f 4//5 6//5 15//5
f 12//6 11//6 1//6
f 10//7 9//7 11//7
f 3//8 11//8 7//8
f 6//5 8//5 16//5
f 2//5 4//5 14//5
f 10//5 17//5 16//5
f 10//5 12//5 18//5
f 12//5 2//5 13//5
f 14//7 15//7 21//7
f 17//2 18//2 24//2
f 13//4 14//4 20//4
f 17//1 23//1 22//1
f 16//6 22//6 21//6
f 18//3 13//3 19//3
f 22//5 25//5 21//5
f 19//5 25//5 24//5
f 21//5 25//5 20//5
f 24//5 25//5 23//5
f 20//5 25//5 19//5
f 23//5 25//5 22//5
f 27//9 26//9 28//9
f 29//10 28//10 30//10
f 30//11 32//11 33//11
f 33//12 32//12 34//12
f 31//5 40//5 39//5
f 37//13 36//13 26//13
f 35//14 34//14 36//14
f 28//8 36//8 32//8
f 31//5 33//5 41//5
f 27//5 29//5 39//5
f 35//5 42//5 41//5
f 37//5 43//5 42//5
f 27//5 38//5 43//5
f 39//14 40//14 46//14
f 42//10 43//10 49//10
f 38//12 39//12 45//12
f 42//9 48//9 47//9
f 41//13 47//13 46//13
f 43//11 38//11 44//11
f 47//5 50//5 46//5
f 44//5 50//5 49//5
f 46//5 50//5 45//5
f 49//5 50//5 48//5
f 45//5 50//5 44//5
f 48//5 50//5 47//5
f 52//15 51//15 53//15
f 54//16 53//16 55//16
f 55//17 57//17 58//17
f 57//18 59//18 60//18
f 54//5 56//5 65//5
f 62//19 61//19 51//19
f 60//20 59//20 61//20
f 57//8 61//8 59//8
f 56//5 58//5 66//5
f 54//21 64//21 63//21
f 60//22 67//22 66//22
f 62//5 68//5 67//5
f 52//5 63//5 68//5
f 64//20 65//20 71//20
f 67//16 68//16 74//16
f 63//18 64//18 70//18
f 67//15 73//15 72//15
f 66//19 72//19 71//19
f 68//17 63//17 69//17
f 72//5 75//5 71//5
f 69//5 75//5 74//5
f 71//5 75//5 70//5
f 74//5 75//5 73//5
f 70//5 75//5 69//5
f 73//5 75//5 72//5
f 77//23 76//23 78//23
f 78//24 80//24 81//24
f 80//25 82//25 83//25
f 82//26 84//26 85//26
f 79//5 81//5 90//5
f 87//27 86//27 76//27
f 85//28 84//28 86//28
f 82//8 86//8 84//8
f 81//5 83//5 91//5
f 77//5 79//5 89//5
f 85//5 92//5 91//5
f 85//5 87//5 93//5
f 87//5 77//5 88//5
f 90//28 96//28 95//28
f 92//24 93//24 99//24
f 88//26 89//26 95//26
f 91//23 92//23 98//23
f 91//27 97//27 96//27
f 93//25 88//25 94//25
f 97//5 100//5 96//5
f 94//5 100//5 99//5
f 96//5 100//5 95//5
f 99//5 100//5 98//5
f 95//5 100//5 94//5
f 98//5 100//5 97//5
f 101//29 103//29 104//29
f 104//30 103//30 105//30
f 105//31 107//31 108//31
f 108//32 107//32 109//32
f 104//5 106//5 115//5
f 112//33 111//33 101//33
f 110//34 109//34 111//34
f 107//8 111//8 109//8
f 106//5 108//5 116//5
f 102//5 104//5 114//5
f 108//5 110//5 117//5
f 110//5 112//5 118//5
f 112//5 102//5 113//5
f 114//34 115//34 121//34
f 117//30 118//30 124//30
f 113//32 114//32 120//32
f 117//29 123//29 122//29
f 116//33 122//33 121//33
f 118//31 113//31 119//31
f 122//5 125//5 121//5
f 119//5 125//5 124//5
f 121//5 125//5 120//5
f 124//5 125//5 123//5
f 120//5 125//5 119//5
f 123//5 125//5 122//5
f 126//35 128//35 129//35
f 129//36 128//36 130//36
f 131//37 130//37 132//37
f 133//38 132//38 134//38
f 129//5 131//5 140//5
f 137//39 136//39 126//39
f 135//40 134//40 136//40
f 134//8 128//8 136//8
f 133//5 141//5 140//5
f 127//5 129//5 139//5
f 135//5 142//5 141//5
f 137//5 143//5 142//5
f 137//5 127//5 138//5
f 139//41 140//41 146//41
f 142//42 143//42 149//42
f 139//38 145//38 144//38
f 141//35 142//35 148//35
f 140//39 141//39 147//39
f 138//37 144//37 149//37
f 147//5 150//5 146//5
f 144//5 150//5 149//5
f 146//5 150//5 145//5
f 149//5 150//5 148//5
f 145//5 150//5 144//5
f 148//5 150//5 147//5
f 152//43 151//43 153//43
f 154//44 153//44 155//44
f 156//45 155//45 157//45
f 157//46 159//46 160//46
f 156//5 165//5 164//5
f 161//47 151//47 152//47
f 159//48 161//48 162//48
f 159//8 153//8 161//8
f 156//5 158//5 166//5
f 154//5 164//5 163//5
f 158//5 160//5 167//5
f 162//5 168//5 167//5
f 152//5 163//5 168//5
f 165//48 171//48 170//48
f 168//44 174//44 173//44
f 163//46 164//46 170//46
f 167//43 173//43 172//43
f 165//47 166//47 172//47
f 168//45 163//45 169//45
f 172//5 175//5 171//5
f 169//5 175//5 174//5
f 171//5 175//5 170//5
f 174//5 175//5 173//5
f 170//5 175//5 169//5
f 173//5 175//5 172//5
f 177//1 176//1 178//1
f 179//2 178//2 180//2
f 180//3 182//3 183//3
f 183//4 182//4 184//4
f 179//5 181//5 190//5
f 187//6 186//6 176//6
f 185//7 184//7 186//7
f 178//8 186//8 182//8
f 181//5 183//5 191//5
f 177//5 179//5 189//5
f 185//5 192//5 191//5
f 185//5 187//5 193//5
f 187//5 177//5 188//5
f 189//7 190//7 196//7
f 192//2 193//2 199//2
f 188//4 189//4 195//4
f 192//1 198//1 197//1
f 191//6 197//6 196//6
f 193//3 188//3 194//3
f 197//5 200//5 196//5
f 194//5 200//5 199//5
f 196//5 200//5 195//5
f 199//5 200//5 198//5
f 195//5 200//5 194//5
f 198//5 200//5 197//5
f 202//9 201//9 203//9
f 204//10 203//10 205//10
f 205//11 207//11 208//11
f 208//12 207//12 209//12
f 206//5 215//5 214//5
f 212//13 211//13 201//13
f 210//14 209//14 211//14
f 203//8 211//8 207//8
f 206//5 208//5 216//5
f 202//5 204//5 214//5
f 210//5 217//5 216//5
f 212//5 218//5 217//5
f 202//5 213//5 218//5
f 214//14 215//14 221//14
f 217//10 218//10 224//10
f 213//12 214//12 220//12
f 217//9 223//9 222//9
f 216//13 222//13 221//13
f 218//11 213//11 219//11
f 222//5 225//5 221//5
f 219//5 225//5 224//5
f 221//5 225//5 220//5
f 224//5 225//5 223//5
f 220//5 225//5 219//5
f 223//5 225//5 222//5
f 227//15 226//15 228//15
f 229//16 228//16 230//16
f 230//17 232//17 233//17
f 232//18 234//18 235//18
f 229//5 231//5 240//5
f 237//19 236//19 226//19
f 235//20 234//20 236//20
f 232//8 236//8 234//8
f 231//5 233//5 241//5
f 229//21 239//21 238//21
f 235//22 242//22 241//22
f 237//5 243//5 242//5
f 227//5 238//5 243//5
f 239//20 240//20 246//20
f 242//16 243//16 249//16
f 238//18 239//18 245//18
f 242//15 248//15 247//15
f 241//19 247//19 246//19
f 243//17 238//17 244//17
f 247//5 250//5 246//5
f 244//5 250//5 249//5
f 246//5 250//5 245//5
f 249//5 250//5 248//5
f 245//5 250//5 244//5
f 248//5 250//5 247//5
f 252//23 251//23 253//23
f 253//24 255//24 256//24
f 255//25 257//25 258//25
f 257//26 259//26 260//26
f 254//5 256//5 265//5
f 262//27 261//27 251//27
f 260//28 259//28 261//28
f 257//8 261//8 259//8
f 256//5 258//5 266//5
f 252//5 254//5 264//5
f 260//5 267//5 266//5
f 260//5 262//5 268//5
f 262//5 252//5 263//5
f 265//28 271//28 270//28
f 267//24 268//24 274//24
f 263//26 264//26 270//26
f 266//23 267//23 273//23
f 266//27 272//27 271//27
f 268//25 263//25 269//25
f 272//5 275//5 271//5
f 269//5 275//5 274//5
f 271//5 275//5 270//5
f 274//5 275//5 273//5
f 270//5 275//5 269//5
f 273//5 275//5 272//5
f 276//29 278//29 279//29
f 279//30 278//30 280//30
f 280//31 282//31 283//31
f 283//32 282//32 284//32
f 279//5 281//5 290//5
f 287//33 286//33 276//33
f 285//34 284//34 286//34
f 282//8 286//8 284//8
f 281//5 283//5 291//5
f 277//5 279//5 289//5
f 283//5 285//5 292//5
f 285//5 287//5 293//5
f 287//5 277//5 288//5
f 289//34 290//34 296//34
f 292//30 293//30 299//30
f 288//32 289//32 295//32
f 292//29 298//29 297//29
f 291//33 297//33 296//33
f 293//31 288//31 294//31
f 297//5 300//5 296//5
f 294//5 300//5 299//5
f 296//5 300//5 295//5
f 299//5 300//5 298//5
f 295//5 300//5 294//5
f 298//5 300//5 297//5
f 301//35 303//35 304//35
f 304//36 303//36 305//36
f 306//37 305//37 307//37
f 308//38 307//38 309//38
f 304//5 306//5 315//5
f 312//39 311//39 301//39
f 310//40 309//40 311//40
f 309//8 303//8 311//8
f 308//5 316//5 315//5
f 302//5 304//5 314//5
f 310//5 317//5 316//5
f 312//5 318//5 317//5
f 312//5 302//5 313//5
f 314//41 315//41 321//41
f 317//42 318//42 324//42
f 314//38 320//38 319//38
f 316//35 317//35 323//35
f 315//39 316//39 322//39
f 313//37 319//37 324//37
f 322//5 325//5 321//5
f 319//5 325//5 324//5
f 321//5 325//5 320//5
f 324//5 325//5 323//5
f 320//5 325//5 319//5
f 323//5 325//5 322//5
f 327//43 326//43 328//43
f 329//44 328//44 330//44
f 331//45 330//45 332//45
f 332//46 334//46 335//46
f 331//5 340//5 339//5
f 336//47 326//47 327//47
f 334//48 336//48 337//48
f 334//8 328//8 336//8
f 331//5 333//5 341//5
f 329//5 339//5 338//5
f 333//5 335//5 342//5
f 337//5 343//5 342//5
f 327//5 338//5 343//5
f 340//48 346//48 345//48
f 343//44 349//44 348//44
f 338//46 339//46 345//46
f 342//43 348//43 347//43
f 340//47 341//47 347//47
f 343//45 338//45 344//45
f 347//5 350//5 346//5
f 344//5 350//5 349//5
f 346//5 350//5 345//5
f 349//5 350//5 348//5
f 345//5 350//5 344//5
f 348//5 350//5 347//5
f 2//1 3//1 4//1
f 4//2 5//2 6//2
f 5//3 8//3 6//3
f 8//4 9//4 10//4
f 4//5 15//5 14//5
f 12//6 1//6 2//6
f 10//7 11//7 12//7
f 11//8 3//8 1//8
f 3//8 7//8 5//8
f 7//8 11//8 9//8
f 6//5 16//5 15//5
f 2//5 14//5 13//5
f 10//5 16//5 8//5
f 10//5 18//5 17//5
f 12//5 13//5 18//5
f 14//7 21//7 20//7
f 17//2 24//2 23//2
f 13//4 20//4 19//4
f 17//1 22//1 16//1
f 16//6 21//6 15//6
f 18//3 19//3 24//3
f 27//9 28//9 29//9
f 29//10 30//10 31//10
f 30//11 33//11 31//11
f 33//12 34//12 35//12
f 31//5 39//5 29//5
f 37//13 26//13 27//13
f 35//14 36//14 37//14
f 36//8 28//8 26//8
f 28//8 32//8 30//8
f 32//8 36//8 34//8
f 31//5 41//5 40//5
f 27//5 39//5 38//5
f 35//5 41//5 33//5
f 37//5 42//5 35//5
f 27//5 43//5 37//5
f 39//14 46//14 45//14
f 42//10 49//10 48//10
f 38//12 45//12 44//12
f 42//9 47//9 41//9
f 41//13 46//13 40//13
f 43//11 44//11 49//11
f 52//15 53//15 54//15
f 54//49 55//49 56//49
f 55//17 58//17 56//17
f 57//18 60//18 58//18
f 54//5 65//5 64//5
f 62//19 51//19 52//19
f 60//50 61//50 62//50
f 61//8 53//8 51//8
f 53//8 61//8 55//8
f 55//8 61//8 57//8
f 56//5 66//5 65//5
f 54//5 63//5 52//5
f 60//5 66//5 58//5
f 62//5 67//5 60//5
f 52//5 68//5 62//5
f 64//20 71//20 70//20
f 67//16 74//16 73//16
f 63//18 70//18 69//18
f 67//15 72//15 66//15
f 66//19 71//19 65//19
f 68//17 69//17 74//17
f 77//23 78//23 79//23
f 78//24 81//24 79//24
f 80//25 83//25 81//25
f 82//26 85//26 83//26
f 79//5 90//5 89//5
f 87//27 76//27 77//27
f 85//28 86//28 87//28
f 86//8 78//8 76//8
f 78//8 86//8 80//8
f 80//8 86//8 82//8
f 81//5 91//5 90//5
f 77//5 89//5 88//5
f 85//5 91//5 83//5
f 85//5 93//5 92//5
f 87//22 88//22 93//22
f 90//28 95//28 89//28
f 92//24 99//24 98//24
f 88//26 95//26 94//26
f 91//23 98//23 97//23
f 91//27 96//27 90//27
f 93//25 94//25 99//25
f 101//29 104//29 102//29
f 104//30 105//30 106//30
f 105//31 108//31 106//31
f 108//32 109//32 110//32
f 104//5 115//5 114//5
f 112//33 101//33 102//33
f 110//34 111//34 112//34
f 111//8 103//8 101//8
f 103//8 111//8 105//8
f 105//8 111//8 107//8
f 106//5 116//5 115//5
f 102//21 114//21 113//21
f 108//5 117//5 116//5
f 110//5 118//5 117//5
f 112//5 113//5 118//5
f 114//34 121//34 120//34
f 117//30 124//30 123//30
f 113//32 120//32 119//32
f 117//29 122//29 116//29
f 116//33 121//33 115//33
f 118//31 119//31 124//31
f 126//35 129//35 127//35
f 129//36 130//36 131//36
f 131//51 132//51 133//51
f 133//38 134//38 135//38
f 129//5 140//5 139//5
f 137//39 126//39 127//39
f 135//40 136//40 137//40
f 136//8 128//8 126//8
f 128//8 132//8 130//8
f 132//8 128//8 134//8
f 133//5 140//5 131//5
f 127//5 139//5 138//5
f 135//5 141//5 133//5
f 137//5 142//5 135//5
f 137//5 138//5 143//5
f 139//40 146//40 145//40
f 142//36 149//36 148//36
f 139//38 144//38 138//38
f 141//35 148//35 147//35
f 140//39 147//39 146//39
f 138//37 149//37 143//37
f 152//43 153//43 154//43
f 154//44 155//44 156//44
f 156//45 157//45 158//45
f 157//46 160//46 158//46
f 156//5 164//5 154//5
f 161//47 152//47 162//47
f 159//52 162//52 160//52
f 161//8 153//8 151//8
f 153//8 157//8 155//8
f 157//8 153//8 159//8
f 156//5 166//5 165//5
f 154//5 163//5 152//5
f 158//5 167//5 166//5
f 162//5 167//5 160//5
f 152//5 168//5 162//5
f 165//48 170//48 164//48
f 168//44 173//44 167//44
f 163//46 170//46 169//46
f 167//43 172//43 166//43
f 165//47 172//47 171//47
f 168//45 169//45 174//45
f 177//1 178//1 179//1
f 179//2 180//2 181//2
f 180//3 183//3 181//3
f 183//4 184//4 185//4
f 179//5 190//5 189//5
f 187//6 176//6 177//6
f 185//7 186//7 187//7
f 186//8 178//8 176//8
f 178//8 182//8 180//8
f 182//8 186//8 184//8
f 181//5 191//5 190//5
f 177//5 189//5 188//5
f 185//5 191//5 183//5
f 185//5 193//5 192//5
f 187//5 188//5 193//5
f 189//7 196//7 195//7
f 192//2 199//2 198//2
f 188//4 195//4 194//4
f 192//1 197//1 191//1
f 191//6 196//6 190//6
f 193//3 194//3 199//3
f 202//9 203//9 204//9
f 204//10 205//10 206//10
f 205//11 208//11 206//11
f 208//12 209//12 210//12
f 206//5 214//5 204//5
f 212//13 201//13 202//13
f 210//14 211//14 212//14
f 211//8 203//8 201//8
f 203//8 207//8 205//8
f 207//8 211//8 209//8
f 206//5 216//5 215//5
f 202//5 214//5 213//5
f 210//5 216//5 208//5
f 212//5 217//5 210//5
f 202//5 218//5 212//5
f 214//14 221//14 220//14
f 217//10 224//10 223//10
f 213//12 220//12 219//12
f 217//9 222//9 216//9
f 216//13 221//13 215//13
f 218//11 219//11 224//11
f 227//15 228//15 229//15
f 229//49 230//49 231//49
f 230//17 233//17 231//17
f 232//18 235//18 233//18
f 229//5 240//5 239//5
f 237//19 226//19 227//19
f 235//50 236//50 237//50
f 236//8 228//8 226//8
f 228//8 236//8 230//8
f 230//8 236//8 232//8
f 231//5 241//5 240//5
f 229//5 238//5 227//5
f 235//5 241//5 233//5
f 237//5 242//5 235//5
f 227//5 243//5 237//5
f 239//20 246//20 245//20
f 242//16 249//16 248//16
f 238//18 245//18 244//18
f 242//15 247//15 241//15
f 241//19 246//19 240//19
f 243//17 244//17 249//17
f 252//23 253//23 254//23
f 253//24 256//24 254//24
f 255//25 258//25 256//25
f 257//26 260//26 258//26
f 254//5 265//5 264//5
f 262//27 251//27 252//27
f 260//28 261//28 262//28
f 261//8 253//8 251//8
f 253//8 261//8 255//8
f 255//8 261//8 257//8
f 256//5 266//5 265//5
f 252//5 264//5 263//5
f 260//5 266//5 258//5
f 260//5 268//5 267//5
f 262//22 263//22 268//22
f 265//28 270//28 264//28
f 267//24 274//24 273//24
f 263//26 270//26 269//26
f 266//23 273//23 272//23
f 266//27 271//27 265//27
f 268//25 269//25 274//25
f 276//29 279//29 277//29
f 279//30 280//30 281//30
f 280//31 283//31 281//31
f 283//32 284//32 285//32
f 279//5 290//5 289//5
f 287//33 276//33 277//33
f 285//34 286//34 287//34
f 286//8 278//8 276//8
f 278//8 286//8 280//8
f 280//8 286//8 282//8
f 281//5 291//5 290//5
f 277//21 289//21 288//21
f 283//5 292//5 291//5
f 285//5 293//5 292//5
f 287//5 288//5 293//5
f 289//34 296//34 295//34
f 292//30 299//30 298//30
f 288//32 295//32 294//32
f 292//29 297//29 291//29
f 291//33 296//33 290//33
f 293//31 294//31 299//31
f 301//35 304//35 302//35
f 304//36 305//36 306//36
f 306//51 307//51 308//51
f 308//38 309//38 310//38
f 304//5 315//5 314//5
f 312//39 301//39 302//39
f 310//40 311//40 312//40
f 311//8 303//8 301//8
f 303//8 307//8 305//8
f 307//8 303//8 309//8
f 308//5 315//5 306//5
f 302//5 314//5 313//5
f 310//5 316//5 308//5
f 312//5 317//5 310//5
f 312//5 313//5 318//5
f 314//40 321//40 320//40
f 317//36 324//36 323//36
f 314//38 319//38 313//38
f 316//35 323//35 322//35
f 315//39 322//39 321//39
f 313//37 324//37 318//37
f 327//43 328//43 329//43
f 329//44 330//44 331//44
f 331//45 332//45 333//45
f 332//46 335//46 333//46
f 331//5 339//5 329//5
f 336//47 327//47 337//47
f 334//52 337//52 335//52
f 336//8 328//8 326//8
f 328//8 332//8 330//8
f 332//8 328//8 334//8
f 331//5 341//5 340//5
f 329//5 338//5 327//5
f 333//5 342//5 341//5
f 337//5 342//5 335//5
f 327//5 343//5 337//5
f 340//48 345//48 339//48
f 343//44 348//44 342//44
f 338//46 345//46 344//46
f 342//43 347//43 341//43
f 340//47 347//47 346//47
f 343//45 344//45 349//45
