# Blender v2.79 (sub 0) OBJ File: 'm3.blend'
# www.blender.org
o Rim_Nuts_LF_Cylinder.003
v 1.633186 -0.726892 3.019888
v 1.664197 -0.726892 3.043559
v 1.627268 -0.743785 3.027641
v 1.658280 -0.743785 3.051312
v 1.615433 -0.743785 3.043147
v 1.646444 -0.743785 3.066818
v 1.609515 -0.726892 3.050900
v 1.640527 -0.726892 3.074571
v 1.615433 -0.709999 3.043147
v 1.646444 -0.709999 3.066818
v 1.627268 -0.709999 3.027641
v 1.658280 -0.709999 3.051312
v 1.660475 -0.726892 3.048435
v 1.656419 -0.738473 3.053750
v 1.648305 -0.738473 3.064380
v 1.644249 -0.726892 3.069695
v 1.648305 -0.715312 3.064380
v 1.656419 -0.715312 3.053750
v 1.644022 -0.726892 3.035877
v 1.639965 -0.738473 3.041191
v 1.631852 -0.738473 3.051821
v 1.627795 -0.726892 3.057136
v 1.631852 -0.715312 3.051821
v 1.639965 -0.715312 3.041191
v 1.635909 -0.726892 3.046506
v 1.667507 -0.822360 2.974923
v 1.698519 -0.822360 2.998593
v 1.655805 -0.825277 2.990254
v 1.686817 -0.825277 3.013925
v 1.648421 -0.810032 2.999928
v 1.679433 -0.810032 3.023598
v 1.652740 -0.791871 2.994270
v 1.683751 -0.791871 3.017941
v 1.664442 -0.788954 2.978939
v 1.695453 -0.788954 3.002609
v 1.671826 -0.804199 2.969265
v 1.702837 -0.804199 2.992936
v 1.696197 -0.817566 3.001635
v 1.688175 -0.819566 3.012146
v 1.683113 -0.809115 3.018777
v 1.686073 -0.796665 3.014899
v 1.694095 -0.794665 3.004388
v 1.699157 -0.805116 2.997757
v 1.679743 -0.817566 2.989077
v 1.671721 -0.819566 2.999587
v 1.666659 -0.809115 3.006219
v 1.669620 -0.796665 3.002340
v 1.677642 -0.794665 2.991830
v 1.682704 -0.805116 2.985198
v 1.674682 -0.807116 2.995708
v 1.643651 -0.926129 3.006178
v 1.674662 -0.926129 3.029848
v 1.634967 -0.912876 3.017555
v 1.665979 -0.912876 3.041225
v 1.637589 -0.893854 3.014119
v 1.668601 -0.893854 3.037790
v 1.648895 -0.888086 2.999307
v 1.679907 -0.888086 3.022978
v 1.657579 -0.901339 2.987930
v 1.688591 -0.901339 3.011600
v 1.654957 -0.920361 2.991365
v 1.685968 -0.920361 3.015036
v 1.675487 -0.920148 3.028768
v 1.669534 -0.911062 3.036567
v 1.671331 -0.898022 3.034212
v 1.679082 -0.894068 3.024058
v 1.685035 -0.903153 3.016259
v 1.683238 -0.916193 3.018614
v 1.659034 -0.920148 3.016209
v 1.653081 -0.911062 3.024009
v 1.654878 -0.898022 3.021654
v 1.662629 -0.894068 3.011499
v 1.668582 -0.903153 3.003700
v 1.666784 -0.916193 3.006055
v 1.660831 -0.907108 3.013855
v 1.579563 -0.960140 3.090142
v 1.610574 -0.960140 3.113812
v 1.580429 -0.940686 3.089006
v 1.611441 -0.940686 3.112677
v 1.591085 -0.932196 3.075046
v 1.622096 -0.932196 3.098717
v 1.600874 -0.943160 3.062222
v 1.631885 -0.943160 3.085892
v 1.600007 -0.962615 3.063357
v 1.631018 -0.962615 3.087028
v 1.589351 -0.971104 3.077317
v 1.620363 -0.971104 3.100988
v 1.613925 -0.957470 3.109422
v 1.614519 -0.944134 3.108644
v 1.621824 -0.938314 3.099074
v 1.628534 -0.945830 3.090282
v 1.627940 -0.959167 3.091061
v 1.620635 -0.964987 3.100631
v 1.597472 -0.957470 3.096864
v 1.598066 -0.944134 3.096085
v 1.605371 -0.938314 3.086515
v 1.612081 -0.945830 3.077724
v 1.611487 -0.959167 3.078502
v 1.604182 -0.964987 3.088072
v 1.604776 -0.951650 3.087294
v 1.523452 -0.898808 3.163654
v 1.554464 -0.898808 3.187325
v 1.533218 -0.887788 3.150860
v 1.564229 -0.887788 3.174531
v 1.543891 -0.896216 3.136876
v 1.574903 -0.896216 3.160547
v 1.544799 -0.915665 3.135687
v 1.575811 -0.915665 3.159357
v 1.535034 -0.926686 3.148481
v 1.566045 -0.926686 3.172151
v 1.524360 -0.918257 3.162465
v 1.555372 -0.918257 3.186135
v 1.557820 -0.901459 3.182927
v 1.564515 -0.893904 3.174156
v 1.571832 -0.899682 3.164570
v 1.572454 -0.913015 3.163755
v 1.565760 -0.920569 3.172525
v 1.558443 -0.914791 3.182112
v 1.541367 -0.901459 3.170369
v 1.548061 -0.893904 3.161598
v 1.555378 -0.899682 3.152012
v 1.556001 -0.913015 3.151196
v 1.549306 -0.920569 3.159967
v 1.541989 -0.914791 3.169553
v 1.548684 -0.907237 3.160783
v 1.517528 -0.788270 3.171415
v 1.548540 -0.788270 3.195086
v 1.528846 -0.793973 3.156587
v 1.559858 -0.793973 3.180258
v 1.531509 -0.812980 3.153099
v 1.562520 -0.812980 3.176769
v 1.522853 -0.826283 3.164439
v 1.553864 -0.826283 3.188110
v 1.511535 -0.820580 3.179267
v 1.542546 -0.820580 3.202938
v 1.508872 -0.801573 3.182755
v 1.539884 -0.801573 3.206426
v 1.549377 -0.794247 3.193989
v 1.557136 -0.798156 3.183824
v 1.558961 -0.811186 3.181432
v 1.553027 -0.820306 3.189207
v 1.545268 -0.816396 3.199372
v 1.543443 -0.803367 3.201763
v 1.532924 -0.794247 3.181430
v 1.540683 -0.798156 3.171265
v 1.542508 -0.811186 3.168874
v 1.536574 -0.820306 3.176648
v 1.528815 -0.816396 3.186813
v 1.526990 -0.803367 3.189204
v 1.534749 -0.807276 3.179039
v 1.566247 -0.711677 3.107587
v 1.597258 -0.711677 3.131258
v 1.570604 -0.729813 3.101879
v 1.601615 -0.729813 3.125550
v 1.563252 -0.745101 3.111511
v 1.594264 -0.745101 3.135181
v 1.551544 -0.742251 3.126850
v 1.582556 -0.742251 3.150521
v 1.547187 -0.724114 3.132558
v 1.578199 -0.724114 3.156229
v 1.554539 -0.708827 3.122927
v 1.585550 -0.708827 3.146597
v 1.594947 -0.716484 3.134287
v 1.597933 -0.728917 3.130373
v 1.592894 -0.739397 3.136976
v 1.584867 -0.737444 3.147492
v 1.581881 -0.725010 3.151405
v 1.586920 -0.714531 3.144802
v 1.578493 -0.716484 3.121728
v 1.581480 -0.728917 3.117815
v 1.576440 -0.739397 3.124418
v 1.568414 -0.737444 3.134933
v 1.565427 -0.725010 3.138846
v 1.570467 -0.714531 3.132244
v 1.573454 -0.726964 3.128331
v 1.633186 -0.726892 3.019888
v 1.664197 -0.726892 3.043559
v 1.627268 -0.743785 3.027641
v 1.658280 -0.743785 3.051312
v 1.615433 -0.743785 3.043147
v 1.646444 -0.743785 3.066818
v 1.609515 -0.726892 3.050900
v 1.640527 -0.726892 3.074571
v 1.615433 -0.709999 3.043147
v 1.646444 -0.709999 3.066818
v 1.627268 -0.709999 3.027641
v 1.658280 -0.709999 3.051312
v 1.660475 -0.726892 3.048435
v 1.656419 -0.738473 3.053750
v 1.648305 -0.738473 3.064380
v 1.644249 -0.726892 3.069695
v 1.648305 -0.715312 3.064380
v 1.656419 -0.715312 3.053750
v 1.644022 -0.726892 3.035877
v 1.639965 -0.738473 3.041191
v 1.631852 -0.738473 3.051821
v 1.627795 -0.726892 3.057136
v 1.631852 -0.715312 3.051821
v 1.639965 -0.715312 3.041191
v 1.635909 -0.726892 3.046506
v 1.667507 -0.822360 2.974923
v 1.698519 -0.822360 2.998593
v 1.655805 -0.825277 2.990254
v 1.686817 -0.825277 3.013925
v 1.648421 -0.810032 2.999928
v 1.679433 -0.810032 3.023598
v 1.652740 -0.791871 2.994270
v 1.683751 -0.791871 3.017941
v 1.664442 -0.788954 2.978939
v 1.695453 -0.788954 3.002609
v 1.671826 -0.804199 2.969265
v 1.702837 -0.804199 2.992936
v 1.696197 -0.817566 3.001635
v 1.688175 -0.819566 3.012146
v 1.683113 -0.809115 3.018777
v 1.686073 -0.796665 3.014899
v 1.694095 -0.794665 3.004388
v 1.699157 -0.805116 2.997757
v 1.679743 -0.817566 2.989077
v 1.671721 -0.819566 2.999587
v 1.666659 -0.809115 3.006219
v 1.669620 -0.796665 3.002340
v 1.677642 -0.794665 2.991830
v 1.682704 -0.805116 2.985198
v 1.674682 -0.807116 2.995708
v 1.643651 -0.926129 3.006178
v 1.674662 -0.926129 3.029848
v 1.634967 -0.912876 3.017555
v 1.665979 -0.912876 3.041225
v 1.637589 -0.893854 3.014119
v 1.668601 -0.893854 3.037790
v 1.648895 -0.888086 2.999307
v 1.679907 -0.888086 3.022978
v 1.657579 -0.901339 2.987930
v 1.688591 -0.901339 3.011600
v 1.654957 -0.920361 2.991365
v 1.685968 -0.920361 3.015036
v 1.675487 -0.920148 3.028768
v 1.669534 -0.911062 3.036567
v 1.671331 -0.898022 3.034212
v 1.679082 -0.894068 3.024058
v 1.685035 -0.903153 3.016259
v 1.683238 -0.916193 3.018614
v 1.659034 -0.920148 3.016209
v 1.653081 -0.911062 3.024009
v 1.654878 -0.898022 3.021654
v 1.662629 -0.894068 3.011499
v 1.668582 -0.903153 3.003700
v 1.666784 -0.916193 3.006055
v 1.660831 -0.907108 3.013855
v 1.579563 -0.960140 3.090142
v 1.610574 -0.960140 3.113812
v 1.580429 -0.940686 3.089006
v 1.611441 -0.940686 3.112677
v 1.591085 -0.932196 3.075046
v 1.622096 -0.932196 3.098717
v 1.600874 -0.943160 3.062222
v 1.631885 -0.943160 3.085892
v 1.600007 -0.962615 3.063357
v 1.631018 -0.962615 3.087028
v 1.589351 -0.971104 3.077317
v 1.620363 -0.971104 3.100988
v 1.613925 -0.957470 3.109422
v 1.614519 -0.944134 3.108644
v 1.621824 -0.938314 3.099074
v 1.628534 -0.945830 3.090282
v 1.627940 -0.959167 3.091061
v 1.620635 -0.964987 3.100631
v 1.597472 -0.957470 3.096864
v 1.598066 -0.944134 3.096085
v 1.605371 -0.938314 3.086515
v 1.612081 -0.945830 3.077724
v 1.611487 -0.959167 3.078502
v 1.604182 -0.964987 3.088072
v 1.604776 -0.951650 3.087294
v 1.523452 -0.898808 3.163654
v 1.554464 -0.898808 3.187325
v 1.533218 -0.887788 3.150860
v 1.564229 -0.887788 3.174531
v 1.543891 -0.896216 3.136876
v 1.574903 -0.896216 3.160547
v 1.544799 -0.915665 3.135687
v 1.575811 -0.915665 3.159357
v 1.535034 -0.926686 3.148481
v 1.566045 -0.926686 3.172151
v 1.524360 -0.918257 3.162465
v 1.555372 -0.918257 3.186135
v 1.557820 -0.901459 3.182927
v 1.564515 -0.893904 3.174156
v 1.571832 -0.899682 3.164570
v 1.572454 -0.913015 3.163755
v 1.565760 -0.920569 3.172525
v 1.558443 -0.914791 3.182112
v 1.541367 -0.901459 3.170369
v 1.548061 -0.893904 3.161598
v 1.555378 -0.899682 3.152012
v 1.556001 -0.913015 3.151196
v 1.549306 -0.920569 3.159967
v 1.541989 -0.914791 3.169553
v 1.548684 -0.907237 3.160783
v 1.517528 -0.788270 3.171415
v 1.548540 -0.788270 3.195086
v 1.528846 -0.793973 3.156587
v 1.559858 -0.793973 3.180258
v 1.531509 -0.812980 3.153099
v 1.562520 -0.812980 3.176769
v 1.522853 -0.826283 3.164439
v 1.553864 -0.826283 3.188110
v 1.511535 -0.820580 3.179267
v 1.542546 -0.820580 3.202938
v 1.508872 -0.801573 3.182755
v 1.539884 -0.801573 3.206426
v 1.549377 -0.794247 3.193989
v 1.557136 -0.798156 3.183824
v 1.558961 -0.811186 3.181432
v 1.553027 -0.820306 3.189207
v 1.545268 -0.816396 3.199372
v 1.543443 -0.803367 3.201763
v 1.532924 -0.794247 3.181430
v 1.540683 -0.798156 3.171265
v 1.542508 -0.811186 3.168874
v 1.536574 -0.820306 3.176648
v 1.528815 -0.816396 3.186813
v 1.526990 -0.803367 3.189204
v 1.534749 -0.807276 3.179039
v 1.566247 -0.711677 3.107587
v 1.597258 -0.711677 3.131258
v 1.570604 -0.729813 3.101879
v 1.601615 -0.729813 3.125550
v 1.563252 -0.745101 3.111511
v 1.594264 -0.745101 3.135181
v 1.551544 -0.742251 3.126850
v 1.582556 -0.742251 3.150521
v 1.547187 -0.724114 3.132558
v 1.578199 -0.724114 3.156229
v 1.554539 -0.708827 3.122927
v 1.585550 -0.708827 3.146597
v 1.594947 -0.716484 3.134287
v 1.597933 -0.728917 3.130373
v 1.592894 -0.739397 3.136976
v 1.584867 -0.737444 3.147492
v 1.581881 -0.725010 3.151405
v 1.586920 -0.714531 3.144802
v 1.578493 -0.716484 3.121728
v 1.581480 -0.728917 3.117815
v 1.576440 -0.739397 3.124418
v 1.568414 -0.737444 3.134933
v 1.565427 -0.725010 3.138846
v 1.570467 -0.714531 3.132244
v 1.573454 -0.726964 3.128331
vn 0.5255 -0.5000 -0.6884
vn 0.0000 -1.0000 -0.0000
vn -0.5254 -0.5000 0.6884
vn -0.5254 0.5000 0.6884
vn 0.7949 0.0000 0.6067
vn 0.5254 0.5000 -0.6884
vn 0.0000 1.0000 0.0000
vn -0.7949 0.0000 -0.6067
vn 0.7949 -0.0000 0.6068
vn -0.5255 0.5000 0.6884
vn 0.5254 -0.5000 -0.6884
vn 0.0907 -0.9888 -0.1189
vn -0.4742 -0.6239 0.6212
vn -0.5649 0.3649 0.7401
vn -0.0907 0.9888 0.1189
vn 0.5649 -0.3649 -0.7401
vn 0.4742 0.6239 -0.6212
vn -0.4741 -0.6239 0.6213
vn -0.4123 -0.7337 0.5401
vn -0.5917 0.2215 0.7752
vn -0.1794 0.9553 0.2351
vn 0.4122 0.7337 -0.5401
vn 0.1794 -0.9553 -0.2351
vn 0.5917 -0.2216 -0.7752
vn 0.7949 0.0001 0.6067
vn 0.5917 -0.2215 -0.7751
vn -0.5916 0.2216 0.7752
vn -0.4122 -0.7337 0.5401
vn -0.6051 0.0732 0.7928
vn -0.2641 0.9003 0.3460
vn 0.3410 0.8271 -0.4468
vn 0.6051 -0.0732 -0.7928
vn 0.7949 0.0001 0.6068
vn -0.3410 -0.8271 0.4468
vn 0.2641 -0.9003 -0.3460
vn -0.7949 -0.0000 -0.6068
vn -0.3428 0.8251 0.4491
vn 0.2622 0.9018 -0.3435
vn 0.6050 0.0767 -0.7926
vn 0.3428 -0.8251 -0.4491
vn -0.6050 -0.0767 0.7926
vn -0.2622 -0.9018 0.3435
vn -0.6049 -0.0767 0.7926
vn 0.6049 0.0767 -0.7926
vn 0.1774 0.9563 -0.2324
vn 0.5912 0.2250 -0.7745
vn 0.4138 -0.7314 -0.5421
vn -0.1774 -0.9563 0.2324
vn -0.4138 0.7314 0.5421
vn -0.5912 -0.2250 0.7745
vn -0.5912 -0.2249 0.7745
vn 0.5912 0.2249 -0.7746
vn 0.5641 0.3681 -0.7391
vn 0.4755 -0.6211 -0.6230
vn -0.0886 -0.9893 0.1161
vn -0.5641 -0.3681 0.7391
vn 0.0886 0.9893 -0.1161
vn -0.4755 0.6211 0.6230
vn 0.4755 -0.6212 -0.6230
vn 0.5255 0.5000 -0.6884
vn 0.7949 -0.0001 0.6067
vn 0.5916 -0.2216 -0.7752
vn 0.5917 -0.2215 -0.7752
vn -0.5917 0.2215 0.7751
vn 0.1794 -0.9553 -0.2350
vn -0.2621 -0.9018 0.3435
vn -0.4138 0.7313 0.5421
vn 0.4138 -0.7313 -0.5421
s off
f 2//1 3//1 1//1
f 4//2 5//2 3//2
f 5//3 8//3 7//3
f 8//4 9//4 7//4
f 4//5 15//5 6//5
f 12//6 1//6 11//6
f 10//7 11//7 9//7
f 3//8 7//8 11//8
f 6//5 16//5 8//5
f 2//5 14//5 4//5
f 10//5 16//5 17//5
f 10//5 18//5 12//5
f 12//9 13//9 2//9
f 14//7 21//7 15//7
f 17//2 24//2 18//2
f 13//10 20//10 14//10
f 17//11 22//11 23//11
f 16//6 21//6 22//6
f 18//3 19//3 13//3
f 22//5 21//5 25//5
f 19//5 24//5 25//5
f 21//5 20//5 25//5
f 24//5 23//5 25//5
f 20//5 19//5 25//5
f 23//5 22//5 25//5
f 27//12 28//12 26//12
f 29//13 30//13 28//13
f 30//14 33//14 32//14
f 33//15 34//15 32//15
f 31//9 39//9 40//9
f 37//16 26//16 36//16
f 35//17 36//17 34//17
f 28//8 32//8 36//8
f 31//5 41//5 33//5
f 27//5 39//5 29//5
f 35//9 41//9 42//9
f 37//9 42//9 43//9
f 27//9 43//9 38//9
f 39//17 46//17 40//17
f 42//18 49//18 43//18
f 38//15 45//15 39//15
f 42//12 47//12 48//12
f 41//16 46//16 47//16
f 43//14 44//14 38//14
f 47//5 46//5 50//5
f 44//5 49//5 50//5
f 46//5 45//5 50//5
f 49//5 48//5 50//5
f 45//5 44//5 50//5
f 48//5 47//5 50//5
f 52//19 53//19 51//19
f 54//20 55//20 53//20
f 55//21 58//21 57//21
f 57//22 60//22 59//22
f 54//9 65//9 56//9
f 62//23 51//23 61//23
f 60//24 61//24 59//24
f 57//8 59//8 61//8
f 56//5 66//5 58//5
f 54//9 63//9 64//9
f 60//5 66//5 67//5
f 62//9 67//9 68//9
f 52//25 68//25 63//25
f 64//26 71//26 65//26
f 67//27 74//27 68//27
f 63//22 70//22 64//22
f 67//28 72//28 73//28
f 66//23 71//23 72//23
f 68//21 69//21 63//21
f 72//5 71//5 75//5
f 69//9 74//9 75//9
f 71//5 70//5 75//5
f 74//5 73//5 75//5
f 70//5 69//5 75//5
f 73//5 72//5 75//5
f 77//29 78//29 76//29
f 78//30 81//30 80//30
f 80//31 83//31 82//31
f 82//32 85//32 84//32
f 79//33 90//33 81//33
f 87//34 76//34 86//34
f 85//35 86//35 84//35
f 82//36 84//36 86//36
f 81//5 91//5 83//5
f 77//9 89//9 79//9
f 85//5 91//5 92//5
f 85//33 93//33 87//33
f 87//5 88//5 77//5
f 90//35 95//35 96//35
f 92//30 99//30 93//30
f 88//32 95//32 89//32
f 91//29 98//29 92//29
f 91//34 96//34 97//34
f 93//31 94//31 88//31
f 97//5 96//5 100//5
f 94//5 99//5 100//5
f 96//5 95//5 100//5
f 99//5 98//5 100//5
f 95//5 94//5 100//5
f 98//5 97//5 100//5
f 101//37 104//37 103//37
f 104//38 105//38 103//38
f 105//39 108//39 107//39
f 108//40 109//40 107//40
f 104//5 115//5 106//5
f 112//41 101//41 111//41
f 110//42 111//42 109//42
f 107//8 109//8 111//8
f 106//5 116//5 108//5
f 102//5 114//5 104//5
f 108//5 117//5 110//5
f 110//5 118//5 112//5
f 112//5 113//5 102//5
f 114//42 121//42 115//42
f 117//38 124//38 118//38
f 113//40 120//40 114//40
f 117//37 122//37 123//37
f 116//43 121//43 122//43
f 118//44 119//44 113//44
f 122//5 121//5 125//5
f 119//5 124//5 125//5
f 121//9 120//9 125//9
f 124//5 123//5 125//5
f 120//5 119//5 125//5
f 123//5 122//5 125//5
f 126//45 129//45 128//45
f 129//46 130//46 128//46
f 131//47 132//47 130//47
f 133//48 134//48 132//48
f 129//5 140//5 131//5
f 137//49 126//49 136//49
f 135//50 136//50 134//50
f 134//8 136//8 128//8
f 133//5 140//5 141//5
f 127//25 139//25 129//25
f 135//5 141//5 142//5
f 137//5 142//5 143//5
f 137//5 138//5 127//5
f 139//51 146//51 140//51
f 142//52 149//52 143//52
f 139//48 144//48 145//48
f 141//45 148//45 142//45
f 140//49 147//49 141//49
f 138//47 149//47 144//47
f 147//5 146//5 150//5
f 144//9 149//9 150//9
f 146//9 145//9 150//9
f 149//5 148//5 150//5
f 145//5 144//5 150//5
f 148//5 147//5 150//5
f 152//53 153//53 151//53
f 154//54 155//54 153//54
f 156//55 157//55 155//55
f 157//56 160//56 159//56
f 156//5 164//5 165//5
f 161//57 152//57 151//57
f 159//58 162//58 161//58
f 159//8 161//8 153//8
f 156//5 166//5 158//5
f 154//5 163//5 164//5
f 158//9 167//9 160//9
f 162//5 167//5 168//5
f 152//5 168//5 163//5
f 165//58 170//58 171//58
f 168//59 173//59 174//59
f 163//56 170//56 164//56
f 167//53 172//53 173//53
f 165//57 172//57 166//57
f 168//55 169//55 163//55
f 172//9 171//9 175//9
f 169//5 174//5 175//5
f 171//5 170//5 175//5
f 174//5 173//5 175//5
f 170//5 169//5 175//5
f 173//5 172//5 175//5
f 177//1 178//1 176//1
f 179//2 180//2 178//2
f 180//3 183//3 182//3
f 183//4 184//4 182//4
f 179//5 190//5 181//5
f 187//6 176//6 186//6
f 185//7 186//7 184//7
f 178//8 182//8 186//8
f 181//5 191//5 183//5
f 177//5 189//5 179//5
f 185//5 191//5 192//5
f 185//5 193//5 187//5
f 187//9 188//9 177//9
f 189//7 196//7 190//7
f 192//2 199//2 193//2
f 188//10 195//10 189//10
f 192//11 197//11 198//11
f 191//6 196//6 197//6
f 193//3 194//3 188//3
f 197//5 196//5 200//5
f 194//5 199//5 200//5
f 196//5 195//5 200//5
f 199//5 198//5 200//5
f 195//5 194//5 200//5
f 198//5 197//5 200//5
f 202//12 203//12 201//12
f 204//13 205//13 203//13
f 205//14 208//14 207//14
f 208//15 209//15 207//15
f 206//9 214//9 215//9
f 212//16 201//16 211//16
f 210//17 211//17 209//17
f 203//8 207//8 211//8
f 206//5 216//5 208//5
f 202//5 214//5 204//5
f 210//9 216//9 217//9
f 212//9 217//9 218//9
f 202//9 218//9 213//9
f 214//17 221//17 215//17
f 217//18 224//18 218//18
f 213//15 220//15 214//15
f 217//12 222//12 223//12
f 216//16 221//16 222//16
f 218//14 219//14 213//14
f 222//5 221//5 225//5
f 219//5 224//5 225//5
f 221//5 220//5 225//5
f 224//5 223//5 225//5
f 220//5 219//5 225//5
f 223//5 222//5 225//5
f 227//19 228//19 226//19
f 229//20 230//20 228//20
f 230//21 233//21 232//21
f 232//22 235//22 234//22
f 229//9 240//9 231//9
f 237//23 226//23 236//23
f 235//24 236//24 234//24
f 232//8 234//8 236//8
f 231//5 241//5 233//5
f 229//9 238//9 239//9
f 235//5 241//5 242//5
f 237//9 242//9 243//9
f 227//25 243//25 238//25
f 239//26 246//26 240//26
f 242//27 249//27 243//27
f 238//22 245//22 239//22
f 242//28 247//28 248//28
f 241//23 246//23 247//23
f 243//21 244//21 238//21
f 247//5 246//5 250//5
f 244//9 249//9 250//9
f 246//5 245//5 250//5
f 249//5 248//5 250//5
f 245//5 244//5 250//5
f 248//5 247//5 250//5
f 252//29 253//29 251//29
f 253//30 256//30 255//30
f 255//31 258//31 257//31
f 257//32 260//32 259//32
f 254//33 265//33 256//33
f 262//34 251//34 261//34
f 260//35 261//35 259//35
f 257//36 259//36 261//36
f 256//5 266//5 258//5
f 252//9 264//9 254//9
f 260//5 266//5 267//5
f 260//33 268//33 262//33
f 262//5 263//5 252//5
f 265//35 270//35 271//35
f 267//30 274//30 268//30
f 263//32 270//32 264//32
f 266//29 273//29 267//29
f 266//34 271//34 272//34
f 268//31 269//31 263//31
f 272//5 271//5 275//5
f 269//5 274//5 275//5
f 271//5 270//5 275//5
f 274//5 273//5 275//5
f 270//5 269//5 275//5
f 273//5 272//5 275//5
f 276//37 279//37 278//37
f 279//38 280//38 278//38
f 280//39 283//39 282//39
f 283//40 284//40 282//40
f 279//5 290//5 281//5
f 287//41 276//41 286//41
f 285//42 286//42 284//42
f 282//8 284//8 286//8
f 281//5 291//5 283//5
f 277//5 289//5 279//5
f 283//5 292//5 285//5
f 285//5 293//5 287//5
f 287//5 288//5 277//5
f 289//42 296//42 290//42
f 292//38 299//38 293//38
f 288//40 295//40 289//40
f 292//37 297//37 298//37
f 291//43 296//43 297//43
f 293//44 294//44 288//44
f 297//5 296//5 300//5
f 294//5 299//5 300//5
f 296//9 295//9 300//9
f 299//5 298//5 300//5
f 295//5 294//5 300//5
f 298//5 297//5 300//5
f 301//45 304//45 303//45
f 304//46 305//46 303//46
f 306//47 307//47 305//47
f 308//48 309//48 307//48
f 304//5 315//5 306//5
f 312//49 301//49 311//49
f 310//50 311//50 309//50
f 309//8 311//8 303//8
f 308//5 315//5 316//5
f 302//25 314//25 304//25
f 310//5 316//5 317//5
f 312//5 317//5 318//5
f 312//5 313//5 302//5
f 314//51 321//51 315//51
f 317//52 324//52 318//52
f 314//48 319//48 320//48
f 316//45 323//45 317//45
f 315//49 322//49 316//49
f 313//47 324//47 319//47
f 322//5 321//5 325//5
f 319//9 324//9 325//9
f 321//9 320//9 325//9
f 324//5 323//5 325//5
f 320//5 319//5 325//5
f 323//5 322//5 325//5
f 327//53 328//53 326//53
f 329//54 330//54 328//54
f 331//55 332//55 330//55
f 332//56 335//56 334//56
f 331//5 339//5 340//5
f 336//57 327//57 326//57
f 334//58 337//58 336//58
f 334//8 336//8 328//8
f 331//5 341//5 333//5
f 329//5 338//5 339//5
f 333//9 342//9 335//9
f 337//5 342//5 343//5
f 327//5 343//5 338//5
f 340//58 345//58 346//58
f 343//59 348//59 349//59
f 338//56 345//56 339//56
f 342//53 347//53 348//53
f 340//57 347//57 341//57
f 343//55 344//55 338//55
f 347//9 346//9 350//9
f 344//5 349//5 350//5
f 346//5 345//5 350//5
f 349//5 348//5 350//5
f 345//5 344//5 350//5
f 348//5 347//5 350//5
f 2//1 4//1 3//1
f 4//2 6//2 5//2
f 5//3 6//3 8//3
f 8//4 10//4 9//4
f 4//5 14//5 15//5
f 12//60 2//60 1//60
f 10//7 12//7 11//7
f 11//8 1//8 3//8
f 3//8 5//8 7//8
f 7//8 9//8 11//8
f 6//5 15//5 16//5
f 2//9 13//9 14//9
f 10//5 8//5 16//5
f 10//5 17//5 18//5
f 12//5 18//5 13//5
f 14//7 20//7 21//7
f 17//2 23//2 24//2
f 13//4 19//4 20//4
f 17//11 16//11 22//11
f 16//6 15//6 21//6
f 18//3 24//3 19//3
f 27//12 29//12 28//12
f 29//13 31//13 30//13
f 30//14 31//14 33//14
f 33//15 35//15 34//15
f 31//5 29//5 39//5
f 37//16 27//16 26//16
f 35//17 37//17 36//17
f 36//8 26//8 28//8
f 28//8 30//8 32//8
f 32//8 34//8 36//8
f 31//5 40//5 41//5
f 27//25 38//25 39//25
f 35//61 33//61 41//61
f 37//5 35//5 42//5
f 27//5 37//5 43//5
f 39//17 45//17 46//17
f 42//13 48//13 49//13
f 38//15 44//15 45//15
f 42//12 41//12 47//12
f 41//16 40//16 46//16
f 43//14 49//14 44//14
f 52//28 54//28 53//28
f 54//20 56//20 55//20
f 55//21 56//21 58//21
f 57//22 58//22 60//22
f 54//9 64//9 65//9
f 62//23 52//23 51//23
f 60//62 62//62 61//62
f 61//8 51//8 53//8
f 53//8 55//8 61//8
f 55//8 57//8 61//8
f 56//5 65//5 66//5
f 54//5 52//5 63//5
f 60//5 58//5 66//5
f 62//5 60//5 67//5
f 52//5 62//5 68//5
f 64//63 70//63 71//63
f 67//64 73//64 74//64
f 63//22 69//22 70//22
f 67//28 66//28 72//28
f 66//65 65//65 71//65
f 68//21 74//21 69//21
f 77//29 79//29 78//29
f 78//30 79//30 81//30
f 80//31 81//31 83//31
f 82//32 83//32 85//32
f 79//5 89//5 90//5
f 87//34 77//34 76//34
f 85//35 87//35 86//35
f 86//8 76//8 78//8
f 78//8 80//8 86//8
f 80//8 82//8 86//8
f 81//5 90//5 91//5
f 77//5 88//5 89//5
f 85//9 83//9 91//9
f 85//5 92//5 93//5
f 87//9 93//9 88//9
f 90//35 89//35 95//35
f 92//30 98//30 99//30
f 88//32 94//32 95//32
f 91//29 97//29 98//29
f 91//34 90//34 96//34
f 93//31 99//31 94//31
f 101//37 102//37 104//37
f 104//38 106//38 105//38
f 105//44 106//44 108//44
f 108//40 110//40 109//40
f 104//5 114//5 115//5
f 112//41 102//41 101//41
f 110//42 112//42 111//42
f 111//8 101//8 103//8
f 103//8 105//8 111//8
f 105//8 107//8 111//8
f 106//5 115//5 116//5
f 102//5 113//5 114//5
f 108//5 116//5 117//5
f 110//5 117//5 118//5
f 112//5 118//5 113//5
f 114//66 120//66 121//66
f 117//38 123//38 124//38
f 113//40 119//40 120//40
f 117//37 116//37 122//37
f 116//43 115//43 121//43
f 118//39 124//39 119//39
f 126//45 127//45 129//45
f 129//46 131//46 130//46
f 131//47 133//47 132//47
f 133//48 135//48 134//48
f 129//5 139//5 140//5
f 137//49 127//49 126//49
f 135//50 137//50 136//50
f 136//8 126//8 128//8
f 128//8 130//8 132//8
f 132//8 134//8 128//8
f 133//9 131//9 140//9
f 127//25 138//25 139//25
f 135//9 133//9 141//9
f 137//5 135//5 142//5
f 137//5 143//5 138//5
f 139//50 145//50 146//50
f 142//46 148//46 149//46
f 139//48 138//48 144//48
f 141//45 147//45 148//45
f 140//67 146//67 147//67
f 138//68 143//68 149//68
f 152//53 154//53 153//53
f 154//59 156//59 155//59
f 156//55 158//55 157//55
f 157//56 158//56 160//56
f 156//5 154//5 164//5
f 161//57 162//57 152//57
f 159//58 160//58 162//58
f 161//8 151//8 153//8
f 153//8 155//8 157//8
f 157//8 159//8 153//8
f 156//25 165//25 166//25
f 154//5 152//5 163//5
f 158//5 166//5 167//5
f 162//9 160//9 167//9
f 152//5 162//5 168//5
f 165//58 164//58 170//58
f 168//59 167//59 173//59
f 163//56 169//56 170//56
f 167//53 166//53 172//53
f 165//57 171//57 172//57
f 168//55 174//55 169//55
f 177//1 179//1 178//1
f 179//2 181//2 180//2
f 180//3 181//3 183//3
f 183//4 185//4 184//4
f 179//5 189//5 190//5
f 187//60 177//60 176//60
f 185//7 187//7 186//7
f 186//8 176//8 178//8
f 178//8 180//8 182//8
f 182//8 184//8 186//8
f 181//5 190//5 191//5
f 177//9 188//9 189//9
f 185//5 183//5 191//5
f 185//5 192//5 193//5
f 187//5 193//5 188//5
f 189//7 195//7 196//7
f 192//2 198//2 199//2
f 188//4 194//4 195//4
f 192//11 191//11 197//11
f 191//6 190//6 196//6
f 193//3 199//3 194//3
f 202//12 204//12 203//12
f 204//13 206//13 205//13
f 205//14 206//14 208//14
f 208//15 210//15 209//15
f 206//5 204//5 214//5
f 212//16 202//16 201//16
f 210//17 212//17 211//17
f 211//8 201//8 203//8
f 203//8 205//8 207//8
f 207//8 209//8 211//8
f 206//5 215//5 216//5
f 202//25 213//25 214//25
f 210//61 208//61 216//61
f 212//5 210//5 217//5
f 202//5 212//5 218//5
f 214//17 220//17 221//17
f 217//13 223//13 224//13
f 213//15 219//15 220//15
f 217//12 216//12 222//12
f 216//16 215//16 221//16
f 218//14 224//14 219//14
f 227//28 229//28 228//28
f 229//20 231//20 230//20
f 230//21 231//21 233//21
f 232//22 233//22 235//22
f 229//9 239//9 240//9
f 237//23 227//23 226//23
f 235//62 237//62 236//62
f 236//8 226//8 228//8
f 228//8 230//8 236//8
f 230//8 232//8 236//8
f 231//5 240//5 241//5
f 229//5 227//5 238//5
f 235//5 233//5 241//5
f 237//5 235//5 242//5
f 227//5 237//5 243//5
f 239//63 245//63 246//63
f 242//64 248//64 249//64
f 238//22 244//22 245//22
f 242//28 241//28 247//28
f 241//65 240//65 246//65
f 243//21 249//21 244//21
f 252//29 254//29 253//29
f 253//30 254//30 256//30
f 255//31 256//31 258//31
f 257//32 258//32 260//32
f 254//5 264//5 265//5
f 262//34 252//34 251//34
f 260//35 262//35 261//35
f 261//8 251//8 253//8
f 253//8 255//8 261//8
f 255//8 257//8 261//8
f 256//5 265//5 266//5
f 252//5 263//5 264//5
f 260//9 258//9 266//9
f 260//5 267//5 268//5
f 262//9 268//9 263//9
f 265//35 264//35 270//35
f 267//30 273//30 274//30
f 263//32 269//32 270//32
f 266//29 272//29 273//29
f 266//34 265//34 271//34
f 268//31 274//31 269//31
f 276//37 277//37 279//37
f 279//38 281//38 280//38
f 280//44 281//44 283//44
f 283//40 285//40 284//40
f 279//5 289//5 290//5
f 287//41 277//41 276//41
f 285//42 287//42 286//42
f 286//8 276//8 278//8
f 278//8 280//8 286//8
f 280//8 282//8 286//8
f 281//5 290//5 291//5
f 277//5 288//5 289//5
f 283//5 291//5 292//5
f 285//5 292//5 293//5
f 287//5 293//5 288//5
f 289//66 295//66 296//66
f 292//38 298//38 299//38
f 288//40 294//40 295//40
f 292//37 291//37 297//37
f 291//43 290//43 296//43
f 293//39 299//39 294//39
f 301//45 302//45 304//45
f 304//46 306//46 305//46
f 306//47 308//47 307//47
f 308//48 310//48 309//48
f 304//5 314//5 315//5
f 312//49 302//49 301//49
f 310//50 312//50 311//50
f 311//8 301//8 303//8
f 303//8 305//8 307//8
f 307//8 309//8 303//8
f 308//9 306//9 315//9
f 302//25 313//25 314//25
f 310//9 308//9 316//9
f 312//5 310//5 317//5
f 312//5 318//5 313//5
f 314//50 320//50 321//50
f 317//46 323//46 324//46
f 314//48 313//48 319//48
f 316//45 322//45 323//45
f 315//67 321//67 322//67
f 313//68 318//68 324//68
f 327//53 329//53 328//53
f 329//59 331//59 330//59
f 331//55 333//55 332//55
f 332//56 333//56 335//56
f 331//5 329//5 339//5
f 336//57 337//57 327//57
f 334//58 335//58 337//58
f 336//8 326//8 328//8
f 328//8 330//8 332//8
f 332//8 334//8 328//8
f 331//25 340//25 341//25
f 329//5 327//5 338//5
f 333//5 341//5 342//5
f 337//9 335//9 342//9
f 327//5 337//5 343//5
f 340//58 339//58 345//58
f 343//59 342//59 348//59
f 338//56 344//56 345//56
f 342//53 341//53 347//53
f 340//57 346//57 347//57
f 343//55 349//55 344//55
