# Blender v2.79 (sub 0) OBJ File: 'm3.blend'
# www.blender.org
o Rim_Cap_RR_Circle.007
v -1.703228 -0.854396 -2.586232
v -1.703228 -0.836168 -2.574053
v -1.703228 -0.815915 -2.582442
v -1.703228 -0.813382 -2.608154
v -1.703228 -0.831610 -2.620334
v -1.703228 -0.851864 -2.611944
v -1.703228 -0.856141 -2.590443
v -1.703228 -0.840639 -2.574942
v -1.703228 -0.819138 -2.579219
v -1.703228 -0.811638 -2.603943
v -1.703228 -0.827139 -2.619444
v -1.703228 -0.848641 -2.615168
v -1.703228 -0.857030 -2.594914
v -1.703228 -0.844850 -2.576686
v -1.703228 -0.822928 -2.576686
v -1.703228 -0.810749 -2.594914
v -1.703228 -0.810749 -2.599472
v -1.703228 -0.822928 -2.617700
v -1.703228 -0.844850 -2.617700
v -1.703228 -0.857030 -2.599472
v -1.703228 -0.848641 -2.579219
v -1.703228 -0.827139 -2.574942
v -1.703228 -0.811638 -2.590443
v -1.703228 -0.819138 -2.615168
v -1.703228 -0.840639 -2.619445
v -1.703228 -0.856141 -2.603943
v -1.703228 -0.851864 -2.582442
v -1.703228 -0.831610 -2.574053
v -1.703228 -0.813383 -2.586232
v -1.703228 -0.815915 -2.611944
v -1.703228 -0.836168 -2.620334
v -1.703228 -0.854396 -2.608154
v -1.697988 -0.880030 -2.572531
v -1.697988 -0.839017 -2.545127
v -1.697988 -0.793447 -2.564003
v -1.697988 -0.787749 -2.621856
v -1.697988 -0.828761 -2.649259
v -1.697988 -0.874332 -2.630383
v -1.697988 -0.883955 -2.582006
v -1.697988 -0.849077 -2.547128
v -1.697988 -0.800699 -2.556751
v -1.697988 -0.783824 -2.612380
v -1.697988 -0.818702 -2.647259
v -1.697988 -0.867080 -2.637636
v -1.697988 -0.885956 -2.592065
v -1.697988 -0.858552 -2.551053
v -1.697988 -0.809227 -2.551053
v -1.697988 -0.781823 -2.592065
v -1.697988 -0.781823 -2.602321
v -1.697988 -0.809227 -2.643334
v -1.697988 -0.858552 -2.643334
v -1.697988 -0.885956 -2.602321
v -1.697988 -0.867080 -2.556751
v -1.697988 -0.818702 -2.547128
v -1.697988 -0.783824 -2.582006
v -1.697988 -0.800699 -2.637636
v -1.697988 -0.849076 -2.647259
v -1.697988 -0.883955 -2.612381
v -1.697988 -0.874332 -2.564003
v -1.697988 -0.828761 -2.545127
v -1.697988 -0.787749 -2.572531
v -1.697988 -0.793447 -2.630383
v -1.697988 -0.839017 -2.649259
v -1.697988 -0.880030 -2.621856
v -1.685711 -0.895410 -2.564310
v -1.685711 -0.840727 -2.527772
v -1.685711 -0.779966 -2.552940
v -1.685711 -0.772369 -2.630077
v -1.685711 -0.827052 -2.666615
v -1.685711 -0.887813 -2.641447
v -1.685711 -0.900643 -2.576944
v -1.685711 -0.854139 -2.530439
v -1.685711 -0.789636 -2.543270
v -1.685711 -0.767136 -2.617443
v -1.685711 -0.813640 -2.663947
v -1.685711 -0.878143 -2.651117
v -1.685711 -0.903311 -2.590356
v -1.685711 -0.866773 -2.535673
v -1.685711 -0.801006 -2.535673
v -1.685711 -0.764468 -2.590356
v -1.685711 -0.764468 -2.604031
v -1.685711 -0.801006 -2.658714
v -1.685711 -0.866773 -2.658714
v -1.685711 -0.903311 -2.604031
v -1.685711 -0.878143 -2.543270
v -1.685711 -0.813640 -2.530439
v -1.685711 -0.767136 -2.576944
v -1.685711 -0.789636 -2.651116
v -1.685711 -0.854139 -2.663947
v -1.685711 -0.900643 -2.617443
v -1.685711 -0.887813 -2.552940
v -1.685711 -0.827052 -2.527772
v -1.685711 -0.772369 -2.564310
v -1.685711 -0.779966 -2.641447
v -1.685711 -0.840727 -2.666615
v -1.685711 -0.895410 -2.630077
v -1.691945 -0.895410 -2.564310
v -1.691945 -0.840727 -2.527772
v -1.691945 -0.779966 -2.552940
v -1.691945 -0.772369 -2.630077
v -1.691945 -0.827052 -2.666615
v -1.691945 -0.887813 -2.641447
v -1.691945 -0.900643 -2.576944
v -1.691945 -0.854139 -2.530439
v -1.691945 -0.789636 -2.543270
v -1.691945 -0.767136 -2.617443
v -1.691945 -0.813640 -2.663947
v -1.691945 -0.878143 -2.651117
v -1.691945 -0.903311 -2.590356
v -1.691945 -0.866773 -2.535673
v -1.691945 -0.801006 -2.535673
v -1.691945 -0.764468 -2.590356
v -1.691945 -0.764468 -2.604031
v -1.691945 -0.801006 -2.658714
v -1.691945 -0.866773 -2.658714
v -1.691945 -0.903311 -2.604031
v -1.691945 -0.878143 -2.543270
v -1.691945 -0.813640 -2.530439
v -1.691945 -0.767136 -2.576944
v -1.691945 -0.789636 -2.651116
v -1.691945 -0.854139 -2.663947
v -1.691945 -0.900643 -2.617443
v -1.691945 -0.887813 -2.552940
v -1.691945 -0.827052 -2.527772
v -1.691945 -0.772369 -2.564310
v -1.691945 -0.779966 -2.641447
v -1.691945 -0.840727 -2.666615
v -1.691945 -0.895410 -2.630077
v -1.694258 -0.768807 -2.590783
v -1.694258 -0.771308 -2.578209
v -1.694258 -0.776214 -2.566365
v -1.694258 -0.783336 -2.555705
v -1.694258 -0.792402 -2.546640
v -1.694258 -0.803061 -2.539518
v -1.694258 -0.814905 -2.534612
v -1.694258 -0.827479 -2.532110
v -1.694258 -0.840299 -2.532110
v -1.694258 -0.852873 -2.534612
v -1.694258 -0.864718 -2.539518
v -1.694258 -0.875377 -2.546640
v -1.694258 -0.884442 -2.555705
v -1.694258 -0.891565 -2.566365
v -1.694258 -0.896471 -2.578209
v -1.694258 -0.898972 -2.590783
v -1.694258 -0.898972 -2.603603
v -1.694258 -0.896471 -2.616177
v -1.694258 -0.891565 -2.628021
v -1.694258 -0.884442 -2.638681
v -1.694258 -0.875377 -2.647746
v -1.694258 -0.864718 -2.654869
v -1.694258 -0.852873 -2.659775
v -1.694258 -0.840299 -2.662276
v -1.694258 -0.827479 -2.662276
v -1.694258 -0.814905 -2.659775
v -1.694258 -0.803061 -2.654869
v -1.694258 -0.792401 -2.647746
v -1.694258 -0.783336 -2.638681
v -1.694258 -0.776214 -2.628021
v -1.694258 -0.771308 -2.616177
v -1.694258 -0.768807 -2.603603
v -1.697988 -0.781571 -2.597193
v -1.703428 -0.852674 -2.589412
v -1.697988 -0.877391 -2.568126
v -1.703428 -0.837856 -2.577252
v -1.697988 -0.833889 -2.544874
v -1.703428 -0.819512 -2.582816
v -1.697988 -0.790388 -2.568126
v -1.703428 -0.815105 -2.604974
v -1.697988 -0.790388 -2.626260
v -1.703428 -0.829923 -2.617135
v -1.697988 -0.833889 -2.649512
v -1.703428 -0.848266 -2.611570
v -1.697988 -0.877391 -2.626260
v -1.703428 -0.853831 -2.593227
v -1.703428 -0.841670 -2.578409
v -1.703428 -0.822593 -2.580288
v -1.703428 -0.813948 -2.601160
v -1.703428 -0.826109 -2.615978
v -1.703428 -0.845185 -2.614099
v -1.703428 -0.854222 -2.597193
v -1.703428 -0.845185 -2.580288
v -1.703428 -0.826109 -2.578409
v -1.703428 -0.813948 -2.593227
v -1.703428 -0.822593 -2.614099
v -1.703428 -0.841670 -2.615978
v -1.703428 -0.853831 -2.601160
v -1.703428 -0.848266 -2.582816
v -1.703428 -0.829923 -2.577252
v -1.703428 -0.815105 -2.589412
v -1.703428 -0.819512 -2.611570
v -1.703428 -0.837856 -2.617135
v -1.703428 -0.852674 -2.604974
v -1.703428 -0.813557 -2.597193
v -1.697988 -0.882226 -2.577172
v -1.703428 -0.850795 -2.585897
v -1.697988 -0.844096 -2.545880
v -1.703428 -0.833889 -2.576861
v -1.697988 -0.796894 -2.560198
v -1.703428 -0.816984 -2.585897
v -1.697988 -0.785553 -2.617215
v -1.703428 -0.816984 -2.608489
v -1.697988 -0.823682 -2.648507
v -1.703428 -0.833889 -2.617525
v -1.697988 -0.870884 -2.634188
v -1.703428 -0.850795 -2.608489
v -1.697988 -0.885203 -2.586986
v -1.697988 -0.853911 -2.548857
v -1.697988 -0.804823 -2.553692
v -1.697988 -0.782576 -2.607400
v -1.697988 -0.813868 -2.645530
v -1.697988 -0.862956 -2.640695
v -1.697988 -0.886208 -2.597193
v -1.697988 -0.862956 -2.553692
v -1.697988 -0.813868 -2.548857
v -1.697988 -0.782576 -2.586986
v -1.697988 -0.804823 -2.640695
v -1.697988 -0.853911 -2.645530
v -1.697988 -0.885203 -2.607400
v -1.697988 -0.870884 -2.560198
v -1.697988 -0.823682 -2.545880
v -1.697988 -0.785553 -2.577172
v -1.697988 -0.796894 -2.634188
v -1.697988 -0.844096 -2.648507
v -1.697988 -0.882226 -2.617215
v -1.701517 -0.865931 -2.580066
v -1.701517 -0.837451 -2.561036
v -1.701517 -0.805804 -2.574144
v -1.701517 -0.801847 -2.614320
v -1.701517 -0.830328 -2.633350
v -1.701517 -0.861974 -2.620242
v -1.701517 -0.868657 -2.586647
v -1.701517 -0.844436 -2.562426
v -1.701517 -0.810841 -2.569108
v -1.701517 -0.799122 -2.607740
v -1.701517 -0.823343 -2.631961
v -1.701517 -0.856938 -2.625278
v -1.701517 -0.870046 -2.593632
v -1.701517 -0.851016 -2.565151
v -1.701517 -0.816763 -2.565151
v -1.701517 -0.797732 -2.593632
v -1.701517 -0.797732 -2.600754
v -1.701517 -0.816763 -2.629235
v -1.701517 -0.851016 -2.629235
v -1.701517 -0.870046 -2.600754
v -1.701517 -0.856938 -2.569108
v -1.701517 -0.823343 -2.562426
v -1.701517 -0.799122 -2.586647
v -1.701517 -0.810841 -2.625278
v -1.701517 -0.844436 -2.631961
v -1.701517 -0.868657 -2.607740
v -1.701517 -0.861974 -2.574144
v -1.701517 -0.830328 -2.561036
v -1.701517 -0.801847 -2.580066
v -1.701517 -0.805804 -2.620242
v -1.701517 -0.837451 -2.633350
v -1.701517 -0.865931 -2.614320
v -1.681080 -0.764468 -2.590356
v -1.681080 -0.767136 -2.576944
v -1.681080 -0.772369 -2.564310
v -1.681080 -0.779966 -2.552940
v -1.681080 -0.789636 -2.543270
v -1.681080 -0.801006 -2.535673
v -1.681080 -0.813640 -2.530439
v -1.681080 -0.827052 -2.527772
v -1.681080 -0.840727 -2.527772
v -1.681080 -0.854139 -2.530439
v -1.681080 -0.866773 -2.535673
v -1.681080 -0.878143 -2.543270
v -1.681080 -0.887813 -2.552940
v -1.681080 -0.895410 -2.564310
v -1.681080 -0.900643 -2.576944
v -1.681080 -0.903311 -2.590356
v -1.681080 -0.903311 -2.604031
v -1.681080 -0.900643 -2.617443
v -1.681080 -0.895410 -2.630077
v -1.681080 -0.887813 -2.641447
v -1.681080 -0.878143 -2.651117
v -1.681080 -0.866773 -2.658714
v -1.681080 -0.854139 -2.663947
v -1.681080 -0.840727 -2.666615
v -1.681080 -0.827052 -2.666615
v -1.681080 -0.813640 -2.663947
v -1.681080 -0.801006 -2.658714
v -1.681080 -0.789636 -2.651116
v -1.681080 -0.779966 -2.641447
v -1.681080 -0.772369 -2.630077
v -1.681080 -0.767136 -2.617443
v -1.681080 -0.764468 -2.604031
v -1.685711 -0.891891 -2.558438
v -1.691945 -0.898338 -2.570498
v -1.685711 -0.833889 -2.527435
v -1.691945 -0.847499 -2.528775
v -1.685711 -0.775887 -2.558438
v -1.691945 -0.784563 -2.547867
v -1.685711 -0.775887 -2.635949
v -1.691945 -0.769441 -2.623888
v -1.685711 -0.833889 -2.666952
v -1.691945 -0.820280 -2.665611
v -1.685711 -0.891891 -2.635949
v -1.691945 -0.883216 -2.646520
v -1.691945 -0.902307 -2.583584
v -1.691945 -0.860585 -2.532745
v -1.691945 -0.795134 -2.539191
v -1.691945 -0.765471 -2.610802
v -1.691945 -0.807194 -2.661642
v -1.691945 -0.872645 -2.655195
v -1.691945 -0.903648 -2.597193
v -1.691945 -0.872645 -2.539191
v -1.691945 -0.807194 -2.532745
v -1.685711 -0.764131 -2.597193
v -1.691945 -0.765471 -2.583584
v -1.691945 -0.795134 -2.655195
v -1.691945 -0.860585 -2.661642
v -1.691945 -0.902307 -2.610802
v -1.691945 -0.883216 -2.547867
v -1.691945 -0.820280 -2.528775
v -1.691945 -0.769441 -2.570498
v -1.691945 -0.784563 -2.646520
v -1.691945 -0.847498 -2.665611
v -1.691945 -0.898338 -2.623889
v -1.691945 -0.891891 -2.558438
v -1.685711 -0.898338 -2.570498
v -1.691945 -0.833889 -2.527435
v -1.685711 -0.847499 -2.528775
v -1.691945 -0.775887 -2.558438
v -1.685711 -0.784563 -2.547867
v -1.691945 -0.775887 -2.635949
v -1.685711 -0.769441 -2.623888
v -1.691945 -0.833889 -2.666952
v -1.685711 -0.820280 -2.665611
v -1.691945 -0.891891 -2.635949
v -1.685711 -0.883216 -2.646520
v -1.685711 -0.902307 -2.583584
v -1.685711 -0.860585 -2.532745
v -1.685711 -0.795134 -2.539191
v -1.685711 -0.765471 -2.610802
v -1.685711 -0.807194 -2.661642
v -1.685711 -0.872645 -2.655195
v -1.685711 -0.903648 -2.597193
v -1.685711 -0.872645 -2.539191
v -1.685711 -0.807194 -2.532745
v -1.691945 -0.764131 -2.597193
v -1.685711 -0.765471 -2.583584
v -1.685711 -0.795134 -2.655195
v -1.685711 -0.860585 -2.661642
v -1.685711 -0.902307 -2.610802
v -1.685711 -0.883216 -2.547867
v -1.685711 -0.820280 -2.528775
v -1.685711 -0.769441 -2.570498
v -1.685711 -0.784563 -2.646520
v -1.685711 -0.847498 -2.665611
v -1.685711 -0.898338 -2.623889
v -1.689585 -0.895410 -2.564310
v -1.689585 -0.840727 -2.527772
v -1.689585 -0.779966 -2.552940
v -1.689585 -0.772369 -2.630077
v -1.689585 -0.827052 -2.666615
v -1.689585 -0.887813 -2.641447
v -1.689585 -0.900643 -2.576944
v -1.689585 -0.854139 -2.530439
v -1.689585 -0.789636 -2.543270
v -1.689585 -0.767136 -2.617443
v -1.689585 -0.813640 -2.663947
v -1.689585 -0.878143 -2.651117
v -1.689585 -0.903311 -2.590356
v -1.689585 -0.866773 -2.535673
v -1.689585 -0.801006 -2.535673
v -1.689585 -0.764468 -2.590356
v -1.689585 -0.764468 -2.604031
v -1.689585 -0.801006 -2.658714
v -1.689585 -0.866773 -2.658714
v -1.689585 -0.903311 -2.604031
v -1.689585 -0.878143 -2.543270
v -1.689585 -0.813640 -2.530439
v -1.689585 -0.767136 -2.576944
v -1.689585 -0.789636 -2.651116
v -1.689585 -0.854139 -2.663947
v -1.689585 -0.900643 -2.617443
v -1.689585 -0.887813 -2.552940
v -1.689585 -0.827052 -2.527772
v -1.689585 -0.772369 -2.564310
v -1.689585 -0.779966 -2.641447
v -1.689585 -0.840727 -2.666615
v -1.689585 -0.895410 -2.630077
v -1.694258 -0.768491 -2.597193
v -1.694258 -0.769748 -2.584435
v -1.694258 -0.773469 -2.572166
v -1.694258 -0.779513 -2.560860
v -1.694258 -0.787646 -2.550950
v -1.694258 -0.797556 -2.542816
v -1.694258 -0.808862 -2.536773
v -1.694258 -0.821131 -2.533051
v -1.694258 -0.833889 -2.531795
v -1.694258 -0.846648 -2.533051
v -1.694258 -0.858916 -2.536773
v -1.694258 -0.870223 -2.542816
v -1.694258 -0.880133 -2.550950
v -1.694258 -0.888266 -2.560860
v -1.694258 -0.894310 -2.572166
v -1.694258 -0.898031 -2.584435
v -1.694258 -0.899288 -2.597193
v -1.694258 -0.898031 -2.609952
v -1.694258 -0.894310 -2.622220
v -1.694258 -0.888266 -2.633527
v -1.694258 -0.880133 -2.643437
v -1.694258 -0.870223 -2.651570
v -1.694258 -0.858916 -2.657614
v -1.694258 -0.846648 -2.661335
v -1.694258 -0.833889 -2.662592
v -1.694258 -0.821131 -2.661335
v -1.694258 -0.808862 -2.657614
v -1.694258 -0.797556 -2.651570
v -1.694258 -0.787646 -2.643437
v -1.694258 -0.779513 -2.633527
v -1.694258 -0.773469 -2.622220
v -1.694258 -0.769748 -2.609952
v -1.704706 -0.833889 -2.597193
v -1.701567 -0.798287 -2.597193
v -1.701567 -0.866782 -2.583569
v -1.701567 -0.863492 -2.577414
v -1.701567 -0.840835 -2.562275
v -1.701567 -0.833889 -2.561591
v -1.701567 -0.808715 -2.572019
v -1.701567 -0.804287 -2.577414
v -1.701567 -0.800997 -2.610818
v -1.701567 -0.804287 -2.616973
v -1.701567 -0.826944 -2.632112
v -1.701567 -0.833889 -2.632796
v -1.701567 -0.859064 -2.622368
v -1.701567 -0.863492 -2.616973
v -1.701567 -0.868808 -2.590248
v -1.701567 -0.847514 -2.564301
v -1.701567 -0.814110 -2.567591
v -1.701567 -0.798971 -2.604139
v -1.701567 -0.820265 -2.630085
v -1.701567 -0.853669 -2.626796
v -1.701567 -0.869492 -2.597193
v -1.701567 -0.853669 -2.567591
v -1.701567 -0.820265 -2.564301
v -1.701567 -0.798971 -2.590248
v -1.701567 -0.814110 -2.626796
v -1.701567 -0.847514 -2.630085
v -1.701567 -0.868808 -2.604139
v -1.701567 -0.859064 -2.572019
v -1.701567 -0.826944 -2.562275
v -1.701567 -0.800997 -2.583569
v -1.701567 -0.808715 -2.622368
v -1.701567 -0.840835 -2.632112
v -1.701567 -0.866782 -2.610818
v -1.681080 -0.764131 -2.597193
v -1.681080 -0.765471 -2.583584
v -1.681080 -0.769441 -2.570498
v -1.681080 -0.775887 -2.558438
v -1.681080 -0.784563 -2.547867
v -1.681080 -0.795134 -2.539191
v -1.681080 -0.807194 -2.532745
v -1.681080 -0.820280 -2.528775
v -1.681080 -0.833889 -2.527435
v -1.681080 -0.847499 -2.528775
v -1.681080 -0.860585 -2.532745
v -1.681080 -0.872645 -2.539191
v -1.681080 -0.883216 -2.547867
v -1.681080 -0.891891 -2.558438
v -1.681080 -0.898338 -2.570498
v -1.681080 -0.902307 -2.583584
v -1.681080 -0.903648 -2.597193
v -1.681080 -0.902307 -2.610802
v -1.681080 -0.898338 -2.623889
v -1.681080 -0.891891 -2.635949
v -1.681080 -0.883216 -2.646520
v -1.681080 -0.872645 -2.655195
v -1.681080 -0.860585 -2.661642
v -1.681080 -0.847498 -2.665611
v -1.681080 -0.833889 -2.666952
v -1.681080 -0.820280 -2.665611
v -1.681080 -0.807194 -2.661642
v -1.681080 -0.795134 -2.655195
v -1.681080 -0.784563 -2.646520
v -1.681080 -0.775887 -2.635949
v -1.681080 -0.769441 -2.623888
v -1.681080 -0.765471 -2.610802
v -1.689585 -0.891891 -2.558438
v -1.689585 -0.898338 -2.570498
v -1.689585 -0.833889 -2.527435
v -1.689585 -0.847499 -2.528775
v -1.689585 -0.775887 -2.558438
v -1.689585 -0.784563 -2.547867
v -1.689585 -0.775887 -2.635949
v -1.689585 -0.769441 -2.623888
v -1.689585 -0.833889 -2.666952
v -1.689585 -0.820280 -2.665611
v -1.689585 -0.891891 -2.635949
v -1.689585 -0.883216 -2.646520
v -1.689585 -0.902307 -2.583584
v -1.689585 -0.860585 -2.532745
v -1.689585 -0.795134 -2.539191
v -1.689585 -0.765471 -2.610802
v -1.689585 -0.807194 -2.661642
v -1.689585 -0.872645 -2.655195
v -1.689585 -0.903648 -2.597193
v -1.689585 -0.872645 -2.539191
v -1.689585 -0.807194 -2.532745
v -1.689585 -0.764131 -2.597193
v -1.689585 -0.765471 -2.583584
v -1.689585 -0.795134 -2.655195
v -1.689585 -0.860585 -2.661642
v -1.689585 -0.902307 -2.610802
v -1.689585 -0.883216 -2.547867
v -1.689585 -0.820280 -2.528775
v -1.689585 -0.769441 -2.570498
v -1.689585 -0.784563 -2.646520
v -1.689585 -0.847498 -2.665611
v -1.689585 -0.898338 -2.623889
vt 0.419582 0.355204
vt 0.375439 0.273010
vt 0.356619 0.290356
vt 0.442203 0.367453
vt 0.400313 0.266962
vt 0.417250 0.380813
vt 0.333122 0.484685
vt 0.240346 0.475323
vt 0.244295 0.500612
vt 0.355876 0.472725
vt 0.249152 0.451298
vt 0.353102 0.500888
vt 0.392677 0.628421
vt 0.333400 0.699911
vt 0.356619 0.710673
vt 0.395377 0.602920
vt 0.318319 0.679272
vt 0.417250 0.620852
vt 0.575204 0.646243
vt 0.618598 0.727757
vt 0.637441 0.710430
vt 0.552671 0.634074
vt 0.593747 0.733825
vt 0.577624 0.620713
vt 0.661663 0.516762
vt 0.753691 0.525444
vt 0.749763 0.500176
vt 0.638997 0.528802
vt 0.744907 0.549489
vt 0.641771 0.500639
vt 0.602110 0.373026
vt 0.660638 0.300856
vt 0.637441 0.290114
vt 0.599497 0.398607
vt 0.675741 0.321515
vt 0.577624 0.380675
vt 0.449478 0.342795
vt 0.422151 0.253620
vt 0.469279 0.359216
vt 0.447725 0.252538
vt 0.339435 0.452940
vt 0.250210 0.425722
vt 0.364089 0.445640
vt 0.263533 0.403870
vt 0.369796 0.605559
vt 0.297648 0.664188
vt 0.377427 0.581062
vt 0.286889 0.640998
vt 0.545309 0.658653
vt 0.571887 0.747148
vt 0.525595 0.642312
vt 0.546336 0.748250
vt 0.655350 0.548507
vt 0.743827 0.575045
vt 0.630784 0.555887
vt 0.730525 0.596917
vt 0.624991 0.395889
vt 0.696390 0.336579
vt 0.617447 0.420466
vt 0.707171 0.359789
vt 0.481214 0.336454
vt 0.471739 0.243712
vt 0.497437 0.356418
vt 0.497030 0.247639
vt 0.351818 0.423032
vt 0.269558 0.378990
vt 0.377427 0.420673
vt 0.286889 0.360152
vt 0.351818 0.578667
vt 0.269558 0.622170
vt 0.364089 0.556117
vt 0.263533 0.597320
vt 0.481214 0.665021
vt 0.471739 0.757099
vt 0.497030 0.753148
vt 0.469279 0.642360
vt 0.447725 0.748334
vt 0.497437 0.645109
vt 0.513572 0.664994
vt 0.522299 0.757056
vt 0.642967 0.578416
vt 0.724479 0.621778
vt 0.617446 0.580855
vt 0.707171 0.640636
vt 0.642967 0.422781
vt 0.724479 0.378598
vt 0.630784 0.445410
vt 0.730525 0.403468
vt 0.513572 0.336426
vt 0.522299 0.243669
vt 0.525595 0.359167
vt 0.546336 0.252453
vt 0.369796 0.396109
vt 0.297648 0.336923
vt 0.395377 0.398784
vt 0.318319 0.321823
vt 0.339435 0.548780
vt 0.250210 0.575471
vt 0.355876 0.529046
vt 0.249152 0.549917
vt 0.449478 0.658735
vt 0.422151 0.747277
vt 0.442203 0.634169
vt 0.400313 0.733992
vt 0.624990 0.605339
vt 0.696389 0.663844
vt 0.599496 0.602743
vt 0.675739 0.678964
vt 0.655350 0.452668
vt 0.743827 0.425296
vt 0.638997 0.472481
vt 0.744907 0.450870
vt 0.545309 0.342712
vt 0.571887 0.253490
vt 0.552671 0.367358
vt 0.593747 0.266795
vt 0.392677 0.373206
vt 0.333400 0.301138
vt 0.333122 0.517046
vt 0.240346 0.525887
vt 0.419582 0.646377
vt 0.375439 0.727967
vt 0.602109 0.628240
vt 0.660637 0.699629
vt 0.661663 0.484402
vt 0.753691 0.474880
vt 0.575204 0.355070
vt 0.618599 0.272800
vt 0.289908 0.191026
vt 0.321172 0.172264
vt 0.276588 0.089668
vt 0.354119 0.156647
vt 0.124846 0.500003
vt 0.126639 0.463595
vt 0.033422 0.453832
vt 0.131983 0.427534
vt 0.289908 0.808694
vt 0.260636 0.787002
vt 0.181128 0.881893
vt 0.233627 0.762550
vt 0.702586 0.808337
vt 0.671322 0.827100
vt 0.728709 0.935358
vt 0.638376 0.842718
vt 0.867648 0.499362
vt 0.865856 0.535770
vt 0.988089 0.546917
vt 0.860512 0.571830
vt 0.702587 0.190670
vt 0.731859 0.212362
vt 0.789946 0.139790
vt 0.758868 0.236814
vt 0.388437 0.144342
vt 0.360669 0.054765
vt 0.423791 0.135450
vt 0.140843 0.392169
vt 0.051177 0.364549
vt 0.153117 0.357837
vt 0.209153 0.735561
vt 0.136565 0.793789
vt 0.187439 0.706305
vt 0.604058 0.855023
vt 0.639024 0.972588
vt 0.568704 0.863914
vt 0.851652 0.607195
vt 0.969150 0.642151
vt 0.839377 0.641527
vt 0.783341 0.263804
vt 0.878068 0.184295
vt 0.805056 0.293060
vt 0.459845 0.130075
vt 0.449928 0.036932
vt 0.496248 0.128251
vt 0.168705 0.324875
vt 0.086004 0.280432
vt 0.187439 0.293593
vt 0.168704 0.675054
vt 0.086004 0.718156
vt 0.153117 0.642119
vt 0.496248 0.871114
vt 0.459845 0.869352
vt 0.446740 0.991694
vt 0.423791 0.864039
vt 0.532651 0.869290
vt 0.543815 0.991610
vt 0.823790 0.674489
vt 0.932001 0.731876
vt 0.805056 0.705772
vt 0.823790 0.324310
vt 0.932001 0.264971
vt 0.839377 0.357246
vt 0.532651 0.130012
vt 0.540936 0.036853
vt 0.568704 0.135325
vt 0.209153 0.264299
vt 0.136565 0.204712
vt 0.233627 0.237267
vt 0.140843 0.607808
vt 0.051177 0.634098
vt 0.131983 0.572459
vt 0.388437 0.855209
vt 0.351530 0.972836
vt 0.354119 0.842963
vt 0.783341 0.735065
vt 0.878068 0.812644
vt 0.758867 0.762097
vt 0.851652 0.391556
vt 0.969150 0.354632
vt 0.860512 0.426906
vt 0.604058 0.144156
vt 0.630196 0.054532
vt 0.638377 0.156402
vt 0.260636 0.212769
vt 0.200917 0.140299
vt 0.126639 0.536407
vt 0.033422 0.544847
vt 0.321172 0.827403
vt 0.261843 0.935761
vt 0.731858 0.786595
vt 0.809425 0.881351
vt 0.865856 0.462957
vt 0.988089 0.449834
vt 0.671323 0.171962
vt 0.714276 0.089290
vt 0.304057 0.039862
vt 0.260129 0.060685
vt 0.260976 0.061454
vt 0.218443 0.085701
vt 0.259116 0.059764
vt 0.303044 0.038942
vt 0.007876 0.401044
vt 0.000751 0.449126
vt 0.001599 0.449896
vt -0.001639 0.497669
vt -0.000261 0.448205
vt 0.179413 0.880336
vt 0.180261 0.881105
vt 0.142559 0.850194
vt 0.218443 0.909258
vt 0.178401 0.879416
vt 0.141711 0.849424
vt 0.683067 0.954623
vt 0.726995 0.933801
vt 0.727842 0.934571
vt 0.768680 0.908784
vt 0.725982 0.932880
vt 0.979249 0.593440
vt 0.986374 0.545359
vt 0.987221 0.546129
vt 0.988764 0.496815
vt 0.985361 0.544439
vt 0.807711 0.114149
vt 0.808558 0.114919
vt 0.846259 0.145830
vt 0.768682 0.085226
vt 0.806698 0.113228
vt 0.845412 0.145060
vt 0.844399 0.144139
vt 0.396954 0.011599
vt 0.349815 0.023454
vt 0.350662 0.024224
vt 0.304904 0.040632
vt 0.348802 0.022534
vt 0.395941 0.010679
vt 0.036057 0.308116
vt 0.019690 0.353891
vt 0.020538 0.354661
vt 0.018678 0.352971
vt 0.081818 0.772739
vt 0.110771 0.811747
vt 0.111618 0.812517
vt 0.109758 0.810827
vt 0.140699 0.848505
vt 0.590171 0.982885
vt 0.637309 0.971030
vt 0.638157 0.971800
vt 0.636297 0.970110
vt 0.951068 0.686369
vt 0.967435 0.640593
vt 0.968282 0.641363
vt 0.966422 0.639673
vt 0.950056 0.685448
vt 0.905307 0.221745
vt 0.876354 0.182738
vt 0.877201 0.183508
vt 0.875341 0.181817
vt 0.493563 0.002000
vt 0.445025 0.004432
vt 0.445872 0.005202
vt 0.444012 0.003512
vt 0.081818 0.222456
vt 0.056840 0.264166
vt 0.057687 0.264936
vt 0.055827 0.263246
vt 0.035044 0.307196
vt 0.036057 0.687158
vt 0.056840 0.731072
vt 0.057687 0.731842
vt 0.055827 0.730152
vt 0.035044 0.686238
vt 0.445025 0.990135
vt 0.445872 0.990906
vt 0.397801 0.983822
vt 0.493563 0.992484
vt 0.444012 0.989215
vt 0.396954 0.983051
vt 0.542100 0.990052
vt 0.542948 0.990822
vt 0.541088 0.989132
vt 0.492550 0.991563
vt 0.905307 0.772029
vt 0.930286 0.730318
vt 0.931133 0.731088
vt 0.951916 0.687139
vt 0.929273 0.729398
vt 0.904295 0.771108
vt 0.951068 0.307327
vt 0.930286 0.263413
vt 0.931133 0.264183
vt 0.929273 0.262492
vt 0.590172 0.011432
vt 0.542100 0.004349
vt 0.542948 0.005118
vt 0.541088 0.003428
vt 0.589159 0.010512
vt 0.143402 0.147356
vt 0.110771 0.183398
vt 0.111618 0.184168
vt 0.109758 0.182478
vt 0.080805 0.221536
vt 0.007876 0.594278
vt 0.019690 0.641410
vt 0.020538 0.642180
vt 0.036904 0.687928
vt 0.018678 0.640490
vt 0.304057 0.954950
vt 0.349815 0.971278
vt 0.350662 0.972048
vt 0.348802 0.970357
vt 0.876354 0.811087
vt 0.877201 0.811857
vt 0.844569 0.847899
vt 0.875341 0.810166
vt 0.843722 0.847129
vt 0.979249 0.400207
vt 0.967435 0.353074
vt 0.968282 0.353844
vt 0.966422 0.352154
vt 0.683068 0.039535
vt 0.637311 0.023206
vt 0.638158 0.023976
vt 0.591019 0.012202
vt 0.636298 0.022286
vt 0.179413 0.114691
vt 0.180261 0.115461
vt 0.144249 0.148126
vt 0.178401 0.113770
vt 0.000751 0.546209
vt 0.001599 0.546979
vt 0.008724 0.595048
vt -0.000261 0.545289
vt -0.002652 0.496749
vt 0.260129 0.934203
vt 0.260976 0.934973
vt 0.259116 0.933283
vt 0.807710 0.879794
vt 0.808557 0.880564
vt 0.806697 0.878874
vt 0.842709 0.846209
vt 0.986374 0.448276
vt 0.987221 0.449046
vt 0.980096 0.400977
vt 0.985361 0.447356
vt 0.978236 0.399287
vt 0.726997 0.060282
vt 0.727844 0.061051
vt 0.683915 0.040305
vt 0.725984 0.059361
vt 0.261492 0.061924
vt 0.317771 0.070147
vt 0.219807 0.086940
vt 0.237508 0.113121
vt 0.305421 0.041101
vt 0.002115 0.450365
vt 0.040101 0.408755
vt -0.000275 0.498909
vt 0.031181 0.499342
vt 0.009240 0.402283
vt 0.180777 0.881575
vt 0.143426 0.850982
vt 0.219807 0.910497
vt 0.220158 0.910816
vt 0.143075 0.850663
vt 0.728358 0.935040
vt 0.684781 0.956181
vt 0.770044 0.910022
vt 0.770395 0.910341
vt 0.684430 0.955862
vt 0.987738 0.546598
vt 0.980964 0.594998
vt 0.990128 0.498054
vt 0.990479 0.498373
vt 0.980613 0.594679
vt 0.809075 0.115388
vt 0.854774 0.155957
vt 0.770046 0.086465
vt 0.753356 0.112676
vt 0.846776 0.146299
vt 0.351179 0.024694
vt 0.404861 0.043651
vt 0.398317 0.012838
vt 0.021054 0.355130
vt 0.066520 0.321635
vt 0.037420 0.309355
vt 0.112135 0.812986
vt 0.109421 0.757219
vt 0.152764 0.858630
vt 0.083181 0.773978
vt 0.638673 0.972269
vt 0.591886 0.984443
vt 0.591535 0.984124
vt 0.968799 0.641832
vt 0.952783 0.687926
vt 0.952432 0.687608
vt 0.877717 0.183977
vt 0.907022 0.223303
vt 0.847127 0.146617
vt 0.906671 0.222985
vt 0.446389 0.005671
vt 0.495432 0.034651
vt 0.494926 0.003239
vt 0.058203 0.265405
vt 0.109421 0.241329
vt 0.083181 0.223695
vt 0.058203 0.732311
vt 0.066520 0.676987
vt 0.037420 0.688397
vt 0.446389 0.991375
vt 0.398668 0.984610
vt 0.494926 0.993724
vt 0.495277 0.994042
vt 0.398317 0.984291
vt 0.543464 0.991291
vt 0.591019 0.983655
vt 0.931650 0.731557
vt 0.907022 0.773586
vt 0.906671 0.773268
vt 0.906155 0.772799
vt 0.931650 0.264652
vt 0.952783 0.308885
vt 0.952432 0.308566
vt 0.543464 0.005587
vt 0.586003 0.043494
vt 0.591535 0.012671
vt 0.112135 0.184638
vt 0.167156 0.170923
vt 0.144765 0.148595
vt 0.021054 0.642649
vt 0.040101 0.589912
vt 0.009240 0.595517
vt 0.351179 0.972517
vt 0.305772 0.956508
vt 0.305421 0.956189
vt 0.877717 0.812325
vt 0.845437 0.848686
vt 0.845086 0.848368
vt 0.968799 0.354313
vt 0.980964 0.401764
vt 0.980613 0.401446
vt 0.638674 0.024446
vt 0.673094 0.069840
vt 0.684432 0.040774
vt 0.180777 0.115930
vt 0.002115 0.547448
vt 0.261492 0.935442
vt 0.809074 0.881033
vt 0.987738 0.449515
vt 0.728360 0.061521
vt 0.497716 0.501017
vt 0.219290 0.086471
vt 0.217431 0.084781
vt 0.008724 0.401814
vt -0.000792 0.498439
vt 0.006864 0.400124
vt 0.219290 0.910028
vt 0.217431 0.908338
vt 0.683914 0.955393
vt 0.769527 0.909554
vt 0.767668 0.907863
vt 0.682054 0.953703
vt 0.980096 0.594210
vt 0.989611 0.497585
vt 0.987751 0.495895
vt 0.978236 0.592520
vt 0.769529 0.085996
vt 0.767669 0.084306
vt 0.397801 0.012369
vt 0.036904 0.308886
vt 0.082665 0.773509
vt 0.080805 0.771819
vt 0.589159 0.981965
vt 0.906155 0.222515
vt 0.904295 0.220825
vt 0.494410 0.002770
vt 0.492550 0.001080
vt 0.082665 0.223226
vt 0.494410 0.993254
vt 0.395941 0.982131
vt 0.951916 0.308097
vt 0.950056 0.306406
vt 0.142389 0.146435
vt 0.006864 0.593358
vt 0.304904 0.955719
vt 0.303044 0.954029
vt 0.682056 0.038614
vn -0.9943 -0.0942 0.0504
vn -0.9845 -0.1546 0.0826
vn -0.9861 -0.1379 0.0921
vn -0.9971 -0.0706 0.0292
vn -0.9861 -0.1532 0.0634
vn -0.9971 -0.0635 0.0424
vn -0.9943 -0.0105 0.1063
vn -0.9845 -0.0172 0.1745
vn -0.9861 0.0000 0.1658
vn -0.9971 -0.0149 0.0749
vn -0.9861 -0.0323 0.1627
vn -0.9971 0.0000 0.0764
vn -0.9943 0.0826 0.0678
vn -0.9845 0.1355 0.1112
vn -0.9861 0.1379 0.0921
vn -0.9971 0.0540 0.0540
vn -0.9861 0.1173 0.1173
vn -0.9971 0.0635 0.0424
vn -0.9943 0.0942 -0.0504
vn -0.9845 0.1546 -0.0826
vn -0.9861 0.1379 -0.0921
vn -0.9971 0.0706 -0.0292
vn -0.9861 0.1532 -0.0635
vn -0.9971 0.0635 -0.0424
vn -0.9943 0.0105 -0.1063
vn -0.9845 0.0172 -0.1745
vn -0.9861 0.0000 -0.1658
vn -0.9971 0.0149 -0.0749
vn -0.9861 0.0323 -0.1627
vn -0.9971 0.0000 -0.0764
vn -0.9943 -0.0826 -0.0678
vn -0.9845 -0.1355 -0.1112
vn -0.9861 -0.1379 -0.0921
vn -0.9971 -0.0540 -0.0540
vn -0.9861 -0.1173 -0.1173
vn -0.9971 -0.0635 -0.0424
vn -0.9943 -0.1022 0.0310
vn -0.9845 -0.1678 0.0509
vn -0.9971 -0.0749 0.0149
vn -0.9861 -0.1627 0.0323
vn -0.9943 -0.0310 0.1022
vn -0.9845 -0.0509 0.1678
vn -0.9971 -0.0292 0.0706
vn -0.9861 -0.0635 0.1532
vn -0.9943 0.0677 0.0826
vn -0.9845 0.1112 0.1355
vn -0.9971 0.0424 0.0635
vn -0.9861 0.0921 0.1379
vn -0.9943 0.1022 -0.0310
vn -0.9845 0.1678 -0.0509
vn -0.9971 0.0749 -0.0149
vn -0.9861 0.1627 -0.0323
vn -0.9943 0.0310 -0.1022
vn -0.9845 0.0509 -0.1678
vn -0.9971 0.0292 -0.0706
vn -0.9861 0.0635 -0.1532
vn -0.9943 -0.0677 -0.0826
vn -0.9845 -0.1112 -0.1355
vn -0.9971 -0.0424 -0.0635
vn -0.9861 -0.0921 -0.1379
vn -0.9943 -0.1063 0.0105
vn -0.9845 -0.1745 0.0172
vn -0.9971 -0.0764 0.0000
vn -0.9861 -0.1659 0.0000
vn -0.9943 -0.0504 0.0942
vn -0.9845 -0.0826 0.1546
vn -0.9971 -0.0424 0.0635
vn -0.9861 -0.0921 0.1379
vn -0.9943 0.0504 0.0942
vn -0.9845 0.0826 0.1546
vn -0.9971 0.0292 0.0706
vn -0.9861 0.0635 0.1532
vn -0.9943 0.1063 0.0105
vn -0.9845 0.1745 0.0172
vn -0.9861 0.1659 0.0000
vn -0.9971 0.0749 0.0149
vn -0.9861 0.1627 0.0323
vn -0.9971 0.0764 0.0000
vn -0.9943 0.1063 -0.0105
vn -0.9845 0.1745 -0.0172
vn -0.9943 0.0504 -0.0942
vn -0.9845 0.0826 -0.1546
vn -0.9971 0.0424 -0.0635
vn -0.9861 0.0921 -0.1379
vn -0.9943 -0.0504 -0.0942
vn -0.9845 -0.0826 -0.1546
vn -0.9971 -0.0292 -0.0706
vn -0.9861 -0.0635 -0.1532
vn -0.9943 -0.1063 -0.0105
vn -0.9845 -0.1745 -0.0172
vn -0.9971 -0.0749 -0.0149
vn -0.9861 -0.1627 -0.0323
vn -0.9943 -0.0677 0.0826
vn -0.9845 -0.1112 0.1355
vn -0.9971 -0.0540 0.0540
vn -0.9861 -0.1173 0.1173
vn -0.9943 0.0310 0.1022
vn -0.9845 0.0509 0.1678
vn -0.9971 0.0149 0.0749
vn -0.9861 0.0323 0.1627
vn -0.9943 0.1022 0.0310
vn -0.9845 0.1678 0.0509
vn -0.9971 0.0706 0.0292
vn -0.9861 0.1532 0.0634
vn -0.9943 0.0677 -0.0826
vn -0.9845 0.1112 -0.1355
vn -0.9971 0.0540 -0.0540
vn -0.9861 0.1173 -0.1173
vn -0.9943 -0.0310 -0.1022
vn -0.9845 -0.0509 -0.1678
vn -0.9971 -0.0149 -0.0749
vn -0.9861 -0.0323 -0.1627
vn -0.9943 -0.1022 -0.0310
vn -0.9845 -0.1678 -0.0509
vn -0.9971 -0.0706 -0.0292
vn -0.9861 -0.1532 -0.0635
vn -0.9943 -0.0826 0.0678
vn -0.9845 -0.1355 0.1112
vn -0.9943 0.0105 0.1063
vn -0.9845 0.0172 0.1745
vn -0.9943 0.0942 0.0504
vn -0.9845 0.1546 0.0826
vn -0.9943 0.0826 -0.0678
vn -0.9845 0.1355 -0.1112
vn -0.9943 -0.0105 -0.1063
vn -0.9845 -0.0172 -0.1745
vn -0.9943 -0.0942 -0.0504
vn -0.9845 -0.1546 -0.0826
vn -0.9694 -0.2041 0.1364
vn -0.9693 -0.2169 0.1159
vn -0.9265 -0.3318 0.1773
vn -0.9694 -0.2268 0.0939
vn -0.9694 0.0000 0.2455
vn -0.9693 -0.0241 0.2447
vn -0.9265 -0.0369 0.3744
vn -0.9694 -0.0479 0.2408
vn -0.9694 0.2041 0.1364
vn -0.9693 0.1901 0.1560
vn -0.9265 0.2908 0.2387
vn -0.9694 0.1736 0.1736
vn -0.9694 0.2041 -0.1364
vn -0.9693 0.2169 -0.1159
vn -0.9265 0.3318 -0.1773
vn -0.9694 0.2268 -0.0939
vn -0.9694 0.0000 -0.2455
vn -0.9693 0.0241 -0.2447
vn -0.9265 0.0369 -0.3744
vn -0.9694 0.0479 -0.2408
vn -0.9694 -0.2041 -0.1364
vn -0.9693 -0.1901 -0.1560
vn -0.9265 -0.2908 -0.2387
vn -0.9694 -0.1736 -0.1736
vn -0.9693 -0.2353 0.0714
vn -0.9265 -0.3600 0.1092
vn -0.9694 -0.2408 0.0479
vn -0.9693 -0.0714 0.2353
vn -0.9265 -0.1092 0.3600
vn -0.9694 -0.0939 0.2268
vn -0.9693 0.1560 0.1901
vn -0.9265 0.2387 0.2908
vn -0.9694 0.1364 0.2041
vn -0.9693 0.2353 -0.0714
vn -0.9265 0.3600 -0.1092
vn -0.9694 0.2408 -0.0479
vn -0.9693 0.0714 -0.2353
vn -0.9265 0.1092 -0.3600
vn -0.9694 0.0939 -0.2268
vn -0.9693 -0.1560 -0.1901
vn -0.9265 -0.2387 -0.2908
vn -0.9694 -0.1364 -0.2041
vn -0.9693 -0.2447 0.0241
vn -0.9265 -0.3744 0.0369
vn -0.9694 -0.2455 0.0000
vn -0.9693 -0.1159 0.2169
vn -0.9265 -0.1774 0.3318
vn -0.9694 -0.1364 0.2041
vn -0.9693 0.1159 0.2169
vn -0.9265 0.1773 0.3318
vn -0.9694 0.0939 0.2268
vn -0.9694 0.2455 0.0000
vn -0.9693 0.2447 0.0241
vn -0.9265 0.3744 0.0369
vn -0.9694 0.2408 0.0479
vn -0.9693 0.2447 -0.0241
vn -0.9265 0.3744 -0.0369
vn -0.9693 0.1159 -0.2169
vn -0.9265 0.1773 -0.3318
vn -0.9694 0.1364 -0.2041
vn -0.9693 -0.1159 -0.2169
vn -0.9265 -0.1773 -0.3318
vn -0.9694 -0.0939 -0.2268
vn -0.9693 -0.2447 -0.0241
vn -0.9265 -0.3744 -0.0369
vn -0.9694 -0.2408 -0.0479
vn -0.9693 -0.1560 0.1901
vn -0.9265 -0.2387 0.2908
vn -0.9694 -0.1736 0.1736
vn -0.9693 0.0714 0.2353
vn -0.9265 0.1092 0.3600
vn -0.9694 0.0479 0.2408
vn -0.9693 0.2353 0.0714
vn -0.9265 0.3600 0.1092
vn -0.9694 0.2268 0.0939
vn -0.9693 0.1560 -0.1901
vn -0.9265 0.2387 -0.2908
vn -0.9694 0.1736 -0.1736
vn -0.9693 -0.0714 -0.2353
vn -0.9265 -0.1092 -0.3600
vn -0.9694 -0.0479 -0.2408
vn -0.9693 -0.2353 -0.0714
vn -0.9265 -0.3600 -0.1092
vn -0.9694 -0.2268 -0.0939
vn -0.9693 -0.1901 0.1560
vn -0.9265 -0.2908 0.2387
vn -0.9693 0.0241 0.2447
vn -0.9265 0.0369 0.3744
vn -0.9693 0.2169 0.1159
vn -0.9265 0.3318 0.1773
vn -0.9693 0.1901 -0.1560
vn -0.9265 0.2908 -0.2387
vn -0.9693 -0.0241 -0.2447
vn -0.9265 -0.0369 -0.3745
vn -0.9693 -0.2169 -0.1159
vn -0.9265 -0.3318 -0.1773
vn 0.0000 -0.9239 0.3827
vn 0.0000 -0.8819 0.4714
vn 0.0000 -0.8314 0.5556
vn 0.0000 -0.1951 0.9808
vn 0.0000 -0.0980 0.9952
vn 0.0000 0.0000 1.0000
vn 0.0000 0.7730 0.6344
vn 0.0000 0.7071 0.7071
vn 0.0000 0.8314 0.5556
vn 0.0000 0.9239 -0.3827
vn 0.0000 0.8819 -0.4714
vn 0.0000 0.8314 -0.5556
vn 0.0000 0.1951 -0.9808
vn 0.0000 0.0980 -0.9952
vn 0.0000 0.0000 -1.0000
vn 0.0000 -0.7730 -0.6344
vn 0.0000 -0.7071 -0.7071
vn 0.0000 -0.8314 -0.5556
vn 0.0000 -0.9808 0.1951
vn 0.0000 -0.9569 0.2903
vn 0.0000 -0.3827 0.9239
vn 0.0000 -0.2903 0.9569
vn 0.0000 0.5556 0.8315
vn 0.0000 0.6344 0.7730
vn 0.0000 0.9808 -0.1951
vn 0.0000 0.9569 -0.2903
vn 0.0000 0.3827 -0.9239
vn 0.0000 0.2903 -0.9569
vn 0.0000 -0.5556 -0.8315
vn 0.0000 -0.6344 -0.7730
vn 0.0000 -1.0000 0.0000
vn 0.0000 -0.9952 0.0980
vn 0.0000 -0.5555 0.8315
vn 0.0000 -0.4714 0.8819
vn 0.0000 0.3827 0.9239
vn 0.0000 0.4714 0.8819
vn 0.0000 0.9952 0.0980
vn 0.0000 0.9808 0.1951
vn 0.0000 1.0000 0.0000
vn 0.0000 0.9952 -0.0980
vn 0.0000 0.5556 -0.8314
vn 0.0000 0.4714 -0.8819
vn 0.0000 -0.3827 -0.9239
vn 0.0000 -0.4714 -0.8819
vn 0.0000 -0.9808 -0.1951
vn 0.0000 -0.9952 -0.0980
vn 0.0000 -0.7071 0.7071
vn 0.0000 -0.6344 0.7730
vn 0.0000 0.1951 0.9808
vn 0.0000 0.2903 0.9569
vn 0.0000 0.9239 0.3827
vn 0.0000 0.9569 0.2903
vn 0.0000 0.6344 -0.7730
vn 0.0000 0.7071 -0.7071
vn 0.0000 -0.1951 -0.9808
vn 0.0000 -0.2903 -0.9569
vn 0.0000 -0.9239 -0.3827
vn 0.0000 -0.9569 -0.2903
vn 0.0000 -0.7730 0.6344
vn 0.0000 0.0980 0.9952
vn 0.0000 0.8819 0.4714
vn 0.0000 0.7730 -0.6344
vn 0.0000 -0.0980 -0.9952
vn 0.0000 -0.8819 -0.4714
vn -0.5085 -0.7594 0.4059
vn -0.9265 -0.3476 0.1440
vn -0.5085 -0.7159 0.4784
vn -0.9265 -0.3128 0.2090
vn -0.5085 -0.7955 0.3295
vn -0.5085 -0.0844 0.8569
vn -0.9265 -0.0734 0.3690
vn -0.5085 0.0000 0.8610
vn -0.9265 0.0000 0.3762
vn -0.5085 -0.1679 0.8445
vn -0.5085 0.6656 0.5462
vn -0.9265 0.2661 0.2660
vn -0.5085 0.7159 0.4784
vn -0.9265 0.3128 0.2090
vn -0.5085 0.6089 0.6088
vn -0.5085 0.7594 -0.4059
vn -0.9265 0.3476 -0.1440
vn -0.5085 0.7159 -0.4784
vn -0.9265 0.3128 -0.2090
vn -0.5085 0.7955 -0.3295
vn -0.5085 0.0844 -0.8569
vn -0.9265 0.0734 -0.3690
vn -0.5085 0.0000 -0.8610
vn -0.9265 0.0000 -0.3762
vn -0.5085 0.1680 -0.8445
vn -0.5085 -0.6656 -0.5462
vn -0.9265 -0.2661 -0.2661
vn -0.5085 -0.7159 -0.4784
vn -0.9265 -0.3128 -0.2090
vn -0.5085 -0.6088 -0.6089
vn -0.5085 -0.8240 0.2499
vn -0.9265 -0.3690 0.0734
vn -0.5084 -0.8445 0.1680
vn -0.5085 -0.2499 0.8240
vn -0.9265 -0.1440 0.3476
vn -0.5085 -0.3295 0.7955
vn -0.5085 0.5463 0.6656
vn -0.9265 0.2090 0.3128
vn -0.5084 0.4784 0.7160
vn -0.5085 0.8240 -0.2499
vn -0.9265 0.3690 -0.0734
vn -0.5084 0.8445 -0.1680
vn -0.5085 0.2499 -0.8240
vn -0.9265 0.1440 -0.3476
vn -0.5085 0.3295 -0.7955
vn -0.5085 -0.5463 -0.6656
vn -0.9265 -0.2090 -0.3128
vn -0.5084 -0.4784 -0.7160
vn -0.5085 -0.8569 0.0844
vn -0.9265 -0.3763 0.0000
vn -0.5084 -0.8611 0.0000
vn -0.5085 -0.4059 0.7594
vn -0.9265 -0.2090 0.3128
vn -0.5084 -0.4784 0.7160
vn -0.5085 0.4059 0.7594
vn -0.9265 0.1440 0.3476
vn -0.5085 0.3295 0.7955
vn -0.5085 0.8569 0.0844
vn -0.9265 0.3690 0.0734
vn -0.5084 0.8611 0.0000
vn -0.9265 0.3763 0.0000
vn -0.5084 0.8445 0.1680
vn -0.5085 0.8569 -0.0844
vn -0.5085 0.4059 -0.7594
vn -0.9265 0.2090 -0.3128
vn -0.5084 0.4784 -0.7159
vn -0.5085 -0.4059 -0.7594
vn -0.9265 -0.1440 -0.3476
vn -0.5085 -0.3295 -0.7955
vn -0.5085 -0.8569 -0.0844
vn -0.9265 -0.3690 -0.0734
vn -0.5084 -0.8445 -0.1680
vn -0.5085 -0.5463 0.6656
vn -0.9265 -0.2661 0.2660
vn -0.5085 -0.6089 0.6088
vn -0.5085 0.2499 0.8240
vn -0.9265 0.0734 0.3690
vn -0.5085 0.1679 0.8445
vn -0.5085 0.8240 0.2499
vn -0.9265 0.3476 0.1440
vn -0.5085 0.7955 0.3295
vn -0.5085 0.5463 -0.6656
vn -0.9265 0.2660 -0.2660
vn -0.5085 0.6088 -0.6088
vn -0.5085 -0.2499 -0.8240
vn -0.9265 -0.0734 -0.3690
vn -0.5085 -0.1680 -0.8445
vn -0.5085 -0.8240 -0.2499
vn -0.9265 -0.3476 -0.1440
vn -0.5084 -0.7955 -0.3295
vn -0.5085 -0.6656 0.5462
vn -0.5085 0.0844 0.8569
vn -0.5085 0.7594 0.4059
vn -0.5085 0.6656 -0.5462
vn -0.5085 -0.0844 -0.8569
vn -0.5085 -0.7594 -0.4059
vn -1.0000 0.0000 0.0000
vn 0.0000 -0.1950 0.9808
vn 0.0000 0.5555 0.8315
vn 0.0000 -0.5555 -0.8315
s 1
f 1/1/1 225/2/2 420/3/3
f 1/1/1 162/4/4 419/5/5
f 162/4/4 1/1/1 195/6/6
f 2/7/7 226/8/8 422/9/9
f 2/7/7 164/10/10 421/11/11
f 164/10/10 2/7/7 197/12/12
f 3/13/13 227/14/14 424/15/15
f 3/13/13 166/16/16 423/17/17
f 166/16/16 3/13/13 199/18/18
f 4/19/19 228/20/20 426/21/21
f 4/19/19 168/22/22 425/23/23
f 168/22/22 4/19/19 201/24/24
f 5/25/25 229/26/26 428/27/27
f 5/25/25 170/28/28 427/29/29
f 170/28/28 5/25/25 203/30/30
f 6/31/31 230/32/32 430/33/33
f 6/31/31 172/34/34 429/35/35
f 172/34/34 6/31/31 205/36/36
f 7/37/37 231/38/38 419/5/5
f 7/37/37 174/39/39 431/40/40
f 174/39/39 7/37/37 162/4/4
f 8/41/41 232/42/42 421/11/11
f 8/41/41 175/43/43 432/44/44
f 175/43/43 8/41/41 164/10/10
f 9/45/45 233/46/46 423/17/17
f 9/45/45 176/47/47 433/48/48
f 176/47/47 9/45/45 166/16/16
f 10/49/49 234/50/50 425/23/23
f 10/49/49 177/51/51 434/52/52
f 177/51/51 10/49/49 168/22/22
f 11/53/53 235/54/54 427/29/29
f 11/53/53 178/55/55 435/56/56
f 178/55/55 11/53/53 170/28/28
f 12/57/57 236/58/58 429/35/35
f 12/57/57 179/59/59 436/60/60
f 179/59/59 12/57/57 172/34/34
f 13/61/61 237/62/62 431/40/40
f 13/61/61 180/63/63 437/64/64
f 180/63/63 13/61/61 174/39/39
f 14/65/65 238/66/66 432/44/44
f 14/65/65 181/67/67 438/68/68
f 181/67/67 14/65/65 175/43/43
f 15/69/69 239/70/70 433/48/48
f 15/69/69 182/71/71 439/72/72
f 182/71/71 15/69/69 176/47/47
f 16/73/73 240/74/74 418/75/75
f 16/73/73 183/76/76 440/77/77
f 183/76/76 16/73/73 193/78/78
f 17/79/79 241/80/80 434/52/52
f 17/79/79 193/78/78 418/75/75
f 193/78/78 17/79/79 177/51/51
f 18/81/81 242/82/82 435/56/56
f 18/81/81 184/83/83 441/84/84
f 184/83/83 18/81/81 178/55/55
f 19/85/85 243/86/86 436/60/60
f 19/85/85 185/87/87 442/88/88
f 185/87/87 19/85/85 179/59/59
f 20/89/89 244/90/90 437/64/64
f 20/89/89 186/91/91 443/92/92
f 186/91/91 20/89/89 180/63/63
f 21/93/93 245/94/94 438/68/68
f 21/93/93 187/95/95 444/96/96
f 187/95/95 21/93/93 181/67/67
f 22/97/97 246/98/98 439/72/72
f 22/97/97 188/99/99 445/100/100
f 188/99/99 22/97/97 182/71/71
f 23/101/101 247/102/102 440/77/77
f 23/101/101 189/103/103 446/104/104
f 189/103/103 23/101/101 183/76/76
f 24/105/105 248/106/106 441/84/84
f 24/105/105 190/107/107 447/108/108
f 190/107/107 24/105/105 184/83/83
f 25/109/109 249/110/110 442/88/88
f 25/109/109 191/111/111 448/112/112
f 191/111/111 25/109/109 185/87/87
f 26/113/113 250/114/114 443/92/92
f 26/113/113 192/115/115 449/116/116
f 192/115/115 26/113/113 186/91/91
f 27/117/117 251/118/118 444/96/96
f 27/117/117 195/6/6 420/3/3
f 195/6/6 27/117/117 187/95/95
f 28/119/119 252/120/120 445/100/100
f 28/119/119 197/12/12 422/9/9
f 197/12/12 28/119/119 188/99/99
f 29/121/121 253/122/122 446/104/104
f 29/121/121 199/18/18 424/15/15
f 199/18/18 29/121/121 189/103/103
f 30/123/123 254/124/124 447/108/108
f 30/123/123 201/24/24 426/21/21
f 201/24/24 30/123/123 190/107/107
f 31/125/125 255/126/126 448/112/112
f 31/125/125 203/30/30 428/27/27
f 203/30/30 31/125/125 191/111/111
f 32/127/127 256/128/128 449/116/116
f 32/127/127 205/36/36 430/33/33
f 205/36/36 32/127/127 192/115/115
f 163/129/129 33/130/130 142/131/131
f 142/131/131 33/130/130 194/132/132
f 194/132/132 33/130/130 225/2/2
f 225/2/2 33/130/130 163/129/129
f 165/133/133 34/134/134 137/135/135
f 137/135/135 34/134/134 196/136/136
f 196/136/136 34/134/134 226/8/8
f 226/8/8 34/134/134 165/133/133
f 167/137/137 35/138/138 132/139/139
f 132/139/139 35/138/138 198/140/140
f 198/140/140 35/138/138 227/14/14
f 227/14/14 35/138/138 167/137/137
f 169/141/141 36/142/142 158/143/143
f 158/143/143 36/142/142 200/144/144
f 200/144/144 36/142/142 228/20/20
f 228/20/20 36/142/142 169/141/141
f 171/145/145 37/146/146 153/147/147
f 153/147/147 37/146/146 202/148/148
f 202/148/148 37/146/146 229/26/26
f 229/26/26 37/146/146 171/145/145
f 173/149/149 38/150/150 148/151/151
f 148/151/151 38/150/150 204/152/152
f 204/152/152 38/150/150 230/32/32
f 230/32/32 38/150/150 173/149/149
f 194/132/132 39/153/153 143/154/154
f 143/154/154 39/153/153 206/155/155
f 206/155/155 39/153/153 231/38/38
f 231/38/38 39/153/153 194/132/132
f 196/136/136 40/156/156 138/157/157
f 138/157/157 40/156/156 207/158/158
f 207/158/158 40/156/156 232/42/42
f 232/42/42 40/156/156 196/136/136
f 198/140/140 41/159/159 133/160/160
f 133/160/160 41/159/159 208/161/161
f 208/161/161 41/159/159 233/46/46
f 233/46/46 41/159/159 198/140/140
f 200/144/144 42/162/162 159/163/163
f 159/163/163 42/162/162 209/164/164
f 209/164/164 42/162/162 234/50/50
f 234/50/50 42/162/162 200/144/144
f 202/148/148 43/165/165 154/166/166
f 154/166/166 43/165/165 210/167/167
f 210/167/167 43/165/165 235/54/54
f 235/54/54 43/165/165 202/148/148
f 204/152/152 44/168/168 149/169/169
f 149/169/169 44/168/168 211/170/170
f 211/170/170 44/168/168 236/58/58
f 236/58/58 44/168/168 204/152/152
f 206/155/155 45/171/171 144/172/172
f 144/172/172 45/171/171 212/173/173
f 212/173/173 45/171/171 237/62/62
f 237/62/62 45/171/171 206/155/155
f 207/158/158 46/174/174 139/175/175
f 139/175/175 46/174/174 213/176/176
f 213/176/176 46/174/174 238/66/66
f 238/66/66 46/174/174 207/158/158
f 208/161/161 47/177/177 134/178/178
f 134/178/178 47/177/177 214/179/179
f 214/179/179 47/177/177 239/70/70
f 239/70/70 47/177/177 208/161/161
f 161/180/180 48/181/181 129/182/182
f 129/182/182 48/181/181 215/183/183
f 215/183/183 48/181/181 240/74/74
f 240/74/74 48/181/181 161/180/180
f 209/164/164 49/184/184 160/185/185
f 160/185/185 49/184/184 161/180/180
f 161/180/180 49/184/184 241/80/80
f 241/80/80 49/184/184 209/164/164
f 210/167/167 50/186/186 155/187/187
f 155/187/187 50/186/186 216/188/188
f 216/188/188 50/186/186 242/82/82
f 242/82/82 50/186/186 210/167/167
f 211/170/170 51/189/189 150/190/190
f 150/190/190 51/189/189 217/191/191
f 217/191/191 51/189/189 243/86/86
f 243/86/86 51/189/189 211/170/170
f 212/173/173 52/192/192 145/193/193
f 145/193/193 52/192/192 218/194/194
f 218/194/194 52/192/192 244/90/90
f 244/90/90 52/192/192 212/173/173
f 213/176/176 53/195/195 140/196/196
f 140/196/196 53/195/195 219/197/197
f 219/197/197 53/195/195 245/94/94
f 245/94/94 53/195/195 213/176/176
f 214/179/179 54/198/198 135/199/199
f 135/199/199 54/198/198 220/200/200
f 220/200/200 54/198/198 246/98/98
f 246/98/98 54/198/198 214/179/179
f 215/183/183 55/201/201 130/202/202
f 130/202/202 55/201/201 221/203/203
f 221/203/203 55/201/201 247/102/102
f 247/102/102 55/201/201 215/183/183
f 216/188/188 56/204/204 156/205/205
f 156/205/205 56/204/204 222/206/206
f 222/206/206 56/204/204 248/106/106
f 248/106/106 56/204/204 216/188/188
f 217/191/191 57/207/207 151/208/208
f 151/208/208 57/207/207 223/209/209
f 223/209/209 57/207/207 249/110/110
f 249/110/110 57/207/207 217/191/191
f 218/194/194 58/210/210 146/211/211
f 146/211/211 58/210/210 224/212/212
f 224/212/212 58/210/210 250/114/114
f 250/114/114 58/210/210 218/194/194
f 219/197/197 59/213/213 141/214/214
f 141/214/214 59/213/213 163/129/129
f 163/129/129 59/213/213 251/118/118
f 251/118/118 59/213/213 219/197/197
f 220/200/200 60/215/215 136/216/216
f 136/216/216 60/215/215 165/133/133
f 165/133/133 60/215/215 252/120/120
f 252/120/120 60/215/215 220/200/200
f 221/203/203 61/217/217 131/218/218
f 131/218/218 61/217/217 167/137/137
f 167/137/137 61/217/217 253/122/122
f 253/122/122 61/217/217 221/203/203
f 222/206/206 62/219/219 157/220/220
f 157/220/220 62/219/219 169/141/141
f 169/141/141 62/219/219 254/124/124
f 254/124/124 62/219/219 222/206/206
f 223/209/209 63/221/221 152/222/222
f 152/222/222 63/221/221 171/145/145
f 171/145/145 63/221/221 255/126/126
f 255/126/126 63/221/221 223/209/209
f 224/212/212 64/223/223 147/224/224
f 147/224/224 64/223/223 173/149/149
f 173/149/149 64/223/223 256/128/128
f 256/128/128 64/223/223 224/212/212
f 322/225/225 65/226/226 353/227/226
f 353/227/226 65/226/226 289/228/227
f 289/228/227 65/226/226 270/229/226
f 65/226/226 322/225/225 464/230/225
f 324/231/228 66/232/229 354/233/229
f 354/233/229 66/232/229 291/234/230
f 291/234/230 66/232/229 265/235/229
f 265/235/229 66/232/229 324/231/228
f 67/236/231 355/237/231 487/238/232
f 355/237/231 67/236/231 293/239/233
f 293/239/233 67/236/231 260/240/231
f 260/240/231 67/236/231 326/241/232
f 328/242/234 68/243/235 356/244/235
f 356/244/235 68/243/235 295/245/236
f 295/245/236 68/243/235 286/246/235
f 286/246/235 68/243/235 328/242/234
f 330/247/237 69/248/238 357/249/238
f 357/249/238 69/248/238 297/250/239
f 297/250/239 69/248/238 281/251/238
f 281/251/238 69/248/238 330/247/237
f 70/252/240 358/253/240 493/254/241
f 358/253/240 70/252/240 299/255/242
f 299/255/242 70/252/240 276/256/240
f 70/252/240 332/257/241 470/258/241
f 333/259/243 71/260/244 359/261/244
f 71/260/244 322/225/225 483/262/225
f 322/225/225 71/260/244 271/263/244
f 71/260/244 333/259/243 465/264/243
f 334/265/245 72/266/246 360/267/246
f 360/267/246 72/266/246 324/231/228
f 324/231/228 72/266/246 266/268/246
f 266/268/246 72/266/246 334/265/245
f 335/269/247 73/270/248 361/271/248
f 73/270/248 326/241/232 487/238/232
f 73/270/248 261/272/248 454/273/232
f 261/272/248 73/270/248 335/269/247
f 336/274/249 74/275/250 362/276/250
f 362/276/250 74/275/250 328/242/234
f 328/242/234 74/275/250 287/277/250
f 287/277/250 74/275/250 336/274/249
f 337/278/251 75/279/252 363/280/252
f 363/280/252 75/279/252 330/247/237
f 330/247/237 75/279/252 282/281/252
f 75/279/252 337/278/251 476/282/251
f 338/283/253 76/284/254 364/285/254
f 364/285/254 76/284/254 332/257/241
f 332/257/241 76/284/254 277/286/254
f 277/286/254 76/284/254 338/283/253
f 339/287/255 77/288/256 365/289/256
f 365/289/256 77/288/256 333/259/243
f 333/259/243 77/288/256 272/290/256
f 272/290/256 77/288/256 339/287/255
f 340/291/257 78/292/258 366/293/258
f 366/293/258 78/292/258 334/265/245
f 78/292/258 267/294/258 460/295/245
f 267/294/258 78/292/258 340/291/257
f 341/296/259 79/297/260 367/298/260
f 367/298/260 79/297/260 335/269/247
f 335/269/247 79/297/260 262/299/260
f 79/297/260 341/296/259 456/300/259
f 80/301/261 368/302/261 504/303/262
f 368/302/261 80/301/261 310/304/263
f 310/304/263 80/301/261 257/305/261
f 257/305/261 80/301/261 343/306/262
f 310/304/263 81/307/264 369/308/264
f 369/308/264 81/307/264 336/274/249
f 336/274/249 81/307/264 288/309/264
f 81/307/264 310/304/263 450/310/263
f 344/311/265 82/312/266 370/313/266
f 82/312/266 337/278/251 498/314/251
f 337/278/251 82/312/266 283/315/266
f 82/312/266 344/311/265 477/316/265
f 345/317/267 83/318/268 371/319/268
f 371/319/268 83/318/268 338/283/253
f 338/283/253 83/318/268 278/320/268
f 278/320/268 83/318/268 345/317/267
f 346/321/269 84/322/270 372/323/270
f 372/323/270 84/322/270 339/287/255
f 339/287/255 84/322/270 273/324/270
f 84/322/270 346/321/269 467/325/269
f 347/326/271 85/327/272 373/328/272
f 373/328/272 85/327/272 340/291/257
f 85/327/272 268/329/272 461/330/257
f 268/329/272 85/327/272 347/326/271
f 348/331/273 86/332/274 374/333/274
f 86/332/274 341/296/259 502/334/259
f 341/296/259 86/332/274 263/335/274
f 263/335/274 86/332/274 348/331/273
f 349/336/275 87/337/276 375/338/276
f 375/338/276 87/337/276 343/306/262
f 343/306/262 87/337/276 258/339/276
f 258/339/276 87/337/276 349/336/275
f 88/340/277 376/341/277 511/342/278
f 376/341/277 88/340/277 344/311/265
f 344/311/265 88/340/277 284/343/277
f 284/343/277 88/340/277 350/344/278
f 351/345/279 89/346/280 377/347/280
f 377/347/280 89/346/280 345/317/267
f 345/317/267 89/346/280 279/348/280
f 279/348/280 89/346/280 351/345/279
f 352/349/281 90/350/282 378/351/282
f 90/350/282 346/321/269 507/352/269
f 346/321/269 90/350/282 274/353/282
f 274/353/282 90/350/282 352/349/281
f 289/228/227 91/354/283 379/355/283
f 91/354/283 347/326/271 508/356/271
f 347/326/271 91/354/283 269/357/283
f 269/357/283 91/354/283 289/228/227
f 291/234/230 92/358/284 380/359/284
f 92/358/284 348/331/273 509/360/273
f 348/331/273 92/358/284 264/361/284
f 92/358/284 291/234/230 458/362/230
f 293/239/233 93/363/285 381/364/285
f 381/364/285 93/363/285 349/336/275
f 349/336/275 93/363/285 259/365/285
f 259/365/285 93/363/285 293/239/233
f 295/245/236 94/366/286 382/367/286
f 382/367/286 94/366/286 350/344/278
f 94/366/286 285/368/286 478/369/278
f 285/368/286 94/366/286 295/245/236
f 297/250/239 95/370/287 383/371/287
f 95/370/287 351/345/279 512/372/279
f 95/370/287 280/373/287 473/374/279
f 280/373/287 95/370/287 297/250/239
f 299/255/242 96/375/288 384/376/288
f 96/375/288 352/349/281 513/377/281
f 352/349/281 96/375/288 275/378/288
f 275/378/288 96/375/288 299/255/242
f 97/379/289 142/131/131 399/380/290
f 97/379/289 321/381/291 398/382/292
f 321/381/291 97/379/289 353/227/226
f 353/227/226 97/379/289 290/383/293
f 98/384/294 137/135/135 394/385/295
f 98/384/294 323/386/296 393/387/297
f 323/386/296 98/384/294 354/233/229
f 354/233/229 98/384/294 292/388/298
f 99/389/299 132/139/139 389/390/300
f 99/389/299 325/391/301 388/392/302
f 325/391/301 99/389/299 355/237/231
f 355/237/231 99/389/299 294/393/303
f 100/394/304 158/143/143 415/395/305
f 100/394/304 327/396/306 414/397/307
f 327/396/306 100/394/304 356/244/235
f 356/244/235 100/394/304 296/398/308
f 101/399/309 153/147/147 410/400/310
f 101/399/309 329/401/311 409/402/312
f 329/401/311 101/399/309 357/249/238
f 357/249/238 101/399/309 298/403/313
f 102/404/314 148/151/151 405/405/315
f 102/404/314 331/406/316 404/407/317
f 331/406/316 102/404/314 358/253/240
f 102/404/314 300/408/318 493/254/241
f 103/409/319 143/154/154 400/410/320
f 103/409/319 290/383/293 399/380/290
f 103/409/319 359/261/244 483/262/225
f 359/261/244 103/409/319 301/411/321
f 104/412/322 138/157/157 395/413/323
f 104/412/322 292/388/298 394/385/295
f 292/388/298 104/412/322 360/267/246
f 360/267/246 104/412/322 302/414/324
f 105/415/325 133/160/160 390/416/326
f 105/415/325 294/393/303 389/417/300
f 294/393/303 105/415/325 361/271/248
f 361/271/248 105/415/325 303/418/327
f 106/419/328 159/163/163 416/420/329
f 106/419/328 296/398/308 415/395/305
f 296/398/308 106/419/328 362/276/250
f 362/276/250 106/419/328 304/421/330
f 107/422/331 154/166/166 411/423/332
f 107/422/331 298/403/313 410/400/310
f 298/403/313 107/422/331 363/280/252
f 363/280/252 107/422/331 305/424/333
f 108/425/334 149/169/169 406/426/335
f 108/425/334 300/408/318 405/427/315
f 300/408/318 108/425/334 364/285/254
f 364/285/254 108/425/334 306/428/336
f 109/429/337 144/172/172 401/430/338
f 109/429/337 301/411/321 400/410/320
f 301/411/321 109/429/337 365/289/256
f 365/289/256 109/429/337 307/431/339
f 110/432/340 139/175/175 396/433/341
f 110/432/340 302/414/324 395/413/323
f 302/414/324 110/432/340 366/293/258
f 366/293/258 110/432/340 308/434/342
f 111/435/343 134/178/178 391/436/344
f 111/435/343 303/418/327 390/416/326
f 303/418/327 111/435/343 367/298/260
f 367/298/260 111/435/343 309/437/345
f 112/438/346 129/182/182 386/439/347
f 112/438/346 342/440/348 385/441/349
f 342/440/348 112/438/346 368/302/261
f 368/302/261 112/438/346 311/442/350
f 113/443/351 160/185/185 385/441/349
f 113/443/351 304/421/330 416/420/329
f 113/443/351 369/308/264 497/444/249
f 369/308/264 113/443/351 342/440/348
f 114/445/352 155/187/187 412/446/353
f 114/445/352 305/424/333 411/423/332
f 114/445/352 370/313/266 498/314/251
f 114/445/352 312/447/354 505/448/265
f 115/449/355 150/190/190 407/450/356
f 115/449/355 306/428/336 406/426/335
f 306/428/336 115/449/355 371/319/268
f 371/319/268 115/449/355 313/451/357
f 116/452/358 145/193/193 402/453/359
f 116/452/358 307/431/339 401/430/338
f 307/431/339 116/452/358 372/323/270
f 372/323/270 116/452/358 314/454/360
f 117/455/361 140/196/196 397/456/362
f 117/455/361 308/434/342 396/433/341
f 308/434/342 117/455/361 373/328/272
f 373/328/272 117/455/361 315/457/363
f 118/458/364 135/199/199 392/459/365
f 118/458/364 309/437/345 391/436/344
f 118/458/364 374/333/274 502/334/259
f 374/333/274 118/458/364 316/460/366
f 119/461/367 130/202/202 387/462/368
f 119/461/367 311/442/350 386/439/347
f 311/442/350 119/461/367 375/338/276
f 375/338/276 119/461/367 317/463/369
f 120/464/370 156/205/205 413/465/371
f 120/464/370 312/447/354 412/446/353
f 312/447/354 120/464/370 376/341/277
f 120/464/370 318/466/372 511/342/278
f 121/467/373 151/208/208 408/468/374
f 121/467/373 313/451/357 407/450/356
f 313/451/357 121/467/373 377/347/280
f 377/347/280 121/467/373 319/469/375
f 122/470/376 146/211/211 403/471/377
f 122/470/376 314/454/360 402/453/359
f 122/470/376 378/351/282 507/352/269
f 378/351/282 122/470/376 320/472/378
f 123/473/379 141/214/214 398/382/292
f 123/473/379 315/457/363 397/456/362
f 315/457/363 123/473/379 379/355/283
f 379/355/283 123/473/379 321/381/291
f 124/474/380 136/216/216 393/387/297
f 124/474/380 316/460/366 392/459/365
f 316/460/366 124/474/380 380/359/284
f 380/359/284 124/474/380 323/386/296
f 125/475/381 131/218/218 388/392/302
f 125/475/381 317/463/369 387/462/368
f 317/463/369 125/475/381 381/364/285
f 381/364/285 125/475/381 325/391/301
f 126/476/382 157/220/220 414/397/307
f 126/476/382 318/466/372 413/465/371
f 318/466/372 126/476/382 382/367/286
f 382/367/286 126/476/382 327/396/306
f 127/477/383 152/222/222 409/402/312
f 127/477/383 319/469/375 408/468/374
f 127/477/383 383/371/287 512/372/279
f 383/371/287 127/477/383 329/401/311
f 128/478/384 147/224/224 404/407/317
f 128/478/384 320/472/378 403/471/377
f 320/472/378 128/478/384 384/376/288
f 384/376/288 128/478/384 331/406/316
f 1/1/1 420/3/3 195/6/6
f 1/1/1 419/5/5 225/2/2
f 162/4/4 195/6/6 417/479/385
f 2/7/7 422/9/9 197/12/12
f 2/7/7 421/11/11 226/8/8
f 164/10/10 197/12/12 417/479/385
f 3/13/13 424/15/15 199/18/18
f 3/13/13 423/17/17 227/14/14
f 166/16/16 199/18/18 417/479/385
f 4/19/19 426/21/21 201/24/24
f 4/19/19 425/23/23 228/20/20
f 168/22/22 201/24/24 417/479/385
f 5/25/25 428/27/27 203/30/30
f 5/25/25 427/29/29 229/26/26
f 170/28/28 203/30/30 417/479/385
f 6/31/31 430/33/33 205/36/36
f 6/31/31 429/35/35 230/32/32
f 172/34/34 205/36/36 417/479/385
f 7/37/37 419/5/5 162/4/4
f 7/37/37 431/40/40 231/38/38
f 174/39/39 162/4/4 417/479/385
f 8/41/41 421/11/11 164/10/10
f 8/41/41 432/44/44 232/42/42
f 175/43/43 164/10/10 417/479/385
f 9/45/45 423/17/17 166/16/16
f 9/45/45 433/48/48 233/46/46
f 176/47/47 166/16/16 417/479/385
f 10/49/49 425/23/23 168/22/22
f 10/49/49 434/52/52 234/50/50
f 177/51/51 168/22/22 417/479/385
f 11/53/53 427/29/29 170/28/28
f 11/53/53 435/56/56 235/54/54
f 178/55/55 170/28/28 417/479/385
f 12/57/57 429/35/35 172/34/34
f 12/57/57 436/60/60 236/58/58
f 179/59/59 172/34/34 417/479/385
f 13/61/61 431/40/40 174/39/39
f 13/61/61 437/64/64 237/62/62
f 180/63/63 174/39/39 417/479/385
f 14/65/65 432/44/44 175/43/43
f 14/65/65 438/68/68 238/66/66
f 181/67/67 175/43/43 417/479/385
f 15/69/69 433/48/48 176/47/47
f 15/69/69 439/72/72 239/70/70
f 182/71/71 176/47/47 417/479/385
f 16/73/73 418/75/75 193/78/78
f 16/73/73 440/77/77 240/74/74
f 183/76/76 193/78/78 417/479/385
f 17/79/79 434/52/52 177/51/51
f 17/79/79 418/75/75 241/80/80
f 193/78/78 177/51/51 417/479/385
f 18/81/81 435/56/56 178/55/55
f 18/81/81 441/84/84 242/82/82
f 184/83/83 178/55/55 417/479/385
f 19/85/85 436/60/60 179/59/59
f 19/85/85 442/88/88 243/86/86
f 185/87/87 179/59/59 417/479/385
f 20/89/89 437/64/64 180/63/63
f 20/89/89 443/92/92 244/90/90
f 186/91/91 180/63/63 417/479/385
f 21/93/93 438/68/68 181/67/67
f 21/93/93 444/96/96 245/94/94
f 187/95/95 181/67/67 417/479/385
f 22/97/97 439/72/72 182/71/71
f 22/97/97 445/100/100 246/98/98
f 188/99/99 182/71/71 417/479/385
f 23/101/101 440/77/77 183/76/76
f 23/101/101 446/104/104 247/102/102
f 189/103/103 183/76/76 417/479/385
f 24/105/105 441/84/84 184/83/83
f 24/105/105 447/108/108 248/106/106
f 190/107/107 184/83/83 417/479/385
f 25/109/109 442/88/88 185/87/87
f 25/109/109 448/112/112 249/110/110
f 191/111/111 185/87/87 417/479/385
f 26/113/113 443/92/92 186/91/91
f 26/113/113 449/116/116 250/114/114
f 192/115/115 186/91/91 417/479/385
f 27/117/117 444/96/96 187/95/95
f 27/117/117 420/3/3 251/118/118
f 195/6/6 187/95/95 417/479/385
f 28/119/119 445/100/100 188/99/99
f 28/119/119 422/9/9 252/120/120
f 197/12/12 188/99/99 417/479/385
f 29/121/121 446/104/104 189/103/103
f 29/121/121 424/15/15 253/122/122
f 199/18/18 189/103/103 417/479/385
f 30/123/123 447/108/108 190/107/107
f 30/123/123 426/21/21 254/124/124
f 201/24/24 190/107/107 417/479/385
f 31/125/125 448/112/112 191/111/111
f 31/125/125 428/27/27 255/126/126
f 203/30/30 191/111/111 417/479/385
f 32/127/127 449/116/116 192/115/115
f 32/127/127 430/33/33 256/128/128
f 205/36/36 192/115/115 417/479/385
f 163/129/129 142/131/131 398/382/292
f 142/131/131 194/132/132 399/380/290
f 194/132/132 225/2/2 419/5/5
f 225/2/2 163/129/129 420/3/3
f 165/133/133 137/135/135 393/387/297
f 137/135/135 196/136/136 394/385/295
f 196/136/136 226/8/8 421/11/11
f 226/8/8 165/133/133 422/9/9
f 167/137/137 132/139/139 388/392/302
f 132/139/139 198/140/140 389/417/300
f 198/140/140 227/14/14 423/17/17
f 227/14/14 167/137/137 424/15/15
f 169/141/141 158/143/143 414/397/307
f 158/143/143 200/144/144 415/395/305
f 200/144/144 228/20/20 425/23/23
f 228/20/20 169/141/141 426/21/21
f 171/145/145 153/147/147 409/402/312
f 153/147/147 202/148/148 410/400/310
f 202/148/148 229/26/26 427/29/29
f 229/26/26 171/145/145 428/27/27
f 173/149/149 148/151/151 404/407/317
f 148/151/151 204/152/152 405/405/315
f 204/152/152 230/32/32 429/35/35
f 230/32/32 173/149/149 430/33/33
f 194/132/132 143/154/154 399/380/290
f 143/154/154 206/155/155 400/410/320
f 206/155/155 231/38/38 431/40/40
f 231/38/38 194/132/132 419/5/5
f 196/136/136 138/157/157 394/385/295
f 138/157/157 207/158/158 395/413/323
f 207/158/158 232/42/42 432/44/44
f 232/42/42 196/136/136 421/11/11
f 198/140/140 133/160/160 389/417/300
f 133/160/160 208/161/161 390/416/326
f 208/161/161 233/46/46 433/48/48
f 233/46/46 198/140/140 423/17/17
f 200/144/144 159/163/163 415/395/305
f 159/163/163 209/164/164 416/420/329
f 209/164/164 234/50/50 434/52/52
f 234/50/50 200/144/144 425/23/23
f 202/148/148 154/166/166 410/400/310
f 154/166/166 210/167/167 411/423/332
f 210/167/167 235/54/54 435/56/56
f 235/54/54 202/148/148 427/29/29
f 204/152/152 149/169/169 405/405/315
f 149/169/169 211/170/170 406/426/335
f 211/170/170 236/58/58 436/60/60
f 236/58/58 204/152/152 429/35/35
f 206/155/155 144/172/172 400/410/320
f 144/172/172 212/173/173 401/430/338
f 212/173/173 237/62/62 437/64/64
f 237/62/62 206/155/155 431/40/40
f 207/158/158 139/175/175 395/413/323
f 139/175/175 213/176/176 396/433/341
f 213/176/176 238/66/66 438/68/68
f 238/66/66 207/158/158 432/44/44
f 208/161/161 134/178/178 390/416/326
f 134/178/178 214/179/179 391/436/344
f 214/179/179 239/70/70 439/72/72
f 239/70/70 208/161/161 433/48/48
f 161/180/180 129/182/182 385/441/349
f 129/182/182 215/183/183 386/439/347
f 215/183/183 240/74/74 440/77/77
f 240/74/74 161/180/180 418/75/75
f 209/164/164 160/185/185 416/420/329
f 160/185/185 161/180/180 385/441/349
f 161/180/180 241/80/80 418/75/75
f 241/80/80 209/164/164 434/52/52
f 210/167/167 155/187/187 411/423/332
f 155/187/187 216/188/188 412/446/353
f 216/188/188 242/82/82 441/84/84
f 242/82/82 210/167/167 435/56/56
f 211/170/170 150/190/190 406/426/335
f 150/190/190 217/191/191 407/450/356
f 217/191/191 243/86/86 442/88/88
f 243/86/86 211/170/170 436/60/60
f 212/173/173 145/193/193 401/430/338
f 145/193/193 218/194/194 402/453/359
f 218/194/194 244/90/90 443/92/92
f 244/90/90 212/173/173 437/64/64
f 213/176/176 140/196/196 396/433/341
f 140/196/196 219/197/197 397/456/362
f 219/197/197 245/94/94 444/96/96
f 245/94/94 213/176/176 438/68/68
f 214/179/179 135/199/199 391/436/344
f 135/199/199 220/200/200 392/459/365
f 220/200/200 246/98/98 445/100/100
f 246/98/98 214/179/179 439/72/72
f 215/183/183 130/202/202 386/439/347
f 130/202/202 221/203/203 387/462/368
f 221/203/203 247/102/102 446/104/104
f 247/102/102 215/183/183 440/77/77
f 216/188/188 156/205/205 412/446/353
f 156/205/205 222/206/206 413/465/371
f 222/206/206 248/106/106 447/108/108
f 248/106/106 216/188/188 441/84/84
f 217/191/191 151/208/208 407/450/356
f 151/208/208 223/209/209 408/468/374
f 223/209/209 249/110/110 448/112/112
f 249/110/110 217/191/191 442/88/88
f 218/194/194 146/211/211 402/453/359
f 146/211/211 224/212/212 403/471/377
f 224/212/212 250/114/114 449/116/116
f 250/114/114 218/194/194 443/92/92
f 219/197/197 141/214/214 397/456/362
f 141/214/214 163/129/129 398/382/292
f 163/129/129 251/118/118 420/3/3
f 251/118/118 219/197/197 444/96/96
f 220/200/200 136/216/216 392/459/365
f 136/216/216 165/133/133 393/387/297
f 165/133/133 252/120/120 422/9/9
f 252/120/120 220/200/200 445/100/100
f 221/203/203 131/218/218 387/462/368
f 131/218/218 167/137/137 388/392/302
f 167/137/137 253/122/122 424/15/15
f 253/122/122 221/203/203 446/104/104
f 222/206/206 157/220/220 413/465/371
f 157/220/220 169/141/141 414/397/307
f 169/141/141 254/124/124 426/21/21
f 254/124/124 222/206/206 447/108/108
f 223/209/209 152/222/222 408/468/374
f 152/222/222 171/145/145 409/402/312
f 171/145/145 255/126/126 428/27/27
f 255/126/126 223/209/209 448/112/112
f 224/212/212 147/224/224 403/471/377
f 147/224/224 173/149/149 404/407/317
f 173/149/149 256/128/128 430/33/33
f 256/128/128 224/212/212 449/116/116
f 322/225/225 353/227/226 483/262/225
f 353/227/226 289/228/227 482/480/227
f 289/228/227 270/229/226 463/481/227
f 65/226/226 464/230/225 270/229/226
f 324/231/228 354/233/229 485/482/228
f 354/233/229 291/234/230 484/483/230
f 291/234/230 265/235/229 458/362/230
f 265/235/229 324/231/228 459/484/386
f 67/236/231 487/238/232 326/241/232
f 355/237/231 293/239/233 486/485/233
f 293/239/233 260/240/231 453/486/233
f 260/240/231 326/241/232 454/273/232
f 328/242/234 356/244/235 489/487/234
f 356/244/235 295/245/236 488/488/236
f 295/245/236 286/246/235 479/489/236
f 286/246/235 328/242/234 480/490/234
f 330/247/237 357/249/238 491/491/237
f 357/249/238 297/250/239 490/492/239
f 297/250/239 281/251/238 474/493/239
f 281/251/238 330/247/237 475/494/237
f 70/252/240 493/254/241 332/257/241
f 358/253/240 299/255/242 492/495/242
f 299/255/242 276/256/240 469/496/242
f 70/252/240 470/258/241 276/256/240
f 333/259/243 359/261/244 494/497/243
f 71/260/244 483/262/225 359/261/244
f 322/225/225 271/263/244 464/230/225
f 71/260/244 465/264/243 271/263/244
f 334/265/245 360/267/246 495/498/245
f 360/267/246 324/231/228 485/482/228
f 324/231/228 266/268/246 459/484/386
f 266/268/246 334/265/245 460/295/245
f 335/269/247 361/271/248 496/499/387
f 73/270/248 487/238/232 361/271/248
f 73/270/248 454/273/232 326/241/232
f 261/272/248 335/269/247 455/500/387
f 336/274/249 362/276/250 497/444/249
f 362/276/250 328/242/234 489/487/234
f 328/242/234 287/277/250 480/490/234
f 287/277/250 336/274/249 481/501/249
f 337/278/251 363/280/252 498/314/251
f 363/280/252 330/247/237 491/491/237
f 330/247/237 282/281/252 475/494/237
f 75/279/252 476/282/251 282/281/252
f 338/283/253 364/285/254 499/502/388
f 364/285/254 332/257/241 493/254/241
f 332/257/241 277/286/254 470/258/241
f 277/286/254 338/283/253 471/503/388
f 339/287/255 365/289/256 500/504/255
f 365/289/256 333/259/243 494/497/243
f 333/259/243 272/290/256 465/264/243
f 272/290/256 339/287/255 466/505/255
f 340/291/257 366/293/258 501/506/257
f 366/293/258 334/265/245 495/498/245
f 78/292/258 460/295/245 334/265/245
f 267/294/258 340/291/257 461/330/257
f 341/296/259 367/298/260 502/334/259
f 367/298/260 335/269/247 496/499/387
f 335/269/247 262/299/260 455/500/387
f 79/297/260 456/300/259 262/299/260
f 80/301/261 504/303/262 343/306/262
f 368/302/261 310/304/263 503/507/263
f 310/304/263 257/305/261 450/310/263
f 257/305/261 343/306/262 451/508/262
f 310/304/263 369/308/264 503/507/263
f 369/308/264 336/274/249 497/444/249
f 336/274/249 288/309/264 481/501/249
f 81/307/264 450/310/263 288/309/264
f 344/311/265 370/313/266 505/448/265
f 82/312/266 498/314/251 370/313/266
f 337/278/251 283/315/266 476/282/251
f 82/312/266 477/316/265 283/315/266
f 345/317/267 371/319/268 506/509/267
f 371/319/268 338/283/253 499/502/388
f 338/283/253 278/320/268 471/503/388
f 278/320/268 345/317/267 472/510/267
f 346/321/269 372/323/270 507/352/269
f 372/323/270 339/287/255 500/504/255
f 339/287/255 273/324/270 466/505/255
f 84/322/270 467/325/269 273/324/270
f 347/326/271 373/328/272 508/356/271
f 373/328/272 340/291/257 501/506/257
f 85/327/272 461/330/257 340/291/257
f 268/329/272 347/326/271 462/511/271
f 348/331/273 374/333/274 509/360/273
f 86/332/274 502/334/259 374/333/274
f 341/296/259 263/335/274 456/300/259
f 263/335/274 348/331/273 457/512/273
f 349/336/275 375/338/276 510/513/275
f 375/338/276 343/306/262 504/303/262
f 343/306/262 258/339/276 451/508/262
f 258/339/276 349/336/275 452/514/275
f 88/340/277 511/342/278 350/344/278
f 376/341/277 344/311/265 505/448/265
f 344/311/265 284/343/277 477/316/265
f 284/343/277 350/344/278 478/369/278
f 351/345/279 377/347/280 512/372/279
f 377/347/280 345/317/267 506/509/267
f 345/317/267 279/348/280 472/510/267
f 279/348/280 351/345/279 473/374/279
f 352/349/281 378/351/282 513/377/281
f 90/350/282 507/352/269 378/351/282
f 346/321/269 274/353/282 467/325/269
f 274/353/282 352/349/281 468/515/281
f 289/228/227 379/355/283 482/480/227
f 91/354/283 508/356/271 379/355/283
f 347/326/271 269/357/283 462/511/271
f 269/357/283 289/228/227 463/481/227
f 291/234/230 380/359/284 484/483/230
f 92/358/284 509/360/273 380/359/284
f 348/331/273 264/361/284 457/512/273
f 92/358/284 458/362/230 264/361/284
f 293/239/233 381/364/285 486/485/233
f 381/364/285 349/336/275 510/513/275
f 349/336/275 259/365/285 452/514/275
f 259/365/285 293/239/233 453/486/233
f 295/245/236 382/367/286 488/488/236
f 382/367/286 350/344/278 511/342/278
f 94/366/286 478/369/278 350/344/278
f 285/368/286 295/245/236 479/489/236
f 297/250/239 383/371/287 490/492/239
f 95/370/287 512/372/279 383/371/287
f 95/370/287 473/374/279 351/345/279
f 280/373/287 297/250/239 474/493/239
f 299/255/242 384/376/288 492/495/242
f 96/375/288 513/377/281 384/376/288
f 352/349/281 275/378/288 468/515/281
f 275/378/288 299/255/242 469/496/242
f 97/379/289 399/380/290 290/383/293
f 97/379/289 398/382/292 142/131/131
f 321/381/291 353/227/226 482/480/227
f 353/227/226 290/383/293 483/262/225
f 98/384/294 394/385/295 292/388/298
f 98/384/294 393/387/297 137/135/135
f 323/386/296 354/233/229 484/483/230
f 354/233/229 292/388/298 485/482/228
f 99/389/299 389/390/300 294/393/303
f 99/389/299 388/392/302 132/139/139
f 325/391/301 355/237/231 486/485/233
f 355/237/231 294/393/303 487/238/232
f 100/394/304 415/395/305 296/398/308
f 100/394/304 414/397/307 158/143/143
f 327/396/306 356/244/235 488/488/236
f 356/244/235 296/398/308 489/487/234
f 101/399/309 410/400/310 298/403/313
f 101/399/309 409/402/312 153/147/147
f 329/401/311 357/249/238 490/492/239
f 357/249/238 298/403/313 491/491/237
f 102/404/314 405/405/315 300/408/318
f 102/404/314 404/407/317 148/151/151
f 331/406/316 358/253/240 492/495/242
f 102/404/314 493/254/241 358/253/240
f 103/409/319 400/410/320 301/411/321
f 103/409/319 399/380/290 143/154/154
f 103/409/319 483/262/225 290/383/293
f 359/261/244 301/411/321 494/497/243
f 104/412/322 395/413/323 302/414/324
f 104/412/322 394/385/295 138/157/157
f 292/388/298 360/267/246 485/482/228
f 360/267/246 302/414/324 495/498/245
f 105/415/325 390/416/326 303/418/327
f 105/415/325 389/417/300 133/160/160
f 294/393/303 361/271/248 487/238/232
f 361/271/248 303/418/327 496/499/387
f 106/419/328 416/420/329 304/421/330
f 106/419/328 415/395/305 159/163/163
f 296/398/308 362/276/250 489/487/234
f 362/276/250 304/421/330 497/444/249
f 107/422/331 411/423/332 305/424/333
f 107/422/331 410/400/310 154/166/166
f 298/403/313 363/280/252 491/491/237
f 363/280/252 305/424/333 498/314/251
f 108/425/334 406/426/335 306/428/336
f 108/425/334 405/427/315 149/169/169
f 300/408/318 364/285/254 493/254/241
f 364/285/254 306/428/336 499/502/388
f 109/429/337 401/430/338 307/431/339
f 109/429/337 400/410/320 144/172/172
f 301/411/321 365/289/256 494/497/243
f 365/289/256 307/431/339 500/504/255
f 110/432/340 396/433/341 308/434/342
f 110/432/340 395/413/323 139/175/175
f 302/414/324 366/293/258 495/498/245
f 366/293/258 308/434/342 501/506/257
f 111/435/343 391/436/344 309/437/345
f 111/435/343 390/416/326 134/178/178
f 303/418/327 367/298/260 496/499/387
f 367/298/260 309/437/345 502/334/259
f 112/438/346 386/439/347 311/442/350
f 112/438/346 385/441/349 129/182/182
f 342/440/348 368/302/261 503/507/263
f 368/302/261 311/442/350 504/303/262
f 113/443/351 385/441/349 342/440/348
f 113/443/351 416/420/329 160/185/185
f 113/443/351 497/444/249 304/421/330
f 369/308/264 342/440/348 503/507/263
f 114/445/352 412/446/353 312/447/354
f 114/445/352 411/423/332 155/187/187
f 114/445/352 498/314/251 305/424/333
f 114/445/352 505/448/265 370/313/266
f 115/449/355 407/450/356 313/451/357
f 115/449/355 406/426/335 150/190/190
f 306/428/336 371/319/268 499/502/388
f 371/319/268 313/451/357 506/509/267
f 116/452/358 402/453/359 314/454/360
f 116/452/358 401/430/338 145/193/193
f 307/431/339 372/323/270 500/504/255
f 372/323/270 314/454/360 507/352/269
f 117/455/361 397/456/362 315/457/363
f 117/455/361 396/433/341 140/196/196
f 308/434/342 373/328/272 501/506/257
f 373/328/272 315/457/363 508/356/271
f 118/458/364 392/459/365 316/460/366
f 118/458/364 391/436/344 135/199/199
f 118/458/364 502/334/259 309/437/345
f 374/333/274 316/460/366 509/360/273
f 119/461/367 387/462/368 317/463/369
f 119/461/367 386/439/347 130/202/202
f 311/442/350 375/338/276 504/303/262
f 375/338/276 317/463/369 510/513/275
f 120/464/370 413/465/371 318/466/372
f 120/464/370 412/446/353 156/205/205
f 312/447/354 376/341/277 505/448/265
f 120/464/370 511/342/278 376/341/277
f 121/467/373 408/468/374 319/469/375
f 121/467/373 407/450/356 151/208/208
f 313/451/357 377/347/280 506/509/267
f 377/347/280 319/469/375 512/372/279
f 122/470/376 403/471/377 320/472/378
f 122/470/376 402/453/359 146/211/211
f 122/470/376 507/352/269 314/454/360
f 378/351/282 320/472/378 513/377/281
f 123/473/379 398/382/292 321/381/291
f 123/473/379 397/456/362 141/214/214
f 315/457/363 379/355/283 508/356/271
f 379/355/283 321/381/291 482/480/227
f 124/474/380 393/387/297 323/386/296
f 124/474/380 392/459/365 136/216/216
f 316/460/366 380/359/284 509/360/273
f 380/359/284 323/386/296 484/483/230
f 125/475/381 388/392/302 325/391/301
f 125/475/381 387/462/368 131/218/218
f 317/463/369 381/364/285 510/513/275
f 381/364/285 325/391/301 486/485/233
f 126/476/382 414/397/307 327/396/306
f 126/476/382 413/465/371 157/220/220
f 318/466/372 382/367/286 511/342/278
f 382/367/286 327/396/306 488/488/236
f 127/477/383 409/402/312 329/401/311
f 127/477/383 408/468/374 152/222/222
f 127/477/383 512/372/279 319/469/375
f 383/371/287 329/401/311 490/492/239
f 128/478/384 404/407/317 331/406/316
f 128/478/384 403/471/377 147/224/224
f 320/472/378 384/376/288 513/377/281
f 384/376/288 331/406/316 492/495/242
