# Blender v2.79 (sub 0) OBJ File: 'm3.blend'
# www.blender.org
o Rim_Nuts_LR_Cylinder.018
v 1.604627 -0.731204 -2.662488
v 1.641400 -0.731204 -2.662488
v 1.604627 -0.747127 -2.653295
v 1.641400 -0.747127 -2.653295
v 1.604627 -0.747127 -2.634909
v 1.641400 -0.747127 -2.634909
v 1.604627 -0.731204 -2.625716
v 1.641400 -0.731204 -2.625716
v 1.604627 -0.715281 -2.634909
v 1.641400 -0.715281 -2.634909
v 1.604627 -0.715281 -2.653295
v 1.641400 -0.715281 -2.653295
v 1.641400 -0.731204 -2.656706
v 1.641400 -0.742120 -2.650404
v 1.641400 -0.742120 -2.637800
v 1.641400 -0.731204 -2.631498
v 1.641400 -0.720288 -2.637800
v 1.641400 -0.720288 -2.650404
v 1.621890 -0.731204 -2.656706
v 1.621890 -0.742120 -2.650404
v 1.621890 -0.742120 -2.637800
v 1.621890 -0.731204 -2.631498
v 1.621890 -0.720288 -2.637800
v 1.621890 -0.720288 -2.650404
v 1.621890 -0.731204 -2.644102
v 1.604627 -0.821189 -2.715807
v 1.641400 -0.821189 -2.715807
v 1.604627 -0.823938 -2.697628
v 1.641400 -0.823938 -2.697628
v 1.604627 -0.809569 -2.686157
v 1.641400 -0.809569 -2.686157
v 1.604627 -0.792451 -2.692865
v 1.641400 -0.792451 -2.692865
v 1.604627 -0.789701 -2.711045
v 1.641400 -0.789701 -2.711045
v 1.604627 -0.804070 -2.722516
v 1.641400 -0.804070 -2.722516
v 1.641400 -0.816670 -2.712200
v 1.641400 -0.818555 -2.699737
v 1.641400 -0.808704 -2.691874
v 1.641400 -0.796969 -2.696473
v 1.641400 -0.795084 -2.708935
v 1.641400 -0.804935 -2.716799
v 1.621890 -0.816670 -2.712200
v 1.621890 -0.818555 -2.699737
v 1.621890 -0.808704 -2.691874
v 1.621890 -0.796969 -2.696473
v 1.621890 -0.795084 -2.708935
v 1.621890 -0.804935 -2.716799
v 1.621890 -0.806820 -2.704336
v 1.604627 -0.918998 -2.678746
v 1.641400 -0.918998 -2.678746
v 1.604627 -0.906506 -2.665256
v 1.641400 -0.906506 -2.665256
v 1.604627 -0.888577 -2.669329
v 1.641400 -0.888577 -2.669329
v 1.604627 -0.883140 -2.686893
v 1.641400 -0.883140 -2.686893
v 1.604627 -0.895632 -2.700383
v 1.641400 -0.895632 -2.700383
v 1.604627 -0.913561 -2.696310
v 1.641400 -0.913561 -2.696310
v 1.641400 -0.913360 -2.680027
v 1.641400 -0.904796 -2.670779
v 1.641400 -0.892505 -2.673571
v 1.641400 -0.888778 -2.685612
v 1.641400 -0.897342 -2.694860
v 1.641400 -0.909633 -2.692067
v 1.621890 -0.913360 -2.680027
v 1.621890 -0.904796 -2.670779
v 1.621890 -0.892505 -2.673571
v 1.621890 -0.888778 -2.685612
v 1.621890 -0.897342 -2.694860
v 1.621890 -0.909633 -2.692067
v 1.621890 -0.901069 -2.682819
v 1.604627 -0.951055 -2.579185
v 1.641400 -0.951055 -2.579185
v 1.604627 -0.932719 -2.580531
v 1.641400 -0.932719 -2.580531
v 1.604627 -0.924716 -2.597085
v 1.641400 -0.924716 -2.597085
v 1.604627 -0.935051 -2.612291
v 1.641400 -0.935051 -2.612291
v 1.604627 -0.953388 -2.610945
v 1.641400 -0.953388 -2.610945
v 1.604627 -0.961390 -2.594391
v 1.641400 -0.961390 -2.594391
v 1.641400 -0.948539 -2.584390
v 1.641400 -0.935968 -2.585313
v 1.641400 -0.930483 -2.596661
v 1.641400 -0.937567 -2.607086
v 1.641400 -0.950138 -2.606163
v 1.641400 -0.955624 -2.594815
v 1.621890 -0.948539 -2.584390
v 1.621890 -0.935968 -2.585313
v 1.621890 -0.930483 -2.596661
v 1.621890 -0.937567 -2.607086
v 1.621890 -0.950138 -2.606163
v 1.621890 -0.955624 -2.594815
v 1.621890 -0.943053 -2.595738
v 1.604627 -0.893246 -2.492017
v 1.641400 -0.893246 -2.492017
v 1.604627 -0.882858 -2.507187
v 1.641400 -0.882858 -2.507187
v 1.604627 -0.890803 -2.523769
v 1.641400 -0.890803 -2.523769
v 1.604627 -0.909135 -2.525179
v 1.641400 -0.909135 -2.525179
v 1.604627 -0.919522 -2.510009
v 1.641400 -0.919522 -2.510009
v 1.604627 -0.911578 -2.493427
v 1.641400 -0.911578 -2.493427
v 1.641400 -0.895744 -2.497231
v 1.641400 -0.888623 -2.507631
v 1.641400 -0.894069 -2.518998
v 1.641400 -0.906636 -2.519965
v 1.641400 -0.913757 -2.509565
v 1.641400 -0.908311 -2.498198
v 1.621890 -0.895744 -2.497231
v 1.621890 -0.888623 -2.507631
v 1.621890 -0.894069 -2.518998
v 1.621890 -0.906636 -2.519965
v 1.621890 -0.913757 -2.509565
v 1.621890 -0.908311 -2.498198
v 1.621890 -0.901190 -2.508598
v 1.604627 -0.789056 -2.482814
v 1.641400 -0.789056 -2.482814
v 1.604627 -0.794432 -2.500397
v 1.641400 -0.794432 -2.500397
v 1.604627 -0.812347 -2.504533
v 1.641400 -0.812347 -2.504533
v 1.604627 -0.824886 -2.491086
v 1.641400 -0.824886 -2.491086
v 1.604627 -0.819511 -2.473503
v 1.641400 -0.819511 -2.473503
v 1.604627 -0.801596 -2.469367
v 1.641400 -0.801596 -2.469367
v 1.641400 -0.794690 -2.484115
v 1.641400 -0.798375 -2.496168
v 1.641400 -0.810656 -2.499003
v 1.641400 -0.819252 -2.489785
v 1.641400 -0.815567 -2.477732
v 1.641400 -0.803286 -2.474896
v 1.621890 -0.794690 -2.484115
v 1.621890 -0.798375 -2.496168
v 1.621890 -0.810656 -2.499003
v 1.621890 -0.819252 -2.489785
v 1.621890 -0.815567 -2.477732
v 1.621890 -0.803286 -2.474896
v 1.621890 -0.806971 -2.486950
v 1.604627 -0.716862 -2.558499
v 1.641400 -0.716862 -2.558499
v 1.604627 -0.733957 -2.565267
v 1.641400 -0.733957 -2.565267
v 1.604627 -0.748366 -2.553847
v 1.641400 -0.748366 -2.553847
v 1.604627 -0.745681 -2.535658
v 1.641400 -0.745681 -2.535658
v 1.604627 -0.728586 -2.528889
v 1.641400 -0.728586 -2.528889
v 1.604627 -0.714176 -2.540310
v 1.641400 -0.714176 -2.540310
v 1.641400 -0.721394 -2.554907
v 1.641400 -0.733113 -2.559547
v 1.641400 -0.742991 -2.551718
v 1.641400 -0.741149 -2.539249
v 1.641400 -0.729430 -2.534609
v 1.641400 -0.719552 -2.542438
v 1.621890 -0.721394 -2.554907
v 1.621890 -0.733113 -2.559547
v 1.621890 -0.742991 -2.551718
v 1.621890 -0.741149 -2.539249
v 1.621890 -0.729430 -2.534609
v 1.621890 -0.719552 -2.542438
v 1.621890 -0.731272 -2.547078
v 1.604627 -0.731204 -2.662488
v 1.641400 -0.731204 -2.662488
v 1.604627 -0.747127 -2.653295
v 1.641400 -0.747127 -2.653295
v 1.604627 -0.747127 -2.634909
v 1.641400 -0.747127 -2.634909
v 1.604627 -0.731204 -2.625716
v 1.641400 -0.731204 -2.625716
v 1.604627 -0.715281 -2.634909
v 1.641400 -0.715281 -2.634909
v 1.604627 -0.715281 -2.653295
v 1.641400 -0.715281 -2.653295
v 1.641400 -0.731204 -2.656706
v 1.641400 -0.742120 -2.650404
v 1.641400 -0.742120 -2.637800
v 1.641400 -0.731204 -2.631498
v 1.641400 -0.720288 -2.637800
v 1.641400 -0.720288 -2.650404
v 1.621890 -0.731204 -2.656706
v 1.621890 -0.742120 -2.650404
v 1.621890 -0.742120 -2.637800
v 1.621890 -0.731204 -2.631498
v 1.621890 -0.720288 -2.637800
v 1.621890 -0.720288 -2.650404
v 1.621890 -0.731204 -2.644102
v 1.604627 -0.821189 -2.715807
v 1.641400 -0.821189 -2.715807
v 1.604627 -0.823938 -2.697628
v 1.641400 -0.823938 -2.697628
v 1.604627 -0.809569 -2.686157
v 1.641400 -0.809569 -2.686157
v 1.604627 -0.792451 -2.692865
v 1.641400 -0.792451 -2.692865
v 1.604627 -0.789701 -2.711045
v 1.641400 -0.789701 -2.711045
v 1.604627 -0.804070 -2.722516
v 1.641400 -0.804070 -2.722516
v 1.641400 -0.816670 -2.712200
v 1.641400 -0.818555 -2.699737
v 1.641400 -0.808704 -2.691874
v 1.641400 -0.796969 -2.696473
v 1.641400 -0.795084 -2.708935
v 1.641400 -0.804935 -2.716799
v 1.621890 -0.816670 -2.712200
v 1.621890 -0.818555 -2.699737
v 1.621890 -0.808704 -2.691874
v 1.621890 -0.796969 -2.696473
v 1.621890 -0.795084 -2.708935
v 1.621890 -0.804935 -2.716799
v 1.621890 -0.806820 -2.704336
v 1.604627 -0.918998 -2.678746
v 1.641400 -0.918998 -2.678746
v 1.604627 -0.906506 -2.665256
v 1.641400 -0.906506 -2.665256
v 1.604627 -0.888577 -2.669329
v 1.641400 -0.888577 -2.669329
v 1.604627 -0.883140 -2.686893
v 1.641400 -0.883140 -2.686893
v 1.604627 -0.895632 -2.700383
v 1.641400 -0.895632 -2.700383
v 1.604627 -0.913561 -2.696310
v 1.641400 -0.913561 -2.696310
v 1.641400 -0.913360 -2.680027
v 1.641400 -0.904796 -2.670779
v 1.641400 -0.892505 -2.673571
v 1.641400 -0.888778 -2.685612
v 1.641400 -0.897342 -2.694860
v 1.641400 -0.909633 -2.692067
v 1.621890 -0.913360 -2.680027
v 1.621890 -0.904796 -2.670779
v 1.621890 -0.892505 -2.673571
v 1.621890 -0.888778 -2.685612
v 1.621890 -0.897342 -2.694860
v 1.621890 -0.909633 -2.692067
v 1.621890 -0.901069 -2.682819
v 1.604627 -0.951055 -2.579185
v 1.641400 -0.951055 -2.579185
v 1.604627 -0.932719 -2.580531
v 1.641400 -0.932719 -2.580531
v 1.604627 -0.924716 -2.597085
v 1.641400 -0.924716 -2.597085
v 1.604627 -0.935051 -2.612291
v 1.641400 -0.935051 -2.612291
v 1.604627 -0.953388 -2.610945
v 1.641400 -0.953388 -2.610945
v 1.604627 -0.961390 -2.594391
v 1.641400 -0.961390 -2.594391
v 1.641400 -0.948539 -2.584390
v 1.641400 -0.935968 -2.585313
v 1.641400 -0.930483 -2.596661
v 1.641400 -0.937567 -2.607086
v 1.641400 -0.950138 -2.606163
v 1.641400 -0.955624 -2.594815
v 1.621890 -0.948539 -2.584390
v 1.621890 -0.935968 -2.585313
v 1.621890 -0.930483 -2.596661
v 1.621890 -0.937567 -2.607086
v 1.621890 -0.950138 -2.606163
v 1.621890 -0.955624 -2.594815
v 1.621890 -0.943053 -2.595738
v 1.604627 -0.893246 -2.492017
v 1.641400 -0.893246 -2.492017
v 1.604627 -0.882858 -2.507187
v 1.641400 -0.882858 -2.507187
v 1.604627 -0.890803 -2.523769
v 1.641400 -0.890803 -2.523769
v 1.604627 -0.909135 -2.525179
v 1.641400 -0.909135 -2.525179
v 1.604627 -0.919522 -2.510009
v 1.641400 -0.919522 -2.510009
v 1.604627 -0.911578 -2.493427
v 1.641400 -0.911578 -2.493427
v 1.641400 -0.895744 -2.497231
v 1.641400 -0.888623 -2.507631
v 1.641400 -0.894069 -2.518998
v 1.641400 -0.906636 -2.519965
v 1.641400 -0.913757 -2.509565
v 1.641400 -0.908311 -2.498198
v 1.621890 -0.895744 -2.497231
v 1.621890 -0.888623 -2.507631
v 1.621890 -0.894069 -2.518998
v 1.621890 -0.906636 -2.519965
v 1.621890 -0.913757 -2.509565
v 1.621890 -0.908311 -2.498198
v 1.621890 -0.901190 -2.508598
v 1.604627 -0.789056 -2.482814
v 1.641400 -0.789056 -2.482814
v 1.604627 -0.794432 -2.500397
v 1.641400 -0.794432 -2.500397
v 1.604627 -0.812347 -2.504533
v 1.641400 -0.812347 -2.504533
v 1.604627 -0.824886 -2.491086
v 1.641400 -0.824886 -2.491086
v 1.604627 -0.819511 -2.473503
v 1.641400 -0.819511 -2.473503
v 1.604627 -0.801596 -2.469367
v 1.641400 -0.801596 -2.469367
v 1.641400 -0.794690 -2.484115
v 1.641400 -0.798375 -2.496168
v 1.641400 -0.810656 -2.499003
v 1.641400 -0.819252 -2.489785
v 1.641400 -0.815567 -2.477732
v 1.641400 -0.803286 -2.474896
v 1.621890 -0.794690 -2.484115
v 1.621890 -0.798375 -2.496168
v 1.621890 -0.810656 -2.499003
v 1.621890 -0.819252 -2.489785
v 1.621890 -0.815567 -2.477732
v 1.621890 -0.803286 -2.474896
v 1.621890 -0.806971 -2.486950
v 1.604627 -0.716862 -2.558499
v 1.641400 -0.716862 -2.558499
v 1.604627 -0.733957 -2.565267
v 1.641400 -0.733957 -2.565267
v 1.604627 -0.748366 -2.553847
v 1.641400 -0.748366 -2.553847
v 1.604627 -0.745681 -2.535658
v 1.641400 -0.745681 -2.535658
v 1.604627 -0.728586 -2.528889
v 1.641400 -0.728586 -2.528889
v 1.604627 -0.714176 -2.540310
v 1.641400 -0.714176 -2.540310
v 1.641400 -0.721394 -2.554907
v 1.641400 -0.733113 -2.559547
v 1.641400 -0.742991 -2.551718
v 1.641400 -0.741149 -2.539249
v 1.641400 -0.729430 -2.534609
v 1.641400 -0.719552 -2.542438
v 1.621890 -0.721394 -2.554907
v 1.621890 -0.733113 -2.559547
v 1.621890 -0.742991 -2.551718
v 1.621890 -0.741149 -2.539249
v 1.621890 -0.729430 -2.534609
v 1.621890 -0.719552 -2.542438
v 1.621890 -0.731272 -2.547078
vn 0.0000 -0.5000 -0.8660
vn 0.0000 -1.0000 0.0000
vn 0.0000 -0.5000 0.8660
vn 0.0000 0.5000 0.8660
vn 1.0000 -0.0000 0.0000
vn 0.0000 0.5000 -0.8660
vn 0.0000 1.0000 0.0000
vn -1.0000 0.0000 0.0000
vn 0.0000 -0.9888 -0.1495
vn 0.0000 -0.6239 0.7815
vn 0.0000 0.3649 0.9311
vn 0.0000 0.9888 0.1495
vn 0.0000 -0.3649 -0.9311
vn 0.0000 0.6239 -0.7815
vn 0.0000 -0.7337 0.6794
vn 0.0000 0.2215 0.9751
vn 0.0000 0.9553 0.2957
vn 0.0000 0.7337 -0.6794
vn 0.0000 -0.9553 -0.2957
vn 0.0000 -0.2215 -0.9752
vn 0.0000 -0.2216 -0.9751
vn 0.0000 0.2216 0.9751
vn 0.0000 0.0732 0.9973
vn 0.0000 0.9003 0.4352
vn 0.0000 0.8271 -0.5621
vn 0.0000 -0.0732 -0.9973
vn 0.0000 -0.8271 0.5621
vn 0.0000 -0.9003 -0.4352
vn 0.0000 0.8251 0.5650
vn 0.0000 0.9018 -0.4321
vn 0.0000 0.0767 -0.9971
vn 0.0000 -0.8251 -0.5650
vn 0.0000 -0.0767 0.9971
vn 0.0000 -0.9018 0.4321
vn 0.0000 0.9563 -0.2924
vn 0.0000 0.2249 -0.9744
vn 0.0000 -0.7314 -0.6820
vn 0.0000 -0.9563 0.2924
vn 0.0000 0.7314 0.6820
vn 0.0000 -0.2250 0.9744
vn 0.0000 -0.2249 0.9744
vn 0.0000 0.7313 0.6820
vn 0.0000 0.3681 -0.9298
vn 0.0000 -0.6212 -0.7837
vn 0.0000 -0.9893 0.1461
vn 0.0000 -0.3681 0.9298
vn 0.0000 0.9893 -0.1461
vn 0.0000 0.6212 0.7837
vn 1.0000 -0.0001 0.0000
vn 1.0000 0.0001 0.0000
vn 0.0000 0.2215 0.9752
vn 0.0000 -0.6211 -0.7837
vn 0.0000 0.6211 0.7837
s off
f 2//1 3//1 1//1
f 4//2 5//2 3//2
f 5//3 8//3 7//3
f 8//4 9//4 7//4
f 4//5 15//5 6//5
f 12//6 1//6 11//6
f 10//7 11//7 9//7
f 3//8 7//8 11//8
f 6//5 16//5 8//5
f 2//5 14//5 4//5
f 10//5 16//5 17//5
f 10//5 18//5 12//5
f 12//5 13//5 2//5
f 14//7 21//7 15//7
f 17//2 24//2 18//2
f 13//4 20//4 14//4
f 17//1 22//1 23//1
f 16//6 21//6 22//6
f 18//3 19//3 13//3
f 22//5 21//5 25//5
f 19//5 24//5 25//5
f 21//5 20//5 25//5
f 24//5 23//5 25//5
f 20//5 19//5 25//5
f 23//5 22//5 25//5
f 27//9 28//9 26//9
f 29//10 30//10 28//10
f 30//11 33//11 32//11
f 33//12 34//12 32//12
f 31//5 39//5 40//5
f 37//13 26//13 36//13
f 35//14 36//14 34//14
f 28//8 32//8 36//8
f 31//5 41//5 33//5
f 27//5 39//5 29//5
f 35//5 41//5 42//5
f 37//5 42//5 43//5
f 27//5 43//5 38//5
f 39//14 46//14 40//14
f 42//10 49//10 43//10
f 38//12 45//12 39//12
f 42//9 47//9 48//9
f 41//13 46//13 47//13
f 43//11 44//11 38//11
f 47//5 46//5 50//5
f 44//5 49//5 50//5
f 46//5 45//5 50//5
f 49//5 48//5 50//5
f 45//5 44//5 50//5
f 48//5 47//5 50//5
f 52//15 53//15 51//15
f 54//16 55//16 53//16
f 55//17 58//17 57//17
f 57//18 60//18 59//18
f 54//5 65//5 56//5
f 62//19 51//19 61//19
f 60//20 61//20 59//20
f 57//8 59//8 61//8
f 56//5 66//5 58//5
f 54//5 63//5 64//5
f 60//5 66//5 67//5
f 62//5 67//5 68//5
f 52//5 68//5 63//5
f 64//21 71//21 65//21
f 67//22 74//22 68//22
f 63//18 70//18 64//18
f 67//15 72//15 73//15
f 66//19 71//19 72//19
f 68//17 69//17 63//17
f 72//5 71//5 75//5
f 69//5 74//5 75//5
f 71//5 70//5 75//5
f 74//5 73//5 75//5
f 70//5 69//5 75//5
f 73//5 72//5 75//5
f 77//23 78//23 76//23
f 78//24 81//24 80//24
f 80//25 83//25 82//25
f 82//26 85//26 84//26
f 79//5 90//5 81//5
f 87//27 76//27 86//27
f 85//28 86//28 84//28
f 82//8 84//8 86//8
f 81//5 91//5 83//5
f 77//5 89//5 79//5
f 85//5 91//5 92//5
f 85//5 93//5 87//5
f 87//5 88//5 77//5
f 90//28 95//28 96//28
f 92//24 99//24 93//24
f 88//26 95//26 89//26
f 91//23 98//23 92//23
f 91//27 96//27 97//27
f 93//25 94//25 88//25
f 97//5 96//5 100//5
f 94//5 99//5 100//5
f 96//5 95//5 100//5
f 99//5 98//5 100//5
f 95//5 94//5 100//5
f 98//5 97//5 100//5
f 101//29 104//29 103//29
f 104//30 105//30 103//30
f 105//31 108//31 107//31
f 108//32 109//32 107//32
f 104//5 115//5 106//5
f 112//33 101//33 111//33
f 110//34 111//34 109//34
f 107//8 109//8 111//8
f 106//5 116//5 108//5
f 102//5 114//5 104//5
f 108//5 117//5 110//5
f 110//5 118//5 112//5
f 112//5 113//5 102//5
f 114//34 121//34 115//34
f 117//30 124//30 118//30
f 113//32 120//32 114//32
f 117//29 122//29 123//29
f 116//33 121//33 122//33
f 118//31 119//31 113//31
f 122//5 121//5 125//5
f 119//5 124//5 125//5
f 121//5 120//5 125//5
f 124//5 123//5 125//5
f 120//5 119//5 125//5
f 123//5 122//5 125//5
f 126//35 129//35 128//35
f 129//36 130//36 128//36
f 131//37 132//37 130//37
f 133//38 134//38 132//38
f 129//5 140//5 131//5
f 137//39 126//39 136//39
f 135//40 136//40 134//40
f 134//8 136//8 128//8
f 133//5 140//5 141//5
f 127//5 139//5 129//5
f 135//5 141//5 142//5
f 137//5 142//5 143//5
f 137//5 138//5 127//5
f 139//41 146//41 140//41
f 142//36 149//36 143//36
f 139//38 144//38 145//38
f 141//35 148//35 142//35
f 140//42 147//42 141//42
f 138//37 149//37 144//37
f 147//5 146//5 150//5
f 144//5 149//5 150//5
f 146//5 145//5 150//5
f 149//5 148//5 150//5
f 145//5 144//5 150//5
f 148//5 147//5 150//5
f 152//43 153//43 151//43
f 154//44 155//44 153//44
f 156//45 157//45 155//45
f 157//46 160//46 159//46
f 156//5 164//5 165//5
f 161//47 152//47 151//47
f 159//48 162//48 161//48
f 159//8 161//8 153//8
f 156//5 166//5 158//5
f 154//5 163//5 164//5
f 158//5 167//5 160//5
f 162//5 167//5 168//5
f 152//5 168//5 163//5
f 165//48 170//48 171//48
f 168//44 173//44 174//44
f 163//46 170//46 164//46
f 167//43 172//43 173//43
f 165//47 172//47 166//47
f 168//45 169//45 163//45
f 172//5 171//5 175//5
f 169//5 174//5 175//5
f 171//5 170//5 175//5
f 174//5 173//5 175//5
f 170//5 169//5 175//5
f 173//5 172//5 175//5
f 177//1 178//1 176//1
f 179//2 180//2 178//2
f 180//3 183//3 182//3
f 183//4 184//4 182//4
f 179//5 190//5 181//5
f 187//6 176//6 186//6
f 185//7 186//7 184//7
f 178//8 182//8 186//8
f 181//5 191//5 183//5
f 177//5 189//5 179//5
f 185//5 191//5 192//5
f 185//5 193//5 187//5
f 187//5 188//5 177//5
f 189//7 196//7 190//7
f 192//2 199//2 193//2
f 188//4 195//4 189//4
f 192//1 197//1 198//1
f 191//6 196//6 197//6
f 193//3 194//3 188//3
f 197//5 196//5 200//5
f 194//5 199//5 200//5
f 196//5 195//5 200//5
f 199//5 198//5 200//5
f 195//5 194//5 200//5
f 198//5 197//5 200//5
f 202//9 203//9 201//9
f 204//10 205//10 203//10
f 205//11 208//11 207//11
f 208//12 209//12 207//12
f 206//5 214//5 215//5
f 212//13 201//13 211//13
f 210//14 211//14 209//14
f 203//8 207//8 211//8
f 206//5 216//5 208//5
f 202//5 214//5 204//5
f 210//5 216//5 217//5
f 212//5 217//5 218//5
f 202//5 218//5 213//5
f 214//14 221//14 215//14
f 217//10 224//10 218//10
f 213//12 220//12 214//12
f 217//9 222//9 223//9
f 216//13 221//13 222//13
f 218//11 219//11 213//11
f 222//5 221//5 225//5
f 219//5 224//5 225//5
f 221//5 220//5 225//5
f 224//5 223//5 225//5
f 220//5 219//5 225//5
f 223//5 222//5 225//5
f 227//15 228//15 226//15
f 229//16 230//16 228//16
f 230//17 233//17 232//17
f 232//18 235//18 234//18
f 229//5 240//5 231//5
f 237//19 226//19 236//19
f 235//20 236//20 234//20
f 232//8 234//8 236//8
f 231//5 241//5 233//5
f 229//5 238//5 239//5
f 235//5 241//5 242//5
f 237//5 242//5 243//5
f 227//5 243//5 238//5
f 239//21 246//21 240//21
f 242//22 249//22 243//22
f 238//18 245//18 239//18
f 242//15 247//15 248//15
f 241//19 246//19 247//19
f 243//17 244//17 238//17
f 247//5 246//5 250//5
f 244//5 249//5 250//5
f 246//5 245//5 250//5
f 249//5 248//5 250//5
f 245//5 244//5 250//5
f 248//5 247//5 250//5
f 252//23 253//23 251//23
f 253//24 256//24 255//24
f 255//25 258//25 257//25
f 257//26 260//26 259//26
f 254//5 265//5 256//5
f 262//27 251//27 261//27
f 260//28 261//28 259//28
f 257//8 259//8 261//8
f 256//5 266//5 258//5
f 252//5 264//5 254//5
f 260//5 266//5 267//5
f 260//5 268//5 262//5
f 262//5 263//5 252//5
f 265//28 270//28 271//28
f 267//24 274//24 268//24
f 263//26 270//26 264//26
f 266//23 273//23 267//23
f 266//27 271//27 272//27
f 268//25 269//25 263//25
f 272//5 271//5 275//5
f 269//5 274//5 275//5
f 271//5 270//5 275//5
f 274//5 273//5 275//5
f 270//5 269//5 275//5
f 273//5 272//5 275//5
f 276//29 279//29 278//29
f 279//30 280//30 278//30
f 280//31 283//31 282//31
f 283//32 284//32 282//32
f 279//5 290//5 281//5
f 287//33 276//33 286//33
f 285//34 286//34 284//34
f 282//8 284//8 286//8
f 281//5 291//5 283//5
f 277//5 289//5 279//5
f 283//5 292//5 285//5
f 285//5 293//5 287//5
f 287//5 288//5 277//5
f 289//34 296//34 290//34
f 292//30 299//30 293//30
f 288//32 295//32 289//32
f 292//29 297//29 298//29
f 291//33 296//33 297//33
f 293//31 294//31 288//31
f 297//5 296//5 300//5
f 294//5 299//5 300//5
f 296//5 295//5 300//5
f 299//5 298//5 300//5
f 295//5 294//5 300//5
f 298//5 297//5 300//5
f 301//35 304//35 303//35
f 304//36 305//36 303//36
f 306//37 307//37 305//37
f 308//38 309//38 307//38
f 304//5 315//5 306//5
f 312//39 301//39 311//39
f 310//40 311//40 309//40
f 309//8 311//8 303//8
f 308//5 315//5 316//5
f 302//5 314//5 304//5
f 310//5 316//5 317//5
f 312//5 317//5 318//5
f 312//5 313//5 302//5
f 314//41 321//41 315//41
f 317//36 324//36 318//36
f 314//38 319//38 320//38
f 316//35 323//35 317//35
f 315//42 322//42 316//42
f 313//37 324//37 319//37
f 322//5 321//5 325//5
f 319//5 324//5 325//5
f 321//5 320//5 325//5
f 324//5 323//5 325//5
f 320//5 319//5 325//5
f 323//5 322//5 325//5
f 327//43 328//43 326//43
f 329//44 330//44 328//44
f 331//45 332//45 330//45
f 332//46 335//46 334//46
f 331//5 339//5 340//5
f 336//47 327//47 326//47
f 334//48 337//48 336//48
f 334//8 336//8 328//8
f 331//5 341//5 333//5
f 329//5 338//5 339//5
f 333//5 342//5 335//5
f 337//5 342//5 343//5
f 327//5 343//5 338//5
f 340//48 345//48 346//48
f 343//44 348//44 349//44
f 338//46 345//46 339//46
f 342//43 347//43 348//43
f 340//47 347//47 341//47
f 343//45 344//45 338//45
f 347//5 346//5 350//5
f 344//5 349//5 350//5
f 346//5 345//5 350//5
f 349//5 348//5 350//5
f 345//5 344//5 350//5
f 348//5 347//5 350//5
f 2//1 4//1 3//1
f 4//2 6//2 5//2
f 5//3 6//3 8//3
f 8//4 10//4 9//4
f 4//49 14//49 15//49
f 12//6 2//6 1//6
f 10//7 12//7 11//7
f 11//8 1//8 3//8
f 3//8 5//8 7//8
f 7//8 9//8 11//8
f 6//5 15//5 16//5
f 2//5 13//5 14//5
f 10//5 8//5 16//5
f 10//50 17//50 18//50
f 12//5 18//5 13//5
f 14//7 20//7 21//7
f 17//2 23//2 24//2
f 13//4 19//4 20//4
f 17//1 16//1 22//1
f 16//6 15//6 21//6
f 18//3 24//3 19//3
f 27//9 29//9 28//9
f 29//10 31//10 30//10
f 30//11 31//11 33//11
f 33//12 35//12 34//12
f 31//5 29//5 39//5
f 37//13 27//13 26//13
f 35//14 37//14 36//14
f 36//8 26//8 28//8
f 28//8 30//8 32//8
f 32//8 34//8 36//8
f 31//5 40//5 41//5
f 27//5 38//5 39//5
f 35//5 33//5 41//5
f 37//5 35//5 42//5
f 27//5 37//5 43//5
f 39//14 45//14 46//14
f 42//10 48//10 49//10
f 38//12 44//12 45//12
f 42//9 41//9 47//9
f 41//13 40//13 46//13
f 43//11 49//11 44//11
f 52//15 54//15 53//15
f 54//51 56//51 55//51
f 55//17 56//17 58//17
f 57//18 58//18 60//18
f 54//5 64//5 65//5
f 62//19 52//19 51//19
f 60//20 62//20 61//20
f 61//8 51//8 53//8
f 53//8 55//8 61//8
f 55//8 57//8 61//8
f 56//5 65//5 66//5
f 54//5 52//5 63//5
f 60//5 58//5 66//5
f 62//5 60//5 67//5
f 52//5 62//5 68//5
f 64//21 70//21 71//21
f 67//22 73//22 74//22
f 63//18 69//18 70//18
f 67//15 66//15 72//15
f 66//19 65//19 71//19
f 68//17 74//17 69//17
f 77//23 79//23 78//23
f 78//24 79//24 81//24
f 80//25 81//25 83//25
f 82//26 83//26 85//26
f 79//5 89//5 90//5
f 87//27 77//27 76//27
f 85//28 87//28 86//28
f 86//8 76//8 78//8
f 78//8 80//8 86//8
f 80//8 82//8 86//8
f 81//5 90//5 91//5
f 77//5 88//5 89//5
f 85//5 83//5 91//5
f 85//5 92//5 93//5
f 87//5 93//5 88//5
f 90//28 89//28 95//28
f 92//24 98//24 99//24
f 88//26 94//26 95//26
f 91//23 97//23 98//23
f 91//27 90//27 96//27
f 93//25 99//25 94//25
f 101//29 102//29 104//29
f 104//30 106//30 105//30
f 105//31 106//31 108//31
f 108//32 110//32 109//32
f 104//50 114//50 115//50
f 112//33 102//33 101//33
f 110//34 112//34 111//34
f 111//8 101//8 103//8
f 103//8 105//8 111//8
f 105//8 107//8 111//8
f 106//5 115//5 116//5
f 102//5 113//5 114//5
f 108//5 116//5 117//5
f 110//49 117//49 118//49
f 112//5 118//5 113//5
f 114//34 120//34 121//34
f 117//30 123//30 124//30
f 113//32 119//32 120//32
f 117//29 116//29 122//29
f 116//33 115//33 121//33
f 118//31 124//31 119//31
f 126//35 127//35 129//35
f 129//36 131//36 130//36
f 131//37 133//37 132//37
f 133//38 135//38 134//38
f 129//5 139//5 140//5
f 137//39 127//39 126//39
f 135//40 137//40 136//40
f 136//8 126//8 128//8
f 128//8 130//8 132//8
f 132//8 134//8 128//8
f 133//5 131//5 140//5
f 127//49 138//49 139//49
f 135//5 133//5 141//5
f 137//5 135//5 142//5
f 137//5 143//5 138//5
f 139//41 145//41 146//41
f 142//36 148//36 149//36
f 139//38 138//38 144//38
f 141//35 147//35 148//35
f 140//39 146//39 147//39
f 138//37 143//37 149//37
f 152//43 154//43 153//43
f 154//52 156//52 155//52
f 156//45 158//45 157//45
f 157//46 158//46 160//46
f 156//5 154//5 164//5
f 161//47 162//47 152//47
f 159//53 160//53 162//53
f 161//8 151//8 153//8
f 153//8 155//8 157//8
f 157//8 159//8 153//8
f 156//50 165//50 166//50
f 154//5 152//5 163//5
f 158//5 166//5 167//5
f 162//5 160//5 167//5
f 152//5 162//5 168//5
f 165//48 164//48 170//48
f 168//52 167//52 173//52
f 163//46 169//46 170//46
f 167//43 166//43 172//43
f 165//47 171//47 172//47
f 168//45 174//45 169//45
f 177//1 179//1 178//1
f 179//2 181//2 180//2
f 180//3 181//3 183//3
f 183//4 185//4 184//4
f 179//49 189//49 190//49
f 187//6 177//6 176//6
f 185//7 187//7 186//7
f 186//8 176//8 178//8
f 178//8 180//8 182//8
f 182//8 184//8 186//8
f 181//5 190//5 191//5
f 177//5 188//5 189//5
f 185//5 183//5 191//5
f 185//50 192//50 193//50
f 187//5 193//5 188//5
f 189//7 195//7 196//7
f 192//2 198//2 199//2
f 188//4 194//4 195//4
f 192//1 191//1 197//1
f 191//6 190//6 196//6
f 193//3 199//3 194//3
f 202//9 204//9 203//9
f 204//10 206//10 205//10
f 205//11 206//11 208//11
f 208//12 210//12 209//12
f 206//5 204//5 214//5
f 212//13 202//13 201//13
f 210//14 212//14 211//14
f 211//8 201//8 203//8
f 203//8 205//8 207//8
f 207//8 209//8 211//8
f 206//5 215//5 216//5
f 202//5 213//5 214//5
f 210//5 208//5 216//5
f 212//5 210//5 217//5
f 202//5 212//5 218//5
f 214//14 220//14 221//14
f 217//10 223//10 224//10
f 213//12 219//12 220//12
f 217//9 216//9 222//9
f 216//13 215//13 221//13
f 218//11 224//11 219//11
f 227//15 229//15 228//15
f 229//51 231//51 230//51
f 230//17 231//17 233//17
f 232//18 233//18 235//18
f 229//5 239//5 240//5
f 237//19 227//19 226//19
f 235//20 237//20 236//20
f 236//8 226//8 228//8
f 228//8 230//8 236//8
f 230//8 232//8 236//8
f 231//5 240//5 241//5
f 229//5 227//5 238//5
f 235//5 233//5 241//5
f 237//5 235//5 242//5
f 227//5 237//5 243//5
f 239//21 245//21 246//21
f 242//22 248//22 249//22
f 238//18 244//18 245//18
f 242//15 241//15 247//15
f 241//19 240//19 246//19
f 243//17 249//17 244//17
f 252//23 254//23 253//23
f 253//24 254//24 256//24
f 255//25 256//25 258//25
f 257//26 258//26 260//26
f 254//5 264//5 265//5
f 262//27 252//27 251//27
f 260//28 262//28 261//28
f 261//8 251//8 253//8
f 253//8 255//8 261//8
f 255//8 257//8 261//8
f 256//5 265//5 266//5
f 252//5 263//5 264//5
f 260//5 258//5 266//5
f 260//5 267//5 268//5
f 262//5 268//5 263//5
f 265//28 264//28 270//28
f 267//24 273//24 274//24
f 263//26 269//26 270//26
f 266//23 272//23 273//23
f 266//27 265//27 271//27
f 268//25 274//25 269//25
f 276//29 277//29 279//29
f 279//30 281//30 280//30
f 280//31 281//31 283//31
f 283//32 285//32 284//32
f 279//50 289//50 290//50
f 287//33 277//33 276//33
f 285//34 287//34 286//34
f 286//8 276//8 278//8
f 278//8 280//8 286//8
f 280//8 282//8 286//8
f 281//5 290//5 291//5
f 277//5 288//5 289//5
f 283//5 291//5 292//5
f 285//49 292//49 293//49
f 287//5 293//5 288//5
f 289//34 295//34 296//34
f 292//30 298//30 299//30
f 288//32 294//32 295//32
f 292//29 291//29 297//29
f 291//33 290//33 296//33
f 293//31 299//31 294//31
f 301//35 302//35 304//35
f 304//36 306//36 305//36
f 306//37 308//37 307//37
f 308//38 310//38 309//38
f 304//5 314//5 315//5
f 312//39 302//39 301//39
f 310//40 312//40 311//40
f 311//8 301//8 303//8
f 303//8 305//8 307//8
f 307//8 309//8 303//8
f 308//5 306//5 315//5
f 302//49 313//49 314//49
f 310//5 308//5 316//5
f 312//5 310//5 317//5
f 312//5 318//5 313//5
f 314//41 320//41 321//41
f 317//36 323//36 324//36
f 314//38 313//38 319//38
f 316//35 322//35 323//35
f 315//39 321//39 322//39
f 313//37 318//37 324//37
f 327//43 329//43 328//43
f 329//52 331//52 330//52
f 331//45 333//45 332//45
f 332//46 333//46 335//46
f 331//5 329//5 339//5
f 336//47 337//47 327//47
f 334//53 335//53 337//53
f 336//8 326//8 328//8
f 328//8 330//8 332//8
f 332//8 334//8 328//8
f 331//50 340//50 341//50
f 329//5 327//5 338//5
f 333//5 341//5 342//5
f 337//5 335//5 342//5
f 327//5 337//5 343//5
f 340//48 339//48 345//48
f 343//52 342//52 348//52
f 338//46 344//46 345//46
f 342//43 341//43 347//43
f 340//47 346//47 347//47
f 343//45 349//45 344//45
