# Blender v2.78 (sub 0) OBJ File: 'material setup.blend'
# www.blender.org
o LightBox
v 1.500000 0.375000 -1.200000
v 1.500000 1.125000 -1.199999
v 1.500000 1.125000 -0.399999
v 1.500000 0.375000 -0.400000
v 1.500000 1.125000 0.400001
v 1.500000 0.375000 0.400000
v 1.500000 1.125000 1.200001
v 1.500000 0.375000 1.200000
v -1.500001 1.125000 1.200000
v -1.500000 0.375000 1.200000
v -1.500000 1.125000 0.400000
v -1.500000 0.375000 0.400000
v -1.500000 1.125000 -0.400000
v -1.500000 0.375000 -0.400000
v -1.500000 1.125000 -1.200000
v -1.500000 0.375000 -1.200000
v -1.125000 0.000000 -1.200000
v -0.375000 0.000000 -1.200000
v 0.375000 0.000000 -1.200000
v 1.125000 0.000000 -1.200000
v 1.125000 0.000000 -0.400000
v 0.375000 0.000000 -0.400000
v -0.375000 0.000000 -0.400000
v -1.125000 0.000000 -0.400000
v 1.125000 0.000000 0.400000
v 0.375000 0.000000 0.400000
v -0.375000 0.000000 0.400000
v -1.125000 0.000000 0.400000
v 1.125000 0.000000 1.200000
v 0.375000 0.000000 1.200000
v -0.375000 0.000000 1.200000
v -1.125000 0.000000 1.200000
v -1.125000 1.500000 -1.200000
v -0.375000 1.500000 -1.200000
v 0.375000 1.500000 -1.199999
v 1.125001 1.500000 -1.199999
v -1.125000 1.500000 -0.400000
v -0.375000 1.500000 -0.400000
v 0.375000 1.500000 -0.399999
v 1.125000 1.500000 -0.399999
v -1.125000 1.500000 0.400000
v -0.375000 1.500000 0.400000
v 0.375000 1.500000 0.400001
v 1.125000 1.500000 0.400001
v -1.125001 1.500000 1.200000
v -0.375001 1.500000 1.200000
v 0.374999 1.500000 1.200001
v 1.124999 1.500000 1.200001
v -1.125001 1.125000 1.600000
v -0.375001 1.125000 1.600000
v 0.374999 1.125000 1.600000
v 1.124999 1.125000 1.600001
v -1.125000 0.375000 1.600000
v -0.375000 0.375000 1.600000
v 0.375000 0.375000 1.600000
v 1.125000 0.375000 1.600000
v 1.125000 0.375000 -1.600000
v 0.375000 0.375000 -1.600000
v -0.375000 0.375000 -1.600000
v -1.125000 0.375000 -1.600000
v -1.125000 1.125000 -1.600000
v -0.375000 1.125000 -1.600000
v 0.375000 1.125000 -1.600000
v 1.125001 1.125000 -1.599999
v 1.406250 0.093750 -1.200000
v 1.406250 0.093750 -0.400000
v 1.406250 0.093750 0.400000
v 1.406250 0.093750 1.200000
v 1.406251 1.406250 -1.199999
v 1.406250 1.406250 -0.399999
v 1.406250 1.406250 0.400001
v 1.406249 1.406250 1.200001
v -1.406250 0.093750 -0.400001
v -1.406251 1.406250 1.200000
v 1.406250 0.375000 1.500000
v 1.406249 1.125000 1.500001
v 1.406250 0.375000 -1.500000
v 1.406251 1.125000 -1.499999
v 1.500000 0.375000 -0.800000
v 1.500000 1.125000 -0.799999
v 1.500000 0.375000 0.000000
v 1.500000 1.125000 0.000001
v 1.500000 0.375000 0.800000
v 1.500000 1.125000 0.800001
v -1.500000 1.125000 -0.000000
v 1.500000 0.750000 -1.199999
v 1.500000 0.750000 -0.399999
v 1.500000 0.750000 0.400001
v 1.500000 0.750000 1.200001
v -1.500000 0.750000 0.400000
v -1.500000 0.750000 -0.400000
v -1.500000 0.750000 -1.200000
v -1.500000 1.125000 -0.800000
v -1.500000 0.375000 -0.800001
v -1.500000 0.375000 -0.000000
v -1.500000 1.125000 0.800000
v -1.406250 1.406250 0.400000
v -1.406250 1.406250 -0.400000
v -1.406250 0.093750 -1.200000
v -1.406250 0.093750 1.200000
v -1.406250 1.406250 -1.200000
v -1.500000 0.375000 0.800000
v -1.406250 0.375000 1.500000
v -1.406250 0.375000 -1.500000
v -1.406250 1.125000 -1.500000
v -1.500000 0.750000 1.200000
v -1.406251 1.125000 1.500000
v -1.406250 0.093750 0.400000
v 1.125001 1.406250 -1.499999
v 0.375000 1.406250 -1.500000
v -0.375000 1.406250 -1.500000
v -1.125000 1.406250 -1.500000
v 1.125000 0.750000 1.600000
v 0.375000 0.750000 1.600000
v -0.375001 0.750000 1.600000
v -1.125000 0.750000 1.600000
v 1.125000 0.000000 0.800000
v 0.375000 0.000000 0.800000
v -0.375000 0.000000 0.800000
v -1.125000 0.000000 0.800000
v 1.125000 0.093750 -1.500000
v 0.375000 0.093750 -1.500000
v -0.375000 0.093750 -1.500000
v -1.125000 0.093750 -1.500000
v 1.125000 0.093750 1.500000
v 0.375000 0.093750 1.500000
v -0.375000 0.093750 1.500000
v -1.125000 0.093750 1.500000
v 1.124999 1.406250 1.500001
v 0.374999 1.406250 1.500000
v -0.375001 1.406250 1.500000
v -1.125001 1.406250 1.500000
v 1.125000 0.000000 -0.800000
v 0.375000 0.000000 -0.800000
v -0.375000 0.000000 -0.800000
v -1.125000 0.000000 -0.800001
v 1.125000 0.000000 -0.000000
v 0.375000 0.000000 -0.000000
v -0.375000 0.000000 -0.000000
v -1.125000 0.000000 -0.000000
v 1.125000 1.500000 0.800001
v 0.375000 1.500000 0.800001
v -0.375001 1.500000 0.800000
v -1.125000 1.500000 0.800000
v 1.125000 0.750000 -1.600000
v 0.375000 0.750000 -1.600000
v -0.375000 0.750000 -1.600000
v -1.125000 0.750000 -1.600000
v 1.125000 1.500000 0.000001
v 0.375000 1.500000 0.000001
v -0.375000 1.500000 0.000000
v -1.125000 1.500000 -0.000000
v 1.125000 1.500000 -0.799999
v 0.375000 1.500000 -0.799999
v -0.375000 1.500000 -0.800000
v -1.125000 1.500000 -0.800000
v -0.750000 0.000000 -1.200000
v 0.000000 0.000000 -1.200000
v 0.750000 0.000000 -1.200000
v 0.750000 0.000000 -0.400000
v 0.000000 0.000000 -0.400000
v -0.750000 0.000000 -0.400000
v 0.750000 0.000000 0.400000
v 0.000000 0.000000 0.400000
v -0.750000 0.000000 0.400000
v 0.750000 0.000000 1.200000
v -0.000000 0.000000 1.200000
v -0.750000 0.000000 1.200000
v -0.750000 1.500000 -1.200000
v 0.000000 1.500000 -1.200000
v 0.750000 1.500000 -1.199999
v -0.750000 1.500000 -0.400000
v -0.000000 1.500000 -0.400000
v 0.750000 1.500000 -0.399999
v -0.750000 1.500000 0.400000
v -0.000000 1.500000 0.400000
v 0.750000 1.500000 0.400001
v -0.750001 1.500000 1.200000
v -0.000001 1.500000 1.200000
v 0.749999 1.500000 1.200001
v -0.750001 1.125000 1.600000
v -0.000001 1.125000 1.600000
v 0.749999 1.125000 1.600000
v -0.750000 0.375000 1.600000
v -0.000000 0.375000 1.600000
v 0.750000 0.375000 1.600000
v 0.750000 0.375000 -1.600000
v 0.000000 0.375000 -1.600000
v -0.750000 0.375000 -1.600000
v -0.750000 1.125000 -1.600000
v 0.000000 1.125000 -1.600000
v 0.750000 1.125000 -1.600000
v 1.333334 0.166667 -1.422222
v 1.333333 0.166667 1.422222
v -1.333334 0.166667 1.422222
v 1.333334 1.333333 -1.422222
v 1.333333 1.333333 1.422223
v 1.406250 0.093750 -0.800000
v 1.406250 0.093750 0.000000
v 1.406250 0.093750 0.800000
v 1.406250 1.406250 -0.799999
v 1.406250 1.406250 0.000001
v 1.406250 1.406250 0.800001
v -1.406250 1.406250 -0.000000
v -1.333333 0.166667 -1.422223
v -1.333334 1.333333 1.422222
v -1.333333 1.333333 -1.422222
v -1.406250 0.093750 -0.800000
v -1.406250 0.093750 -0.000000
v -1.406250 0.093750 0.800000
v -1.406250 1.406250 -0.800000
v -1.406250 1.406250 0.800000
v 1.406250 0.750000 1.500000
v 1.406250 0.750000 -1.500000
v 1.500000 0.750000 -0.800000
v 1.500000 0.750000 0.000001
v 1.500000 0.750000 0.800001
v -1.500000 0.750000 0.800000
v -1.500000 0.750000 -0.000000
v -1.500000 0.750000 -0.800000
v -1.406250 0.750000 1.500000
v -1.406250 0.750000 -1.500000
v 0.750001 1.406250 -1.500000
v 0.000000 1.406250 -1.500000
v -0.750000 1.406250 -1.500000
v 0.750000 0.750000 1.600000
v -0.000000 0.750000 1.600000
v -0.750000 0.750000 1.600000
v 0.750000 0.000000 0.800000
v 0.000000 0.000000 0.800000
v -0.750000 0.000000 0.800000
v 0.750000 0.093750 -1.500000
v 0.000000 0.093750 -1.500000
v -0.750000 0.093750 -1.500000
v 0.750000 0.093750 1.500000
v -0.000000 0.093750 1.500000
v -0.750000 0.093750 1.500000
v 0.749999 1.406250 1.500001
v -0.000001 1.406250 1.500000
v -0.750001 1.406250 1.500000
v 0.750000 0.000000 -0.800000
v 0.000000 0.000000 -0.800000
v -0.750000 0.000000 -0.800000
v 0.750000 0.000000 -0.000000
v 0.000000 0.000000 -0.000000
v -0.750000 0.000000 -0.000000
v 0.750000 1.500000 0.800001
v -0.000001 1.500000 0.800000
v -0.750000 1.500000 0.800000
v 0.750000 0.750000 -1.600000
v 0.000000 0.750000 -1.600000
v -0.750000 0.750000 -1.600000
v 0.750000 1.500000 0.000001
v -0.000000 1.500000 0.000000
v -0.750000 1.500000 0.000000
v 0.750000 1.500000 -0.799999
v 0.000000 1.500000 -0.800000
v -0.750000 1.500000 -0.800000
vn -0.9728 0.1681 0.1590
vn -0.5886 0.5886 0.5541
vn -0.6923 0.6923 0.2036
vn -0.7071 0.7071 0.0000
vn -0.9871 0.1602 0.0000
vn -0.9885 0.0000 0.1509
vn -0.7207 0.0000 0.6933
vn -0.7013 0.2202 0.6780
vn -0.7013 -0.2202 0.6780
vn -0.9728 -0.1681 0.1590
vn -1.0000 0.0000 0.0000
vn -0.9871 -0.1602 0.0000
vn -0.6923 -0.6923 0.2036
vn -0.5886 -0.5886 0.5541
vn -0.7071 -0.7071 0.0000
vn -0.9728 -0.1681 -0.1590
vn -0.5886 -0.5886 -0.5541
vn -0.6923 -0.6923 -0.2036
vn -0.9885 0.0000 -0.1509
vn -0.7207 0.0000 -0.6933
vn -0.7013 -0.2202 -0.6780
vn -0.7013 0.2202 -0.6780
vn -0.9728 0.1681 -0.1590
vn -0.6923 0.6923 -0.2036
vn -0.5886 0.5886 -0.5541
vn 0.9728 -0.1681 -0.1590
vn 0.7071 -0.7071 0.0000
vn 0.6923 -0.6923 -0.2036
vn 0.5886 -0.5886 -0.5541
vn 0.7013 -0.2202 -0.6780
vn 0.9885 0.0000 -0.1509
vn 0.9871 -0.1602 0.0000
vn 0.9871 0.1602 0.0000
vn 0.9728 0.1681 -0.1590
vn 0.7013 0.2202 -0.6780
vn 0.5886 0.5886 -0.5541
vn 0.6923 0.6923 -0.2036
vn 1.0000 0.0000 0.0000
vn 0.7071 0.7071 0.0000
vn 0.9728 -0.1681 0.1590
vn 0.5886 -0.5886 0.5541
vn 0.6923 -0.6923 0.2036
vn 0.9885 0.0000 0.1509
vn 0.7013 -0.2202 0.6780
vn 0.9728 0.1681 0.1590
vn 0.7207 0.0000 0.6933
vn 0.6923 0.6923 0.2036
vn 0.5886 0.5886 0.5541
vn 0.7013 0.2202 0.6780
vn 0.1681 0.9728 0.1590
vn 0.1602 0.9871 0.0000
vn 0.0000 0.9885 0.1509
vn 0.2202 0.7013 0.6780
vn 0.0000 0.7207 0.6933
vn 0.0000 1.0000 0.0000
vn -0.1602 0.9871 0.0000
vn -0.1681 0.9728 0.1590
vn -0.2202 0.7013 0.6780
vn -0.1681 0.9728 -0.1590
vn 0.0000 0.9885 -0.1509
vn -0.2202 0.7013 -0.6780
vn 0.0000 0.7207 -0.6933
vn 0.1681 0.9728 -0.1590
vn 0.2202 0.7013 -0.6780
vn 0.1681 -0.9728 0.1590
vn 0.2202 -0.7013 0.6780
vn 0.0000 -0.7207 0.6933
vn 0.0000 -0.9885 0.1509
vn 0.1602 -0.9871 0.0000
vn 0.0000 -1.0000 0.0000
vn -0.1602 -0.9871 0.0000
vn -0.1681 -0.9728 0.1590
vn -0.2202 -0.7013 0.6780
vn 0.1681 -0.9728 -0.1590
vn 0.0000 -0.9885 -0.1509
vn 0.2202 -0.7013 -0.6780
vn 0.0000 -0.7207 -0.6933
vn -0.1681 -0.9728 -0.1590
vn -0.2202 -0.7013 -0.6780
vn 0.1774 -0.1774 -0.9680
vn 0.7207 0.0000 -0.6933
vn 0.0000 -0.1700 -0.9854
vn 0.1700 0.0000 -0.9854
vn 0.0000 0.0000 -1.0000
vn -0.1774 -0.1774 -0.9680
vn -0.1700 0.0000 -0.9854
vn 0.1774 0.1774 -0.9680
vn 0.0000 0.1700 -0.9854
vn -0.1774 0.1774 -0.9680
vn -0.1774 0.1774 0.9680
vn -0.1700 0.0000 0.9854
vn 0.0000 0.1700 0.9854
vn 0.0000 0.0000 1.0000
vn 0.1774 0.1774 0.9680
vn 0.1700 0.0000 0.9854
vn 0.1774 -0.1774 0.9680
vn 0.0000 -0.1700 0.9854
vn -0.1774 -0.1774 0.9680
s 1
f 1//1 193//2 65//3
f 1//1 198//4 79//5
f 79//5 86//6 1//1
f 1//1 214//7 77//8
f 78//9 86//6 2//10
f 2//10 215//11 80//12
f 80//12 69//13 2//10
f 2//10 196//14 78//9
f 82//12 70//15 3//12
f 3//12 201//15 80//12
f 80//12 87//11 3//12
f 3//12 216//11 82//12
f 81//5 87//11 4//5
f 4//5 215//11 79//5
f 79//5 66//4 4//5
f 4//5 199//4 81//5
f 84//12 71//15 5//12
f 5//12 202//15 82//12
f 82//12 88//11 5//12
f 5//12 217//11 84//12
f 83//5 88//11 6//5
f 6//5 216//11 81//5
f 81//5 67//4 6//5
f 6//5 200//4 83//5
f 7//16 197//17 72//18
f 7//16 203//15 84//12
f 84//12 89//19 7//16
f 7//16 213//20 76//21
f 75//22 89//19 8//23
f 8//23 217//11 83//5
f 83//5 68//24 8//23
f 8//23 194//25 75//22
f 9//26 212//27 74//28
f 9//26 206//29 107//30
f 107//30 106//31 9//26
f 106//31 96//32 9//26
f 102//33 106//31 10//34
f 106//31 103//35 10//34
f 10//34 195//36 100//37
f 100//37 102//33 10//34
f 11//32 204//27 97//27
f 97//27 96//32 11//32
f 96//32 90//38 11//32
f 90//38 85//32 11//32
f 95//33 90//38 12//33
f 90//38 102//33 12//33
f 102//33 108//39 12//33
f 108//39 95//33 12//33
f 13//32 211//27 98//27
f 98//27 85//32 13//32
f 13//32 219//38 91//38
f 91//38 93//32 13//32
f 14//33 220//38 91//38
f 91//38 95//33 14//33
f 95//33 73//39 14//33
f 73//39 94//33 14//33
f 15//40 207//41 101//42
f 101//42 93//32 15//40
f 93//32 92//43 15//40
f 92//43 105//44 15//40
f 16//45 222//46 92//43
f 92//43 94//33 16//45
f 94//33 99//47 16//45
f 16//45 205//48 104//49
f 17//50 205//48 99//47
f 99//47 136//51 17//50
f 136//51 157//52 17//50
f 157//52 124//53 17//50
f 123//54 157//52 18//52
f 157//52 135//55 18//52
f 135//55 158//52 18//52
f 158//52 123//54 18//52
f 19//52 233//54 158//52
f 158//52 134//55 19//52
f 19//52 241//55 159//52
f 159//52 122//54 19//52
f 133//56 65//3 20//57
f 20//57 193//2 121//58
f 121//58 159//52 20//57
f 20//57 241//55 133//56
f 137//56 66//4 21//56
f 21//56 198//4 133//56
f 133//56 160//55 21//56
f 21//56 244//55 137//56
f 138//55 160//55 22//55
f 160//55 134//55 22//55
f 134//55 161//55 22//55
f 22//55 245//55 138//55
f 139//55 161//55 23//55
f 23//55 242//55 135//55
f 135//55 162//55 23//55
f 23//55 246//55 139//55
f 140//51 162//55 24//51
f 24//51 243//55 136//51
f 24//51 208//39 73//39
f 73//39 140//51 24//51
f 117//56 67//4 25//56
f 25//56 199//4 137//56
f 137//56 163//55 25//56
f 25//56 229//55 117//56
f 118//55 163//55 26//55
f 26//55 244//55 138//55
f 138//55 164//55 26//55
f 26//55 230//55 118//55
f 119//55 164//55 27//55
f 27//55 245//55 139//55
f 139//55 165//55 27//55
f 165//55 119//55 27//55
f 120//51 165//55 28//51
f 28//51 246//55 140//51
f 140//51 108//39 28//51
f 108//39 120//51 28//51
f 29//59 194//25 68//24
f 29//59 200//4 117//56
f 29//59 229//55 166//60
f 166//60 125//61 29//59
f 126//62 166//60 30//60
f 166//60 118//55 30//60
f 30//60 230//55 167//60
f 167//60 126//62 30//60
f 31//60 236//62 167//60
f 167//60 119//55 31//60
f 31//60 231//55 168//60
f 168//60 127//62 31//60
f 32//63 237//62 168//60
f 168//60 120//51 32//63
f 32//63 210//39 100//37
f 32//63 195//36 128//64
f 33//65 211//27 101//42
f 33//65 207//41 112//66
f 33//65 225//67 169//68
f 169//68 156//69 33//65
f 155//70 169//68 34//68
f 34//68 225//67 111//67
f 34//68 224//67 170//68
f 170//68 155//70 34//68
f 35//68 257//70 170//68
f 170//68 110//67 35//68
f 110//67 171//68 35//68
f 35//68 256//70 154//70
f 153//71 171//68 36//72
f 171//68 109//73 36//72
f 36//72 196//14 69//13
f 36//72 201//15 153//71
f 152//69 98//27 37//69
f 37//69 211//27 156//69
f 156//69 172//70 37//69
f 172//70 152//69 37//69
f 38//70 255//70 172//70
f 172//70 155//70 38//70
f 155//70 173//70 38//70
f 173//70 151//70 38//70
f 39//70 254//70 173//70
f 39//70 257//70 154//70
f 154//70 174//70 39//70
f 174//70 150//70 39//70
f 149//71 174//70 40//71
f 174//70 153//71 40//71
f 153//71 70//15 40//71
f 40//71 202//15 149//71
f 41//69 212//27 97//27
f 97//27 152//69 41//69
f 41//69 255//70 175//70
f 175//70 144//69 41//69
f 42//70 249//70 175//70
f 175//70 151//70 42//70
f 151//70 176//70 42//70
f 176//70 143//70 42//70
f 43//70 248//70 176//70
f 43//70 254//70 150//70
f 150//70 177//70 43//70
f 43//70 247//70 142//70
f 44//71 247//70 177//70
f 177//70 149//71 44//71
f 149//71 71//15 44//71
f 44//71 203//15 141//71
f 45//74 206//29 74//28
f 45//74 212//27 144//69
f 144//69 178//75 45//74
f 178//75 132//76 45//74
f 131//77 178//75 46//75
f 178//75 143//70 46//75
f 143//70 179//75 46//75
f 179//75 131//77 46//75
f 47//75 239//77 179//75
f 179//75 142//70 47//75
f 142//70 180//75 47//75
f 180//75 130//77 47//75
f 48//78 238//77 180//75
f 180//75 141//71 48//78
f 141//71 72//18 48//78
f 48//78 197//17 129//79
f 49//80 221//81 107//30
f 49//80 206//29 132//76
f 132//76 181//82 49//80
f 181//82 116//83 49//80
f 50//82 228//84 181//82
f 181//82 131//77 50//82
f 50//82 239//77 182//82
f 182//82 115//84 50//82
f 51//82 227//84 182//82
f 182//82 130//77 51//82
f 51//82 238//77 183//82
f 183//82 114//84 51//82
f 52//85 226//84 183//82
f 183//82 129//79 52//85
f 52//85 197//17 76//21
f 76//21 113//86 52//85
f 53//87 195//36 103//35
f 53//87 221//81 116//83
f 116//83 184//88 53//87
f 184//88 128//64 53//87
f 54//88 237//62 184//88
f 184//88 115//84 54//88
f 54//88 227//84 185//88
f 185//88 127//62 54//88
f 55//88 236//62 185//88
f 185//88 114//84 55//88
f 55//88 226//84 186//88
f 186//88 126//62 55//88
f 56//89 235//62 186//88
f 186//88 113//86 56//89
f 56//89 213//20 75//22
f 56//89 194//25 125//61
f 57//90 193//2 77//8
f 77//8 145//91 57//90
f 145//91 187//92 57//90
f 187//92 121//58 57//90
f 58//92 232//54 187//92
f 187//92 146//93 58//92
f 58//92 251//93 188//92
f 188//92 122//54 58//92
f 59//92 233//54 188//92
f 188//92 147//93 59//92
f 147//93 189//92 59//92
f 189//92 123//54 59//92
f 124//53 189//92 60//94
f 60//94 252//93 148//95
f 148//95 104//49 60//94
f 60//94 205//48 124//53
f 61//96 207//41 105//44
f 61//96 222//46 148//95
f 148//95 190//97 61//96
f 61//96 225//67 112//66
f 62//97 225//67 190//97
f 190//97 147//93 62//97
f 147//93 191//97 62//97
f 191//97 111//67 62//97
f 110//67 191//97 63//97
f 191//97 146//93 63//97
f 63//97 250//93 192//97
f 192//97 110//67 63//97
f 64//98 223//67 192//97
f 192//97 145//91 64//98
f 64//98 214//7 78//9
f 64//98 196//14 109//73
f 1//1 77//8 193//2
f 1//1 65//3 198//4
f 79//5 215//11 86//6
f 1//1 86//6 214//7
f 78//9 214//7 86//6
f 2//10 86//6 215//11
f 80//12 201//15 69//13
f 2//10 69//13 196//14
f 82//12 202//15 70//15
f 3//12 70//15 201//15
f 80//12 215//11 87//11
f 3//12 87//11 216//11
f 81//5 216//11 87//11
f 4//5 87//11 215//11
f 79//5 198//4 66//4
f 4//5 66//4 199//4
f 84//12 203//15 71//15
f 5//12 71//15 202//15
f 82//12 216//11 88//11
f 5//12 88//11 217//11
f 83//5 217//11 88//11
f 6//5 88//11 216//11
f 81//5 199//4 67//4
f 6//5 67//4 200//4
f 7//16 76//21 197//17
f 7//16 72//18 203//15
f 84//12 217//11 89//19
f 7//16 89//19 213//20
f 75//22 213//20 89//19
f 8//23 89//19 217//11
f 83//5 200//4 68//24
f 8//23 68//24 194//25
f 9//26 96//32 212//27
f 9//26 74//28 206//29
f 107//30 221//81 106//31
f 106//31 218//38 96//32
f 102//33 218//38 106//31
f 106//31 221//81 103//35
f 10//34 103//35 195//36
f 100//37 210//39 102//33
f 11//32 85//32 204//27
f 97//27 212//27 96//32
f 96//32 218//38 90//38
f 90//38 219//38 85//32
f 95//33 219//38 90//38
f 90//38 218//38 102//33
f 102//33 210//39 108//39
f 108//39 209//39 95//33
f 13//32 93//32 211//27
f 98//27 204//27 85//32
f 13//32 85//32 219//38
f 91//38 220//38 93//32
f 14//33 94//33 220//38
f 91//38 219//38 95//33
f 95//33 209//39 73//39
f 73//39 208//39 94//33
f 15//40 105//44 207//41
f 101//42 211//27 93//32
f 93//32 220//38 92//43
f 92//43 222//46 105//44
f 16//45 104//49 222//46
f 92//43 220//38 94//33
f 94//33 208//39 99//47
f 16//45 99//47 205//48
f 17//50 124//53 205//48
f 99//47 208//39 136//51
f 136//51 243//55 157//52
f 157//52 234//54 124//53
f 123//54 234//54 157//52
f 157//52 243//55 135//55
f 135//55 242//55 158//52
f 158//52 233//54 123//54
f 19//52 122//54 233//54
f 158//52 242//55 134//55
f 19//52 134//55 241//55
f 159//52 232//54 122//54
f 133//56 198//4 65//3
f 20//57 65//3 193//2
f 121//58 232//54 159//52
f 20//57 159//52 241//55
f 137//56 199//4 66//4
f 21//56 66//4 198//4
f 133//56 241//55 160//55
f 21//56 160//55 244//55
f 138//55 244//55 160//55
f 160//55 241//55 134//55
f 134//55 242//55 161//55
f 22//55 161//55 245//55
f 139//55 245//55 161//55
f 23//55 161//55 242//55
f 135//55 243//55 162//55
f 23//55 162//55 246//55
f 140//51 246//55 162//55
f 24//51 162//55 243//55
f 24//51 136//51 208//39
f 73//39 209//39 140//51
f 117//56 200//4 67//4
f 25//56 67//4 199//4
f 137//56 244//55 163//55
f 25//56 163//55 229//55
f 118//55 229//55 163//55
f 26//55 163//55 244//55
f 138//55 245//55 164//55
f 26//55 164//55 230//55
f 119//55 230//55 164//55
f 27//55 164//55 245//55
f 139//55 246//55 165//55
f 165//55 231//55 119//55
f 120//51 231//55 165//55
f 28//51 165//55 246//55
f 140//51 209//39 108//39
f 108//39 210//39 120//51
f 29//59 125//61 194//25
f 29//59 68//24 200//4
f 29//59 117//56 229//55
f 166//60 235//62 125//61
f 126//62 235//62 166//60
f 166//60 229//55 118//55
f 30//60 118//55 230//55
f 167//60 236//62 126//62
f 31//60 127//62 236//62
f 167//60 230//55 119//55
f 31//60 119//55 231//55
f 168//60 237//62 127//62
f 32//63 128//64 237//62
f 168//60 231//55 120//51
f 32//63 120//51 210//39
f 32//63 100//37 195//36
f 33//65 156//69 211//27
f 33//65 101//42 207//41
f 33//65 112//66 225//67
f 169//68 258//70 156//69
f 155//70 258//70 169//68
f 34//68 169//68 225//67
f 34//68 111//67 224//67
f 170//68 257//70 155//70
f 35//68 154//70 257//70
f 170//68 224//67 110//67
f 110//67 223//67 171//68
f 35//68 171//68 256//70
f 153//71 256//70 171//68
f 171//68 223//67 109//73
f 36//72 109//73 196//14
f 36//72 69//13 201//15
f 152//69 204//27 98//27
f 37//69 98//27 211//27
f 156//69 258//70 172//70
f 172//70 255//70 152//69
f 38//70 151//70 255//70
f 172//70 258//70 155//70
f 155//70 257//70 173//70
f 173//70 254//70 151//70
f 39//70 150//70 254//70
f 39//70 173//70 257//70
f 154//70 256//70 174//70
f 174//70 253//70 150//70
f 149//71 253//70 174//70
f 174//70 256//70 153//71
f 153//71 201//15 70//15
f 40//71 70//15 202//15
f 41//69 144//69 212//27
f 97//27 204//27 152//69
f 41//69 152//69 255//70
f 175//70 249//70 144//69
f 42//70 143//70 249//70
f 175//70 255//70 151//70
f 151//70 254//70 176//70
f 176//70 248//70 143//70
f 43//70 142//70 248//70
f 43//70 176//70 254//70
f 150//70 253//70 177//70
f 43//70 177//70 247//70
f 44//71 141//71 247//70
f 177//70 253//70 149//71
f 149//71 202//15 71//15
f 44//71 71//15 203//15
f 45//74 132//76 206//29
f 45//74 74//28 212//27
f 144//69 249//70 178//75
f 178//75 240//77 132//76
f 131//77 240//77 178//75
f 178//75 249//70 143//70
f 143//70 248//70 179//75
f 179//75 239//77 131//77
f 47//75 130//77 239//77
f 179//75 248//70 142//70
f 142//70 247//70 180//75
f 180//75 238//77 130//77
f 48//78 129//79 238//77
f 180//75 247//70 141//71
f 141//71 203//15 72//18
f 48//78 72//18 197//17
f 49//80 116//83 221//81
f 49//80 107//30 206//29
f 132//76 240//77 181//82
f 181//82 228//84 116//83
f 50//82 115//84 228//84
f 181//82 240//77 131//77
f 50//82 131//77 239//77
f 182//82 227//84 115//84
f 51//82 114//84 227//84
f 182//82 239//77 130//77
f 51//82 130//77 238//77
f 183//82 226//84 114//84
f 52//85 113//86 226//84
f 183//82 238//77 129//79
f 52//85 129//79 197//17
f 76//21 213//20 113//86
f 53//87 128//64 195//36
f 53//87 103//35 221//81
f 116//83 228//84 184//88
f 184//88 237//62 128//64
f 54//88 127//62 237//62
f 184//88 228//84 115//84
f 54//88 115//84 227//84
f 185//88 236//62 127//62
f 55//88 126//62 236//62
f 185//88 227//84 114//84
f 55//88 114//84 226//84
f 186//88 235//62 126//62
f 56//89 125//61 235//62
f 186//88 226//84 113//86
f 56//89 113//86 213//20
f 56//89 75//22 194//25
f 57//90 121//58 193//2
f 77//8 214//7 145//91
f 145//91 250//93 187//92
f 187//92 232//54 121//58
f 58//92 122//54 232//54
f 187//92 250//93 146//93
f 58//92 146//93 251//93
f 188//92 233//54 122//54
f 59//92 123//54 233//54
f 188//92 251//93 147//93
f 147//93 252//93 189//92
f 189//92 234//54 123//54
f 124//53 234//54 189//92
f 60//94 189//92 252//93
f 148//95 222//46 104//49
f 60//94 104//49 205//48
f 61//96 112//66 207//41
f 61//96 105//44 222//46
f 148//95 252//93 190//97
f 61//96 190//97 225//67
f 62//97 111//67 225//67
f 190//97 252//93 147//93
f 147//93 251//93 191//97
f 191//97 224//67 111//67
f 110//67 224//67 191//97
f 191//97 251//93 146//93
f 63//97 146//93 250//93
f 192//97 223//67 110//67
f 64//98 109//73 223//67
f 192//97 250//93 145//91
f 64//98 145//91 214//7
f 64//98 78//9 196//14
