# Blender v2.78 (sub 0) OBJ File: 'material setup.blend'
# www.blender.org
o top_light_Plane.006
v 0.500000 1.000000 0.500000
v -0.500000 1.000000 0.500000
v 0.500000 1.000000 -0.500000
v -0.500000 1.000000 -0.500000
vn 0.0000 -1.0000 0.0000
s off
f 1//1 4//1 3//1
f 1//1 2//1 4//1
