# Blender v2.79 (sub 0) OBJ File: 'sphere_on_plane_ggx.blend'
# www.blender.org
o Plane
v -10.000000 0.000000 10.000000
v 10.000000 0.000000 10.000000
v -10.000000 0.000000 -10.000000
v 10.000000 0.000000 -10.000000
vn 0.0000 1.0000 0.0000
vt 0.0 0.0
vt 1.0 0.0
vt 1.0 1.0
vt 0.0 1.0
s off
f 2/3/1 3/1/1 1/4/1
f 2/3/1 4/2/1 3/1/1
