# Blender v2.79 (sub 0) OBJ File: 'thin_glass.blend'
# www.blender.org
o Plane.001
v -9.657820 0.000000 3.000000
v -1.657819 0.000000 3.000000
v -9.657820 8.000000 3.000000
v -1.657819 8.000000 3.000000
vn 0.0000 -0.0000 1.0000
s off
f 2//1 3//1 1//1
f 2//1 4//1 3//1
