# Blender v2.79 (sub 0) OBJ File: 'fiat500.blend'
# www.blender.org
o brake_part.002_Plane.054
v -1.572684 -0.554387 -1.077876
v -1.558780 -0.611376 -1.078389
v -1.550513 -0.557814 -1.078695
v -1.580951 -0.607949 -1.077570
v -1.537257 -0.575925 -1.079184
v -1.594207 -0.589838 -1.077081
v -1.540682 -0.598111 -1.079058
v -1.590783 -0.567652 -1.077207
v -1.590904 -0.567652 -1.080495
v -1.540803 -0.598111 -1.082346
v -1.594329 -0.589838 -1.080369
v -1.537379 -0.575925 -1.082472
v -1.581073 -0.607949 -1.080858
v -1.550635 -0.557814 -1.081983
v -1.558902 -0.611376 -1.081677
v -1.572806 -0.554387 -1.081164
v -1.551501 -0.559200 -1.082617
v -1.559311 -0.609799 -1.082328
v -1.572446 -0.555963 -1.081843
v -1.589543 -0.568494 -1.081212
v -1.542213 -0.597268 -1.082960
v -1.592778 -0.589453 -1.081092
v -1.538979 -0.576310 -1.083080
v -1.580255 -0.606562 -1.081555
v -1.570000 -0.565987 -1.081934
v -1.580731 -0.573852 -1.081537
v -1.551026 -0.591911 -1.082635
v -1.582761 -0.587006 -1.081462
v -1.548995 -0.578757 -1.082710
v -1.574902 -0.597744 -1.081753
v -1.556855 -0.568018 -1.082419
v -1.561756 -0.599776 -1.082238
v -1.437395 -0.739227 -1.082873
v -1.487496 -0.708768 -1.081023
v -1.433971 -0.717041 -1.083000
v -1.490921 -0.730954 -1.080896
v -1.447227 -0.698930 -1.082510
v -1.477665 -0.749065 -1.081386
v -1.469398 -0.695503 -1.081691
v -1.455494 -0.752492 -1.082205
v -1.455616 -0.752492 -1.085492
v -1.469519 -0.695503 -1.084979
v -1.477787 -0.749065 -1.084674
v -1.447348 -0.698930 -1.085798
v -1.491042 -0.730954 -1.084184
v -1.434093 -0.717041 -1.086288
v -1.487618 -0.708768 -1.084310
v -1.437517 -0.739227 -1.086161
v -1.435692 -0.717425 -1.086895
v -1.486257 -0.709610 -1.085027
v -1.438927 -0.738384 -1.086775
v -1.456025 -0.750915 -1.086144
v -1.469159 -0.697079 -1.085659
v -1.476969 -0.747678 -1.085370
v -1.448215 -0.700316 -1.086432
v -1.489492 -0.730569 -1.084907
v -1.447739 -0.733027 -1.086450
v -1.458470 -0.740892 -1.086053
v -1.466714 -0.707103 -1.085749
v -1.471616 -0.738860 -1.085568
v -1.453568 -0.709134 -1.086234
v -1.479475 -0.728122 -1.085277
v -1.445709 -0.719873 -1.086525
v -1.477445 -0.714968 -1.085352
v -1.572763 -0.554387 -1.080009
v -1.558859 -0.611376 -1.080523
v -1.550592 -0.557814 -1.080828
v -1.581030 -0.607949 -1.079704
v -1.537336 -0.575925 -1.081318
v -1.594286 -0.589838 -1.079214
v -1.540761 -0.598111 -1.081191
v -1.590862 -0.567652 -1.079341
v -1.561365 -0.553803 -1.081586
v -1.570342 -0.611960 -1.081255
v -1.542133 -0.565496 -1.082297
v -1.589575 -0.600267 -1.080544
v -1.548358 -0.606619 -1.078774
v -1.536795 -0.587373 -1.082494
v -1.583106 -0.559144 -1.077491
v -1.594912 -0.578390 -1.080347
v -1.558683 -0.611376 -1.075767
v -1.580854 -0.607949 -1.074948
v -1.594110 -0.589838 -1.074458
v -1.590686 -0.567652 -1.074585
v -1.572587 -0.554387 -1.075253
v -1.550416 -0.557814 -1.076072
v -1.537161 -0.575925 -1.076562
v -1.540585 -0.598111 -1.076435
v -1.559016 -0.610982 -1.082173
v -1.580881 -0.607602 -1.081365
v -1.593953 -0.589742 -1.080882
v -1.590576 -0.567863 -1.081007
v -1.572728 -0.554781 -1.081666
v -1.550864 -0.558160 -1.082474
v -1.537791 -0.576021 -1.082957
v -1.541168 -0.597900 -1.082832
v -1.594791 -0.578390 -1.077059
v -1.583228 -0.559144 -1.080779
v -1.536674 -0.587373 -1.079206
v -1.548480 -0.606619 -1.082062
v -1.589453 -0.600267 -1.077256
v -1.542011 -0.565496 -1.079009
v -1.570220 -0.611960 -1.077967
v -1.561244 -0.553803 -1.078298
v -1.560115 -0.606505 -1.082299
v -1.578496 -0.603664 -1.081620
v -1.589486 -0.588649 -1.081214
v -1.586647 -0.570255 -1.081319
v -1.571642 -0.559257 -1.081873
v -1.553260 -0.562098 -1.082552
v -1.542270 -0.577114 -1.082958
v -1.545109 -0.595508 -1.082853
v -1.561638 -0.555411 -1.082242
v -1.543469 -0.566457 -1.082914
v -1.549465 -0.605305 -1.082692
v -1.570118 -0.610351 -1.081929
v -1.582291 -0.560457 -1.081480
v -1.593329 -0.578639 -1.081072
v -1.538427 -0.587124 -1.083100
v -1.588287 -0.599305 -1.081258
v -1.568180 -0.597797 -1.082001
v -1.574790 -0.570705 -1.081757
v -1.563576 -0.567966 -1.082171
v -1.580784 -0.580578 -1.081535
v -1.550973 -0.585185 -1.082636
v -1.556966 -0.595057 -1.082415
v -1.578046 -0.591799 -1.081636
v -1.553711 -0.573963 -1.082535
v -1.437474 -0.739227 -1.085006
v -1.487575 -0.708768 -1.083156
v -1.434050 -0.717041 -1.085133
v -1.491000 -0.730954 -1.083029
v -1.447306 -0.698930 -1.084643
v -1.477744 -0.749065 -1.083519
v -1.469477 -0.695503 -1.083824
v -1.455573 -0.752492 -1.084338
v -1.433509 -0.728489 -1.086309
v -1.491626 -0.719506 -1.084162
v -1.438846 -0.706612 -1.086112
v -1.486289 -0.741383 -1.084360
v -1.479820 -0.700260 -1.081306
v -1.458079 -0.694919 -1.085402
v -1.445072 -0.747735 -1.082590
v -1.467056 -0.753076 -1.085070
v -1.487400 -0.708768 -1.078400
v -1.490824 -0.730954 -1.078273
v -1.477568 -0.749065 -1.078763
v -1.455397 -0.752492 -1.079582
v -1.437299 -0.739227 -1.080250
v -1.433874 -0.717041 -1.080377
v -1.447130 -0.698930 -1.079887
v -1.469301 -0.695503 -1.079068
v -1.487290 -0.708978 -1.084822
v -1.490667 -0.730858 -1.084697
v -1.477594 -0.748718 -1.085180
v -1.455730 -0.752097 -1.085988
v -1.437882 -0.739016 -1.086647
v -1.434505 -0.717137 -1.086772
v -1.447577 -0.699276 -1.086289
v -1.469442 -0.695897 -1.085482
v -1.466934 -0.753076 -1.081782
v -1.445194 -0.747735 -1.085878
v -1.457958 -0.694919 -1.082114
v -1.479941 -0.700260 -1.084594
v -1.486167 -0.741383 -1.081072
v -1.438725 -0.706612 -1.082824
v -1.491505 -0.719506 -1.080874
v -1.433387 -0.728489 -1.083021
v -1.483361 -0.711371 -1.085134
v -1.486200 -0.729765 -1.085029
v -1.475210 -0.744780 -1.085435
v -1.456828 -0.747621 -1.086114
v -1.441823 -0.736624 -1.086668
v -1.438984 -0.718230 -1.086773
v -1.449974 -0.703214 -1.086367
v -1.468356 -0.700373 -1.085688
v -1.435141 -0.728240 -1.086915
v -1.440183 -0.707573 -1.086729
v -1.479005 -0.701573 -1.085295
v -1.490043 -0.719755 -1.084887
v -1.446179 -0.746421 -1.086507
v -1.466832 -0.751467 -1.085745
v -1.458352 -0.696527 -1.086058
v -1.485001 -0.740421 -1.085073
v -1.477497 -0.721694 -1.085351
v -1.453680 -0.736173 -1.086230
v -1.447687 -0.726301 -1.086452
v -1.464894 -0.738913 -1.085816
v -1.460290 -0.709082 -1.085986
v -1.471504 -0.711821 -1.085572
v -1.474760 -0.732915 -1.085452
v -1.450424 -0.715079 -1.086351
v -1.561323 -0.553803 -1.080432
v -1.570299 -0.611960 -1.080100
v -1.542090 -0.565496 -1.081142
v -1.589532 -0.600267 -1.079390
v -1.548437 -0.606619 -1.080908
v -1.536752 -0.587373 -1.081339
v -1.583185 -0.559144 -1.079624
v -1.594870 -0.578390 -1.079193
v -1.548261 -0.606619 -1.076152
v -1.570123 -0.611960 -1.075344
v -1.589356 -0.600267 -1.074634
v -1.594694 -0.578390 -1.074437
v -1.583009 -0.559144 -1.074868
v -1.561147 -0.553803 -1.075676
v -1.541914 -0.565496 -1.076386
v -1.536577 -0.587373 -1.076583
v -1.548738 -0.606290 -1.082552
v -1.570298 -0.611558 -1.081756
v -1.589265 -0.600027 -1.081056
v -1.594529 -0.578452 -1.080861
v -1.583006 -0.559472 -1.081287
v -1.561446 -0.554205 -1.082083
v -1.542479 -0.565736 -1.082784
v -1.537215 -0.587310 -1.082978
v -1.551821 -0.602087 -1.082605
v -1.569510 -0.606408 -1.081952
v -1.585071 -0.596948 -1.081377
v -1.589389 -0.579248 -1.081217
v -1.579935 -0.563676 -1.081567
v -1.562247 -0.559354 -1.082220
v -1.546686 -0.568815 -1.082795
v -1.542367 -0.586515 -1.082954
v -1.565878 -0.582881 -1.082086
v -1.433466 -0.728489 -1.085154
v -1.491583 -0.719506 -1.083008
v -1.438804 -0.706612 -1.084957
v -1.486246 -0.741383 -1.083205
v -1.479899 -0.700260 -1.083439
v -1.458037 -0.694919 -1.084247
v -1.445151 -0.747735 -1.084723
v -1.467013 -0.753076 -1.083915
v -1.479723 -0.700260 -1.078683
v -1.491408 -0.719506 -1.078252
v -1.486070 -0.741383 -1.078449
v -1.466837 -0.753076 -1.079159
v -1.444975 -0.747735 -1.079967
v -1.433291 -0.728489 -1.080398
v -1.438628 -0.706612 -1.080201
v -1.457861 -0.694919 -1.079491
v -1.479719 -0.700588 -1.085102
v -1.491243 -0.719568 -1.084676
v -1.485979 -0.741143 -1.084871
v -1.467012 -0.752674 -1.085571
v -1.445452 -0.747406 -1.086368
v -1.433929 -0.728426 -1.086793
v -1.439193 -0.706852 -1.086599
v -1.458160 -0.695321 -1.085898
v -1.476649 -0.704792 -1.085382
v -1.486103 -0.720363 -1.085033
v -1.481784 -0.738064 -1.085192
v -1.466223 -0.747524 -1.085767
v -1.448535 -0.743203 -1.086420
v -1.439081 -0.727631 -1.086770
v -1.443400 -0.709931 -1.086610
v -1.458961 -0.700470 -1.086035
v -1.462592 -0.723997 -1.085901
vt 0.000000 0.000000
vt 0.000000 0.000000
vt 0.000000 0.000000
vt 0.000000 0.000000
vt 0.000000 0.000000
vt 0.000000 0.000000
vt 0.000000 0.000000
vt 0.000000 0.000000
vt 0.000000 0.000000
vt 0.000000 0.000000
vt 0.000000 0.000000
vt 0.000000 0.000000
vt 0.000000 0.000000
vt 0.000000 0.000000
vt 0.000000 0.000000
vt 0.000000 0.000000
vt 0.000000 0.000000
vt 0.000000 0.000000
vt 0.000000 0.000000
vt 0.000000 0.000000
vt 0.000000 0.000000
vt 0.000000 0.000000
vt 0.000000 0.000000
vt 0.000000 0.000000
vt 0.000000 0.000000
vt 0.000000 0.000000
vt 0.000000 0.000000
vt 0.000000 0.000000
vt 0.000000 0.000000
vt 0.000000 0.000000
vt 0.000000 0.000000
vt 0.000000 0.000000
vt 0.000000 0.000000
vt 0.000000 0.000000
vt 0.000000 0.000000
vt 0.000000 0.000000
vt 0.000000 0.000000
vt 0.000000 0.000000
vt 0.000000 0.000000
vt 0.000000 0.000000
vt 0.000000 0.000000
vt 0.000000 0.000000
vt 0.000000 0.000000
vt 0.000000 0.000000
vt 0.000000 0.000000
vt 0.000000 0.000000
vt 0.000000 0.000000
vt 0.000000 0.000000
vt 0.000000 0.000000
vt 0.000000 0.000000
vt 0.000000 0.000000
vt 0.000000 0.000000
vt 0.000000 0.000000
vt 0.000000 0.000000
vt 0.000000 0.000000
vt 0.000000 0.000000
vt 0.000000 0.000000
vt 0.000000 0.000000
vt 0.000000 0.000000
vt 0.000000 0.000000
vt 0.000000 0.000000
vt 0.000000 0.000000
vt 0.000000 0.000000
vt 0.000000 0.000000
vt 0.000000 0.000000
vt 0.000000 0.000000
vt 0.000000 0.000000
vt 0.000000 0.000000
vt 0.000000 0.000000
vt 0.000000 0.000000
vt 0.000000 0.000000
vt 0.000000 0.000000
vt 0.000000 0.000000
vt 0.000000 0.000000
vt 0.000000 0.000000
vt 0.000000 0.000000
vt 0.000000 0.000000
vt 0.000000 0.000000
vt 0.000000 0.000000
vt 0.000000 0.000000
vt 0.000000 0.000000
vt 0.000000 0.000000
vt 0.000000 0.000000
vt 0.000000 0.000000
vt 0.000000 0.000000
vt 0.000000 0.000000
vt 0.000000 0.000000
vt 0.000000 0.000000
vt 0.000000 0.000000
vt 0.000000 0.000000
vt 0.000000 0.000000
vt 0.000000 0.000000
vt 0.000000 0.000000
vt 0.000000 0.000000
vt 0.000000 0.000000
vt 0.000000 0.000000
vt 0.000000 0.000000
vt 0.000000 0.000000
vt 0.000000 0.000000
vt 0.000000 0.000000
vt 0.000000 0.000000
vt 0.000000 0.000000
vt 0.000000 0.000000
vt 0.000000 0.000000
vt 0.000000 0.000000
vt 0.000000 0.000000
vt 0.000000 0.000000
vt 0.000000 0.000000
vt 0.000000 0.000000
vt 0.000000 0.000000
vt 0.000000 0.000000
vt 0.000000 0.000000
vt 0.000000 0.000000
vt 0.000000 0.000000
vt 0.000000 0.000000
vt 0.000000 0.000000
vt 0.000000 0.000000
vt 0.000000 0.000000
vt 0.000000 0.000000
vt 0.000000 0.000000
vt 0.000000 0.000000
vt 0.000000 0.000000
vt 0.000000 0.000000
vt 0.000000 0.000000
vt 0.000000 0.000000
vt 0.000000 0.000000
vt 0.000000 0.000000
vt 0.000000 0.000000
vt 0.000000 0.000000
vt 0.000000 0.000000
vt 0.000000 0.000000
vt 0.000000 0.000000
vt 0.000000 0.000000
vt 0.000000 0.000000
vt 0.000000 0.000000
vt 0.000000 0.000000
vt 0.000000 0.000000
vt 0.000000 0.000000
vt 0.000000 0.000000
vt 0.000000 0.000000
vt 0.000000 0.000000
vt 0.000000 0.000000
vt 0.000000 0.000000
vt 0.000000 0.000000
vt 0.000000 0.000000
vt 0.000000 0.000000
vt 0.000000 0.000000
vt 0.000000 0.000000
vt 0.000000 0.000000
vt 0.000000 0.000000
vt 0.000000 0.000000
vt 0.000000 0.000000
vt 0.000000 0.000000
vt 0.000000 0.000000
vt 0.000000 0.000000
vt 0.000000 0.000000
vt 0.000000 0.000000
vt 0.000000 0.000000
vt 0.000000 0.000000
vt 0.000000 0.000000
vt 0.000000 0.000000
vt 0.000000 0.000000
vt 0.000000 0.000000
vt 0.000000 0.000000
vt 0.000000 0.000000
vt 0.000000 0.000000
vt 0.000000 0.000000
vt 0.000000 0.000000
vt 0.000000 0.000000
vt 0.000000 0.000000
vt 0.000000 0.000000
vt 0.000000 0.000000
vt 0.000000 0.000000
vt 0.000000 0.000000
vt 0.000000 0.000000
vt 0.000000 0.000000
vt 0.000000 0.000000
vt 0.000000 0.000000
vt 0.000000 0.000000
vt 0.000000 0.000000
vt 0.000000 0.000000
vt 0.000000 0.000000
vt 0.000000 0.000000
vt 0.000000 0.000000
vt 0.000000 0.000000
vt 0.000000 0.000000
vt 0.000000 0.000000
vt 0.000000 0.000000
vt 0.000000 0.000000
vt 0.000000 0.000000
vt 0.000000 0.000000
vt 0.000000 0.000000
vt 0.000000 0.000000
vt 0.000000 0.000000
vt 0.000000 0.000000
vt 0.000000 0.000000
vt 0.000000 0.000000
vt 0.000000 0.000000
vt 0.000000 0.000000
vt 0.000000 0.000000
vt 0.000000 0.000000
vt 0.000000 0.000000
vt 0.000000 0.000000
vt 0.000000 0.000000
vt 0.000000 0.000000
vt 0.000000 0.000000
vt 0.000000 0.000000
vt 0.000000 0.000000
vt 0.000000 0.000000
vt 0.000000 0.000000
vt 0.000000 0.000000
vt 0.000000 0.000000
vt 0.000000 0.000000
vt 0.000000 0.000000
vt 0.000000 0.000000
vt 0.000000 0.000000
vt 0.000000 0.000000
vt 0.000000 0.000000
vt 0.000000 0.000000
vt 0.000000 0.000000
vt 0.000000 0.000000
vt 0.000000 0.000000
vt 0.000000 0.000000
vt 0.000000 0.000000
vt 0.000000 0.000000
vt 0.000000 0.000000
vt 0.000000 0.000000
vt 0.000000 0.000000
vt 0.000000 0.000000
vt 0.000000 0.000000
vt 0.000000 0.000000
vt 0.000000 0.000000
vt 0.000000 0.000000
vt 0.000000 0.000000
vt 0.000000 0.000000
vt 0.000000 0.000000
vt 0.000000 0.000000
vt 0.000000 0.000000
vt 0.000000 0.000000
vt 0.000000 0.000000
vt 0.000000 0.000000
vt 0.000000 0.000000
vt 0.000000 0.000000
vt 0.000000 0.000000
vt 0.000000 0.000000
vt 0.000000 0.000000
vt 0.000000 0.000000
vt 0.000000 0.000000
vt 0.000000 0.000000
vt 0.000000 0.000000
vt 0.000000 0.000000
vt 0.000000 0.000000
vt 0.000000 0.000000
vt 0.000000 0.000000
vt 0.000000 0.000000
vt 0.000000 0.000000
vt 0.000000 0.000000
vt 0.000000 0.000000
vn -0.5905 0.8068 0.0218
vn -0.2370 0.9715 0.0088
vn 0.1525 0.9883 -0.0056
vn 0.5905 -0.8068 -0.0218
vn 0.2370 -0.9715 -0.0087
vn 0.2370 -0.9714 -0.0088
vn -0.1525 -0.9883 0.0056
vn 0.5188 0.8546 -0.0191
vn 0.5188 0.8546 -0.0192
vn 0.8062 0.5909 -0.0298
vn -0.5188 -0.8546 0.0192
vn -0.5188 -0.8546 0.0191
vn -0.8062 -0.5909 0.0298
vn 0.9708 0.2372 -0.0359
vn 0.9876 -0.1526 -0.0365
vn 0.9708 0.2372 -0.0358
vn -0.9708 -0.2372 0.0359
vn -0.9876 0.1526 0.0365
vn 0.8540 -0.5192 -0.0315
vn -0.8541 0.5192 0.0315
vn -0.8540 0.5192 0.0315
vn -0.8540 0.5192 0.0316
vn -0.9468 0.1444 -0.2876
vn -0.8202 0.4915 -0.2925
vn -0.5708 0.7637 -0.3015
vn -0.3407 0.4226 -0.8398
vn -0.4774 0.2711 -0.8358
vn -0.5488 0.0799 -0.8321
vn 0.9230 -0.1445 -0.3565
vn 0.7965 -0.4915 -0.3522
vn 0.5471 -0.7637 -0.3427
vn 0.2779 -0.4227 -0.8626
vn 0.4145 -0.2711 -0.8687
vn 0.4860 -0.0800 -0.8703
vn -0.7751 -0.5593 -0.2938
vn -0.9308 -0.2245 -0.2884
vn -0.5384 -0.1238 -0.8335
vn -0.4538 -0.3096 -0.8356
vn 0.7512 0.5594 -0.3503
vn 0.9070 0.2245 -0.3563
vn 0.4755 0.1238 -0.8709
vn 0.3909 0.3096 -0.8668
vn -0.5030 -0.8090 -0.3042
vn -0.3024 -0.4463 -0.8422
vn -0.1114 -0.5177 -0.8483
vn -0.1563 -0.9355 -0.3168
vn 0.1325 0.9355 -0.3273
vn 0.4793 0.8089 -0.3404
vn 0.2395 0.4462 -0.8622
vn 0.0485 0.5177 -0.8541
vn 0.2124 -0.9195 -0.3306
vn 0.0923 -0.5073 -0.8568
vn -0.2362 0.9196 -0.3140
vn -0.1553 0.5073 -0.8476
vn -0.0251 0.0755 -0.9968
vn 0.0026 0.0649 -0.9979
vn 0.0248 0.0451 -0.9987
vn -0.0369 0.0000 -0.9993
vn 0.0083 -0.0617 -0.9980
vn -0.0188 -0.0738 -0.9971
vn -0.0485 -0.0755 -0.9959
vn -0.0820 0.0617 -0.9947
vn -0.0548 0.0739 -0.9958
vn -0.1123 0.0117 -0.9936
vn -0.1018 0.0395 -0.9940
vn 0.0387 -0.0117 -0.9992
vn 0.0281 -0.0395 -0.9988
vn -0.0984 -0.0452 -0.9941
vn -0.1105 -0.0180 -0.9937
vn 0.0370 0.0180 -0.9991
vn -0.0762 -0.0649 -0.9950
vn 0.5905 -0.8067 -0.0218
vn 0.9876 -0.1526 -0.0364
vn -0.9876 0.1526 0.0364
vn -0.5189 -0.8546 0.0192
vn -0.2370 0.9714 0.0088
vn 0.2370 -0.9714 -0.0087
vn 0.2124 -0.9196 -0.3305
vn 0.2779 -0.4226 -0.8626
vn 0.1325 0.9355 -0.3274
vn -0.2362 0.9195 -0.3140
vn 0.0485 0.5177 -0.8542
vn -0.1552 0.5073 -0.8476
vn -0.5709 0.7636 -0.3015
vn -0.5030 -0.8090 -0.3041
vn -0.4538 -0.3095 -0.8356
vn 0.7513 0.5593 -0.3502
vn 0.4792 0.8090 -0.3404
vn 0.3909 0.3095 -0.8668
vn 0.2394 0.4462 -0.8622
vn -0.9468 0.1445 -0.2875
vn -0.5489 0.0800 -0.8320
vn 0.9230 -0.1445 -0.3566
vn 0.9070 0.2245 -0.3562
vn 0.4859 -0.0799 -0.8703
vn -0.8203 0.4915 -0.2925
vn 0.7964 -0.4915 -0.3522
vn 0.4144 -0.2711 -0.8687
vn 0.0371 0.0180 -0.9991
vn 0.0248 0.0452 -0.9987
vn -0.0819 0.0617 -0.9947
vn -0.1017 0.0395 -0.9940
vn 0.0083 -0.0616 -0.9980
vn -0.0188 -0.0739 -0.9971
vn -0.1106 -0.0180 -0.9937
vn -0.5905 0.8067 0.0218
vn -0.8062 -0.5909 0.0297
vn -0.8062 -0.5908 0.0298
vn 0.8062 0.5908 -0.0298
vn 0.1526 0.9883 -0.0056
s 1
f 79/1/1 85/2/2 1/3/2
f 85/2/2 104/4/3 1/3/2
f 104/4/3 65/5/2 1/3/2
f 65/5/2 79/1/1 1/3/2
f 77/6/4 81/7/5 2/8/6
f 81/7/5 103/9/7 2/8/6
f 103/9/7 66/10/6 2/8/6
f 66/10/6 77/6/4 2/8/6
f 104/4/3 86/11/8 3/12/9
f 86/11/8 102/13/10 3/12/9
f 102/13/10 67/14/8 3/12/9
f 67/14/8 104/4/3 3/12/9
f 103/9/7 82/15/11 4/16/12
f 82/15/11 101/17/13 4/16/12
f 101/17/13 68/18/12 4/16/12
f 68/18/12 103/9/7 4/16/12
f 102/13/10 87/19/14 5/20/14
f 87/19/14 99/21/15 5/20/14
f 99/21/15 69/22/16 5/20/14
f 69/22/16 102/13/10 5/20/14
f 101/17/13 83/23/17 6/24/17
f 83/23/17 97/25/18 6/24/17
f 97/25/18 70/26/17 6/24/17
f 70/26/17 101/17/13 6/24/17
f 99/21/15 88/27/19 7/28/19
f 88/27/19 77/6/4 7/28/19
f 77/6/4 71/29/19 7/28/19
f 71/29/19 99/21/15 7/28/19
f 97/25/18 84/30/20 8/31/21
f 84/30/20 79/1/1 8/31/21
f 79/1/1 72/32/22 8/31/21
f 72/32/22 97/25/18 8/31/21
f 80/33/23 72/32/22 9/34/24
f 72/32/22 98/35/25 9/34/24
f 9/34/24 213/36/26 92/37/27
f 9/34/24 212/38/28 80/33/23
f 78/39/29 71/29/19 10/40/30
f 71/29/19 100/41/31 10/40/30
f 10/40/30 209/42/32 96/43/33
f 10/40/30 216/44/34 78/39/29
f 76/45/35 70/26/17 11/46/36
f 70/26/17 80/33/23 11/46/36
f 11/46/36 212/38/28 91/47/37
f 11/46/36 211/48/38 76/45/35
f 75/49/39 69/22/16 12/50/40
f 69/22/16 78/39/29 12/50/40
f 12/50/40 216/44/34 95/51/41
f 12/50/40 215/52/42 75/49/39
f 13/53/43 194/54/7 68/18/12
f 68/18/12 76/45/35 13/53/43
f 13/53/43 211/48/38 90/55/44
f 13/53/43 210/56/45 74/57/46
f 73/58/47 67/14/8 14/59/48
f 67/14/8 75/49/39 14/59/48
f 14/59/48 215/52/42 94/60/49
f 14/59/48 214/61/50 73/58/47
f 100/41/31 66/10/6 15/62/51
f 66/10/6 74/57/46 15/62/51
f 15/62/51 210/56/45 89/63/52
f 15/62/51 209/42/32 100/41/31
f 98/35/25 65/5/2 16/64/53
f 65/5/2 73/58/47 16/64/53
f 16/64/53 214/61/50 93/65/54
f 16/64/53 213/36/26 98/35/25
f 113/66/55 94/60/49 17/67/56
f 94/60/49 114/68/57 17/67/56
f 114/68/57 110/69/58 17/67/56
f 110/69/58 113/66/55 17/67/56
f 115/70/59 89/63/52 18/71/60
f 89/63/52 116/72/61 18/71/60
f 116/72/61 105/73/58 18/71/60
f 105/73/58 115/70/59 18/71/60
f 117/74/62 93/65/54 19/75/63
f 93/65/54 113/66/55 19/75/63
f 113/66/55 109/76/58 19/75/63
f 109/76/58 117/74/62 19/75/63
f 118/77/64 92/37/27 20/78/65
f 92/37/27 117/74/62 20/78/65
f 117/74/62 108/79/58 20/78/65
f 108/79/58 118/77/64 20/78/65
f 119/80/66 96/43/33 21/81/67
f 96/43/33 115/70/59 21/81/67
f 115/70/59 112/82/58 21/81/67
f 112/82/58 119/80/66 21/81/67
f 120/83/68 91/47/37 22/84/69
f 91/47/37 118/77/64 22/84/69
f 118/77/64 107/85/58 22/84/69
f 107/85/58 120/83/68 22/84/69
f 114/68/57 95/51/41 23/86/70
f 95/51/41 119/80/66 23/86/70
f 119/80/66 111/87/58 23/86/70
f 111/87/58 114/68/57 23/86/70
f 116/72/61 90/55/44 24/88/71
f 90/55/44 120/83/68 24/88/71
f 120/83/68 106/89/58 24/88/71
f 106/89/58 116/72/61 24/88/71
f 25/90/58 221/91/58 109/76/58
f 25/90/58 222/92/58 123/93/58
f 123/93/58 122/94/58 25/90/58
f 26/95/58 220/96/58 108/79/58
f 26/95/58 221/91/58 122/94/58
f 122/94/58 124/97/58 26/95/58
f 27/98/58 224/99/58 112/82/58
f 27/98/58 217/100/58 126/101/58
f 126/101/58 125/102/58 27/98/58
f 28/103/58 219/104/58 107/85/58
f 28/103/58 220/96/58 124/97/58
f 124/97/58 127/105/58 28/103/58
f 29/106/58 223/107/58 111/87/58
f 29/106/58 224/99/58 125/102/58
f 125/102/58 128/108/58 29/106/58
f 30/109/58 218/110/58 106/89/58
f 30/109/58 219/104/58 127/105/58
f 127/105/58 121/111/58 30/109/58
f 31/112/58 222/92/58 110/69/58
f 31/112/58 223/107/58 128/108/58
f 128/108/58 123/93/58 31/112/58
f 32/113/58 217/100/58 105/73/58
f 32/113/58 218/110/58 121/111/58
f 121/111/58 126/101/58 32/113/58
f 149/114/19 143/115/72 33/116/19
f 33/116/19 232/117/72 129/118/19
f 129/118/19 168/119/73 33/116/19
f 168/119/73 149/114/19 33/116/19
f 145/120/20 141/121/1 34/122/21
f 141/121/1 130/123/21 34/122/21
f 130/123/21 167/124/74 34/122/21
f 167/124/74 145/120/20 34/122/21
f 150/125/14 168/119/73 35/126/14
f 168/119/73 131/127/16 35/126/14
f 131/127/16 166/128/10 35/126/14
f 166/128/10 150/125/14 35/126/14
f 36/129/17 235/130/74 167/124/74
f 167/124/74 132/131/17 36/129/17
f 132/131/17 165/132/13 36/129/17
f 165/132/13 146/133/17 36/129/17
f 151/134/8 166/128/10 37/135/8
f 166/128/10 133/136/8 37/135/8
f 133/136/8 163/137/3 37/135/8
f 163/137/3 151/134/8 37/135/8
f 147/138/75 165/132/13 38/139/11
f 165/132/13 134/140/11 38/139/11
f 38/139/11 233/141/7 161/142/7
f 161/142/7 147/138/75 38/139/11
f 152/143/2 163/137/3 39/144/76
f 163/137/3 135/145/2 39/144/76
f 135/145/2 141/121/1 39/144/76
f 141/121/1 152/143/2 39/144/76
f 148/146/5 161/142/7 40/147/5
f 161/142/7 136/148/77 40/147/5
f 40/147/5 232/117/72 143/115/72
f 143/115/72 148/146/5 40/147/5
f 41/149/78 233/141/7 144/150/46
f 41/149/78 245/151/45 156/152/52
f 41/149/78 246/153/79 162/154/31
f 162/154/31 136/148/77 41/149/78
f 135/145/2 142/155/80 42/156/81
f 42/156/81 249/157/82 160/158/83
f 42/156/81 242/159/26 164/160/84
f 164/160/84 135/145/2 42/156/81
f 134/140/11 140/161/35 43/162/85
f 43/162/85 244/163/86 155/164/44
f 43/162/85 245/151/45 144/150/46
f 144/150/46 134/140/11 43/162/85
f 133/136/8 139/165/87 44/166/88
f 44/166/88 248/167/89 159/168/90
f 44/166/88 249/157/82 142/155/80
f 142/155/80 133/136/8 44/166/88
f 132/131/17 138/169/91 45/170/36
f 45/170/36 243/171/92 154/172/37
f 45/170/36 244/163/86 140/161/35
f 140/161/35 132/131/17 45/170/36
f 131/127/16 137/173/93 46/174/94
f 46/174/94 247/175/95 158/176/41
f 46/174/94 248/167/89 139/165/87
f 139/165/87 131/127/16 46/174/94
f 130/123/21 164/160/84 47/177/96
f 47/177/96 242/159/26 153/178/27
f 47/177/96 243/171/92 138/169/91
f 138/169/91 130/123/21 47/177/96
f 129/118/19 162/154/31 48/179/97
f 48/179/97 246/153/79 157/180/98
f 48/179/97 247/175/95 137/173/93
f 137/173/93 129/118/19 48/179/97
f 158/176/41 177/181/66 49/182/99
f 177/181/66 174/183/58 49/182/99
f 174/183/58 178/184/100 49/182/99
f 178/184/100 158/176/41 49/182/99
f 153/178/27 179/185/101 50/186/102
f 179/185/101 169/187/58 50/186/102
f 169/187/58 180/188/64 50/186/102
f 180/188/64 153/178/27 50/186/102
f 157/180/98 181/189/103 51/190/67
f 181/189/103 173/191/58 51/190/67
f 173/191/58 177/181/66 51/190/67
f 177/181/66 157/180/98 51/190/67
f 156/152/52 182/192/61 52/193/104
f 182/192/61 172/194/58 52/193/104
f 172/194/58 181/189/103 52/193/104
f 181/189/103 156/152/52 52/193/104
f 160/158/83 183/195/55 53/196/63
f 183/195/55 176/197/58 53/196/63
f 176/197/58 179/185/101 53/196/63
f 179/185/101 160/158/83 53/196/63
f 155/164/44 184/198/68 54/199/71
f 184/198/68 171/200/58 54/199/71
f 171/200/58 182/192/61 54/199/71
f 182/192/61 155/164/44 54/199/71
f 159/168/90 178/184/100 55/201/56
f 178/184/100 175/202/58 55/201/56
f 175/202/58 183/195/55 55/201/56
f 183/195/55 159/168/90 55/201/56
f 154/172/37 180/188/64 56/203/105
f 180/188/64 170/204/58 56/203/105
f 170/204/58 184/198/68 56/203/105
f 184/198/68 154/172/37 56/203/105
f 57/205/58 254/206/58 186/207/58
f 186/207/58 187/208/58 57/205/58
f 57/205/58 255/209/58 173/191/58
f 58/210/58 253/211/58 188/212/58
f 188/212/58 186/207/58 58/210/58
f 58/210/58 254/206/58 172/194/58
f 59/213/58 257/214/58 189/215/58
f 189/215/58 190/216/58 59/213/58
f 59/213/58 250/217/58 176/197/58
f 60/218/58 252/219/58 191/220/58
f 191/220/58 188/212/58 60/218/58
f 60/218/58 253/211/58 171/200/58
f 61/221/58 256/222/58 192/223/58
f 192/223/58 189/215/58 61/221/58
f 61/221/58 257/214/58 175/202/58
f 62/224/58 251/225/58 185/226/58
f 185/226/58 191/220/58 62/224/58
f 62/224/58 252/219/58 170/204/58
f 63/227/58 255/209/58 187/208/58
f 187/208/58 192/223/58 63/227/58
f 63/227/58 256/222/58 174/183/58
f 64/228/58 250/217/58 190/216/58
f 190/216/58 185/226/58 64/228/58
f 64/228/58 251/225/58 169/187/58
f 79/1/1 205/229/106 85/2/2
f 85/2/2 206/230/3 104/4/3
f 104/4/3 193/231/3 65/5/2
f 65/5/2 199/232/106 79/1/1
f 77/6/4 201/233/72 81/7/5
f 81/7/5 202/234/7 103/9/7
f 103/9/7 194/54/7 66/10/6
f 66/10/6 197/235/72 77/6/4
f 104/4/3 206/230/3 86/11/8
f 86/11/8 207/236/10 102/13/10
f 102/13/10 195/237/10 67/14/8
f 67/14/8 193/231/3 104/4/3
f 103/9/7 202/234/7 82/15/11
f 82/15/11 203/238/107 101/17/13
f 101/17/13 196/239/108 68/18/12
f 68/18/12 194/54/7 103/9/7
f 102/13/10 207/236/10 87/19/14
f 87/19/14 208/240/15 99/21/15
f 99/21/15 198/241/15 69/22/16
f 69/22/16 195/237/10 102/13/10
f 101/17/13 203/238/107 83/23/17
f 83/23/17 204/242/18 97/25/18
f 97/25/18 200/243/18 70/26/17
f 70/26/17 196/239/108 101/17/13
f 99/21/15 208/240/15 88/27/19
f 88/27/19 201/233/72 77/6/4
f 77/6/4 197/235/72 71/29/19
f 71/29/19 198/241/15 99/21/15
f 97/25/18 204/242/18 84/30/20
f 84/30/20 205/229/106 79/1/1
f 79/1/1 199/232/106 72/32/22
f 72/32/22 200/243/18 97/25/18
f 80/33/23 200/243/18 72/32/22
f 72/32/22 199/232/106 98/35/25
f 9/34/24 98/35/25 213/36/26
f 9/34/24 92/37/27 212/38/28
f 78/39/29 198/241/15 71/29/19
f 71/29/19 197/235/72 100/41/31
f 10/40/30 100/41/31 209/42/32
f 10/40/30 96/43/33 216/44/34
f 76/45/35 196/239/108 70/26/17
f 70/26/17 200/243/18 80/33/23
f 11/46/36 80/33/23 212/38/28
f 11/46/36 91/47/37 211/48/38
f 75/49/39 195/237/10 69/22/16
f 69/22/16 198/241/15 78/39/29
f 12/50/40 78/39/29 216/44/34
f 12/50/40 95/51/41 215/52/42
f 13/53/43 74/57/46 194/54/7
f 68/18/12 196/239/108 76/45/35
f 13/53/43 76/45/35 211/48/38
f 13/53/43 90/55/44 210/56/45
f 73/58/47 193/231/3 67/14/8
f 67/14/8 195/237/10 75/49/39
f 14/59/48 75/49/39 215/52/42
f 14/59/48 94/60/49 214/61/50
f 100/41/31 197/235/72 66/10/6
f 66/10/6 194/54/7 74/57/46
f 15/62/51 74/57/46 210/56/45
f 15/62/51 89/63/52 209/42/32
f 98/35/25 199/232/106 65/5/2
f 65/5/2 193/231/3 73/58/47
f 16/64/53 73/58/47 214/61/50
f 16/64/53 93/65/54 213/36/26
f 113/66/55 214/61/50 94/60/49
f 94/60/49 215/52/42 114/68/57
f 114/68/57 223/107/58 110/69/58
f 110/69/58 222/92/58 113/66/55
f 115/70/59 209/42/32 89/63/52
f 89/63/52 210/56/45 116/72/61
f 116/72/61 218/110/58 105/73/58
f 105/73/58 217/100/58 115/70/59
f 117/74/62 213/36/26 93/65/54
f 93/65/54 214/61/50 113/66/55
f 113/66/55 222/92/58 109/76/58
f 109/76/58 221/91/58 117/74/62
f 118/77/64 212/38/28 92/37/27
f 92/37/27 213/36/26 117/74/62
f 117/74/62 221/91/58 108/79/58
f 108/79/58 220/96/58 118/77/64
f 119/80/66 216/44/34 96/43/33
f 96/43/33 209/42/32 115/70/59
f 115/70/59 217/100/58 112/82/58
f 112/82/58 224/99/58 119/80/66
f 120/83/68 211/48/38 91/47/37
f 91/47/37 212/38/28 118/77/64
f 118/77/64 220/96/58 107/85/58
f 107/85/58 219/104/58 120/83/68
f 114/68/57 215/52/42 95/51/41
f 95/51/41 216/44/34 119/80/66
f 119/80/66 224/99/58 111/87/58
f 111/87/58 223/107/58 114/68/57
f 116/72/61 210/56/45 90/55/44
f 90/55/44 211/48/38 120/83/68
f 120/83/68 219/104/58 106/89/58
f 106/89/58 218/110/58 116/72/61
f 25/90/58 122/94/58 221/91/58
f 25/90/58 109/76/58 222/92/58
f 123/93/58 225/244/58 122/94/58
f 26/95/58 124/97/58 220/96/58
f 26/95/58 108/79/58 221/91/58
f 122/94/58 225/244/58 124/97/58
f 27/98/58 125/102/58 224/99/58
f 27/98/58 112/82/58 217/100/58
f 126/101/58 225/244/58 125/102/58
f 28/103/58 127/105/58 219/104/58
f 28/103/58 107/85/58 220/96/58
f 124/97/58 225/244/58 127/105/58
f 29/106/58 128/108/58 223/107/58
f 29/106/58 111/87/58 224/99/58
f 125/102/58 225/244/58 128/108/58
f 30/109/58 121/111/58 218/110/58
f 30/109/58 106/89/58 219/104/58
f 127/105/58 225/244/58 121/111/58
f 31/112/58 123/93/58 222/92/58
f 31/112/58 110/69/58 223/107/58
f 128/108/58 225/244/58 123/93/58
f 32/113/58 126/101/58 217/100/58
f 32/113/58 105/73/58 218/110/58
f 121/111/58 225/244/58 126/101/58
f 149/114/19 238/245/72 143/115/72
f 33/116/19 143/115/72 232/117/72
f 129/118/19 226/246/15 168/119/73
f 168/119/73 239/247/73 149/114/19
f 145/120/20 234/248/1 141/121/1
f 141/121/1 230/249/106 130/123/21
f 130/123/21 227/250/18 167/124/74
f 167/124/74 235/130/74 145/120/20
f 150/125/14 239/247/73 168/119/73
f 168/119/73 226/246/15 131/127/16
f 131/127/16 228/251/109 166/128/10
f 166/128/10 240/252/10 150/125/14
f 36/129/17 146/133/17 235/130/74
f 167/124/74 227/250/18 132/131/17
f 132/131/17 229/253/108 165/132/13
f 165/132/13 236/254/107 146/133/17
f 151/134/8 240/252/10 166/128/10
f 166/128/10 228/251/109 133/136/8
f 133/136/8 231/255/110 163/137/3
f 163/137/3 241/256/3 151/134/8
f 147/138/75 236/254/107 165/132/13
f 165/132/13 229/253/108 134/140/11
f 38/139/11 134/140/11 233/141/7
f 161/142/7 237/257/7 147/138/75
f 152/143/2 241/256/3 163/137/3
f 163/137/3 231/255/110 135/145/2
f 135/145/2 230/249/106 141/121/1
f 141/121/1 234/248/1 152/143/2
f 148/146/5 237/257/7 161/142/7
f 161/142/7 233/141/7 136/148/77
f 40/147/5 136/148/77 232/117/72
f 143/115/72 238/245/72 148/146/5
f 41/149/78 136/148/77 233/141/7
f 41/149/78 144/150/46 245/151/45
f 41/149/78 156/152/52 246/153/79
f 162/154/31 232/117/72 136/148/77
f 135/145/2 231/255/110 142/155/80
f 42/156/81 142/155/80 249/157/82
f 42/156/81 160/158/83 242/159/26
f 164/160/84 230/249/106 135/145/2
f 134/140/11 229/253/108 140/161/35
f 43/162/85 140/161/35 244/163/86
f 43/162/85 155/164/44 245/151/45
f 144/150/46 233/141/7 134/140/11
f 133/136/8 228/251/109 139/165/87
f 44/166/88 139/165/87 248/167/89
f 44/166/88 159/168/90 249/157/82
f 142/155/80 231/255/110 133/136/8
f 132/131/17 227/250/18 138/169/91
f 45/170/36 138/169/91 243/171/92
f 45/170/36 154/172/37 244/163/86
f 140/161/35 229/253/108 132/131/17
f 131/127/16 226/246/15 137/173/93
f 46/174/94 137/173/93 247/175/95
f 46/174/94 158/176/41 248/167/89
f 139/165/87 228/251/109 131/127/16
f 130/123/21 230/249/106 164/160/84
f 47/177/96 164/160/84 242/159/26
f 47/177/96 153/178/27 243/171/92
f 138/169/91 227/250/18 130/123/21
f 129/118/19 232/117/72 162/154/31
f 48/179/97 162/154/31 246/153/79
f 48/179/97 157/180/98 247/175/95
f 137/173/93 226/246/15 129/118/19
f 158/176/41 247/175/95 177/181/66
f 177/181/66 255/209/58 174/183/58
f 174/183/58 256/222/58 178/184/100
f 178/184/100 248/167/89 158/176/41
f 153/178/27 242/159/26 179/185/101
f 179/185/101 250/217/58 169/187/58
f 169/187/58 251/225/58 180/188/64
f 180/188/64 243/171/92 153/178/27
f 157/180/98 246/153/79 181/189/103
f 181/189/103 254/206/58 173/191/58
f 173/191/58 255/209/58 177/181/66
f 177/181/66 247/175/95 157/180/98
f 156/152/52 245/151/45 182/192/61
f 182/192/61 253/211/58 172/194/58
f 172/194/58 254/206/58 181/189/103
f 181/189/103 246/153/79 156/152/52
f 160/158/83 249/157/82 183/195/55
f 183/195/55 257/214/58 176/197/58
f 176/197/58 250/217/58 179/185/101
f 179/185/101 242/159/26 160/158/83
f 155/164/44 244/163/86 184/198/68
f 184/198/68 252/219/58 171/200/58
f 171/200/58 253/211/58 182/192/61
f 182/192/61 245/151/45 155/164/44
f 159/168/90 248/167/89 178/184/100
f 178/184/100 256/222/58 175/202/58
f 175/202/58 257/214/58 183/195/55
f 183/195/55 249/157/82 159/168/90
f 154/172/37 243/171/92 180/188/64
f 180/188/64 251/225/58 170/204/58
f 170/204/58 252/219/58 184/198/68
f 184/198/68 244/163/86 154/172/37
f 57/205/58 173/191/58 254/206/58
f 186/207/58 258/258/58 187/208/58
f 57/205/58 187/208/58 255/209/58
f 58/210/58 172/194/58 253/211/58
f 188/212/58 258/258/58 186/207/58
f 58/210/58 186/207/58 254/206/58
f 59/213/58 176/197/58 257/214/58
f 189/215/58 258/258/58 190/216/58
f 59/213/58 190/216/58 250/217/58
f 60/218/58 171/200/58 252/219/58
f 191/220/58 258/258/58 188/212/58
f 60/218/58 188/212/58 253/211/58
f 61/221/58 175/202/58 256/222/58
f 192/223/58 258/258/58 189/215/58
f 61/221/58 189/215/58 257/214/58
f 62/224/58 170/204/58 251/225/58
f 185/226/58 258/258/58 191/220/58
f 62/224/58 191/220/58 252/219/58
f 63/227/58 174/183/58 255/209/58
f 187/208/58 258/258/58 192/223/58
f 63/227/58 192/223/58 256/222/58
f 64/228/58 169/187/58 250/217/58
f 190/216/58 258/258/58 185/226/58
f 64/228/58 185/226/58 251/225/58
