# Blender v2.79 (sub 0) OBJ File: 'fiat500.blend'
# www.blender.org
o brake_part.003_Plane.062
v -1.726142 -0.554387 1.065563
v -1.740047 -0.611376 1.066044
v -1.748315 -0.557814 1.066330
v -1.717875 -0.607949 1.065277
v -1.761572 -0.575925 1.066789
v -1.704618 -0.589838 1.064819
v -1.758148 -0.598111 1.066670
v -1.708042 -0.567652 1.064937
v -1.707929 -0.567652 1.068225
v -1.758034 -0.598111 1.069959
v -1.704504 -0.589838 1.068107
v -1.761458 -0.575925 1.070077
v -1.717761 -0.607949 1.068565
v -1.748201 -0.557814 1.069618
v -1.739934 -0.611376 1.069332
v -1.726029 -0.554387 1.068851
v -1.747337 -0.559200 1.070255
v -1.739526 -0.609799 1.069985
v -1.726390 -0.555963 1.069530
v -1.709291 -0.568494 1.068939
v -1.756625 -0.597268 1.070576
v -1.706056 -0.589453 1.068827
v -1.759860 -0.576310 1.070688
v -1.718580 -0.606562 1.069260
v -1.728836 -0.565987 1.069615
v -1.718104 -0.573852 1.069244
v -1.747812 -0.591911 1.070271
v -1.716074 -0.587006 1.069173
v -1.749843 -0.578757 1.070341
v -1.723934 -0.597744 1.069445
v -1.741982 -0.568018 1.070070
v -1.737080 -0.599776 1.069900
v -1.861442 -0.739227 1.070244
v -1.811337 -0.708768 1.068510
v -1.864867 -0.717041 1.070362
v -1.807912 -0.730954 1.068392
v -1.851610 -0.698930 1.069903
v -1.821169 -0.749065 1.068850
v -1.829437 -0.695503 1.069136
v -1.843342 -0.752492 1.069617
v -1.843228 -0.752492 1.072906
v -1.829324 -0.695503 1.072425
v -1.821056 -0.749065 1.072139
v -1.851496 -0.698930 1.073192
v -1.807799 -0.730954 1.071680
v -1.864753 -0.717041 1.073650
v -1.811223 -0.708768 1.071799
v -1.861329 -0.739227 1.073532
v -1.863155 -0.717425 1.074261
v -1.812586 -0.709610 1.072512
v -1.859920 -0.738384 1.074149
v -1.842821 -0.750915 1.073558
v -1.829685 -0.697079 1.073103
v -1.821875 -0.747678 1.072833
v -1.850631 -0.700316 1.073828
v -1.809351 -0.730569 1.072400
v -1.851107 -0.733027 1.073844
v -1.840375 -0.740892 1.073473
v -1.832131 -0.707103 1.073188
v -1.827229 -0.738860 1.073018
v -1.845277 -0.709134 1.073643
v -1.819369 -0.728122 1.072747
v -1.853137 -0.719873 1.073915
v -1.821399 -0.714968 1.072817
v -1.726069 -0.554387 1.067697
v -1.739974 -0.611376 1.068178
v -1.748241 -0.557814 1.068464
v -1.717801 -0.607949 1.067411
v -1.761498 -0.575925 1.068922
v -1.704544 -0.589838 1.066952
v -1.758074 -0.598111 1.068804
v -1.707968 -0.567652 1.067071
v -1.737470 -0.553803 1.069247
v -1.728493 -0.611960 1.068937
v -1.756704 -0.565496 1.069913
v -1.709258 -0.600267 1.068271
v -1.750470 -0.606619 1.066405
v -1.762042 -0.587373 1.070097
v -1.715719 -0.559144 1.065203
v -1.703920 -0.578390 1.068087
v -1.740138 -0.611376 1.063421
v -1.717965 -0.607949 1.062654
v -1.704708 -0.589838 1.062196
v -1.708133 -0.567652 1.062314
v -1.726233 -0.554387 1.062940
v -1.748406 -0.557814 1.063707
v -1.761663 -0.575925 1.064166
v -1.758238 -0.598111 1.064047
v -1.739820 -0.610982 1.069828
v -1.717954 -0.607602 1.069072
v -1.704880 -0.589742 1.068620
v -1.708258 -0.567863 1.068736
v -1.726108 -0.554781 1.069354
v -1.747974 -0.558160 1.070110
v -1.761047 -0.576021 1.070562
v -1.757670 -0.597900 1.070446
v -1.704034 -0.578390 1.064798
v -1.715606 -0.559144 1.068491
v -1.762156 -0.587373 1.066809
v -1.750357 -0.606619 1.069693
v -1.709372 -0.600267 1.064983
v -1.756818 -0.565496 1.066624
v -1.728606 -0.611960 1.065648
v -1.737583 -0.553803 1.065959
v -1.738722 -0.606505 1.069957
v -1.720339 -0.603664 1.069321
v -1.709348 -0.588649 1.068941
v -1.712188 -0.570255 1.069039
v -1.727194 -0.559257 1.069558
v -1.745577 -0.562098 1.070194
v -1.756568 -0.577114 1.070574
v -1.753729 -0.595508 1.070476
v -1.737198 -0.555411 1.069904
v -1.755369 -0.566457 1.070533
v -1.749372 -0.605305 1.070325
v -1.728718 -0.610351 1.069611
v -1.716544 -0.560457 1.069190
v -1.705505 -0.578639 1.068808
v -1.760412 -0.587124 1.070707
v -1.710547 -0.599305 1.068982
v -1.730656 -0.597797 1.069678
v -1.724046 -0.570705 1.069449
v -1.735260 -0.567966 1.069837
v -1.718052 -0.580578 1.069242
v -1.747865 -0.585185 1.070273
v -1.741871 -0.595057 1.070066
v -1.720790 -0.591799 1.069336
v -1.745127 -0.573963 1.070178
v -1.861369 -0.739227 1.072377
v -1.811263 -0.708768 1.070644
v -1.864793 -0.717041 1.072496
v -1.807839 -0.730954 1.070525
v -1.851536 -0.698930 1.072037
v -1.821096 -0.749065 1.070984
v -1.829364 -0.695503 1.071270
v -1.843269 -0.752492 1.071751
v -1.865337 -0.728489 1.073671
v -1.807215 -0.719506 1.071660
v -1.859999 -0.706612 1.073486
v -1.812553 -0.741383 1.071845
v -1.819014 -0.700260 1.068776
v -1.840765 -0.694919 1.072820
v -1.853765 -0.747735 1.069978
v -1.831787 -0.753076 1.072510
v -1.811428 -0.708768 1.065887
v -1.808003 -0.730954 1.065769
v -1.821260 -0.749065 1.066228
v -1.843433 -0.752492 1.066995
v -1.861533 -0.739227 1.067621
v -1.864958 -0.717041 1.067739
v -1.851701 -0.698930 1.067281
v -1.829528 -0.695503 1.066514
v -1.811553 -0.708978 1.072310
v -1.808175 -0.730858 1.072193
v -1.821249 -0.748718 1.072645
v -1.843115 -0.752097 1.073401
v -1.860965 -0.739016 1.074019
v -1.864342 -0.717137 1.074136
v -1.851269 -0.699276 1.073684
v -1.829402 -0.695897 1.072927
v -1.831901 -0.753076 1.069222
v -1.853651 -0.747735 1.073266
v -1.840878 -0.694919 1.069532
v -1.818901 -0.700260 1.072064
v -1.812667 -0.741383 1.068556
v -1.860113 -0.706612 1.070198
v -1.807329 -0.719506 1.068372
v -1.865451 -0.728489 1.070382
v -1.815482 -0.711371 1.072612
v -1.812643 -0.729765 1.072514
v -1.823634 -0.744780 1.072894
v -1.842017 -0.747621 1.073530
v -1.857024 -0.736624 1.074049
v -1.859863 -0.718230 1.074147
v -1.848872 -0.703214 1.073767
v -1.830489 -0.700373 1.073131
v -1.863706 -0.728240 1.074280
v -1.858664 -0.707573 1.074106
v -1.819839 -0.701573 1.072763
v -1.808800 -0.719755 1.072381
v -1.852667 -0.746421 1.073898
v -1.832013 -0.751467 1.073184
v -1.840493 -0.696527 1.073477
v -1.813842 -0.740421 1.072555
v -1.821346 -0.721694 1.072815
v -1.845166 -0.736173 1.073639
v -1.851160 -0.726301 1.073846
v -1.833951 -0.738913 1.073251
v -1.838555 -0.709082 1.073410
v -1.827340 -0.711821 1.073022
v -1.824085 -0.732915 1.072910
v -1.848422 -0.715079 1.073752
v -1.737510 -0.553803 1.068092
v -1.728533 -0.611960 1.067782
v -1.756744 -0.565496 1.068758
v -1.709298 -0.600267 1.067117
v -1.750396 -0.606619 1.068538
v -1.762082 -0.587373 1.068943
v -1.715646 -0.559144 1.067336
v -1.703960 -0.578390 1.066932
v -1.750561 -0.606619 1.063782
v -1.728697 -0.611960 1.063026
v -1.709463 -0.600267 1.062360
v -1.704125 -0.578390 1.062176
v -1.715810 -0.559144 1.062580
v -1.737674 -0.553803 1.063336
v -1.756909 -0.565496 1.064001
v -1.762247 -0.587373 1.064186
v -1.750099 -0.606290 1.070184
v -1.728538 -0.611558 1.069438
v -1.709569 -0.600027 1.068782
v -1.704305 -0.578452 1.068600
v -1.715829 -0.559472 1.068998
v -1.737390 -0.554205 1.069744
v -1.756359 -0.565736 1.070400
v -1.761623 -0.587310 1.070582
v -1.747016 -0.602087 1.070244
v -1.729326 -0.606408 1.069632
v -1.713764 -0.596948 1.069093
v -1.709445 -0.579248 1.068944
v -1.718900 -0.563676 1.069271
v -1.736590 -0.559354 1.069883
v -1.752152 -0.568815 1.070421
v -1.756471 -0.586515 1.070571
v -1.732958 -0.582881 1.069757
v -1.865377 -0.728489 1.072516
v -1.807255 -0.719506 1.070505
v -1.860039 -0.706612 1.072331
v -1.812593 -0.741383 1.070690
v -1.818941 -0.700260 1.070909
v -1.840805 -0.694919 1.071666
v -1.853691 -0.747735 1.072111
v -1.831827 -0.753076 1.071355
v -1.819105 -0.700260 1.066153
v -1.807420 -0.719506 1.065749
v -1.812757 -0.741383 1.065933
v -1.831992 -0.753076 1.066599
v -1.853856 -0.747735 1.067355
v -1.865541 -0.728489 1.067759
v -1.860204 -0.706612 1.067575
v -1.840969 -0.694919 1.066909
v -1.819124 -0.700588 1.072572
v -1.807600 -0.719568 1.072173
v -1.812864 -0.741143 1.072355
v -1.831832 -0.752674 1.073011
v -1.853394 -0.747406 1.073757
v -1.864918 -0.728426 1.074156
v -1.859654 -0.706852 1.073974
v -1.840685 -0.695321 1.073317
v -1.822195 -0.704792 1.072844
v -1.812740 -0.720363 1.072517
v -1.817059 -0.738064 1.072667
v -1.832621 -0.747524 1.073205
v -1.850311 -0.743203 1.073817
v -1.859766 -0.727631 1.074144
v -1.855447 -0.709931 1.073995
v -1.839885 -0.700470 1.073456
v -1.836253 -0.723997 1.073331
vt 0.000000 0.000000
vt 0.000000 0.000000
vt 0.000000 0.000000
vt 0.000000 0.000000
vt 0.000000 0.000000
vt 0.000000 0.000000
vt 0.000000 0.000000
vt 0.000000 0.000000
vt 0.000000 0.000000
vt 0.000000 0.000000
vt 0.000000 0.000000
vt 0.000000 0.000000
vt 0.000000 0.000000
vt 0.000000 0.000000
vt 0.000000 0.000000
vt 0.000000 0.000000
vt 0.000000 0.000000
vt 0.000000 0.000000
vt 0.000000 0.000000
vt 0.000000 0.000000
vt 0.000000 0.000000
vt 0.000000 0.000000
vt 0.000000 0.000000
vt 0.000000 0.000000
vt 0.000000 0.000000
vt 0.000000 0.000000
vt 0.000000 0.000000
vt 0.000000 0.000000
vt 0.000000 0.000000
vt 0.000000 0.000000
vt 0.000000 0.000000
vt 0.000000 0.000000
vt 0.000000 0.000000
vt 0.000000 0.000000
vt 0.000000 0.000000
vt 0.000000 0.000000
vt 0.000000 0.000000
vt 0.000000 0.000000
vt 0.000000 0.000000
vt 0.000000 0.000000
vt 0.000000 0.000000
vt 0.000000 0.000000
vt 0.000000 0.000000
vt 0.000000 0.000000
vt 0.000000 0.000000
vt 0.000000 0.000000
vt 0.000000 0.000000
vt 0.000000 0.000000
vt 0.000000 0.000000
vt 0.000000 0.000000
vt 0.000000 0.000000
vt 0.000000 0.000000
vt 0.000000 0.000000
vt 0.000000 0.000000
vt 0.000000 0.000000
vt 0.000000 0.000000
vt 0.000000 0.000000
vt 0.000000 0.000000
vt 0.000000 0.000000
vt 0.000000 0.000000
vt 0.000000 0.000000
vt 0.000000 0.000000
vt 0.000000 0.000000
vt 0.000000 0.000000
vt 0.000000 0.000000
vt 0.000000 0.000000
vt 0.000000 0.000000
vt 0.000000 0.000000
vt 0.000000 0.000000
vt 0.000000 0.000000
vt 0.000000 0.000000
vt 0.000000 0.000000
vt 0.000000 0.000000
vt 0.000000 0.000000
vt 0.000000 0.000000
vt 0.000000 0.000000
vt 0.000000 0.000000
vt 0.000000 0.000000
vt 0.000000 0.000000
vt 0.000000 0.000000
vt 0.000000 0.000000
vt 0.000000 0.000000
vt 0.000000 0.000000
vt 0.000000 0.000000
vt 0.000000 0.000000
vt 0.000000 0.000000
vt 0.000000 0.000000
vt 0.000000 0.000000
vt 0.000000 0.000000
vt 0.000000 0.000000
vt 0.000000 0.000000
vt 0.000000 0.000000
vt 0.000000 0.000000
vt 0.000000 0.000000
vt 0.000000 0.000000
vt 0.000000 0.000000
vt 0.000000 0.000000
vt 0.000000 0.000000
vt 0.000000 0.000000
vt 0.000000 0.000000
vt 0.000000 0.000000
vt 0.000000 0.000000
vt 0.000000 0.000000
vt 0.000000 0.000000
vt 0.000000 0.000000
vt 0.000000 0.000000
vt 0.000000 0.000000
vt 0.000000 0.000000
vt 0.000000 0.000000
vt 0.000000 0.000000
vt 0.000000 0.000000
vt 0.000000 0.000000
vt 0.000000 0.000000
vt 0.000000 0.000000
vt 0.000000 0.000000
vt 0.000000 0.000000
vt 0.000000 0.000000
vt 0.000000 0.000000
vt 0.000000 0.000000
vt 0.000000 0.000000
vt 0.000000 0.000000
vt 0.000000 0.000000
vt 0.000000 0.000000
vt 0.000000 0.000000
vt 0.000000 0.000000
vt 0.000000 0.000000
vt 0.000000 0.000000
vt 0.000000 0.000000
vt 0.000000 0.000000
vt 0.000000 0.000000
vt 0.000000 0.000000
vt 0.000000 0.000000
vt 0.000000 0.000000
vt 0.000000 0.000000
vt 0.000000 0.000000
vt 0.000000 0.000000
vt 0.000000 0.000000
vt 0.000000 0.000000
vt 0.000000 0.000000
vt 0.000000 0.000000
vt 0.000000 0.000000
vt 0.000000 0.000000
vt 0.000000 0.000000
vt 0.000000 0.000000
vt 0.000000 0.000000
vt 0.000000 0.000000
vt 0.000000 0.000000
vt 0.000000 0.000000
vt 0.000000 0.000000
vt 0.000000 0.000000
vt 0.000000 0.000000
vt 0.000000 0.000000
vt 0.000000 0.000000
vt 0.000000 0.000000
vt 0.000000 0.000000
vt 0.000000 0.000000
vt 0.000000 0.000000
vt 0.000000 0.000000
vt 0.000000 0.000000
vt 0.000000 0.000000
vt 0.000000 0.000000
vt 0.000000 0.000000
vt 0.000000 0.000000
vt 0.000000 0.000000
vt 0.000000 0.000000
vt 0.000000 0.000000
vt 0.000000 0.000000
vt 0.000000 0.000000
vt 0.000000 0.000000
vt 0.000000 0.000000
vt 0.000000 0.000000
vt 0.000000 0.000000
vt 0.000000 0.000000
vt 0.000000 0.000000
vt 0.000000 0.000000
vt 0.000000 0.000000
vt 0.000000 0.000000
vt 0.000000 0.000000
vt 0.000000 0.000000
vt 0.000000 0.000000
vt 0.000000 0.000000
vt 0.000000 0.000000
vt 0.000000 0.000000
vt 0.000000 0.000000
vt 0.000000 0.000000
vt 0.000000 0.000000
vt 0.000000 0.000000
vt 0.000000 0.000000
vt 0.000000 0.000000
vt 0.000000 0.000000
vt 0.000000 0.000000
vt 0.000000 0.000000
vt 0.000000 0.000000
vt 0.000000 0.000000
vt 0.000000 0.000000
vt 0.000000 0.000000
vt 0.000000 0.000000
vt 0.000000 0.000000
vt 0.000000 0.000000
vt 0.000000 0.000000
vt 0.000000 0.000000
vt 0.000000 0.000000
vt 0.000000 0.000000
vt 0.000000 0.000000
vt 0.000000 0.000000
vt 0.000000 0.000000
vt 0.000000 0.000000
vt 0.000000 0.000000
vt 0.000000 0.000000
vt 0.000000 0.000000
vt 0.000000 0.000000
vt 0.000000 0.000000
vt 0.000000 0.000000
vt 0.000000 0.000000
vt 0.000000 0.000000
vt 0.000000 0.000000
vt 0.000000 0.000000
vt 0.000000 0.000000
vt 0.000000 0.000000
vt 0.000000 0.000000
vt 0.000000 0.000000
vt 0.000000 0.000000
vt 0.000000 0.000000
vt 0.000000 0.000000
vt 0.000000 0.000000
vt 0.000000 0.000000
vt 0.000000 0.000000
vt 0.000000 0.000000
vt 0.000000 0.000000
vt 0.000000 0.000000
vt 0.000000 0.000000
vt 0.000000 0.000000
vt 0.000000 0.000000
vt 0.000000 0.000000
vt 0.000000 0.000000
vt 0.000000 0.000000
vt 0.000000 0.000000
vt 0.000000 0.000000
vt 0.000000 0.000000
vt 0.000000 0.000000
vt 0.000000 0.000000
vt 0.000000 0.000000
vt 0.000000 0.000000
vt 0.000000 0.000000
vt 0.000000 0.000000
vt 0.000000 0.000000
vt 0.000000 0.000000
vt 0.000000 0.000000
vt 0.000000 0.000000
vt 0.000000 0.000000
vt 0.000000 0.000000
vt 0.000000 0.000000
vt 0.000000 0.000000
vt 0.000000 0.000000
vt 0.000000 0.000000
vt 0.000000 0.000000
vt 0.000000 0.000000
vt 0.000000 0.000000
vn 0.5905 0.8067 -0.0204
vn 0.2370 0.9715 -0.0082
vn -0.1525 0.9883 0.0052
vn -0.5905 -0.8068 0.0204
vn -0.2370 -0.9714 0.0082
vn -0.2370 -0.9715 0.0082
vn 0.1525 -0.9883 -0.0052
vn -0.5189 0.8546 0.0179
vn -0.8063 0.5909 0.0279
vn 0.5189 -0.8546 -0.0179
vn 0.8062 -0.5909 -0.0279
vn -0.9709 0.2371 0.0336
vn -0.9709 0.2372 0.0336
vn -0.9877 -0.1526 0.0342
vn 0.9709 -0.2372 -0.0336
vn 0.9877 0.1526 -0.0342
vn -0.8541 -0.5192 0.0295
vn 0.8541 0.5192 -0.0295
vn 0.9461 0.1445 0.2897
vn 0.8197 0.4914 0.2943
vn 0.5701 0.7637 0.3028
vn 0.3388 0.4226 0.8406
vn 0.4756 0.2711 0.8368
vn 0.5468 0.0799 0.8334
vn -0.9238 -0.1445 0.3545
vn -0.7972 -0.4914 0.3505
vn -0.5478 -0.7637 0.3414
vn -0.2799 -0.4227 0.8619
vn -0.4163 -0.2711 0.8678
vn -0.4880 -0.0799 0.8692
vn 0.7743 -0.5594 0.2958
vn 0.9301 -0.2245 0.2905
vn 0.5365 -0.1238 0.8347
vn 0.4518 -0.3096 0.8367
vn -0.7521 0.5593 0.3486
vn -0.9078 0.2245 0.3541
vn -0.4775 0.1238 0.8698
vn -0.3929 0.3095 0.8659
vn 0.5023 -0.8090 0.3054
vn 0.3004 -0.4462 0.8430
vn 0.1093 -0.5178 0.8485
vn 0.1555 -0.9355 0.3171
vn -0.1333 0.9355 0.3270
vn -0.4800 0.8090 0.3393
vn -0.2414 0.4463 0.8617
vn -0.0505 0.5178 0.8540
vn -0.2132 -0.9195 0.3301
vn -0.0943 -0.5073 0.8566
vn 0.2355 0.9196 0.3146
vn 0.1532 0.5073 0.8480
vn 0.0228 0.0755 0.9969
vn -0.0049 0.0649 0.9979
vn -0.0272 0.0452 0.9986
vn 0.0345 0.0000 0.9994
vn -0.0107 -0.0617 0.9980
vn 0.0164 -0.0738 0.9971
vn 0.0461 -0.0755 0.9961
vn 0.0796 0.0616 0.9949
vn 0.0525 0.0739 0.9959
vn 0.1099 0.0117 0.9939
vn 0.0994 0.0395 0.9943
vn -0.0411 -0.0117 0.9991
vn -0.0304 -0.0395 0.9987
vn 0.0961 -0.0452 0.9943
vn 0.1082 -0.0180 0.9940
vn -0.0393 0.0180 0.9991
vn 0.0739 -0.0649 0.9951
vn 0.0346 0.0000 0.9994
vn -0.8541 -0.5192 0.0296
vn -0.8062 0.5909 0.0279
vn 0.1525 -0.9883 -0.0053
vn -0.2370 -0.9714 0.0081
vn -0.2131 -0.9195 0.3301
vn 0.1555 -0.9355 0.3172
vn 0.1093 -0.5177 0.8485
vn -0.0942 -0.5073 0.8566
vn -0.1332 0.9355 0.3271
vn 0.2355 0.9196 0.3145
vn -0.0504 0.5177 0.8540
vn 0.1533 0.5073 0.8480
vn 0.5702 0.7637 0.3028
vn 0.5024 -0.8089 0.3053
vn 0.4517 -0.3095 0.8367
vn 0.3005 -0.4463 0.8429
vn -0.7521 0.5593 0.3484
vn -0.4800 0.8090 0.3394
vn -0.3930 0.3095 0.8658
vn 0.9461 0.1445 0.2898
vn -0.9078 0.2245 0.3542
vn -0.4880 -0.0800 0.8692
vn 0.8196 0.4914 0.2944
vn 0.4755 0.2711 0.8369
vn -0.7973 -0.4914 0.3505
vn -0.0412 -0.0117 0.9991
vn 0.0796 0.0617 0.9949
vn 0.0525 0.0738 0.9959
vn 0.5905 0.8068 -0.0204
vn -0.1526 0.9883 0.0053
vn -0.5905 -0.8067 0.0204
vn 0.8063 -0.5909 -0.0279
vn -0.1525 0.9883 0.0053
s 1
f 79/1/1 85/2/2 1/3/2
f 85/2/2 104/4/3 1/3/2
f 104/4/3 65/5/2 1/3/2
f 65/5/2 79/1/1 1/3/2
f 77/6/4 81/7/5 2/8/6
f 81/7/5 103/9/7 2/8/6
f 103/9/7 66/10/5 2/8/6
f 66/10/5 77/6/4 2/8/6
f 104/4/3 86/11/8 3/12/8
f 86/11/8 102/13/9 3/12/8
f 102/13/9 67/14/8 3/12/8
f 67/14/8 104/4/3 3/12/8
f 103/9/7 82/15/10 4/16/10
f 82/15/10 101/17/11 4/16/10
f 101/17/11 68/18/10 4/16/10
f 68/18/10 103/9/7 4/16/10
f 102/13/9 87/19/12 5/20/13
f 87/19/12 99/21/14 5/20/13
f 99/21/14 69/22/13 5/20/13
f 69/22/13 102/13/9 5/20/13
f 101/17/11 83/23/15 6/24/15
f 83/23/15 97/25/16 6/24/15
f 97/25/16 70/26/15 6/24/15
f 70/26/15 101/17/11 6/24/15
f 99/21/14 88/27/17 7/28/17
f 88/27/17 77/6/4 7/28/17
f 77/6/4 71/29/17 7/28/17
f 71/29/17 99/21/14 7/28/17
f 97/25/16 84/30/18 8/31/18
f 84/30/18 79/1/1 8/31/18
f 79/1/1 72/32/18 8/31/18
f 72/32/18 97/25/16 8/31/18
f 80/33/19 72/32/18 9/34/20
f 72/32/18 98/35/21 9/34/20
f 9/34/20 213/36/22 92/37/23
f 9/34/20 212/38/24 80/33/19
f 78/39/25 71/29/17 10/40/26
f 71/29/17 100/41/27 10/40/26
f 10/40/26 209/42/28 96/43/29
f 10/40/26 216/44/30 78/39/25
f 76/45/31 70/26/15 11/46/32
f 70/26/15 80/33/19 11/46/32
f 11/46/32 212/38/24 91/47/33
f 11/46/32 211/48/34 76/45/31
f 75/49/35 69/22/13 12/50/36
f 69/22/13 78/39/25 12/50/36
f 12/50/36 216/44/30 95/51/37
f 12/50/36 215/52/38 75/49/35
f 13/53/39 194/54/7 68/18/10
f 68/18/10 76/45/31 13/53/39
f 13/53/39 211/48/34 90/55/40
f 13/53/39 210/56/41 74/57/42
f 73/58/43 67/14/8 14/59/44
f 67/14/8 75/49/35 14/59/44
f 14/59/44 215/52/38 94/60/45
f 14/59/44 214/61/46 73/58/43
f 100/41/27 66/10/5 15/62/47
f 66/10/5 74/57/42 15/62/47
f 15/62/47 210/56/41 89/63/48
f 15/62/47 209/42/28 100/41/27
f 98/35/21 65/5/2 16/64/49
f 65/5/2 73/58/43 16/64/49
f 16/64/49 214/61/46 93/65/50
f 16/64/49 213/36/22 98/35/21
f 113/66/51 94/60/45 17/67/52
f 94/60/45 114/68/53 17/67/52
f 114/68/53 110/69/54 17/67/52
f 110/69/54 113/66/51 17/67/52
f 115/70/55 89/63/48 18/71/56
f 89/63/48 116/72/57 18/71/56
f 116/72/57 105/73/54 18/71/56
f 105/73/54 115/70/55 18/71/56
f 117/74/58 93/65/50 19/75/59
f 93/65/50 113/66/51 19/75/59
f 113/66/51 109/76/54 19/75/59
f 109/76/54 117/74/58 19/75/59
f 118/77/60 92/37/23 20/78/61
f 92/37/23 117/74/58 20/78/61
f 117/74/58 108/79/54 20/78/61
f 108/79/54 118/77/60 20/78/61
f 119/80/62 96/43/29 21/81/63
f 96/43/29 115/70/55 21/81/63
f 115/70/55 112/82/54 21/81/63
f 112/82/54 119/80/62 21/81/63
f 120/83/64 91/47/33 22/84/65
f 91/47/33 118/77/60 22/84/65
f 118/77/60 107/85/54 22/84/65
f 107/85/54 120/83/64 22/84/65
f 114/68/53 95/51/37 23/86/66
f 95/51/37 119/80/62 23/86/66
f 119/80/62 111/87/54 23/86/66
f 111/87/54 114/68/53 23/86/66
f 116/72/57 90/55/40 24/88/67
f 90/55/40 120/83/64 24/88/67
f 120/83/64 106/89/68 24/88/67
f 106/89/68 116/72/57 24/88/67
f 25/90/54 221/91/54 109/76/54
f 25/90/54 222/92/68 123/93/68
f 123/93/68 122/94/68 25/90/54
f 26/95/54 220/96/68 108/79/54
f 26/95/54 221/91/54 122/94/68
f 122/94/68 124/97/54 26/95/54
f 27/98/54 224/99/68 112/82/54
f 27/98/54 217/100/54 126/101/54
f 126/101/54 125/102/54 27/98/54
f 28/103/54 219/104/68 107/85/54
f 28/103/54 220/96/68 124/97/54
f 124/97/54 127/105/54 28/103/54
f 29/106/54 223/107/54 111/87/54
f 29/106/54 224/99/68 125/102/54
f 125/102/54 128/108/54 29/106/54
f 30/109/54 218/110/54 106/89/68
f 30/109/54 219/104/68 127/105/54
f 127/105/54 121/111/54 30/109/54
f 31/112/54 222/92/68 110/69/54
f 31/112/54 223/107/54 128/108/54
f 128/108/54 123/93/68 31/112/54
f 32/113/54 217/100/54 105/73/54
f 32/113/54 218/110/54 121/111/54
f 121/111/54 126/101/54 32/113/54
f 149/114/69 143/115/4 33/116/17
f 33/116/17 232/117/4 129/118/17
f 129/118/17 168/119/14 33/116/17
f 168/119/14 149/114/69 33/116/17
f 145/120/18 141/121/1 34/122/18
f 141/121/1 130/123/18 34/122/18
f 130/123/18 167/124/16 34/122/18
f 167/124/16 145/120/18 34/122/18
f 150/125/12 168/119/14 35/126/13
f 168/119/14 131/127/13 35/126/13
f 131/127/13 166/128/70 35/126/13
f 166/128/70 150/125/12 35/126/13
f 36/129/15 235/130/16 167/124/16
f 167/124/16 132/131/15 36/129/15
f 132/131/15 165/132/11 36/129/15
f 165/132/11 146/133/15 36/129/15
f 151/134/8 166/128/70 37/135/8
f 166/128/70 133/136/8 37/135/8
f 133/136/8 163/137/3 37/135/8
f 163/137/3 151/134/8 37/135/8
f 147/138/10 165/132/11 38/139/10
f 165/132/11 134/140/10 38/139/10
f 38/139/10 233/141/7 161/142/71
f 161/142/71 147/138/10 38/139/10
f 152/143/2 163/137/3 39/144/2
f 163/137/3 135/145/2 39/144/2
f 135/145/2 141/121/1 39/144/2
f 141/121/1 152/143/2 39/144/2
f 148/146/72 161/142/71 40/147/72
f 161/142/71 136/148/5 40/147/72
f 40/147/72 232/117/4 143/115/4
f 143/115/4 148/146/72 40/147/72
f 41/149/73 233/141/7 144/150/74
f 41/149/73 245/151/75 156/152/76
f 41/149/73 246/153/28 162/154/27
f 162/154/27 136/148/5 41/149/73
f 135/145/2 142/155/77 42/156/78
f 42/156/78 249/157/79 160/158/80
f 42/156/78 242/159/22 164/160/81
f 164/160/81 135/145/2 42/156/78
f 134/140/10 140/161/31 43/162/82
f 43/162/82 244/163/83 155/164/84
f 43/162/82 245/151/75 144/150/74
f 144/150/74 134/140/10 43/162/82
f 133/136/8 139/165/85 44/166/86
f 44/166/86 248/167/87 159/168/45
f 44/166/86 249/157/79 142/155/77
f 142/155/77 133/136/8 44/166/86
f 132/131/15 138/169/88 45/170/32
f 45/170/32 243/171/24 154/172/33
f 45/170/32 244/163/83 140/161/31
f 140/161/31 132/131/15 45/170/32
f 131/127/13 137/173/25 46/174/89
f 46/174/89 247/175/90 158/176/37
f 46/174/89 248/167/87 139/165/85
f 139/165/85 131/127/13 46/174/89
f 130/123/18 164/160/81 47/177/91
f 47/177/91 242/159/22 153/178/92
f 47/177/91 243/171/24 138/169/88
f 138/169/88 130/123/18 47/177/91
f 129/118/17 162/154/27 48/179/93
f 48/179/93 246/153/28 157/180/29
f 48/179/93 247/175/90 137/173/25
f 137/173/25 129/118/17 48/179/93
f 158/176/37 177/181/94 49/182/66
f 177/181/94 174/183/54 49/182/66
f 174/183/54 178/184/53 49/182/66
f 178/184/53 158/176/37 49/182/66
f 153/178/92 179/185/95 50/186/61
f 179/185/95 169/187/68 50/186/61
f 169/187/68 180/188/60 50/186/61
f 180/188/60 153/178/92 50/186/61
f 157/180/29 181/189/55 51/190/63
f 181/189/55 173/191/54 51/190/63
f 173/191/54 177/181/94 51/190/63
f 177/181/94 157/180/29 51/190/63
f 156/152/76 182/192/57 52/193/56
f 182/192/57 172/194/54 52/193/56
f 172/194/54 181/189/55 52/193/56
f 181/189/55 156/152/76 52/193/56
f 160/158/80 183/195/51 53/196/96
f 183/195/51 176/197/54 53/196/96
f 176/197/54 179/185/95 53/196/96
f 179/185/95 160/158/80 53/196/96
f 155/164/84 184/198/64 54/199/67
f 184/198/64 171/200/68 54/199/67
f 171/200/68 182/192/57 54/199/67
f 182/192/57 155/164/84 54/199/67
f 159/168/45 178/184/53 55/201/52
f 178/184/53 175/202/54 55/201/52
f 175/202/54 183/195/51 55/201/52
f 183/195/51 159/168/45 55/201/52
f 154/172/33 180/188/60 56/203/65
f 180/188/60 170/204/54 56/203/65
f 170/204/54 184/198/64 56/203/65
f 184/198/64 154/172/33 56/203/65
f 57/205/54 254/206/68 186/207/54
f 186/207/54 187/208/54 57/205/54
f 57/205/54 255/209/54 173/191/54
f 58/210/54 253/211/54 188/212/54
f 188/212/54 186/207/54 58/210/54
f 58/210/54 254/206/68 172/194/54
f 59/213/54 257/214/68 189/215/54
f 189/215/54 190/216/68 59/213/54
f 59/213/54 250/217/54 176/197/54
f 60/218/54 252/219/68 191/220/54
f 191/220/54 188/212/54 60/218/54
f 60/218/54 253/211/54 171/200/68
f 61/221/54 256/222/68 192/223/54
f 192/223/54 189/215/54 61/221/54
f 61/221/54 257/214/68 175/202/54
f 62/224/68 251/225/68 185/226/54
f 185/226/54 191/220/54 62/224/68
f 62/224/68 252/219/68 170/204/54
f 63/227/68 255/209/54 187/208/54
f 187/208/54 192/223/54 63/227/68
f 63/227/68 256/222/68 174/183/54
f 64/228/68 250/217/54 190/216/68
f 190/216/68 185/226/54 64/228/68
f 64/228/68 251/225/68 169/187/68
f 79/1/1 205/229/97 85/2/2
f 85/2/2 206/230/98 104/4/3
f 104/4/3 193/231/3 65/5/2
f 65/5/2 199/232/97 79/1/1
f 77/6/4 201/233/4 81/7/5
f 81/7/5 202/234/71 103/9/7
f 103/9/7 194/54/7 66/10/5
f 66/10/5 197/235/99 77/6/4
f 104/4/3 206/230/98 86/11/8
f 86/11/8 207/236/70 102/13/9
f 102/13/9 195/237/9 67/14/8
f 67/14/8 193/231/3 104/4/3
f 103/9/7 202/234/71 82/15/10
f 82/15/10 203/238/11 101/17/11
f 101/17/11 196/239/100 68/18/10
f 68/18/10 194/54/7 103/9/7
f 102/13/9 207/236/70 87/19/12
f 87/19/12 208/240/14 99/21/14
f 99/21/14 198/241/14 69/22/13
f 69/22/13 195/237/9 102/13/9
f 101/17/11 203/238/11 83/23/15
f 83/23/15 204/242/16 97/25/16
f 97/25/16 200/243/16 70/26/15
f 70/26/15 196/239/100 101/17/11
f 99/21/14 208/240/14 88/27/17
f 88/27/17 201/233/4 77/6/4
f 77/6/4 197/235/99 71/29/17
f 71/29/17 198/241/14 99/21/14
f 97/25/16 204/242/16 84/30/18
f 84/30/18 205/229/97 79/1/1
f 79/1/1 199/232/97 72/32/18
f 72/32/18 200/243/16 97/25/16
f 80/33/19 200/243/16 72/32/18
f 72/32/18 199/232/97 98/35/21
f 9/34/20 98/35/21 213/36/22
f 9/34/20 92/37/23 212/38/24
f 78/39/25 198/241/14 71/29/17
f 71/29/17 197/235/99 100/41/27
f 10/40/26 100/41/27 209/42/28
f 10/40/26 96/43/29 216/44/30
f 76/45/31 196/239/100 70/26/15
f 70/26/15 200/243/16 80/33/19
f 11/46/32 80/33/19 212/38/24
f 11/46/32 91/47/33 211/48/34
f 75/49/35 195/237/9 69/22/13
f 69/22/13 198/241/14 78/39/25
f 12/50/36 78/39/25 216/44/30
f 12/50/36 95/51/37 215/52/38
f 13/53/39 74/57/42 194/54/7
f 68/18/10 196/239/100 76/45/31
f 13/53/39 76/45/31 211/48/34
f 13/53/39 90/55/40 210/56/41
f 73/58/43 193/231/3 67/14/8
f 67/14/8 195/237/9 75/49/35
f 14/59/44 75/49/35 215/52/38
f 14/59/44 94/60/45 214/61/46
f 100/41/27 197/235/99 66/10/5
f 66/10/5 194/54/7 74/57/42
f 15/62/47 74/57/42 210/56/41
f 15/62/47 89/63/48 209/42/28
f 98/35/21 199/232/97 65/5/2
f 65/5/2 193/231/3 73/58/43
f 16/64/49 73/58/43 214/61/46
f 16/64/49 93/65/50 213/36/22
f 113/66/51 214/61/46 94/60/45
f 94/60/45 215/52/38 114/68/53
f 114/68/53 223/107/54 110/69/54
f 110/69/54 222/92/68 113/66/51
f 115/70/55 209/42/28 89/63/48
f 89/63/48 210/56/41 116/72/57
f 116/72/57 218/110/54 105/73/54
f 105/73/54 217/100/54 115/70/55
f 117/74/58 213/36/22 93/65/50
f 93/65/50 214/61/46 113/66/51
f 113/66/51 222/92/68 109/76/54
f 109/76/54 221/91/54 117/74/58
f 118/77/60 212/38/24 92/37/23
f 92/37/23 213/36/22 117/74/58
f 117/74/58 221/91/54 108/79/54
f 108/79/54 220/96/68 118/77/60
f 119/80/62 216/44/30 96/43/29
f 96/43/29 209/42/28 115/70/55
f 115/70/55 217/100/54 112/82/54
f 112/82/54 224/99/68 119/80/62
f 120/83/64 211/48/34 91/47/33
f 91/47/33 212/38/24 118/77/60
f 118/77/60 220/96/68 107/85/54
f 107/85/54 219/104/68 120/83/64
f 114/68/53 215/52/38 95/51/37
f 95/51/37 216/44/30 119/80/62
f 119/80/62 224/99/68 111/87/54
f 111/87/54 223/107/54 114/68/53
f 116/72/57 210/56/41 90/55/40
f 90/55/40 211/48/34 120/83/64
f 120/83/64 219/104/68 106/89/68
f 106/89/68 218/110/54 116/72/57
f 25/90/54 122/94/68 221/91/54
f 25/90/54 109/76/54 222/92/68
f 123/93/68 225/244/54 122/94/68
f 26/95/54 124/97/54 220/96/68
f 26/95/54 108/79/54 221/91/54
f 122/94/68 225/244/54 124/97/54
f 27/98/54 125/102/54 224/99/68
f 27/98/54 112/82/54 217/100/54
f 126/101/54 225/244/54 125/102/54
f 28/103/54 127/105/54 219/104/68
f 28/103/54 107/85/54 220/96/68
f 124/97/54 225/244/54 127/105/54
f 29/106/54 128/108/54 223/107/54
f 29/106/54 111/87/54 224/99/68
f 125/102/54 225/244/54 128/108/54
f 30/109/54 121/111/54 218/110/54
f 30/109/54 106/89/68 219/104/68
f 127/105/54 225/244/54 121/111/54
f 31/112/54 123/93/68 222/92/68
f 31/112/54 110/69/54 223/107/54
f 128/108/54 225/244/54 123/93/68
f 32/113/54 126/101/54 217/100/54
f 32/113/54 105/73/54 218/110/54
f 121/111/54 225/244/54 126/101/54
f 149/114/69 238/245/4 143/115/4
f 33/116/17 143/115/4 232/117/4
f 129/118/17 226/246/14 168/119/14
f 168/119/14 239/247/14 149/114/69
f 145/120/18 234/248/97 141/121/1
f 141/121/1 230/249/97 130/123/18
f 130/123/18 227/250/16 167/124/16
f 167/124/16 235/130/16 145/120/18
f 150/125/12 239/247/14 168/119/14
f 168/119/14 226/246/14 131/127/13
f 131/127/13 228/251/70 166/128/70
f 166/128/70 240/252/70 150/125/12
f 36/129/15 146/133/15 235/130/16
f 167/124/16 227/250/16 132/131/15
f 132/131/15 229/253/11 165/132/11
f 165/132/11 236/254/11 146/133/15
f 151/134/8 240/252/70 166/128/70
f 166/128/70 228/251/70 133/136/8
f 133/136/8 231/255/98 163/137/3
f 163/137/3 241/256/101 151/134/8
f 147/138/10 236/254/11 165/132/11
f 165/132/11 229/253/11 134/140/10
f 38/139/10 134/140/10 233/141/7
f 161/142/71 237/257/71 147/138/10
f 152/143/2 241/256/101 163/137/3
f 163/137/3 231/255/98 135/145/2
f 135/145/2 230/249/97 141/121/1
f 141/121/1 234/248/97 152/143/2
f 148/146/72 237/257/71 161/142/71
f 161/142/71 233/141/7 136/148/5
f 40/147/72 136/148/5 232/117/4
f 143/115/4 238/245/4 148/146/72
f 41/149/73 136/148/5 233/141/7
f 41/149/73 144/150/74 245/151/75
f 41/149/73 156/152/76 246/153/28
f 162/154/27 232/117/4 136/148/5
f 135/145/2 231/255/98 142/155/77
f 42/156/78 142/155/77 249/157/79
f 42/156/78 160/158/80 242/159/22
f 164/160/81 230/249/97 135/145/2
f 134/140/10 229/253/11 140/161/31
f 43/162/82 140/161/31 244/163/83
f 43/162/82 155/164/84 245/151/75
f 144/150/74 233/141/7 134/140/10
f 133/136/8 228/251/70 139/165/85
f 44/166/86 139/165/85 248/167/87
f 44/166/86 159/168/45 249/157/79
f 142/155/77 231/255/98 133/136/8
f 132/131/15 227/250/16 138/169/88
f 45/170/32 138/169/88 243/171/24
f 45/170/32 154/172/33 244/163/83
f 140/161/31 229/253/11 132/131/15
f 131/127/13 226/246/14 137/173/25
f 46/174/89 137/173/25 247/175/90
f 46/174/89 158/176/37 248/167/87
f 139/165/85 228/251/70 131/127/13
f 130/123/18 230/249/97 164/160/81
f 47/177/91 164/160/81 242/159/22
f 47/177/91 153/178/92 243/171/24
f 138/169/88 227/250/16 130/123/18
f 129/118/17 232/117/4 162/154/27
f 48/179/93 162/154/27 246/153/28
f 48/179/93 157/180/29 247/175/90
f 137/173/25 226/246/14 129/118/17
f 158/176/37 247/175/90 177/181/94
f 177/181/94 255/209/54 174/183/54
f 174/183/54 256/222/68 178/184/53
f 178/184/53 248/167/87 158/176/37
f 153/178/92 242/159/22 179/185/95
f 179/185/95 250/217/54 169/187/68
f 169/187/68 251/225/68 180/188/60
f 180/188/60 243/171/24 153/178/92
f 157/180/29 246/153/28 181/189/55
f 181/189/55 254/206/68 173/191/54
f 173/191/54 255/209/54 177/181/94
f 177/181/94 247/175/90 157/180/29
f 156/152/76 245/151/75 182/192/57
f 182/192/57 253/211/54 172/194/54
f 172/194/54 254/206/68 181/189/55
f 181/189/55 246/153/28 156/152/76
f 160/158/80 249/157/79 183/195/51
f 183/195/51 257/214/68 176/197/54
f 176/197/54 250/217/54 179/185/95
f 179/185/95 242/159/22 160/158/80
f 155/164/84 244/163/83 184/198/64
f 184/198/64 252/219/68 171/200/68
f 171/200/68 253/211/54 182/192/57
f 182/192/57 245/151/75 155/164/84
f 159/168/45 248/167/87 178/184/53
f 178/184/53 256/222/68 175/202/54
f 175/202/54 257/214/68 183/195/51
f 183/195/51 249/157/79 159/168/45
f 154/172/33 243/171/24 180/188/60
f 180/188/60 251/225/68 170/204/54
f 170/204/54 252/219/68 184/198/64
f 184/198/64 244/163/83 154/172/33
f 57/205/54 173/191/54 254/206/68
f 186/207/54 258/258/54 187/208/54
f 57/205/54 187/208/54 255/209/54
f 58/210/54 172/194/54 253/211/54
f 188/212/54 258/258/54 186/207/54
f 58/210/54 186/207/54 254/206/68
f 59/213/54 176/197/54 257/214/68
f 189/215/54 258/258/54 190/216/68
f 59/213/54 190/216/68 250/217/54
f 60/218/54 171/200/68 252/219/68
f 191/220/54 258/258/54 188/212/54
f 60/218/54 188/212/54 253/211/54
f 61/221/54 175/202/54 256/222/68
f 192/223/54 258/258/54 189/215/54
f 61/221/54 189/215/54 257/214/68
f 62/224/68 170/204/54 251/225/68
f 185/226/54 258/258/54 191/220/54
f 62/224/68 191/220/54 252/219/68
f 63/227/68 174/183/54 255/209/54
f 187/208/54 258/258/54 192/223/54
f 63/227/68 192/223/54 256/222/68
f 64/228/68 169/187/68 250/217/54
f 190/216/68 258/258/54 185/226/54
f 64/228/68 185/226/54 251/225/68
