# Blender v2.79 (sub 0) OBJ File: 'fiat500.blend'
# www.blender.org
o Circle.004_Circle
v 1.138293 0.946063 -0.014153
v 1.151964 0.944332 -0.007443
v 1.151964 0.944332 0.002046
v 1.138293 0.946063 0.008756
v 1.118960 0.948511 0.008756
v 1.105289 0.950243 0.002046
v 1.105289 0.950243 -0.007443
v 1.118960 0.948511 -0.014153
v 1.139217 0.958792 -0.009878
v 1.147785 0.957707 -0.005672
v 1.147785 0.957707 0.000275
v 1.139217 0.958792 0.004481
v 1.127099 0.960327 0.004481
v 1.118531 0.961412 0.000275
v 1.118531 0.961412 -0.005672
v 1.127099 0.960327 -0.009878
v 1.141373 0.964614 -0.008225
v 1.147968 0.963779 -0.004988
v 1.147968 0.963779 -0.000409
v 1.141373 0.964614 0.002828
v 1.132045 0.965795 0.002828
v 1.125449 0.966630 -0.000409
v 1.125449 0.966630 -0.004988
v 1.132045 0.965795 -0.008225
v 1.143599 0.970427 -0.006655
v 1.148322 0.969829 -0.004337
v 1.148322 0.969829 -0.001059
v 1.143599 0.970427 0.001259
v 1.136920 0.971272 0.001259
v 1.132198 0.971870 -0.001059
v 1.132198 0.971870 -0.004337
v 1.136920 0.971272 -0.006655
v 1.169930 1.008167 -0.005086
v 1.172579 1.007237 -0.003687
v 1.172579 1.007237 -0.001709
v 1.169930 1.008167 -0.000311
v 1.166183 1.009482 -0.000311
v 1.163533 1.010412 -0.001709
v 1.163533 1.010412 -0.003687
v 1.166183 1.009482 -0.005086
v 1.197104 1.046034 -0.004424
v 1.198874 1.044950 -0.003413
v 1.198874 1.044950 -0.001984
v 1.197104 1.046034 -0.000973
v 1.194601 1.047566 -0.000973
v 1.192830 1.048649 -0.001984
v 1.192830 1.048649 -0.003413
v 1.194601 1.047566 -0.004424
v 1.258138 1.132543 -0.003761
v 1.259229 1.131875 -0.003139
v 1.259229 1.131875 -0.002258
v 1.258138 1.132543 -0.001636
v 1.256596 1.133487 -0.001636
v 1.255505 1.134154 -0.002258
v 1.255505 1.134154 -0.003139
v 1.256596 1.133487 -0.003761
v 1.319704 1.215745 -0.000167
v 1.321544 1.215745 -0.002698
v 1.316728 1.215745 -0.001134
v 1.316728 1.215745 -0.004263
v 1.319704 1.215745 -0.005230
v 1.323189 1.218407 -0.002698
v 1.320213 1.218407 0.001398
v 1.315398 1.218407 -0.000167
v 1.315398 1.218407 -0.005230
v 1.320213 1.218407 -0.006794
v 1.322366 1.220052 -0.000167
v 1.317551 1.220052 0.001398
v 1.314575 1.220052 -0.002698
v 1.317551 1.220052 -0.006794
v 1.322366 1.220052 -0.005230
v 1.321035 1.222714 -0.001134
v 1.318059 1.222714 -0.000167
v 1.316220 1.222714 -0.002698
v 1.318059 1.222714 -0.005230
v 1.321035 1.222714 -0.004263
v 1.112216 0.936519 -0.016775
v 1.095416 0.938647 -0.008529
v 1.095416 0.938647 0.003132
v 1.112216 0.936519 0.011378
v 1.135975 0.933511 0.011378
v 1.152775 0.931383 0.003132
v 1.152775 0.931383 -0.008529
v 1.135975 0.933511 -0.016775
v 1.124367 0.957461 -0.011773
v 1.113536 0.958833 -0.006457
v 1.113536 0.958833 0.001060
v 1.124367 0.957461 0.006376
v 1.139683 0.955521 0.006376
v 1.150514 0.954150 0.001060
v 1.150514 0.954150 -0.006457
v 1.139683 0.955521 -0.011773
v 1.146544 0.945018 -0.011493
v 1.128627 0.947287 -0.015136
v 1.153966 0.944078 -0.002698
v 1.146544 0.945018 0.006096
v 1.128627 0.947287 0.009739
v 1.110709 0.949556 0.006096
v 1.103287 0.950496 -0.002698
v 1.110709 0.949556 -0.011493
v 1.128494 0.960150 -0.008225
v 1.121899 0.960985 -0.004988
v 1.121899 0.960985 -0.000409
v 1.128494 0.960150 0.002828
v 1.137822 0.958969 0.002828
v 1.144418 0.958134 -0.000409
v 1.144418 0.958134 -0.004988
v 1.137822 0.958969 -0.008225
v 1.144388 0.958137 -0.008211
v 1.133158 0.959559 -0.010494
v 1.149040 0.957548 -0.002698
v 1.144388 0.958137 0.002814
v 1.133158 0.959559 0.005097
v 1.121927 0.960982 0.002814
v 1.117276 0.961571 -0.002698
v 1.121927 0.960982 -0.008211
v 1.128494 0.960150 -0.008225
v 1.121899 0.960985 -0.004988
v 1.121899 0.960985 -0.000409
v 1.128494 0.960150 0.002828
v 1.137822 0.958969 0.002828
v 1.144418 0.958134 -0.000409
v 1.144418 0.958134 -0.004988
v 1.137822 0.958969 -0.008225
v 1.135039 0.969987 -0.007832
v 1.128912 0.970763 -0.004825
v 1.128912 0.970763 -0.000572
v 1.135039 0.969987 0.002436
v 1.143705 0.968890 0.002436
v 1.149832 0.968114 -0.000572
v 1.149832 0.968114 -0.004825
v 1.143705 0.968890 -0.007832
v 1.145354 0.964110 -0.006941
v 1.136709 0.965204 -0.008699
v 1.148934 0.963656 -0.002698
v 1.145354 0.964110 0.001545
v 1.136709 0.965204 0.003302
v 1.128064 0.966299 0.001545
v 1.124483 0.966753 -0.002698
v 1.128064 0.966299 -0.006941
v 1.138245 0.971105 -0.005086
v 1.135396 0.971466 -0.003687
v 1.135396 0.971466 -0.001709
v 1.138245 0.971105 -0.000311
v 1.142275 0.970594 -0.000311
v 1.145124 0.970234 -0.001709
v 1.145124 0.970234 -0.003687
v 1.142275 0.970594 -0.005086
v 1.146450 0.970066 -0.005736
v 1.140260 0.970850 -0.006995
v 1.149013 0.969741 -0.002698
v 1.146450 0.970066 0.000340
v 1.140260 0.970850 0.001598
v 1.134070 0.971633 0.000340
v 1.131506 0.971958 -0.002698
v 1.134070 0.971633 -0.005736
v 1.138245 0.971105 -0.005086
v 1.135396 0.971466 -0.003687
v 1.135396 0.971466 -0.001709
v 1.138245 0.971105 -0.000311
v 1.142275 0.970594 -0.000311
v 1.145124 0.970234 -0.001709
v 1.145124 0.970234 -0.003687
v 1.142275 0.970594 -0.005086
v 1.194120 1.047860 -0.005086
v 1.191670 1.049359 -0.003687
v 1.191670 1.049359 -0.001709
v 1.194120 1.047860 -0.000311
v 1.197585 1.045740 -0.000311
v 1.200034 1.044240 -0.001709
v 1.200034 1.044240 -0.003687
v 1.197585 1.045740 -0.005086
v 1.171529 1.007606 -0.004531
v 1.168056 1.008825 -0.005291
v 1.172967 1.007101 -0.002698
v 1.171529 1.007606 -0.000865
v 1.168056 1.008825 -0.000106
v 1.164583 1.010044 -0.000865
v 1.163145 1.010549 -0.002698
v 1.164583 1.010044 -0.004531
v 1.194120 1.047860 -0.005086
v 1.191670 1.049359 -0.003687
v 1.191670 1.049359 -0.001709
v 1.194120 1.047860 -0.000311
v 1.197585 1.045740 -0.000311
v 1.200034 1.044240 -0.001709
v 1.200034 1.044240 -0.003687
v 1.197585 1.045740 -0.005086
v 1.210340 1.068899 -0.003927
v 1.209079 1.069670 -0.003207
v 1.209079 1.069670 -0.002190
v 1.210340 1.068899 -0.001470
v 1.212122 1.067808 -0.001470
v 1.213383 1.067037 -0.002190
v 1.213383 1.067037 -0.003207
v 1.212122 1.067808 -0.003927
v 1.198172 1.045380 -0.004023
v 1.195852 1.046800 -0.004572
v 1.199133 1.044792 -0.002698
v 1.198172 1.045380 -0.001374
v 1.195852 1.046800 -0.000825
v 1.193532 1.048220 -0.001374
v 1.192571 1.048808 -0.002698
v 1.193532 1.048220 -0.004023
v 1.318111 1.219702 -0.003761
v 1.317020 1.220369 -0.003139
v 1.317020 1.220369 -0.002258
v 1.318111 1.219702 -0.001636
v 1.319653 1.218758 -0.001636
v 1.320743 1.218090 -0.002258
v 1.320743 1.218090 -0.003139
v 1.319653 1.218758 -0.003761
v 1.258796 1.132140 -0.003514
v 1.257367 1.133015 -0.003852
v 1.259388 1.131778 -0.002698
v 1.258796 1.132140 -0.001882
v 1.257367 1.133015 -0.001544
v 1.255938 1.133890 -0.001882
v 1.255346 1.134252 -0.002698
v 1.255938 1.133890 -0.003514
v 1.318168 1.215491 -0.000501
v 1.320751 1.215491 -0.001340
v 1.320037 1.216919 0.000857
v 1.322620 1.216919 -0.002698
v 1.320751 1.215491 -0.004056
v 1.316571 1.215491 -0.002698
v 1.315857 1.216919 -0.000501
v 1.318168 1.215491 -0.004896
v 1.315857 1.216919 -0.004896
v 1.320037 1.216919 -0.006254
v 1.323062 1.219230 -0.001340
v 1.323062 1.219230 -0.004056
v 1.318882 1.219230 0.001696
v 1.321465 1.219230 0.000857
v 1.314702 1.219230 -0.001340
v 1.316299 1.219230 0.000857
v 1.316299 1.219230 -0.006254
v 1.314702 1.219230 -0.004056
v 1.321465 1.219230 -0.006254
v 1.318882 1.219230 -0.007093
v 1.321906 1.221540 -0.000501
v 1.317726 1.221540 0.000857
v 1.315143 1.221540 -0.002698
v 1.317726 1.221540 -0.006254
v 1.321906 1.221540 -0.004896
v 1.319596 1.222968 -0.000501
v 1.321192 1.222968 -0.002698
v 1.317013 1.222968 -0.001340
v 1.317013 1.222968 -0.004056
v 1.319596 1.222968 -0.004896
v 1.124095 0.935015 -0.017982
v 1.102076 0.937803 -0.013506
v 1.092956 0.938958 -0.002698
v 1.102076 0.937803 0.008109
v 1.124095 0.935015 0.012586
v 1.146114 0.932226 0.008109
v 1.155235 0.931071 -0.002698
v 1.146114 0.932226 -0.013506
v 1.132025 0.956491 -0.012552
v 1.117830 0.958289 -0.009666
v 1.111950 0.959034 -0.002698
v 1.117830 0.958289 0.004269
v 1.132025 0.956491 0.007155
v 1.146220 0.954694 0.004269
v 1.152100 0.953949 -0.002698
v 1.146220 0.954694 -0.009666
v 1.133158 0.959559 -0.008699
v 1.124513 0.960654 -0.006941
v 1.120933 0.961108 -0.002698
v 1.124513 0.960654 0.001545
v 1.133158 0.959559 0.003302
v 1.141803 0.958465 0.001545
v 1.145383 0.958011 -0.002698
v 1.141803 0.958465 -0.006941
v 1.133158 0.959559 -0.008699
v 1.124513 0.960654 -0.006941
v 1.120933 0.961108 -0.002698
v 1.124513 0.960654 0.001545
v 1.133158 0.959559 0.003302
v 1.141803 0.958465 0.001545
v 1.145383 0.958011 -0.002698
v 1.141803 0.958465 -0.006941
v 1.139372 0.969438 -0.008273
v 1.131341 0.970455 -0.006640
v 1.128015 0.970877 -0.002698
v 1.131341 0.970455 0.001243
v 1.139372 0.969438 0.002876
v 1.147403 0.968421 0.001243
v 1.150730 0.968000 -0.002698
v 1.147403 0.968421 -0.006640
v 1.140260 0.970850 -0.005291
v 1.136525 0.971322 -0.004531
v 1.134978 0.971518 -0.002698
v 1.136525 0.971322 -0.000865
v 1.140260 0.970850 -0.000106
v 1.143995 0.970377 -0.000865
v 1.145542 0.970181 -0.002698
v 1.143995 0.970377 -0.004531
v 1.140260 0.970850 -0.005291
v 1.136525 0.971322 -0.004531
v 1.134978 0.971518 -0.002698
v 1.136525 0.971322 -0.000865
v 1.140260 0.970850 -0.000106
v 1.143995 0.970377 -0.000865
v 1.145542 0.970181 -0.002698
v 1.143995 0.970377 -0.004531
v 1.195852 1.046800 -0.005291
v 1.192641 1.048765 -0.004531
v 1.191311 1.049579 -0.002698
v 1.192641 1.048765 -0.000865
v 1.195852 1.046800 -0.000106
v 1.199063 1.044835 -0.000865
v 1.200393 1.044021 -0.002698
v 1.199063 1.044835 -0.004531
v 1.195852 1.046800 -0.005291
v 1.192641 1.048765 -0.004531
v 1.191311 1.049579 -0.002698
v 1.192641 1.048765 -0.000865
v 1.195852 1.046800 -0.000106
v 1.199063 1.044835 -0.000865
v 1.200393 1.044021 -0.002698
v 1.199063 1.044835 -0.004531
v 1.211231 1.068354 -0.004032
v 1.209579 1.069365 -0.003642
v 1.208895 1.069783 -0.002698
v 1.209579 1.069365 -0.001755
v 1.211231 1.068354 -0.001365
v 1.212883 1.067343 -0.001755
v 1.213567 1.066924 -0.002698
v 1.212883 1.067343 -0.003642
v 1.318882 1.219230 -0.003852
v 1.317452 1.220104 -0.003514
v 1.316860 1.220467 -0.002698
v 1.317452 1.220104 -0.001882
v 1.318882 1.219230 -0.001544
v 1.320311 1.218355 -0.001882
v 1.320903 1.217993 -0.002698
v 1.320311 1.218355 -0.003514
v 1.318882 1.214729 -0.002698
v 1.322139 1.217217 -0.000332
v 1.317638 1.217217 0.001130
v 1.314856 1.217217 -0.002698
v 1.317638 1.217217 -0.006527
v 1.322139 1.217217 -0.005065
v 1.320126 1.221243 0.001130
v 1.315625 1.221243 -0.000332
v 1.315625 1.221243 -0.005065
v 1.320126 1.221243 -0.006527
v 1.322908 1.221243 -0.002698
v 1.318882 1.223731 -0.002698
vn 0.3196 0.1368 -0.9376
vn 0.1222 0.1813 -0.9758
vn 0.1266 0.2245 -0.9662
vn 0.3228 0.1861 -0.9280
vn 0.9193 0.0897 -0.3831
vn 0.6038 0.1041 -0.7903
vn 0.6036 0.1674 -0.7795
vn 0.9108 0.1722 -0.3751
vn 0.6038 0.1041 0.7903
vn 0.9193 0.0897 0.3831
vn 0.9108 0.1722 0.3751
vn 0.6037 0.1674 0.7795
vn 0.1222 0.1813 0.9758
vn 0.3196 0.1368 0.9376
vn 0.3227 0.1860 0.9280
vn 0.1266 0.2245 0.9662
vn -0.2496 0.3387 0.9072
vn -0.0667 0.2488 0.9663
vn -0.0603 0.2904 0.9550
vn -0.2394 0.3820 0.8926
vn -0.7031 0.6296 0.3304
vn -0.4848 0.4812 0.7304
vn -0.4646 0.5276 0.7112
vn -0.6657 0.6755 0.3170
vn -0.4848 0.4812 -0.7304
vn -0.7032 0.6296 -0.3304
vn -0.6657 0.6755 -0.3170
vn -0.4646 0.5276 -0.7112
vn -0.0667 0.2488 -0.9663
vn -0.2496 0.3387 -0.9072
vn -0.2394 0.3820 -0.8926
vn -0.0603 0.2904 -0.9550
vn 0.3219 0.5087 -0.7985
vn 0.1508 0.5117 -0.8458
vn 0.1256 0.9921 0.0000
vn 0.7323 0.6226 -0.2757
vn 0.5419 0.5550 -0.6311
vn 0.5419 0.5550 0.6312
vn 0.7323 0.6226 0.2757
vn 0.1508 0.5117 0.8458
vn 0.3219 0.5087 0.7985
vn -0.1590 0.6456 0.7469
vn -0.0132 0.5604 0.8281
vn -0.4192 0.8799 0.2239
vn -0.3132 0.7740 0.5503
vn -0.3132 0.7740 -0.5503
vn -0.4191 0.8799 -0.2239
vn -0.0132 0.5604 -0.8281
vn -0.1590 0.6456 -0.7469
vn 0.1256 0.9921 0.0001
vn 0.2816 -0.1771 -0.9430
vn 0.0936 -0.0589 -0.9939
vn 0.1053 0.0338 -0.9939
vn 0.2974 -0.0749 -0.9518
vn 0.7898 -0.4968 -0.3598
vn 0.5358 -0.3370 -0.7742
vn 0.5672 -0.2140 -0.7953
vn 0.8550 -0.3534 -0.3797
vn 0.5358 -0.3370 0.7742
vn 0.7898 -0.4968 0.3598
vn 0.8550 -0.3534 0.3797
vn 0.5672 -0.2140 0.7953
vn 0.0936 -0.0589 0.9939
vn 0.2816 -0.1771 0.9430
vn 0.2974 -0.0749 0.9518
vn 0.1053 0.0338 0.9939
vn -0.2816 0.1771 0.9430
vn -0.0936 0.0589 0.9939
vn -0.0811 0.1502 0.9853
vn -0.2634 0.2747 0.9248
vn -0.7898 0.4968 0.3598
vn -0.5358 0.3370 0.7742
vn -0.4985 0.4468 0.7429
vn -0.7157 0.6129 0.3348
vn -0.5358 0.3371 -0.7742
vn -0.7898 0.4968 -0.3598
vn -0.7158 0.6129 -0.3348
vn -0.4985 0.4468 -0.7429
vn -0.0936 0.0589 -0.9939
vn -0.2816 0.1771 -0.9430
vn -0.2634 0.2747 -0.9248
vn -0.0811 0.1502 -0.9853
vn 0.3144 0.5907 -0.7432
vn 0.1561 0.6073 -0.7790
vn 0.1256 0.9921 -0.0001
vn 0.6887 0.6790 -0.2543
vn 0.5174 0.6227 -0.5869
vn 0.5174 0.6227 0.5870
vn 0.6887 0.6789 0.2544
vn 0.1561 0.6073 0.7790
vn 0.3144 0.5907 0.7432
vn -0.1124 0.7555 0.6455
vn 0.0090 0.6681 0.7440
vn -0.2914 0.9408 0.1732
vn -0.2252 0.8652 0.4480
vn -0.2252 0.8653 -0.4479
vn -0.2914 0.9408 -0.1732
vn 0.0090 0.6681 -0.7440
vn -0.1124 0.7555 -0.6455
vn 0.2769 -0.2038 -0.9390
vn 0.0864 -0.0636 -0.9942
vn 0.0811 -0.0597 -0.9949
vn 0.2607 -0.1919 -0.9462
vn 0.7530 -0.5587 -0.3477
vn 0.4994 -0.3705 -0.7831
vn 0.4795 -0.3557 -0.8022
vn 0.7464 -0.5538 -0.3691
vn 0.4994 -0.3705 0.7832
vn 0.7460 -0.5542 0.3692
vn 0.7464 -0.5538 0.3690
vn 0.4998 -0.3696 0.7833
vn 0.0864 -0.0636 0.9942
vn 0.2604 -0.1926 0.9461
vn 0.2607 -0.1919 0.9462
vn 0.0865 -0.0633 0.9942
vn -0.2613 0.1902 0.9463
vn -0.0865 0.0633 0.9942
vn -0.0866 0.0630 0.9943
vn -0.2616 0.1896 0.9464
vn -0.7530 0.5440 0.3703
vn -0.5024 0.3640 0.7843
vn -0.5028 0.3632 0.7844
vn -0.7532 0.5436 0.3704
vn -0.5230 0.3779 -0.7640
vn -0.7530 0.5440 -0.3703
vn -0.7462 0.5391 -0.3905
vn -0.5028 0.3632 -0.7844
vn -0.0925 0.0673 -0.9934
vn -0.2613 0.1902 -0.9463
vn -0.2470 0.1798 -0.9522
vn -0.0866 0.0630 -0.9943
vn 0.5219 0.8530 0.0002
vn 0.5220 0.8529 0.0000
vn 0.0925 -0.0411 -0.9949
vn 0.2605 -0.1579 -0.9525
vn 0.5220 0.8530 0.0000
vn 0.5220 0.8529 0.0002
vn 0.5013 -0.3218 -0.8032
vn 0.7708 -0.5027 -0.3913
vn 0.5221 0.8529 -0.0002
vn 0.5219 0.8530 0.0000
vn 0.7708 -0.5027 0.3913
vn 0.5012 -0.3217 0.8033
vn 0.5219 0.8530 -0.0002
vn 0.2605 -0.1579 0.9525
vn 0.0925 -0.0411 0.9949
vn 0.5221 0.8529 0.0003
vn -0.0713 0.0757 0.9946
vn -0.2365 0.1967 0.9515
vn 0.5220 0.8529 -0.0002
vn -0.4696 0.3708 0.8012
vn -0.7269 0.5657 0.3893
vn -0.7269 0.5657 -0.3895
vn -0.4696 0.3708 -0.8013
vn 0.5220 0.8530 0.0003
vn -0.2364 0.1966 -0.9516
vn -0.0713 0.0757 -0.9946
vn 0.2499 -0.1752 -0.9523
vn 0.0830 -0.0565 -0.9949
vn 0.0819 -0.0584 -0.9949
vn 0.2485 -0.1773 -0.9523
vn 0.7518 -0.5312 -0.3906
vn 0.4873 -0.3437 -0.8028
vn 0.4856 -0.3465 -0.8026
vn 0.7495 -0.5347 -0.3904
vn 0.4873 -0.3437 0.8028
vn 0.7518 -0.5311 0.3908
vn 0.7494 -0.5347 0.3904
vn 0.4855 -0.3464 0.8027
vn 0.0830 -0.0565 0.9949
vn 0.2499 -0.1752 0.9523
vn 0.2485 -0.1773 0.9522
vn 0.0819 -0.0584 0.9949
vn -0.2473 0.1795 0.9522
vn -0.0807 0.0603 0.9949
vn -0.0819 0.0584 0.9949
vn -0.2485 0.1773 0.9522
vn -0.7469 0.5381 0.3906
vn -0.4839 0.3492 0.8024
vn -0.4855 0.3464 0.8027
vn -0.7493 0.5347 0.3907
vn -0.4837 0.3491 -0.8026
vn -0.7469 0.5382 -0.3905
vn -0.7494 0.5347 -0.3906
vn -0.4855 0.3464 -0.8027
vn -0.0807 0.0603 -0.9949
vn -0.2473 0.1795 -0.9522
vn -0.2486 0.1773 -0.9522
vn -0.0819 0.0584 -0.9949
vn 0.1420 -0.9336 0.3289
vn 0.4392 -0.6580 0.6117
vn -0.0418 -0.6932 0.7196
vn 0.6714 -0.6932 0.2620
vn 0.3566 -0.9337 -0.0333
vn 0.7174 -0.6580 -0.2288
vn -0.2689 -0.9336 0.2367
vn -0.4460 -0.6580 0.6068
vn -0.6973 -0.6931 0.1827
vn -0.3081 -0.9336 -0.1827
vn -0.7149 -0.6580 -0.2366
vn -0.3892 -0.6932 -0.6067
vn 0.0785 -0.9336 -0.3495
vn 0.0042 -0.6580 -0.7530
vn 0.4567 -0.6932 -0.5576
vn 0.9094 -0.3473 0.2287
vn 0.9203 -0.2905 -0.2621
vn 0.9946 0.0985 0.0334
vn 0.0635 -0.3474 0.9356
vn 0.5337 -0.2905 0.7942
vn 0.2756 0.0986 0.9562
vn -0.8701 -0.3474 0.3495
vn -0.5904 -0.2905 0.7530
vn -0.8242 0.0986 0.5576
vn -0.6013 -0.3473 -0.7196
vn -0.8986 -0.2905 -0.3289
vn -0.7850 0.0986 -0.6116
vn 0.4986 -0.3475 -0.7941
vn 0.0351 -0.2906 -0.9562
vn 0.3391 0.0986 -0.9356
vn 0.8242 -0.0986 0.5576
vn 0.8702 0.3473 0.3496
vn 0.5904 0.2906 0.7530
vn -0.2756 -0.0985 0.9562
vn -0.0635 0.3474 0.9356
vn -0.5337 0.2906 0.7942
vn -0.9946 -0.0986 0.0334
vn -0.9094 0.3473 0.2287
vn -0.9202 0.2907 -0.2621
vn -0.3391 -0.0985 -0.9356
vn -0.4985 0.3473 -0.7942
vn -0.0351 0.2906 -0.9562
vn 0.7850 -0.0986 -0.6116
vn 0.6012 0.3473 -0.7196
vn 0.8985 0.2906 -0.3289
vn 0.4460 0.6580 0.6068
vn 0.6973 0.6931 0.1826
vn 0.2689 0.9336 0.2367
vn -0.4392 0.6580 0.6117
vn 0.0418 0.6932 0.7195
vn -0.1420 0.9337 0.3288
vn -0.7174 0.6580 -0.2287
vn -0.6715 0.6931 0.2621
vn -0.3566 0.9336 -0.0334
vn -0.0042 0.6580 -0.7530
vn -0.4568 0.6931 -0.5576
vn -0.0784 0.9336 -0.3496
vn 0.7148 0.6581 -0.2367
vn 0.3892 0.6931 -0.6068
vn 0.3081 0.9337 -0.1825
vn 0.1221 0.1813 -0.9758
vn 0.3227 0.1860 -0.9280
vn 0.6037 0.1674 -0.7795
vn 0.3228 0.1861 0.9280
vn -0.7032 0.6296 0.3304
vn 0.5419 0.5550 -0.6312
vn 0.5419 0.5550 0.6311
vn 0.7323 0.6226 0.2758
vn -0.4192 0.8798 -0.2239
vn -0.5358 0.3371 0.7742
vn -0.4985 0.4469 0.7428
vn -0.7158 0.6129 0.3348
vn -0.7157 0.6129 -0.3348
vn -0.4985 0.4469 -0.7428
vn 0.3144 0.5907 -0.7431
vn 0.6888 0.6789 -0.2543
vn 0.5175 0.6226 -0.5870
vn 0.5175 0.6227 0.5870
vn 0.6887 0.6789 0.2543
vn 0.3144 0.5907 0.7431
vn -0.1124 0.7555 0.6454
vn -0.2914 0.9408 0.1733
vn -0.2252 0.8652 0.4479
vn 0.1257 0.9921 0.0001
vn -0.2252 0.8652 -0.4480
vn -0.2914 0.9408 -0.1733
vn -0.1124 0.7555 -0.6454
vn 0.2604 -0.1926 -0.9461
vn 0.0924 -0.0676 -0.9934
vn 0.0865 -0.0633 -0.9942
vn 0.2458 -0.1818 -0.9521
vn 0.7460 -0.5542 -0.3692
vn 0.5206 -0.3851 -0.7620
vn 0.4998 -0.3696 -0.7833
vn 0.7391 -0.5491 -0.3901
vn 0.5206 -0.3851 0.7620
vn 0.7530 -0.5587 0.3477
vn 0.7391 -0.5491 0.3901
vn 0.4795 -0.3557 0.8022
vn 0.0924 -0.0676 0.9934
vn 0.2769 -0.2038 0.9390
vn 0.2458 -0.1818 0.9521
vn 0.0811 -0.0597 0.9949
vn -0.2774 0.2010 0.9395
vn -0.0925 0.0673 0.9934
vn -0.0812 0.0595 0.9949
vn -0.2470 0.1798 0.9522
vn -0.7596 0.5482 0.3499
vn -0.5230 0.3779 0.7640
vn -0.4832 0.3501 0.8025
vn -0.7462 0.5391 0.3905
vn -0.5024 0.3640 -0.7843
vn -0.7596 0.5482 -0.3499
vn -0.7532 0.5436 -0.3704
vn -0.4832 0.3501 -0.8025
vn -0.0865 0.0633 -0.9942
vn -0.2774 0.2010 -0.9395
vn -0.2616 0.1896 -0.9464
vn -0.0812 0.0595 -0.9949
vn 0.2606 -0.1580 -0.9524
vn 0.5220 0.8529 0.0001
vn 0.5012 -0.3217 -0.8033
vn 0.5013 -0.3218 0.8032
vn 0.2606 -0.1580 0.9524
vn 0.5220 0.8530 -0.0003
vn -0.0712 0.0757 0.9946
vn -0.2364 0.1966 0.9516
vn -0.4694 0.3707 0.8014
vn -0.7269 0.5657 0.3895
vn -0.7269 0.5657 -0.3893
vn -0.4694 0.3707 -0.8014
vn -0.2365 0.1967 -0.9515
vn 0.0831 -0.0565 -0.9949
vn 0.2485 -0.1773 -0.9522
vn 0.7518 -0.5311 -0.3908
vn 0.4874 -0.3438 -0.8027
vn 0.4855 -0.3464 -0.8027
vn 0.7494 -0.5347 -0.3905
vn 0.4874 -0.3438 0.8027
vn 0.7518 -0.5312 0.3906
vn 0.7494 -0.5347 0.3905
vn 0.4856 -0.3465 0.8026
vn 0.0831 -0.0565 0.9949
vn 0.2485 -0.1773 0.9523
vn -0.2472 0.1795 0.9522
vn -0.2486 0.1773 0.9522
vn -0.7470 0.5382 0.3904
vn -0.4837 0.3491 0.8026
vn -0.4856 0.3465 0.8026
vn -0.7494 0.5347 0.3906
vn -0.4839 0.3492 -0.8024
vn -0.7470 0.5382 -0.3904
vn -0.7493 0.5347 -0.3907
vn -0.4856 0.3465 -0.8026
vn -0.2472 0.1795 -0.9522
vn -0.2485 0.1773 -0.9522
vn 0.0785 -0.9336 0.3495
vn 0.4567 -0.6932 0.5576
vn 0.0042 -0.6580 0.7530
vn 0.7174 -0.6580 0.2288
vn 0.3566 -0.9337 0.0333
vn 0.6714 -0.6932 -0.2620
vn -0.3081 -0.9336 0.1827
vn -0.3891 -0.6932 0.6066
vn -0.7149 -0.6580 0.2366
vn -0.2689 -0.9336 -0.2367
vn -0.6973 -0.6932 -0.1827
vn -0.4460 -0.6580 -0.6068
vn 0.1420 -0.9336 -0.3289
vn -0.0418 -0.6932 -0.7196
vn 0.4392 -0.6580 -0.6117
vn 0.9203 -0.2905 0.2621
vn 0.9094 -0.3475 -0.2287
vn 0.9946 0.0985 -0.0334
vn 0.0351 -0.2906 0.9562
vn 0.4986 -0.3475 0.7941
vn 0.3391 0.0986 0.9356
vn -0.8986 -0.2904 0.3289
vn -0.6013 -0.3475 0.7196
vn -0.7850 0.0986 0.6116
vn -0.5904 -0.2905 -0.7530
vn -0.8701 -0.3474 -0.3495
vn -0.8242 0.0985 -0.5576
vn 0.5337 -0.2905 -0.7942
vn 0.0635 -0.3474 -0.9356
vn 0.2756 0.0986 -0.9562
vn 0.7850 -0.0986 0.6116
vn 0.8985 0.2906 0.3289
vn 0.6012 0.3473 0.7196
vn -0.3391 -0.0986 0.9356
vn -0.0351 0.2906 0.9562
vn -0.4985 0.3473 0.7942
vn -0.9946 -0.0986 -0.0334
vn -0.9202 0.2907 0.2621
vn -0.9094 0.3475 -0.2287
vn -0.2756 -0.0986 -0.9562
vn -0.5337 0.2906 -0.7942
vn -0.0635 0.3474 -0.9356
vn 0.8242 -0.0986 -0.5576
vn 0.5904 0.2906 -0.7530
vn 0.8702 0.3473 -0.3496
vn 0.3892 0.6931 0.6068
vn 0.7148 0.6581 0.2367
vn 0.3081 0.9337 0.1825
vn -0.4568 0.6931 0.5576
vn -0.0042 0.6580 0.7530
vn -0.0784 0.9336 0.3495
vn -0.6715 0.6931 -0.2621
vn -0.7174 0.6581 0.2287
vn -0.3566 0.9336 0.0334
vn 0.0418 0.6932 -0.7195
vn -0.4392 0.6580 -0.6117
vn -0.1420 0.9337 -0.3288
vn 0.6973 0.6931 -0.1826
vn 0.4460 0.6580 -0.6068
vn 0.2689 0.9336 -0.2367
s off
f 1//1 258//1 84//1
f 84//2 94//2 1//2
f 1//3 259//3 92//3
f 1//4 266//4 93//4
f 95//5 83//5 2//5
f 2//6 258//6 93//6
f 93//7 91//7 2//7
f 2//8 265//8 95//8
f 3//9 256//9 82//9
f 82//10 95//10 3//10
f 3//11 265//11 90//11
f 90//12 96//12 3//12
f 97//13 81//13 4//13
f 4//14 256//14 96//14
f 4//15 264//15 89//15
f 4//16 263//16 97//16
f 98//17 80//17 5//17
f 5//18 255//18 97//18
f 97//19 88//19 5//19
f 5//20 262//20 98//20
f 99//21 79//21 6//21
f 6//22 254//22 98//22
f 98//23 87//23 6//23
f 6//24 261//24 99//24
f 7//25 252//25 78//25
f 78//26 99//26 7//26
f 7//27 261//27 86//27
f 86//28 100//28 7//28
f 8//29 251//29 77//29
f 77//30 100//30 8//30
f 8//31 260//31 85//31
f 85//32 94//32 8//32
f 109//33 92//33 9//33
f 92//34 110//34 9//34
f 110//35 108//35 9//35
f 9//35 274//35 109//35
f 111//36 91//36 10//36
f 10//37 266//37 109//37
f 109//35 107//35 10//35
f 10//35 273//35 111//35
f 11//38 264//38 90//38
f 90//39 111//39 11//39
f 11//35 273//35 106//35
f 106//35 112//35 11//35
f 113//40 89//40 12//40
f 89//41 112//41 12//41
f 12//35 272//35 105//35
f 105//35 113//35 12//35
f 114//42 88//42 13//42
f 13//43 263//43 113//43
f 113//35 104//35 13//35
f 13//35 270//35 114//35
f 115//44 87//44 14//44
f 14//45 262//45 114//45
f 114//35 103//35 14//35
f 14//35 269//35 115//35
f 15//46 260//46 86//46
f 86//47 115//47 15//47
f 15//35 269//35 102//35
f 102//35 116//35 15//35
f 16//48 259//48 85//48
f 85//49 116//49 16//49
f 16//35 268//35 101//35
f 101//50 110//50 16//50
f 17//51 282//51 124//51
f 124//52 134//52 17//52
f 17//53 283//53 132//53
f 132//54 133//54 17//54
f 18//55 281//55 123//55
f 123//56 133//56 18//56
f 18//57 290//57 131//57
f 131//58 135//58 18//58
f 136//59 122//59 19//59
f 19//60 281//60 135//60
f 135//61 130//61 19//61
f 19//62 288//62 136//62
f 137//63 121//63 20//63
f 20//64 280//64 136//64
f 136//65 129//65 20//65
f 20//66 287//66 137//66
f 138//67 120//67 21//67
f 21//68 279//68 137//68
f 137//69 128//69 21//69
f 21//70 286//70 138//70
f 139//71 119//71 22//71
f 22//72 278//72 138//72
f 138//73 127//73 22//73
f 22//74 285//74 139//74
f 23//75 276//75 118//75
f 118//76 139//76 23//76
f 23//77 285//77 126//77
f 126//78 140//78 23//78
f 24//79 275//79 117//79
f 117//80 140//80 24//80
f 24//81 284//81 125//81
f 125//82 134//82 24//82
f 149//83 132//83 25//83
f 132//84 150//84 25//84
f 150//85 148//85 25//85
f 25//50 298//50 149//50
f 151//86 131//86 26//86
f 26//87 290//87 149//87
f 149//35 147//35 26//35
f 26//35 297//35 151//35
f 27//88 288//88 130//88
f 130//89 151//89 27//89
f 27//35 297//35 146//35
f 146//35 152//35 27//35
f 153//90 129//90 28//90
f 129//91 152//91 28//91
f 28//35 296//35 145//35
f 145//50 153//50 28//50
f 154//92 128//92 29//92
f 29//93 287//93 153//93
f 153//35 144//35 29//35
f 29//35 294//35 154//35
f 155//94 127//94 30//94
f 30//95 286//95 154//95
f 154//35 143//35 30//35
f 30//85 293//85 155//85
f 31//96 284//96 126//96
f 126//97 155//97 31//97
f 31//85 293//85 142//85
f 142//35 156//35 31//35
f 32//98 283//98 125//98
f 125//99 156//99 32//99
f 32//35 292//35 141//35
f 141//35 150//35 32//35
f 33//100 306//100 164//100
f 164//101 174//101 33//101
f 33//102 307//102 172//102
f 172//103 173//103 33//103
f 34//104 305//104 163//104
f 163//105 173//105 34//105
f 34//106 314//106 171//106
f 171//107 175//107 34//107
f 176//108 162//108 35//108
f 35//109 305//109 175//109
f 175//110 170//110 35//110
f 35//111 312//111 176//111
f 177//112 161//112 36//112
f 36//113 304//113 176//113
f 176//114 169//114 36//114
f 36//115 311//115 177//115
f 178//116 160//116 37//116
f 37//117 303//117 177//117
f 177//118 168//118 37//118
f 37//119 310//119 178//119
f 179//120 159//120 38//120
f 38//121 302//121 178//121
f 178//122 167//122 38//122
f 38//123 309//123 179//123
f 39//124 300//124 158//124
f 158//125 179//125 39//125
f 39//126 309//126 166//126
f 166//127 180//127 39//127
f 40//128 299//128 157//128
f 157//129 180//129 40//129
f 40//130 308//130 165//130
f 165//131 174//131 40//131
f 197//132 188//132 41//132
f 41//133 315//133 198//133
f 41//134 323//134 196//134
f 196//135 197//135 41//135
f 199//136 187//136 42//136
f 42//137 322//137 197//137
f 42//138 330//138 195//138
f 195//139 199//139 42//139
f 43//140 320//140 186//140
f 186//141 199//141 43//141
f 199//142 194//142 43//142
f 43//143 328//143 200//143
f 44//137 319//137 185//137
f 185//144 200//144 44//144
f 200//145 193//145 44//145
f 44//146 327//146 201//146
f 202//147 184//147 45//147
f 45//133 319//133 201//133
f 201//148 192//148 45//148
f 45//149 326//149 202//149
f 203//150 183//150 46//150
f 46//133 318//133 202//133
f 202//151 191//151 46//151
f 46//152 325//152 203//152
f 47//150 316//150 182//150
f 182//137 203//137 47//137
f 47//153 325//153 190//153
f 190//154 204//154 47//154
f 48//155 315//155 181//155
f 181//150 204//150 48//150
f 48//156 324//156 189//156
f 189//157 198//157 48//157
f 49//158 330//158 196//158
f 196//159 214//159 49//159
f 49//160 331//160 212//160
f 212//161 213//161 49//161
f 50//162 329//162 195//162
f 195//163 213//163 50//163
f 50//164 338//164 211//164
f 211//165 215//165 50//165
f 216//166 194//166 51//166
f 51//167 329//167 215//167
f 215//168 210//168 51//168
f 51//169 336//169 216//169
f 217//170 193//170 52//170
f 52//171 328//171 216//171
f 216//172 209//172 52//172
f 52//173 335//173 217//173
f 218//174 192//174 53//174
f 53//175 327//175 217//175
f 217//176 208//176 53//176
f 53//177 334//177 218//177
f 219//178 191//178 54//178
f 54//179 326//179 218//179
f 218//180 207//180 54//180
f 54//181 333//181 219//181
f 55//182 324//182 190//182
f 190//183 219//183 55//183
f 55//184 333//184 206//184
f 206//185 220//185 55//185
f 56//186 323//186 189//186
f 189//187 220//187 56//187
f 56//188 332//188 205//188
f 205//189 214//189 56//189
f 57//190 339//190 222//190
f 57//191 340//191 223//191
f 57//192 341//192 221//192
f 58//193 340//193 222//193
f 58//194 339//194 225//194
f 58//195 344//195 224//195
f 59//196 339//196 221//196
f 59//197 341//197 227//197
f 59//198 342//198 226//198
f 60//199 339//199 226//199
f 60//200 342//200 229//200
f 60//201 343//201 228//201
f 61//202 339//202 228//202
f 61//203 343//203 230//203
f 61//204 344//204 225//204
f 62//205 340//205 224//205
f 62//206 344//206 232//206
f 62//207 349//207 231//207
f 63//208 341//208 223//208
f 63//209 340//209 234//209
f 63//210 345//210 233//210
f 64//211 342//211 227//211
f 64//212 341//212 236//212
f 64//213 346//213 235//213
f 65//214 343//214 229//214
f 65//215 342//215 238//215
f 65//216 347//216 237//216
f 66//217 344//217 230//217
f 66//218 343//218 240//218
f 66//219 348//219 239//219
f 67//220 340//220 231//220
f 67//221 349//221 241//221
f 67//222 345//222 234//222
f 68//223 341//223 233//223
f 68//224 345//224 242//224
f 68//225 346//225 236//225
f 69//226 342//226 235//226
f 69//227 346//227 243//227
f 69//228 347//228 238//228
f 70//229 343//229 237//229
f 70//230 347//230 244//230
f 70//231 348//231 240//231
f 71//232 344//232 239//232
f 71//233 348//233 245//233
f 71//234 349//234 232//234
f 72//235 345//235 241//235
f 72//236 349//236 247//236
f 72//237 350//237 246//237
f 73//238 346//238 242//238
f 73//239 345//239 246//239
f 73//240 350//240 248//240
f 74//241 347//241 243//241
f 74//242 346//242 248//242
f 74//243 350//243 249//243
f 75//244 348//244 244//244
f 75//245 347//245 249//245
f 75//246 350//246 250//246
f 76//247 349//247 245//247
f 76//248 348//248 250//248
f 76//249 350//249 247//249
f 1//1 93//1 258//1
f 84//250 251//250 94//250
f 1//3 94//3 259//3
f 1//251 92//251 266//251
f 95//5 257//5 83//5
f 2//6 83//6 258//6
f 93//252 266//252 91//252
f 2//8 91//8 265//8
f 3//9 96//9 256//9
f 82//10 257//10 95//10
f 3//11 95//11 265//11
f 90//12 264//12 96//12
f 97//13 255//13 81//13
f 4//14 81//14 256//14
f 4//253 96//253 264//253
f 4//16 89//16 263//16
f 98//17 254//17 80//17
f 5//18 80//18 255//18
f 97//19 263//19 88//19
f 5//20 88//20 262//20
f 99//254 253//254 79//254
f 6//22 79//22 254//22
f 98//23 262//23 87//23
f 6//24 87//24 261//24
f 7//25 100//25 252//25
f 78//26 253//26 99//26
f 7//27 99//27 261//27
f 86//28 260//28 100//28
f 8//29 94//29 251//29
f 77//30 252//30 100//30
f 8//31 100//31 260//31
f 85//32 259//32 94//32
f 109//33 266//33 92//33
f 92//34 259//34 110//34
f 110//35 267//35 108//35
f 9//35 108//35 274//35
f 111//36 265//36 91//36
f 10//255 91//255 266//255
f 109//35 274//35 107//35
f 10//35 107//35 273//35
f 11//256 112//256 264//256
f 90//257 265//257 111//257
f 11//35 111//35 273//35
f 106//35 272//35 112//35
f 113//40 263//40 89//40
f 89//41 264//41 112//41
f 12//35 112//35 272//35
f 105//35 271//35 113//35
f 114//42 262//42 88//42
f 13//43 88//43 263//43
f 113//35 271//35 104//35
f 13//35 104//35 270//35
f 115//44 261//44 87//44
f 14//45 87//45 262//45
f 114//35 270//35 103//35
f 14//35 103//35 269//35
f 15//46 116//46 260//46
f 86//258 261//258 115//258
f 15//35 115//35 269//35
f 102//35 268//35 116//35
f 16//48 110//48 259//48
f 85//49 260//49 116//49
f 16//35 116//35 268//35
f 101//35 267//35 110//35
f 17//51 133//51 282//51
f 124//52 275//52 134//52
f 17//53 134//53 283//53
f 132//54 290//54 133//54
f 18//55 135//55 281//55
f 123//56 282//56 133//56
f 18//57 133//57 290//57
f 131//58 289//58 135//58
f 136//59 280//59 122//59
f 19//60 122//60 281//60
f 135//61 289//61 130//61
f 19//62 130//62 288//62
f 137//63 279//63 121//63
f 20//64 121//64 280//64
f 136//65 288//65 129//65
f 20//66 129//66 287//66
f 138//67 278//67 120//67
f 21//68 120//68 279//68
f 137//69 287//69 128//69
f 21//70 128//70 286//70
f 139//71 277//71 119//71
f 22//259 119//259 278//259
f 138//260 286//260 127//260
f 22//261 127//261 285//261
f 23//75 140//75 276//75
f 118//76 277//76 139//76
f 23//262 139//262 285//262
f 126//263 284//263 140//263
f 24//79 134//79 275//79
f 117//80 276//80 140//80
f 24//81 140//81 284//81
f 125//82 283//82 134//82
f 149//264 290//264 132//264
f 132//84 283//84 150//84
f 150//35 291//35 148//35
f 25//35 148//35 298//35
f 151//265 289//265 131//265
f 26//266 131//266 290//266
f 149//85 298//85 147//85
f 26//35 147//35 297//35
f 27//267 152//267 288//267
f 130//268 289//268 151//268
f 27//35 151//35 297//35
f 146//50 296//50 152//50
f 153//90 287//90 129//90
f 129//269 288//269 152//269
f 28//85 152//85 296//85
f 145//35 295//35 153//35
f 154//270 286//270 128//270
f 29//93 128//93 287//93
f 153//35 295//35 144//35
f 29//35 144//35 294//35
f 155//271 285//271 127//271
f 30//272 127//272 286//272
f 154//85 294//85 143//85
f 30//273 143//273 293//273
f 31//274 156//274 284//274
f 126//275 285//275 155//275
f 31//50 155//50 293//50
f 142//35 292//35 156//35
f 32//98 150//98 283//98
f 125//276 284//276 156//276
f 32//35 156//35 292//35
f 141//35 291//35 150//35
f 33//277 173//277 306//277
f 164//278 299//278 174//278
f 33//279 174//279 307//279
f 172//280 314//280 173//280
f 34//281 175//281 305//281
f 163//282 306//282 173//282
f 34//283 173//283 314//283
f 171//284 313//284 175//284
f 176//285 304//285 162//285
f 35//286 162//286 305//286
f 175//287 313//287 170//287
f 35//288 170//288 312//288
f 177//289 303//289 161//289
f 36//290 161//290 304//290
f 176//291 312//291 169//291
f 36//292 169//292 311//292
f 178//293 302//293 160//293
f 37//294 160//294 303//294
f 177//295 311//295 168//295
f 37//296 168//296 310//296
f 179//297 301//297 159//297
f 38//298 159//298 302//298
f 178//299 310//299 167//299
f 38//300 167//300 309//300
f 39//301 180//301 300//301
f 158//302 301//302 179//302
f 39//303 179//303 309//303
f 166//304 308//304 180//304
f 40//305 174//305 299//305
f 157//306 300//306 180//306
f 40//307 180//307 308//307
f 165//308 307//308 174//308
f 197//150 322//150 188//150
f 41//144 188//144 315//144
f 41//134 198//134 323//134
f 196//309 330//309 197//309
f 199//310 321//310 187//310
f 42//137 187//137 322//137
f 42//311 197//311 330//311
f 195//139 329//139 199//139
f 43//144 200//144 320//144
f 186//140 321//140 199//140
f 199//142 329//142 194//142
f 43//312 194//312 328//312
f 44//141 201//141 319//141
f 185//137 320//137 200//137
f 200//313 328//313 193//313
f 44//146 193//146 327//146
f 202//133 318//133 184//133
f 45//314 184//314 319//314
f 201//315 327//315 192//315
f 45//316 192//316 326//316
f 203//133 317//133 183//133
f 46//137 183//137 318//137
f 202//317 326//317 191//317
f 46//318 191//318 325//318
f 47//133 204//133 316//133
f 182//133 317//133 203//133
f 47//319 203//319 325//319
f 190//320 324//320 204//320
f 48//133 198//133 315//133
f 181//310 316//310 204//310
f 48//321 204//321 324//321
f 189//157 323//157 198//157
f 49//158 213//158 330//158
f 196//322 323//322 214//322
f 49//160 214//160 331//160
f 212//323 338//323 213//323
f 50//324 215//324 329//324
f 195//325 330//325 213//325
f 50//326 213//326 338//326
f 211//327 337//327 215//327
f 216//328 328//328 194//328
f 51//329 194//329 329//329
f 215//330 337//330 210//330
f 51//331 210//331 336//331
f 217//332 327//332 193//332
f 52//171 193//171 328//171
f 216//333 336//333 209//333
f 52//173 209//173 335//173
f 218//334 326//334 192//334
f 53//175 192//175 327//175
f 217//176 335//176 208//176
f 53//335 208//335 334//335
f 219//336 325//336 191//336
f 54//337 191//337 326//337
f 218//338 334//338 207//338
f 54//339 207//339 333//339
f 55//340 220//340 324//340
f 190//341 325//341 219//341
f 55//342 219//342 333//342
f 206//343 332//343 220//343
f 56//186 214//186 323//186
f 189//344 324//344 220//344
f 56//345 220//345 332//345
f 205//189 331//189 214//189
f 57//346 221//346 339//346
f 57//347 222//347 340//347
f 57//348 223//348 341//348
f 58//349 224//349 340//349
f 58//350 222//350 339//350
f 58//351 225//351 344//351
f 59//352 226//352 339//352
f 59//353 221//353 341//353
f 59//354 227//354 342//354
f 60//355 228//355 339//355
f 60//356 226//356 342//356
f 60//357 229//357 343//357
f 61//358 225//358 339//358
f 61//359 228//359 343//359
f 61//360 230//360 344//360
f 62//361 231//361 340//361
f 62//362 224//362 344//362
f 62//363 232//363 349//363
f 63//364 233//364 341//364
f 63//365 223//365 340//365
f 63//366 234//366 345//366
f 64//367 235//367 342//367
f 64//368 227//368 341//368
f 64//369 236//369 346//369
f 65//370 237//370 343//370
f 65//371 229//371 342//371
f 65//372 238//372 347//372
f 66//373 239//373 344//373
f 66//374 230//374 343//374
f 66//375 240//375 348//375
f 67//376 234//376 340//376
f 67//377 231//377 349//377
f 67//378 241//378 345//378
f 68//379 236//379 341//379
f 68//380 233//380 345//380
f 68//381 242//381 346//381
f 69//382 238//382 342//382
f 69//383 235//383 346//383
f 69//384 243//384 347//384
f 70//385 240//385 343//385
f 70//386 237//386 347//386
f 70//387 244//387 348//387
f 71//388 232//388 344//388
f 71//389 239//389 348//389
f 71//390 245//390 349//390
f 72//391 246//391 345//391
f 72//392 241//392 349//392
f 72//393 247//393 350//393
f 73//394 248//394 346//394
f 73//395 242//395 345//395
f 73//396 246//396 350//396
f 74//397 249//397 347//397
f 74//398 243//398 346//398
f 74//399 248//399 350//399
f 75//400 250//400 348//400
f 75//401 244//401 347//401
f 75//402 249//402 350//402
f 76//403 247//403 349//403
f 76//404 245//404 348//404
f 76//405 250//405 350//405
