# Blender v2.79 (sub 0) OBJ File: 'fiat500.blend'
# www.blender.org
o Plane.022_Plane.016
v -20.000000 -1.195572 20.000000
v 20.000000 -1.195572 20.000000
v -20.000000 -1.195572 -20.000000
v 20.000000 -1.195572 -20.000000
vt 0.999900 0.000100
vt 0.000100 0.999900
vt 0.000100 0.000100
vt 0.999900 0.999900
vn 0.0000 1.0000 0.0000
s off
f 2/1/1 3/2/1 1/3/1
f 2/1/1 4/4/1 3/2/1
