# Blender v2.79 (sub 0) OBJ File: 'fiat500.blend'
# www.blender.org
o Plane.031_Plane.034
v 20.000000 6.742482 20.000000
v -20.000000 6.742486 20.000000
v 20.000000 6.742482 -20.000000
v -20.000000 6.742486 -20.000000
vn -0.0000 -1.0000 0.0000
s off
f 2//1 3//1 1//1
f 2//1 4//1 3//1
