# Blender v2.79 (sub 0) OBJ File: 'fiat500.blend'
# www.blender.org
o small_front_glass_small_front_glass_geom
v -1.109906 0.299557 -0.990293
v -1.104629 0.297003 -0.991053
v -1.152924 0.266972 -1.000015
v -1.112028 0.300915 -0.989449
v -1.066694 0.332204 -0.980528
v -1.063574 0.328640 -0.981569
v -1.145527 0.265420 -1.000487
v -1.155892 0.267835 -0.999282
v -1.067940 0.334038 -0.979585
v -0.995089 0.386179 -0.964198
v -0.995416 0.380961 -0.965693
v -1.007448 0.376890 -0.967128
v -0.994957 0.388720 -0.963130
v -0.989885 0.390029 -0.962641
v -0.990357 0.384753 -0.964142
v -1.007238 0.371940 -0.968551
v -1.007502 0.379362 -0.966057
v -0.989804 0.392436 -0.961650
v -1.216326 0.216235 -1.014758
v -1.211543 0.213913 -1.015389
v -1.222322 0.213842 -1.015103
v -1.210615 0.222785 -1.013075
v -1.200607 0.222547 -1.013118
v -1.215826 0.210643 -1.015760
v -1.214551 0.222855 -1.012571
v -1.118651 0.216268 -1.011855
v -1.121223 0.213264 -1.012152
v -1.158367 0.214988 -1.013492
v -1.112389 0.223159 -1.010161
v -1.078778 0.217664 -1.010163
v -1.080498 0.214911 -1.010414
v -1.161757 0.211770 -1.013831
v -1.150007 0.222666 -1.011561
v -1.074650 0.223755 -1.008700
v -1.013163 0.220078 -1.007205
v -1.013536 0.217762 -1.007392
v -1.024343 0.219658 -1.007816
v -1.012413 0.224931 -1.006096
v -1.008589 0.220257 -1.006626
v -1.008977 0.218029 -1.006829
v -1.024905 0.217258 -1.008006
v -1.023074 0.224697 -1.006655
v -1.007978 0.225041 -1.005525
v -1.059430 0.279432 -0.994029
v -1.078619 0.286600 -0.992916
v -1.036918 0.303099 -0.987144
v -1.040172 0.272434 -0.995075
v -1.081873 0.255723 -1.000901
v -1.108924 0.259586 -1.000884
v -1.048180 0.313618 -0.984910
v -1.025811 0.292730 -0.989344
v -1.054703 0.252007 -1.000843
v -1.006533 0.263290 -0.996041
v -1.003865 0.282098 -0.991113
v -1.003426 0.263183 -0.995599
v -1.009043 0.246633 -1.000420
v -1.012894 0.264204 -0.996148
v -1.008765 0.282181 -0.991381
v -1.001196 0.282355 -0.990601
v -1.005403 0.246517 -0.999949
v -1.017143 0.247349 -1.000646
v -0.998033 0.341158 -0.975875
v -0.996863 0.358276 -0.971508
v -0.994511 0.343840 -0.974696
v -0.999501 0.322064 -0.980762
v -1.005273 0.334857 -0.977862
v -1.006020 0.350574 -0.973931
v -0.992698 0.361513 -0.970149
v -0.996606 0.323881 -0.979839
v -1.004893 0.318059 -0.982095
v -1.013729 0.215886 -1.004122
v -1.009016 0.216333 -1.003834
v -1.013730 0.215655 -1.002229
v -1.025235 0.215321 -1.004629
v -1.013725 0.216264 -1.005698
v -1.009118 0.216676 -1.005306
v -1.008983 0.216113 -1.001976
v -1.025252 0.215086 -1.002723
v -1.025182 0.215710 -1.006242
v -0.987293 0.391707 -0.958403
v -0.987438 0.394077 -0.957741
v -0.987156 0.391673 -0.956456
v -0.987700 0.386393 -0.959813
v -0.987707 0.391495 -0.960139
v -0.987828 0.393779 -0.959385
v -0.987308 0.394071 -0.955824
v -0.987560 0.386347 -0.957857
v -0.988119 0.386217 -0.961577
v -0.994772 0.390507 -0.958916
v -1.007462 0.381090 -0.961733
v -0.994751 0.390478 -0.956971
v -0.989469 0.394178 -0.957767
v -0.994837 0.390279 -0.960649
v -1.007469 0.380900 -0.963496
v -1.007460 0.381048 -0.959777
v -0.989404 0.394175 -0.955852
v -0.989662 0.393870 -0.959409
v -1.001081 0.263426 -0.991726
v -0.998737 0.282807 -0.986689
v -1.000957 0.263306 -0.989794
v -1.003171 0.246585 -0.996102
v -1.001451 0.263471 -0.993418
v -0.999125 0.282818 -0.988387
v -0.998608 0.282697 -0.984755
v -1.003053 0.246455 -0.994171
v -1.003523 0.246657 -0.997790
v -1.006581 0.220051 -1.002922
v -1.005885 0.224896 -1.001705
v -1.006475 0.219901 -1.001008
v -1.007168 0.217750 -1.003459
v -1.006896 0.220186 -1.004561
v -1.006215 0.225002 -1.003388
v -1.005774 0.224755 -0.999775
v -1.007074 0.217576 -1.001588
v -1.007448 0.217956 -1.004967
v -1.223728 0.213154 -1.011169
v -1.217343 0.209490 -1.011937
v -1.223802 0.212985 -1.009233
v -1.215975 0.222610 -1.008499
v -1.223506 0.213345 -1.012870
v -1.217103 0.209755 -1.013621
v -1.217423 0.209296 -1.010008
v -1.216050 0.222464 -1.006556
v -1.215750 0.222732 -1.010222
v -1.112889 0.301896 -0.985137
v -1.157085 0.268431 -0.995008
v -1.112934 0.301814 -0.983182
v -1.068432 0.335350 -0.975261
v -1.112753 0.301824 -0.986898
v -1.156897 0.268420 -0.996763
v -1.157148 0.268330 -0.993055
v -1.068458 0.335286 -0.973305
v -1.068354 0.335226 -0.977024
v -0.991877 0.344997 -0.970563
v -0.990054 0.362880 -0.965930
v -0.991738 0.344925 -0.968617
v -0.993997 0.324804 -0.975793
v -0.992293 0.344898 -0.972296
v -0.990472 0.362747 -0.967677
v -0.989915 0.362819 -0.963980
v -0.993860 0.324720 -0.973851
v -0.994409 0.324742 -0.977512
v -1.122375 0.211361 -1.008607
v -1.081316 0.212971 -1.006943
v -1.122435 0.211128 -1.006692
v -1.163192 0.209983 -1.010198
v -1.122193 0.211745 -1.010247
v -1.081187 0.213360 -1.008572
v -1.081360 0.212736 -1.005032
v -1.163267 0.209756 -1.008279
v -1.162965 0.210349 -1.011852
v -1.109906 0.299557 0.990293
v -1.066694 0.332204 0.980528
v -1.112028 0.300915 0.989449
v -1.152924 0.266972 1.000015
v -1.104629 0.297003 0.991053
v -1.063574 0.328640 0.981569
v -1.067940 0.334038 0.979585
v -1.155892 0.267835 0.999282
v -1.145527 0.265420 1.000487
v -0.995089 0.386179 0.964198
v -0.989885 0.390029 0.962641
v -0.994957 0.388720 0.963130
v -1.007448 0.376890 0.967128
v -0.995416 0.380961 0.965693
v -0.990357 0.384753 0.964142
v -0.989804 0.392436 0.961650
v -1.007502 0.379362 0.966057
v -1.007238 0.371940 0.968551
v -1.216326 0.216235 1.014758
v -1.210615 0.222785 1.013075
v -1.222322 0.213842 1.015103
v -1.211543 0.213913 1.015389
v -1.200607 0.222547 1.013118
v -1.214551 0.222855 1.012571
v -1.215826 0.210643 1.015760
v -1.118651 0.216268 1.011855
v -1.078778 0.217664 1.010163
v -1.112389 0.223159 1.010161
v -1.158367 0.214988 1.013492
v -1.121223 0.213264 1.012152
v -1.080498 0.214911 1.010414
v -1.074650 0.223755 1.008700
v -1.150007 0.222666 1.011561
v -1.161757 0.211770 1.013831
v -1.013163 0.220078 1.007205
v -1.008589 0.220257 1.006626
v -1.012413 0.224931 1.006096
v -1.024343 0.219658 1.007816
v -1.013536 0.217762 1.007391
v -1.008977 0.218029 1.006829
v -1.007977 0.225041 1.005525
v -1.023074 0.224697 1.006655
v -1.024905 0.217258 1.008005
v -1.059430 0.279432 0.994029
v -1.081873 0.255723 1.000901
v -1.040172 0.272434 0.995075
v -1.036918 0.303099 0.987145
v -1.078619 0.286600 0.992916
v -1.108924 0.259586 1.000884
v -1.054703 0.252007 1.000843
v -1.025811 0.292730 0.989344
v -1.048180 0.313618 0.984910
v -1.006533 0.263290 0.996041
v -1.012894 0.264204 0.996148
v -1.009043 0.246633 1.000420
v -1.003426 0.263183 0.995599
v -1.003865 0.282098 0.991113
v -1.008765 0.282181 0.991380
v -1.017143 0.247349 1.000646
v -1.005403 0.246517 0.999949
v -1.001196 0.282354 0.990601
v -0.998033 0.341158 0.975875
v -1.005273 0.334857 0.977862
v -0.999501 0.322064 0.980762
v -0.994511 0.343840 0.974696
v -0.996863 0.358276 0.971508
v -1.006020 0.350574 0.973931
v -1.004893 0.318059 0.982095
v -0.996606 0.323881 0.979839
v -0.992698 0.361513 0.970148
v -1.013729 0.215886 1.004123
v -1.013725 0.216264 1.005699
v -1.025235 0.215321 1.004629
v -1.013730 0.215655 1.002229
v -1.009016 0.216333 1.003834
v -1.009118 0.216676 1.005306
v -1.025182 0.215710 1.006242
v -1.025252 0.215086 1.002723
v -1.008983 0.216113 1.001976
v -0.987294 0.391707 0.958403
v -0.987707 0.391495 0.960139
v -0.987700 0.386393 0.959813
v -0.987156 0.391673 0.956456
v -0.987438 0.394077 0.957741
v -0.987828 0.393779 0.959385
v -0.988119 0.386217 0.961577
v -0.987560 0.386347 0.957857
v -0.987308 0.394071 0.955824
v -0.994772 0.390507 0.958916
v -0.994836 0.390279 0.960649
v -0.989469 0.394178 0.957767
v -0.994751 0.390478 0.956971
v -1.007462 0.381090 0.961733
v -1.007469 0.380900 0.963496
v -0.989662 0.393870 0.959409
v -0.989404 0.394175 0.955852
v -1.007460 0.381048 0.959777
v -1.001081 0.263426 0.991727
v -1.001451 0.263471 0.993418
v -1.003171 0.246585 0.996102
v -1.000957 0.263306 0.989794
v -0.998737 0.282807 0.986689
v -0.999125 0.282818 0.988387
v -1.003523 0.246657 0.997790
v -1.003053 0.246455 0.994171
v -0.998608 0.282697 0.984755
v -1.006580 0.220051 1.002922
v -1.006896 0.220186 1.004561
v -1.007168 0.217750 1.003459
v -1.006475 0.219901 1.001008
v -1.005885 0.224896 1.001705
v -1.006215 0.225002 1.003388
v -1.007448 0.217956 1.004967
v -1.007074 0.217576 1.001588
v -1.005774 0.224755 0.999775
v -1.223728 0.213154 1.011169
v -1.223506 0.213345 1.012870
v -1.215975 0.222610 1.008499
v -1.223802 0.212985 1.009233
v -1.217343 0.209490 1.011937
v -1.217103 0.209755 1.013621
v -1.215750 0.222732 1.010222
v -1.216050 0.222464 1.006556
v -1.217423 0.209296 1.010008
v -1.112889 0.301896 0.985137
v -1.112753 0.301824 0.986898
v -1.068432 0.335350 0.975261
v -1.112934 0.301814 0.983182
v -1.157085 0.268431 0.995008
v -1.156897 0.268420 0.996763
v -1.068355 0.335226 0.977024
v -1.068458 0.335286 0.973305
v -1.157148 0.268330 0.993055
v -0.991877 0.344997 0.970563
v -0.992293 0.344898 0.972296
v -0.993997 0.324804 0.975792
v -0.991738 0.344925 0.968617
v -0.990054 0.362880 0.965930
v -0.990472 0.362747 0.967677
v -0.994409 0.324742 0.977512
v -0.993860 0.324720 0.973851
v -0.989915 0.362819 0.963980
v -1.122375 0.211361 1.008607
v -1.122193 0.211745 1.010247
v -1.163192 0.209983 1.010198
v -1.122435 0.211128 1.006692
v -1.081316 0.212971 1.006943
v -1.081187 0.213360 1.008572
v -1.162965 0.210349 1.011852
v -1.163267 0.209756 1.008279
v -1.081360 0.212736 1.005032
v -1.006876 0.225056 -1.004703
v -1.007530 0.220268 -1.005828
v -1.008017 0.218085 -1.006095
v -0.991306 0.362324 -0.969117
v -0.993125 0.344541 -0.973709
v -0.995233 0.324459 -0.978897
v -0.988581 0.393219 -0.960706
v -0.988527 0.390961 -0.961580
v -0.988958 0.385708 -0.963052
v -0.999902 0.282684 -0.989730
v -1.002192 0.263402 -0.994749
v -1.004228 0.246644 -0.999113
v -1.215300 0.222817 -1.011616
v -1.223062 0.213571 -1.014221
v -1.216624 0.210128 -1.014936
v -1.192433 0.240060 -1.007513
v -1.188807 0.239648 -1.008130
v -1.179706 0.238923 -1.008350
v -0.989826 0.393280 -0.960722
v -0.994909 0.389711 -0.962082
v -1.007481 0.380363 -0.964969
v -1.131570 0.263013 -1.000758
v -1.094699 0.292827 -0.991877
v -1.057698 0.322671 -0.982949
v -1.066998 0.234698 -1.005701
v -1.100707 0.235717 -1.006649
v -1.134313 0.236850 -1.007528
v -1.195494 0.210779 -1.015137
v -1.191479 0.214107 -1.014770
v -1.181435 0.222415 -1.012635
v -1.006790 0.363504 -0.970695
v -0.995990 0.372012 -0.968001
v -0.991276 0.375588 -0.966522
v -1.068199 0.334820 -0.978498
v -1.112481 0.301522 -0.988368
v -1.156520 0.268240 -0.998221
v -1.025078 0.216330 -1.007416
v -1.013676 0.216863 -1.006830
v -1.009150 0.217216 -1.006326
v -1.030732 0.361942 -0.971264
v -1.030228 0.359715 -0.972286
v -1.028924 0.355297 -0.973561
v -1.006973 0.233442 -1.003356
v -1.011101 0.233416 -1.003891
v -1.020781 0.233539 -1.004329
v -1.162512 0.210921 -1.013107
v -1.121829 0.212354 -1.011474
v -1.080929 0.213981 -1.009775
v -1.042856 0.224314 -1.007443
v -1.045193 0.218889 -1.008716
v -1.046189 0.216359 -1.008928
v -1.016035 0.284945 -0.990944
v -1.023707 0.266919 -0.995850
v -1.031698 0.249021 -1.000747
v -1.022386 0.336367 -0.978153
v -1.017734 0.322862 -0.981379
v -1.013443 0.309177 -0.984676
v -1.005763 0.300420 -0.986608
v -1.001400 0.302031 -0.985923
v -0.998871 0.302949 -0.985249
v -1.005774 0.224598 -0.997723
v -1.006475 0.219743 -0.998955
v -1.007074 0.217418 -0.999536
v -0.989915 0.362661 -0.961928
v -0.991738 0.344768 -0.966564
v -0.993860 0.324562 -0.971799
v -0.987308 0.393913 -0.953772
v -0.987156 0.391515 -0.954404
v -0.987560 0.386189 -0.955804
v -0.998608 0.282539 -0.982702
v -1.000957 0.263148 -0.987742
v -1.003053 0.246298 -0.992119
v -1.216050 0.222306 -1.004503
v -1.223802 0.212827 -1.007181
v -1.217423 0.209138 -1.007955
v -0.989404 0.394017 -0.953799
v -0.994751 0.390320 -0.954918
v -1.007460 0.380890 -0.957725
v -1.068458 0.335128 -0.971253
v -1.112934 0.301656 -0.981130
v -1.157148 0.268172 -0.991003
v -1.025252 0.214928 -1.000670
v -1.013730 0.215497 -1.000177
v -1.008983 0.215955 -0.999923
v -1.163267 0.209598 -1.006227
v -1.122435 0.210970 -1.004640
v -1.081360 0.212578 -1.002980
v -1.007826 0.216680 -1.001812
v -1.007896 0.216881 -1.003651
v -1.008109 0.217166 -1.005062
v -1.046625 0.214810 -1.007134
v -1.046706 0.214421 -1.005515
v -1.046734 0.214186 -1.003607
v -0.988048 0.394564 -0.955707
v -0.988156 0.394551 -0.957603
v -0.988480 0.394196 -0.959185
v -0.989047 0.376963 -0.963991
v -0.988629 0.377122 -0.962234
v -0.988490 0.377070 -0.960280
v -1.030905 0.363459 -0.964984
v -1.030896 0.363509 -0.966940
v -1.030870 0.363345 -0.968703
v -0.996183 0.303534 -0.979344
v -0.996317 0.303631 -0.981281
v -0.996720 0.303606 -0.982988
v -1.005169 0.233470 -1.001210
v -1.004831 0.233377 -0.999525
v -1.004718 0.233240 -0.997595
v -1.197161 0.209015 -1.009486
v -1.197078 0.209229 -1.011411
v -1.196828 0.209557 -1.013080
v -1.193619 0.240296 -1.005058
v -1.193841 0.240241 -1.003315
v -1.193915 0.240118 -1.001366
v -1.006876 0.225056 1.004703
v -1.007530 0.220268 1.005828
v -1.008017 0.218085 1.006095
v -0.991306 0.362324 0.969117
v -0.993125 0.344541 0.973709
v -0.995233 0.324459 0.978897
v -0.988581 0.393219 0.960706
v -0.988527 0.390961 0.961580
v -0.988958 0.385708 0.963052
v -0.999902 0.282684 0.989730
v -1.002191 0.263402 0.994749
v -1.004228 0.246644 0.999113
v -1.215300 0.222817 1.011616
v -1.223062 0.213571 1.014221
v -1.216624 0.210128 1.014936
v -1.192433 0.240060 1.007513
v -1.188807 0.239648 1.008130
v -1.179706 0.238923 1.008350
v -0.989826 0.393280 0.960722
v -0.994909 0.389711 0.962082
v -1.007481 0.380363 0.964969
v -1.131570 0.263013 1.000758
v -1.094699 0.292827 0.991877
v -1.057698 0.322671 0.982949
v -1.066998 0.234698 1.005701
v -1.100707 0.235717 1.006649
v -1.134313 0.236850 1.007528
v -1.195494 0.210779 1.015137
v -1.191479 0.214107 1.014770
v -1.181435 0.222415 1.012635
v -1.006790 0.363504 0.970695
v -0.995990 0.372012 0.968001
v -0.991276 0.375588 0.966522
v -1.068199 0.334820 0.978498
v -1.112481 0.301522 0.988368
v -1.156520 0.268240 0.998221
v -1.025078 0.216330 1.007417
v -1.013676 0.216863 1.006830
v -1.009150 0.217216 1.006326
v -1.030732 0.361942 0.971264
v -1.030228 0.359715 0.972286
v -1.028924 0.355297 0.973561
v -1.006972 0.233442 1.003356
v -1.011101 0.233416 1.003891
v -1.020781 0.233539 1.004329
v -1.162512 0.210921 1.013107
v -1.121829 0.212354 1.011474
v -1.080929 0.213981 1.009775
v -1.042856 0.224314 1.007443
v -1.045193 0.218889 1.008716
v -1.046189 0.216359 1.008928
v -1.016035 0.284945 0.990944
v -1.023707 0.266919 0.995850
v -1.031698 0.249021 1.000747
v -1.022386 0.336367 0.978153
v -1.017734 0.322862 0.981379
v -1.013443 0.309177 0.984676
v -1.005763 0.300420 0.986608
v -1.001400 0.302031 0.985923
v -0.998871 0.302949 0.985249
v -1.005774 0.224598 0.997723
v -1.006475 0.219743 0.998955
v -1.007074 0.217418 0.999536
v -0.989915 0.362661 0.961928
v -0.991738 0.344768 0.966564
v -0.993860 0.324562 0.971799
v -0.987308 0.393913 0.953772
v -0.987156 0.391515 0.954404
v -0.987560 0.386189 0.955804
v -0.998608 0.282539 0.982702
v -1.000957 0.263148 0.987742
v -1.003053 0.246298 0.992119
v -1.216050 0.222306 1.004503
v -1.223802 0.212827 1.007181
v -1.217423 0.209138 1.007955
v -0.989404 0.394017 0.953799
v -0.994751 0.390320 0.954918
v -1.007460 0.380890 0.957725
v -1.068458 0.335128 0.971253
v -1.112934 0.301656 0.981130
v -1.157148 0.268172 0.991003
v -1.025252 0.214928 1.000670
v -1.013730 0.215497 1.000177
v -1.008983 0.215955 0.999923
v -1.163267 0.209598 1.006227
v -1.122435 0.210970 1.004640
v -1.081360 0.212578 1.002980
v -1.007826 0.216680 1.001812
v -1.007896 0.216881 1.003651
v -1.008109 0.217166 1.005062
v -1.046625 0.214810 1.007134
v -1.046706 0.214421 1.005515
v -1.046734 0.214186 1.003607
v -0.988048 0.394564 0.955708
v -0.988156 0.394551 0.957603
v -0.988480 0.394196 0.959185
v -0.989047 0.376963 0.963991
v -0.988629 0.377122 0.962234
v -0.988490 0.377070 0.960280
v -1.030905 0.363459 0.964984
v -1.030896 0.363509 0.966940
v -1.030870 0.363345 0.968703
v -0.996183 0.303534 0.979344
v -0.996317 0.303631 0.981281
v -0.996720 0.303606 0.982988
v -1.005169 0.233470 1.001210
v -1.004831 0.233377 0.999525
v -1.004718 0.233240 0.997595
v -1.197161 0.209015 1.009486
v -1.197078 0.209229 1.011411
v -1.196828 0.209557 1.013080
v -1.193619 0.240296 1.005058
v -1.193841 0.240241 1.003315
v -1.193915 0.240118 1.001366
v -0.988917 0.393633 -0.960223
v -1.008396 0.217468 -1.005870
v -0.997527 0.303399 -0.984349
v -0.989883 0.376487 -0.965453
v -1.005845 0.233499 -1.002528
v -1.193174 0.240247 -1.006492
v -1.196328 0.210055 -1.014364
v -1.026438 0.347808 -0.975410
v -1.162439 0.237964 -1.008156
v -1.030818 0.362858 -0.970176
v -1.038563 0.233927 -1.004867
v -1.046462 0.215431 -1.008320
v -1.011277 0.298356 -0.987344
v -0.988048 0.394406 -0.953655
v -1.007826 0.216522 -0.999760
v -0.996183 0.303376 -0.977291
v -0.988490 0.376912 -0.958228
v -1.004718 0.233082 -0.995543
v -1.193915 0.239960 -0.999313
v -1.197161 0.208857 -1.007434
v -1.030905 0.363301 -0.962932
v -1.046734 0.214028 -1.001554
v -0.988917 0.393633 0.960223
v -1.008396 0.217468 1.005870
v -0.997527 0.303399 0.984349
v -0.989883 0.376487 0.965453
v -1.005845 0.233499 1.002528
v -1.193174 0.240247 1.006492
v -1.196328 0.210055 1.014364
v -1.026438 0.347808 0.975410
v -1.162439 0.237964 1.008156
v -1.030818 0.362858 0.970176
v -1.038563 0.233927 1.004867
v -1.046462 0.215431 1.008320
v -1.011277 0.298356 0.987344
v -0.988048 0.394406 0.953655
v -1.007826 0.216522 0.999760
v -0.996183 0.303376 0.977291
v -0.988490 0.376912 0.958228
v -1.004718 0.233082 0.995543
v -1.193915 0.239960 0.999313
v -1.197161 0.208857 1.007434
v -1.030905 0.363301 0.962932
v -1.046734 0.214028 1.001554
vn -0.0472 0.3437 -0.9379
vn 0.0136 0.2704 -0.9626
vn -0.0509 0.3470 -0.9365
vn 0.0166 0.2680 -0.9633
vn 0.0302 0.2514 -0.9674
vn 0.0195 0.2645 -0.9642
vn 0.0344 0.2475 -0.9683
vn 0.0325 0.2499 -0.9677
vn 0.0121 0.2709 -0.9625
vn -0.0533 0.3486 -0.9357
vn 0.0122 0.2672 -0.9636
vn -0.0544 0.3466 -0.9364
vn 0.0287 0.2515 -0.9674
vn 0.0281 0.2479 -0.9684
vn -0.2656 0.5812 -0.7692
vn -0.4987 0.7730 -0.3920
vn -0.4829 0.7662 -0.4240
vn -0.2809 0.5946 -0.7534
vn -0.3045 0.6108 -0.7309
vn -0.2541 0.5709 -0.7807
vn -0.0434 0.3395 -0.9396
vn -0.4728 0.7613 -0.4438
vn -0.2457 0.5631 -0.7890
vn 0.0072 0.3307 -0.9437
vn 0.3234 0.2205 -0.9202
vn 0.0696 0.2574 -0.9638
vn 0.3344 0.2053 -0.9198
vn 0.0849 0.2420 -0.9665
vn 0.2673 0.2998 -0.9158
vn 0.7129 0.1223 -0.6905
vn 0.7172 0.1068 -0.6887
vn -0.0351 0.3366 -0.9409
vn 0.0272 0.2625 -0.9645
vn 0.0414 0.2465 -0.9683
vn -0.2352 0.5583 -0.7956
vn -0.1957 0.5571 -0.8070
vn -0.4594 0.7568 -0.4650
vn -0.4323 0.7649 -0.4775
vn -0.4666 0.7578 -0.4560
vn 0.0586 0.5646 -0.8232
vn 0.6739 0.2154 -0.7067
vn -0.2357 0.8216 -0.5191
vn 0.4681 0.5612 -0.6825
vn -0.0584 0.3285 -0.9427
vn 0.0060 0.1643 -0.9864
vn -0.0470 0.2586 -0.9648
vn 0.0146 0.2497 -0.9682
vn 0.0316 0.1428 -0.9892
vn 0.0288 0.2303 -0.9727
vn -0.0815 -0.4222 -0.9028
vn -0.5715 0.0432 -0.8195
vn -0.2320 -0.8303 -0.5068
vn -0.8769 -0.0967 -0.4708
vn 0.0390 -0.3797 -0.9243
vn 0.0275 -0.8556 -0.5169
vn -0.3715 0.5948 -0.7128
vn -0.6245 0.7238 -0.2934
vn -0.5250 0.7793 -0.3422
vn 0.0368 0.1373 -0.9898
vn 0.0524 -0.2749 -0.9600
vn 0.0513 -0.2976 -0.9533
vn 0.0584 -0.7596 -0.6477
vn 0.0550 -0.7803 -0.6229
vn 0.0374 0.1387 -0.9896
vn 0.0525 -0.2596 -0.9643
vn 0.0595 -0.7467 -0.6625
vn 0.0354 0.1379 -0.9898
vn 0.0484 -0.3310 -0.9424
vn 0.0477 -0.8118 -0.5819
vn 0.0323 0.2253 -0.9737
vn 0.0337 0.2247 -0.9738
vn 0.0323 0.2434 -0.9694
vn 0.0340 0.2429 -0.9694
vn 0.0344 0.2265 -0.9734
vn 0.0376 0.1411 -0.9893
vn 0.0348 0.2442 -0.9691
vn 0.0345 0.2292 -0.9727
vn 0.0834 0.1388 -0.9868
vn 0.3624 -0.2636 -0.8939
vn 0.0975 -0.2481 -0.9638
vn 0.3215 -0.7040 -0.6332
vn 0.0991 -0.7326 -0.6734
vn 0.3742 0.0894 -0.9230
vn 0.7130 -0.3190 -0.6243
vn 0.5815 -0.6333 -0.5106
vn 0.0429 0.1418 -0.9890
vn 0.0575 -0.2503 -0.9664
vn 0.0642 -0.7382 -0.6715
vn 0.0400 0.2297 -0.9724
vn 0.0822 0.2248 -0.9709
vn 0.0407 0.2460 -0.9684
vn 0.0850 0.2398 -0.9671
vn 0.0349 0.2462 -0.9686
vn 0.3688 0.1760 -0.9127
vn 0.7645 -0.0187 -0.6443
vn 0.3647 0.1915 -0.9112
vn 0.7645 0.0598 -0.6417
vn 0.0351 0.2463 -0.9685
vn 0.0347 0.2473 -0.9683
vn 0.0364 0.2466 -0.9684
vn 0.0333 0.2470 -0.9684
vn 0.0365 0.2465 -0.9684
vn 0.0378 0.2461 -0.9685
vn 0.0379 0.2450 -0.9688
vn 0.0373 0.2449 -0.9688
vn 0.0372 0.2471 -0.9683
vn 0.0369 0.2472 -0.9682
vn 0.0366 0.2483 -0.9680
vn 0.0376 0.2458 -0.9686
vn 0.0380 0.2464 -0.9684
vn 0.0372 0.2467 -0.9684
vn 0.0359 0.2470 -0.9683
vn 0.0358 0.2483 -0.9680
vn 0.0982 0.2395 -0.9659
vn 0.0464 0.2462 -0.9681
vn 0.1096 0.2380 -0.9651
vn 0.0494 0.2454 -0.9681
vn 0.1170 0.2374 -0.9643
vn 0.0435 0.2473 -0.9680
vn 0.3525 0.1960 -0.9150
vn 0.3499 0.1973 -0.9158
vn 0.7302 0.0886 -0.6774
vn 0.3476 0.1990 -0.9163
vn 0.7161 0.0960 -0.6913
vn 0.3585 0.1940 -0.9131
vn 0.0902 0.2405 -0.9664
vn 0.7454 0.0811 -0.6617
vn 0.7579 0.0751 -0.6480
vn 0.0419 0.2476 -0.9680
vn 0.0990 0.2390 -0.9659
vn 0.0443 0.2445 -0.9686
vn 0.0913 0.2400 -0.9665
vn 0.0459 0.2443 -0.9686
vn 0.3361 0.2029 -0.9197
vn 0.3348 0.2039 -0.9199
vn 0.7075 0.1068 -0.6985
vn 0.7127 0.1067 -0.6932
vn 0.3410 0.2014 -0.9182
vn 0.1095 0.2382 -0.9650
vn 0.7044 0.1058 -0.7018
vn 0.7065 0.1022 -0.7002
vn 0.0480 0.2448 -0.9684
vn 0.0799 -0.9810 -0.1768
vn 0.2974 -0.8882 -0.3502
vn 0.2870 -0.9409 -0.1794
vn 0.6174 -0.7078 -0.3431
vn 0.6278 -0.7588 -0.1736
vn 0.0875 -0.9322 -0.3511
vn 0.0769 -0.9922 -0.0985
vn 0.2798 -0.9552 -0.0961
vn 0.0768 -0.9941 -0.0764
vn 0.6248 -0.7761 -0.0842
vn 0.2855 -0.9555 -0.0735
vn 0.0495 -0.9938 -0.0992
vn 0.0523 -0.9828 -0.1773
vn 0.0457 -0.9940 -0.0991
vn 0.0485 -0.9831 -0.1765
vn 0.0487 -0.9958 -0.0766
vn 0.0449 -0.9960 -0.0766
vn 0.0537 -0.9366 -0.3463
vn 0.0578 -0.9351 -0.3497
vn 0.9869 0.0385 -0.1563
vn 0.7238 0.5450 -0.4230
vn 0.8309 0.5302 -0.1688
vn 0.1125 0.9326 -0.3429
vn 0.1543 0.9810 -0.1180
vn 0.9124 0.1118 -0.3936
vn 0.0575 0.8578 -0.5107
vn 0.9994 0.0042 -0.0353
vn 0.8626 0.5058 -0.0082
vn 1.0000 0.0019 0.0001
vn 0.1584 0.9868 0.0329
vn 0.8460 0.5315 0.0409
vn 0.9962 -0.0772 -0.0397
vn 0.9873 -0.0468 -0.1515
vn 0.9952 -0.0891 -0.0403
vn 0.9867 -0.0595 -0.1510
vn 0.9964 -0.0846 -0.0065
vn 0.9952 -0.0977 -0.0075
vn 0.9271 0.0181 -0.3743
vn 0.9282 0.0038 -0.3721
vn -0.5412 0.8185 -0.1926
vn -0.5928 0.8046 -0.0336
vn -0.5767 0.8162 -0.0343
vn -0.5602 0.8070 -0.1867
vn -0.5950 0.8030 -0.0330
vn -0.5633 0.8055 -0.1839
vn -0.6031 0.7967 0.0394
vn -0.5875 0.8082 0.0403
vn -0.6054 0.7936 0.0610
vn -0.5889 0.8058 0.0620
vn -0.6052 0.7951 0.0394
vn -0.6076 0.7919 0.0609
vn -0.4107 0.9100 -0.0570
vn -0.4295 0.9020 0.0422
vn -0.4252 0.9024 0.0694
vn -0.3641 0.8987 -0.2443
vn 0.9862 -0.0835 -0.1429
vn 0.9300 -0.0142 -0.3672
vn 0.9859 -0.0783 -0.1480
vn 0.9266 -0.0067 -0.3759
vn 0.9858 -0.0718 -0.1518
vn 0.9346 -0.0212 -0.3551
vn 0.9930 -0.1115 -0.0396
vn 0.9934 -0.1074 -0.0405
vn 0.9928 -0.1193 -0.0092
vn 0.9940 -0.1016 -0.0410
vn 0.9933 -0.1154 -0.0089
vn 0.9927 -0.1142 -0.0385
vn 0.9866 -0.0874 -0.1375
vn 0.9927 -0.1145 -0.0375
vn 0.9871 -0.0887 -0.1332
vn 0.9925 -0.1217 -0.0093
vn 0.9925 -0.1219 -0.0094
vn 0.9392 -0.0273 -0.3423
vn 0.9429 -0.0310 -0.3317
vn 0.9777 -0.1617 -0.1338
vn 0.9442 -0.0428 -0.3267
vn 0.9864 -0.0985 -0.1314
vn 0.9379 -0.1102 -0.3290
vn 0.9817 -0.1860 -0.0416
vn 0.9916 -0.1235 -0.0376
vn 0.9822 -0.1873 -0.0144
vn 0.9915 -0.1296 -0.0099
vn 0.8937 -0.4446 -0.0605
vn 0.8929 -0.4234 -0.1529
vn 0.9011 -0.4323 -0.0332
vn 0.6341 -0.7710 -0.0593
vn 0.8598 -0.3787 -0.3425
vn -0.9611 -0.1478 -0.2330
vn -0.2708 -0.9513 -0.1470
vn -0.9806 -0.1684 -0.1001
vn -0.2653 -0.9260 -0.2686
vn 0.0094 -0.9885 -0.1506
vn 0.0155 -0.9618 -0.2733
vn -0.2699 -0.9586 -0.0905
vn -0.9834 -0.1781 -0.0339
vn -0.2707 -0.9598 -0.0738
vn -0.9947 -0.1024 -0.0079
vn 0.0068 -0.9956 -0.0934
vn -0.7024 0.7118 -0.0067
vn -0.7083 0.7047 0.0401
vn -0.6140 0.7891 -0.0132
vn -0.7024 0.7097 0.0546
vn -0.6217 0.7820 0.0430
vn -0.6836 0.7226 -0.1026
vn -0.5910 0.7964 -0.1279
vn -0.5686 0.8044 -0.1719
vn -0.6026 0.7977 -0.0237
vn -0.5979 0.8010 -0.0296
vn -0.5760 0.8025 -0.1556
vn -0.6115 0.7901 0.0411
vn -0.6077 0.7931 0.0399
vn -0.6135 0.7873 0.0605
vn -0.6099 0.7901 0.0608
vn -0.6229 0.7799 0.0600
vn -0.5958 0.8025 -0.0323
vn -0.6058 0.7946 0.0395
vn -0.6081 0.7915 0.0609
vn -0.5649 0.8052 -0.1802
vn 0.9862 -0.0624 -0.1529
vn 0.9271 0.0032 -0.3748
vn 0.9865 -0.0602 -0.1520
vn 0.9259 0.0018 -0.3777
vn 0.9949 -0.0923 -0.0408
vn 0.9951 -0.0899 -0.0405
vn 0.9949 -0.1007 -0.0078
vn 0.9951 -0.0984 -0.0075
vn 0.9945 -0.0960 -0.0410
vn 0.9860 -0.0661 -0.1531
vn 0.9945 -0.1044 -0.0080
vn 0.9939 -0.1097 -0.0084
vn 0.9254 -0.0011 -0.3789
vn 0.0481 -0.9430 -0.3293
vn 0.0471 -0.9834 -0.1750
vn 0.0428 -0.9843 -0.1713
vn 0.0523 -0.9387 -0.3408
vn 0.0401 -0.9944 -0.0981
vn 0.0443 -0.9941 -0.0988
vn 0.0393 -0.9963 -0.0766
vn 0.0435 -0.9961 -0.0766
vn 0.0338 -0.9859 -0.1635
vn 0.0312 -0.9948 -0.0964
vn 0.0306 -0.9966 -0.0767
vn 0.0067 -0.9970 -0.0767
vn 0.0392 -0.9507 -0.3077
vn 0.0136 0.2704 0.9626
vn -0.0472 0.3437 0.9379
vn -0.0509 0.3470 0.9365
vn 0.0195 0.2645 0.9642
vn -0.0434 0.3395 0.9396
vn 0.0302 0.2514 0.9674
vn 0.0166 0.2680 0.9633
vn 0.0344 0.2475 0.9683
vn -0.2541 0.5709 0.7807
vn -0.2656 0.5812 0.7692
vn -0.4829 0.7662 0.4240
vn -0.2457 0.5631 0.7890
vn -0.4727 0.7613 0.4438
vn -0.0533 0.3486 0.9357
vn -0.2809 0.5946 0.7534
vn -0.0544 0.3466 0.9364
vn -0.4987 0.7730 0.3921
vn -0.3045 0.6108 0.7309
vn 0.0121 0.2709 0.9625
vn 0.0287 0.2515 0.9674
vn 0.0122 0.2672 0.9636
vn 0.0281 0.2479 0.9684
vn 0.0072 0.3307 0.9437
vn 0.3234 0.2206 0.9202
vn 0.2673 0.2998 0.9158
vn 0.7129 0.1223 0.6905
vn 0.6739 0.2154 0.7067
vn 0.0696 0.2574 0.9638
vn 0.3344 0.2053 0.9198
vn 0.7172 0.1068 0.6887
vn -0.1957 0.5571 0.8071
vn 0.0586 0.5646 0.8233
vn -0.4323 0.7649 0.4775
vn 0.4681 0.5612 0.6825
vn -0.2357 0.8216 0.5191
vn -0.2352 0.5583 0.7956
vn -0.0351 0.3366 0.9409
vn -0.4594 0.7568 0.4650
vn -0.4666 0.7578 0.4561
vn 0.0272 0.2625 0.9645
vn 0.0850 0.2420 0.9665
vn 0.0414 0.2464 0.9683
vn 0.0060 0.1643 0.9864
vn -0.0584 0.3285 0.9427
vn -0.0469 0.2586 0.9648
vn 0.0146 0.2497 0.9682
vn 0.0316 0.1428 0.9892
vn 0.0288 0.2303 0.9727
vn -0.3715 0.5948 0.7128
vn -0.5715 0.0432 0.8195
vn -0.6245 0.7238 0.2934
vn -0.8769 -0.0967 0.4708
vn -0.5249 0.7793 0.3422
vn -0.0815 -0.4222 0.9028
vn 0.0390 -0.3797 0.9243
vn -0.2320 -0.8303 0.5068
vn 0.0275 -0.8556 0.5169
vn 0.0368 0.1373 0.9898
vn 0.0524 -0.2749 0.9600
vn 0.0374 0.1387 0.9896
vn 0.0525 -0.2596 0.9643
vn 0.0376 0.1411 0.9893
vn 0.0513 -0.2976 0.9533
vn 0.0584 -0.7596 0.6477
vn 0.0595 -0.7466 0.6625
vn 0.0337 0.2247 0.9738
vn 0.0344 0.2265 0.9734
vn 0.0340 0.2429 0.9694
vn 0.0345 0.2292 0.9727
vn 0.0348 0.2442 0.9691
vn 0.0323 0.2253 0.9737
vn 0.0354 0.1379 0.9898
vn 0.0323 0.2434 0.9694
vn 0.0484 -0.3310 0.9424
vn 0.0550 -0.7803 0.6229
vn 0.0477 -0.8118 0.5819
vn 0.0834 0.1388 0.9868
vn 0.3624 -0.2636 0.8939
vn 0.3743 0.0894 0.9230
vn 0.7130 -0.3190 0.6243
vn 0.7645 -0.0187 0.6443
vn 0.0975 -0.2481 0.9638
vn 0.3215 -0.7040 0.6332
vn 0.5816 -0.6333 0.5106
vn 0.0822 0.2247 0.9709
vn 0.3689 0.1759 0.9127
vn 0.0850 0.2398 0.9671
vn 0.7645 0.0598 0.6417
vn 0.3647 0.1915 0.9112
vn 0.0400 0.2297 0.9724
vn 0.0429 0.1418 0.9890
vn 0.0407 0.2460 0.9684
vn 0.0349 0.2462 0.9686
vn 0.0575 -0.2503 0.9665
vn 0.0991 -0.7326 0.6734
vn 0.0642 -0.7381 0.6716
vn 0.0347 0.2473 0.9683
vn 0.0351 0.2463 0.9685
vn 0.0364 0.2466 0.9684
vn 0.0333 0.2470 0.9684
vn 0.0359 0.2470 0.9683
vn 0.0372 0.2471 0.9683
vn 0.0358 0.2483 0.9680
vn 0.0366 0.2483 0.9680
vn 0.0378 0.2461 0.9685
vn 0.0376 0.2458 0.9686
vn 0.0379 0.2450 0.9688
vn 0.0369 0.2472 0.9682
vn 0.0380 0.2464 0.9684
vn 0.0372 0.2467 0.9684
vn 0.0365 0.2465 0.9684
vn 0.0325 0.2499 0.9677
vn 0.0373 0.2449 0.9688
vn 0.0982 0.2395 0.9659
vn 0.0464 0.2462 0.9681
vn 0.0435 0.2473 0.9680
vn 0.1096 0.2380 0.9651
vn 0.0494 0.2454 0.9681
vn 0.0903 0.2405 0.9664
vn 0.0419 0.2476 0.9680
vn 0.3585 0.1940 0.9131
vn 0.3525 0.1960 0.9150
vn 0.7454 0.0811 0.6617
vn 0.7302 0.0886 0.6774
vn 0.7578 0.0751 0.6481
vn 0.3499 0.1973 0.9158
vn 0.1170 0.2374 0.9643
vn 0.7161 0.0960 0.6913
vn 0.3475 0.1990 0.9163
vn 0.0989 0.2390 0.9659
vn 0.0443 0.2445 0.9686
vn 0.0459 0.2443 0.9686
vn 0.0913 0.2400 0.9665
vn 0.1095 0.2382 0.9650
vn 0.0480 0.2448 0.9684
vn 0.3410 0.2014 0.9182
vn 0.3360 0.2030 0.9197
vn 0.7044 0.1058 0.7018
vn 0.7075 0.1068 0.6986
vn 0.7065 0.1022 0.7002
vn 0.3348 0.2039 0.9199
vn 0.7127 0.1067 0.6933
vn 0.0799 -0.9810 0.1768
vn 0.2974 -0.8882 0.3502
vn 0.0875 -0.9322 0.3512
vn 0.2870 -0.9409 0.1794
vn 0.6174 -0.7079 0.3431
vn 0.0523 -0.9828 0.1773
vn 0.0537 -0.9366 0.3463
vn 0.0485 -0.9831 0.1764
vn 0.0578 -0.9351 0.3497
vn 0.0495 -0.9938 0.0992
vn 0.0769 -0.9922 0.0985
vn 0.0487 -0.9958 0.0766
vn 0.0768 -0.9941 0.0764
vn 0.0457 -0.9940 0.0991
vn 0.0449 -0.9960 0.0766
vn 0.2798 -0.9552 0.0961
vn 0.6278 -0.7588 0.1737
vn 0.2855 -0.9555 0.0735
vn 0.6248 -0.7762 0.0842
vn 0.9869 0.0385 0.1563
vn 0.7238 0.5450 0.4230
vn 0.9124 0.1118 0.3936
vn 0.8309 0.5302 0.1688
vn 0.1124 0.9326 0.3429
vn 0.0575 0.8578 0.5107
vn 0.9873 -0.0468 0.1515
vn 0.9271 0.0181 0.3743
vn 0.9867 -0.0595 0.1510
vn 0.9282 0.0038 0.3721
vn 0.9962 -0.0772 0.0397
vn 0.9994 0.0042 0.0354
vn 0.9964 -0.0846 0.0065
vn 1.0000 0.0018 -0.0001
vn 0.9952 -0.0891 0.0403
vn 0.9952 -0.0977 0.0075
vn 0.8626 0.5058 0.0082
vn 0.1543 0.9810 0.1179
vn 0.8460 0.5315 -0.0409
vn 0.1584 0.9868 -0.0329
vn -0.5928 0.8046 0.0336
vn -0.5412 0.8185 0.1925
vn -0.5767 0.8162 0.0343
vn -0.5602 0.8070 0.1868
vn -0.5950 0.8030 0.0330
vn -0.5633 0.8055 0.1839
vn -0.3641 0.8987 0.2443
vn -0.4107 0.9099 0.0570
vn -0.5875 0.8082 -0.0403
vn -0.4296 0.9020 -0.0422
vn -0.5889 0.8058 -0.0620
vn -0.4252 0.9024 -0.0694
vn -0.6031 0.7967 -0.0394
vn -0.6052 0.7951 -0.0394
vn -0.6053 0.7936 -0.0610
vn -0.6076 0.7919 -0.0609
vn 0.9862 -0.0835 0.1429
vn 0.9300 -0.0142 0.3672
vn 0.9346 -0.0212 0.3551
vn 0.9859 -0.0783 0.1480
vn 0.9266 -0.0067 0.3759
vn 0.9866 -0.0873 0.1376
vn 0.9392 -0.0273 0.3423
vn 0.9871 -0.0887 0.1332
vn 0.9429 -0.0310 0.3317
vn 0.9927 -0.1142 0.0385
vn 0.9930 -0.1115 0.0395
vn 0.9925 -0.1217 0.0093
vn 0.9928 -0.1193 0.0091
vn 0.9927 -0.1146 0.0375
vn 0.9925 -0.1220 0.0093
vn 0.9934 -0.1074 0.0405
vn 0.9858 -0.0718 0.1517
vn 0.9933 -0.1154 0.0089
vn 0.9940 -0.1016 0.0410
vn 0.9777 -0.1617 0.1338
vn 0.9442 -0.0428 0.3267
vn 0.9379 -0.1102 0.3290
vn 0.9864 -0.0985 0.1314
vn 0.8929 -0.4235 0.1529
vn 0.8597 -0.3788 0.3425
vn 0.8937 -0.4446 0.0605
vn 0.9817 -0.1860 0.0416
vn 0.9011 -0.4323 0.0332
vn 0.9822 -0.1873 0.0144
vn 0.6341 -0.7709 0.0593
vn 0.9916 -0.1235 0.0376
vn 0.9915 -0.1296 0.0099
vn -0.2708 -0.9513 0.1470
vn -0.9611 -0.1478 0.2330
vn -0.9806 -0.1684 0.1001
vn -0.2653 -0.9260 0.2686
vn 0.0094 -0.9885 0.1506
vn 0.0155 -0.9618 0.2733
vn -0.6836 0.7226 0.1025
vn -0.7023 0.7118 0.0067
vn -0.5910 0.7964 0.1280
vn -0.6140 0.7891 0.0132
vn -0.9834 -0.1781 0.0340
vn -0.7083 0.7047 -0.0401
vn -0.9947 -0.1024 0.0079
vn -0.6217 0.7820 -0.0430
vn -0.7024 0.7097 -0.0546
vn -0.2699 -0.9586 0.0905
vn 0.0068 -0.9956 0.0934
vn -0.2707 -0.9598 0.0738
vn -0.6026 0.7977 0.0236
vn -0.5686 0.8044 0.1719
vn -0.5979 0.8010 0.0296
vn -0.5760 0.8025 0.1557
vn -0.5648 0.8053 0.1802
vn -0.5958 0.8025 0.0322
vn -0.6077 0.7931 -0.0399
vn -0.6058 0.7946 -0.0395
vn -0.6099 0.7901 -0.0608
vn -0.6081 0.7915 -0.0609
vn -0.6115 0.7901 -0.0411
vn -0.6135 0.7873 -0.0605
vn -0.6229 0.7799 -0.0600
vn 0.9862 -0.0624 0.1529
vn 0.9271 0.0032 0.3748
vn 0.9259 0.0018 0.3777
vn 0.9865 -0.0602 0.1519
vn 0.9860 -0.0661 0.1531
vn 0.9255 -0.0012 0.3788
vn 0.9945 -0.0960 0.0411
vn 0.9949 -0.0923 0.0408
vn 0.9945 -0.1044 0.0080
vn 0.9949 -0.1007 0.0077
vn 0.9939 -0.1097 0.0084
vn 0.9951 -0.0899 0.0405
vn 0.9951 -0.0984 0.0076
vn 0.0471 -0.9834 0.1751
vn 0.0481 -0.9430 0.3293
vn 0.0428 -0.9843 0.1713
vn 0.0523 -0.9387 0.3408
vn 0.0392 -0.9507 0.3077
vn 0.0338 -0.9859 0.1635
vn 0.0401 -0.9944 0.0981
vn 0.0306 -0.9966 0.0767
vn 0.0393 -0.9963 0.0766
vn 0.0312 -0.9948 0.0964
vn 0.0067 -0.9970 0.0767
vn 0.0443 -0.9941 0.0988
vn 0.0435 -0.9961 0.0766
vn 0.1527 0.9854 0.0757
vn 0.1527 0.9854 -0.0757
s 1
f 5//1 2//2 1//3
f 6//4 325//5 2//2
f 5//1 344//6 6//4
f 6//4 538//7 326//8
f 1//3 7//9 3//10
f 3//10 320//11 319//12
f 2//2 324//13 7//9
f 7//9 539//14 320//11
f 3//10 4//15 1//3
f 4//15 338//16 337//17
f 319//12 8//18 3//10
f 318//19 338//16 8//18
f 1//3 9//20 5//1
f 9//20 343//21 5//1
f 337//17 9//20 4//15
f 336//22 342//23 9//20
f 10//24 15//25 11//26
f 11//26 335//27 334//28
f 14//29 311//30 15//25
f 15//25 534//31 335//27
f 11//26 12//32 10//24
f 16//33 343//21 12//32
f 334//28 16//33 11//26
f 333//34 344//6 16//33
f 10//24 17//35 13//36
f 13//36 323//37 322//38
f 12//32 342//23 17//35
f 17//35 540//39 323//37
f 13//36 14//29 10//24
f 18//40 310//41 14//29
f 322//38 18//40 13//36
f 321//42 309//43 18//40
f 22//44 20//45 19//46
f 23//47 331//48 20//45
f 319//12 23//47 22//44
f 320//11 332//49 23//47
f 19//46 24//50 21//51
f 21//51 317//52 316//53
f 20//45 330//54 24//50
f 24//50 537//55 317//52
f 19//46 25//56 22//44
f 22//44 318//19 319//12
f 21//51 315//57 25//56
f 25//56 536//58 318//19
f 26//59 31//60 27//61
f 27//61 350//62 349//63
f 30//64 353//65 31//60
f 31//60 542//66 350//62
f 27//61 28//67 26//59
f 32//68 331//48 28//67
f 349//63 32//68 27//61
f 348//69 330//54 32//68
f 26//59 33//70 29//71
f 29//71 329//72 328//73
f 28//67 332//49 33//70
f 33//70 539//14 329//72
f 29//71 30//64 26//59
f 34//74 352//75 30//64
f 328//73 34//74 29//71
f 327//76 351//77 34//74
f 35//78 40//79 36//80
f 36//80 341//81 340//82
f 39//83 305//84 40//79
f 40//79 532//85 341//81
f 36//80 37//86 35//78
f 41//87 352//75 37//86
f 340//82 41//87 36//80
f 339//88 353//65 41//87
f 35//78 42//89 38//90
f 38//90 347//91 346//92
f 37//86 351//77 42//89
f 42//89 541//93 347//91
f 38//90 39//83 35//78
f 43//94 304//95 39//83
f 346//92 43//94 38//90
f 345//96 303//97 43//94
f 48//98 45//99 44//100
f 49//101 325//5 45//99
f 328//73 49//101 48//98
f 329//72 324//13 49//101
f 44//100 50//102 46//103
f 50//102 358//104 46//103
f 45//99 326//8 50//102
f 326//8 357//105 50//102
f 46//103 47//106 44//100
f 47//106 354//107 355//108
f 46//103 359//109 51//110
f 51//110 543//111 354//107
f 44//100 52//112 48//98
f 48//98 327//76 328//73
f 47//106 356//113 52//112
f 52//112 541//93 327//76
f 53//114 58//115 54//116
f 54//116 360//117 361//118
f 355//108 58//115 57//119
f 58//115 543//111 360//117
f 54//116 55//120 53//114
f 59//121 313//122 55//120
f 361//118 59//121 54//116
f 362//123 312//124 59//121
f 53//114 60//125 56//126
f 56//126 345//96 346//92
f 55//120 314//127 60//125
f 60//125 535//128 345//96
f 56//126 57//119 53//114
f 61//129 355//108 57//119
f 346//92 61//129 56//126
f 347//91 356//113 61//129
f 62//130 67//131 63//132
f 63//132 333//34 334//28
f 66//133 357//105 67//131
f 67//131 538//7 333//34
f 63//132 64//134 62//130
f 68//135 307//136 64//134
f 334//28 68//135 63//132
f 335//27 306//137 68//135
f 62//130 69//138 65//139
f 65//139 362//123 361//118
f 64//134 308//140 69//138
f 69//138 533//141 362//123
f 65//139 66//133 62//130
f 70//142 358//104 66//133
f 361//118 70//142 65//139
f 360//117 359//109 70//142
f 71//143 76//144 72//145
f 72//145 392//146 391//147
f 75//148 341//81 76//144
f 76//144 532//85 392//146
f 72//145 73//149 71//143
f 77//150 385//151 73//149
f 391//147 77//150 72//145
f 390//152 386//153 77//150
f 71//143 78//154 74//155
f 74//155 395//156 394//157
f 73//149 384//158 78//154
f 78//154 552//159 395//156
f 74//155 75//148 71//143
f 75//148 339//88 340//82
f 74//155 393//160 79//161
f 79//161 542//66 339//88
f 80//162 85//163 81//164
f 81//164 398//165 397//166
f 84//167 309//43 85//163
f 85//163 531//168 398//165
f 81//164 82//169 80//162
f 86//170 370//171 82//169
f 397//166 86//170 81//164
f 396//172 369//173 86//170
f 80//162 87//174 83//175
f 83//175 401//176 400//177
f 82//169 371//178 87//174
f 87//174 547//179 401//176
f 83//175 84//167 80//162
f 88//180 310//41 84//167
f 400//177 88//180 83//175
f 399//181 311//30 88//180
f 93//182 90//183 89//184
f 94//185 403//186 90//183
f 322//38 94//185 93//182
f 323//37 404//187 94//185
f 89//184 95//188 91//189
f 91//189 380//190 379//191
f 90//183 402//192 95//188
f 95//188 551//193 380//190
f 91//189 92//194 89//184
f 96//195 397//166 92//194
f 379//191 96//195 91//189
f 378//196 396//172 96//195
f 89//184 97//197 93//182
f 93//182 321//42 322//38
f 92//194 398//165 97//197
f 97//197 531//168 321//42
f 98//198 103//199 99//200
f 99//200 407//201 406//202
f 102//203 312//124 103//199
f 103//199 533//141 407//201
f 99//200 100//204 98//198
f 104//205 373//206 100//204
f 406//202 104//205 99//200
f 405//207 372//208 104//205
f 98//198 105//209 101//210
f 101//210 410//211 409//212
f 100//204 374//213 105//209
f 105//209 548//214 410//211
f 101//210 102//203 98//198
f 106//215 313//122 102//203
f 409//212 106//215 101//210
f 408//216 314//127 106//215
f 107//217 112//218 108//219
f 108//219 408//216 409//212
f 111//220 303//97 112//218
f 112//218 535//128 408//216
f 108//219 109//221 107//217
f 113//222 364//223 109//221
f 409//212 113//222 108//219
f 410//211 363//224 113//222
f 107//217 114//225 110//226
f 110//226 390//152 391//147
f 109//221 365//227 114//225
f 114//225 545//228 390//152
f 110//226 111//220 107//217
f 115//229 304//95 111//220
f 391//147 115//229 110//226
f 115//229 532//85 305//84
f 120//230 117//231 116//232
f 121//233 412//234 117//231
f 316//53 121//233 120//230
f 317//52 413//235 121//233
f 116//232 122//236 118//237
f 118//237 377//238 376//239
f 117//231 411//240 122//236
f 411//240 377//238 122//236
f 118//237 119//241 116//232
f 123//242 415//243 119//241
f 376//239 123//242 118//237
f 375//244 416//245 123//242
f 116//232 124//246 120//230
f 124//246 316//53 120//230
f 119//241 414//247 124//246
f 414//247 315//57 124//246
f 129//248 126//249 125//250
f 130//251 415//243 126//249
f 337//17 130//251 129//248
f 338//16 414//247 130//251
f 125//250 131//252 127//253
f 127//253 383//254 382//255
f 126//249 416//245 131//252
f 131//252 549//256 383//254
f 127//253 128//257 125//250
f 132//258 403//186 128//257
f 382//255 132//258 127//253
f 381//259 402//192 132//258
f 125//250 133//260 129//248
f 129//248 336//22 337//17
f 128//257 404//187 133//260
f 133//260 540//39 336//22
f 134//261 139//262 135//263
f 135//263 399//181 400//177
f 138//264 306//137 139//262
f 139//262 534//31 399//181
f 135//263 136//265 134//261
f 140//266 367//267 136//265
f 400//177 140//266 135//263
f 401//176 366//268 140//266
f 134//261 141//269 137//270
f 137//270 405//207 406//202
f 136//265 368//271 141//269
f 141//269 546//272 405//207
f 137//270 138//264 134//261
f 142//273 307//136 138//264
f 406//202 142//273 137//270
f 407//201 308//140 142//273
f 147//274 144//275 143//276
f 148//277 394//157 144//275
f 349//63 148//277 147//274
f 350//62 393//160 148//277
f 144//275 145//278 143//276
f 149//279 388//280 145//278
f 394//157 149//279 144//275
f 395//156 389//281 149//279
f 145//278 146//282 143//276
f 150//283 412//234 146//282
f 145//278 387//284 150//283
f 150//283 550//285 411//240
f 143//276 151//286 147//274
f 147//274 348//69 349//63
f 146//282 413//235 151//286
f 151//286 537//55 348//69
f 156//287 153//288 152//289
f 153//288 458//290 457//291
f 439//292 157//293 156//287
f 157//293 560//294 458//290
f 152//289 158//295 154//296
f 158//295 451//297 154//296
f 457//291 158//295 153//288
f 456//298 450//299 158//295
f 154//296 155//300 152//289
f 159//301 433//302 155//300
f 154//296 452//303 159//301
f 452//303 432//304 159//301
f 152//289 160//305 156//287
f 156//287 438//306 439//292
f 155//300 434//307 160//305
f 160//305 561//308 438//306
f 161//309 166//310 162//311
f 162//311 425//312 424//313
f 165//314 449//315 166//310
f 166//310 556//316 425//312
f 162//311 163//317 161//309
f 167//318 436//319 163//317
f 424//313 167//318 162//311
f 423//320 435//321 167//318
f 161//309 168//322 164//323
f 164//323 456//298 457//291
f 163//317 437//324 168//322
f 168//322 562//325 456//298
f 164//323 165//314 161//309
f 169//326 448//327 165//314
f 457//291 169//326 164//323
f 458//290 447//328 169//326
f 173//329 171//330 170//331
f 174//332 433//302 171//330
f 445//333 174//332 173//329
f 446//334 434//307 174//332
f 170//331 175//335 172//336
f 172//336 429//337 430//338
f 171//330 432//304 175//335
f 175//335 558//339 429//337
f 170//331 176//340 173//329
f 173//329 444//341 445//333
f 172//336 431//342 176//340
f 176//340 559//343 444//341
f 177//344 182//345 178//346
f 178//346 467//347 466//348
f 181//349 464//350 182//345
f 182//345 564//351 467//347
f 178//346 179//352 177//344
f 183//353 442//354 179//352
f 466//348 183//353 178//346
f 465//355 441//356 183//353
f 177//344 184//357 180//358
f 180//358 446//334 445//333
f 179//352 443//359 184//357
f 184//357 561//308 446//334
f 180//358 181//349 177//344
f 185//360 463//361 181//349
f 445//333 185//360 180//358
f 444//341 462//362 185//360
f 186//363 191//364 187//365
f 187//365 419//366 418//367
f 190//368 455//369 191//364
f 191//364 554//370 419//366
f 187//365 188//371 186//363
f 192//372 460//373 188//371
f 418//367 192//372 187//365
f 417//374 459//375 192//372
f 186//363 193//376 189//377
f 189//377 465//355 466//348
f 188//371 461//378 193//376
f 193//376 563//379 465//355
f 189//377 190//368 186//363
f 194//380 454//381 190//368
f 466//348 194//380 189//377
f 467//347 453//382 194//380
f 199//383 196//384 195//385
f 200//386 442//354 196//384
f 439//292 200//386 199//383
f 438//306 443//359 200//386
f 195//385 201//387 197//388
f 197//388 470//389 469//390
f 196//384 441//356 201//387
f 201//387 563//379 470//389
f 197//388 198//391 195//385
f 198//391 473//392 472//393
f 197//388 468//394 202//395
f 202//395 565//396 473//392
f 195//385 203//397 199//383
f 199//383 440//398 439//292
f 472//393 203//397 198//391
f 471//399 440//398 203//397
f 204//400 209//401 205//402
f 209//401 469//390 205//402
f 208//403 474//404 209//401
f 209//401 565//396 468//394
f 205//402 206//405 204//400
f 210//406 460//373 206//405
f 469//390 210//406 205//402
f 470//389 461//378 210//406
f 204//400 211//407 207//408
f 207//408 428//409 427//410
f 206//405 459//375 211//407
f 211//407 557//411 428//409
f 207//408 208//403 204//400
f 212//412 475//413 208//403
f 427//410 212//412 207//408
f 426//414 476//415 212//412
f 213//416 218//417 214//418
f 214//418 471//399 472//393
f 217//419 447//328 218//417
f 218//417 560//294 471//399
f 214//418 215//420 213//416
f 219//421 475//413 215//420
f 472//393 219//421 214//418
f 473//392 474//404 219//421
f 213//416 220//422 216//423
f 216//423 422//424 421//425
f 215//420 476//415 220//422
f 220//422 555//426 422//424
f 216//423 217//419 213//416
f 221//427 448//327 217//419
f 421//425 221//427 216//423
f 420//428 449//315 221//427
f 222//429 227//430 223//431
f 223//431 455//369 454//381
f 226//432 506//433 227//430
f 227//430 554//370 455//369
f 223//431 224//434 222//429
f 224//434 507//435 508//436
f 223//431 453//382 228//437
f 228//437 564//351 507//435
f 222//429 229//438 225//439
f 225//439 498//440 499//441
f 224//434 509//442 229//438
f 229//438 574//443 498//440
f 225//439 226//432 222//429
f 230//444 505//445 226//432
f 499//441 230//444 225//439
f 500//446 504//447 230//444
f 231//448 236//449 232//450
f 232//450 423//320 424//313
f 235//451 512//452 236//449
f 236//449 553//453 423//320
f 232//450 233//454 231//448
f 237//455 514//456 233//454
f 424//313 237//455 232//450
f 425//312 513//457 237//455
f 231//448 238//458 234//459
f 234//459 485//460 484//461
f 233//454 515//462 238//458
f 238//458 569//463 485//460
f 234//459 235//451 231//448
f 239//464 511//465 235//451
f 484//461 239//464 234//459
f 483//466 510//467 239//464
f 244//468 241//469 240//470
f 245//471 436//319 241//469
f 517//472 245//471 244//468
f 518//473 437//324 245//471
f 240//470 246//474 242//475
f 242//475 512//452 511//465
f 241//469 435//321 246//474
f 246//474 553//453 512//452
f 242//475 243//476 240//470
f 247//477 493//478 243//476
f 511//465 247//477 242//475
f 510//467 492//479 247//477
f 240//470 248//480 244//468
f 244//468 516//481 517//472
f 243//476 494//482 248//480
f 248//480 573//483 516//481
f 249//484 254//485 250//486
f 250//486 426//414 427//410
f 253//487 521//488 254//485
f 254//485 555//426 426//414
f 250//486 251//489 249//484
f 255//490 523//491 251//489
f 427//410 255//490 250//486
f 428//409 522//492 255//490
f 249//484 256//493 252//494
f 252//494 488//495 487//496
f 251//489 524//497 256//493
f 256//493 570//498 488//495
f 252//494 253//487 249//484
f 257//499 520//500 253//487
f 487//496 257//499 252//494
f 486//501 519//502 257//499
f 258//503 263//504 259//505
f 259//505 417//374 418//367
f 262//506 522//492 263//504
f 263//504 557//411 417//374
f 259//505 260//507 258//503
f 264//508 505//445 260//507
f 418//367 264//508 259//505
f 264//508 554//370 506//433
f 258//503 265//509 261//510
f 261//510 479//511 478//512
f 260//507 504//447 265//509
f 265//509 567//513 479//511
f 261//510 262//506 258//503
f 266//514 523//491 262//506
f 478//512 266//514 261//510
f 477//515 524//497 266//514
f 271//516 268//517 267//518
f 272//519 430//338 268//517
f 526//520 272//519 271//516
f 527//521 431//342 272//519
f 267//518 273//522 269//523
f 269//523 528//524 529//525
f 430//338 273//522 268//517
f 429//337 528//524 273//522
f 269//523 270//526 267//518
f 274//527 490//528 270//526
f 529//525 274//527 269//523
f 530//529 489//530 274//527
f 267//518 275//531 271//516
f 271//516 525//532 526//520
f 270//526 491//533 275//531
f 491//533 525//532 275//531
f 280//534 277//535 276//536
f 281//537 451//297 277//535
f 529//525 281//537 280//534
f 528//524 452//303 281//537
f 276//536 282//538 278//539
f 278//539 518//473 517//472
f 277//535 450//299 282//538
f 282//538 562//325 518//473
f 278//539 279//540 276//536
f 283//541 496//542 279//540
f 517//472 283//541 278//539
f 516//481 495//543 283//541
f 276//536 284//544 280//534
f 280//534 530//529 529//525
f 279//540 497//545 284//544
f 284//544 571//546 530//529
f 285//547 290//548 286//549
f 286//549 420//428 421//425
f 289//550 513//457 290//548
f 290//548 556//316 420//428
f 286//549 287//551 285//547
f 291//552 520//500 287//551
f 421//425 291//552 286//549
f 422//424 521//488 291//552
f 285//547 292//553 288//554
f 288//554 482//555 481//556
f 287//551 519//502 292//553
f 292//553 568//557 482//555
f 288//554 289//550 285//547
f 293//558 514//456 289//550
f 481//556 293//558 288//554
f 480//559 515//462 293//558
f 298//560 295//561 294//562
f 299//563 463//361 295//561
f 508//436 299//563 298//560
f 507//435 464//350 299//563
f 294//562 300//564 296//565
f 296//565 527//521 526//520
f 295//561 462//362 300//564
f 300//564 559//343 527//521
f 296//565 297//566 294//562
f 297//566 501//567 502//568
f 526//520 301//569 296//565
f 301//569 572//570 501//567
f 297//566 298//560 294//562
f 302//571 508//436 298//560
f 502//568 302//571 297//566
f 503//572 509//442 302//571
f 5//1 6//4 2//2
f 6//4 326//8 325//5
f 5//1 343//21 344//6
f 6//4 344//6 538//7
f 1//3 2//2 7//9
f 3//10 7//9 320//11
f 2//2 325//5 324//13
f 7//9 324//13 539//14
f 3//10 8//18 4//15
f 4//15 8//18 338//16
f 319//12 318//19 8//18
f 318//19 536//58 338//16
f 1//3 4//15 9//20
f 9//20 342//23 343//21
f 337//17 336//22 9//20
f 336//22 540//39 342//23
f 10//24 14//29 15//25
f 11//26 15//25 335//27
f 14//29 310//41 311//30
f 15//25 311//30 534//31
f 11//26 16//33 12//32
f 16//33 344//6 343//21
f 334//28 333//34 16//33
f 333//34 538//7 344//6
f 10//24 12//32 17//35
f 13//36 17//35 323//37
f 12//32 343//21 342//23
f 17//35 342//23 540//39
f 13//36 18//40 14//29
f 18//40 309//43 310//41
f 322//38 321//42 18//40
f 321//42 531//168 309//43
f 22//44 23//47 20//45
f 23//47 332//49 331//48
f 319//12 320//11 23//47
f 320//11 539//14 332//49
f 19//46 20//45 24//50
f 21//51 24//50 317//52
f 20//45 331//48 330//54
f 24//50 330//54 537//55
f 19//46 21//51 25//56
f 22//44 25//56 318//19
f 21//51 316//53 315//57
f 25//56 315//57 536//58
f 26//59 30//64 31//60
f 27//61 31//60 350//62
f 30//64 352//75 353//65
f 31//60 353//65 542//66
f 27//61 32//68 28//67
f 32//68 330//54 331//48
f 349//63 348//69 32//68
f 348//69 537//55 330//54
f 26//59 28//67 33//70
f 29//71 33//70 329//72
f 28//67 331//48 332//49
f 33//70 332//49 539//14
f 29//71 34//74 30//64
f 34//74 351//77 352//75
f 328//73 327//76 34//74
f 327//76 541//93 351//77
f 35//78 39//83 40//79
f 36//80 40//79 341//81
f 39//83 304//95 305//84
f 40//79 305//84 532//85
f 36//80 41//87 37//86
f 41//87 353//65 352//75
f 340//82 339//88 41//87
f 339//88 542//66 353//65
f 35//78 37//86 42//89
f 38//90 42//89 347//91
f 37//86 352//75 351//77
f 42//89 351//77 541//93
f 38//90 43//94 39//83
f 43//94 303//97 304//95
f 346//92 345//96 43//94
f 345//96 535//128 303//97
f 48//98 49//101 45//99
f 49//101 324//13 325//5
f 328//73 329//72 49//101
f 329//72 539//14 324//13
f 44//100 45//99 50//102
f 50//102 357//105 358//104
f 45//99 325//5 326//8
f 326//8 538//7 357//105
f 46//103 51//110 47//106
f 47//106 51//110 354//107
f 46//103 358//104 359//109
f 51//110 359//109 543//111
f 44//100 47//106 52//112
f 48//98 52//112 327//76
f 47//106 355//108 356//113
f 52//112 356//113 541//93
f 53//114 57//119 58//115
f 54//116 58//115 360//117
f 355//108 354//107 58//115
f 58//115 354//107 543//111
f 54//116 59//121 55//120
f 59//121 312//124 313//122
f 361//118 362//123 59//121
f 362//123 533//141 312//124
f 53//114 55//120 60//125
f 56//126 60//125 345//96
f 55//120 313//122 314//127
f 60//125 314//127 535//128
f 56//126 61//129 57//119
f 61//129 356//113 355//108
f 346//92 347//91 61//129
f 347//91 541//93 356//113
f 62//130 66//133 67//131
f 63//132 67//131 333//34
f 66//133 358//104 357//105
f 67//131 357//105 538//7
f 63//132 68//135 64//134
f 68//135 306//137 307//136
f 334//28 335//27 68//135
f 335//27 534//31 306//137
f 62//130 64//134 69//138
f 65//139 69//138 362//123
f 64//134 307//136 308//140
f 69//138 308//140 533//141
f 65//139 70//142 66//133
f 70//142 359//109 358//104
f 361//118 360//117 70//142
f 360//117 543//111 359//109
f 71//143 75//148 76//144
f 72//145 76//144 392//146
f 75//148 340//82 341//81
f 76//144 341//81 532//85
f 72//145 77//150 73//149
f 77//150 386//153 385//151
f 391//147 390//152 77//150
f 390//152 545//228 386//153
f 71//143 73//149 78//154
f 74//155 78//154 395//156
f 73//149 385//151 384//158
f 78//154 384//158 552//159
f 74//155 79//161 75//148
f 75//148 79//161 339//88
f 74//155 394//157 393//160
f 79//161 393//160 542//66
f 80//162 84//167 85//163
f 81//164 85//163 398//165
f 84//167 310//41 309//43
f 85//163 309//43 531//168
f 81//164 86//170 82//169
f 86//170 369//173 370//171
f 397//166 396//172 86//170
f 396//172 544//573 369//173
f 80//162 82//169 87//174
f 83//175 87//174 401//176
f 82//169 370//171 371//178
f 87//174 371//178 547//179
f 83//175 88//180 84//167
f 88//180 311//30 310//41
f 400//177 399//181 88//180
f 399//181 534//31 311//30
f 93//182 94//185 90//183
f 94//185 404//187 403//186
f 322//38 323//37 94//185
f 323//37 540//39 404//187
f 89//184 90//183 95//188
f 91//189 95//188 380//190
f 90//183 403//186 402//192
f 95//188 402//192 551//193
f 91//189 96//195 92//194
f 96//195 396//172 397//166
f 379//191 378//196 96//195
f 378//196 544//573 396//172
f 89//184 92//194 97//197
f 93//182 97//197 321//42
f 92//194 397//166 398//165
f 97//197 398//165 531//168
f 98//198 102//203 103//199
f 99//200 103//199 407//201
f 102//203 313//122 312//124
f 103//199 312//124 533//141
f 99//200 104//205 100//204
f 104//205 372//208 373//206
f 406//202 405//207 104//205
f 405//207 546//272 372//208
f 98//198 100//204 105//209
f 101//210 105//209 410//211
f 100//204 373//206 374//213
f 105//209 374//213 548//214
f 101//210 106//215 102//203
f 106//215 314//127 313//122
f 409//212 408//216 106//215
f 408//216 535//128 314//127
f 107//217 111//220 112//218
f 108//219 112//218 408//216
f 111//220 304//95 303//97
f 112//218 303//97 535//128
f 108//219 113//222 109//221
f 113//222 363//224 364//223
f 409//212 410//211 113//222
f 410//211 548//214 363//224
f 107//217 109//221 114//225
f 110//226 114//225 390//152
f 109//221 364//223 365//227
f 114//225 365//227 545//228
f 110//226 115//229 111//220
f 115//229 305//84 304//95
f 391//147 392//146 115//229
f 115//229 392//146 532//85
f 120//230 121//233 117//231
f 121//233 413//235 412//234
f 316//53 317//52 121//233
f 317//52 537//55 413//235
f 116//232 117//231 122//236
f 118//237 122//236 377//238
f 117//231 412//234 411//240
f 411//240 550//285 377//238
f 118//237 123//242 119//241
f 123//242 416//245 415//243
f 376//239 375//244 123//242
f 375//244 549//256 416//245
f 116//232 119//241 124//246
f 124//246 315//57 316//53
f 119//241 415//243 414//247
f 414//247 536//58 315//57
f 129//248 130//251 126//249
f 130//251 414//247 415//243
f 337//17 338//16 130//251
f 338//16 536//58 414//247
f 125//250 126//249 131//252
f 127//253 131//252 383//254
f 126//249 415//243 416//245
f 131//252 416//245 549//256
f 127//253 132//258 128//257
f 132//258 402//192 403//186
f 382//255 381//259 132//258
f 381//259 551//193 402//192
f 125//250 128//257 133//260
f 129//248 133//260 336//22
f 128//257 403//186 404//187
f 133//260 404//187 540//39
f 134//261 138//264 139//262
f 135//263 139//262 399//181
f 138//264 307//136 306//137
f 139//262 306//137 534//31
f 135//263 140//266 136//265
f 140//266 366//268 367//267
f 400//177 401//176 140//266
f 401//176 547//179 366//268
f 134//261 136//265 141//269
f 137//270 141//269 405//207
f 136//265 367//267 368//271
f 141//269 368//271 546//272
f 137//270 142//273 138//264
f 142//273 308//140 307//136
f 406//202 407//201 142//273
f 407//201 533//141 308//140
f 147//274 148//277 144//275
f 148//277 393//160 394//157
f 349//63 350//62 148//277
f 350//62 542//66 393//160
f 144//275 149//279 145//278
f 149//279 389//281 388//280
f 394//157 395//156 149//279
f 395//156 552//159 389//281
f 145//278 150//283 146//282
f 150//283 411//240 412//234
f 145//278 388//280 387//284
f 150//283 387//284 550//285
f 143//276 146//282 151//286
f 147//274 151//286 348//69
f 146//282 412//234 413//235
f 151//286 413//235 537//55
f 156//287 157//293 153//288
f 153//288 157//293 458//290
f 439//292 440//398 157//293
f 157//293 440//398 560//294
f 152//289 153//288 158//295
f 158//295 450//299 451//297
f 457//291 456//298 158//295
f 456//298 562//325 450//299
f 154//296 159//301 155//300
f 159//301 432//304 433//302
f 154//296 451//297 452//303
f 452//303 558//339 432//304
f 152//289 155//300 160//305
f 156//287 160//305 438//306
f 155//300 433//302 434//307
f 160//305 434//307 561//308
f 161//309 165//314 166//310
f 162//311 166//310 425//312
f 165//314 448//327 449//315
f 166//310 449//315 556//316
f 162//311 167//318 163//317
f 167//318 435//321 436//319
f 424//313 423//320 167//318
f 423//320 553//453 435//321
f 161//309 163//317 168//322
f 164//323 168//322 456//298
f 163//317 436//319 437//324
f 168//322 437//324 562//325
f 164//323 169//326 165//314
f 169//326 447//328 448//327
f 457//291 458//290 169//326
f 458//290 560//294 447//328
f 173//329 174//332 171//330
f 174//332 434//307 433//302
f 445//333 446//334 174//332
f 446//334 561//308 434//307
f 170//331 171//330 175//335
f 172//336 175//335 429//337
f 171//330 433//302 432//304
f 175//335 432//304 558//339
f 170//331 172//336 176//340
f 173//329 176//340 444//341
f 172//336 430//338 431//342
f 176//340 431//342 559//343
f 177//344 181//349 182//345
f 178//346 182//345 467//347
f 181//349 463//361 464//350
f 182//345 464//350 564//351
f 178//346 183//353 179//352
f 183//353 441//356 442//354
f 466//348 465//355 183//353
f 465//355 563//379 441//356
f 177//344 179//352 184//357
f 180//358 184//357 446//334
f 179//352 442//354 443//359
f 184//357 443//359 561//308
f 180//358 185//360 181//349
f 185//360 462//362 463//361
f 445//333 444//341 185//360
f 444//341 559//343 462//362
f 186//363 190//368 191//364
f 187//365 191//364 419//366
f 190//368 454//381 455//369
f 191//364 455//369 554//370
f 187//365 192//372 188//371
f 192//372 459//375 460//373
f 418//367 417//374 192//372
f 417//374 557//411 459//375
f 186//363 188//371 193//376
f 189//377 193//376 465//355
f 188//371 460//373 461//378
f 193//376 461//378 563//379
f 189//377 194//380 190//368
f 194//380 453//382 454//381
f 466//348 467//347 194//380
f 467//347 564//351 453//382
f 199//383 200//386 196//384
f 200//386 443//359 442//354
f 439//292 438//306 200//386
f 438//306 561//308 443//359
f 195//385 196//384 201//387
f 197//388 201//387 470//389
f 196//384 442//354 441//356
f 201//387 441//356 563//379
f 197//388 202//395 198//391
f 198//391 202//395 473//392
f 197//388 469//390 468//394
f 202//395 468//394 565//396
f 195//385 198//391 203//397
f 199//383 203//397 440//398
f 472//393 471//399 203//397
f 471//399 560//294 440//398
f 204//400 208//403 209//401
f 209//401 468//394 469//390
f 208//403 475//413 474//404
f 209//401 474//404 565//396
f 205//402 210//406 206//405
f 210//406 461//378 460//373
f 469//390 470//389 210//406
f 470//389 563//379 461//378
f 204//400 206//405 211//407
f 207//408 211//407 428//409
f 206//405 460//373 459//375
f 211//407 459//375 557//411
f 207//408 212//412 208//403
f 212//412 476//415 475//413
f 427//410 426//414 212//412
f 426//414 555//426 476//415
f 213//416 217//419 218//417
f 214//418 218//417 471//399
f 217//419 448//327 447//328
f 218//417 447//328 560//294
f 214//418 219//421 215//420
f 219//421 474//404 475//413
f 472//393 473//392 219//421
f 473//392 565//396 474//404
f 213//416 215//420 220//422
f 216//423 220//422 422//424
f 215//420 475//413 476//415
f 220//422 476//415 555//426
f 216//423 221//427 217//419
f 221//427 449//315 448//327
f 421//425 420//428 221//427
f 420//428 556//316 449//315
f 222//429 226//432 227//430
f 223//431 227//430 455//369
f 226//432 505//445 506//433
f 227//430 506//433 554//370
f 223//431 228//437 224//434
f 224//434 228//437 507//435
f 223//431 454//381 453//382
f 228//437 453//382 564//351
f 222//429 224//434 229//438
f 225//439 229//438 498//440
f 224//434 508//436 509//442
f 229//438 509//442 574//443
f 225//439 230//444 226//432
f 230//444 504//447 505//445
f 499//441 500//446 230//444
f 500//446 567//513 504//447
f 231//448 235//451 236//449
f 232//450 236//449 423//320
f 235//451 511//465 512//452
f 236//449 512//452 553//453
f 232//450 237//455 233//454
f 237//455 513//457 514//456
f 424//313 425//312 237//455
f 425//312 556//316 513//457
f 231//448 233//454 238//458
f 234//459 238//458 485//460
f 233//454 514//456 515//462
f 238//458 515//462 569//463
f 234//459 239//464 235//451
f 239//464 510//467 511//465
f 484//461 483//466 239//464
f 483//466 566//574 510//467
f 244//468 245//471 241//469
f 245//471 437//324 436//319
f 517//472 518//473 245//471
f 518//473 562//325 437//324
f 240//470 241//469 246//474
f 242//475 246//474 512//452
f 241//469 436//319 435//321
f 246//474 435//321 553//453
f 242//475 247//477 243//476
f 247//477 492//479 493//478
f 511//465 510//467 247//477
f 510//467 566//574 492//479
f 240//470 243//476 248//480
f 244//468 248//480 516//481
f 243//476 493//478 494//482
f 248//480 494//482 573//483
f 249//484 253//487 254//485
f 250//486 254//485 426//414
f 253//487 520//500 521//488
f 254//485 521//488 555//426
f 250//486 255//490 251//489
f 255//490 522//492 523//491
f 427//410 428//409 255//490
f 428//409 557//411 522//492
f 249//484 251//489 256//493
f 252//494 256//493 488//495
f 251//489 523//491 524//497
f 256//493 524//497 570//498
f 252//494 257//499 253//487
f 257//499 519//502 520//500
f 487//496 486//501 257//499
f 486//501 568//557 519//502
f 258//503 262//506 263//504
f 259//505 263//504 417//374
f 262//506 523//491 522//492
f 263//504 522//492 557//411
f 259//505 264//508 260//507
f 264//508 506//433 505//445
f 418//367 419//366 264//508
f 264//508 419//366 554//370
f 258//503 260//507 265//509
f 261//510 265//509 479//511
f 260//507 505//445 504//447
f 265//509 504//447 567//513
f 261//510 266//514 262//506
f 266//514 524//497 523//491
f 478//512 477//515 266//514
f 477//515 570//498 524//497
f 271//516 272//519 268//517
f 272//519 431//342 430//338
f 526//520 527//521 272//519
f 527//521 559//343 431//342
f 267//518 268//517 273//522
f 269//523 273//522 528//524
f 430//338 429//337 273//522
f 429//337 558//339 528//524
f 269//523 274//527 270//526
f 274//527 489//530 490//528
f 529//525 530//529 274//527
f 530//529 571//546 489//530
f 267//518 270//526 275//531
f 271//516 275//531 525//532
f 270//526 490//528 491//533
f 491//533 572//570 525//532
f 280//534 281//537 277//535
f 281//537 452//303 451//297
f 529//525 528//524 281//537
f 528//524 558//339 452//303
f 276//536 277//535 282//538
f 278//539 282//538 518//473
f 277//535 451//297 450//299
f 282//538 450//299 562//325
f 278//539 283//541 279//540
f 283//541 495//543 496//542
f 517//472 516//481 283//541
f 516//481 573//483 495//543
f 276//536 279//540 284//544
f 280//534 284//544 530//529
f 279//540 496//542 497//545
f 284//544 497//545 571//546
f 285//547 289//550 290//548
f 286//549 290//548 420//428
f 289//550 514//456 513//457
f 290//548 513//457 556//316
f 286//549 291//552 287//551
f 291//552 521//488 520//500
f 421//425 422//424 291//552
f 422//424 555//426 521//488
f 285//547 287//551 292//553
f 288//554 292//553 482//555
f 287//551 520//500 519//502
f 292//553 519//502 568//557
f 288//554 293//558 289//550
f 293//558 515//462 514//456
f 481//556 480//559 293//558
f 480//559 569//463 515//462
f 298//560 299//563 295//561
f 299//563 464//350 463//361
f 508//436 507//435 299//563
f 507//435 564//351 464//350
f 294//562 295//561 300//564
f 296//565 300//564 527//521
f 295//561 463//361 462//362
f 300//564 462//362 559//343
f 296//565 301//569 297//566
f 297//566 301//569 501//567
f 526//520 525//532 301//569
f 301//569 525//532 572//570
f 297//566 302//571 298//560
f 302//571 509//442 508//436
f 502//568 503//572 302//571
f 503//572 574//443 509//442
