# Blender v2.79 (sub 0) OBJ File: 'fiat500.blend'
# www.blender.org
o Sphere.001_Sphere
v 0.690326 0.383838 0.352514
v 0.673066 0.343951 0.334460
v 0.643766 0.327914 0.324690
v 0.604576 0.338811 0.324690
v 0.583736 0.368790 0.334460
v 0.582109 0.413929 0.352514
v 0.699546 0.433985 0.301101
v 0.686864 0.419002 0.260555
v 0.660042 0.416443 0.240258
v 0.620853 0.427340 0.240258
v 0.597535 0.443841 0.260555
v 0.591328 0.464077 0.301101
v 0.712585 0.504905 0.301101
v 0.706378 0.525140 0.260555
v 0.683061 0.541641 0.240258
v 0.643871 0.552539 0.240258
v 0.617049 0.549980 0.260555
v 0.604367 0.534996 0.301101
v 0.721804 0.555052 0.352514
v 0.720177 0.596811 0.334460
v 0.699337 0.623410 0.324690
v 0.660147 0.634307 0.324690
v 0.630847 0.621651 0.334460
v 0.613587 0.585144 0.352514
v 0.721804 0.555052 0.425224
v 0.720177 0.596811 0.443278
v 0.699337 0.623410 0.453049
v 0.660147 0.634307 0.453049
v 0.630847 0.621651 0.443278
v 0.613587 0.585144 0.425224
v 0.712585 0.504905 0.476637
v 0.706378 0.525140 0.517183
v 0.683061 0.541641 0.537480
v 0.643871 0.552539 0.537480
v 0.617049 0.549980 0.517183
v 0.604367 0.534996 0.476637
v 0.699546 0.433985 0.476637
v 0.686864 0.419002 0.517183
v 0.660042 0.416443 0.537480
v 0.620853 0.427340 0.537480
v 0.597535 0.443841 0.517183
v 0.591328 0.464077 0.476637
v 0.702936 0.428184 0.371848
v 0.586239 0.460634 0.371848
v 0.707253 0.451664 0.347776
v 0.590556 0.484113 0.347776
v 0.713357 0.484868 0.347776
v 0.596660 0.517318 0.347776
v 0.717674 0.508348 0.371848
v 0.600977 0.540797 0.371848
v 0.717674 0.508348 0.405891
v 0.600977 0.540797 0.405891
v 0.713357 0.484868 0.429963
v 0.596660 0.517318 0.429963
v 0.707253 0.451664 0.429963
v 0.590556 0.484113 0.429963
v 0.702936 0.428184 0.405891
v 0.690326 0.383838 0.425224
v 0.673066 0.343951 0.443278
v 0.643766 0.327914 0.453049
v 0.604576 0.338811 0.453049
v 0.583736 0.368790 0.443278
v 0.582109 0.413929 0.425224
v 0.586239 0.460634 0.405891
v 0.672515 0.308151 0.276274
v 0.675135 0.308151 0.271735
v 0.679674 0.308151 0.269115
v 0.684914 0.308151 0.269115
v 0.689453 0.308151 0.271735
v 0.692073 0.308151 0.276274
v 0.692073 0.308151 0.281514
v 0.689453 0.308151 0.286052
v 0.684914 0.308151 0.288673
v 0.679674 0.308151 0.288673
v 0.675135 0.308151 0.286052
v 0.672515 0.308151 0.281514
v 0.672515 0.308151 0.497488
v 0.675135 0.308151 0.492950
v 0.679674 0.308151 0.490330
v 0.684914 0.308151 0.490330
v 0.689453 0.308151 0.492950
v 0.692073 0.308151 0.497488
v 0.692073 0.308151 0.502729
v 0.689453 0.308151 0.507267
v 0.684914 0.308151 0.509887
v 0.679674 0.308151 0.509887
v 0.675135 0.308151 0.507267
v 0.672515 0.308151 0.502729
v 0.580758 0.406585 0.388869
v 0.581716 0.357799 0.388869
v 0.602193 0.325846 0.388869
v 0.641382 0.314949 0.388869
v 0.671045 0.332960 0.388869
v 0.688976 0.376494 0.388869
v 0.703451 0.430597 0.388869
v 0.585764 0.433810 0.321484
v 0.589207 0.398544 0.288780
v 0.611029 0.373908 0.271492
v 0.650219 0.363011 0.271492
v 0.678536 0.373704 0.288780
v 0.693981 0.403719 0.321484
v 0.697806 0.407115 0.362759
v 0.681684 0.361675 0.342589
v 0.661438 0.332188 0.328402
v 0.623621 0.330373 0.323420
v 0.590119 0.352020 0.328402
v 0.582157 0.389350 0.342589
v 0.583500 0.438899 0.362759
v 0.597848 0.499536 0.293572
v 0.607292 0.496910 0.250807
v 0.632362 0.489939 0.230132
v 0.671551 0.479042 0.230132
v 0.696621 0.472071 0.250807
v 0.706065 0.469445 0.293572
v 0.704427 0.443131 0.325834
v 0.693421 0.425513 0.277900
v 0.676773 0.415597 0.248272
v 0.640220 0.420653 0.237318
v 0.605453 0.435428 0.248272
v 0.593894 0.453188 0.277900
v 0.590121 0.474916 0.325834
v 0.598435 0.527357 0.361574
v 0.609932 0.565263 0.321484
v 0.625377 0.594432 0.288780
v 0.653695 0.604280 0.271492
v 0.692884 0.593383 0.271492
v 0.714706 0.569593 0.288780
v 0.718149 0.535171 0.321484
v 0.713792 0.494066 0.325834
v 0.710019 0.515793 0.277900
v 0.698460 0.533553 0.248272
v 0.663693 0.548328 0.237318
v 0.627140 0.553385 0.248272
v 0.610492 0.543468 0.277900
v 0.599486 0.525850 0.325834
v 0.614937 0.592488 0.388869
v 0.632868 0.630951 0.388869
v 0.662531 0.643892 0.388869
v 0.701720 0.632995 0.388869
v 0.722198 0.606112 0.388869
v 0.723155 0.562396 0.388869
v 0.720414 0.530082 0.362759
v 0.721756 0.578786 0.342589
v 0.713795 0.611046 0.328402
v 0.680292 0.631848 0.323420
v 0.642475 0.630878 0.328402
v 0.622229 0.606461 0.342589
v 0.606108 0.561866 0.362759
v 0.609932 0.565263 0.456255
v 0.625377 0.594432 0.488958
v 0.653695 0.604280 0.506246
v 0.692884 0.593383 0.506246
v 0.714706 0.569593 0.488958
v 0.718149 0.535171 0.456255
v 0.720414 0.530082 0.414979
v 0.721756 0.578786 0.435149
v 0.713795 0.611046 0.449336
v 0.680292 0.631848 0.454318
v 0.642475 0.630878 0.449336
v 0.622229 0.606461 0.435149
v 0.606108 0.561866 0.414979
v 0.597848 0.499536 0.484167
v 0.607292 0.496910 0.526931
v 0.632362 0.489939 0.547606
v 0.671551 0.479042 0.547606
v 0.696621 0.472071 0.526931
v 0.706065 0.469445 0.484167
v 0.713792 0.494066 0.451905
v 0.710019 0.515793 0.499838
v 0.698460 0.533553 0.529466
v 0.663693 0.548328 0.540420
v 0.627140 0.553385 0.529466
v 0.610492 0.543468 0.499838
v 0.599486 0.525850 0.451905
v 0.585764 0.433810 0.456255
v 0.589207 0.398544 0.488959
v 0.611029 0.373908 0.506246
v 0.650219 0.363011 0.506246
v 0.678536 0.373704 0.488959
v 0.693981 0.403719 0.456255
v 0.704427 0.443131 0.451905
v 0.693421 0.425513 0.499838
v 0.676773 0.415597 0.529466
v 0.640220 0.420653 0.540420
v 0.605453 0.435428 0.529466
v 0.593894 0.453188 0.499838
v 0.590121 0.474916 0.451905
v 0.586618 0.463084 0.388869
v 0.588646 0.474111 0.361574
v 0.705478 0.441624 0.361574
v 0.593540 0.500734 0.350268
v 0.710373 0.468247 0.350268
v 0.715267 0.494870 0.361574
v 0.600462 0.538384 0.388869
v 0.717295 0.505898 0.388869
v 0.598435 0.527357 0.416164
v 0.715267 0.494870 0.416164
v 0.593540 0.500734 0.427470
v 0.710373 0.468247 0.427470
v 0.588646 0.474111 0.416164
v 0.705478 0.441624 0.416164
v 0.697806 0.407115 0.414979
v 0.681684 0.361675 0.435149
v 0.661438 0.332189 0.449336
v 0.623621 0.330373 0.454318
v 0.590119 0.352020 0.449336
v 0.582157 0.389350 0.435149
v 0.583500 0.438899 0.414979
v 0.672515 0.434308 0.281514
v 0.675135 0.434308 0.286052
v 0.679674 0.434308 0.288673
v 0.684914 0.434308 0.288673
v 0.689453 0.434308 0.286052
v 0.692073 0.434308 0.281514
v 0.692073 0.434308 0.276274
v 0.689453 0.434308 0.271735
v 0.684914 0.434308 0.269115
v 0.679674 0.434308 0.269115
v 0.675135 0.434308 0.271735
v 0.672515 0.434308 0.276274
v 0.672515 0.181994 0.281514
v 0.675135 0.181994 0.286052
v 0.679674 0.181994 0.288673
v 0.684914 0.181994 0.288673
v 0.689453 0.181994 0.286052
v 0.692073 0.181994 0.281514
v 0.692073 0.181994 0.276274
v 0.689453 0.181994 0.271735
v 0.684914 0.181994 0.269115
v 0.679674 0.181994 0.269115
v 0.675135 0.181994 0.271735
v 0.672515 0.181994 0.276274
v 0.673521 0.308151 0.273829
v 0.672164 0.308151 0.278894
v 0.677229 0.308151 0.270121
v 0.682294 0.308151 0.268764
v 0.687359 0.308151 0.270121
v 0.691067 0.308151 0.273829
v 0.692424 0.308151 0.278894
v 0.691067 0.308151 0.283959
v 0.687359 0.308151 0.287667
v 0.682294 0.308151 0.289024
v 0.677229 0.308151 0.287667
v 0.673521 0.308151 0.283959
v 0.672515 0.434308 0.502729
v 0.675135 0.434308 0.507267
v 0.679674 0.434308 0.509887
v 0.684914 0.434308 0.509887
v 0.689453 0.434308 0.507267
v 0.692073 0.434308 0.502729
v 0.692073 0.434308 0.497488
v 0.689453 0.434308 0.492950
v 0.684914 0.434308 0.490330
v 0.679674 0.434308 0.490330
v 0.675135 0.434308 0.492950
v 0.672515 0.434308 0.497488
v 0.672515 0.181994 0.502729
v 0.675135 0.181994 0.507267
v 0.679674 0.181994 0.509887
v 0.684914 0.181994 0.509887
v 0.689453 0.181994 0.507267
v 0.692073 0.181994 0.502729
v 0.692073 0.181994 0.497488
v 0.689453 0.181994 0.492950
v 0.684914 0.181994 0.490330
v 0.679674 0.181994 0.490330
v 0.675135 0.181994 0.492950
v 0.672515 0.181994 0.497488
v 0.673521 0.308151 0.495043
v 0.672164 0.308151 0.500108
v 0.677229 0.308151 0.491336
v 0.682294 0.308151 0.489978
v 0.687359 0.308151 0.491336
v 0.691067 0.308151 0.495043
v 0.692424 0.308151 0.500108
v 0.691067 0.308151 0.505173
v 0.687359 0.308151 0.508881
v 0.682294 0.308151 0.510238
v 0.677229 0.308151 0.508881
v 0.673521 0.308151 0.505173
v 0.582783 0.435097 0.388869
v 0.580438 0.380001 0.388869
v 0.587873 0.339805 0.388869
v 0.621191 0.317151 0.388869
v 0.659192 0.319974 0.388869
v 0.679965 0.352327 0.388869
v 0.697123 0.403303 0.388869
v 0.710678 0.468162 0.388869
v 0.586299 0.454220 0.341536
v 0.586810 0.414658 0.303277
v 0.596198 0.385087 0.278136
v 0.630202 0.366164 0.269170
v 0.667518 0.365255 0.278136
v 0.686337 0.386984 0.303277
v 0.700638 0.422426 0.341536
v 0.594787 0.500388 0.321930
v 0.602193 0.498328 0.268696
v 0.616297 0.494406 0.238441
v 0.651957 0.484491 0.226992
v 0.687616 0.474575 0.238441
v 0.701720 0.470653 0.268696
v 0.709127 0.468594 0.321930
v 0.593235 0.500819 0.388869
v 0.603275 0.546555 0.341536
v 0.617576 0.581787 0.303277
v 0.636396 0.602247 0.278136
v 0.673711 0.601127 0.269170
v 0.707715 0.582416 0.278136
v 0.717103 0.554112 0.303277
v 0.717615 0.514761 0.341536
v 0.606791 0.565678 0.388869
v 0.623948 0.615387 0.388869
v 0.644721 0.640135 0.388869
v 0.682722 0.641689 0.388869
v 0.716040 0.620303 0.388869
v 0.723475 0.587712 0.388869
v 0.721130 0.533884 0.388869
v 0.603275 0.546555 0.436202
v 0.617576 0.581787 0.474461
v 0.636396 0.602247 0.499602
v 0.673711 0.601127 0.508568
v 0.707715 0.582416 0.499602
v 0.717103 0.554112 0.474461
v 0.717615 0.514761 0.436202
v 0.594787 0.500388 0.455808
v 0.602193 0.498328 0.509042
v 0.616297 0.494406 0.539297
v 0.651957 0.484491 0.550746
v 0.687616 0.474575 0.539297
v 0.701720 0.470653 0.509042
v 0.709127 0.468594 0.455808
v 0.586299 0.454220 0.436202
v 0.586810 0.414658 0.474461
v 0.596198 0.385087 0.499602
v 0.630202 0.366164 0.508568
v 0.667518 0.365255 0.499602
v 0.686337 0.386984 0.474461
v 0.700638 0.422426 0.436202
v 0.672164 0.434308 0.278894
v 0.673521 0.434308 0.283959
v 0.677229 0.434308 0.287667
v 0.682294 0.434308 0.289024
v 0.687359 0.434308 0.287667
v 0.691067 0.434308 0.283959
v 0.692424 0.434308 0.278894
v 0.691067 0.434308 0.273829
v 0.687359 0.434308 0.270121
v 0.682294 0.434308 0.268764
v 0.677229 0.434308 0.270121
v 0.673521 0.434308 0.273829
v 0.672164 0.181994 0.278894
v 0.673521 0.181994 0.283959
v 0.677229 0.181994 0.287667
v 0.682294 0.181994 0.289024
v 0.687359 0.181994 0.287667
v 0.691067 0.181994 0.283959
v 0.692424 0.181994 0.278894
v 0.691067 0.181994 0.273829
v 0.687359 0.181994 0.270121
v 0.682294 0.181994 0.268764
v 0.677229 0.181994 0.270121
v 0.673521 0.181994 0.273829
v 0.672164 0.434308 0.500108
v 0.673521 0.434308 0.505173
v 0.677229 0.434308 0.508881
v 0.682294 0.434308 0.510238
v 0.687359 0.434308 0.508881
v 0.691067 0.434308 0.505173
v 0.692424 0.434308 0.500108
v 0.691067 0.434308 0.495043
v 0.687359 0.434308 0.491336
v 0.682294 0.434308 0.489978
v 0.677229 0.434308 0.491336
v 0.673521 0.434308 0.495043
v 0.672164 0.181994 0.500108
v 0.673521 0.181994 0.505173
v 0.677229 0.181994 0.508881
v 0.682294 0.181994 0.510238
v 0.687359 0.181994 0.508881
v 0.691067 0.181994 0.505173
v 0.692424 0.181994 0.500108
v 0.691067 0.181994 0.495043
v 0.687359 0.181994 0.491336
v 0.682294 0.181994 0.489978
v 0.677229 0.181994 0.491336
v 0.673521 0.181994 0.495043
vn 0.9647 -0.2610 -0.0337
vn 0.9456 -0.3251 0.0000
vn 0.9473 -0.3151 -0.0569
vn 0.9245 -0.3724 -0.0818
vn 0.9536 -0.2821 -0.1047
vn 0.8296 -0.5362 -0.1558
vn 0.9214 -0.3884 0.0000
vn 0.8232 -0.5677 0.0000
vn 0.5057 -0.8627 0.0000
vn 0.5192 -0.8042 -0.2893
vn 0.8435 -0.4450 -0.3007
vn 0.9326 -0.3257 -0.1554
vn 0.0769 -0.9970 0.0000
vn 0.0960 -0.9232 -0.3721
vn -0.2640 -0.9645 0.0000
vn -0.2437 -0.8900 -0.3854
vn 0.1513 -0.6975 -0.7004
vn 0.5523 -0.6289 -0.5473
vn -0.5582 -0.8297 0.0000
vn -0.5404 -0.7623 -0.3560
vn -0.8336 -0.5524 0.0000
vn -0.8219 -0.5015 -0.2702
vn -0.4822 -0.5538 -0.6788
vn -0.1805 -0.6597 -0.7295
vn -0.9781 -0.2081 0.0000
vn -0.9725 -0.1801 -0.1479
vn -0.9996 -0.0271 0.0000
vn -0.9967 -0.0121 -0.0796
vn -0.9524 -0.0997 -0.2880
vn -0.7788 -0.3487 -0.5214
vn -0.9993 0.0365 0.0000
vn -0.9974 0.0459 -0.0555
vn -0.9944 0.1005 -0.0332
vn -0.9916 0.0777 -0.1029
vn 0.9735 -0.2136 -0.0812
vn 0.9618 -0.2358 -0.1389
vn 0.9421 -0.2594 -0.2125
vn 0.9724 -0.1786 -0.1497
vn 0.8538 -0.3173 -0.4127
vn 0.5818 -0.3768 -0.7207
vn 0.8722 -0.1596 -0.4624
vn 0.2214 -0.3692 -0.9026
vn -0.0887 -0.3233 -0.9421
vn 0.2951 -0.0548 -0.9539
vn 0.6200 -0.1140 -0.7763
vn -0.3869 -0.2486 -0.8879
vn -0.6999 -0.1261 -0.7030
vn -0.2951 0.0548 -0.9539
vn 0.0000 0.0000 -1.0000
vn -0.9138 0.0170 -0.4057
vn -0.9879 0.0314 -0.1516
vn -0.9731 0.0949 -0.2096
vn -0.8722 0.1596 -0.4624
vn -0.6200 0.1140 -0.7763
vn -0.9828 0.1228 -0.1379
vn -0.9858 0.1470 -0.0807
vn -0.9724 0.1786 -0.1497
vn -0.9555 0.1760 -0.2367
vn 0.9858 -0.1470 -0.0807
vn 0.9828 -0.1228 -0.1379
vn 0.9555 -0.1760 -0.2367
vn 0.9731 -0.0949 -0.2096
vn 0.9916 -0.0780 -0.1028
vn 0.9138 -0.0164 -0.4058
vn 0.6999 0.1290 -0.7025
vn 0.9519 0.1085 -0.2866
vn 0.9879 -0.0316 -0.1514
vn 0.3878 0.2535 -0.8862
vn 0.0901 0.3292 -0.9399
vn 0.4846 0.5778 -0.6567
vn 0.7767 0.3686 -0.5107
vn -0.2199 0.3757 -0.9002
vn -0.5799 0.3824 -0.7194
vn -0.1406 0.7256 -0.6736
vn 0.1873 0.6863 -0.7027
vn -0.8530 0.3199 -0.4124
vn -0.9419 0.2599 -0.2126
vn -0.9284 0.3371 -0.1558
vn -0.8303 0.4717 -0.2969
vn -0.9619 0.2357 -0.1389
vn -0.9735 0.2136 -0.0812
vn -0.9529 0.2844 -0.1049
vn 0.9944 -0.1006 -0.0332
vn 0.9974 -0.0463 -0.0552
vn 0.9967 0.0153 -0.0790
vn 0.9994 0.0333 0.0000
vn 0.9993 -0.0368 0.0000
vn 0.9669 0.2094 -0.1458
vn 0.8046 0.5387 -0.2497
vn 0.8027 0.5964 0.0000
vn 0.9675 0.2527 0.0000
vn 0.5337 0.7855 -0.3132
vn 0.2495 0.9092 -0.3332
vn 0.2653 0.9641 0.0000
vn 0.5425 0.8400 0.0000
vn -0.0712 0.9444 -0.3211
vn -0.5336 0.6592 -0.5297
vn -0.4573 0.8498 -0.2621
vn -0.0464 0.9989 0.0000
vn -0.7802 0.6052 -0.1581
vn -0.9098 0.4056 -0.0877
vn -0.7442 0.6680 0.0000
vn -0.4115 0.9114 0.0000
vn -0.9451 0.3215 -0.0585
vn -0.9647 0.2610 -0.0337
vn -0.9423 0.3347 0.0000
vn -0.8980 0.4399 0.0000
vn 0.9944 -0.1006 0.0332
vn 0.9974 -0.0463 0.0552
vn 0.9967 0.0153 0.0790
vn 0.9916 -0.0780 0.1028
vn 0.9669 0.2094 0.1458
vn 0.8046 0.5387 0.2497
vn 0.9519 0.1085 0.2866
vn 0.9879 -0.0316 0.1514
vn 0.5337 0.7855 0.3132
vn 0.2495 0.9092 0.3332
vn 0.1873 0.6863 0.7027
vn 0.4846 0.5778 0.6567
vn 0.7767 0.3686 0.5107
vn -0.0712 0.9444 0.3211
vn -0.4573 0.8498 0.2621
vn -0.5336 0.6592 0.5297
vn -0.1406 0.7256 0.6736
vn -0.7802 0.6052 0.1581
vn -0.9098 0.4056 0.0877
vn -0.9284 0.3371 0.1558
vn -0.8303 0.4717 0.2969
vn -0.9451 0.3215 0.0585
vn -0.9647 0.2610 0.0337
vn -0.9529 0.2844 0.1049
vn 0.9858 -0.1470 0.0807
vn 0.9828 -0.1228 0.1379
vn 0.9731 -0.0949 0.2096
vn 0.9555 -0.1760 0.2367
vn 0.9724 -0.1786 0.1497
vn 0.9138 -0.0164 0.4058
vn 0.6999 0.1290 0.7025
vn 0.6200 -0.1140 0.7763
vn 0.8722 -0.1596 0.4623
vn 0.3878 0.2535 0.8862
vn 0.0901 0.3292 0.9399
vn 0.0000 0.0000 1.0000
vn 0.2951 -0.0548 0.9539
vn -0.2199 0.3757 0.9002
vn -0.5799 0.3824 0.7194
vn -0.6200 0.1140 0.7763
vn -0.2951 0.0548 0.9539
vn -0.8530 0.3199 0.4124
vn -0.9419 0.2599 0.2126
vn -0.8722 0.1596 0.4624
vn -0.9619 0.2357 0.1389
vn -0.9735 0.2136 0.0812
vn -0.9724 0.1786 0.1497
vn 0.9735 -0.2136 0.0812
vn 0.9618 -0.2358 0.1389
vn 0.9421 -0.2594 0.2125
vn 0.9536 -0.2821 0.1047
vn 0.8538 -0.3173 0.4127
vn 0.5818 -0.3768 0.7207
vn 0.8435 -0.4450 0.3007
vn 0.9326 -0.3257 0.1554
vn 0.2214 -0.3692 0.9026
vn -0.0887 -0.3233 0.9421
vn -0.1805 -0.6597 0.7295
vn 0.1513 -0.6975 0.7004
vn -0.3869 -0.2486 0.8879
vn -0.6999 -0.1261 0.7030
vn -0.7788 -0.3487 0.5214
vn -0.4822 -0.5538 0.6788
vn -0.9138 0.0170 0.4057
vn -0.9731 0.0949 0.2096
vn -0.9879 0.0314 0.1516
vn -0.9524 -0.0997 0.2880
vn -0.9828 0.1228 0.1379
vn -0.9555 0.1760 0.2367
vn -0.9858 0.1470 0.0807
vn -0.9916 0.0777 0.1029
vn 0.9800 -0.1983 -0.0177
vn 0.9786 -0.2056 0.0000
vn 0.9773 -0.2116 -0.0128
vn 0.9647 -0.2634 0.0000
vn 0.9692 -0.2389 -0.0591
vn -0.9886 0.1501 -0.0128
vn -0.9951 0.0984 0.0000
vn -0.9877 0.1561 0.0000
vn -0.9864 0.1633 -0.0176
vn -0.9908 0.1222 -0.0585
vn 0.9832 -0.1807 -0.0249
vn 0.9806 -0.1935 -0.0310
vn 0.9801 -0.1802 -0.0833
vn -0.9853 0.1680 -0.0309
vn -0.9832 0.1808 -0.0249
vn -0.9801 0.1802 -0.0833
vn 0.9864 -0.1633 -0.0176
vn 0.9853 -0.1680 -0.0309
vn 0.9908 -0.1222 -0.0585
vn -0.9806 0.1935 -0.0310
vn -0.9800 0.1983 -0.0177
vn -0.9692 0.2389 -0.0591
vn 0.9877 -0.1561 0.0000
vn 0.9886 -0.1501 -0.0128
vn 0.9951 -0.0984 0.0000
vn -0.9773 0.2116 -0.0128
vn -0.9786 0.2056 0.0000
vn -0.9647 0.2634 0.0000
vn 0.9864 -0.1633 0.0176
vn 0.9886 -0.1501 0.0128
vn 0.9908 -0.1222 0.0585
vn -0.9773 0.2116 0.0128
vn -0.9800 0.1983 0.0177
vn -0.9692 0.2389 0.0591
vn 0.9832 -0.1808 0.0249
vn 0.9853 -0.1680 0.0309
vn 0.9801 -0.1802 0.0833
vn -0.9806 0.1935 0.0310
vn -0.9832 0.1808 0.0249
vn -0.9801 0.1802 0.0833
vn 0.9800 -0.1983 0.0177
vn 0.9806 -0.1935 0.0310
vn 0.9692 -0.2389 0.0591
vn -0.9853 0.1680 0.0309
vn -0.9864 0.1633 0.0176
vn -0.9908 0.1222 0.0585
vn 0.9773 -0.2116 0.0128
vn 0.9647 -0.2610 0.0337
vn 0.9473 -0.3151 0.0569
vn 0.9245 -0.3724 0.0818
vn 0.8296 -0.5362 0.1558
vn 0.5192 -0.8042 0.2893
vn 0.0960 -0.9232 0.3721
vn 0.5523 -0.6289 0.5473
vn -0.2437 -0.8900 0.3854
vn -0.5404 -0.7623 0.3560
vn -0.8219 -0.5015 0.2702
vn -0.9725 -0.1801 0.1479
vn -0.9967 -0.0121 0.0796
vn -0.9974 0.0459 0.0555
vn -0.9944 0.1005 0.0332
vn -0.9886 0.1501 0.0128
vn 0.9835 -0.1808 0.0000
vn -0.9835 0.1808 0.0000
vn 0.8660 0.0000 0.5000
vn 0.9659 0.0000 0.2588
vn 1.0000 0.0000 0.0000
vn 0.5000 0.0000 0.8660
vn 0.7071 0.0000 0.7071
vn 0.2588 0.0000 0.9659
vn -0.5000 0.0000 0.8660
vn -0.2588 0.0000 0.9659
vn -0.8660 0.0000 0.5000
vn -0.7071 0.0000 0.7071
vn -1.0000 0.0000 0.0000
vn -0.9659 0.0000 0.2588
vn -0.8660 0.0000 -0.5000
vn -0.9659 0.0000 -0.2588
vn -0.5000 0.0000 -0.8660
vn -0.7071 0.0000 -0.7071
vn -0.2588 0.0000 -0.9659
vn 0.5000 0.0000 -0.8660
vn 0.2588 0.0000 -0.9659
vn 0.8660 0.0000 -0.5000
vn 0.7071 0.0000 -0.7071
vn 0.9659 0.0000 -0.2588
s 1
f 102//1 94//2 1//3
f 94//2 103//4 1//3
f 103//4 101//5 1//3
f 101//5 102//1 1//3
f 2//6 286//7 93//8
f 2//6 285//9 104//10
f 104//10 100//11 2//6
f 2//6 294//12 103//4
f 104//10 92//13 3//14
f 3//14 284//15 105//16
f 105//16 99//17 3//14
f 3//14 293//18 104//10
f 105//16 91//19 4//20
f 4//20 283//21 106//22
f 106//22 98//23 4//20
f 4//20 292//24 105//16
f 106//22 90//25 5//26
f 5//26 282//27 107//28
f 107//28 97//29 5//26
f 5//26 291//30 106//22
f 107//28 89//31 6//32
f 89//31 108//33 6//32
f 108//33 96//34 6//32
f 96//34 107//28 6//32
f 115//35 101//5 7//36
f 101//5 116//37 7//36
f 116//37 114//38 7//36
f 114//38 115//35 7//36
f 8//39 294//12 100//11
f 100//11 117//40 8//39
f 117//40 113//41 8//39
f 113//41 116//37 8//39
f 117//40 99//17 9//42
f 9//42 292//24 118//43
f 118//43 112//44 9//42
f 9//42 300//45 117//40
f 118//43 98//23 10//46
f 10//46 291//30 119//47
f 119//47 111//48 10//46
f 10//46 299//49 118//43
f 119//47 97//29 11//50
f 11//50 290//51 120//52
f 120//52 110//53 11//50
f 11//50 298//54 119//47
f 120//52 96//34 12//55
f 96//34 121//56 12//55
f 121//56 109//57 12//55
f 12//55 297//58 120//52
f 129//59 114//38 13//60
f 13//60 301//61 130//62
f 130//62 128//63 13//60
f 128//63 129//59 13//60
f 130//62 113//41 14//64
f 14//64 300//45 131//65
f 131//65 127//66 14//64
f 14//64 309//67 130//62
f 131//65 112//44 15//68
f 15//68 299//49 132//69
f 132//69 126//70 15//68
f 15//68 308//71 131//65
f 132//69 111//48 16//72
f 16//72 298//54 133//73
f 133//73 125//74 16//72
f 16//72 307//75 132//69
f 133//73 110//53 17//76
f 110//53 134//77 17//76
f 17//76 305//78 124//79
f 124//79 133//73 17//76
f 134//77 109//57 18//80
f 109//57 135//81 18//80
f 135//81 123//82 18//80
f 18//80 305//78 134//77
f 142//83 128//63 19//84
f 128//63 143//85 19//84
f 19//84 316//86 141//87
f 141//87 142//83 19//84
f 20//88 309//67 127//66
f 127//66 144//89 20//88
f 20//88 315//90 140//91
f 140//91 143//85 20//88
f 21//92 308//71 126//70
f 21//92 307//75 145//93
f 21//92 314//94 139//95
f 139//95 144//89 21//92
f 145//93 125//74 22//96
f 22//96 306//97 146//98
f 146//98 138//99 22//96
f 22//96 314//94 145//93
f 146//98 124//79 23//100
f 23//100 305//78 147//101
f 147//101 137//102 23//100
f 23//100 313//103 146//98
f 147//101 123//82 24//104
f 123//82 148//105 24//104
f 148//105 136//106 24//104
f 24//104 312//107 147//101
f 155//108 141//87 25//109
f 25//109 316//86 156//110
f 156//110 154//111 25//109
f 154//111 155//108 25//109
f 156//110 140//91 26//112
f 26//112 315//90 157//113
f 157//113 153//114 26//112
f 26//112 323//115 156//110
f 157//113 139//95 27//116
f 27//116 314//94 158//117
f 27//116 321//118 152//119
f 27//116 322//120 157//113
f 28//121 314//94 138//99
f 138//99 159//122 28//121
f 28//121 320//123 151//124
f 151//124 158//117 28//121
f 29//125 313//103 137//102
f 137//102 160//126 29//125
f 29//125 319//127 150//128
f 150//128 159//122 29//125
f 30//129 312//107 136//106
f 136//106 161//130 30//129
f 161//130 149//131 30//129
f 149//131 160//126 30//129
f 168//132 154//111 31//133
f 154//111 169//134 31//133
f 31//133 330//135 167//136
f 167//136 168//132 31//133
f 32//137 323//115 153//114
f 153//114 170//138 32//137
f 32//137 329//139 166//140
f 166//140 169//134 32//137
f 33//141 322//120 152//119
f 152//119 171//142 33//141
f 33//141 328//143 165//144
f 165//144 170//138 33//141
f 34//145 321//118 151//124
f 151//124 172//146 34//145
f 34//145 327//147 164//148
f 164//148 171//142 34//145
f 172//146 150//128 35//149
f 35//149 319//127 173//150
f 173//150 163//151 35//149
f 163//151 172//146 35//149
f 36//152 319//127 149//131
f 149//131 174//153 36//152
f 174//153 162//154 36//152
f 162//154 173//150 36//152
f 181//155 167//136 37//156
f 167//136 182//157 37//156
f 182//157 180//158 37//156
f 180//158 181//155 37//156
f 182//157 166//140 38//159
f 166//140 183//160 38//159
f 183//160 179//161 38//159
f 38//159 337//162 182//157
f 39//163 329//139 165//144
f 165//144 184//164 39//163
f 39//163 335//165 178//166
f 178//166 183//160 39//163
f 40//167 328//143 164//148
f 164//148 185//168 40//167
f 40//167 334//169 177//170
f 177//170 184//164 40//167
f 41//171 327//147 163//151
f 163//151 186//172 41//171
f 41//171 333//173 176//174
f 176//174 185//168 41//171
f 42//175 326//176 162//154
f 162//154 187//177 42//175
f 187//177 175//178 42//175
f 175//178 186//172 42//175
f 190//179 95//180 43//181
f 43//181 287//182 102//1
f 43//181 295//183 190//179
f 44//184 281//185 188//186
f 188//186 189//187 44//184
f 44//184 289//188 108//33
f 192//189 190//179 45//190
f 45//190 295//183 115//35
f 45//190 302//191 192//189
f 46//192 289//188 189//187
f 189//187 191//193 46//192
f 46//192 296//194 121//56
f 193//195 192//189 47//196
f 47//196 302//191 129//59
f 47//196 310//197 193//195
f 48//198 296//194 191//193
f 191//193 122//199 48//198
f 48//198 304//200 135//81
f 195//201 193//195 49//202
f 49//202 310//197 142//83
f 49//202 317//203 195//201
f 50//204 304//200 122//199
f 122//199 194//205 50//204
f 50//204 311//206 148//105
f 197//207 195//201 51//208
f 51//208 317//203 155//108
f 51//208 324//209 197//207
f 52//210 311//206 194//205
f 194//205 196//211 52//210
f 52//210 318//212 161//130
f 199//213 197//207 53//214
f 53//214 324//209 168//132
f 53//214 331//215 199//213
f 54//216 318//212 196//211
f 196//211 198//217 54//216
f 54//216 325//218 174//153
f 201//219 199//213 55//220
f 55//220 331//215 181//155
f 55//220 338//221 201//219
f 56//222 325//218 198//217
f 198//217 200//223 56//222
f 56//222 332//224 187//177
f 95//180 201//219 57//225
f 57//225 338//221 202//226
f 57//225 287//182 95//180
f 202//226 180//158 58//227
f 180//158 203//228 58//227
f 203//228 94//2 58//227
f 94//2 202//226 58//227
f 59//229 337//162 179//161
f 179//161 204//230 59//229
f 59//229 285//9 93//8
f 59//229 286//7 203//228
f 60//231 336//232 178//166
f 178//166 205//233 60//231
f 60//231 284//15 92//13
f 92//13 204//230 60//231
f 61//234 335//165 177//170
f 177//170 206//235 61//234
f 61//234 283//21 91//19
f 91//19 205//233 61//234
f 62//236 334//169 176//174
f 176//174 207//237 62//236
f 62//236 282//27 90//25
f 90//25 206//235 62//236
f 207//237 175//178 63//238
f 175//178 208//239 63//238
f 208//239 89//31 63//238
f 89//31 207//237 63//238
f 64//240 332//224 200//223
f 200//223 188//186 64//240
f 64//240 281//185 208//239
f 102//1 287//182 94//2
f 94//2 286//7 103//4
f 103//4 294//12 101//5
f 101//5 295//183 102//1
f 2//6 103//4 286//7
f 2//6 93//8 285//9
f 104//10 293//18 100//11
f 2//6 100//11 294//12
f 104//10 285//9 92//13
f 3//14 92//13 284//15
f 105//16 292//24 99//17
f 3//14 99//17 293//18
f 105//16 284//15 91//19
f 4//20 91//19 283//21
f 106//22 291//30 98//23
f 4//20 98//23 292//24
f 106//22 283//21 90//25
f 5//26 90//25 282//27
f 107//28 290//51 97//29
f 5//26 97//29 291//30
f 107//28 282//27 89//31
f 89//31 281//185 108//33
f 108//33 289//188 96//34
f 96//34 290//51 107//28
f 115//35 295//183 101//5
f 101//5 294//12 116//37
f 116//37 301//61 114//38
f 114//38 302//191 115//35
f 8//39 116//37 294//12
f 100//11 293//18 117//40
f 117//40 300//45 113//41
f 113//41 301//61 116//37
f 117//40 293//18 99//17
f 9//42 99//17 292//24
f 118//43 299//49 112//44
f 9//42 112//44 300//45
f 118//43 292//24 98//23
f 10//46 98//23 291//30
f 119//47 298//54 111//48
f 10//46 111//48 299//49
f 119//47 291//30 97//29
f 11//50 97//29 290//51
f 120//52 297//58 110//53
f 11//50 110//53 298//54
f 120//52 290//51 96//34
f 96//34 289//188 121//56
f 121//56 296//194 109//57
f 12//55 109//57 297//58
f 129//59 302//191 114//38
f 13//60 114//38 301//61
f 130//62 309//67 128//63
f 128//63 310//197 129//59
f 130//62 301//61 113//41
f 14//64 113//41 300//45
f 131//65 308//71 127//66
f 14//64 127//66 309//67
f 131//65 300//45 112//44
f 15//68 112//44 299//49
f 132//69 307//75 126//70
f 15//68 126//70 308//71
f 132//69 299//49 111//48
f 16//72 111//48 298//54
f 133//73 306//97 125//74
f 16//72 125//74 307//75
f 133//73 298//54 110//53
f 110//53 297//58 134//77
f 17//76 134//77 305//78
f 124//79 306//97 133//73
f 134//77 297//58 109//57
f 109//57 296//194 135//81
f 135//81 304//200 123//82
f 18//80 123//82 305//78
f 142//83 310//197 128//63
f 128//63 309//67 143//85
f 19//84 143//85 316//86
f 141//87 317//203 142//83
f 20//88 143//85 309//67
f 127//66 308//71 144//89
f 20//88 144//89 315//90
f 140//91 316//86 143//85
f 21//92 144//89 308//71
f 21//92 126//70 307//75
f 21//92 145//93 314//94
f 139//95 315//90 144//89
f 145//93 307//75 125//74
f 22//96 125//74 306//97
f 146//98 313//103 138//99
f 22//96 138//99 314//94
f 146//98 306//97 124//79
f 23//100 124//79 305//78
f 147//101 312//107 137//102
f 23//100 137//102 313//103
f 147//101 305//78 123//82
f 123//82 304//200 148//105
f 148//105 311//206 136//106
f 24//104 136//106 312//107
f 155//108 317//203 141//87
f 25//109 141//87 316//86
f 156//110 323//115 154//111
f 154//111 324//209 155//108
f 156//110 316//86 140//91
f 26//112 140//91 315//90
f 157//113 322//120 153//114
f 26//112 153//114 323//115
f 157//113 315//90 139//95
f 27//116 139//95 314//94
f 27//116 158//117 321//118
f 27//116 152//119 322//120
f 28//121 158//117 314//94
f 138//99 313//103 159//122
f 28//121 159//122 320//123
f 151//124 321//118 158//117
f 29//125 159//122 313//103
f 137//102 312//107 160//126
f 29//125 160//126 319//127
f 150//128 320//123 159//122
f 30//129 160//126 312//107
f 136//106 311//206 161//130
f 161//130 318//212 149//131
f 149//131 319//127 160//126
f 168//132 324//209 154//111
f 154//111 323//115 169//134
f 31//133 169//134 330//135
f 167//136 331//215 168//132
f 32//137 169//134 323//115
f 153//114 322//120 170//138
f 32//137 170//138 329//139
f 166//140 330//135 169//134
f 33//141 170//138 322//120
f 152//119 321//118 171//142
f 33//141 171//142 328//143
f 165//144 329//139 170//138
f 34//145 171//142 321//118
f 151//124 320//123 172//146
f 34//145 172//146 327//147
f 164//148 328//143 171//142
f 172//146 320//123 150//128
f 35//149 150//128 319//127
f 173//150 326//176 163//151
f 163//151 327//147 172//146
f 36//152 173//150 319//127
f 149//131 318//212 174//153
f 174//153 325//218 162//154
f 162//154 326//176 173//150
f 181//155 331//215 167//136
f 167//136 330//135 182//157
f 182//157 337//162 180//158
f 180//158 338//221 181//155
f 182//157 330//135 166//140
f 166//140 329//139 183//160
f 183//160 336//232 179//161
f 38//159 179//161 337//162
f 39//163 183//160 329//139
f 165//144 328//143 184//164
f 39//163 184//164 335//165
f 178//166 336//232 183//160
f 40//167 184//164 328//143
f 164//148 327//147 185//168
f 40//167 185//168 334//169
f 177//170 335//165 184//164
f 41//171 185//168 327//147
f 163//151 326//176 186//172
f 41//171 186//172 333//173
f 176//174 334//169 185//168
f 42//175 186//172 326//176
f 162//154 325//218 187//177
f 187//177 332//224 175//178
f 175//178 333//173 186//172
f 190//179 288//241 95//180
f 43//181 95//180 287//182
f 43//181 102//1 295//183
f 44//184 108//33 281//185
f 188//186 303//242 189//187
f 44//184 189//187 289//188
f 192//189 288//241 190//179
f 45//190 190//179 295//183
f 45//190 115//35 302//191
f 46//192 121//56 289//188
f 189//187 303//242 191//193
f 46//192 191//193 296//194
f 193//195 288//241 192//189
f 47//196 192//189 302//191
f 47//196 129//59 310//197
f 48//198 135//81 296//194
f 191//193 303//242 122//199
f 48//198 122//199 304//200
f 195//201 288//241 193//195
f 49//202 193//195 310//197
f 49//202 142//83 317//203
f 50//204 148//105 304//200
f 122//199 303//242 194//205
f 50//204 194//205 311//206
f 197//207 288//241 195//201
f 51//208 195//201 317//203
f 51//208 155//108 324//209
f 52//210 161//130 311//206
f 194//205 303//242 196//211
f 52//210 196//211 318//212
f 199//213 288//241 197//207
f 53//214 197//207 324//209
f 53//214 168//132 331//215
f 54//216 174//153 318//212
f 196//211 303//242 198//217
f 54//216 198//217 325//218
f 201//219 288//241 199//213
f 55//220 199//213 331//215
f 55//220 181//155 338//221
f 56//222 187//177 325//218
f 198//217 303//242 200//223
f 56//222 200//223 332//224
f 95//180 288//241 201//219
f 57//225 201//219 338//221
f 57//225 202//226 287//182
f 202//226 338//221 180//158
f 180//158 337//162 203//228
f 203//228 286//7 94//2
f 94//2 287//182 202//226
f 59//229 203//228 337//162
f 179//161 336//232 204//230
f 59//229 204//230 285//9
f 59//229 93//8 286//7
f 60//231 204//230 336//232
f 178//166 335//165 205//233
f 60//231 205//233 284//15
f 92//13 285//9 204//230
f 61//234 205//233 335//165
f 177//170 334//169 206//235
f 61//234 206//235 283//21
f 91//19 284//15 205//233
f 62//236 206//235 334//169
f 176//174 333//173 207//237
f 62//236 207//237 282//27
f 90//25 283//21 206//235
f 207//237 333//173 175//178
f 175//178 332//224 208//239
f 208//239 281//185 89//31
f 89//31 282//27 207//237
f 64//240 208//239 332//224
f 200//223 303//242 188//186
f 64//240 188//186 281//185
f 233//243 220//244 65//244
f 220//244 234//245 65//244
f 234//245 232//244 65//244
f 232//244 233//243 65//244
f 235//246 219//247 66//247
f 219//247 233//243 66//247
f 233//243 231//247 66//247
f 231//247 235//246 66//247
f 236//143 218//248 67//248
f 218//248 235//246 67//248
f 235//246 230//248 67//248
f 230//248 236//143 67//248
f 237//249 217//250 68//250
f 217//250 236//143 68//250
f 236//143 229//250 68//250
f 229//250 237//249 68//250
f 238//251 216//252 69//252
f 216//252 237//249 69//252
f 237//249 228//252 69//252
f 228//252 238//251 69//252
f 239//253 215//254 70//254
f 215//254 238//251 70//254
f 238//251 227//254 70//254
f 227//254 239//253 70//254
f 240//255 214//256 71//256
f 214//256 239//253 71//256
f 239//253 226//256 71//256
f 226//256 240//255 71//256
f 241//257 213//258 72//258
f 213//258 240//255 72//258
f 240//255 225//258 72//258
f 225//258 241//257 72//258
f 242//49 212//259 73//259
f 212//259 241//257 73//259
f 241//257 224//259 73//259
f 224//259 242//49 73//259
f 243//260 211//261 74//261
f 211//261 242//49 74//261
f 242//49 223//261 74//261
f 223//261 243//260 74//261
f 244//262 210//263 75//263
f 210//263 243//260 75//263
f 243//260 222//263 75//263
f 222//263 244//262 75//263
f 234//245 209//264 76//264
f 209//264 244//262 76//264
f 244//262 221//264 76//264
f 221//264 234//245 76//264
f 269//243 256//244 77//244
f 256//244 270//245 77//244
f 270//245 268//244 77//244
f 268//244 269//243 77//244
f 271//246 255//247 78//247
f 255//247 269//243 78//247
f 269//243 267//247 78//247
f 267//247 271//246 78//247
f 272//143 254//248 79//248
f 254//248 271//246 79//248
f 271//246 266//248 79//248
f 266//248 272//143 79//248
f 273//249 253//250 80//250
f 253//250 272//143 80//250
f 272//143 265//250 80//250
f 265//250 273//249 80//250
f 274//251 252//252 81//252
f 252//252 273//249 81//252
f 273//249 264//252 81//252
f 264//252 274//251 81//252
f 275//253 251//254 82//254
f 251//254 274//251 82//254
f 274//251 263//254 82//254
f 263//254 275//253 82//254
f 276//255 250//256 83//256
f 250//256 275//253 83//256
f 275//253 262//256 83//256
f 262//256 276//255 83//256
f 277//257 249//258 84//258
f 249//258 276//255 84//258
f 276//255 261//258 84//258
f 261//258 277//257 84//258
f 278//49 248//259 85//259
f 248//259 277//257 85//259
f 277//257 260//259 85//259
f 260//259 278//49 85//259
f 279//260 247//261 86//261
f 247//261 278//49 86//261
f 278//49 259//261 86//261
f 259//261 279//260 86//261
f 280//262 246//263 87//263
f 246//263 279//260 87//263
f 279//260 258//263 87//263
f 258//263 280//262 87//263
f 88//264 363//245 245//264
f 245//264 280//262 88//264
f 280//262 257//264 88//264
f 257//264 270//245 88//264
f 233//243 350//243 220//244
f 220//244 339//245 234//245
f 234//245 351//245 232//244
f 232//244 362//243 233//243
f 235//246 349//246 219//247
f 219//247 350//243 233//243
f 233//243 362//243 231//247
f 231//247 361//246 235//246
f 236//143 348//143 218//248
f 218//248 349//246 235//246
f 235//246 361//246 230//248
f 230//248 360//143 236//143
f 237//249 347//249 217//250
f 217//250 348//143 236//143
f 236//143 360//143 229//250
f 229//250 359//249 237//249
f 238//251 346//251 216//252
f 216//252 347//249 237//249
f 237//249 359//249 228//252
f 228//252 358//251 238//251
f 239//253 345//253 215//254
f 215//254 346//251 238//251
f 238//251 358//251 227//254
f 227//254 357//253 239//253
f 240//255 344//255 214//256
f 214//256 345//253 239//253
f 239//253 357//253 226//256
f 226//256 356//255 240//255
f 241//257 343//257 213//258
f 213//258 344//255 240//255
f 240//255 356//255 225//258
f 225//258 355//257 241//257
f 242//49 342//49 212//259
f 212//259 343//257 241//257
f 241//257 355//257 224//259
f 224//259 354//49 242//49
f 243//260 341//260 211//261
f 211//261 342//49 242//49
f 242//49 354//49 223//261
f 223//261 353//260 243//260
f 244//262 340//262 210//263
f 210//263 341//260 243//260
f 243//260 353//260 222//263
f 222//263 352//262 244//262
f 234//245 339//245 209//264
f 209//264 340//262 244//262
f 244//262 352//262 221//264
f 221//264 351//245 234//245
f 269//243 374//243 256//244
f 256//244 363//245 270//245
f 270//245 375//245 268//244
f 268//244 386//243 269//243
f 271//246 373//246 255//247
f 255//247 374//243 269//243
f 269//243 386//243 267//247
f 267//247 385//246 271//246
f 272//143 372//143 254//248
f 254//248 373//246 271//246
f 271//246 385//246 266//248
f 266//248 384//143 272//143
f 273//249 371//249 253//250
f 253//250 372//143 272//143
f 272//143 384//143 265//250
f 265//250 383//249 273//249
f 274//251 370//251 252//252
f 252//252 371//249 273//249
f 273//249 383//249 264//252
f 264//252 382//251 274//251
f 275//253 369//253 251//254
f 251//254 370//251 274//251
f 274//251 382//251 263//254
f 263//254 381//253 275//253
f 276//255 368//255 250//256
f 250//256 369//253 275//253
f 275//253 381//253 262//256
f 262//256 380//255 276//255
f 277//257 367//257 249//258
f 249//258 368//255 276//255
f 276//255 380//255 261//258
f 261//258 379//257 277//257
f 278//49 366//49 248//259
f 248//259 367//257 277//257
f 277//257 379//257 260//259
f 260//259 378//49 278//49
f 279//260 365//260 247//261
f 247//261 366//49 278//49
f 278//49 378//49 259//261
f 259//261 377//260 279//260
f 280//262 364//262 246//263
f 246//263 365//260 279//260
f 279//260 377//260 258//263
f 258//263 376//262 280//262
f 88//264 270//245 363//245
f 245//264 364//262 280//262
f 280//262 376//262 257//264
f 257//264 375//245 270//245
