# Blender v2.79 (sub 0) OBJ File: 'm3_interior_open.blend'
# www.blender.org
o B_Window_Plane.014
v 1.499900 0.620755 -1.014678
v 1.500537 0.620041 -1.031688
v 1.549954 0.527311 -0.992451
v 1.498616 0.623043 -1.008144
v 1.448959 0.715611 -1.037296
v 1.449342 0.715390 -1.053995
v 1.551643 0.524628 -1.009394
v 1.545115 0.536215 -0.987579
v 1.448828 0.715760 -1.030239
v 1.319860 0.973001 -1.523156
v 1.315131 0.979830 -1.452345
v 1.272308 1.060503 -1.526290
v 1.325510 0.963396 -1.597496
v 1.367298 0.885450 -1.520022
v 1.363348 0.890437 -1.446162
v 1.266795 1.069226 -1.458530
v 1.278889 1.048540 -1.598374
v 1.372023 0.878145 -1.596618
v 1.351536 0.909063 -1.854029
v 1.341408 0.931360 -1.763783
v 1.309221 0.983525 -1.855897
v 1.362346 0.884260 -1.944404
v 1.393774 0.834429 -1.852160
v 1.385332 0.852593 -1.763471
v 1.297396 1.009955 -1.764095
v 1.321916 0.954242 -1.948356
v 1.402707 0.814117 -1.940453
v 1.529447 0.580129 -2.151255
v 1.530009 0.572738 -2.217527
v 1.563239 0.523063 -2.142655
v 1.528144 0.587486 -2.081362
v 1.495597 0.637045 -2.159855
v 1.498257 0.625116 -2.226560
v 1.561703 0.520204 -2.208493
v 1.564054 0.525796 -2.073769
v 1.492176 0.649029 -2.088954
v 1.423033 0.707450 -2.425341
v 1.417074 0.730993 -2.373637
v 1.396730 0.745925 -2.432157
v 1.428635 0.685363 -2.470600
v 1.449631 0.668195 -2.419083
v 1.445234 0.688123 -2.365557
v 1.388855 0.773700 -2.381716
v 1.404466 0.719567 -2.475827
v 1.454161 0.648527 -2.467609
v 1.539772 0.514539 -2.508341
v 1.533929 0.521937 -2.513337
v 1.551280 0.497923 -2.508919
v 1.534417 0.523463 -2.501357
v 1.519997 0.542800 -2.508425
v 1.549317 0.499770 -2.513874
v 1.551243 0.499876 -2.497090
v 1.294478 1.000798 -1.105672
v 1.294872 1.000802 -1.121053
v 1.345845 0.906377 -1.082965
v 1.295427 0.998834 -1.098257
v 1.243836 1.093650 -1.128085
v 1.243147 1.095770 -1.143440
v 1.346509 0.905771 -1.098678
v 1.345621 0.906635 -1.075980
v 1.248394 1.085001 -1.119324
v 1.508461 0.622286 -1.510623
v 1.506809 0.622303 -1.427626
v 1.461599 0.710092 -1.513756
v 1.510483 0.621308 -1.593986
v 1.555209 0.534430 -1.507491
v 1.554312 0.532936 -1.421451
v 1.459187 0.711674 -1.433802
v 1.464510 0.707101 -1.594864
v 1.556349 0.535407 -1.593108
v 1.519714 0.608808 -1.846555
v 1.516224 0.614573 -1.762536
v 1.477863 0.684302 -1.848423
v 1.523114 0.602063 -1.928599
v 1.561488 0.533143 -1.844686
v 1.559620 0.534775 -1.762224
v 1.472740 0.694200 -1.762848
v 1.483092 0.673018 -1.932551
v 1.563069 0.530945 -1.924648
v 1.393469 0.806287 -2.185656
v 1.402412 0.780701 -2.253663
v 1.427608 0.750124 -2.177056
v 1.383691 0.832171 -2.111730
v 1.359273 0.862300 -2.194257
v 1.370307 0.832148 -2.262697
v 1.434458 0.729098 -2.244629
v 1.419949 0.771371 -2.104138
v 1.347375 0.892822 -2.119323
v 1.528375 0.550255 -2.396818
v 1.529116 0.557892 -2.341317
v 1.502396 0.589476 -2.404780
v 1.528325 0.542219 -2.444662
v 1.554272 0.510738 -2.389579
v 1.556917 0.514049 -2.333237
v 1.501255 0.601573 -2.349396
v 1.504383 0.576471 -2.454474
v 1.552116 0.507272 -2.437746
v 1.440774 0.642624 -2.552077
v 1.437917 0.651417 -2.536126
v 1.432760 0.650972 -2.561036
v 1.451975 0.625528 -2.557674
v 1.455917 0.626122 -2.536994
v 1.421894 0.672448 -2.540674
v 1.445830 0.629485 -2.572993
v 1.535707 0.517942 -2.518708
v 1.531794 0.523879 -2.517642
v 1.529045 0.527095 -2.520422
v 1.546285 0.502820 -2.518084
v 1.547028 0.502209 -2.516456
v 1.517408 0.544227 -2.518926
v 1.542704 0.507266 -2.520838
v 1.516782 0.540511 -2.536812
v 1.523890 0.529562 -2.539526
v 1.518560 0.539620 -2.530463
v 1.507881 0.552323 -2.540478
v 1.514013 0.541488 -2.547990
v 1.531391 0.520804 -2.531685
v 1.504881 0.559127 -2.530889
v 1.481958 0.581776 -2.566310
v 1.482424 0.578429 -2.575728
v 1.488437 0.575206 -2.557581
v 1.475133 0.591687 -2.564792
v 1.471372 0.592699 -2.579399
v 1.492844 0.566203 -2.567408
v 1.482143 0.586402 -2.548810
v 1.302600 0.993664 -1.249437
v 1.299136 0.996931 -1.192857
v 1.252171 1.086967 -1.265775
v 1.306597 0.989653 -1.314298
v 1.352921 0.900391 -1.233110
v 1.350047 0.902818 -1.173749
v 1.248126 1.091045 -1.211978
v 1.256838 1.081897 -1.327397
v 1.356242 0.897456 -1.301206
v 1.502808 0.620878 -1.184231
v 1.501781 0.620479 -1.116560
v 1.453025 0.713998 -1.200507
v 1.504027 0.621342 -1.261997
v 1.552483 0.527788 -1.167966
v 1.552093 0.526367 -1.097533
v 1.451369 0.714592 -1.135600
v 1.454957 0.713300 -1.275056
v 1.552982 0.529430 -1.248945
v -1.507044 0.620755 -1.014678
v -1.456103 0.715611 -1.037297
v -1.505761 0.623043 -1.008144
v -1.557098 0.527311 -0.992451
v -1.507681 0.620041 -1.031688
v -1.456486 0.715390 -1.053995
v -1.455973 0.715760 -1.030239
v -1.552260 0.536215 -0.987579
v -1.558788 0.524628 -1.009394
v -1.327005 0.973001 -1.523156
v -1.374442 0.885450 -1.520022
v -1.332654 0.963396 -1.597496
v -1.279452 1.060503 -1.526290
v -1.322275 0.979830 -1.452345
v -1.370492 0.890437 -1.446162
v -1.379168 0.878145 -1.596618
v -1.286033 1.048540 -1.598374
v -1.273939 1.069226 -1.458530
v -1.358681 0.909063 -1.854029
v -1.400918 0.834429 -1.852160
v -1.369490 0.884260 -1.944404
v -1.316366 0.983525 -1.855898
v -1.348552 0.931360 -1.763783
v -1.392477 0.852593 -1.763471
v -1.409852 0.814117 -1.940453
v -1.329060 0.954242 -1.948356
v -1.304540 1.009955 -1.764095
v -1.536591 0.580129 -2.151255
v -1.502741 0.637045 -2.159855
v -1.535288 0.587486 -2.081362
v -1.570384 0.523063 -2.142655
v -1.537154 0.572738 -2.217527
v -1.505401 0.625116 -2.226560
v -1.499320 0.649029 -2.088954
v -1.571198 0.525796 -2.073769
v -1.568847 0.520204 -2.208493
v -1.430178 0.707450 -2.425341
v -1.456775 0.668195 -2.419083
v -1.435779 0.685363 -2.470600
v -1.403875 0.745925 -2.432158
v -1.424219 0.730993 -2.373637
v -1.452379 0.688123 -2.365556
v -1.461305 0.648527 -2.467609
v -1.411611 0.719567 -2.475827
v -1.395999 0.773700 -2.381717
v -1.546917 0.514539 -2.508341
v -1.541561 0.523463 -2.501357
v -1.558425 0.497923 -2.508919
v -1.541074 0.521937 -2.513337
v -1.527142 0.542800 -2.508425
v -1.558388 0.499876 -2.497090
v -1.556461 0.499770 -2.513873
v -1.301622 1.000798 -1.105672
v -1.250981 1.093650 -1.128085
v -1.302572 0.998834 -1.098257
v -1.352989 0.906377 -1.082965
v -1.302017 1.000802 -1.121053
v -1.250291 1.095770 -1.143440
v -1.255539 1.085001 -1.119325
v -1.352766 0.906635 -1.075980
v -1.353654 0.905771 -1.098678
v -1.515606 0.622286 -1.510623
v -1.562353 0.534430 -1.507491
v -1.517628 0.621308 -1.593986
v -1.468743 0.710092 -1.513756
v -1.513954 0.622303 -1.427626
v -1.561457 0.532936 -1.421450
v -1.563493 0.535407 -1.593108
v -1.471654 0.707101 -1.594864
v -1.466332 0.711674 -1.433802
v -1.526858 0.608808 -1.846555
v -1.568632 0.533143 -1.844686
v -1.530259 0.602063 -1.928599
v -1.485007 0.684302 -1.848423
v -1.523369 0.614573 -1.762536
v -1.566764 0.534775 -1.762224
v -1.570214 0.530945 -1.924648
v -1.490236 0.673018 -1.932551
v -1.479885 0.694200 -1.762848
v -1.400614 0.806287 -2.185656
v -1.366417 0.862300 -2.194256
v -1.390836 0.832171 -2.111730
v -1.434752 0.750124 -2.177056
v -1.409556 0.780701 -2.253663
v -1.377451 0.832148 -2.262697
v -1.354519 0.892822 -2.119323
v -1.427094 0.771371 -2.104139
v -1.441603 0.729098 -2.244629
v -1.535520 0.550255 -2.396818
v -1.561416 0.510738 -2.389579
v -1.535469 0.542219 -2.444662
v -1.509541 0.589476 -2.404781
v -1.536260 0.557892 -2.341317
v -1.564061 0.514049 -2.333237
v -1.559261 0.507272 -2.437746
v -1.511528 0.576471 -2.454474
v -1.508399 0.601573 -2.349397
v -1.447919 0.642624 -2.552076
v -1.459119 0.625528 -2.557674
v -1.439904 0.650972 -2.561036
v -1.445062 0.651417 -2.536126
v -1.463062 0.626122 -2.536993
v -1.452975 0.629485 -2.572993
v -1.429039 0.672448 -2.540675
v -1.542851 0.517942 -2.518708
v -1.553429 0.502820 -2.518084
v -1.536190 0.527095 -2.520422
v -1.538939 0.523879 -2.517642
v -1.554172 0.502209 -2.516456
v -1.549848 0.507266 -2.520838
v -1.524552 0.544227 -2.518927
v -1.523927 0.540511 -2.536812
v -1.515026 0.552323 -2.540478
v -1.525705 0.539620 -2.530463
v -1.531034 0.529562 -2.539526
v -1.521157 0.541488 -2.547990
v -1.512025 0.559127 -2.530889
v -1.538535 0.520804 -2.531685
v -1.489102 0.581776 -2.566310
v -1.482278 0.591687 -2.564792
v -1.495582 0.575206 -2.557581
v -1.489568 0.578429 -2.575728
v -1.478516 0.592699 -2.579400
v -1.489287 0.586402 -2.548810
v -1.499988 0.566203 -2.567408
v -1.309744 0.993664 -1.249437
v -1.360066 0.900391 -1.233110
v -1.313742 0.989653 -1.314298
v -1.259315 1.086967 -1.265775
v -1.306281 0.996931 -1.192857
v -1.357191 0.902818 -1.173749
v -1.363387 0.897456 -1.301206
v -1.263983 1.081897 -1.327397
v -1.255270 1.091045 -1.211978
v -1.509952 0.620878 -1.184231
v -1.559627 0.527788 -1.167966
v -1.511171 0.621342 -1.261997
v -1.460170 0.713998 -1.200507
v -1.508925 0.620479 -1.116560
v -1.559238 0.526367 -1.097533
v -1.560127 0.529430 -1.248946
v -1.462101 0.713300 -1.275056
v -1.458513 0.714592 -1.135601
v 1.602972 0.454891 -1.761913
v 1.603223 0.457391 -1.842817
v 1.602990 0.459747 -1.920697
v 1.593367 0.467593 -2.199459
v 1.597002 0.465921 -2.134054
v 1.599935 0.464031 -2.066177
v 1.584688 0.470125 -2.325157
v 1.580128 0.471073 -2.382703
v 1.575833 0.471978 -2.432279
v 1.565431 0.476952 -2.512221
v 1.567114 0.475511 -2.506901
v 1.569273 0.474163 -2.494225
v 1.503188 0.554422 -2.557232
v 1.497472 0.565262 -2.547481
v 1.492144 0.575872 -2.535995
v 1.562685 0.479879 -2.515321
v 1.560706 0.482152 -2.517399
v 1.557373 0.486089 -2.520715
v 1.601755 0.443571 -1.415276
v 1.601899 0.446548 -1.504359
v 1.602160 0.449451 -1.592231
v 1.338172 0.883519 -2.271731
v 1.325047 0.918237 -2.202857
v 1.311029 0.953400 -2.126915
v 1.380976 0.752455 -2.482172
v 1.370575 0.784011 -2.439254
v 1.360605 0.816326 -2.389797
v 1.253340 1.088464 -1.764406
v 1.266868 1.057901 -1.857766
v 1.281452 1.024142 -1.952307
v 1.207021 1.174165 -1.340499
v 1.201688 1.180286 -1.282118
v 1.197066 1.185158 -1.231105
v 1.406860 0.691345 -2.547930
v 1.422424 0.662471 -2.570410
v 1.438584 0.635717 -2.585631
v 1.602706 0.429183 -0.987106
v 1.599564 0.434572 -0.970420
v 1.589970 0.452332 -0.967779
v 1.191377 1.190705 -1.165835
v 1.193557 1.185717 -1.150352
v 1.202941 1.168152 -1.139787
v 1.347836 0.904642 -1.127485
v 1.296472 0.999346 -1.148685
v 1.245014 1.094016 -1.169901
v 1.345619 0.906720 -1.073360
v 1.297049 0.995890 -1.094825
v 1.254886 1.073088 -1.113860
v 1.377907 0.867526 -1.677315
v 1.332540 0.949891 -1.677121
v 1.287074 1.032102 -1.676927
v 1.411608 0.792736 -2.025422
v 1.373257 0.858210 -2.031457
v 1.334845 0.923531 -2.037491
v 1.440375 0.708396 -2.307311
v 1.410340 0.755555 -2.316180
v 1.380245 0.802554 -2.325048
v 1.456899 0.633157 -2.507967
v 1.433667 0.666196 -2.507999
v 1.412656 0.694962 -2.512181
v 1.547262 0.502253 -2.515279
v 1.530252 0.526543 -2.516010
v 1.512742 0.551762 -2.515284
v 1.521709 0.528638 -2.554462
v 1.533493 0.514648 -2.543454
v 1.543797 0.502334 -2.533731
v 1.450103 0.715062 -1.085156
v 1.501005 0.620187 -1.064029
v 1.551814 0.525276 -1.042917
v 1.448824 0.715873 -1.028002
v 1.497009 0.626118 -1.006848
v 1.538703 0.548231 -0.988742
v 1.468148 0.702028 -1.677702
v 1.513022 0.618895 -1.677896
v 1.557797 0.535608 -1.678090
v 1.488004 0.661032 -2.013353
v 1.526050 0.594801 -2.007319
v 1.564035 0.528418 -2.001284
v 1.500146 0.613280 -2.289573
v 1.529882 0.565322 -2.280705
v 1.559558 0.517205 -2.271836
v 1.509491 0.561324 -2.491386
v 1.529995 0.533412 -2.480843
v 1.550943 0.503651 -2.474622
v 1.398014 0.810644 -1.076323
v 1.397488 0.811083 -1.060120
v 1.397310 0.811309 -1.053104
v 1.411387 0.801051 -1.439981
v 1.414563 0.797821 -1.516888
v 1.418374 0.792731 -1.595741
v 1.429124 0.773568 -1.763160
v 1.435896 0.759538 -1.850292
v 1.442967 0.743729 -1.936502
v 1.466416 0.677262 -2.235595
v 1.461660 0.693735 -2.168455
v 1.456120 0.710348 -2.096546
v 1.473305 0.645010 -2.357477
v 1.476195 0.628692 -2.412519
v 1.479819 0.611438 -2.463388
v 1.459302 0.609542 -2.578471
v 1.464882 0.606629 -2.561848
v 1.471967 0.602478 -2.541735
v 1.537376 0.513833 -2.525208
v 1.522556 0.535472 -2.524187
v 1.507295 0.557796 -2.522585
v 1.496306 0.558295 -2.577764
v 1.483098 0.574029 -2.587479
v 1.469234 0.591574 -2.593320
v 1.601880 0.437543 -1.235897
v 1.602104 0.434714 -1.151706
v 1.602356 0.432254 -1.078512
v 1.218399 1.158625 -1.464715
v 1.224697 1.147978 -1.529424
v 1.232214 1.133628 -1.599252
v 1.405714 0.805331 -1.288124
v 1.403081 0.807164 -1.216798
v 1.400807 0.808705 -1.154661
v 1.261817 1.075946 -1.392947
v 1.310863 0.985005 -1.383311
v 1.359790 0.894107 -1.373677
v 1.457049 0.712519 -1.354428
v 1.505380 0.621830 -1.344811
v 1.553592 0.531183 -1.335198
v -1.610116 0.454891 -1.761913
v -1.610367 0.457391 -1.842817
v -1.610135 0.459747 -1.920697
v -1.600512 0.467593 -2.199459
v -1.604147 0.465921 -2.134054
v -1.607079 0.464031 -2.066177
v -1.591832 0.470125 -2.325157
v -1.587272 0.471073 -2.382703
v -1.582977 0.471978 -2.432279
v -1.572576 0.476952 -2.512221
v -1.574258 0.475511 -2.506901
v -1.576417 0.474163 -2.494225
v -1.510332 0.554422 -2.557232
v -1.504616 0.565262 -2.547481
v -1.499289 0.575872 -2.535995
v -1.569829 0.479879 -2.515321
v -1.567850 0.482152 -2.517399
v -1.564517 0.486089 -2.520715
v -1.608900 0.443571 -1.415276
v -1.609044 0.446548 -1.504359
v -1.609304 0.449451 -1.592231
v -1.345317 0.883519 -2.271731
v -1.332192 0.918237 -2.202857
v -1.318174 0.953400 -2.126915
v -1.388121 0.752455 -2.482172
v -1.377719 0.784011 -2.439254
v -1.367749 0.816326 -2.389797
v -1.260484 1.088464 -1.764406
v -1.274012 1.057901 -1.857766
v -1.288597 1.024142 -1.952307
v -1.214166 1.174165 -1.340499
v -1.208833 1.180286 -1.282118
v -1.204211 1.185158 -1.231105
v -1.414004 0.691345 -2.547930
v -1.429569 0.662471 -2.570410
v -1.445729 0.635717 -2.585631
v -1.609850 0.429183 -0.987106
v -1.606708 0.434572 -0.970420
v -1.597114 0.452332 -0.967779
v -1.198522 1.190705 -1.165835
v -1.200702 1.185717 -1.150352
v -1.210086 1.168152 -1.139787
v -1.354981 0.904642 -1.127485
v -1.303616 0.999346 -1.148685
v -1.252159 1.094016 -1.169901
v -1.352763 0.906720 -1.073360
v -1.304193 0.995890 -1.094825
v -1.262031 1.073088 -1.113860
v -1.385051 0.867526 -1.677315
v -1.339684 0.949891 -1.677121
v -1.294218 1.032102 -1.676927
v -1.418752 0.792736 -2.025422
v -1.380401 0.858210 -2.031457
v -1.341990 0.923531 -2.037491
v -1.447520 0.708396 -2.307311
v -1.417485 0.755555 -2.316180
v -1.387389 0.802553 -2.325048
v -1.464043 0.633157 -2.507967
v -1.440811 0.666196 -2.507999
v -1.419801 0.694962 -2.512181
v -1.554407 0.502253 -2.515279
v -1.537396 0.526543 -2.516010
v -1.519886 0.551762 -2.515284
v -1.528854 0.528638 -2.554462
v -1.540637 0.514648 -2.543454
v -1.550942 0.502334 -2.533731
v -1.457247 0.715062 -1.085157
v -1.508149 0.620187 -1.064030
v -1.558958 0.525276 -1.042917
v -1.455969 0.715873 -1.028002
v -1.504154 0.626118 -1.006848
v -1.545847 0.548231 -0.988742
v -1.475293 0.702028 -1.677702
v -1.520166 0.618895 -1.677896
v -1.564941 0.535608 -1.678090
v -1.495148 0.661032 -2.013354
v -1.533194 0.594801 -2.007319
v -1.571179 0.528418 -2.001284
v -1.507291 0.613280 -2.289573
v -1.537027 0.565322 -2.280705
v -1.566702 0.517205 -2.271836
v -1.516636 0.561324 -2.491386
v -1.537140 0.533412 -2.480843
v -1.558087 0.503651 -2.474622
v -1.405158 0.810644 -1.076323
v -1.404632 0.811083 -1.060120
v -1.404455 0.811309 -1.053104
v -1.418531 0.801051 -1.439981
v -1.421708 0.797821 -1.516888
v -1.425519 0.792731 -1.595741
v -1.436269 0.773568 -1.763160
v -1.443040 0.759538 -1.850292
v -1.450112 0.743729 -1.936502
v -1.473561 0.677262 -2.235595
v -1.468804 0.693735 -2.168455
v -1.463265 0.710348 -2.096546
v -1.480449 0.645010 -2.357477
v -1.483339 0.628692 -2.412519
v -1.486964 0.611438 -2.463388
v -1.466447 0.609542 -2.578471
v -1.472026 0.606629 -2.561848
v -1.479112 0.602478 -2.541735
v -1.544520 0.513833 -2.525208
v -1.529701 0.535472 -2.524187
v -1.514439 0.557796 -2.522585
v -1.503451 0.558295 -2.577764
v -1.490243 0.574029 -2.587479
v -1.476379 0.591574 -2.593320
v -1.609024 0.437543 -1.235897
v -1.609248 0.434714 -1.151706
v -1.609500 0.432254 -1.078512
v -1.225543 1.158625 -1.464715
v -1.231842 1.147978 -1.529424
v -1.239358 1.133628 -1.599252
v -1.412859 0.805331 -1.288124
v -1.410225 0.807164 -1.216798
v -1.407952 0.808705 -1.154661
v -1.268961 1.075946 -1.392947
v -1.318007 0.985005 -1.383311
v -1.366935 0.894107 -1.373677
v -1.464193 0.712519 -1.354428
v -1.512524 0.621830 -1.344811
v -1.560736 0.531183 -1.335198
v 1.570743 0.488280 -0.975211
v 1.602523 0.452245 -1.678283
v 1.601989 0.461959 -1.995250
v 1.572112 0.472966 -2.470561
v 1.589204 0.469007 -2.262967
v 1.454476 0.611835 -2.593349
v 1.551974 0.492535 -2.525937
v 1.564023 0.478427 -2.513818
v 1.602576 0.430349 -1.021813
v 1.296403 0.988777 -2.043525
v 1.350120 0.849472 -2.333917
v 1.392756 0.721590 -2.518436
v 1.193511 1.188669 -1.191123
v 1.241558 1.114237 -1.676733
v 1.222421 1.132460 -1.129253
v 1.509097 0.543467 -2.566113
v 1.399062 0.809887 -1.106306
v 1.397307 0.811430 -1.050681
v 1.423126 0.784930 -1.677508
v 1.449867 0.727036 -2.019388
v 1.470321 0.660998 -2.298442
v 1.486902 0.588809 -2.514683
v 1.601744 0.440557 -1.325587
v 1.212710 1.166908 -1.402586
v 1.408539 0.803271 -1.364049
v -1.577887 0.488280 -0.975211
v -1.609667 0.452245 -1.678283
v -1.609134 0.461959 -1.995250
v -1.579256 0.472966 -2.470561
v -1.596348 0.469007 -2.262967
v -1.461620 0.611835 -2.593349
v -1.559119 0.492535 -2.525937
v -1.571167 0.478427 -2.513818
v -1.609721 0.430349 -1.021813
v -1.303547 0.988777 -2.043525
v -1.357264 0.849472 -2.333917
v -1.399900 0.721590 -2.518436
v -1.200655 1.188669 -1.191123
v -1.248703 1.114237 -1.676733
v -1.229565 1.132460 -1.129253
v -1.516242 0.543467 -2.566113
v -1.406207 0.809887 -1.106306
v -1.404452 0.811430 -1.050681
v -1.430271 0.784930 -1.677508
v -1.457011 0.727036 -2.019388
v -1.477465 0.660998 -2.298442
v -1.494047 0.588809 -2.514683
v -1.608888 0.440557 -1.325587
v -1.219855 1.166908 -1.402586
v -1.415683 0.803271 -1.364049
vn -0.8796 -0.4756 -0.0100
vn -0.8798 -0.4750 -0.0139
vn -0.8802 -0.4744 -0.0100
vn -0.8791 -0.4763 -0.0151
vn -0.8799 -0.4749 -0.0152
vn -0.8785 -0.4775 -0.0112
vn -0.8780 -0.4782 -0.0170
vn -0.8792 -0.4762 -0.0170
vn -0.8803 -0.4742 -0.0131
vn -0.8805 -0.4738 -0.0111
vn -0.8804 -0.4740 -0.0126
vn -0.8804 -0.4740 -0.0137
vn -0.8805 -0.4738 -0.0127
vn -0.8804 -0.4740 -0.0127
vn -0.8816 -0.4721 -0.0018
vn -0.8819 -0.4714 0.0052
vn -0.8826 -0.4700 0.0113
vn -0.8828 -0.4693 0.0188
vn -0.8805 -0.4738 -0.0118
vn -0.8814 -0.4723 -0.0040
vn -0.8814 -0.4723 0.0079
vn -0.8803 -0.4742 0.0076
vn -0.8816 -0.4714 0.0222
vn -0.8786 -0.4774 -0.0086
vn -0.8798 -0.4751 -0.0168
vn -0.8792 -0.4761 -0.0155
vn -0.8797 -0.4751 -0.0202
vn -0.8791 -0.4761 -0.0205
vn -0.8793 -0.4761 -0.0116
vn -0.8806 -0.4736 -0.0178
vn -0.8783 -0.4781 -0.0051
vn -0.8789 -0.4767 -0.0138
vn -0.8786 -0.4775 -0.0029
vn -0.8789 -0.4765 -0.0206
vn -0.8791 -0.4765 -0.0126
vn -0.8768 -0.4807 0.0047
vn -0.8773 -0.4798 -0.0001
vn -0.8747 -0.4844 0.0150
vn -0.8754 -0.4833 0.0094
vn -0.8773 -0.4798 0.0074
vn -0.8752 -0.4834 0.0177
vn -0.8782 -0.4782 -0.0046
vn -0.8802 -0.4743 -0.0139
vn -0.8764 -0.4815 0.0039
vn -0.8794 -0.4759 -0.0085
vn -0.8698 -0.4925 0.0276
vn -0.8739 -0.4859 0.0127
vn -0.8728 -0.4877 0.0189
vn -0.8710 -0.4908 0.0212
vn -0.8755 -0.4832 0.0064
vn -0.8778 -0.4789 -0.0013
vn -0.8691 -0.4935 0.0336
vn -0.8721 -0.4888 0.0247
vn -0.8696 -0.4924 0.0360
vn -0.8726 -0.4877 0.0273
vn -0.8659 -0.4983 0.0425
vn -0.8666 -0.4975 0.0366
vn -0.8627 -0.5029 0.0524
vn -0.8634 -0.5024 0.0464
vn -0.8665 -0.4972 0.0447
vn -0.8633 -0.5017 0.0544
vn -0.8677 -0.4960 0.0301
vn -0.8725 -0.4884 0.0145
vn -0.8644 -0.5011 0.0399
vn -0.8692 -0.4938 0.0232
vn -0.8605 -0.5070 0.0495
vn -0.8585 -0.5098 0.0554
vn -0.8615 -0.5059 0.0422
vn -0.8563 -0.5125 0.0641
vn -0.8540 -0.5159 0.0678
vn -0.8556 -0.5126 0.0726
vn -0.8505 -0.5182 0.0898
vn -0.8513 -0.5188 0.0789
vn -0.8590 -0.5097 0.0475
vn -0.8625 -0.5048 0.0361
vn -0.8603 -0.5082 0.0414
vn -0.8635 -0.5034 0.0304
vn -0.8546 -0.5160 0.0580
vn -0.8561 -0.5142 0.0508
vn -0.8642 -0.5021 0.0309
vn -0.8655 -0.5003 0.0240
vn -0.8678 -0.4966 0.0180
vn -0.8665 -0.4988 0.0184
vn -0.8681 -0.4963 0.0107
vn -0.8641 -0.5018 0.0375
vn -0.8594 -0.5080 0.0576
vn -0.8673 -0.4971 0.0259
vn -0.8627 -0.5037 0.0445
vn -0.8286 -0.5379 0.1549
vn -0.8408 -0.5276 0.1209
vn -0.8387 -0.5273 0.1357
vn -0.8484 -0.5196 0.1013
vn -0.8467 -0.5199 0.1129
vn -0.8310 -0.5391 0.1372
vn -0.8434 -0.5265 0.1064
vn -0.8271 -0.5353 0.1712
vn -0.8372 -0.5259 0.1501
vn -0.8290 -0.5305 0.1767
vn -0.8455 -0.5192 0.1243
vn -0.8389 -0.5219 0.1544
vn -0.8165 -0.5468 0.1852
vn -0.8172 -0.5509 0.1693
vn -0.8078 -0.5591 0.1869
vn -0.8073 -0.5634 0.1755
vn -0.8187 -0.5415 0.1913
vn -0.8096 -0.5540 0.1938
vn -0.8195 -0.5527 0.1509
vn -0.8343 -0.5380 0.1199
vn -0.8079 -0.5673 0.1592
vn -0.8235 -0.5520 0.1306
vn -0.8173 -0.5676 0.0991
vn -0.8134 -0.5679 0.1257
vn -0.8162 -0.5684 0.1038
vn -0.8154 -0.5679 0.1124
vn -0.8113 -0.5672 0.1417
vn -0.8206 -0.5628 0.0991
vn -0.8179 -0.5641 0.1131
vn -0.8127 -0.5687 0.1264
vn -0.8118 -0.5629 0.1549
vn -0.8163 -0.5686 0.1015
vn -0.8150 -0.5652 0.1273
vn -0.8186 -0.5672 0.0906
vn -0.8078 -0.5607 0.1818
vn -0.8077 -0.5563 0.1952
vn -0.8185 -0.5677 0.0873
vn -0.8241 -0.5602 0.0843
vn -0.8223 -0.5639 0.0771
vn -0.8749 -0.4835 -0.0248
vn -0.8758 -0.4820 -0.0239
vn -0.8761 -0.4818 -0.0189
vn -0.8749 -0.4835 -0.0286
vn -0.8761 -0.4814 -0.0258
vn -0.8742 -0.4845 -0.0322
vn -0.8744 -0.4840 -0.0337
vn -0.8753 -0.4827 -0.0301
vn -0.8769 -0.4803 -0.0200
vn -0.8773 -0.4798 -0.0144
vn -0.8771 -0.4798 -0.0222
vn -0.8781 -0.4780 -0.0193
vn -0.8774 -0.4797 -0.0052
vn -0.8789 -0.4770 0.0020
vn -0.8787 -0.4772 0.0059
vn -0.8800 -0.4746 0.0145
vn -0.8760 -0.4820 -0.0144
vn -0.8744 -0.4844 -0.0284
vn -0.8773 -0.4798 -0.0037
vn -0.8757 -0.4825 -0.0155
vn -0.8825 -0.4700 -0.0174
vn -0.8821 -0.4707 -0.0178
vn -0.8820 -0.4709 -0.0166
vn -0.8824 -0.4700 -0.0172
vn -0.8817 -0.4714 -0.0176
vn -0.8827 -0.4696 -0.0176
vn -0.8825 -0.4700 -0.0167
vn -0.8821 -0.4707 -0.0164
vn -0.8815 -0.4719 -0.0180
vn -0.8813 -0.4722 -0.0154
vn -0.8812 -0.4724 -0.0187
vn -0.8804 -0.4737 -0.0196
vn -0.8806 -0.4736 -0.0116
vn -0.8814 -0.4721 -0.0141
vn -0.8792 -0.4763 -0.0062
vn -0.8802 -0.4744 -0.0107
vn -0.8818 -0.4712 -0.0164
vn -0.8824 -0.4702 -0.0183
vn -0.8814 -0.4720 -0.0186
vn -0.8750 -0.4841 0.0003
vn -0.8778 -0.4788 -0.0123
vn -0.8780 -0.4787 -0.0060
vn -0.8803 -0.4742 -0.0152
vn -0.8765 -0.4812 -0.0131
vn -0.8746 -0.4847 -0.0071
vn -0.8794 -0.4758 -0.0173
vn -0.8740 -0.4859 0.0074
vn -0.8769 -0.4806 0.0002
vn -0.8707 -0.4916 0.0159
vn -0.8716 -0.4901 0.0084
vn -0.8659 -0.4991 0.0330
vn -0.8731 -0.4874 -0.0056
vn -0.8711 -0.4911 0.0007
vn -0.8697 -0.4936 0.0056
vn -0.8566 -0.5108 0.0727
vn -0.8515 -0.5148 0.0994
vn -0.8524 -0.5150 0.0907
vn -0.8559 -0.5109 0.0799
vn -0.8525 -0.5128 0.1014
vn -0.8469 -0.5163 0.1269
vn -0.8578 -0.5098 0.0652
vn -0.8537 -0.5143 0.0816
vn -0.8612 -0.5056 0.0515
vn -0.8601 -0.5067 0.0582
vn -0.8595 -0.5071 0.0645
vn -0.8566 -0.5094 0.0817
vn -0.8601 -0.5058 0.0663
vn -0.8408 -0.5363 0.0737
vn -0.8476 -0.5246 0.0790
vn -0.8396 -0.5361 0.0880
vn -0.8484 -0.5250 0.0669
vn -0.8431 -0.5339 0.0642
vn -0.8503 -0.5229 0.0585
vn -0.8442 -0.5279 0.0929
vn -0.8354 -0.5397 0.1045
vn -0.8294 -0.5501 0.0972
vn -0.8264 -0.5513 0.1145
vn -0.8109 -0.5680 0.1403
vn -0.8324 -0.5485 0.0790
vn -0.8352 -0.5456 0.0686
vn -0.8277 -0.5564 0.0722
vn -0.7978 -0.5776 0.1727
vn -0.7994 -0.5769 0.1675
vn -0.8012 -0.5723 0.1749
vn -0.7980 -0.5797 0.1647
vn -0.7968 -0.5802 0.1686
vn -0.8023 -0.5752 0.1595
vn -0.7982 -0.5767 0.1737
vn -0.8023 -0.5690 0.1803
vn -0.7996 -0.5744 0.1751
vn -0.8038 -0.5656 0.1843
vn -0.7958 -0.5813 0.1694
vn -0.7962 -0.5813 0.1675
vn -0.7961 -0.5809 0.1696
vn -0.7957 -0.5818 0.1685
vn -0.8124 -0.5628 0.1523
vn -0.8107 -0.5600 0.1707
vn -0.8119 -0.5634 0.1528
vn -0.8123 -0.5615 0.1579
vn -0.8126 -0.5619 0.1547
vn -0.8101 -0.5589 0.1771
vn -0.8124 -0.5639 0.1483
vn -0.8119 -0.5666 0.1404
vn -0.8126 -0.5644 0.1447
vn -0.8109 -0.5679 0.1411
vn -0.8133 -0.5627 0.1477
vn -0.8133 -0.5625 0.1489
vn -0.8134 -0.5631 0.1457
vn -0.8136 -0.5627 0.1464
vn -0.8116 -0.5647 0.1496
vn -0.8106 -0.5647 0.1549
vn -0.8122 -0.5635 0.1506
vn -0.8113 -0.5637 0.1548
vn -0.8128 -0.5628 0.1502
vn -0.8100 -0.5664 0.1516
vn -0.8080 -0.5671 0.1594
vn -0.8088 -0.5659 0.1600
vn -0.8122 -0.5649 0.1459
vn -0.8131 -0.5632 0.1469
vn -0.8135 -0.5627 0.1467
vn -0.8094 -0.5685 0.1466
vn -0.8071 -0.5696 0.1555
vn -0.8059 -0.5724 0.1511
vn -0.8014 -0.5753 0.1635
vn -0.7984 -0.5782 0.1676
vn -0.8016 -0.5741 0.1668
vn -0.8017 -0.5734 0.1686
vn -0.7996 -0.5779 0.1633
vn -0.7981 -0.5782 0.1692
vn -0.8050 -0.5701 0.1639
vn -0.8037 -0.5731 0.1602
vn -0.8054 -0.5691 0.1652
vn -0.8022 -0.5759 0.1569
vn -0.8784 -0.4773 -0.0227
vn -0.8768 -0.4801 -0.0263
vn -0.8777 -0.4785 -0.0253
vn -0.8776 -0.4787 -0.0230
vn -0.8793 -0.4758 -0.0203
vn -0.8786 -0.4771 -0.0202
vn -0.8761 -0.4812 -0.0301
vn -0.8771 -0.4794 -0.0284
vn -0.8759 -0.4812 -0.0339
vn -0.8771 -0.4793 -0.0313
vn -0.8749 -0.4830 -0.0346
vn -0.8786 -0.4770 -0.0235
vn -0.8782 -0.4776 -0.0255
vn -0.8787 -0.4769 -0.0207
vn -0.8792 -0.4760 -0.0218
vn -0.8799 -0.4746 -0.0201
vn -0.8812 -0.4725 -0.0147
vn -0.8802 -0.4742 -0.0159
vn -0.8807 -0.4733 -0.0164
vn -0.8807 -0.4734 -0.0141
vn -0.8812 -0.4725 -0.0135
vn -0.8808 -0.4733 -0.0129
vn -0.8795 -0.4754 -0.0178
vn -0.8801 -0.4744 -0.0183
vn -0.8813 -0.4723 -0.0169
vn -0.8807 -0.4733 -0.0185
vn -0.8816 -0.4716 -0.0154
vn -0.8816 -0.4716 -0.0143
vn -0.8821 -0.4707 -0.0154
vn 0.8798 -0.4750 -0.0139
vn 0.8796 -0.4756 -0.0100
vn 0.8802 -0.4744 -0.0100
vn 0.8791 -0.4763 -0.0151
vn 0.8785 -0.4775 -0.0112
vn 0.8799 -0.4749 -0.0152
vn 0.8792 -0.4762 -0.0170
vn 0.8780 -0.4782 -0.0170
vn 0.8814 -0.4723 0.0079
vn 0.8819 -0.4714 0.0052
vn 0.8828 -0.4693 0.0188
vn 0.8804 -0.4742 0.0076
vn 0.8816 -0.4713 0.0222
vn 0.8826 -0.4695 0.0221
vn 0.8816 -0.4721 -0.0018
vn 0.8805 -0.4738 -0.0111
vn 0.8805 -0.4738 -0.0118
vn 0.8804 -0.4740 -0.0126
vn 0.8826 -0.4700 0.0113
vn 0.8814 -0.4723 -0.0040
vn 0.8803 -0.4742 -0.0131
vn 0.8804 -0.4740 -0.0137
vn 0.8805 -0.4738 -0.0127
vn 0.8786 -0.4774 -0.0086
vn 0.8798 -0.4751 -0.0168
vn 0.8793 -0.4761 -0.0116
vn 0.8806 -0.4736 -0.0178
vn 0.8802 -0.4743 -0.0139
vn 0.8792 -0.4761 -0.0155
vn 0.8797 -0.4751 -0.0202
vn 0.8773 -0.4798 -0.0001
vn 0.8782 -0.4782 -0.0046
vn 0.8754 -0.4833 0.0094
vn 0.8794 -0.4759 -0.0085
vn 0.8764 -0.4815 0.0039
vn 0.8768 -0.4807 0.0047
vn 0.8783 -0.4781 -0.0051
vn 0.8773 -0.4798 0.0074
vn 0.8786 -0.4775 -0.0029
vn 0.8747 -0.4844 0.0150
vn 0.8752 -0.4834 0.0177
vn 0.8789 -0.4767 -0.0138
vn 0.8791 -0.4761 -0.0205
vn 0.8791 -0.4765 -0.0126
vn 0.8789 -0.4765 -0.0206
vn 0.8698 -0.4925 0.0276
vn 0.8739 -0.4859 0.0127
vn 0.8710 -0.4908 0.0212
vn 0.8755 -0.4832 0.0064
vn 0.8725 -0.4884 0.0145
vn 0.8728 -0.4877 0.0189
vn 0.8778 -0.4789 -0.0013
vn 0.8666 -0.4975 0.0366
vn 0.8677 -0.4960 0.0301
vn 0.8634 -0.5024 0.0464
vn 0.8692 -0.4938 0.0232
vn 0.8644 -0.5011 0.0399
vn 0.8659 -0.4983 0.0425
vn 0.8691 -0.4935 0.0336
vn 0.8665 -0.4972 0.0447
vn 0.8696 -0.4924 0.0360
vn 0.8627 -0.5029 0.0524
vn 0.8633 -0.5017 0.0544
vn 0.8721 -0.4888 0.0247
vn 0.8726 -0.4877 0.0273
vn 0.8585 -0.5098 0.0554
vn 0.8605 -0.5070 0.0495
vn 0.8615 -0.5059 0.0422
vn 0.8556 -0.5126 0.0726
vn 0.8594 -0.5080 0.0576
vn 0.8540 -0.5159 0.0678
vn 0.8563 -0.5125 0.0641
vn 0.8505 -0.5182 0.0898
vn 0.8642 -0.5021 0.0309
vn 0.8641 -0.5018 0.0375
vn 0.8678 -0.4966 0.0180
vn 0.8627 -0.5037 0.0445
vn 0.8673 -0.4971 0.0259
vn 0.8625 -0.5048 0.0361
vn 0.8655 -0.5003 0.0240
vn 0.8635 -0.5034 0.0304
vn 0.8681 -0.4963 0.0107
vn 0.8665 -0.4988 0.0184
vn 0.8590 -0.5097 0.0475
vn 0.8546 -0.5160 0.0580
vn 0.8603 -0.5082 0.0414
vn 0.8561 -0.5142 0.0508
vn 0.8286 -0.5379 0.1549
vn 0.8408 -0.5276 0.1209
vn 0.8310 -0.5391 0.1372
vn 0.8434 -0.5265 0.1064
vn 0.8343 -0.5380 0.1199
vn 0.8387 -0.5273 0.1357
vn 0.8484 -0.5196 0.1013
vn 0.8172 -0.5509 0.1693
vn 0.8195 -0.5527 0.1509
vn 0.8073 -0.5634 0.1755
vn 0.8235 -0.5520 0.1306
vn 0.8079 -0.5673 0.1592
vn 0.8165 -0.5468 0.1852
vn 0.8271 -0.5353 0.1712
vn 0.8187 -0.5415 0.1913
vn 0.8290 -0.5305 0.1767
vn 0.8078 -0.5591 0.1868
vn 0.8096 -0.5540 0.1938
vn 0.8372 -0.5259 0.1501
vn 0.8467 -0.5199 0.1129
vn 0.8389 -0.5219 0.1544
vn 0.8455 -0.5192 0.1243
vn 0.8134 -0.5679 0.1257
vn 0.8173 -0.5676 0.0991
vn 0.8162 -0.5684 0.1038
vn 0.8154 -0.5679 0.1124
vn 0.8206 -0.5628 0.0991
vn 0.8113 -0.5672 0.1417
vn 0.8127 -0.5687 0.1264
vn 0.8179 -0.5641 0.1131
vn 0.8185 -0.5677 0.0873
vn 0.8163 -0.5686 0.1015
vn 0.8186 -0.5672 0.0906
vn 0.8241 -0.5602 0.0843
vn 0.8223 -0.5639 0.0771
vn 0.8119 -0.5629 0.1549
vn 0.8078 -0.5607 0.1818
vn 0.8150 -0.5652 0.1273
vn 0.8077 -0.5563 0.1952
vn 0.8758 -0.4820 -0.0239
vn 0.8749 -0.4835 -0.0248
vn 0.8761 -0.4818 -0.0189
vn 0.8749 -0.4835 -0.0286
vn 0.8742 -0.4845 -0.0322
vn 0.8761 -0.4814 -0.0258
vn 0.8753 -0.4827 -0.0301
vn 0.8744 -0.4840 -0.0337
vn 0.8760 -0.4820 -0.0145
vn 0.8774 -0.4797 -0.0052
vn 0.8773 -0.4798 -0.0037
vn 0.8787 -0.4772 0.0058
vn 0.8744 -0.4844 -0.0284
vn 0.8757 -0.4825 -0.0155
vn 0.8773 -0.4798 -0.0144
vn 0.8789 -0.4770 0.0020
vn 0.8800 -0.4747 0.0145
vn 0.8769 -0.4803 -0.0200
vn 0.8771 -0.4798 -0.0222
vn 0.8781 -0.4780 -0.0193
vn 0.8821 -0.4707 -0.0178
vn 0.8825 -0.4700 -0.0174
vn 0.8820 -0.4709 -0.0166
vn 0.8824 -0.4700 -0.0172
vn 0.8827 -0.4696 -0.0176
vn 0.8817 -0.4714 -0.0176
vn 0.8821 -0.4707 -0.0164
vn 0.8825 -0.4700 -0.0167
vn 0.8818 -0.4712 -0.0164
vn 0.8814 -0.4721 -0.0141
vn 0.8802 -0.4745 -0.0107
vn 0.8824 -0.4702 -0.0183
vn 0.8814 -0.4720 -0.0186
vn 0.8803 -0.4742 -0.0152
vn 0.8806 -0.4736 -0.0116
vn 0.8813 -0.4722 -0.0154
vn 0.8792 -0.4763 -0.0062
vn 0.8815 -0.4719 -0.0180
vn 0.8812 -0.4724 -0.0187
vn 0.8804 -0.4737 -0.0196
vn 0.8750 -0.4841 0.0003
vn 0.8778 -0.4788 -0.0123
vn 0.8746 -0.4847 -0.0071
vn 0.8765 -0.4812 -0.0131
vn 0.8780 -0.4787 -0.0060
vn 0.8794 -0.4758 -0.0173
vn 0.8716 -0.4901 0.0084
vn 0.8711 -0.4911 0.0007
vn 0.8731 -0.4874 -0.0056
vn 0.8697 -0.4936 0.0056
vn 0.8707 -0.4916 0.0159
vn 0.8740 -0.4859 0.0074
vn 0.8659 -0.4991 0.0330
vn 0.8769 -0.4806 0.0002
vn 0.8566 -0.5108 0.0727
vn 0.8515 -0.5148 0.0994
vn 0.8559 -0.5109 0.0799
vn 0.8525 -0.5128 0.1014
vn 0.8566 -0.5094 0.0817
vn 0.8524 -0.5150 0.0907
vn 0.8469 -0.5163 0.1269
vn 0.8601 -0.5067 0.0582
vn 0.8595 -0.5071 0.0645
vn 0.8601 -0.5058 0.0663
vn 0.8612 -0.5056 0.0515
vn 0.8578 -0.5098 0.0652
vn 0.8537 -0.5143 0.0816
vn 0.8476 -0.5246 0.0790
vn 0.8408 -0.5363 0.0737
vn 0.8395 -0.5361 0.0880
vn 0.8484 -0.5250 0.0669
vn 0.8431 -0.5339 0.0642
vn 0.8503 -0.5229 0.0585
vn 0.8324 -0.5485 0.0790
vn 0.8294 -0.5501 0.0972
vn 0.8352 -0.5456 0.0686
vn 0.8277 -0.5564 0.0722
vn 0.8353 -0.5397 0.1045
vn 0.8264 -0.5513 0.1145
vn 0.8109 -0.5680 0.1403
vn 0.8442 -0.5279 0.0929
vn 0.8513 -0.5188 0.0789
vn 0.7978 -0.5776 0.1727
vn 0.7994 -0.5769 0.1675
vn 0.7968 -0.5802 0.1686
vn 0.7980 -0.5797 0.1646
vn 0.8012 -0.5723 0.1749
vn 0.8023 -0.5752 0.1595
vn 0.7958 -0.5813 0.1694
vn 0.7982 -0.5767 0.1737
vn 0.7961 -0.5809 0.1696
vn 0.7996 -0.5744 0.1751
vn 0.7962 -0.5813 0.1675
vn 0.7957 -0.5818 0.1685
vn 0.8023 -0.5690 0.1803
vn 0.8038 -0.5656 0.1843
vn 0.8124 -0.5628 0.1523
vn 0.8107 -0.5600 0.1708
vn 0.8126 -0.5619 0.1547
vn 0.8123 -0.5615 0.1579
vn 0.8119 -0.5634 0.1528
vn 0.8101 -0.5589 0.1771
vn 0.8133 -0.5627 0.1477
vn 0.8124 -0.5639 0.1483
vn 0.8134 -0.5631 0.1457
vn 0.8126 -0.5644 0.1448
vn 0.8133 -0.5625 0.1489
vn 0.8136 -0.5627 0.1464
vn 0.8119 -0.5666 0.1404
vn 0.8109 -0.5679 0.1411
vn 0.8116 -0.5647 0.1496
vn 0.8106 -0.5647 0.1549
vn 0.8100 -0.5664 0.1516
vn 0.8080 -0.5671 0.1594
vn 0.8071 -0.5696 0.1555
vn 0.8122 -0.5635 0.1505
vn 0.8113 -0.5638 0.1548
vn 0.8088 -0.5659 0.1600
vn 0.8122 -0.5649 0.1459
vn 0.8094 -0.5685 0.1466
vn 0.8059 -0.5724 0.1511
vn 0.8131 -0.5632 0.1469
vn 0.8128 -0.5628 0.1502
vn 0.8135 -0.5627 0.1467
vn 0.8014 -0.5753 0.1635
vn 0.7984 -0.5782 0.1676
vn 0.7996 -0.5779 0.1633
vn 0.8017 -0.5734 0.1686
vn 0.8016 -0.5741 0.1668
vn 0.7981 -0.5782 0.1693
vn 0.8022 -0.5759 0.1569
vn 0.8037 -0.5730 0.1602
vn 0.8050 -0.5701 0.1639
vn 0.8054 -0.5691 0.1652
vn 0.8768 -0.4801 -0.0263
vn 0.8784 -0.4773 -0.0227
vn 0.8777 -0.4785 -0.0253
vn 0.8776 -0.4787 -0.0230
vn 0.8793 -0.4758 -0.0203
vn 0.8786 -0.4771 -0.0202
vn 0.8792 -0.4760 -0.0218
vn 0.8786 -0.4770 -0.0235
vn 0.8799 -0.4746 -0.0201
vn 0.8771 -0.4794 -0.0284
vn 0.8782 -0.4776 -0.0255
vn 0.8771 -0.4793 -0.0313
vn 0.8787 -0.4769 -0.0207
vn 0.8780 -0.4779 -0.0273
vn 0.8761 -0.4812 -0.0301
vn 0.8759 -0.4812 -0.0339
vn 0.8749 -0.4830 -0.0346
vn 0.8802 -0.4742 -0.0159
vn 0.8812 -0.4725 -0.0147
vn 0.8807 -0.4733 -0.0164
vn 0.8807 -0.4734 -0.0141
vn 0.8812 -0.4725 -0.0135
vn 0.8808 -0.4733 -0.0129
vn 0.8816 -0.4716 -0.0154
vn 0.8813 -0.4723 -0.0169
vn 0.8816 -0.4716 -0.0143
vn 0.8821 -0.4707 -0.0154
vn 0.8801 -0.4744 -0.0183
vn 0.8807 -0.4733 -0.0185
vn 0.8795 -0.4754 -0.0178
vn -0.8826 -0.4695 0.0221
vn -0.8780 -0.4779 -0.0273
vn 0.8804 -0.4740 -0.0127
s 1
f 5//1 2//2 1//3
f 6//4 354//5 2//2
f 372//6 6//4 5//1
f 371//7 353//8 6//4
f 1//3 7//9 3//10
f 7//9 324//11 3//10
f 2//2 355//12 7//9
f 7//9 541//13 323//14
f 1//3 8//15 4//16
f 4//16 358//17 357//18
f 3//10 325//19 8//15
f 8//15 533//20 358//17
f 1//3 9//21 5//1
f 5//1 373//22 372//6
f 357//18 9//21 4//16
f 9//21 550//23 373//22
f 10//24 15//25 11//26
f 11//26 406//27 405//28
f 14//29 374//30 15//25
f 374//30 406//27 15//25
f 11//26 12//31 10//24
f 16//32 399//33 12//31
f 405//28 16//32 11//26
f 404//34 398//35 16//32
f 10//24 17//36 13//37
f 13//37 337//38 336//39
f 12//31 400//40 17//36
f 17//36 546//41 337//38
f 13//37 14//29 10//24
f 18//42 375//43 14//29
f 336//39 18//42 13//37
f 335//44 376//45 18//42
f 19//46 24//47 20//48
f 20//48 335//44 336//39
f 23//49 377//50 24//47
f 24//47 551//51 335//44
f 20//48 21//52 19//46
f 25//53 315//54 21//52
f 336//39 25//53 20//48
f 337//38 314//55 25//53
f 19//46 26//56 22//57
f 22//57 340//58 339//59
f 21//52 316//60 26//56
f 26//56 542//61 340//58
f 22//57 23//49 19//46
f 27//62 378//63 23//49
f 339//59 27//62 22//57
f 338//64 379//65 27//62
f 32//66 29//67 28//68
f 33//69 366//70 29//67
f 32//66 380//71 33//69
f 33//69 553//72 365//73
f 28//68 34//74 30//75
f 30//75 290//76 291//77
f 29//67 367//78 34//74
f 34//74 537//79 290//76
f 30//75 31//80 28//68
f 35//81 363//82 31//80
f 291//77 35//81 30//75
f 292//83 364//84 35//81
f 31//80 32//66 28//68
f 36//85 381//86 32//66
f 363//82 36//85 31//80
f 362//87 382//88 36//85
f 37//89 42//90 38//91
f 38//91 341//92 342//93
f 41//94 383//95 42//90
f 42//90 553//72 341//92
f 38//91 39//96 37//89
f 43//97 312//98 39//96
f 342//93 43//97 38//91
f 343//99 313//100 43//97
f 37//89 44//101 40//102
f 40//102 346//103 345//104
f 39//96 311//105 44//101
f 44//101 544//106 346//103
f 40//102 41//94 37//89
f 45//107 384//108 41//94
f 345//104 45//107 40//102
f 344//109 385//110 45//107
f 49//111 47//112 46//113
f 50//114 348//115 47//112
f 369//116 50//114 49//111
f 368//117 349//118 50//114
f 46//113 51//119 48//120
f 48//120 296//121 297//122
f 47//112 347//123 51//119
f 51//119 540//124 296//121
f 46//113 52//125 49//111
f 49//111 370//126 369//116
f 297//122 52//125 48//120
f 298//127 370//126 52//125
f 57//128 54//129 53//130
f 58//131 330//132 54//129
f 327//133 58//131 57//128
f 326//134 331//135 58//131
f 53//130 59//136 55//137
f 55//137 371//7 372//6
f 54//129 329//138 59//136
f 59//136 549//139 371//7
f 55//137 56//140 53//130
f 60//141 333//142 56//140
f 372//6 60//141 55//137
f 373//22 332//143 60//141
f 53//130 61//144 57//128
f 57//128 328//145 327//133
f 56//140 334//146 61//144
f 61//144 547//147 328//145
f 66//148 63//149 62//150
f 67//151 408//152 63//149
f 306//153 67//151 66//148
f 305//154 409//155 67//151
f 62//150 68//156 64//157
f 64//157 374//30 375//43
f 63//149 407//158 68//156
f 68//156 557//159 374//30
f 62//150 69//160 65//161
f 65//161 359//162 360//163
f 64//157 376//45 69//160
f 69//160 551//51 359//162
f 62//150 70//164 66//148
f 66//148 307//165 306//153
f 360//163 70//164 65//161
f 70//164 534//166 307//165
f 71//167 76//168 72//169
f 72//169 361//170 360//163
f 288//171 76//168 75//172
f 287//173 361//170 76//168
f 72//169 73//174 71//167
f 77//175 378//63 73//174
f 360//163 77//175 72//169
f 359//162 377//50 77//175
f 71//167 78//176 74//177
f 74//177 362//87 363//82
f 73//174 379//65 78//176
f 78//176 552//178 362//87
f 74//177 75//172 71//167
f 75//172 289//179 288//171
f 363//82 79//180 74//177
f 79//180 535//181 289//179
f 80//182 85//183 81//184
f 81//184 343//99 342//93
f 84//185 308//186 85//183
f 85//183 543//187 343//99
f 81//184 82//188 80//182
f 86//189 381//86 82//188
f 342//93 86//189 81//184
f 341//92 380//71 86//189
f 80//182 87//190 83//191
f 83//191 338//64 339//59
f 82//188 382//88 87//190
f 87//190 552//178 338//64
f 83//191 84//185 80//182
f 88//192 309//193 84//185
f 339//59 88//192 83//191
f 340//58 310//194 88//192
f 93//195 90//196 89//197
f 94//198 366//70 90//196
f 294//199 94//198 93//195
f 293//200 367//78 94//198
f 89//197 95//201 91//202
f 95//201 384//108 91//202
f 90//196 365//73 95//201
f 365//73 383//95 95//201
f 91//202 92//203 89//197
f 92//203 368//117 369//116
f 91//202 385//110 96//204
f 96//204 554//205 368//117
f 89//197 97//206 93//195
f 93//195 295//207 294//199
f 92//203 370//126 97//206
f 97//206 536//208 295//207
f 98//209 102//210 99//211
f 99//211 344//109 345//104
f 387//212 102//210 101//213
f 388//214 344//109 102//210
f 99//211 100//215 98//209
f 103//216 321//217 100//215
f 345//104 103//216 99//211
f 346//103 320//218 103//216
f 98//209 104//219 101//213
f 101//213 386//220 387//212
f 100//215 322//221 104//219
f 104//219 538//222 386//220
f 105//223 109//224 106//225
f 106//225 347//123 348//115
f 303//226 109//224 108//227
f 302//228 347//123 109//224
f 106//225 107//229 105//223
f 110//230 390//231 107//229
f 348//115 110//230 106//225
f 349//118 391//232 110//230
f 105//223 111//233 108//227
f 108//227 304//234 303//226
f 107//229 389//235 111//233
f 111//233 539//236 304//234
f 112//237 116//238 113//239
f 113//239 350//240 351//241
f 115//242 299//243 116//238
f 116//238 548//244 350//240
f 113//239 114//245 112//237
f 117//246 390//231 114//245
f 351//241 117//246 113//239
f 352//247 389//235 117//246
f 114//245 115//242 112//237
f 118//248 300//249 115//242
f 114//245 391//232 118//248
f 391//232 301//250 118//248
f 119//251 123//252 120//253
f 123//252 393//254 120//253
f 387//212 123//252 122//255
f 386//220 394//256 123//252
f 119//251 124//257 121//258
f 124//257 300//249 121//258
f 393//254 124//257 120//253
f 392//259 299//243 124//257
f 119//251 125//260 122//255
f 122//255 388//214 387//212
f 121//258 301//250 125//260
f 125//260 554//205 388//214
f 130//261 127//262 126//263
f 131//264 330//132 127//262
f 402//265 131//264 130//261
f 403//266 329//138 131//264
f 126//263 132//267 128//268
f 128//268 319//269 318//270
f 127//262 331//135 132//267
f 132//267 545//271 319//269
f 128//268 129//272 126//263
f 133//273 405//28 129//272
f 318//270 133//273 128//268
f 133//273 556//274 404//34
f 126//263 134//275 130//261
f 130//261 401//276 402//265
f 129//272 406//27 134//275
f 134//275 557//159 401//276
f 139//277 136//278 135//279
f 140//280 354//5 136//278
f 396//281 140//280 139//277
f 397//282 355//12 140//280
f 135//279 141//283 137//284
f 137//284 403//266 402//265
f 136//278 353//8 141//283
f 141//283 549//139 403//266
f 137//284 138//285 135//279
f 142//286 408//152 138//285
f 402//265 142//286 137//284
f 401//276 407//158 142//286
f 135//279 143//287 139//277
f 139//277 395//288 396//281
f 138//285 409//155 143//287
f 143//287 555//289 395//288
f 148//290 145//291 144//292
f 149//293 495//294 145//291
f 477//295 149//293 148//290
f 476//296 494//297 149//293
f 144//292 150//298 146//299
f 150//298 480//300 146//299
f 145//291 496//301 150//298
f 150//298 575//302 479//303
f 144//292 151//304 147//305
f 147//305 448//306 447//307
f 146//299 481//308 151//304
f 151//304 558//309 448//306
f 144//292 152//310 148//290
f 148//290 478//311 477//295
f 447//307 152//310 147//305
f 152//310 566//312 478//311
f 153//313 158//314 154//315
f 154//315 497//316 498//317
f 157//318 529//319 158//314
f 529//319 497//316 158//314
f 154//315 155//320 153//313
f 159//321 459//322 155//320
f 498//317 159//321 154//315
f 499//323 458//324 159//321
f 153//313 160//325 156//326
f 156//326 523//327 522//328
f 155//320 460//329 160//325
f 160//325 571//330 523//327
f 156//326 157//318 153//313
f 161//331 528//332 157//318
f 522//328 161//331 156//326
f 521//333 527//334 161//331
f 162//335 167//336 163//337
f 163//337 500//338 501//339
f 166//340 458//324 167//336
f 167//336 576//341 500//338
f 163//337 164//342 162//335
f 168//343 462//344 164//342
f 501//339 168//343 163//337
f 502//345 461//346 168//343
f 162//335 169//347 165//348
f 165//348 439//349 438//350
f 164//342 463//351 169//347
f 169//347 567//352 439//349
f 165//348 166//340 162//335
f 170//353 459//322 166//340
f 438//350 170//353 165//348
f 437//354 460//329 170//353
f 175//355 172//356 171//357
f 172//356 503//358 504//359
f 489//360 176//361 175//355
f 176//361 578//362 503//358
f 172//356 173//363 171//357
f 177//364 486//365 173//363
f 504//359 177//364 172//356
f 505//366 485//367 177//364
f 173//363 174//368 171//357
f 178//369 414//370 174//368
f 486//365 178//369 173//363
f 487//371 415//372 178//369
f 171//357 179//373 175//355
f 175//355 490//374 489//360
f 174//368 413//375 179//373
f 179//373 562//376 490//374
f 180//377 185//378 181//379
f 181//379 506//380 507//381
f 184//382 464//383 185//378
f 185//378 578//362 506//380
f 181//379 182//384 180//377
f 186//385 468//386 182//384
f 507//381 186//385 181//379
f 508//387 467//388 186//385
f 180//377 187//389 183//390
f 183//390 434//391 435//392
f 182//384 469//393 187//389
f 187//389 569//394 434//391
f 183//390 184//382 180//377
f 188//395 465//396 184//382
f 435//392 188//395 183//390
f 436//397 466//398 188//395
f 192//399 190//400 189//401
f 193//402 492//403 190//400
f 471//404 193//402 192//399
f 472//405 491//406 193//402
f 189//401 194//407 191//408
f 194//407 420//409 191//408
f 190//400 493//410 194//407
f 493//410 421//411 194//407
f 189//401 195//412 192//399
f 192//399 470//413 471//404
f 191//408 419//414 195//412
f 195//412 565//415 470//413
f 200//416 197//417 196//418
f 201//419 450//420 197//417
f 453//421 201//419 200//416
f 454//422 449//423 201//419
f 196//418 202//424 198//425
f 198//425 457//426 456//427
f 197//417 451//428 202//424
f 202//424 572//429 457//426
f 198//425 199//430 196//418
f 203//431 495//294 199//430
f 456//427 203//431 198//425
f 455//432 496//301 203//431
f 196//418 204//433 200//416
f 200//416 452//434 453//421
f 199//430 494//297 204//433
f 204//433 574//435 452//434
f 209//436 206//437 205//438
f 210//439 429//440 206//437
f 531//441 210//439 209//436
f 532//442 428//443 210//439
f 205//438 211//444 207//445
f 211//444 483//446 207//445
f 206//437 430//447 211//444
f 211//444 559//448 484//449
f 205//438 212//450 208//451
f 208//451 499//323 498//317
f 207//445 482//452 212//450
f 212//450 576//341 499//323
f 205//438 213//453 209//436
f 209//436 530//454 531//441
f 208//451 497//316 213//453
f 213//453 582//455 530//454
f 214//456 219//457 215//458
f 219//457 411//459 215//458
f 218//460 484//449 219//457
f 484//449 410//461 219//457
f 215//458 216//462 214//456
f 220//463 486//365 216//462
f 215//458 412//464 220//463
f 220//463 560//465 487//371
f 214//456 221//466 217//467
f 217//467 502//345 501//339
f 216//462 485//367 221//466
f 221//466 577//468 502//345
f 217//467 218//460 214//456
f 222//469 483//446 218//460
f 501//339 222//469 217//467
f 500//338 482//452 222//469
f 223//470 228//471 224//472
f 224//472 431//473 432//474
f 227//475 466//398 228//471
f 228//471 568//476 431//473
f 224//472 225//477 223//470
f 229//478 462//344 225//477
f 432//474 229//478 224//472
f 433//479 463//351 229//478
f 223//470 230//480 226//481
f 226//481 505//366 504//359
f 225//477 461//346 230//480
f 230//480 577//468 505//366
f 226//481 227//475 223//470
f 231//482 465//396 227//475
f 504//359 231//482 226//481
f 503//358 464//383 231//482
f 236//483 233//484 232//485
f 237//486 417//487 233//484
f 489//360 237//486 236//483
f 490//374 416//488 237//486
f 232//485 238//489 234//490
f 234//490 493//410 492//403
f 233//484 418//491 238//489
f 238//489 561//492 493//410
f 234//490 235//493 232//485
f 235//493 508//387 507//381
f 234//490 491//406 239//494
f 239//494 579//495 508//387
f 232//485 240//496 236//483
f 236//483 488//497 489//360
f 507//381 240//496 235//493
f 506//380 488//497 240//496
f 241//498 245//499 242//500
f 245//499 510//501 242//500
f 244//502 467//388 245//499
f 467//388 511//503 245//499
f 241//498 246//504 243//505
f 243//505 445//506 444//507
f 242//500 509//508 246//504
f 246//504 563//509 445//506
f 243//505 244//502 241//498
f 247//510 468//386 244//502
f 444//507 247//510 243//505
f 443//511 469//393 247//510
f 248//512 252//513 249//514
f 252//513 426//515 249//514
f 251//516 470//413 252//513
f 470//413 425//517 252//513
f 248//512 253//518 250//519
f 250//519 512//520 513//521
f 249//514 427//522 253//518
f 253//518 564//523 512//520
f 250//519 251//516 248//512
f 254//524 471//404 251//516
f 513//521 254//524 250//519
f 514//525 472//405 254//524
f 255//526 259//527 256//528
f 256//528 422//529 423//530
f 258//531 473//532 259//527
f 259//527 573//533 422//529
f 256//528 257//534 255//526
f 257//534 514//525 513//521
f 423//530 260//535 256//528
f 424//536 514//525 260//535
f 257//534 258//531 255//526
f 261//537 474//538 258//531
f 513//521 261//537 257//534
f 512//520 475//539 261//537
f 262//540 266//541 263//542
f 266//541 510//501 263//542
f 516//543 266//541 265//544
f 517//545 509//508 266//541
f 262//540 267//546 264//547
f 264//547 424//536 423//530
f 263//542 511//503 267//546
f 267//546 579//495 424//536
f 262//540 268//548 265//544
f 268//548 516//543 265//544
f 423//530 268//548 264//547
f 422//529 515//549 268//548
f 273//550 270//551 269//552
f 274//553 525//554 270//551
f 453//421 274//553 273//550
f 452//434 526//555 274//553
f 269//552 275//556 271//557
f 271//557 529//319 528//332
f 270//551 524//558 275//556
f 275//556 582//455 529//319
f 271//557 272//559 269//552
f 276//560 441//561 272//559
f 528//332 276//560 271//557
f 276//560 581//562 440//563
f 269//552 277//564 273//550
f 273//550 454//422 453//421
f 272//559 442//565 277//564
f 277//564 570//566 454//422
f 282//567 279//568 278//569
f 283//570 519//571 279//568
f 477//295 283//570 282//567
f 478//311 520//572 283//570
f 278//569 284//573 280//574
f 280//574 532//442 531//441
f 279//568 518//575 284//573
f 284//573 580//576 532//442
f 280//574 281//577 278//569
f 285//578 525//554 281//577
f 531//441 285//578 280//574
f 530//454 524//558 285//578
f 278//569 286//579 282//567
f 282//567 476//296 477//295
f 281//577 526//555 286//579
f 286//579 574//435 476//296
f 5//1 6//4 2//2
f 6//4 353//8 354//5
f 372//6 371//7 6//4
f 371//7 549//139 353//8
f 1//3 2//2 7//9
f 7//9 323//14 324//11
f 2//2 354//5 355//12
f 7//9 355//12 541//13
f 1//3 3//10 8//15
f 4//16 8//15 358//17
f 3//10 324//11 325//19
f 8//15 325//19 533//20
f 1//3 4//16 9//21
f 5//1 9//21 373//22
f 357//18 356//580 9//21
f 9//21 356//580 550//23
f 10//24 14//29 15//25
f 11//26 15//25 406//27
f 14//29 375//43 374//30
f 374//30 557//159 406//27
f 11//26 16//32 12//31
f 16//32 398//35 399//33
f 405//28 404//34 16//32
f 404//34 556//274 398//35
f 10//24 12//31 17//36
f 13//37 17//36 337//38
f 12//31 399//33 400//40
f 17//36 400//40 546//41
f 13//37 18//42 14//29
f 18//42 376//45 375//43
f 336//39 335//44 18//42
f 335//44 551//51 376//45
f 19//46 23//49 24//47
f 20//48 24//47 335//44
f 23//49 378//63 377//50
f 24//47 377//50 551//51
f 20//48 25//53 21//52
f 25//53 314//55 315//54
f 336//39 337//38 25//53
f 337//38 546//41 314//55
f 19//46 21//52 26//56
f 22//57 26//56 340//58
f 21//52 315//54 316//60
f 26//56 316//60 542//61
f 22//57 27//62 23//49
f 27//62 379//65 378//63
f 339//59 338//64 27//62
f 338//64 552//178 379//65
f 32//66 33//69 29//67
f 33//69 365//73 366//70
f 32//66 381//86 380//71
f 33//69 380//71 553//72
f 28//68 29//67 34//74
f 30//75 34//74 290//76
f 29//67 366//70 367//78
f 34//74 367//78 537//79
f 30//75 35//81 31//80
f 35//81 364//84 363//82
f 291//77 292//83 35//81
f 292//83 535//181 364//84
f 31//80 36//85 32//66
f 36//85 382//88 381//86
f 363//82 362//87 36//85
f 362//87 552//178 382//88
f 37//89 41//94 42//90
f 38//91 42//90 341//92
f 41//94 384//108 383//95
f 42//90 383//95 553//72
f 38//91 43//97 39//96
f 43//97 313//100 312//98
f 342//93 343//99 43//97
f 343//99 543//187 313//100
f 37//89 39//96 44//101
f 40//102 44//101 346//103
f 39//96 312//98 311//105
f 44//101 311//105 544//106
f 40//102 45//107 41//94
f 45//107 385//110 384//108
f 345//104 344//109 45//107
f 344//109 554//205 385//110
f 49//111 50//114 47//112
f 50//114 349//118 348//115
f 369//116 368//117 50//114
f 368//117 554//205 349//118
f 46//113 47//112 51//119
f 48//120 51//119 296//121
f 47//112 348//115 347//123
f 51//119 347//123 540//124
f 46//113 48//120 52//125
f 49//111 52//125 370//126
f 297//122 298//127 52//125
f 298//127 536//208 370//126
f 57//128 58//131 54//129
f 58//131 331//135 330//132
f 327//133 326//134 58//131
f 326//134 545//271 331//135
f 53//130 54//129 59//136
f 55//137 59//136 371//7
f 54//129 330//132 329//138
f 59//136 329//138 549//139
f 55//137 60//141 56//140
f 60//141 332//143 333//142
f 372//6 373//22 60//141
f 373//22 550//23 332//143
f 53//130 56//140 61//144
f 57//128 61//144 328//145
f 56//140 333//142 334//146
f 61//144 334//146 547//147
f 66//148 67//151 63//149
f 67//151 409//155 408//152
f 306//153 305//154 67//151
f 305//154 555//289 409//155
f 62//150 63//149 68//156
f 64//157 68//156 374//30
f 63//149 408//152 407//158
f 68//156 407//158 557//159
f 62//150 64//157 69//160
f 65//161 69//160 359//162
f 64//157 375//43 376//45
f 69//160 376//45 551//51
f 62//150 65//161 70//164
f 66//148 70//164 307//165
f 360//163 361//170 70//164
f 70//164 361//170 534//166
f 71//167 75//172 76//168
f 72//169 76//168 361//170
f 288//171 287//173 76//168
f 287//173 534//166 361//170
f 72//169 77//175 73//174
f 77//175 377//50 378//63
f 360//163 359//162 77//175
f 359//162 551//51 377//50
f 71//167 73//174 78//176
f 74//177 78//176 362//87
f 73//174 378//63 379//65
f 78//176 379//65 552//178
f 74//177 79//180 75//172
f 75//172 79//180 289//179
f 363//82 364//84 79//180
f 79//180 364//84 535//181
f 80//182 84//185 85//183
f 81//184 85//183 343//99
f 84//185 309//193 308//186
f 85//183 308//186 543//187
f 81//184 86//189 82//188
f 86//189 380//71 381//86
f 342//93 341//92 86//189
f 341//92 553//72 380//71
f 80//182 82//188 87//190
f 83//191 87//190 338//64
f 82//188 381//86 382//88
f 87//190 382//88 552//178
f 83//191 88//192 84//185
f 88//192 310//194 309//193
f 339//59 340//58 88//192
f 340//58 542//61 310//194
f 93//195 94//198 90//196
f 94//198 367//78 366//70
f 294//199 293//200 94//198
f 293//200 537//79 367//78
f 89//197 90//196 95//201
f 95//201 383//95 384//108
f 90//196 366//70 365//73
f 365//73 553//72 383//95
f 91//202 96//204 92//203
f 92//203 96//204 368//117
f 91//202 384//108 385//110
f 96//204 385//110 554//205
f 89//197 92//203 97//206
f 93//195 97//206 295//207
f 92//203 369//116 370//126
f 97//206 370//126 536//208
f 98//209 101//213 102//210
f 99//211 102//210 344//109
f 387//212 388//214 102//210
f 388//214 554//205 344//109
f 99//211 103//216 100//215
f 103//216 320//218 321//217
f 345//104 346//103 103//216
f 346//103 544//106 320//218
f 98//209 100//215 104//219
f 101//213 104//219 386//220
f 100//215 321//217 322//221
f 104//219 322//221 538//222
f 105//223 108//227 109//224
f 106//225 109//224 347//123
f 303//226 302//228 109//224
f 302//228 540//124 347//123
f 106//225 110//230 107//229
f 110//230 391//232 390//231
f 348//115 349//118 110//230
f 349//118 554//205 391//232
f 105//223 107//229 111//233
f 108//227 111//233 304//234
f 107//229 390//231 389//235
f 111//233 389//235 539//236
f 112//237 115//242 116//238
f 113//239 116//238 350//240
f 115//242 300//249 299//243
f 116//238 299//243 548//244
f 113//239 117//246 114//245
f 117//246 389//235 390//231
f 351//241 352//247 117//246
f 352//247 539//236 389//235
f 114//245 118//248 115//242
f 118//248 301//250 300//249
f 114//245 390//231 391//232
f 391//232 554//205 301//250
f 119//251 122//255 123//252
f 123//252 394//256 393//254
f 387//212 386//220 123//252
f 386//220 538//222 394//256
f 119//251 120//253 124//257
f 124//257 299//243 300//249
f 393//254 392//259 124//257
f 392//259 548//244 299//243
f 119//251 121//258 125//260
f 122//255 125//260 388//214
f 121//258 300//249 301//250
f 125//260 301//250 554//205
f 130//261 131//264 127//262
f 131//264 329//138 330//132
f 402//265 403//266 131//264
f 403//266 549//139 329//138
f 126//263 127//262 132//267
f 128//268 132//267 319//269
f 127//262 330//132 331//135
f 132//267 331//135 545//271
f 128//268 133//273 129//272
f 133//273 404//34 405//28
f 318//270 317//581 133//273
f 133//273 317//581 556//274
f 126//263 129//272 134//275
f 130//261 134//275 401//276
f 129//272 405//28 406//27
f 134//275 406//27 557//159
f 139//277 140//280 136//278
f 140//280 355//12 354//5
f 396//281 397//282 140//280
f 397//282 541//13 355//12
f 135//279 136//278 141//283
f 137//284 141//283 403//266
f 136//278 354//5 353//8
f 141//283 353//8 549//139
f 137//284 142//286 138//285
f 142//286 407//158 408//152
f 402//265 401//276 142//286
f 401//276 557//159 407//158
f 135//279 138//285 143//287
f 139//277 143//287 395//288
f 138//285 408//152 409//155
f 143//287 409//155 555//289
f 148//290 149//293 145//291
f 149//293 494//297 495//294
f 477//295 476//296 149//293
f 476//296 574//435 494//297
f 144//292 145//291 150//298
f 150//298 479//303 480//300
f 145//291 495//294 496//301
f 150//298 496//301 575//302
f 144//292 146//299 151//304
f 147//305 151//304 448//306
f 146//299 480//300 481//308
f 151//304 481//308 558//309
f 144//292 147//305 152//310
f 148//290 152//310 478//311
f 447//307 446//582 152//310
f 152//310 446//582 566//312
f 153//313 157//318 158//314
f 154//315 158//314 497//316
f 157//318 528//332 529//319
f 529//319 582//455 497//316
f 154//315 159//321 155//320
f 159//321 458//324 459//322
f 498//317 499//323 159//321
f 499//323 576//341 458//324
f 153//313 155//320 160//325
f 156//326 160//325 523//327
f 155//320 459//322 460//329
f 160//325 460//329 571//330
f 156//326 161//331 157//318
f 161//331 527//334 528//332
f 522//328 521//333 161//331
f 521//333 581//562 527//334
f 162//335 166//340 167//336
f 163//337 167//336 500//338
f 166//340 459//322 458//324
f 167//336 458//324 576//341
f 163//337 168//343 164//342
f 168//343 461//346 462//344
f 501//339 502//345 168//343
f 502//345 577//468 461//346
f 162//335 164//342 169//347
f 165//348 169//347 439//349
f 164//342 462//344 463//351
f 169//347 463//351 567//352
f 165//348 170//353 166//340
f 170//353 460//329 459//322
f 438//350 437//354 170//353
f 437//354 571//330 460//329
f 175//355 176//361 172//356
f 172//356 176//361 503//358
f 489//360 488//497 176//361
f 176//361 488//497 578//362
f 172//356 177//364 173//363
f 177//364 485//367 486//365
f 504//359 505//366 177//364
f 505//366 577//468 485//367
f 173//363 178//369 174//368
f 178//369 415//372 414//370
f 486//365 487//371 178//369
f 487//371 560//465 415//372
f 171//357 174//368 179//373
f 175//355 179//373 490//374
f 174//368 414//370 413//375
f 179//373 413//375 562//376
f 180//377 184//382 185//378
f 181//379 185//378 506//380
f 184//382 465//396 464//383
f 185//378 464//383 578//362
f 181//379 186//385 182//384
f 186//385 467//388 468//386
f 507//381 508//387 186//385
f 508//387 579//495 467//388
f 180//377 182//384 187//389
f 183//390 187//389 434//391
f 182//384 468//386 469//393
f 187//389 469//393 569//394
f 183//390 188//395 184//382
f 188//395 466//398 465//396
f 435//392 436//397 188//395
f 436//397 568//476 466//398
f 192//399 193//402 190//400
f 193//402 491//406 492//403
f 471//404 472//405 193//402
f 472//405 579//495 491//406
f 189//401 190//400 194//407
f 194//407 421//411 420//409
f 190//400 492//403 493//410
f 493//410 561//492 421//411
f 189//401 191//408 195//412
f 192//399 195//412 470//413
f 191//408 420//409 419//414
f 195//412 419//414 565//415
f 200//416 201//419 197//417
f 201//419 449//423 450//420
f 453//421 454//422 201//419
f 454//422 570//566 449//423
f 196//418 197//417 202//424
f 198//425 202//424 457//426
f 197//417 450//420 451//428
f 202//424 451//428 572//429
f 198//425 203//431 199//430
f 203//431 496//301 495//294
f 456//427 455//432 203//431
f 455//432 575//302 496//301
f 196//418 199//430 204//433
f 200//416 204//433 452//434
f 199//430 495//294 494//297
f 204//433 494//297 574//435
f 209//436 210//439 206//437
f 210//439 428//443 429//440
f 531//441 532//442 210//439
f 532//442 580//576 428//443
f 205//438 206//437 211//444
f 211//444 484//449 483//446
f 206//437 429//440 430//447
f 211//444 430//447 559//448
f 205//438 207//445 212//450
f 208//451 212//450 499//323
f 207//445 483//446 482//452
f 212//450 482//452 576//341
f 205//438 208//451 213//453
f 209//436 213//453 530//454
f 208//451 498//317 497//316
f 213//453 497//316 582//455
f 214//456 218//460 219//457
f 219//457 410//461 411//459
f 218//460 483//446 484//449
f 484//449 559//448 410//461
f 215//458 220//463 216//462
f 220//463 487//371 486//365
f 215//458 411//459 412//464
f 220//463 412//464 560//465
f 214//456 216//462 221//466
f 217//467 221//466 502//345
f 216//462 486//365 485//367
f 221//466 485//367 577//468
f 217//467 222//469 218//460
f 222//469 482//452 483//446
f 501//339 500//338 222//469
f 500//338 576//341 482//452
f 223//470 227//475 228//471
f 224//472 228//471 431//473
f 227//475 465//396 466//398
f 228//471 466//398 568//476
f 224//472 229//478 225//477
f 229//478 463//351 462//344
f 432//474 433//479 229//478
f 433//479 567//352 463//351
f 223//470 225//477 230//480
f 226//481 230//480 505//366
f 225//477 462//344 461//346
f 230//480 461//346 577//468
f 226//481 231//482 227//475
f 231//482 464//383 465//396
f 504//359 503//358 231//482
f 503//358 578//362 464//383
f 236//483 237//486 233//484
f 237//486 416//488 417//487
f 489//360 490//374 237//486
f 490//374 562//376 416//488
f 232//485 233//484 238//489
f 234//490 238//489 493//410
f 233//484 417//487 418//491
f 238//489 418//491 561//492
f 234//490 239//494 235//493
f 235//493 239//494 508//387
f 234//490 492//403 491//406
f 239//494 491//406 579//495
f 232//485 235//493 240//496
f 236//483 240//496 488//497
f 507//381 506//380 240//496
f 506//380 578//362 488//497
f 241//498 244//502 245//499
f 245//499 511//503 510//501
f 244//502 468//386 467//388
f 467//388 579//495 511//503
f 241//498 242//500 246//504
f 243//505 246//504 445//506
f 242//500 510//501 509//508
f 246//504 509//508 563//509
f 243//505 247//510 244//502
f 247//510 469//393 468//386
f 444//507 443//511 247//510
f 443//511 569//394 469//393
f 248//512 251//516 252//513
f 252//513 425//517 426//515
f 251//516 471//404 470//413
f 470//413 565//415 425//517
f 248//512 249//514 253//518
f 250//519 253//518 512//520
f 249//514 426//515 427//522
f 253//518 427//522 564//523
f 250//519 254//524 251//516
f 254//524 472//405 471//404
f 513//521 514//525 254//524
f 514//525 579//495 472//405
f 255//526 258//531 259//527
f 256//528 259//527 422//529
f 258//531 474//538 473//532
f 259//527 473//532 573//533
f 256//528 260//535 257//534
f 257//534 260//535 514//525
f 423//530 424//536 260//535
f 424//536 579//495 514//525
f 257//534 261//537 258//531
f 261//537 475//539 474//538
f 513//521 512//520 261//537
f 512//520 564//523 475//539
f 262//540 265//544 266//541
f 266//541 509//508 510//501
f 516//543 517//545 266//541
f 517//545 563//509 509//508
f 262//540 263//542 267//546
f 264//547 267//546 424//536
f 263//542 510//501 511//503
f 267//546 511//503 579//495
f 262//540 264//547 268//548
f 268//548 515//549 516//543
f 423//530 422//529 268//548
f 422//529 573//533 515//549
f 273//550 274//553 270//551
f 274//553 526//555 525//554
f 453//421 452//434 274//553
f 452//434 574//435 526//555
f 269//552 270//551 275//556
f 271//557 275//556 529//319
f 270//551 525//554 524//558
f 275//556 524//558 582//455
f 271//557 276//560 272//559
f 276//560 440//563 441//561
f 528//332 527//334 276//560
f 276//560 527//334 581//562
f 269//552 272//559 277//564
f 273//550 277//564 454//422
f 272//559 441//561 442//565
f 277//564 442//565 570//566
f 282//567 283//570 279//568
f 283//570 520//572 519//571
f 477//295 478//311 283//570
f 478//311 566//312 520//572
f 278//569 279//568 284//573
f 280//574 284//573 532//442
f 279//568 519//571 518//575
f 284//573 518//575 580//576
f 280//574 285//578 281//577
f 285//578 524//558 525//554
f 531//441 530//454 285//578
f 530//454 582//455 524//558
f 278//569 281//577 286//579
f 282//567 286//579 476//296
f 281//577 525//554 526//555
f 286//579 526//555 574//435
