# Blender v2.79 (sub 0) OBJ File: 'm3_interior_open.blend'
# www.blender.org
o Cylinder.001_Cylinder.002
v 0.631230 -0.840538 -4.515048
v 0.631230 -0.840538 -4.242651
v 0.646181 -0.842011 -4.515048
v 0.646181 -0.842011 -4.242651
v 0.660557 -0.846372 -4.515048
v 0.660557 -0.846372 -4.242651
v 0.673806 -0.853453 -4.515048
v 0.673806 -0.853453 -4.242651
v 0.685419 -0.862984 -4.515048
v 0.685419 -0.862984 -4.242651
v 0.694949 -0.874597 -4.515048
v 0.694949 -0.874597 -4.242651
v 0.702031 -0.887846 -4.515048
v 0.702031 -0.887846 -4.242651
v 0.706392 -0.902222 -4.515048
v 0.706392 -0.902222 -4.242651
v 0.707864 -0.917172 -4.515048
v 0.707864 -0.917172 -4.242651
v 0.706392 -0.932123 -4.515048
v 0.706392 -0.932123 -4.242651
v 0.702031 -0.946499 -4.515048
v 0.702031 -0.946499 -4.242651
v 0.694949 -0.959748 -4.515048
v 0.694949 -0.959748 -4.242651
v 0.685419 -0.971360 -4.515048
v 0.685419 -0.971360 -4.242651
v 0.673806 -0.980891 -4.515048
v 0.673806 -0.980891 -4.242651
v 0.660557 -0.987972 -4.515048
v 0.660557 -0.987972 -4.242651
v 0.646181 -0.992333 -4.515048
v 0.646181 -0.992333 -4.242651
v 0.631230 -0.993806 -4.515048
v 0.631230 -0.993806 -4.242651
v 0.616280 -0.992333 -4.515048
v 0.616280 -0.992333 -4.242651
v 0.601904 -0.987972 -4.515048
v 0.601904 -0.987972 -4.242651
v 0.588655 -0.980891 -4.515048
v 0.588655 -0.980891 -4.242651
v 0.577042 -0.971360 -4.515048
v 0.577042 -0.971360 -4.242651
v 0.567512 -0.959748 -4.515048
v 0.567512 -0.959747 -4.242651
v 0.560430 -0.946499 -4.515048
v 0.560430 -0.946499 -4.242651
v 0.556069 -0.932123 -4.515048
v 0.556069 -0.932123 -4.242651
v 0.554596 -0.917172 -4.515048
v 0.554596 -0.917172 -4.242651
v 0.556069 -0.902222 -4.515048
v 0.556069 -0.902222 -4.242651
v 0.560430 -0.887846 -4.515048
v 0.560430 -0.887846 -4.242651
v 0.567512 -0.874597 -4.515048
v 0.567512 -0.874597 -4.242651
v 0.577042 -0.862984 -4.515048
v 0.577042 -0.862984 -4.242651
v 0.588655 -0.853453 -4.515048
v 0.588655 -0.853453 -4.242651
v 0.601904 -0.846372 -4.515048
v 0.601904 -0.846372 -4.242651
v 0.616280 -0.842011 -4.515048
v 0.616280 -0.842011 -4.242651
v 0.631230 -0.852210 -4.515048
v 0.643904 -0.853458 -4.515048
v 0.656090 -0.857155 -4.515048
v 0.667321 -0.863158 -4.515048
v 0.677165 -0.871237 -4.515048
v 0.685244 -0.881081 -4.515048
v 0.691247 -0.892312 -4.515048
v 0.694944 -0.904499 -4.515048
v 0.696192 -0.917172 -4.515048
v 0.694944 -0.929846 -4.515048
v 0.691247 -0.942032 -4.515048
v 0.685244 -0.953263 -4.515048
v 0.677165 -0.963107 -4.515048
v 0.667321 -0.971186 -4.515048
v 0.656090 -0.977189 -4.515048
v 0.643904 -0.980886 -4.515048
v 0.631230 -0.982134 -4.515048
v 0.618557 -0.980886 -4.515048
v 0.606370 -0.977189 -4.515048
v 0.595139 -0.971186 -4.515048
v 0.585295 -0.963107 -4.515048
v 0.577216 -0.953263 -4.515048
v 0.571213 -0.942032 -4.515048
v 0.567516 -0.929846 -4.515048
v 0.566268 -0.917172 -4.515048
v 0.567516 -0.904499 -4.515048
v 0.571213 -0.892312 -4.515048
v 0.577216 -0.881081 -4.515048
v 0.585295 -0.871237 -4.515048
v 0.595139 -0.863158 -4.515048
v 0.606370 -0.857155 -4.515048
v 0.618557 -0.853458 -4.515048
v 0.631230 -0.852210 -4.242651
v 0.643904 -0.853458 -4.242651
v 0.656090 -0.857155 -4.242651
v 0.667321 -0.863158 -4.242651
v 0.677165 -0.871237 -4.242651
v 0.685244 -0.881081 -4.242651
v 0.691247 -0.892312 -4.242651
v 0.694944 -0.904499 -4.242651
v 0.696192 -0.917172 -4.242651
v 0.694944 -0.929846 -4.242651
v 0.691247 -0.942032 -4.242651
v 0.685244 -0.953263 -4.242651
v 0.677165 -0.963107 -4.242651
v 0.667321 -0.971186 -4.242651
v 0.656090 -0.977189 -4.242651
v 0.643904 -0.980886 -4.242651
v 0.631230 -0.982134 -4.242651
v 0.618557 -0.980886 -4.242651
v 0.606370 -0.977189 -4.242651
v 0.595139 -0.971186 -4.242651
v 0.585295 -0.963107 -4.242651
v 0.577216 -0.953263 -4.242651
v 0.571213 -0.942032 -4.242651
v 0.567516 -0.929846 -4.242651
v 0.566268 -0.917172 -4.242651
v 0.567516 -0.904499 -4.242651
v 0.571213 -0.892312 -4.242651
v 0.577216 -0.881081 -4.242651
v 0.585295 -0.871237 -4.242651
v 0.595139 -0.863158 -4.242651
v 0.606370 -0.857155 -4.242651
v 0.618557 -0.853458 -4.242651
v 0.631230 -0.846374 -4.519128
v 0.617418 -0.847735 -4.519128
v 0.581169 -0.967234 -4.519128
v 0.591897 -0.976038 -4.519128
v 0.702028 -0.917172 -4.519128
v 0.700668 -0.903360 -4.519128
v 0.572364 -0.877839 -4.519128
v 0.565822 -0.890079 -4.519128
v 0.645042 -0.986610 -4.519128
v 0.658324 -0.982581 -4.519128
v 0.670564 -0.858306 -4.519128
v 0.658324 -0.851763 -4.519128
v 0.565821 -0.944265 -4.519128
v 0.572364 -0.956505 -4.519128
v 0.696639 -0.944265 -4.519128
v 0.700668 -0.930984 -4.519128
v 0.591897 -0.858306 -4.519128
v 0.581169 -0.867110 -4.519128
v 0.617418 -0.986610 -4.519128
v 0.631230 -0.987970 -4.519128
v 0.690097 -0.877839 -4.519128
v 0.681292 -0.867110 -4.519128
v 0.560432 -0.917172 -4.519128
v 0.561793 -0.930984 -4.519644
v 0.681292 -0.967234 -4.519128
v 0.690097 -0.956505 -4.519128
v 0.604137 -0.851763 -4.519128
v 0.604137 -0.982581 -4.519128
v 0.696639 -0.890079 -4.519128
v 0.561793 -0.903360 -4.519128
v 0.670564 -0.976038 -4.519128
v 0.645042 -0.847735 -4.519128
v 0.616849 -0.844873 -4.517604
v 0.590276 -0.978465 -4.517604
v 0.703530 -0.902791 -4.517604
v 0.563126 -0.888962 -4.517604
v 0.659440 -0.985277 -4.517604
v 0.659440 -0.849068 -4.517604
v 0.569938 -0.958126 -4.517604
v 0.703530 -0.931553 -4.517604
v 0.579105 -0.865047 -4.517604
v 0.631230 -0.990888 -4.517604
v 0.683355 -0.865047 -4.517604
v 0.558931 -0.931553 -4.517604
v 0.692523 -0.958126 -4.517604
v 0.603021 -0.849068 -4.517604
v 0.603020 -0.985277 -4.517604
v 0.699335 -0.888962 -4.517604
v 0.558931 -0.902791 -4.517604
v 0.672185 -0.978465 -4.517604
v 0.645612 -0.844873 -4.517604
v 0.631230 -0.843456 -4.517604
v 0.579105 -0.969297 -4.517604
v 0.704946 -0.917172 -4.517604
v 0.569938 -0.876218 -4.517604
v 0.645612 -0.989472 -4.517604
v 0.672185 -0.855880 -4.517604
v 0.563126 -0.945382 -4.517604
v 0.699335 -0.945382 -4.517604
v 0.590276 -0.855880 -4.517604
v 0.616849 -0.989472 -4.517604
v 0.692523 -0.876218 -4.517604
v 0.557514 -0.917172 -4.517604
v 0.683355 -0.969297 -4.517604
v 0.631230 -0.849292 -4.517604
v 0.583232 -0.965171 -4.517604
v 0.699110 -0.917172 -4.517604
v 0.574790 -0.879460 -4.517604
v 0.644473 -0.983748 -4.517604
v 0.668942 -0.860732 -4.517604
v 0.568517 -0.943149 -4.517604
v 0.693943 -0.943149 -4.517604
v 0.593518 -0.860732 -4.517604
v 0.617988 -0.983748 -4.517604
v 0.687670 -0.879460 -4.517604
v 0.563350 -0.917172 -4.517604
v 0.679229 -0.965171 -4.517604
v 0.617988 -0.850596 -4.517604
v 0.593518 -0.973612 -4.517604
v 0.697806 -0.903929 -4.517604
v 0.568517 -0.891195 -4.517604
v 0.657207 -0.979885 -4.517604
v 0.657207 -0.854459 -4.517604
v 0.574790 -0.954884 -4.517604
v 0.697806 -0.930415 -4.517604
v 0.583232 -0.869174 -4.517604
v 0.631230 -0.985052 -4.517604
v 0.679229 -0.869174 -4.517604
v 0.564655 -0.930415 -4.517604
v 0.687670 -0.954884 -4.517604
v 0.605254 -0.854459 -4.517604
v 0.605254 -0.979885 -4.517604
v 0.693943 -0.891196 -4.517604
v 0.564655 -0.903929 -4.517604
v 0.668942 -0.973612 -4.517604
v 0.644473 -0.850596 -4.517604
v 0.790657 -0.840538 -4.515048
v 0.790657 -0.840538 -4.242652
v 0.805607 -0.842011 -4.515048
v 0.805607 -0.842011 -4.242652
v 0.819983 -0.846372 -4.515048
v 0.819983 -0.846372 -4.242652
v 0.833232 -0.853454 -4.515048
v 0.833232 -0.853454 -4.242652
v 0.844845 -0.862984 -4.515048
v 0.844845 -0.862984 -4.242652
v 0.854375 -0.874597 -4.515048
v 0.854375 -0.874597 -4.242652
v 0.861457 -0.887846 -4.515048
v 0.861457 -0.887846 -4.242652
v 0.865818 -0.902222 -4.515048
v 0.865818 -0.902222 -4.242652
v 0.867290 -0.917172 -4.515048
v 0.867290 -0.917172 -4.242652
v 0.865818 -0.932123 -4.515048
v 0.865818 -0.932123 -4.242652
v 0.861457 -0.946499 -4.515048
v 0.861457 -0.946499 -4.242652
v 0.854375 -0.959748 -4.515048
v 0.854375 -0.959748 -4.242652
v 0.844845 -0.971360 -4.515048
v 0.844845 -0.971360 -4.242652
v 0.833232 -0.980891 -4.515048
v 0.833232 -0.980891 -4.242652
v 0.819983 -0.987973 -4.515048
v 0.819983 -0.987973 -4.242652
v 0.805607 -0.992333 -4.515048
v 0.805607 -0.992333 -4.242652
v 0.790657 -0.993806 -4.515048
v 0.790657 -0.993806 -4.242652
v 0.775706 -0.992333 -4.515048
v 0.775706 -0.992333 -4.242652
v 0.761330 -0.987973 -4.515048
v 0.761330 -0.987973 -4.242652
v 0.748081 -0.980891 -4.515048
v 0.748081 -0.980891 -4.242652
v 0.736468 -0.971360 -4.515048
v 0.736468 -0.971360 -4.242652
v 0.726938 -0.959748 -4.515048
v 0.726938 -0.959748 -4.242652
v 0.719856 -0.946499 -4.515048
v 0.719856 -0.946499 -4.242652
v 0.715495 -0.932123 -4.515048
v 0.715495 -0.932123 -4.242652
v 0.714023 -0.917172 -4.515048
v 0.714023 -0.917172 -4.242652
v 0.715495 -0.902222 -4.515048
v 0.715495 -0.902222 -4.242652
v 0.719856 -0.887846 -4.515048
v 0.719856 -0.887846 -4.242652
v 0.726938 -0.874597 -4.515048
v 0.726938 -0.874597 -4.242652
v 0.736468 -0.862984 -4.515048
v 0.736468 -0.862984 -4.242652
v 0.748081 -0.853454 -4.515048
v 0.748081 -0.853453 -4.242652
v 0.761330 -0.846372 -4.515048
v 0.761330 -0.846372 -4.242652
v 0.775706 -0.842011 -4.515048
v 0.775706 -0.842011 -4.242652
v 0.790657 -0.852210 -4.515048
v 0.803330 -0.853458 -4.515048
v 0.815517 -0.857155 -4.515048
v 0.826748 -0.863158 -4.515048
v 0.836592 -0.871237 -4.515048
v 0.844671 -0.881081 -4.515048
v 0.850674 -0.892312 -4.515048
v 0.854371 -0.904499 -4.515048
v 0.855619 -0.917172 -4.515048
v 0.854371 -0.929846 -4.515048
v 0.850674 -0.942032 -4.515048
v 0.844671 -0.953263 -4.515048
v 0.836592 -0.963107 -4.515048
v 0.826748 -0.971186 -4.515048
v 0.815517 -0.977189 -4.515048
v 0.803330 -0.980886 -4.515048
v 0.790657 -0.982134 -4.515048
v 0.777983 -0.980886 -4.515048
v 0.765797 -0.977189 -4.515048
v 0.754566 -0.971186 -4.515048
v 0.744722 -0.963107 -4.515048
v 0.736643 -0.953263 -4.515048
v 0.730640 -0.942032 -4.515048
v 0.726943 -0.929846 -4.515048
v 0.725695 -0.917172 -4.515048
v 0.726943 -0.904499 -4.515048
v 0.730640 -0.892312 -4.515048
v 0.736643 -0.881081 -4.515048
v 0.744722 -0.871237 -4.515048
v 0.754566 -0.863158 -4.515048
v 0.765797 -0.857155 -4.515048
v 0.777983 -0.853458 -4.515048
v 0.790657 -0.852210 -4.242652
v 0.803330 -0.853458 -4.242652
v 0.815517 -0.857155 -4.242652
v 0.826748 -0.863158 -4.242652
v 0.836592 -0.871237 -4.242652
v 0.844671 -0.881081 -4.242652
v 0.850674 -0.892312 -4.242652
v 0.854371 -0.904499 -4.242652
v 0.855619 -0.917172 -4.242652
v 0.854371 -0.929846 -4.242652
v 0.850674 -0.942032 -4.242652
v 0.844671 -0.953263 -4.242652
v 0.836592 -0.963107 -4.242652
v 0.826748 -0.971186 -4.242652
v 0.815517 -0.977189 -4.242652
v 0.803330 -0.980886 -4.242652
v 0.790657 -0.982134 -4.242652
v 0.777983 -0.980886 -4.242652
v 0.765797 -0.977189 -4.242652
v 0.754566 -0.971186 -4.242652
v 0.744722 -0.963107 -4.242652
v 0.736643 -0.953263 -4.242652
v 0.730640 -0.942032 -4.242652
v 0.726943 -0.929846 -4.242652
v 0.725695 -0.917172 -4.242652
v 0.726943 -0.904499 -4.242652
v 0.730640 -0.892312 -4.242652
v 0.736643 -0.881081 -4.242652
v 0.744722 -0.871237 -4.242652
v 0.754566 -0.863158 -4.242652
v 0.765797 -0.857155 -4.242652
v 0.777983 -0.853458 -4.242652
v 0.790657 -0.846374 -4.519129
v 0.776845 -0.847735 -4.519129
v 0.740595 -0.967234 -4.519129
v 0.751323 -0.976038 -4.519129
v 0.861455 -0.917172 -4.519129
v 0.860094 -0.903360 -4.519129
v 0.731790 -0.877839 -4.519129
v 0.725248 -0.890079 -4.519129
v 0.804469 -0.986610 -4.519129
v 0.817750 -0.982581 -4.519129
v 0.829990 -0.858306 -4.519129
v 0.817750 -0.851763 -4.519129
v 0.725248 -0.944265 -4.519129
v 0.731790 -0.956505 -4.519129
v 0.856065 -0.944265 -4.519129
v 0.860094 -0.930984 -4.519129
v 0.751324 -0.858306 -4.519129
v 0.740595 -0.867110 -4.519129
v 0.776845 -0.986610 -4.519129
v 0.790657 -0.987970 -4.519129
v 0.849523 -0.877839 -4.519129
v 0.840718 -0.867110 -4.519129
v 0.719859 -0.917172 -4.519129
v 0.721219 -0.930984 -4.519645
v 0.840718 -0.967234 -4.519129
v 0.849523 -0.956505 -4.519129
v 0.763564 -0.851763 -4.519129
v 0.763563 -0.982581 -4.519129
v 0.856065 -0.890079 -4.519129
v 0.721219 -0.903360 -4.519129
v 0.829990 -0.976039 -4.519129
v 0.804469 -0.847735 -4.519129
v 0.776276 -0.844873 -4.517604
v 0.749702 -0.978465 -4.517604
v 0.862956 -0.902791 -4.517604
v 0.722552 -0.888962 -4.517604
v 0.818867 -0.985277 -4.517604
v 0.818867 -0.849068 -4.517604
v 0.729364 -0.958126 -4.517604
v 0.862956 -0.931553 -4.517604
v 0.738532 -0.865047 -4.517604
v 0.790657 -0.990888 -4.517604
v 0.842782 -0.865047 -4.517604
v 0.718357 -0.931553 -4.517604
v 0.851949 -0.958127 -4.517604
v 0.762447 -0.849068 -4.517604
v 0.762447 -0.985277 -4.517604
v 0.858761 -0.888962 -4.517604
v 0.718357 -0.902791 -4.517604
v 0.831611 -0.978465 -4.517604
v 0.805038 -0.844873 -4.517604
v 0.790657 -0.843456 -4.517604
v 0.738532 -0.969297 -4.517604
v 0.864373 -0.917172 -4.517604
v 0.729364 -0.876218 -4.517604
v 0.805038 -0.989472 -4.517604
v 0.831611 -0.855880 -4.517604
v 0.722552 -0.945382 -4.517604
v 0.858761 -0.945382 -4.517604
v 0.749702 -0.855880 -4.517604
v 0.776275 -0.989472 -4.517604
v 0.851949 -0.876218 -4.517604
v 0.716941 -0.917172 -4.517604
v 0.842782 -0.969297 -4.517604
v 0.790657 -0.849292 -4.517604
v 0.742658 -0.965171 -4.517604
v 0.858537 -0.917172 -4.517604
v 0.734217 -0.879460 -4.517604
v 0.803899 -0.983748 -4.517604
v 0.828369 -0.860732 -4.517604
v 0.727944 -0.943149 -4.517604
v 0.853370 -0.943149 -4.517604
v 0.752945 -0.860732 -4.517604
v 0.777414 -0.983748 -4.517604
v 0.847097 -0.879460 -4.517604
v 0.722777 -0.917172 -4.517604
v 0.838655 -0.965171 -4.517604
v 0.777414 -0.850596 -4.517604
v 0.752945 -0.973612 -4.517604
v 0.857232 -0.903929 -4.517604
v 0.727944 -0.891196 -4.517604
v 0.816633 -0.979885 -4.517604
v 0.816633 -0.854459 -4.517604
v 0.734217 -0.954884 -4.517604
v 0.857232 -0.930415 -4.517604
v 0.742658 -0.869174 -4.517604
v 0.790657 -0.985052 -4.517604
v 0.838655 -0.869174 -4.517604
v 0.724081 -0.930415 -4.517604
v 0.847097 -0.954884 -4.517604
v 0.764680 -0.854459 -4.517604
v 0.764680 -0.979885 -4.517604
v 0.853370 -0.891196 -4.517604
v 0.724081 -0.903929 -4.517604
v 0.828369 -0.973612 -4.517604
v 0.803899 -0.850596 -4.517604
v -0.631230 -0.840538 -4.515048
v -0.631230 -0.840538 -4.242651
v -0.646181 -0.842011 -4.515048
v -0.646181 -0.842011 -4.242651
v -0.660557 -0.846372 -4.515048
v -0.660557 -0.846372 -4.242651
v -0.673806 -0.853453 -4.515048
v -0.673806 -0.853453 -4.242651
v -0.685419 -0.862984 -4.515048
v -0.685419 -0.862984 -4.242651
v -0.694949 -0.874597 -4.515048
v -0.694949 -0.874597 -4.242651
v -0.702031 -0.887846 -4.515048
v -0.702031 -0.887846 -4.242651
v -0.706392 -0.902222 -4.515048
v -0.706392 -0.902222 -4.242651
v -0.707864 -0.917172 -4.515048
v -0.707864 -0.917172 -4.242651
v -0.706392 -0.932123 -4.515048
v -0.706392 -0.932123 -4.242651
v -0.702031 -0.946499 -4.515048
v -0.702031 -0.946499 -4.242651
v -0.694949 -0.959748 -4.515048
v -0.694949 -0.959748 -4.242651
v -0.685419 -0.971360 -4.515048
v -0.685419 -0.971360 -4.242651
v -0.673806 -0.980891 -4.515048
v -0.673806 -0.980891 -4.242651
v -0.660557 -0.987972 -4.515048
v -0.660557 -0.987972 -4.242651
v -0.646181 -0.992333 -4.515048
v -0.646181 -0.992333 -4.242651
v -0.631230 -0.993806 -4.515048
v -0.631230 -0.993806 -4.242651
v -0.616280 -0.992333 -4.515048
v -0.616280 -0.992333 -4.242651
v -0.601904 -0.987972 -4.515048
v -0.601904 -0.987972 -4.242651
v -0.588655 -0.980891 -4.515048
v -0.588655 -0.980891 -4.242651
v -0.577042 -0.971360 -4.515048
v -0.577042 -0.971360 -4.242651
v -0.567512 -0.959748 -4.515048
v -0.567512 -0.959747 -4.242651
v -0.560430 -0.946499 -4.515048
v -0.560430 -0.946499 -4.242651
v -0.556069 -0.932123 -4.515048
v -0.556069 -0.932123 -4.242651
v -0.554596 -0.917172 -4.515048
v -0.554596 -0.917172 -4.242651
v -0.556069 -0.902222 -4.515048
v -0.556069 -0.902222 -4.242651
v -0.560430 -0.887846 -4.515048
v -0.560430 -0.887846 -4.242651
v -0.567512 -0.874597 -4.515048
v -0.567512 -0.874597 -4.242651
v -0.577042 -0.862984 -4.515048
v -0.577042 -0.862984 -4.242651
v -0.588655 -0.853453 -4.515048
v -0.588655 -0.853453 -4.242651
v -0.601904 -0.846372 -4.515048
v -0.601904 -0.846372 -4.242651
v -0.616280 -0.842011 -4.515048
v -0.616280 -0.842011 -4.242651
v -0.631230 -0.852210 -4.515048
v -0.643904 -0.853458 -4.515048
v -0.656090 -0.857155 -4.515048
v -0.667321 -0.863158 -4.515048
v -0.677165 -0.871237 -4.515048
v -0.685244 -0.881081 -4.515048
v -0.691247 -0.892312 -4.515048
v -0.694944 -0.904499 -4.515048
v -0.696192 -0.917172 -4.515048
v -0.694944 -0.929846 -4.515048
v -0.691247 -0.942032 -4.515048
v -0.685244 -0.953263 -4.515048
v -0.677165 -0.963107 -4.515048
v -0.667321 -0.971186 -4.515048
v -0.656090 -0.977189 -4.515048
v -0.643904 -0.980886 -4.515048
v -0.631230 -0.982134 -4.515048
v -0.618557 -0.980886 -4.515048
v -0.606370 -0.977189 -4.515048
v -0.595139 -0.971186 -4.515048
v -0.585295 -0.963107 -4.515048
v -0.577216 -0.953263 -4.515048
v -0.571213 -0.942032 -4.515048
v -0.567516 -0.929846 -4.515048
v -0.566268 -0.917172 -4.515048
v -0.567516 -0.904499 -4.515048
v -0.571213 -0.892312 -4.515048
v -0.577216 -0.881081 -4.515048
v -0.585295 -0.871237 -4.515048
v -0.595139 -0.863158 -4.515048
v -0.606370 -0.857155 -4.515048
v -0.618557 -0.853458 -4.515048
v -0.631230 -0.852210 -4.242651
v -0.643904 -0.853458 -4.242651
v -0.656090 -0.857155 -4.242651
v -0.667321 -0.863158 -4.242651
v -0.677165 -0.871237 -4.242651
v -0.685244 -0.881081 -4.242651
v -0.691247 -0.892312 -4.242651
v -0.694944 -0.904499 -4.242651
v -0.696192 -0.917172 -4.242651
v -0.694944 -0.929846 -4.242651
v -0.691247 -0.942032 -4.242651
v -0.685244 -0.953263 -4.242651
v -0.677165 -0.963107 -4.242651
v -0.667321 -0.971186 -4.242651
v -0.656090 -0.977189 -4.242651
v -0.643904 -0.980886 -4.242651
v -0.631230 -0.982134 -4.242651
v -0.618557 -0.980886 -4.242651
v -0.606370 -0.977189 -4.242651
v -0.595139 -0.971186 -4.242651
v -0.585295 -0.963107 -4.242651
v -0.577216 -0.953263 -4.242651
v -0.571213 -0.942032 -4.242651
v -0.567516 -0.929846 -4.242651
v -0.566268 -0.917172 -4.242651
v -0.567516 -0.904499 -4.242651
v -0.571213 -0.892312 -4.242651
v -0.577216 -0.881081 -4.242651
v -0.585295 -0.871237 -4.242651
v -0.595139 -0.863158 -4.242651
v -0.606370 -0.857155 -4.242651
v -0.618557 -0.853458 -4.242651
v -0.631230 -0.846374 -4.519128
v -0.617418 -0.847735 -4.519128
v -0.581169 -0.967234 -4.519128
v -0.591897 -0.976038 -4.519128
v -0.702028 -0.917172 -4.519128
v -0.700668 -0.903360 -4.519128
v -0.572364 -0.877839 -4.519128
v -0.565822 -0.890079 -4.519128
v -0.645042 -0.986610 -4.519128
v -0.658324 -0.982581 -4.519128
v -0.670564 -0.858306 -4.519128
v -0.658324 -0.851763 -4.519128
v -0.565821 -0.944265 -4.519128
v -0.572364 -0.956505 -4.519128
v -0.696639 -0.944265 -4.519128
v -0.700668 -0.930984 -4.519128
v -0.591897 -0.858306 -4.519128
v -0.581169 -0.867110 -4.519128
v -0.617418 -0.986610 -4.519128
v -0.631230 -0.987970 -4.519128
v -0.690097 -0.877839 -4.519128
v -0.681292 -0.867110 -4.519128
v -0.560432 -0.917172 -4.519128
v -0.561793 -0.930984 -4.519644
v -0.681292 -0.967234 -4.519128
v -0.690097 -0.956505 -4.519128
v -0.604137 -0.851763 -4.519128
v -0.604137 -0.982581 -4.519128
v -0.696639 -0.890079 -4.519128
v -0.561793 -0.903360 -4.519128
v -0.670564 -0.976038 -4.519128
v -0.645042 -0.847735 -4.519128
v -0.616849 -0.844873 -4.517604
v -0.590276 -0.978465 -4.517604
v -0.703530 -0.902791 -4.517604
v -0.563126 -0.888962 -4.517604
v -0.659440 -0.985277 -4.517604
v -0.659440 -0.849068 -4.517604
v -0.569938 -0.958126 -4.517604
v -0.703530 -0.931553 -4.517604
v -0.579105 -0.865047 -4.517604
v -0.631230 -0.990888 -4.517604
v -0.683355 -0.865047 -4.517604
v -0.558931 -0.931553 -4.517604
v -0.692523 -0.958126 -4.517604
v -0.603021 -0.849068 -4.517604
v -0.603020 -0.985277 -4.517604
v -0.699335 -0.888962 -4.517604
v -0.558931 -0.902791 -4.517604
v -0.672185 -0.978465 -4.517604
v -0.645612 -0.844873 -4.517604
v -0.631230 -0.843456 -4.517604
v -0.579105 -0.969297 -4.517604
v -0.704946 -0.917172 -4.517604
v -0.569938 -0.876218 -4.517604
v -0.645612 -0.989472 -4.517604
v -0.672185 -0.855880 -4.517604
v -0.563126 -0.945382 -4.517604
v -0.699335 -0.945382 -4.517604
v -0.590276 -0.855880 -4.517604
v -0.616849 -0.989472 -4.517604
v -0.692523 -0.876218 -4.517604
v -0.557514 -0.917172 -4.517604
v -0.683355 -0.969297 -4.517604
v -0.631230 -0.849292 -4.517604
v -0.583232 -0.965171 -4.517604
v -0.699110 -0.917172 -4.517604
v -0.574790 -0.879460 -4.517604
v -0.644473 -0.983748 -4.517604
v -0.668942 -0.860732 -4.517604
v -0.568517 -0.943149 -4.517604
v -0.693943 -0.943149 -4.517604
v -0.593518 -0.860732 -4.517604
v -0.617988 -0.983748 -4.517604
v -0.687670 -0.879460 -4.517604
v -0.563350 -0.917172 -4.517604
v -0.679229 -0.965171 -4.517604
v -0.617988 -0.850596 -4.517604
v -0.593518 -0.973612 -4.517604
v -0.697806 -0.903929 -4.517604
v -0.568517 -0.891195 -4.517604
v -0.657207 -0.979885 -4.517604
v -0.657207 -0.854459 -4.517604
v -0.574790 -0.954884 -4.517604
v -0.697806 -0.930415 -4.517604
v -0.583232 -0.869174 -4.517604
v -0.631230 -0.985052 -4.517604
v -0.679229 -0.869174 -4.517604
v -0.564655 -0.930415 -4.517604
v -0.687670 -0.954884 -4.517604
v -0.605254 -0.854459 -4.517604
v -0.605254 -0.979885 -4.517604
v -0.693943 -0.891196 -4.517604
v -0.564655 -0.903929 -4.517604
v -0.668942 -0.973612 -4.517604
v -0.644473 -0.850596 -4.517604
v -0.790657 -0.840538 -4.515048
v -0.790657 -0.840538 -4.242652
v -0.805607 -0.842011 -4.515048
v -0.805607 -0.842011 -4.242652
v -0.819983 -0.846372 -4.515048
v -0.819983 -0.846372 -4.242652
v -0.833232 -0.853454 -4.515048
v -0.833232 -0.853454 -4.242652
v -0.844845 -0.862984 -4.515048
v -0.844845 -0.862984 -4.242652
v -0.854375 -0.874597 -4.515048
v -0.854375 -0.874597 -4.242652
v -0.861457 -0.887846 -4.515048
v -0.861457 -0.887846 -4.242652
v -0.865818 -0.902222 -4.515048
v -0.865818 -0.902222 -4.242652
v -0.867290 -0.917172 -4.515048
v -0.867290 -0.917172 -4.242652
v -0.865818 -0.932123 -4.515048
v -0.865818 -0.932123 -4.242652
v -0.861457 -0.946499 -4.515048
v -0.861457 -0.946499 -4.242652
v -0.854375 -0.959748 -4.515048
v -0.854375 -0.959748 -4.242652
v -0.844845 -0.971360 -4.515048
v -0.844845 -0.971360 -4.242652
v -0.833232 -0.980891 -4.515048
v -0.833232 -0.980891 -4.242652
v -0.819983 -0.987973 -4.515048
v -0.819983 -0.987973 -4.242652
v -0.805607 -0.992333 -4.515048
v -0.805607 -0.992333 -4.242652
v -0.790657 -0.993806 -4.515048
v -0.790657 -0.993806 -4.242652
v -0.775706 -0.992333 -4.515048
v -0.775706 -0.992333 -4.242652
v -0.761330 -0.987973 -4.515048
v -0.761330 -0.987973 -4.242652
v -0.748081 -0.980891 -4.515048
v -0.748081 -0.980891 -4.242652
v -0.736468 -0.971360 -4.515048
v -0.736468 -0.971360 -4.242652
v -0.726938 -0.959748 -4.515048
v -0.726938 -0.959748 -4.242652
v -0.719856 -0.946499 -4.515048
v -0.719856 -0.946499 -4.242652
v -0.715495 -0.932123 -4.515048
v -0.715495 -0.932123 -4.242652
v -0.714023 -0.917172 -4.515048
v -0.714023 -0.917172 -4.242652
v -0.715495 -0.902222 -4.515048
v -0.715495 -0.902222 -4.242652
v -0.719856 -0.887846 -4.515048
v -0.719856 -0.887846 -4.242652
v -0.726938 -0.874597 -4.515048
v -0.726938 -0.874597 -4.242652
v -0.736468 -0.862984 -4.515048
v -0.736468 -0.862984 -4.242652
v -0.748081 -0.853454 -4.515048
v -0.748081 -0.853453 -4.242652
v -0.761330 -0.846372 -4.515048
v -0.761330 -0.846372 -4.242652
v -0.775706 -0.842011 -4.515048
v -0.775706 -0.842011 -4.242652
v -0.790657 -0.852210 -4.515048
v -0.803330 -0.853458 -4.515048
v -0.815517 -0.857155 -4.515048
v -0.826748 -0.863158 -4.515048
v -0.836592 -0.871237 -4.515048
v -0.844671 -0.881081 -4.515048
v -0.850674 -0.892312 -4.515048
v -0.854371 -0.904499 -4.515048
v -0.855619 -0.917172 -4.515048
v -0.854371 -0.929846 -4.515048
v -0.850674 -0.942032 -4.515048
v -0.844671 -0.953263 -4.515048
v -0.836592 -0.963107 -4.515048
v -0.826748 -0.971186 -4.515048
v -0.815517 -0.977189 -4.515048
v -0.803330 -0.980886 -4.515048
v -0.790657 -0.982134 -4.515048
v -0.777983 -0.980886 -4.515048
v -0.765797 -0.977189 -4.515048
v -0.754566 -0.971186 -4.515048
v -0.744722 -0.963107 -4.515048
v -0.736643 -0.953263 -4.515048
v -0.730640 -0.942032 -4.515048
v -0.726943 -0.929846 -4.515048
v -0.725695 -0.917172 -4.515048
v -0.726943 -0.904499 -4.515048
v -0.730640 -0.892312 -4.515048
v -0.736643 -0.881081 -4.515048
v -0.744722 -0.871237 -4.515048
v -0.754566 -0.863158 -4.515048
v -0.765797 -0.857155 -4.515048
v -0.777983 -0.853458 -4.515048
v -0.790657 -0.852210 -4.242652
v -0.803330 -0.853458 -4.242652
v -0.815517 -0.857155 -4.242652
v -0.826748 -0.863158 -4.242652
v -0.836592 -0.871237 -4.242652
v -0.844671 -0.881081 -4.242652
v -0.850674 -0.892312 -4.242652
v -0.854371 -0.904499 -4.242652
v -0.855619 -0.917172 -4.242652
v -0.854371 -0.929846 -4.242652
v -0.850674 -0.942032 -4.242652
v -0.844671 -0.953263 -4.242652
v -0.836592 -0.963107 -4.242652
v -0.826748 -0.971186 -4.242652
v -0.815517 -0.977189 -4.242652
v -0.803330 -0.980886 -4.242652
v -0.790657 -0.982134 -4.242652
v -0.777983 -0.980886 -4.242652
v -0.765797 -0.977189 -4.242652
v -0.754566 -0.971186 -4.242652
v -0.744722 -0.963107 -4.242652
v -0.736643 -0.953263 -4.242652
v -0.730640 -0.942032 -4.242652
v -0.726943 -0.929846 -4.242652
v -0.725695 -0.917172 -4.242652
v -0.726943 -0.904499 -4.242652
v -0.730640 -0.892312 -4.242652
v -0.736643 -0.881081 -4.242652
v -0.744722 -0.871237 -4.242652
v -0.754566 -0.863158 -4.242652
v -0.765797 -0.857155 -4.242652
v -0.777983 -0.853458 -4.242652
v -0.790657 -0.846374 -4.519129
v -0.776845 -0.847735 -4.519129
v -0.740595 -0.967234 -4.519129
v -0.751323 -0.976038 -4.519129
v -0.861455 -0.917172 -4.519129
v -0.860094 -0.903360 -4.519129
v -0.731790 -0.877839 -4.519129
v -0.725248 -0.890079 -4.519129
v -0.804469 -0.986610 -4.519129
v -0.817750 -0.982581 -4.519129
v -0.829990 -0.858306 -4.519129
v -0.817750 -0.851763 -4.519129
v -0.725248 -0.944265 -4.519129
v -0.731790 -0.956505 -4.519129
v -0.856065 -0.944265 -4.519129
v -0.860094 -0.930984 -4.519129
v -0.751324 -0.858306 -4.519129
v -0.740595 -0.867110 -4.519129
v -0.776845 -0.986610 -4.519129
v -0.790657 -0.987970 -4.519129
v -0.849523 -0.877839 -4.519129
v -0.840718 -0.867110 -4.519129
v -0.719859 -0.917172 -4.519129
v -0.721219 -0.930984 -4.519645
v -0.840718 -0.967234 -4.519129
v -0.849523 -0.956505 -4.519129
v -0.763564 -0.851763 -4.519129
v -0.763563 -0.982581 -4.519129
v -0.856065 -0.890079 -4.519129
v -0.721219 -0.903360 -4.519129
v -0.829990 -0.976039 -4.519129
v -0.804469 -0.847735 -4.519129
v -0.776276 -0.844873 -4.517604
v -0.749702 -0.978465 -4.517604
v -0.862956 -0.902791 -4.517604
v -0.722552 -0.888962 -4.517604
v -0.818867 -0.985277 -4.517604
v -0.818867 -0.849068 -4.517604
v -0.729364 -0.958126 -4.517604
v -0.862956 -0.931553 -4.517604
v -0.738532 -0.865047 -4.517604
v -0.790657 -0.990888 -4.517604
v -0.842782 -0.865047 -4.517604
v -0.718357 -0.931553 -4.517604
v -0.851949 -0.958127 -4.517604
v -0.762447 -0.849068 -4.517604
v -0.762447 -0.985277 -4.517604
v -0.858761 -0.888962 -4.517604
v -0.718357 -0.902791 -4.517604
v -0.831611 -0.978465 -4.517604
v -0.805038 -0.844873 -4.517604
v -0.790657 -0.843456 -4.517604
v -0.738532 -0.969297 -4.517604
v -0.864373 -0.917172 -4.517604
v -0.729364 -0.876218 -4.517604
v -0.805038 -0.989472 -4.517604
v -0.831611 -0.855880 -4.517604
v -0.722552 -0.945382 -4.517604
v -0.858761 -0.945382 -4.517604
v -0.749702 -0.855880 -4.517604
v -0.776275 -0.989472 -4.517604
v -0.851949 -0.876218 -4.517604
v -0.716941 -0.917172 -4.517604
v -0.842782 -0.969297 -4.517604
v -0.790657 -0.849292 -4.517604
v -0.742658 -0.965171 -4.517604
v -0.858537 -0.917172 -4.517604
v -0.734217 -0.879460 -4.517604
v -0.803899 -0.983748 -4.517604
v -0.828369 -0.860732 -4.517604
v -0.727944 -0.943149 -4.517604
v -0.853370 -0.943149 -4.517604
v -0.752945 -0.860732 -4.517604
v -0.777414 -0.983748 -4.517604
v -0.847097 -0.879460 -4.517604
v -0.722777 -0.917172 -4.517604
v -0.838655 -0.965171 -4.517604
v -0.777414 -0.850596 -4.517604
v -0.752945 -0.973612 -4.517604
v -0.857232 -0.903929 -4.517604
v -0.727944 -0.891196 -4.517604
v -0.816633 -0.979885 -4.517604
v -0.816633 -0.854459 -4.517604
v -0.734217 -0.954884 -4.517604
v -0.857232 -0.930415 -4.517604
v -0.742658 -0.869174 -4.517604
v -0.790657 -0.985052 -4.517604
v -0.838655 -0.869174 -4.517604
v -0.724081 -0.930415 -4.517604
v -0.847097 -0.954884 -4.517604
v -0.764680 -0.854459 -4.517604
v -0.764680 -0.979885 -4.517604
v -0.853370 -0.891196 -4.517604
v -0.724081 -0.903929 -4.517604
v -0.828369 -0.973612 -4.517604
v -0.803899 -0.850596 -4.517604
vn 0.0000 1.0000 0.0000
vn 0.1785 0.8974 -0.4035
vn 0.0000 0.9149 -0.4035
vn 0.1951 0.9808 0.0000
vn 0.3501 0.8453 -0.4035
vn 0.3827 0.9239 0.0000
vn 0.5083 0.7608 -0.4035
vn 0.5556 0.8314 0.0000
vn 0.6470 0.6470 -0.4035
vn 0.7071 0.7071 0.0000
vn 0.7607 0.5083 -0.4035
vn 0.9239 0.3827 0.0000
vn 0.8453 0.3501 -0.4035
vn 0.8974 0.1785 -0.4035
vn 0.9808 0.1951 0.0000
vn 0.9149 0.0000 -0.4035
vn 1.0000 0.0000 0.0000
vn 0.8974 -0.1785 -0.4035
vn 0.9808 -0.1951 0.0000
vn 0.8453 -0.3501 -0.4035
vn 0.9239 -0.3827 0.0000
vn 0.7607 -0.5083 -0.4035
vn 0.7071 -0.7071 0.0000
vn 0.6470 -0.6470 -0.4035
vn 0.5083 -0.7607 -0.4035
vn 0.5556 -0.8314 0.0000
vn 0.3501 -0.8453 -0.4035
vn 0.3827 -0.9239 0.0000
vn 0.1785 -0.8974 -0.4035
vn 0.1951 -0.9808 0.0000
vn 0.0000 -0.9149 -0.4035
vn 0.0000 -1.0000 0.0000
vn -0.1785 -0.8974 -0.4035
vn -0.1951 -0.9808 0.0000
vn -0.3502 -0.8453 -0.4035
vn -0.3827 -0.9239 0.0000
vn -0.5083 -0.7607 -0.4035
vn -0.5556 -0.8314 0.0000
vn -0.6470 -0.6470 -0.4035
vn -0.7071 -0.7071 0.0000
vn -0.7607 -0.5083 -0.4035
vn -0.8314 -0.5556 0.0000
vn -0.8453 -0.3501 -0.4035
vn -0.9239 -0.3827 0.0000
vn -0.8973 -0.1785 -0.4036
vn -0.9808 -0.1951 0.0000
vn -0.9149 0.0000 -0.4036
vn -1.0000 0.0000 0.0000
vn -0.8974 0.1785 -0.4035
vn -0.9808 0.1951 0.0000
vn -0.8453 0.3501 -0.4035
vn -0.9239 0.3827 0.0000
vn -0.7608 0.5083 -0.4035
vn -0.8314 0.5556 0.0000
vn -0.6470 0.6470 -0.4035
vn -0.7071 0.7071 0.0000
vn -0.5083 0.7608 -0.4035
vn -0.5556 0.8314 0.0000
vn -0.3501 0.8453 -0.4035
vn -0.1951 0.9808 0.0000
vn -0.1785 0.8974 -0.4035
vn -0.3827 0.9239 0.0000
vn 0.1092 -0.5492 -0.8285
vn 0.0000 -0.9062 -0.4229
vn 0.1768 -0.8887 -0.4229
vn 0.3111 0.4655 -0.8285
vn 0.6407 0.6407 -0.4229
vn 0.5035 0.7534 -0.4229
vn -0.5599 0.0000 -0.8285
vn -0.8887 -0.1768 -0.4230
vn -0.5491 -0.1092 -0.8286
vn 0.5173 -0.2142 -0.8285
vn 0.7534 -0.5034 -0.4229
vn 0.8372 -0.3468 -0.4229
vn -0.2142 0.5173 -0.8285
vn -0.1768 0.8887 -0.4229
vn -0.3468 0.8372 -0.4229
vn -0.2142 -0.5173 -0.8285
vn -0.5034 -0.7534 -0.4230
vn -0.3468 -0.8372 -0.4229
vn 0.5173 0.2142 -0.8285
vn 0.7534 0.5034 -0.4230
vn 0.4655 0.3110 -0.8285
vn -0.5173 0.2142 -0.8285
vn -0.8887 0.1768 -0.4229
vn -0.5492 0.1092 -0.8285
vn 0.3110 -0.4655 -0.8285
vn 0.6407 -0.6407 -0.4230
vn 0.3958 -0.3959 -0.8286
vn 0.1092 0.5491 -0.8285
vn 0.0000 0.9061 -0.4229
vn 0.0000 0.5599 -0.8285
vn -0.4655 -0.3111 -0.8285
vn -0.6407 -0.6407 -0.4229
vn -0.3959 -0.3959 -0.8285
vn 0.5955 0.1184 -0.7946
vn 0.9062 0.0000 -0.4229
vn 0.8887 0.1768 -0.4229
vn -0.4656 0.3110 -0.8285
vn -0.6407 0.6407 -0.4229
vn -0.7534 0.5034 -0.4229
vn 0.3468 -0.8372 -0.4229
vn 0.2143 -0.5173 -0.8285
vn 0.3468 0.8372 -0.4230
vn 0.2142 0.5173 -0.8285
vn -0.5173 -0.2142 -0.8285
vn -0.8372 -0.3468 -0.4229
vn 0.5492 -0.1092 -0.8285
vn 0.8887 -0.1768 -0.4229
vn -0.3111 0.4655 -0.8285
vn -0.5034 0.7534 -0.4229
vn -0.1092 -0.5492 -0.8285
vn -0.1768 -0.8887 -0.4229
vn 0.3958 0.3959 -0.8286
vn -0.9061 0.0000 -0.4229
vn 0.4656 -0.3110 -0.8285
vn -0.1092 0.5491 -0.8285
vn -0.3110 -0.4655 -0.8285
vn 0.8372 0.3468 -0.4229
vn 0.0000 -0.5599 -0.8285
vn -0.8372 0.3468 -0.4229
vn 0.5034 -0.7534 -0.4229
vn 0.1768 0.8887 -0.4230
vn -0.7534 -0.5034 -0.4229
vn 0.5598 0.0000 -0.8286
vn -0.3958 0.3959 -0.8286
vn 0.8314 0.5556 0.0000
vn 0.8314 -0.5556 0.0000
vn -0.1111 0.5591 -0.8216
vn 0.0000 0.0289 -0.9996
vn -0.0056 0.0284 -0.9996
vn -0.4031 -0.4031 -0.8216
vn -0.0161 -0.0240 -0.9996
vn -0.3167 -0.4739 -0.8216
vn 0.5591 0.1112 -0.8216
vn 0.0289 0.0000 -0.9996
vn 0.0285 0.0056 -0.9996
vn -0.5266 0.2181 -0.8216
vn -0.0240 0.0161 -0.9996
vn -0.0267 0.0110 -0.9996
vn 0.1111 -0.5590 -0.8216
vn 0.0111 -0.0267 -0.9996
vn 0.2181 -0.5266 -0.8216
vn 0.3167 0.4740 -0.8216
vn 0.0110 0.0267 -0.9996
vn 0.2181 0.5266 -0.8216
vn -0.4739 -0.3167 -0.8216
vn -0.0259 -0.0137 -0.9995
vn -0.0240 -0.0161 -0.9996
vn 0.5591 -0.1112 -0.8216
vn 0.0267 -0.0110 -0.9996
vn 0.0284 -0.0056 -0.9996
vn -0.3166 0.4740 -0.8216
vn -0.0205 0.0204 -0.9996
vn -0.4030 0.4030 -0.8216
vn -0.1111 -0.5590 -0.8216
vn 0.0000 -0.0289 -0.9996
vn 0.0000 -0.5700 -0.8216
vn 0.4030 0.4031 -0.8216
vn 0.0240 0.0161 -0.9996
vn 0.0204 0.0204 -0.9996
vn -0.5999 -0.1193 -0.7911
vn -0.0292 0.0027 -0.9995
vn -0.0344 -0.0068 -0.9994
vn 0.4030 -0.4030 -0.8216
vn 0.0240 -0.0161 -0.9996
vn 0.4739 -0.3167 -0.8216
vn -0.0111 0.0267 -0.9996
vn -0.2181 0.5266 -0.8216
vn -0.0110 -0.0267 -0.9996
vn -0.2181 -0.5266 -0.8216
vn 0.0267 0.0110 -0.9996
vn 0.5266 0.2181 -0.8216
vn -0.0284 0.0056 -0.9996
vn -0.5591 0.1112 -0.8216
vn 0.0161 -0.0240 -0.9996
vn 0.3167 -0.4739 -0.8216
vn 0.0056 0.0284 -0.9996
vn 0.1112 0.5590 -0.8216
vn -0.0205 -0.0204 -0.9996
vn 0.5699 0.0000 -0.8217
vn -0.4739 0.3167 -0.8216
vn 0.0056 -0.0284 -0.9996
vn 0.0161 0.0240 -0.9996
vn -0.5266 -0.2181 -0.8216
vn 0.0000 0.5700 -0.8216
vn 0.5266 -0.2181 -0.8216
vn -0.0161 0.0240 -0.9996
vn -0.0056 -0.0284 -0.9996
vn 0.4739 0.3167 -0.8216
vn -0.5699 0.0000 -0.8217
vn 0.0205 -0.0204 -0.9996
vn 0.5083 0.7607 -0.4035
vn 0.6470 0.6469 -0.4035
vn 0.8973 0.1785 -0.4036
vn 0.9149 0.0000 -0.4036
vn 0.8973 -0.1785 -0.4036
vn -0.3501 -0.8453 -0.4035
vn -0.8974 -0.1785 -0.4035
vn -0.7607 0.5083 -0.4035
vn -0.5083 0.7607 -0.4035
vn 0.1093 -0.5492 -0.8285
vn 0.0000 -0.9061 -0.4229
vn 0.5034 0.7534 -0.4229
vn -0.8887 -0.1768 -0.4229
vn -0.5492 -0.1092 -0.8285
vn -0.2143 -0.5173 -0.8285
vn 0.4656 0.3110 -0.8285
vn 0.3959 -0.3959 -0.8285
vn 0.1093 0.5492 -0.8285
vn 0.0000 0.9061 -0.4230
vn -0.7534 -0.5034 -0.4230
vn 0.5599 0.0000 -0.8285
vn 0.5954 0.1184 -0.7946
vn -0.3959 0.3959 -0.8285
vn -0.7534 0.5034 -0.4230
vn -0.4655 0.3110 -0.8285
vn 0.3468 0.8372 -0.4229
vn 0.2143 0.5173 -0.8285
vn -0.8372 -0.3468 -0.4230
vn 0.3959 0.3959 -0.8285
vn -0.9061 0.0000 -0.4230
vn 0.7534 -0.5034 -0.4230
vn -0.1093 0.5492 -0.8285
vn 0.8372 0.3468 -0.4230
vn -0.8372 0.3468 -0.4230
vn 0.1768 0.8887 -0.4229
vn -0.4656 -0.3110 -0.8285
vn 0.9061 0.0000 -0.4230
vn -0.6407 0.6407 -0.4230
vn -0.1112 0.5590 -0.8216
vn -0.4031 -0.4030 -0.8216
vn 0.5700 0.0000 -0.8216
vn 0.0284 0.0056 -0.9996
vn 0.5590 0.1112 -0.8216
vn 0.1112 -0.5590 -0.8216
vn 0.5590 -0.1112 -0.8216
vn 0.0282 -0.0056 -0.9996
vn -0.4031 0.4030 -0.8216
vn -0.1112 -0.5590 -0.8216
vn 0.4031 0.4030 -0.8216
vn -0.0343 -0.0068 -0.9994
vn 0.0241 -0.0161 -0.9996
vn -0.0111 -0.0267 -0.9996
vn 0.5267 0.2181 -0.8216
vn 0.0160 -0.0240 -0.9996
vn 0.3167 0.4739 -0.8216
vn -0.0258 -0.0137 -0.9995
vn 0.5267 -0.2181 -0.8216
vn -0.5700 0.0000 -0.8216
vn 0.4031 -0.4030 -0.8216
vn -0.9149 0.0000 -0.4035
vn -0.6470 -0.6469 -0.4035
vn 0.6469 -0.6470 -0.4035
vn 0.3502 0.8453 -0.4035
vn -0.3958 0.3959 -0.8285
vn 0.8887 -0.1768 -0.4230
vn 0.5599 0.0000 -0.8286
vn 0.5490 -0.1092 -0.8286
vn -0.4655 -0.3110 -0.8285
vn 0.2142 -0.5173 -0.8285
vn 0.5034 -0.7534 -0.4230
vn -0.5173 0.2143 -0.8285
vn 0.5492 0.1092 -0.8285
vn -0.6407 -0.6408 -0.4230
vn -0.3958 -0.3959 -0.8286
vn 0.4655 -0.3111 -0.8285
vn -0.5955 0.1184 -0.7946
vn -0.9062 0.0000 -0.4229
vn -0.2143 0.5173 -0.8285
vn 0.9061 0.0000 -0.4229
vn 0.7534 0.5034 -0.4229
vn -0.5034 -0.7534 -0.4229
vn -0.1768 0.8887 -0.4230
vn -0.5035 0.7534 -0.4229
vn 0.8372 -0.3468 -0.4230
vn 0.1111 0.5590 -0.8216
vn 0.4030 -0.4031 -0.8216
vn -0.0289 0.0000 -0.9996
vn 0.4740 0.3167 -0.8216
vn -0.0110 0.0267 -0.9996
vn -0.3167 0.4739 -0.8216
vn 0.0259 -0.0137 -0.9995
vn -0.5591 -0.1112 -0.8216
vn -0.0267 -0.0110 -0.9996
vn 0.0205 0.0204 -0.9996
vn 0.3166 0.4740 -0.8216
vn -0.4030 0.4031 -0.8216
vn 0.5999 -0.1193 -0.7911
vn 0.0292 0.0027 -0.9995
vn 0.0111 0.0267 -0.9996
vn 0.2182 0.5266 -0.8216
vn 0.0110 -0.0267 -0.9996
vn -0.0284 -0.0056 -0.9996
vn -0.0204 0.0204 -0.9996
vn -0.0285 0.0056 -0.9996
vn 0.0344 -0.0068 -0.9994
vn -0.8973 0.1785 -0.4036
vn -0.7607 -0.5083 -0.4036
vn -0.5083 -0.7608 -0.4035
vn -0.3110 0.4655 -0.8285
vn 0.1092 0.5492 -0.8285
vn 0.3111 -0.4655 -0.8285
vn -0.6407 -0.6407 -0.4230
vn -0.1092 0.5492 -0.8285
vn 0.4655 -0.3110 -0.8285
vn -0.8887 0.1768 -0.4230
vn -0.5600 0.0000 -0.8285
vn -0.5954 0.1184 -0.7946
vn 0.4655 0.3111 -0.8285
vn 0.6407 0.6407 -0.4230
vn -0.5590 0.1112 -0.8216
vn -0.3168 0.4739 -0.8216
vn 0.4740 -0.3167 -0.8216
vn 0.0291 0.0027 -0.9995
vn 0.2182 -0.5266 -0.8216
vn -0.5267 0.2181 -0.8216
vn 0.5592 0.1112 -0.8216
vn -0.0160 -0.0240 -0.9996
vn -0.3166 -0.4739 -0.8216
vn 0.0204 -0.0204 -0.9996
vn 0.0258 -0.0137 -0.9995
vn 0.0266 0.0110 -0.9996
vn -0.0266 -0.0110 -0.9996
vn 0.0343 -0.0068 -0.9994
s 1
f 2//1 3//2 1//3
f 4//4 5//5 3//2
f 6//6 7//7 5//5
f 8//8 9//9 7//7
f 10//10 11//11 9//9
f 11//11 14//12 13//13
f 14//12 15//14 13//13
f 16//15 17//16 15//14
f 18//17 19//18 17//16
f 20//19 21//20 19//18
f 22//21 23//22 21//20
f 23//22 26//23 25//24
f 26//23 27//25 25//24
f 28//26 29//27 27//25
f 30//28 31//29 29//27
f 32//30 33//31 31//29
f 34//32 35//33 33//31
f 36//34 37//35 35//33
f 38//36 39//37 37//35
f 40//38 41//39 39//37
f 42//40 43//41 41//39
f 44//42 45//43 43//41
f 46//44 47//45 45//43
f 48//46 49//47 47//45
f 50//48 51//49 49//47
f 52//50 53//51 51//49
f 54//52 55//53 53//51
f 56//54 57//55 55//53
f 58//56 59//57 57//55
f 60//58 61//59 59//57
f 64//60 1//3 63//61
f 62//62 63//61 61//59
f 206//63 65//64 96//65
f 207//66 85//67 84//68
f 195//69 72//70 208//71
f 209//72 92//73 91//74
f 210//75 80//76 79//77
f 211//78 68//79 67//80
f 199//81 86//82 212//83
f 200//84 74//85 213//86
f 201//87 93//88 214//89
f 202//90 81//91 215//92
f 203//93 69//94 216//95
f 217//96 89//97 88//98
f 218//99 77//100 76//101
f 206//63 95//102 219//103
f 207//66 83//104 220//105
f 221//106 72//70 71//107
f 222//108 91//74 90//109
f 223//110 79//77 78//111
f 224//112 67//80 66//113
f 194//114 86//82 85//67
f 213//86 73//115 195//69
f 196//116 93//88 92//73
f 197//117 81//91 80//76
f 216//95 68//79 198//118
f 199//81 88//98 87//119
f 193//120 66//113 65//64
f 200//84 76//101 75//121
f 219//103 94//122 201//87
f 220//105 82//123 202//90
f 221//106 70//124 203//93
f 204//125 90//109 89//97
f 205//126 78//111 77//100
f 95//102 126//26 94//122
f 90//109 121//17 89//97
f 85//67 116//8 84//68
f 80//76 111//62 79//77
f 74//85 107//52 106//50
f 70//124 101//40 69//94
f 96//65 127//28 95//102
f 91//74 122//19 90//109
f 86//82 117//10 85//67
f 81//91 112//60 80//76
f 76//101 107//52 75//121
f 71//107 102//42 70//124
f 66//113 97//32 65//64
f 65//64 128//30 96//65
f 92//73 123//21 91//74
f 87//119 118//127 86//82
f 82//123 113//1 81//91
f 77//100 108//54 76//101
f 72//70 103//44 71//107
f 67//80 98//34 66//113
f 93//88 124//128 92//73
f 88//98 119//12 87//119
f 83//104 114//4 82//123
f 78//111 109//56 77//100
f 73//115 104//46 72//70
f 68//79 99//36 67//80
f 94//122 125//23 93//88
f 89//97 120//15 88//98
f 84//68 115//6 83//104
f 79//77 110//58 78//111
f 74//85 105//48 73//115
f 69//94 100//38 68//79
f 161//129 129//130 130//131
f 181//132 132//133 162//134
f 163//135 133//136 134//137
f 164//138 135//139 136//140
f 184//141 138//142 165//143
f 185//144 140//145 166//146
f 167//147 141//148 142//149
f 168//150 143//151 144//152
f 188//153 146//154 169//155
f 189//156 148//157 170//158
f 171//159 149//160 150//161
f 172//162 151//163 152//164
f 192//165 154//166 173//167
f 161//129 155//168 174//169
f 162//134 156//170 175//171
f 163//135 157//172 176//173
f 164//138 158//174 177//175
f 165//143 159//176 178//177
f 166//146 160//178 179//179
f 181//132 142//149 131//180
f 182//181 144//152 133//136
f 169//155 135//139 183//182
f 170//158 137//183 184//141
f 185//144 150//161 139//184
f 172//162 141//148 186//185
f 179//179 129//130 180//186
f 187//187 154//166 143//151
f 174//169 145//188 188//153
f 175//171 147//189 189//156
f 176//173 149//160 190//190
f 177//175 151//163 191//191
f 178//177 153//192 192//165
f 1//3 161//129 63//61
f 41//39 162//134 39//37
f 15//14 182//181 163//135
f 55//53 164//138 53//51
f 31//29 165//143 29//27
f 7//7 166//146 5//5
f 43//41 186//185 167//147
f 19//18 187//187 168//150
f 59//57 169//155 57//55
f 33//31 189//156 170//158
f 9//9 190//190 171//159
f 47//45 191//191 172//162
f 25//24 173//167 23//22
f 63//61 174//169 61//59
f 39//37 175//171 37//35
f 13//13 163//135 176//173
f 53//51 177//175 51//49
f 29//27 178//177 27//25
f 5//5 179//179 3//2
f 41//39 167//147 181//132
f 17//16 168//150 182//181
f 57//55 183//182 55//53
f 33//31 184//141 31//29
f 7//7 171//159 185//144
f 47//45 186//185 45//43
f 3//2 180//186 1//3
f 23//22 187//187 21//20
f 59//57 174//169 188//153
f 35//33 175//171 189//156
f 11//11 176//173 190//190
f 49//47 177//175 191//191
f 27//25 192//165 25//24
f 129//130 206//63 130//131
f 131//180 207//66 132//133
f 134//137 195//69 208//71
f 135//139 209//72 136//140
f 137//183 210//75 138//142
f 139//184 211//78 140//145
f 141//148 212//83 142//149
f 143//151 213//86 144//152
f 146//154 201//87 214//89
f 148//157 202//90 215//92
f 149//160 216//95 150//161
f 151//163 217//96 152//164
f 153//192 218//99 154//166
f 155//168 206//63 219//103
f 156//170 207//66 220//105
f 134//137 221//106 157//172
f 158//174 209//72 222//108
f 138//142 223//110 159//176
f 160//178 211//78 224//112
f 131//180 212//83 194//114
f 133//136 213//86 195//69
f 146//154 196//116 135//139
f 148//157 197//117 137//183
f 150//161 198//118 139//184
f 141//148 217//96 199//81
f 160//178 193//120 129//130
f 154//166 200//84 143//151
f 145//188 219//103 201//87
f 156//170 202//90 147//189
f 149//160 221//106 203//93
f 151//163 222//108 204//125
f 153//192 223//110 205//126
f 226//1 227//2 225//3
f 228//4 229//5 227//2
f 230//6 231//193 229//5
f 231//193 234//10 233//194
f 234//10 235//11 233//194
f 236//127 237//13 235//11
f 238//12 239//195 237//13
f 240//15 241//196 239//195
f 242//17 243//197 241//196
f 244//19 245//20 243//197
f 246//21 247//22 245//20
f 248//128 249//24 247//22
f 250//23 251//25 249//24
f 252//26 253//27 251//25
f 254//28 255//29 253//27
f 256//30 257//31 255//29
f 258//32 259//33 257//31
f 260//34 261//198 259//33
f 262//36 263//37 261//198
f 264//38 265//39 263//37
f 266//40 267//41 265//39
f 268//42 269//43 267//41
f 270//44 271//199 269//43
f 272//46 273//47 271//199
f 274//48 275//49 273//47
f 276//50 277//51 275//49
f 278//52 279//200 277//51
f 280//54 281//55 279//200
f 282//56 283//201 281//55
f 284//58 285//59 283//201
f 288//60 225//3 287//61
f 286//62 287//61 285//59
f 430//202 289//203 320//65
f 431//66 309//67 308//204
f 419//69 296//205 432//206
f 420//116 315//74 433//72
f 434//75 304//76 303//77
f 422//118 291//80 435//207
f 423//81 310//82 436//208
f 424//84 298//85 437//86
f 425//87 317//88 438//209
f 426//210 305//211 439//92
f 440//95 294//212 293//94
f 428//213 312//98 441//214
f 429//215 300//216 442//217
f 443//103 320//65 319//102
f 431//66 307//218 444//219
f 445//106 296//205 295//220
f 446//108 315//74 314//109
f 447//110 303//77 302//111
f 448//112 291//80 290//113
f 436//208 309//67 418//221
f 419//69 298//85 297//222
f 438//209 316//223 420//116
f 421//224 305//211 304//76
f 422//118 293//94 292//79
f 441//214 311//225 423//81
f 417//120 290//113 289//203
f 442//217 299//226 424//84
f 425//87 319//102 318//122
f 426//210 307//218 306//227
f 427//228 295//220 294//212
f 428//213 314//109 313//229
f 429//215 302//111 301//230
f 319//102 350//26 318//122
f 314//109 345//17 313//229
f 309//67 340//8 308//204
f 304//76 335//62 303//77
f 299//226 330//50 298//85
f 294//212 325//40 293//94
f 320//65 351//28 319//102
f 315//74 346//19 314//109
f 310//82 341//10 309//67
f 305//211 336//60 304//76
f 299//226 332//54 331//52
f 295//220 326//42 294//212
f 290//113 321//32 289//203
f 289//203 352//30 320//65
f 316//223 347//21 315//74
f 311//225 342//127 310//82
f 306//227 337//1 305//211
f 300//216 333//56 332//54
f 296//205 327//44 295//220
f 291//80 322//34 290//113
f 317//88 348//128 316//223
f 312//98 343//12 311//225
f 307//218 338//4 306//227
f 302//111 333//56 301//230
f 297//222 328//46 296//205
f 292//79 323//36 291//80
f 318//122 349//23 317//88
f 313//229 344//15 312//98
f 308//204 339//6 307//218
f 303//77 334//58 302//111
f 298//85 329//48 297//222
f 293//94 324//38 292//79
f 404//186 354//131 385//231
f 405//232 356//133 386//134
f 406//233 358//234 387//235
f 407//182 360//140 388//138
f 408//236 362//142 389//143
f 390//146 363//184 364//145
f 410//185 366//149 391//147
f 392//237 367//151 368//238
f 412//153 370//154 393//239
f 413//240 372//157 394//158
f 414//190 374//161 395//241
f 396//162 375//163 376//242
f 397//167 377//192 378//243
f 385//231 379//168 398//169
f 386//134 380//244 399//171
f 387//235 381//172 400//245
f 388//138 382//174 401//175
f 402//177 362//142 383//246
f 390//146 384//178 403//179
f 391//147 355//180 405//232
f 392//237 357//136 406//233
f 407//182 370//154 359//139
f 394//158 361//183 408//236
f 395//241 363//184 409//247
f 396//162 365//248 410//185
f 403//179 353//130 404//186
f 411//249 378//243 367//151
f 412//153 379//168 369//188
f 413//240 380//244 371//189
f 400//245 373//160 414//190
f 415//250 382//174 375//163
f 402//177 377//192 416//251
f 287//61 404//186 385//231
f 263//37 405//232 386//134
f 239//195 406//233 387//235
f 277//51 407//182 388//138
f 253//27 408//236 389//143
f 231//193 390//146 229//5
f 269//43 391//147 267//41
f 245//20 392//237 243//197
f 281//55 412//153 393//239
f 257//31 413//240 394//158
f 233//194 414//190 395//241
f 271//199 415//250 396//162
f 249//24 397//167 247//22
f 287//61 398//169 285//59
f 263//37 399//171 261//198
f 237//13 387//235 400//245
f 277//51 401//175 275//49
f 253//27 402//177 251//25
f 229//5 403//179 227//2
f 265//39 391//147 405//232
f 243//197 406//233 241//196
f 281//55 407//182 279//200
f 257//31 408//236 255//29
f 233//194 409//247 231//193
f 271//199 410//185 269//43
f 227//2 404//186 225//3
f 245//20 397//167 411//249
f 283//201 398//169 412//153
f 261//198 413//240 259//33
f 237//13 414//190 235//11
f 275//49 415//250 273//47
f 251//25 416//251 249//24
f 353//130 430//202 354//131
f 356//133 418//221 431//66
f 357//136 432//206 358//234
f 359//139 433//72 360//140
f 361//183 434//75 362//142
f 363//184 435//207 364//145
f 365//248 436//208 366//149
f 368//238 424//84 437//86
f 369//188 438//209 370//154
f 371//189 439//92 372//157
f 373//160 440//95 374//161
f 375//163 441//214 376//242
f 377//192 442//217 378//243
f 354//131 443//103 379//168
f 356//133 444//219 380//244
f 358//234 445//106 381//172
f 360//140 446//108 382//174
f 383//246 434//75 447//110
f 364//145 448//112 384//178
f 366//149 418//221 355//180
f 368//238 419//69 357//136
f 370//154 420//116 359//139
f 361//183 439//92 421//224
f 374//161 422//118 363//184
f 365//248 441//214 423//81
f 384//178 417//120 353//130
f 367//151 442//217 424//84
f 379//168 425//87 369//188
f 371//189 444//219 426//210
f 381//172 427//228 373//160
f 382//174 428//213 375//163
f 383//246 429//215 377//192
f 451//61 450//1 449//3
f 453//59 452//60 451//61
f 455//57 454//62 453//59
f 457//55 456//58 455//57
f 459//200 458//56 457//55
f 459//200 462//52 460//54
f 463//49 462//52 461//51
f 465//252 464//50 463//49
f 467//199 466//48 465//252
f 469//43 468//46 467//199
f 471//41 470//44 469//43
f 473//253 472//42 471//41
f 475//37 474//40 473//253
f 477//198 476//38 475//37
f 479//33 478//36 477//198
f 481//31 480//34 479//33
f 483//29 482//32 481//31
f 485//27 484//30 483//29
f 487//25 486//28 485//27
f 489//254 488//26 487//25
f 491//22 490//23 489//254
f 493//20 492//128 491//22
f 495//197 494//21 493//20
f 497//196 496//19 495//197
f 499//14 498//17 497//196
f 501//13 500//15 499//14
f 503//11 502//12 501//13
f 505//9 504//127 503//11
f 507//7 506//10 505//9
f 509//255 508//8 507//7
f 449//3 512//4 511//2
f 511//2 510//6 509//255
f 654//112 513//64 641//120
f 655//110 533//100 642//256
f 520//257 643//258 656//259
f 657//106 540//124 644//260
f 658//105 528//227 645//90
f 659//261 516//262 646//87
f 534//216 647//263 660//99
f 522//98 648//81 661//264
f 541//265 649//118 662//266
f 529//91 650//117 663//92
f 517//88 651//267 664//209
f 665//268 537//269 652//69
f 666//208 525//67 653//114
f 543//80 654//112 667//207
f 531//77 655//110 668//270
f 669//72 520//257 656//259
f 670//71 539//107 657//106
f 671//66 527//218 658//105
f 672//63 515//102 659//261
f 642//256 534//216 660//99
f 521//271 661//264 643//258
f 644//260 541//265 662//266
f 645//90 529//91 663//92
f 516//262 664//209 646//87
f 647//263 536//85 665//268
f 641//120 514//65 672//63
f 648//81 524//272 666//208
f 542//273 667//207 649//118
f 530//274 668//270 650//117
f 518//73 669//72 651//267
f 652//69 538//205 670//71
f 653//114 526//204 671//66
f 574//38 543//80 542//273
f 569//48 538//205 537//269
f 564//58 533//100 532//275
f 559//6 528//227 527//218
f 554//15 523//119 522//98
f 549//23 518//73 517//88
f 575//36 544//113 543//80
f 570//46 539//107 538//205
f 565//56 534//216 533//100
f 560//4 529//91 528//227
f 555//12 524//272 523//119
f 550//128 519//276 518//73
f 545//32 514//65 513//64
f 576//34 513//64 544//113
f 571//44 540//124 539//107
f 566//54 535//226 534//216
f 561//1 530//274 529//91
f 556//127 525//67 524//272
f 551//21 520//257 519//276
f 546//30 515//102 514//65
f 572//42 541//265 540//124
f 567//52 536//85 535//226
f 562//60 531//77 530//274
f 557//10 526//204 525//67
f 552//19 521//271 520//257
f 547//28 516//262 515//102
f 573//40 542//273 541//265
f 568//50 537//269 536//85
f 563//62 532//275 531//77
f 558//8 527//218 526//204
f 553//17 522//98 521//271
f 548//26 517//88 516//262
f 609//277 577//130 628//186
f 580//246 629//278 610//177
f 611//175 581//279 630//191
f 584//172 631//280 612//173
f 586//170 632//156 613//171
f 588//281 633//282 614//169
f 615//167 589//283 634//187
f 616//284 591//285 635//185
f 594//286 636//287 617//241
f 596//157 637//236 618//158
f 619//288 597//139 638//182
f 620//289 599//290 639//181
f 602//149 640//232 621//147
f 603//291 609//277 622//292
f 604//293 610//177 623//143
f 605//140 611//175 624//138
f 606//234 612//173 625//135
f 607//133 613//171 626//134
f 608//131 614//169 627//231
f 629//278 590//166 615//167
f 630//191 592//294 616//284
f 583//160 617//241 631//280
f 585//189 618//158 632//156
f 633//282 598//295 619//288
f 589//283 620//289 634//187
f 577//130 627//231 628//186
f 635//185 602//149 621//147
f 593//184 622//292 636//287
f 595//183 623//143 637//236
f 597//139 624//138 638//182
f 599//290 625//135 639//181
f 601//180 626//134 640//232
f 609//277 449//3 511//2
f 610//177 489//254 487//25
f 463//49 630//191 465//252
f 612//173 503//11 501//13
f 613//171 479//33 477//198
f 614//169 455//57 453//59
f 491//22 634//187 493//20
f 616//284 469//43 467//199
f 617//241 507//7 505//9
f 481//31 637//236 483//29
f 457//55 638//182 459//200
f 495//197 639//181 497//196
f 621//147 473//253 471//41
f 622//292 511//2 509//255
f 485//27 610//177 487//25
f 461//51 611//175 463//49
f 625//135 501//13 499//14
f 626//134 477//198 475//37
f 627//231 453//59 451//61
f 489//254 615//167 491//22
f 465//252 616//284 467//199
f 631//280 505//9 503//11
f 632//156 481//31 479//33
f 455//57 619//288 457//55
f 634//187 495//197 493//20
f 628//186 451//61 449//3
f 635//185 471//41 469//43
f 507//7 622//292 509//255
f 483//29 623//143 485//27
f 459//200 624//138 461//51
f 497//196 625//135 499//14
f 640//232 475//37 473//253
f 654//112 577//130 578//178
f 655//110 579//192 580//246
f 582//296 643//258 581//279
f 657//106 583//160 584//172
f 658//105 585//189 586//170
f 659//261 587//188 588//281
f 660//99 589//283 590//166
f 661//264 591//285 592//294
f 594//286 649//118 593//184
f 596//157 650//117 595//183
f 664//209 597//139 598//295
f 665//268 599//290 600//297
f 666//208 601//180 602//149
f 603//291 654//112 578//178
f 604//293 655//110 580//246
f 669//72 582//296 605//140
f 606//234 657//106 584//172
f 671//66 586//170 607//133
f 608//131 659//261 588//281
f 579//192 660//99 590//166
f 581//279 661//264 592//294
f 644//260 594//286 583//160
f 645//90 596//157 585//189
f 646//87 598//295 587//188
f 589//283 665//268 600//297
f 641//120 608//131 577//130
f 648//81 602//149 591//285
f 593//184 667//207 603//291
f 595//183 668//270 604//293
f 597//139 669//72 605//140
f 652//69 606//234 599//290
f 601//180 671//66 607//133
f 675//61 674//1 673//3
f 677//59 676//60 675//61
f 679//201 678//62 677//59
f 681//55 680//58 679//201
f 683//200 682//56 681//55
f 685//51 684//54 683//200
f 687//298 686//52 685//51
f 689//47 688//50 687//298
f 691//199 690//48 689//47
f 691//199 694//44 692//46
f 695//299 694//44 693//43
f 697//39 696//42 695//299
f 699//300 698//40 697//39
f 701//198 700//38 699//300
f 703//33 702//36 701//198
f 705//31 704//34 703//33
f 707//29 706//32 705//31
f 709//27 708//30 707//29
f 711//25 710//28 709//27
f 713//24 712//26 711//25
f 715//22 714//23 713//24
f 717//20 716//128 715//22
f 719//18 718//21 717//20
f 721//196 720//19 719//18
f 723//14 722//17 721//196
f 725//13 724//15 723//14
f 727//11 726//12 725//13
f 729//9 728//127 727//11
f 731//193 730//10 729//9
f 733//5 732//8 731//193
f 673//3 736//4 735//2
f 735//2 734//6 733//5
f 878//112 737//203 865//120
f 879//301 757//230 866//215
f 744//109 867//213 880//108
f 763//107 868//228 881//106
f 882//105 752//227 869//302
f 739//102 870//303 883//103
f 758//101 871//84 884//99
f 746//98 872//81 885//264
f 765//304 873//118 886//95
f 753//211 874//305 887//92
f 888//89 742//223 875//306
f 760//307 876//308 889//309
f 748//82 877//221 890//310
f 891//207 768//113 878//112
f 755//77 879//301 892//270
f 893//72 744//109 880//108
f 894//206 763//107 881//106
f 895//66 751//218 882//105
f 896//63 739//102 883//103
f 866//215 758//101 884//99
f 867//213 746//98 885//264
f 764//212 886//95 868//228
f 869//302 753//211 887//92
f 740//122 888//89 870//303
f 759//226 889//309 871//84
f 865//120 738//65 896//63
f 747//119 890//310 872//81
f 873//118 767//80 891//207
f 874//305 755//77 892//270
f 875//306 743//276 893//72
f 876//308 762//205 894//206
f 877//221 750//68 895//66
f 798//38 767//80 766//79
f 793//48 762//205 761//222
f 788//58 757//230 756//111
f 783//6 752//227 751//218
f 778//15 747//119 746//98
f 773//23 742//223 741//88
f 799//36 768//113 767//80
f 794//46 763//107 762//205
f 789//56 758//101 757//230
f 784//4 753//211 752//227
f 747//119 780//127 748//82
f 774//128 743//276 742//223
f 769//32 738//65 737//203
f 800//34 737//203 768//113
f 795//44 764//212 763//107
f 790//54 759//226 758//101
f 785//1 754//76 753//211
f 748//82 781//10 749//311
f 775//21 744//109 743//276
f 770//30 739//102 738//65
f 796//42 765//304 764//212
f 791//52 760//307 759//226
f 786//60 755//77 754//76
f 781//10 750//68 749//311
f 776//19 745//229 744//109
f 771//28 740//122 739//102
f 797//40 766//79 765//304
f 792//50 761//222 760//307
f 787//62 756//111 755//77
f 782//8 751//218 750//68
f 777//17 746//98 745//229
f 772//26 741//88 740//122
f 802//178 852//186 833//179
f 804//176 853//251 834//177
f 806//174 854//250 835//312
f 836//173 807//160 855//190
f 810//244 856//240 837//171
f 838//169 811//188 857//313
f 814//166 858//187 839//314
f 816//294 859//185 840//284
f 818//286 860//287 841//241
f 820//157 861//141 842//158
f 822//295 862//182 843//155
f 844//289 823//315 863//233
f 845//147 825//180 864//232
f 827//145 833//179 846//146
f 828//293 834//177 847//316
f 829//140 835//312 848//317
f 830//234 836//173 849//318
f 831//319 837//171 850//320
f 832//131 838//169 851//231
f 803//321 839//314 853//251
f 854//250 816//294 840//284
f 855//190 818//286 841//241
f 809//189 842//158 856//240
f 811//188 843//155 857//313
f 813//322 844//289 858//187
f 801//130 851//231 852//186
f 859//185 826//149 845//147
f 817//184 846//146 860//287
f 861//141 828//293 847//316
f 821//139 848//317 862//182
f 863//233 830//234 849//318
f 825//180 850//320 864//232
f 833//179 673//3 735//2
f 711//25 853//251 713//24
f 687//298 854//250 689//47
f 725//13 855//190 727//11
f 701//198 856//240 703//33
f 838//169 679//201 677//59
f 839//314 717//20 715//22
f 840//284 693//43 691//199
f 729//9 860//287 731//193
f 842//158 707//29 705//31
f 681//55 862//182 683//200
f 719//18 863//233 721//196
f 845//147 697//39 695//299
f 733//5 833//179 735//2
f 709//27 834//177 711//25
f 685//51 835//312 687//298
f 849//318 725//13 723//14
f 850//320 701//198 699//300
f 851//231 677//59 675//61
f 713//24 839//314 715//22
f 854//250 691//199 689//47
f 855//190 729//9 727//11
f 856//240 705//31 703//33
f 679//201 843//155 681//55
f 858//187 719//18 717//20
f 852//186 675//61 673//3
f 693//43 845//147 695//299
f 860//287 733//5 731//193
f 861//141 709//27 707//29
f 862//182 685//51 683//200
f 863//233 723//14 721//196
f 864//232 699//300 697//39
f 878//112 801//130 802//178
f 804//176 866//215 803//321
f 880//108 805//279 806//174
f 881//106 807//160 808//323
f 882//105 809//189 810//244
f 883//103 811//188 812//281
f 884//99 813//322 814//166
f 816//294 872//81 815//324
f 886//95 817//184 818//286
f 887//92 819//183 820//157
f 888//89 821//139 822//295
f 889//309 823//315 824//325
f 890//310 825//180 826//149
f 891//207 802//178 827//145
f 828//293 879//301 804//176
f 893//72 806//174 829//140
f 894//206 808//323 830//234
f 831//319 882//105 810//244
f 896//63 812//281 832//131
f 866//215 814//166 803//321
f 867//213 816//294 805//279
f 868//228 818//286 807//160
f 869//302 820//157 809//189
f 811//188 888//89 822//295
f 813//322 889//309 824//325
f 865//120 832//131 801//130
f 815//324 890//310 826//149
f 873//118 827//145 817//184
f 874//305 828//293 819//183
f 875//306 829//140 821//139
f 823//315 894//206 830//234
f 877//221 831//319 825//180
f 2//1 4//4 3//2
f 4//4 6//6 5//5
f 6//6 8//8 7//7
f 8//8 10//10 9//9
f 10//10 12//127 11//11
f 11//11 12//127 14//12
f 14//12 16//15 15//14
f 16//15 18//17 17//16
f 18//17 20//19 19//18
f 20//19 22//21 21//20
f 22//21 24//128 23//22
f 23//22 24//128 26//23
f 26//23 28//26 27//25
f 28//26 30//28 29//27
f 30//28 32//30 31//29
f 32//30 34//32 33//31
f 34//32 36//34 35//33
f 36//34 38//36 37//35
f 38//36 40//38 39//37
f 40//38 42//40 41//39
f 42//40 44//42 43//41
f 44//42 46//44 45//43
f 46//44 48//46 47//45
f 48//46 50//48 49//47
f 50//48 52//50 51//49
f 52//50 54//52 53//51
f 54//52 56//54 55//53
f 56//54 58//56 57//55
f 58//56 60//58 59//57
f 60//58 62//62 61//59
f 64//60 2//1 1//3
f 62//62 64//60 63//61
f 206//63 193//120 65//64
f 207//66 194//114 85//67
f 195//69 73//115 72//70
f 209//72 196//116 92//73
f 210//75 197//117 80//76
f 211//78 198//118 68//79
f 199//81 87//119 86//82
f 200//84 75//121 74//85
f 201//87 94//122 93//88
f 202//90 82//123 81//91
f 203//93 70//124 69//94
f 217//96 204//125 89//97
f 218//99 205//126 77//100
f 206//63 96//65 95//102
f 207//66 84//68 83//104
f 221//106 208//71 72//70
f 222//108 209//72 91//74
f 223//110 210//75 79//77
f 224//112 211//78 67//80
f 194//114 212//83 86//82
f 213//86 74//85 73//115
f 196//116 214//89 93//88
f 197//117 215//92 81//91
f 216//95 69//94 68//79
f 199//81 217//96 88//98
f 193//120 224//112 66//113
f 200//84 218//99 76//101
f 219//103 95//102 94//122
f 220//105 83//104 82//123
f 221//106 71//107 70//124
f 204//125 222//108 90//109
f 205//126 223//110 78//111
f 95//102 127//28 126//26
f 90//109 122//19 121//17
f 85//67 117//10 116//8
f 80//76 112//60 111//62
f 74//85 75//121 107//52
f 70//124 102//42 101//40
f 96//65 128//30 127//28
f 91//74 123//21 122//19
f 86//82 118//127 117//10
f 81//91 113//1 112//60
f 76//101 108//54 107//52
f 71//107 103//44 102//42
f 66//113 98//34 97//32
f 65//64 97//32 128//30
f 92//73 124//128 123//21
f 87//119 119//12 118//127
f 82//123 114//4 113//1
f 77//100 109//56 108//54
f 72//70 104//46 103//44
f 67//80 99//36 98//34
f 93//88 125//23 124//128
f 88//98 120//15 119//12
f 83//104 115//6 114//4
f 78//111 110//58 109//56
f 73//115 105//48 104//46
f 68//79 100//38 99//36
f 94//122 126//26 125//23
f 89//97 121//17 120//15
f 84//68 116//8 115//6
f 79//77 111//62 110//58
f 74//85 106//50 105//48
f 69//94 101//40 100//38
f 161//129 180//186 129//130
f 181//132 131//180 132//133
f 163//135 182//181 133//136
f 164//138 183//182 135//139
f 184//141 137//183 138//142
f 185//144 139//184 140//145
f 167//147 186//185 141//148
f 168//150 187//187 143//151
f 188//153 145//188 146//154
f 189//156 147//189 148//157
f 171//159 190//190 149//160
f 172//162 191//191 151//163
f 192//165 153//192 154//166
f 161//129 130//131 155//168
f 162//134 132//133 156//170
f 163//135 134//137 157//172
f 164//138 136//140 158//174
f 165//143 138//142 159//176
f 166//146 140//145 160//178
f 181//132 167//147 142//149
f 182//181 168//150 144//152
f 169//155 146//154 135//139
f 170//158 148//157 137//183
f 185//144 171//159 150//161
f 172//162 152//164 141//148
f 179//179 160//178 129//130
f 187//187 173//167 154//166
f 174//169 155//168 145//188
f 175//171 156//170 147//189
f 176//173 157//172 149//160
f 177//175 158//174 151//163
f 178//177 159//176 153//192
f 1//3 180//186 161//129
f 41//39 181//132 162//134
f 15//14 17//16 182//181
f 55//53 183//182 164//138
f 31//29 184//141 165//143
f 7//7 185//144 166//146
f 43//41 45//43 186//185
f 19//18 21//20 187//187
f 59//57 188//153 169//155
f 33//31 35//33 189//156
f 9//9 11//11 190//190
f 47//45 49//47 191//191
f 25//24 192//165 173//167
f 63//61 161//129 174//169
f 39//37 162//134 175//171
f 13//13 15//14 163//135
f 53//51 164//138 177//175
f 29//27 165//143 178//177
f 5//5 166//146 179//179
f 41//39 43//41 167//147
f 17//16 19//18 168//150
f 57//55 169//155 183//182
f 33//31 170//158 184//141
f 7//7 9//9 171//159
f 47//45 172//162 186//185
f 3//2 179//179 180//186
f 23//22 173//167 187//187
f 59//57 61//59 174//169
f 35//33 37//35 175//171
f 11//11 13//13 176//173
f 49//47 51//49 177//175
f 27//25 178//177 192//165
f 129//130 193//120 206//63
f 131//180 194//114 207//66
f 134//137 133//136 195//69
f 135//139 196//116 209//72
f 137//183 197//117 210//75
f 139//184 198//118 211//78
f 141//148 199//81 212//83
f 143//151 200//84 213//86
f 146//154 145//188 201//87
f 148//157 147//189 202//90
f 149//160 203//93 216//95
f 151//163 204//125 217//96
f 153//192 205//126 218//99
f 155//168 130//131 206//63
f 156//170 132//133 207//66
f 134//137 208//71 221//106
f 158//174 136//140 209//72
f 138//142 210//75 223//110
f 160//178 140//145 211//78
f 131//180 142//149 212//83
f 133//136 144//152 213//86
f 146//154 214//89 196//116
f 148//157 215//92 197//117
f 150//161 216//95 198//118
f 141//148 152//164 217//96
f 160//178 224//112 193//120
f 154//166 218//99 200//84
f 145//188 155//168 219//103
f 156//170 220//105 202//90
f 149//160 157//172 221//106
f 151//163 158//174 222//108
f 153//192 159//176 223//110
f 226//1 228//4 227//2
f 228//4 230//6 229//5
f 230//6 232//8 231//193
f 231//193 232//8 234//10
f 234//10 236//127 235//11
f 236//127 238//12 237//13
f 238//12 240//15 239//195
f 240//15 242//17 241//196
f 242//17 244//19 243//197
f 244//19 246//21 245//20
f 246//21 248//128 247//22
f 248//128 250//23 249//24
f 250//23 252//26 251//25
f 252//26 254//28 253//27
f 254//28 256//30 255//29
f 256//30 258//32 257//31
f 258//32 260//34 259//33
f 260//34 262//36 261//198
f 262//36 264//38 263//37
f 264//38 266//40 265//39
f 266//40 268//42 267//41
f 268//42 270//44 269//43
f 270//44 272//46 271//199
f 272//46 274//48 273//47
f 274//48 276//50 275//49
f 276//50 278//52 277//51
f 278//52 280//54 279//200
f 280//54 282//56 281//55
f 282//56 284//58 283//201
f 284//58 286//62 285//59
f 288//60 226//1 225//3
f 286//62 288//60 287//61
f 430//202 417//120 289//203
f 431//66 418//221 309//67
f 419//69 297//222 296//205
f 420//116 316//223 315//74
f 434//75 421//224 304//76
f 422//118 292//79 291//80
f 423//81 311//225 310//82
f 424//84 299//226 298//85
f 425//87 318//122 317//88
f 426//210 306//227 305//211
f 440//95 427//228 294//212
f 428//213 313//229 312//98
f 429//215 301//230 300//216
f 443//103 430//202 320//65
f 431//66 308//204 307//218
f 445//106 432//206 296//205
f 446//108 433//72 315//74
f 447//110 434//75 303//77
f 448//112 435//207 291//80
f 436//208 310//82 309//67
f 419//69 437//86 298//85
f 438//209 317//88 316//223
f 421//224 439//92 305//211
f 422//118 440//95 293//94
f 441//214 312//98 311//225
f 417//120 448//112 290//113
f 442//217 300//216 299//226
f 425//87 443//103 319//102
f 426//210 444//219 307//218
f 427//228 445//106 295//220
f 428//213 446//108 314//109
f 429//215 447//110 302//111
f 319//102 351//28 350//26
f 314//109 346//19 345//17
f 309//67 341//10 340//8
f 304//76 336//60 335//62
f 299//226 331//52 330//50
f 294//212 326//42 325//40
f 320//65 352//30 351//28
f 315//74 347//21 346//19
f 310//82 342//127 341//10
f 305//211 337//1 336//60
f 299//226 300//216 332//54
f 295//220 327//44 326//42
f 290//113 322//34 321//32
f 289//203 321//32 352//30
f 316//223 348//128 347//21
f 311//225 343//12 342//127
f 306//227 338//4 337//1
f 300//216 301//230 333//56
f 296//205 328//46 327//44
f 291//80 323//36 322//34
f 317//88 349//23 348//128
f 312//98 344//15 343//12
f 307//218 339//6 338//4
f 302//111 334//58 333//56
f 297//222 329//48 328//46
f 292//79 324//38 323//36
f 318//122 350//26 349//23
f 313//229 345//17 344//15
f 308//204 340//8 339//6
f 303//77 335//62 334//58
f 298//85 330//50 329//48
f 293//94 325//40 324//38
f 404//186 353//130 354//131
f 405//232 355//180 356//133
f 406//233 357//136 358//234
f 407//182 359//139 360//140
f 408//236 361//183 362//142
f 390//146 409//247 363//184
f 410//185 365//248 366//149
f 392//237 411//249 367//151
f 412//153 369//188 370//154
f 413//240 371//189 372//157
f 414//190 373//160 374//161
f 396//162 415//250 375//163
f 397//167 416//251 377//192
f 385//231 354//131 379//168
f 386//134 356//133 380//244
f 387//235 358//234 381//172
f 388//138 360//140 382//174
f 402//177 389//143 362//142
f 390//146 364//145 384//178
f 391//147 366//149 355//180
f 392//237 368//238 357//136
f 407//182 393//239 370//154
f 394//158 372//157 361//183
f 395//241 374//161 363//184
f 396//162 376//242 365//248
f 403//179 384//178 353//130
f 411//249 397//167 378//243
f 412//153 398//169 379//168
f 413//240 399//171 380//244
f 400//245 381//172 373//160
f 415//250 401//175 382//174
f 402//177 383//246 377//192
f 287//61 225//3 404//186
f 263//37 265//39 405//232
f 239//195 241//196 406//233
f 277//51 279//200 407//182
f 253//27 255//29 408//236
f 231//193 409//247 390//146
f 269//43 410//185 391//147
f 245//20 411//249 392//237
f 281//55 283//201 412//153
f 257//31 259//33 413//240
f 233//194 235//11 414//190
f 271//199 273//47 415//250
f 249//24 416//251 397//167
f 287//61 385//231 398//169
f 263//37 386//134 399//171
f 237//13 239//195 387//235
f 277//51 388//138 401//175
f 253//27 389//143 402//177
f 229//5 390//146 403//179
f 265//39 267//41 391//147
f 243//197 392//237 406//233
f 281//55 393//239 407//182
f 257//31 394//158 408//236
f 233//194 395//241 409//247
f 271//199 396//162 410//185
f 227//2 403//179 404//186
f 245//20 247//22 397//167
f 283//201 285//59 398//169
f 261//198 399//171 413//240
f 237//13 400//245 414//190
f 275//49 401//175 415//250
f 251//25 402//177 416//251
f 353//130 417//120 430//202
f 356//133 355//180 418//221
f 357//136 419//69 432//206
f 359//139 420//116 433//72
f 361//183 421//224 434//75
f 363//184 422//118 435//207
f 365//248 423//81 436//208
f 368//238 367//151 424//84
f 369//188 425//87 438//209
f 371//189 426//210 439//92
f 373//160 427//228 440//95
f 375//163 428//213 441//214
f 377//192 429//215 442//217
f 354//131 430//202 443//103
f 356//133 431//66 444//219
f 358//234 432//206 445//106
f 360//140 433//72 446//108
f 383//246 362//142 434//75
f 364//145 435//207 448//112
f 366//149 436//208 418//221
f 368//238 437//86 419//69
f 370//154 438//209 420//116
f 361//183 372//157 439//92
f 374//161 440//95 422//118
f 365//248 376//242 441//214
f 384//178 448//112 417//120
f 367//151 378//243 442//217
f 379//168 443//103 425//87
f 371//189 380//244 444//219
f 381//172 445//106 427//228
f 382//174 446//108 428//213
f 383//246 447//110 429//215
f 451//61 452//60 450//1
f 453//59 454//62 452//60
f 455//57 456//58 454//62
f 457//55 458//56 456//58
f 459//200 460//54 458//56
f 459//200 461//51 462//52
f 463//49 464//50 462//52
f 465//252 466//48 464//50
f 467//199 468//46 466//48
f 469//43 470//44 468//46
f 471//41 472//42 470//44
f 473//253 474//40 472//42
f 475//37 476//38 474//40
f 477//198 478//36 476//38
f 479//33 480//34 478//36
f 481//31 482//32 480//34
f 483//29 484//30 482//32
f 485//27 486//28 484//30
f 487//25 488//26 486//28
f 489//254 490//23 488//26
f 491//22 492//128 490//23
f 493//20 494//21 492//128
f 495//197 496//19 494//21
f 497//196 498//17 496//19
f 499//14 500//15 498//17
f 501//13 502//12 500//15
f 503//11 504//127 502//12
f 505//9 506//10 504//127
f 507//7 508//8 506//10
f 509//255 510//6 508//8
f 449//3 450//1 512//4
f 511//2 512//4 510//6
f 654//112 544//113 513//64
f 655//110 532//275 533//100
f 520//257 521//271 643//258
f 657//106 539//107 540//124
f 658//105 527//218 528//227
f 659//261 515//102 516//262
f 534//216 535//226 647//263
f 522//98 523//119 648//81
f 541//265 542//273 649//118
f 529//91 530//274 650//117
f 517//88 518//73 651//267
f 665//268 536//85 537//269
f 666//208 524//272 525//67
f 543//80 544//113 654//112
f 531//77 532//275 655//110
f 669//72 519//276 520//257
f 670//71 538//205 539//107
f 671//66 526//204 527//218
f 672//63 514//65 515//102
f 642//256 533//100 534//216
f 521//271 522//98 661//264
f 644//260 540//124 541//265
f 645//90 528//227 529//91
f 516//262 517//88 664//209
f 647//263 535//226 536//85
f 641//120 513//64 514//65
f 648//81 523//119 524//272
f 542//273 543//80 667//207
f 530//274 531//77 668//270
f 518//73 519//276 669//72
f 652//69 537//269 538//205
f 653//114 525//67 526//204
f 574//38 575//36 543//80
f 569//48 570//46 538//205
f 564//58 565//56 533//100
f 559//6 560//4 528//227
f 554//15 555//12 523//119
f 549//23 550//128 518//73
f 575//36 576//34 544//113
f 570//46 571//44 539//107
f 565//56 566//54 534//216
f 560//4 561//1 529//91
f 555//12 556//127 524//272
f 550//128 551//21 519//276
f 545//32 546//30 514//65
f 576//34 545//32 513//64
f 571//44 572//42 540//124
f 566//54 567//52 535//226
f 561//1 562//60 530//274
f 556//127 557//10 525//67
f 551//21 552//19 520//257
f 546//30 547//28 515//102
f 572//42 573//40 541//265
f 567//52 568//50 536//85
f 562//60 563//62 531//77
f 557//10 558//8 526//204
f 552//19 553//17 521//271
f 547//28 548//26 516//262
f 573//40 574//38 542//273
f 568//50 569//48 537//269
f 563//62 564//58 532//275
f 558//8 559//6 527//218
f 553//17 554//15 522//98
f 548//26 549//23 517//88
f 609//277 578//178 577//130
f 580//246 579//192 629//278
f 611//175 582//296 581//279
f 584//172 583//160 631//280
f 586//170 585//189 632//156
f 588//281 587//188 633//282
f 615//167 590//166 589//283
f 616//284 592//294 591//285
f 594//286 593//184 636//287
f 596//157 595//183 637//236
f 619//288 598//295 597//139
f 620//289 600//297 599//290
f 602//149 601//180 640//232
f 603//291 578//178 609//277
f 604//293 580//246 610//177
f 605//140 582//296 611//175
f 606//234 584//172 612//173
f 607//133 586//170 613//171
f 608//131 588//281 614//169
f 629//278 579//192 590//166
f 630//191 581//279 592//294
f 583//160 594//286 617//241
f 585//189 596//157 618//158
f 633//282 587//188 598//295
f 589//283 600//297 620//289
f 577//130 608//131 627//231
f 635//185 591//285 602//149
f 593//184 603//291 622//292
f 595//183 604//293 623//143
f 597//139 605//140 624//138
f 599//290 606//234 625//135
f 601//180 607//133 626//134
f 609//277 628//186 449//3
f 610//177 629//278 489//254
f 463//49 611//175 630//191
f 612//173 631//280 503//11
f 613//171 632//156 479//33
f 614//169 633//282 455//57
f 491//22 615//167 634//187
f 616//284 635//185 469//43
f 617//241 636//287 507//7
f 481//31 618//158 637//236
f 457//55 619//288 638//182
f 495//197 620//289 639//181
f 621//147 640//232 473//253
f 622//292 609//277 511//2
f 485//27 623//143 610//177
f 461//51 624//138 611//175
f 625//135 612//173 501//13
f 626//134 613//171 477//198
f 627//231 614//169 453//59
f 489//254 629//278 615//167
f 465//252 630//191 616//284
f 631//280 617//241 505//9
f 632//156 618//158 481//31
f 455//57 633//282 619//288
f 634//187 620//289 495//197
f 628//186 627//231 451//61
f 635//185 621//147 471//41
f 507//7 636//287 622//292
f 483//29 637//236 623//143
f 459//200 638//182 624//138
f 497//196 639//181 625//135
f 640//232 626//134 475//37
f 654//112 641//120 577//130
f 655//110 642//256 579//192
f 582//296 656//259 643//258
f 657//106 644//260 583//160
f 658//105 645//90 585//189
f 659//261 646//87 587//188
f 660//99 647//263 589//283
f 661//264 648//81 591//285
f 594//286 662//266 649//118
f 596//157 663//92 650//117
f 664//209 651//267 597//139
f 665//268 652//69 599//290
f 666//208 653//114 601//180
f 603//291 667//207 654//112
f 604//293 668//270 655//110
f 669//72 656//259 582//296
f 606//234 670//71 657//106
f 671//66 658//105 586//170
f 608//131 672//63 659//261
f 579//192 642//256 660//99
f 581//279 643//258 661//264
f 644//260 662//266 594//286
f 645//90 663//92 596//157
f 646//87 664//209 598//295
f 589//283 647//263 665//268
f 641//120 672//63 608//131
f 648//81 666//208 602//149
f 593//184 649//118 667//207
f 595//183 650//117 668//270
f 597//139 651//267 669//72
f 652//69 670//71 606//234
f 601//180 653//114 671//66
f 675//61 676//60 674//1
f 677//59 678//62 676//60
f 679//201 680//58 678//62
f 681//55 682//56 680//58
f 683//200 684//54 682//56
f 685//51 686//52 684//54
f 687//298 688//50 686//52
f 689//47 690//48 688//50
f 691//199 692//46 690//48
f 691//199 693//43 694//44
f 695//299 696//42 694//44
f 697//39 698//40 696//42
f 699//300 700//38 698//40
f 701//198 702//36 700//38
f 703//33 704//34 702//36
f 705//31 706//32 704//34
f 707//29 708//30 706//32
f 709//27 710//28 708//30
f 711//25 712//26 710//28
f 713//24 714//23 712//26
f 715//22 716//128 714//23
f 717//20 718//21 716//128
f 719//18 720//19 718//21
f 721//196 722//17 720//19
f 723//14 724//15 722//17
f 725//13 726//12 724//15
f 727//11 728//127 726//12
f 729//9 730//10 728//127
f 731//193 732//8 730//10
f 733//5 734//6 732//8
f 673//3 674//1 736//4
f 735//2 736//4 734//6
f 878//112 768//113 737//203
f 879//301 756//111 757//230
f 744//109 745//229 867//213
f 763//107 764//212 868//228
f 882//105 751//218 752//227
f 739//102 740//122 870//303
f 758//101 759//226 871//84
f 746//98 747//119 872//81
f 765//304 766//79 873//118
f 753//211 754//76 874//305
f 888//89 741//88 742//223
f 760//307 761//222 876//308
f 748//82 749//311 877//221
f 891//207 767//80 768//113
f 755//77 756//111 879//301
f 893//72 743//276 744//109
f 894//206 762//205 763//107
f 895//66 750//68 751//218
f 896//63 738//65 739//102
f 866//215 757//230 758//101
f 867//213 745//229 746//98
f 764//212 765//304 886//95
f 869//302 752//227 753//211
f 740//122 741//88 888//89
f 759//226 760//307 889//309
f 865//120 737//203 738//65
f 747//119 748//82 890//310
f 873//118 766//79 767//80
f 874//305 754//76 755//77
f 875//306 742//223 743//276
f 876//308 761//222 762//205
f 877//221 749//311 750//68
f 798//38 799//36 767//80
f 793//48 794//46 762//205
f 788//58 789//56 757//230
f 783//6 784//4 752//227
f 778//15 779//12 747//119
f 773//23 774//128 742//223
f 799//36 800//34 768//113
f 794//46 795//44 763//107
f 789//56 790//54 758//101
f 784//4 785//1 753//211
f 747//119 779//12 780//127
f 774//128 775//21 743//276
f 769//32 770//30 738//65
f 800//34 769//32 737//203
f 795//44 796//42 764//212
f 790//54 791//52 759//226
f 785//1 786//60 754//76
f 748//82 780//127 781//10
f 775//21 776//19 744//109
f 770//30 771//28 739//102
f 796//42 797//40 765//304
f 791//52 792//50 760//307
f 786//60 787//62 755//77
f 781//10 782//8 750//68
f 776//19 777//17 745//229
f 771//28 772//26 740//122
f 797//40 798//38 766//79
f 792//50 793//48 761//222
f 787//62 788//58 756//111
f 782//8 783//6 751//218
f 777//17 778//15 746//98
f 772//26 773//23 741//88
f 802//178 801//130 852//186
f 804//176 803//321 853//251
f 806//174 805//279 854//250
f 836//173 808//323 807//160
f 810//244 809//189 856//240
f 838//169 812//281 811//188
f 814//166 813//322 858//187
f 816//294 815//324 859//185
f 818//286 817//184 860//287
f 820//157 819//183 861//141
f 822//295 821//139 862//182
f 844//289 824//325 823//315
f 845//147 826//149 825//180
f 827//145 802//178 833//179
f 828//293 804//176 834//177
f 829//140 806//174 835//312
f 830//234 808//323 836//173
f 831//319 810//244 837//171
f 832//131 812//281 838//169
f 803//321 814//166 839//314
f 854//250 805//279 816//294
f 855//190 807//160 818//286
f 809//189 820//157 842//158
f 811//188 822//295 843//155
f 813//322 824//325 844//289
f 801//130 832//131 851//231
f 859//185 815//324 826//149
f 817//184 827//145 846//146
f 861//141 819//183 828//293
f 821//139 829//140 848//317
f 863//233 823//315 830//234
f 825//180 831//319 850//320
f 833//179 852//186 673//3
f 711//25 834//177 853//251
f 687//298 835//312 854//250
f 725//13 836//173 855//190
f 701//198 837//171 856//240
f 838//169 857//313 679//201
f 839//314 858//187 717//20
f 840//284 859//185 693//43
f 729//9 841//241 860//287
f 842//158 861//141 707//29
f 681//55 843//155 862//182
f 719//18 844//289 863//233
f 845//147 864//232 697//39
f 733//5 846//146 833//179
f 709//27 847//316 834//177
f 685//51 848//317 835//312
f 849//318 836//173 725//13
f 850//320 837//171 701//198
f 851//231 838//169 677//59
f 713//24 853//251 839//314
f 854//250 840//284 691//199
f 855//190 841//241 729//9
f 856//240 842//158 705//31
f 679//201 857//313 843//155
f 858//187 844//289 719//18
f 852//186 851//231 675//61
f 693//43 859//185 845//147
f 860//287 846//146 733//5
f 861//141 847//316 709//27
f 862//182 848//317 685//51
f 863//233 849//318 723//14
f 864//232 850//320 699//300
f 878//112 865//120 801//130
f 804//176 879//301 866//215
f 880//108 867//213 805//279
f 881//106 868//228 807//160
f 882//105 869//302 809//189
f 883//103 870//303 811//188
f 884//99 871//84 813//322
f 816//294 885//264 872//81
f 886//95 873//118 817//184
f 887//92 874//305 819//183
f 888//89 875//306 821//139
f 889//309 876//308 823//315
f 890//310 877//221 825//180
f 891//207 878//112 802//178
f 828//293 892//270 879//301
f 893//72 880//108 806//174
f 894//206 881//106 808//323
f 831//319 895//66 882//105
f 896//63 883//103 812//281
f 866//215 884//99 814//166
f 867//213 885//264 816//294
f 868//228 886//95 818//286
f 869//302 887//92 820//157
f 811//188 870//303 888//89
f 813//322 871//84 889//309
f 865//120 896//63 832//131
f 815//324 872//81 890//310
f 873//118 891//207 827//145
f 874//305 892//270 828//293
f 875//306 893//72 829//140
f 823//315 876//308 894//206
f 877//221 895//66 831//319
