# Blender v2.79 (sub 0) OBJ File: 'm3_interior_open.blend'
# www.blender.org
o Headlight_Reflector_Sphere
v 0.831908 -0.051576 4.190290
v 0.794146 -0.076809 4.190290
v 0.768914 -0.114571 4.190290
v 0.760053 -0.159115 4.190290
v 0.768914 -0.203659 4.190290
v 0.794146 -0.241421 4.190290
v 0.831908 -0.266654 4.190290
v 0.835299 -0.051576 4.173244
v 0.800411 -0.076809 4.158793
v 0.777099 -0.114571 4.149137
v 0.768914 -0.159115 4.145746
v 0.777099 -0.203659 4.149137
v 0.800411 -0.241421 4.158793
v 0.835299 -0.266654 4.173244
v 0.844955 -0.051576 4.158793
v 0.818253 -0.076809 4.132091
v 0.800411 -0.114571 4.114249
v 0.794146 -0.159115 4.107984
v 0.800411 -0.203659 4.114249
v 0.818253 -0.241421 4.132091
v 0.844955 -0.266654 4.158793
v 0.859406 -0.051576 4.149137
v 0.844955 -0.076809 4.114249
v 0.835299 -0.114571 4.090938
v 0.831908 -0.159115 4.082751
v 0.835299 -0.203659 4.090938
v 0.844955 -0.241421 4.114249
v 0.859406 -0.266654 4.149137
v 0.876452 -0.051576 4.145746
v 0.876452 -0.076809 4.107984
v 0.876452 -0.114571 4.082751
v 0.876452 -0.159115 4.073891
v 0.876452 -0.203659 4.082751
v 0.876452 -0.241421 4.107984
v 0.876452 -0.266654 4.145746
v 0.876452 -0.042716 4.190290
v 0.893498 -0.051576 4.149137
v 0.907950 -0.076809 4.114249
v 0.917606 -0.114571 4.090938
v 0.920996 -0.159115 4.082752
v 0.917606 -0.203659 4.090938
v 0.907950 -0.241421 4.114249
v 0.893498 -0.266654 4.149137
v 0.907950 -0.051576 4.158793
v 0.934652 -0.076809 4.132091
v 0.952493 -0.114571 4.114249
v 0.958759 -0.159115 4.107984
v 0.952493 -0.203659 4.114249
v 0.934652 -0.241421 4.132091
v 0.907950 -0.266654 4.158793
v 0.917606 -0.051576 4.173244
v 0.952493 -0.076809 4.158793
v 0.975805 -0.114571 4.149137
v 0.983991 -0.159115 4.145746
v 0.975805 -0.203659 4.149137
v 0.952493 -0.241421 4.158793
v 0.917606 -0.266654 4.173244
v 0.920996 -0.051576 4.190290
v 0.958759 -0.076809 4.190290
v 0.983991 -0.114571 4.190290
v 0.992851 -0.159115 4.190290
v 0.983991 -0.203659 4.190290
v 0.958759 -0.241421 4.190290
v 0.920996 -0.266654 4.190290
v 0.876452 -0.275514 4.190290
v -0.837009 -0.051576 4.190290
v -0.799246 -0.076809 4.190290
v -0.774014 -0.114571 4.190290
v -0.765154 -0.159115 4.190290
v -0.774014 -0.203659 4.190290
v -0.799246 -0.241421 4.190290
v -0.837009 -0.266654 4.190290
v -0.840399 -0.051576 4.173244
v -0.805511 -0.076809 4.158793
v -0.782200 -0.114571 4.149137
v -0.774014 -0.159115 4.145746
v -0.782200 -0.203659 4.149137
v -0.805511 -0.241421 4.158793
v -0.840399 -0.266654 4.173244
v -0.850055 -0.051576 4.158793
v -0.823353 -0.076809 4.132091
v -0.805511 -0.114571 4.114249
v -0.799246 -0.159115 4.107984
v -0.805511 -0.203659 4.114249
v -0.823353 -0.241421 4.132091
v -0.850055 -0.266654 4.158793
v -0.864506 -0.051576 4.149137
v -0.850055 -0.076809 4.114249
v -0.840399 -0.114571 4.090938
v -0.837009 -0.159115 4.082751
v -0.840399 -0.203659 4.090938
v -0.850055 -0.241421 4.114249
v -0.864506 -0.266654 4.149137
v -0.881553 -0.051576 4.145746
v -0.881553 -0.076809 4.107984
v -0.881553 -0.114571 4.082751
v -0.881553 -0.159115 4.073891
v -0.881553 -0.203659 4.082751
v -0.881553 -0.241421 4.107984
v -0.881553 -0.266654 4.145746
v -0.881553 -0.042716 4.190290
v -0.898599 -0.051576 4.149137
v -0.913050 -0.076809 4.114249
v -0.922706 -0.114571 4.090938
v -0.926097 -0.159115 4.082752
v -0.922706 -0.203659 4.090938
v -0.913050 -0.241421 4.114249
v -0.898599 -0.266654 4.149137
v -0.913050 -0.051576 4.158793
v -0.939752 -0.076809 4.132091
v -0.957594 -0.114571 4.114249
v -0.963859 -0.159115 4.107984
v -0.957594 -0.203659 4.114249
v -0.939752 -0.241421 4.132091
v -0.913050 -0.266654 4.158793
v -0.922706 -0.051576 4.173244
v -0.957594 -0.076809 4.158793
v -0.980905 -0.114571 4.149137
v -0.989091 -0.159115 4.145746
v -0.980905 -0.203659 4.149137
v -0.957594 -0.241421 4.158793
v -0.922706 -0.266654 4.173244
v -0.926097 -0.051576 4.190290
v -0.963859 -0.076809 4.190290
v -0.989091 -0.114571 4.190290
v -0.997952 -0.159115 4.190290
v -0.989091 -0.203659 4.190290
v -0.963859 -0.241421 4.190290
v -0.926097 -0.266654 4.190290
v -0.881553 -0.275514 4.190290
vn -0.8203 -0.5481 -0.1632
vn -0.5522 0.8264 -0.1098
vn -0.9626 -0.1915 -0.1915
vn -0.9626 0.1915 -0.1915
vn -0.5522 -0.8264 -0.1098
vn -0.8203 0.5481 -0.1632
vn -0.8161 -0.1915 -0.5453
vn -0.8161 0.1915 -0.5453
vn -0.4681 -0.8264 -0.3128
vn -0.6954 0.5481 -0.4647
vn -0.6954 -0.5481 -0.4647
vn -0.4681 0.8264 -0.3128
vn -0.5453 -0.1915 -0.8161
vn -0.5453 0.1915 -0.8161
vn -0.3128 -0.8264 -0.4681
vn -0.4647 0.5481 -0.6954
vn -0.4647 -0.5481 -0.6954
vn -0.3128 0.8264 -0.4681
vn -0.1915 -0.1915 -0.9626
vn -0.1915 0.1915 -0.9626
vn -0.1099 -0.8264 -0.5522
vn -0.1632 0.5481 -0.8203
vn -0.1632 -0.5481 -0.8203
vn -0.1099 0.8264 -0.5522
vn 0.1915 -0.1915 -0.9626
vn 0.1915 0.1915 -0.9626
vn 0.1098 -0.8264 -0.5522
vn 0.1632 0.5481 -0.8203
vn 0.1632 -0.5481 -0.8203
vn 0.1098 0.8264 -0.5522
vn 0.5453 -0.1915 -0.8161
vn 0.5453 0.1915 -0.8161
vn 0.3128 -0.8264 -0.4681
vn 0.4647 0.5481 -0.6954
vn 0.4647 -0.5481 -0.6954
vn 0.3128 0.8264 -0.4681
vn 0.8161 -0.1915 -0.5453
vn 0.8161 0.1915 -0.5453
vn 0.4681 -0.8264 -0.3128
vn 0.6954 0.5481 -0.4647
vn 0.6954 -0.5481 -0.4647
vn 0.4681 0.8264 -0.3128
vn 0.9626 -0.1915 -0.1915
vn 0.9626 0.1915 -0.1915
vn 0.5522 -0.8264 -0.1098
vn 0.8203 0.5481 -0.1632
vn 0.8203 -0.5481 -0.1632
vn 0.5522 0.8264 -0.1098
vn -0.1949 -0.9800 -0.0388
vn -0.1949 0.9800 -0.0388
vn -0.1653 -0.9800 -0.1104
vn -0.1653 0.9800 -0.1104
vn -0.1104 -0.9800 -0.1653
vn -0.1104 0.9800 -0.1653
vn -0.0388 -0.9800 -0.1949
vn -0.0388 0.9800 -0.1949
vn 0.0388 -0.9800 -0.1949
vn 0.0388 0.9800 -0.1949
vn 0.1104 -0.9800 -0.1653
vn 0.1104 0.9800 -0.1653
vn 0.1653 -0.9800 -0.1104
vn 0.1653 0.9800 -0.1104
vn 0.1949 -0.9800 -0.0388
vn 0.1949 0.9800 -0.0388
vn 0.1099 -0.8264 -0.5522
vn 0.1099 0.8264 -0.5522
vn -0.1098 -0.8264 -0.5522
vn -0.1098 0.8264 -0.5522
s off
f 5//1 13//1 6//1
f 2//2 8//2 9//2
f 4//3 12//3 5//3
f 4//4 10//4 11//4
f 7//5 13//5 14//5
f 3//6 9//6 10//6
f 11//7 19//7 12//7
f 10//8 18//8 11//8
f 13//9 21//9 14//9
f 9//10 17//10 10//10
f 13//11 19//11 20//11
f 9//12 15//12 16//12
f 18//13 26//13 19//13
f 18//14 24//14 25//14
f 20//15 28//15 21//15
f 16//16 24//16 17//16
f 20//17 26//17 27//17
f 15//18 23//18 16//18
f 25//19 33//19 26//19
f 24//20 32//20 25//20
f 27//21 35//21 28//21
f 24//22 30//22 31//22
f 26//23 34//23 27//23
f 22//24 30//24 23//24
f 32//25 41//25 33//25
f 31//26 40//26 32//26
f 34//27 43//27 35//27
f 30//28 39//28 31//28
f 34//29 41//29 42//29
f 29//30 38//30 30//30
f 40//31 48//31 41//31
f 39//32 47//32 40//32
f 42//33 50//33 43//33
f 38//34 46//34 39//34
f 42//35 48//35 49//35
f 37//36 45//36 38//36
f 47//37 55//37 48//37
f 46//38 54//38 47//38
f 50//39 56//39 57//39
f 46//40 52//40 53//40
f 48//41 56//41 49//41
f 44//42 52//42 45//42
f 54//43 62//43 55//43
f 53//44 61//44 54//44
f 57//45 63//45 64//45
f 52//46 60//46 53//46
f 56//47 62//47 63//47
f 51//48 59//48 52//48
f 65//49 7//49 14//49
f 1//50 36//50 8//50
f 65//51 14//51 21//51
f 8//52 36//52 15//52
f 65//53 21//53 28//53
f 15//54 36//54 22//54
f 65//55 28//55 35//55
f 22//56 36//56 29//56
f 65//57 35//57 43//57
f 29//58 36//58 37//58
f 65//59 43//59 50//59
f 37//60 36//60 44//60
f 65//61 50//61 57//61
f 44//62 36//62 51//62
f 65//63 57//63 64//63
f 51//64 36//64 58//64
f 78//47 70//47 71//47
f 67//48 73//48 66//48
f 77//43 69//43 70//43
f 69//44 75//44 68//44
f 79//45 71//45 72//45
f 68//46 74//46 67//46
f 84//37 76//37 77//37
f 83//38 75//38 76//38
f 79//39 85//39 78//39
f 82//40 74//40 75//40
f 78//41 84//41 77//41
f 74//42 80//42 73//42
f 91//31 83//31 84//31
f 83//32 89//32 82//32
f 93//33 85//33 86//33
f 89//34 81//34 82//34
f 85//35 91//35 84//35
f 88//36 80//36 81//36
f 98//25 90//25 91//25
f 97//26 89//26 90//26
f 100//65 92//65 93//65
f 89//28 95//28 88//28
f 99//29 91//29 92//29
f 95//66 87//66 88//66
f 106//19 97//19 98//19
f 105//20 96//20 97//20
f 108//67 99//67 100//67
f 104//22 95//22 96//22
f 99//23 106//23 98//23
f 103//68 94//68 95//68
f 113//13 105//13 106//13
f 112//14 104//14 105//14
f 115//15 107//15 108//15
f 111//16 103//16 104//16
f 107//17 113//17 106//17
f 110//18 102//18 103//18
f 120//7 112//7 113//7
f 119//8 111//8 112//8
f 115//9 121//9 114//9
f 111//10 117//10 110//10
f 121//11 113//11 114//11
f 117//12 109//12 110//12
f 120//3 126//3 119//3
f 126//4 118//4 119//4
f 122//5 128//5 121//5
f 125//6 117//6 118//6
f 121//1 127//1 120//1
f 124//2 116//2 117//2
f 130//63 79//63 72//63
f 66//64 73//64 101//64
f 130//61 86//61 79//61
f 73//62 80//62 101//62
f 130//59 93//59 86//59
f 80//60 87//60 101//60
f 130//57 100//57 93//57
f 87//58 94//58 101//58
f 130//55 108//55 100//55
f 94//56 102//56 101//56
f 130//53 115//53 108//53
f 102//54 109//54 101//54
f 130//51 122//51 115//51
f 109//52 116//52 101//52
f 130//49 129//49 122//49
f 116//50 123//50 101//50
f 5//1 12//1 13//1
f 2//2 1//2 8//2
f 4//3 11//3 12//3
f 4//4 3//4 10//4
f 7//5 6//5 13//5
f 3//6 2//6 9//6
f 11//7 18//7 19//7
f 10//8 17//8 18//8
f 13//9 20//9 21//9
f 9//10 16//10 17//10
f 13//11 12//11 19//11
f 9//12 8//12 15//12
f 18//13 25//13 26//13
f 18//14 17//14 24//14
f 20//15 27//15 28//15
f 16//16 23//16 24//16
f 20//17 19//17 26//17
f 15//18 22//18 23//18
f 25//19 32//19 33//19
f 24//20 31//20 32//20
f 27//67 34//67 35//67
f 24//22 23//22 30//22
f 26//23 33//23 34//23
f 22//68 29//68 30//68
f 32//25 40//25 41//25
f 31//26 39//26 40//26
f 34//65 42//65 43//65
f 30//28 38//28 39//28
f 34//29 33//29 41//29
f 29//66 37//66 38//66
f 40//31 47//31 48//31
f 39//32 46//32 47//32
f 42//33 49//33 50//33
f 38//34 45//34 46//34
f 42//35 41//35 48//35
f 37//36 44//36 45//36
f 47//37 54//37 55//37
f 46//38 53//38 54//38
f 50//39 49//39 56//39
f 46//40 45//40 52//40
f 48//41 55//41 56//41
f 44//42 51//42 52//42
f 54//43 61//43 62//43
f 53//44 60//44 61//44
f 57//45 56//45 63//45
f 52//46 59//46 60//46
f 56//47 55//47 62//47
f 51//48 58//48 59//48
f 78//47 77//47 70//47
f 67//48 74//48 73//48
f 77//43 76//43 69//43
f 69//44 76//44 75//44
f 79//45 78//45 71//45
f 68//46 75//46 74//46
f 84//37 83//37 76//37
f 83//38 82//38 75//38
f 79//39 86//39 85//39
f 82//40 81//40 74//40
f 78//41 85//41 84//41
f 74//42 81//42 80//42
f 91//31 90//31 83//31
f 83//32 90//32 89//32
f 93//33 92//33 85//33
f 89//34 88//34 81//34
f 85//35 92//35 91//35
f 88//36 87//36 80//36
f 98//25 97//25 90//25
f 97//26 96//26 89//26
f 100//27 99//27 92//27
f 89//28 96//28 95//28
f 99//29 98//29 91//29
f 95//30 94//30 87//30
f 106//19 105//19 97//19
f 105//20 104//20 96//20
f 108//21 107//21 99//21
f 104//22 103//22 95//22
f 99//23 107//23 106//23
f 103//24 102//24 94//24
f 113//13 112//13 105//13
f 112//14 111//14 104//14
f 115//15 114//15 107//15
f 111//16 110//16 103//16
f 107//17 114//17 113//17
f 110//18 109//18 102//18
f 120//7 119//7 112//7
f 119//8 118//8 111//8
f 115//9 122//9 121//9
f 111//10 118//10 117//10
f 121//11 120//11 113//11
f 117//12 116//12 109//12
f 120//3 127//3 126//3
f 126//4 125//4 118//4
f 122//5 129//5 128//5
f 125//6 124//6 117//6
f 121//1 128//1 127//1
f 124//2 123//2 116//2
