# Blender v2.79 (sub 0) OBJ File: 'm3_interior_open.blend'
# www.blender.org
o Rim_Cap_LF_Circle.003
v 1.656032 -0.852706 3.054276
v 1.656032 -0.834525 3.066425
v 1.656032 -0.814324 3.058057
v 1.656032 -0.811798 3.032410
v 1.656032 -0.829979 3.020262
v 1.656032 -0.850180 3.028630
v 1.656032 -0.854446 3.050076
v 1.656032 -0.838985 3.065538
v 1.656032 -0.817539 3.061272
v 1.656032 -0.810058 3.036611
v 1.656032 -0.825519 3.021149
v 1.656032 -0.846965 3.025415
v 1.656032 -0.855333 3.045617
v 1.656032 -0.843185 3.063798
v 1.656032 -0.821319 3.063798
v 1.656032 -0.809171 3.045617
v 1.656032 -0.809171 3.041070
v 1.656032 -0.821319 3.022889
v 1.656032 -0.843185 3.022889
v 1.656032 -0.855333 3.041070
v 1.656032 -0.846965 3.061272
v 1.656032 -0.825519 3.065538
v 1.656032 -0.810058 3.050076
v 1.656032 -0.817538 3.025415
v 1.656032 -0.838985 3.021149
v 1.656032 -0.854446 3.036611
v 1.656032 -0.850180 3.058057
v 1.656032 -0.829979 3.066425
v 1.656032 -0.811798 3.054276
v 1.656032 -0.814324 3.028630
v 1.656032 -0.834525 3.020262
v 1.656032 -0.852706 3.032410
v 1.650805 -0.878274 3.067943
v 1.650805 -0.837367 3.095276
v 1.650805 -0.791913 3.076449
v 1.650805 -0.786230 3.018744
v 1.650805 -0.827137 2.991410
v 1.650805 -0.872591 3.010238
v 1.650805 -0.882189 3.058491
v 1.650805 -0.847400 3.093281
v 1.650805 -0.799147 3.083682
v 1.650805 -0.782315 3.028195
v 1.650805 -0.817104 2.993406
v 1.650805 -0.865357 3.003004
v 1.650805 -0.884185 3.048458
v 1.650805 -0.856851 3.089366
v 1.650805 -0.807653 3.089366
v 1.650805 -0.780319 3.048458
v 1.650805 -0.780319 3.038229
v 1.650805 -0.807653 2.997321
v 1.650805 -0.856851 2.997321
v 1.650805 -0.884185 3.038228
v 1.650805 -0.865357 3.083682
v 1.650805 -0.817104 3.093280
v 1.650805 -0.782315 3.058491
v 1.650805 -0.799147 3.003005
v 1.650805 -0.847400 2.993406
v 1.650805 -0.882189 3.028195
v 1.650805 -0.872591 3.076449
v 1.650805 -0.827137 3.095276
v 1.650805 -0.786230 3.067943
v 1.650805 -0.791913 3.010238
v 1.650805 -0.837367 2.991410
v 1.650805 -0.878274 3.018744
v 1.638560 -0.893615 3.076143
v 1.638560 -0.839072 3.112587
v 1.638560 -0.778467 3.087484
v 1.638560 -0.770889 3.010544
v 1.638560 -0.825432 2.974099
v 1.638560 -0.886037 2.999203
v 1.638560 -0.898835 3.063541
v 1.638560 -0.852450 3.109926
v 1.638560 -0.788112 3.097128
v 1.638560 -0.765669 3.023146
v 1.638560 -0.812054 2.976760
v 1.638560 -0.876392 2.989558
v 1.638560 -0.901496 3.050163
v 1.638560 -0.865051 3.104706
v 1.638560 -0.799453 3.104706
v 1.638560 -0.763008 3.050163
v 1.638560 -0.763008 3.036523
v 1.638560 -0.799453 2.981980
v 1.638560 -0.865051 2.981980
v 1.638560 -0.901496 3.036523
v 1.638560 -0.876392 3.097128
v 1.638560 -0.812054 3.109926
v 1.638560 -0.765669 3.063541
v 1.638560 -0.788112 2.989558
v 1.638560 -0.852450 2.976760
v 1.638560 -0.898835 3.023146
v 1.638560 -0.886037 3.087484
v 1.638560 -0.825432 3.112587
v 1.638560 -0.770889 3.076143
v 1.638560 -0.778467 2.999203
v 1.638560 -0.839072 2.974099
v 1.638560 -0.893615 3.010544
v 1.644779 -0.893615 3.076143
v 1.644779 -0.839072 3.112587
v 1.644779 -0.778467 3.087484
v 1.644779 -0.770889 3.010544
v 1.644779 -0.825432 2.974099
v 1.644779 -0.886037 2.999203
v 1.644779 -0.898835 3.063541
v 1.644779 -0.852450 3.109926
v 1.644779 -0.788112 3.097128
v 1.644779 -0.765669 3.023146
v 1.644779 -0.812054 2.976760
v 1.644779 -0.876392 2.989558
v 1.644779 -0.901496 3.050163
v 1.644779 -0.865051 3.104706
v 1.644779 -0.799453 3.104706
v 1.644779 -0.763008 3.050163
v 1.644779 -0.763008 3.036523
v 1.644779 -0.799453 2.981980
v 1.644779 -0.865051 2.981980
v 1.644779 -0.901496 3.036523
v 1.644779 -0.876392 3.097128
v 1.644779 -0.812054 3.109926
v 1.644779 -0.765669 3.063541
v 1.644779 -0.788112 2.989558
v 1.644779 -0.852450 2.976760
v 1.644779 -0.898835 3.023146
v 1.644779 -0.886037 3.087484
v 1.644779 -0.825432 3.112587
v 1.644779 -0.770889 3.076143
v 1.644779 -0.778467 2.999203
v 1.644779 -0.839072 2.974099
v 1.644779 -0.893615 3.010544
v 1.647085 -0.767336 3.049737
v 1.647085 -0.769831 3.062279
v 1.647085 -0.774724 3.074093
v 1.647085 -0.781828 3.084725
v 1.647085 -0.790870 3.093767
v 1.647085 -0.801503 3.100871
v 1.647085 -0.813317 3.105765
v 1.647085 -0.825858 3.108259
v 1.647085 -0.838646 3.108259
v 1.647085 -0.851187 3.105765
v 1.647085 -0.863001 3.100871
v 1.647085 -0.873634 3.093767
v 1.647085 -0.882676 3.084725
v 1.647085 -0.889780 3.074093
v 1.647085 -0.894673 3.062279
v 1.647085 -0.897168 3.049737
v 1.647085 -0.897168 3.036950
v 1.647085 -0.894673 3.024408
v 1.647085 -0.889780 3.012594
v 1.647085 -0.882676 3.001962
v 1.647085 -0.873634 2.992920
v 1.647085 -0.863001 2.985815
v 1.647085 -0.851187 2.980922
v 1.647085 -0.838646 2.978427
v 1.647085 -0.825858 2.978427
v 1.647085 -0.813317 2.980922
v 1.647085 -0.801503 2.985816
v 1.647085 -0.790870 2.992920
v 1.647085 -0.781828 3.001962
v 1.647085 -0.774724 3.012594
v 1.647085 -0.769831 3.024408
v 1.647085 -0.767336 3.036950
v 1.650805 -0.780067 3.043343
v 1.656232 -0.850988 3.051104
v 1.650805 -0.875642 3.072336
v 1.656232 -0.836208 3.063234
v 1.650805 -0.832252 3.095528
v 1.656232 -0.817912 3.057683
v 1.650805 -0.788862 3.072336
v 1.656232 -0.813516 3.035583
v 1.650805 -0.788862 3.014351
v 1.656232 -0.828296 3.023453
v 1.650805 -0.832252 2.991158
v 1.656232 -0.846592 3.029003
v 1.650805 -0.875642 3.014351
v 1.656232 -0.852142 3.047300
v 1.656232 -0.840013 3.062080
v 1.656232 -0.820985 3.060206
v 1.656232 -0.812362 3.039387
v 1.656232 -0.824491 3.024607
v 1.656232 -0.843519 3.026481
v 1.656232 -0.852532 3.043343
v 1.656232 -0.843519 3.060206
v 1.656232 -0.824491 3.062080
v 1.656232 -0.812362 3.047300
v 1.656232 -0.820985 3.026481
v 1.656232 -0.840013 3.024607
v 1.656232 -0.852142 3.039387
v 1.656232 -0.846592 3.057683
v 1.656232 -0.828296 3.063234
v 1.656232 -0.813516 3.051104
v 1.656232 -0.817912 3.029003
v 1.656232 -0.836208 3.023453
v 1.656232 -0.850988 3.035583
v 1.656232 -0.811972 3.043343
v 1.650805 -0.880464 3.063313
v 1.656232 -0.849114 3.054610
v 1.650805 -0.842433 3.094525
v 1.656232 -0.832252 3.063623
v 1.650805 -0.795352 3.080244
v 1.656232 -0.815390 3.054610
v 1.650805 -0.784040 3.023373
v 1.656232 -0.815390 3.032076
v 1.650805 -0.822071 2.992161
v 1.656232 -0.832252 3.023063
v 1.650805 -0.869152 3.006443
v 1.656232 -0.849114 3.032076
v 1.650805 -0.883434 3.053524
v 1.650805 -0.852222 3.091556
v 1.650805 -0.803260 3.086733
v 1.650805 -0.781070 3.033163
v 1.650805 -0.812282 2.995131
v 1.650805 -0.861244 2.999953
v 1.650805 -0.884437 3.043343
v 1.650805 -0.861244 3.086733
v 1.650805 -0.812282 3.091556
v 1.650805 -0.781070 3.053524
v 1.650805 -0.803260 2.999953
v 1.650805 -0.852222 2.995131
v 1.650805 -0.883434 3.033163
v 1.650805 -0.869152 3.080244
v 1.650805 -0.822071 3.094525
v 1.650805 -0.784040 3.063313
v 1.650805 -0.795352 3.006443
v 1.650805 -0.842433 2.992161
v 1.650805 -0.880464 3.023373
v 1.654326 -0.864212 3.060426
v 1.654326 -0.835804 3.079408
v 1.654326 -0.804239 3.066333
v 1.654326 -0.800292 3.026260
v 1.654326 -0.828700 3.007279
v 1.654326 -0.860265 3.020354
v 1.654326 -0.866931 3.053863
v 1.654326 -0.842772 3.078022
v 1.654326 -0.809262 3.071357
v 1.654326 -0.797573 3.032824
v 1.654326 -0.821732 3.008665
v 1.654326 -0.855242 3.015330
v 1.654326 -0.868317 3.046895
v 1.654326 -0.849335 3.075303
v 1.654326 -0.815169 3.075303
v 1.654326 -0.796188 3.046895
v 1.654326 -0.796188 3.039791
v 1.654326 -0.815169 3.011383
v 1.654326 -0.849335 3.011383
v 1.654326 -0.868317 3.039791
v 1.654326 -0.855242 3.071357
v 1.654326 -0.821732 3.078022
v 1.654326 -0.797573 3.053863
v 1.654326 -0.809262 3.015330
v 1.654326 -0.842772 3.008665
v 1.654326 -0.866931 3.032824
v 1.654326 -0.860265 3.066333
v 1.654326 -0.828700 3.079408
v 1.654326 -0.800292 3.060426
v 1.654326 -0.804239 3.020354
v 1.654326 -0.835804 3.007279
v 1.654326 -0.864212 3.026260
v 1.633941 -0.763008 3.050163
v 1.633941 -0.765669 3.063541
v 1.633941 -0.770889 3.076143
v 1.633941 -0.778467 3.087484
v 1.633941 -0.788112 3.097128
v 1.633941 -0.799453 3.104706
v 1.633941 -0.812054 3.109926
v 1.633941 -0.825432 3.112587
v 1.633941 -0.839072 3.112587
v 1.633941 -0.852450 3.109926
v 1.633941 -0.865051 3.104706
v 1.633941 -0.876392 3.097128
v 1.633941 -0.886037 3.087484
v 1.633941 -0.893615 3.076143
v 1.633941 -0.898835 3.063541
v 1.633941 -0.901496 3.050163
v 1.633941 -0.901496 3.036523
v 1.633941 -0.898835 3.023146
v 1.633941 -0.893615 3.010544
v 1.633941 -0.886037 2.999203
v 1.633941 -0.876392 2.989558
v 1.633941 -0.865051 2.981980
v 1.633941 -0.852450 2.976760
v 1.633941 -0.839072 2.974099
v 1.633941 -0.825432 2.974099
v 1.633941 -0.812054 2.976760
v 1.633941 -0.799453 2.981980
v 1.633941 -0.788112 2.989558
v 1.633941 -0.778467 2.999203
v 1.633941 -0.770889 3.010544
v 1.633941 -0.765669 3.023146
v 1.633941 -0.763008 3.036523
v 1.638560 -0.890105 3.082000
v 1.644779 -0.896535 3.069970
v 1.638560 -0.832252 3.112923
v 1.644779 -0.845826 3.111586
v 1.638560 -0.774399 3.082000
v 1.644779 -0.783052 3.092544
v 1.638560 -0.774399 3.004687
v 1.644779 -0.767969 3.016716
v 1.638560 -0.832252 2.973764
v 1.644779 -0.818678 2.975101
v 1.638560 -0.890105 3.004687
v 1.644779 -0.881452 2.994143
v 1.644779 -0.900495 3.056918
v 1.644779 -0.858879 3.107626
v 1.644779 -0.793596 3.101197
v 1.644779 -0.764009 3.029769
v 1.644779 -0.805625 2.979060
v 1.644779 -0.870908 2.985490
v 1.644779 -0.901832 3.043343
v 1.644779 -0.870908 3.101197
v 1.644779 -0.805625 3.107626
v 1.638560 -0.762672 3.043343
v 1.644779 -0.764009 3.056918
v 1.644779 -0.793596 2.985490
v 1.644779 -0.858879 2.979060
v 1.644779 -0.900495 3.029769
v 1.644779 -0.881452 3.092544
v 1.644779 -0.818678 3.111586
v 1.644779 -0.767969 3.069970
v 1.644779 -0.783052 2.994143
v 1.644779 -0.845826 2.975101
v 1.644779 -0.896535 3.016716
v 1.644779 -0.890105 3.082000
v 1.638560 -0.896535 3.069970
v 1.644779 -0.832252 3.112923
v 1.638560 -0.845826 3.111586
v 1.644779 -0.774399 3.082000
v 1.638560 -0.783052 3.092544
v 1.644779 -0.774399 3.004687
v 1.638560 -0.767969 3.016716
v 1.644779 -0.832252 2.973764
v 1.638560 -0.818678 2.975101
v 1.644779 -0.890105 3.004687
v 1.638560 -0.881452 2.994143
v 1.638560 -0.900495 3.056918
v 1.638560 -0.858879 3.107626
v 1.638560 -0.793596 3.101197
v 1.638560 -0.764009 3.029769
v 1.638560 -0.805625 2.979060
v 1.638560 -0.870908 2.985490
v 1.638560 -0.901832 3.043343
v 1.638560 -0.870908 3.101197
v 1.638560 -0.805625 3.107626
v 1.644779 -0.762672 3.043343
v 1.638560 -0.764009 3.056918
v 1.638560 -0.793596 2.985490
v 1.638560 -0.858879 2.979060
v 1.638560 -0.900495 3.029769
v 1.638560 -0.881452 3.092544
v 1.638560 -0.818678 3.111586
v 1.638560 -0.767969 3.069970
v 1.638560 -0.783052 2.994143
v 1.638560 -0.845826 2.975101
v 1.638560 -0.896535 3.016716
v 1.642424 -0.893615 3.076143
v 1.642424 -0.839072 3.112587
v 1.642424 -0.778467 3.087484
v 1.642424 -0.770889 3.010544
v 1.642424 -0.825432 2.974099
v 1.642424 -0.886037 2.999203
v 1.642424 -0.898835 3.063541
v 1.642424 -0.852450 3.109926
v 1.642424 -0.788112 3.097128
v 1.642424 -0.765669 3.023146
v 1.642424 -0.812054 2.976760
v 1.642424 -0.876392 2.989558
v 1.642424 -0.901496 3.050163
v 1.642424 -0.865051 3.104706
v 1.642424 -0.799453 3.104706
v 1.642424 -0.763008 3.050163
v 1.642424 -0.763008 3.036523
v 1.642424 -0.799453 2.981980
v 1.642424 -0.865051 2.981980
v 1.642424 -0.901496 3.036523
v 1.642424 -0.876392 3.097128
v 1.642424 -0.812054 3.109926
v 1.642424 -0.765669 3.063541
v 1.642424 -0.788112 2.989558
v 1.642424 -0.852450 2.976760
v 1.642424 -0.898835 3.023146
v 1.642424 -0.886037 3.087484
v 1.642424 -0.825432 3.112587
v 1.642424 -0.770889 3.076143
v 1.642424 -0.778467 2.999203
v 1.642424 -0.839072 2.974099
v 1.642424 -0.893615 3.010544
v 1.647085 -0.767021 3.043343
v 1.647085 -0.768274 3.056069
v 1.647085 -0.771986 3.068306
v 1.647085 -0.778014 3.079584
v 1.647085 -0.786127 3.089468
v 1.647085 -0.796012 3.097581
v 1.647085 -0.807289 3.103609
v 1.647085 -0.819526 3.107321
v 1.647085 -0.832252 3.108574
v 1.647085 -0.844978 3.107321
v 1.647085 -0.857215 3.103609
v 1.647085 -0.868492 3.097581
v 1.647085 -0.878377 3.089468
v 1.647085 -0.886490 3.079584
v 1.647085 -0.892518 3.068306
v 1.647085 -0.896230 3.056069
v 1.647085 -0.897483 3.043343
v 1.647085 -0.896230 3.030617
v 1.647085 -0.892518 3.018380
v 1.647085 -0.886490 3.007103
v 1.647085 -0.878377 2.997218
v 1.647085 -0.868492 2.989106
v 1.647085 -0.857215 2.983078
v 1.647085 -0.844978 2.979366
v 1.647085 -0.832252 2.978112
v 1.647085 -0.819526 2.979366
v 1.647085 -0.807289 2.983078
v 1.647085 -0.796012 2.989106
v 1.647085 -0.786127 2.997218
v 1.647085 -0.778014 3.007103
v 1.647085 -0.771986 3.018381
v 1.647085 -0.768274 3.030617
v 1.657507 -0.832252 3.043343
v 1.654376 -0.796741 3.043343
v 1.654376 -0.865060 3.056933
v 1.654376 -0.861778 3.063072
v 1.654376 -0.839180 3.078172
v 1.654376 -0.832252 3.078855
v 1.654376 -0.807142 3.068454
v 1.654376 -0.802726 3.063072
v 1.654376 -0.799444 3.029754
v 1.654376 -0.802726 3.023614
v 1.654376 -0.825324 3.008514
v 1.654376 -0.832252 3.007832
v 1.654376 -0.857362 3.018233
v 1.654376 -0.861778 3.023614
v 1.654376 -0.867081 3.050271
v 1.654376 -0.845842 3.076151
v 1.654376 -0.812523 3.072870
v 1.654376 -0.797423 3.036416
v 1.654376 -0.818662 3.010535
v 1.654376 -0.851981 3.013817
v 1.654376 -0.867763 3.043343
v 1.654376 -0.851981 3.072870
v 1.654376 -0.818662 3.076151
v 1.654376 -0.797423 3.050271
v 1.654376 -0.812523 3.013817
v 1.654376 -0.845842 3.010535
v 1.654376 -0.867081 3.036415
v 1.654376 -0.857362 3.068454
v 1.654376 -0.825324 3.078172
v 1.654376 -0.799444 3.056933
v 1.654376 -0.807142 3.018233
v 1.654376 -0.839180 3.008514
v 1.654376 -0.865060 3.029754
v 1.633941 -0.762672 3.043343
v 1.633941 -0.764009 3.056918
v 1.633941 -0.767969 3.069970
v 1.633941 -0.774399 3.082000
v 1.633941 -0.783052 3.092544
v 1.633941 -0.793596 3.101197
v 1.633941 -0.805625 3.107626
v 1.633941 -0.818678 3.111586
v 1.633941 -0.832252 3.112923
v 1.633941 -0.845826 3.111586
v 1.633941 -0.858879 3.107626
v 1.633941 -0.870908 3.101197
v 1.633941 -0.881452 3.092544
v 1.633941 -0.890105 3.082000
v 1.633941 -0.896535 3.069970
v 1.633941 -0.900495 3.056918
v 1.633941 -0.901832 3.043343
v 1.633941 -0.900495 3.029769
v 1.633941 -0.896535 3.016716
v 1.633941 -0.890105 3.004687
v 1.633941 -0.881452 2.994143
v 1.633941 -0.870908 2.985490
v 1.633941 -0.858879 2.979060
v 1.633941 -0.845826 2.975101
v 1.633941 -0.832252 2.973764
v 1.633941 -0.818678 2.975101
v 1.633941 -0.805625 2.979060
v 1.633941 -0.793596 2.985490
v 1.633941 -0.783052 2.994143
v 1.633941 -0.774399 3.004687
v 1.633941 -0.767969 3.016716
v 1.633941 -0.764009 3.029769
v 1.642424 -0.890105 3.082000
v 1.642424 -0.896535 3.069970
v 1.642424 -0.832252 3.112923
v 1.642424 -0.845826 3.111586
v 1.642424 -0.774399 3.082000
v 1.642424 -0.783052 3.092544
v 1.642424 -0.774399 3.004687
v 1.642424 -0.767969 3.016716
v 1.642424 -0.832252 2.973764
v 1.642424 -0.818678 2.975101
v 1.642424 -0.890105 3.004687
v 1.642424 -0.881452 2.994143
v 1.642424 -0.900495 3.056918
v 1.642424 -0.858879 3.107626
v 1.642424 -0.793596 3.101197
v 1.642424 -0.764009 3.029769
v 1.642424 -0.805625 2.979060
v 1.642424 -0.870908 2.985490
v 1.642424 -0.901832 3.043343
v 1.642424 -0.870908 3.101197
v 1.642424 -0.805625 3.107626
v 1.642424 -0.762672 3.043343
v 1.642424 -0.764009 3.056918
v 1.642424 -0.793596 2.985490
v 1.642424 -0.858879 2.979060
v 1.642424 -0.900495 3.029769
v 1.642424 -0.881452 3.092544
v 1.642424 -0.818678 3.111586
v 1.642424 -0.767969 3.069970
v 1.642424 -0.783052 2.994143
v 1.642424 -0.845826 2.975101
v 1.642424 -0.896535 3.016716
vt 0.419582 0.355204
vt 0.356619 0.290356
vt 0.375439 0.273010
vt 0.400313 0.266962
vt 0.442203 0.367453
vt 0.417250 0.380813
vt 0.333122 0.484685
vt 0.244295 0.500612
vt 0.240346 0.475323
vt 0.249152 0.451298
vt 0.355876 0.472725
vt 0.353102 0.500888
vt 0.392677 0.628421
vt 0.356619 0.710673
vt 0.333400 0.699911
vt 0.318319 0.679272
vt 0.395377 0.602920
vt 0.417250 0.620852
vt 0.575204 0.646243
vt 0.637441 0.710430
vt 0.618598 0.727757
vt 0.593747 0.733825
vt 0.552671 0.634074
vt 0.577624 0.620713
vt 0.661663 0.516762
vt 0.749763 0.500176
vt 0.753691 0.525444
vt 0.744907 0.549489
vt 0.638997 0.528802
vt 0.641771 0.500639
vt 0.602110 0.373026
vt 0.637441 0.290114
vt 0.660638 0.300856
vt 0.675741 0.321515
vt 0.599497 0.398607
vt 0.577624 0.380675
vt 0.449478 0.342795
vt 0.422151 0.253620
vt 0.447725 0.252538
vt 0.469279 0.359216
vt 0.339435 0.452940
vt 0.250210 0.425722
vt 0.263533 0.403870
vt 0.364089 0.445640
vt 0.369796 0.605559
vt 0.297648 0.664188
vt 0.286889 0.640998
vt 0.377427 0.581062
vt 0.545309 0.658653
vt 0.571887 0.747148
vt 0.546336 0.748250
vt 0.525595 0.642312
vt 0.655350 0.548507
vt 0.743827 0.575045
vt 0.730525 0.596917
vt 0.630784 0.555887
vt 0.624991 0.395889
vt 0.696390 0.336579
vt 0.707171 0.359789
vt 0.617447 0.420466
vt 0.481214 0.336454
vt 0.471739 0.243712
vt 0.497030 0.247639
vt 0.497437 0.356418
vt 0.351818 0.423032
vt 0.269558 0.378990
vt 0.286889 0.360152
vt 0.377427 0.420673
vt 0.351818 0.578667
vt 0.269558 0.622170
vt 0.263533 0.597320
vt 0.364089 0.556117
vt 0.481214 0.665021
vt 0.497030 0.753148
vt 0.471739 0.757099
vt 0.447725 0.748334
vt 0.469279 0.642360
vt 0.497437 0.645109
vt 0.513572 0.664994
vt 0.522299 0.757056
vt 0.642967 0.578416
vt 0.724479 0.621778
vt 0.707171 0.640636
vt 0.617446 0.580855
vt 0.642967 0.422781
vt 0.724479 0.378598
vt 0.730525 0.403468
vt 0.630784 0.445410
vt 0.513572 0.336426
vt 0.522299 0.243669
vt 0.546336 0.252453
vt 0.525595 0.359167
vt 0.369796 0.396109
vt 0.297648 0.336923
vt 0.318319 0.321823
vt 0.395377 0.398784
vt 0.339435 0.548780
vt 0.250210 0.575471
vt 0.249152 0.549917
vt 0.355876 0.529046
vt 0.449478 0.658735
vt 0.422151 0.747277
vt 0.400313 0.733992
vt 0.442203 0.634169
vt 0.624990 0.605339
vt 0.696389 0.663844
vt 0.675739 0.678964
vt 0.599496 0.602743
vt 0.655350 0.452668
vt 0.743827 0.425296
vt 0.744907 0.450870
vt 0.638997 0.472481
vt 0.545309 0.342712
vt 0.571887 0.253490
vt 0.593747 0.266795
vt 0.552671 0.367358
vt 0.392677 0.373206
vt 0.333400 0.301138
vt 0.333122 0.517046
vt 0.240346 0.525887
vt 0.419582 0.646377
vt 0.375439 0.727967
vt 0.602109 0.628240
vt 0.660637 0.699629
vt 0.661663 0.484402
vt 0.753691 0.474880
vt 0.575204 0.355070
vt 0.618599 0.272800
vt 0.289908 0.191026
vt 0.276588 0.089668
vt 0.321172 0.172264
vt 0.354119 0.156647
vt 0.124846 0.500003
vt 0.033422 0.453832
vt 0.126639 0.463595
vt 0.131983 0.427534
vt 0.289908 0.808694
vt 0.181128 0.881893
vt 0.260636 0.787002
vt 0.233627 0.762550
vt 0.702586 0.808337
vt 0.728709 0.935358
vt 0.671322 0.827100
vt 0.638376 0.842718
vt 0.867648 0.499362
vt 0.988089 0.546917
vt 0.865856 0.535770
vt 0.860512 0.571830
vt 0.702587 0.190670
vt 0.789946 0.139790
vt 0.731859 0.212362
vt 0.758868 0.236814
vt 0.360669 0.054765
vt 0.388437 0.144342
vt 0.423791 0.135450
vt 0.051177 0.364549
vt 0.140843 0.392169
vt 0.153117 0.357837
vt 0.136565 0.793789
vt 0.209153 0.735561
vt 0.187439 0.706305
vt 0.639024 0.972588
vt 0.604058 0.855023
vt 0.568704 0.863914
vt 0.969150 0.642151
vt 0.851652 0.607195
vt 0.839377 0.641527
vt 0.878068 0.184295
vt 0.783341 0.263804
vt 0.805056 0.293060
vt 0.449928 0.036932
vt 0.459845 0.130075
vt 0.496248 0.128251
vt 0.086004 0.280432
vt 0.168705 0.324875
vt 0.187439 0.293593
vt 0.086004 0.718156
vt 0.168704 0.675054
vt 0.153117 0.642119
vt 0.496248 0.871114
vt 0.446740 0.991694
vt 0.459845 0.869352
vt 0.423791 0.864039
vt 0.543815 0.991610
vt 0.532651 0.869290
vt 0.932001 0.731876
vt 0.823790 0.674489
vt 0.805056 0.705772
vt 0.932001 0.264971
vt 0.823790 0.324310
vt 0.839377 0.357246
vt 0.540936 0.036853
vt 0.532651 0.130012
vt 0.568704 0.135325
vt 0.136565 0.204712
vt 0.209153 0.264299
vt 0.233627 0.237267
vt 0.051177 0.634098
vt 0.140843 0.607808
vt 0.131983 0.572459
vt 0.351530 0.972836
vt 0.388437 0.855209
vt 0.354119 0.842963
vt 0.878068 0.812644
vt 0.783341 0.735065
vt 0.758867 0.762097
vt 0.969150 0.354632
vt 0.851652 0.391556
vt 0.860512 0.426906
vt 0.630196 0.054532
vt 0.604058 0.144156
vt 0.638377 0.156402
vt 0.200917 0.140299
vt 0.260636 0.212769
vt 0.033422 0.544847
vt 0.126639 0.536407
vt 0.261843 0.935761
vt 0.321172 0.827403
vt 0.809425 0.881351
vt 0.731858 0.786595
vt 0.988089 0.449834
vt 0.865856 0.462957
vt 0.714276 0.089290
vt 0.671323 0.171962
vt 0.304057 0.039862
vt 0.260976 0.061454
vt 0.260129 0.060685
vt 0.218443 0.085701
vt 0.259116 0.059764
vt 0.303044 0.038942
vt 0.007876 0.401044
vt 0.001599 0.449896
vt 0.000751 0.449126
vt -0.001639 0.497669
vt -0.000261 0.448205
vt 0.179413 0.880336
vt 0.142559 0.850194
vt 0.180261 0.881105
vt 0.218443 0.909258
vt 0.178401 0.879416
vt 0.141711 0.849424
vt 0.683067 0.954623
vt 0.727842 0.934571
vt 0.726995 0.933801
vt 0.768680 0.908784
vt 0.725982 0.932880
vt 0.979249 0.593440
vt 0.987221 0.546129
vt 0.986374 0.545359
vt 0.988764 0.496815
vt 0.985361 0.544439
vt 0.807711 0.114149
vt 0.846259 0.145830
vt 0.808558 0.114919
vt 0.768682 0.085226
vt 0.806698 0.113228
vt 0.844399 0.144139
vt 0.845412 0.145060
vt 0.396954 0.011599
vt 0.350662 0.024224
vt 0.349815 0.023454
vt 0.304904 0.040632
vt 0.348802 0.022534
vt 0.395941 0.010679
vt 0.036057 0.308116
vt 0.020538 0.354661
vt 0.019690 0.353891
vt 0.018678 0.352971
vt 0.081818 0.772739
vt 0.111618 0.812517
vt 0.110771 0.811747
vt 0.140699 0.848505
vt 0.109758 0.810827
vt 0.590171 0.982885
vt 0.638157 0.971800
vt 0.637309 0.971030
vt 0.636297 0.970110
vt 0.951068 0.686369
vt 0.968282 0.641363
vt 0.967435 0.640593
vt 0.966422 0.639673
vt 0.950056 0.685448
vt 0.905307 0.221745
vt 0.877201 0.183508
vt 0.876354 0.182738
vt 0.875341 0.181817
vt 0.493563 0.002000
vt 0.445872 0.005202
vt 0.445025 0.004432
vt 0.444012 0.003512
vt 0.081818 0.222456
vt 0.057687 0.264936
vt 0.056840 0.264166
vt 0.035044 0.307196
vt 0.055827 0.263246
vt 0.036057 0.687158
vt 0.057687 0.731842
vt 0.056840 0.731072
vt 0.055827 0.730152
vt 0.035044 0.686238
vt 0.445025 0.990135
vt 0.397801 0.983822
vt 0.445872 0.990906
vt 0.493563 0.992484
vt 0.444012 0.989215
vt 0.396954 0.983051
vt 0.542948 0.990822
vt 0.542100 0.990052
vt 0.541088 0.989132
vt 0.492550 0.991563
vt 0.905307 0.772029
vt 0.931133 0.731088
vt 0.930286 0.730318
vt 0.951916 0.687139
vt 0.929273 0.729398
vt 0.904295 0.771108
vt 0.951068 0.307327
vt 0.931133 0.264183
vt 0.930286 0.263413
vt 0.929273 0.262492
vt 0.590172 0.011432
vt 0.542948 0.005118
vt 0.542100 0.004349
vt 0.541088 0.003428
vt 0.589159 0.010512
vt 0.143402 0.147356
vt 0.111618 0.184168
vt 0.110771 0.183398
vt 0.080805 0.221536
vt 0.109758 0.182478
vt 0.007876 0.594278
vt 0.020538 0.642180
vt 0.019690 0.641410
vt 0.036904 0.687928
vt 0.018678 0.640490
vt 0.304057 0.954950
vt 0.350662 0.972048
vt 0.349815 0.971278
vt 0.348802 0.970357
vt 0.876354 0.811087
vt 0.844569 0.847899
vt 0.877201 0.811857
vt 0.875341 0.810166
vt 0.843722 0.847129
vt 0.979249 0.400207
vt 0.968282 0.353844
vt 0.967435 0.353074
vt 0.966422 0.352154
vt 0.683068 0.039535
vt 0.638158 0.023976
vt 0.637311 0.023206
vt 0.591019 0.012202
vt 0.636298 0.022286
vt 0.180261 0.115461
vt 0.179413 0.114691
vt 0.144249 0.148126
vt 0.178401 0.113770
vt 0.001599 0.546979
vt 0.000751 0.546209
vt 0.008724 0.595048
vt -0.000261 0.545289
vt -0.002652 0.496749
vt 0.260976 0.934973
vt 0.260129 0.934203
vt 0.259116 0.933283
vt 0.808557 0.880564
vt 0.807710 0.879794
vt 0.842709 0.846209
vt 0.806697 0.878874
vt 0.987221 0.449046
vt 0.986374 0.448276
vt 0.980096 0.400977
vt 0.978236 0.399287
vt 0.985361 0.447356
vt 0.727844 0.061051
vt 0.726997 0.060282
vt 0.683915 0.040305
vt 0.725984 0.059361
vt 0.261492 0.061924
vt 0.317771 0.070147
vt 0.237508 0.113121
vt 0.219807 0.086940
vt 0.305421 0.041101
vt 0.002115 0.450365
vt 0.040101 0.408755
vt 0.031181 0.499342
vt -0.000275 0.498909
vt 0.009240 0.402283
vt 0.180777 0.881575
vt 0.143426 0.850982
vt 0.220158 0.910816
vt 0.219807 0.910497
vt 0.143075 0.850663
vt 0.728358 0.935040
vt 0.684781 0.956181
vt 0.770395 0.910341
vt 0.770044 0.910022
vt 0.684430 0.955862
vt 0.987738 0.546598
vt 0.980964 0.594998
vt 0.990479 0.498373
vt 0.990128 0.498054
vt 0.980613 0.594679
vt 0.809075 0.115388
vt 0.854774 0.155957
vt 0.753356 0.112676
vt 0.770046 0.086465
vt 0.846776 0.146299
vt 0.351179 0.024694
vt 0.404861 0.043651
vt 0.398317 0.012838
vt 0.021054 0.355130
vt 0.066520 0.321635
vt 0.037420 0.309355
vt 0.112135 0.812986
vt 0.109421 0.757219
vt 0.152764 0.858630
vt 0.083181 0.773978
vt 0.638673 0.972269
vt 0.591886 0.984443
vt 0.591535 0.984124
vt 0.968799 0.641832
vt 0.952783 0.687926
vt 0.952432 0.687608
vt 0.877717 0.183977
vt 0.907022 0.223303
vt 0.847127 0.146617
vt 0.906671 0.222985
vt 0.446389 0.005671
vt 0.495432 0.034651
vt 0.494926 0.003239
vt 0.058203 0.265405
vt 0.109421 0.241329
vt 0.083181 0.223695
vt 0.058203 0.732311
vt 0.066520 0.676987
vt 0.037420 0.688397
vt 0.446389 0.991375
vt 0.398668 0.984610
vt 0.495277 0.994042
vt 0.494926 0.993724
vt 0.398317 0.984291
vt 0.543464 0.991291
vt 0.591019 0.983655
vt 0.931650 0.731557
vt 0.907022 0.773586
vt 0.906155 0.772799
vt 0.906671 0.773268
vt 0.931650 0.264652
vt 0.952783 0.308885
vt 0.952432 0.308566
vt 0.543464 0.005587
vt 0.586003 0.043494
vt 0.591535 0.012671
vt 0.112135 0.184638
vt 0.167156 0.170923
vt 0.144765 0.148595
vt 0.021054 0.642649
vt 0.040101 0.589912
vt 0.009240 0.595517
vt 0.351179 0.972517
vt 0.305772 0.956508
vt 0.305421 0.956189
vt 0.877717 0.812325
vt 0.845437 0.848686
vt 0.845086 0.848368
vt 0.968799 0.354313
vt 0.980964 0.401764
vt 0.980613 0.401446
vt 0.638674 0.024446
vt 0.673094 0.069840
vt 0.684432 0.040774
vt 0.180777 0.115930
vt 0.002115 0.547448
vt 0.261492 0.935442
vt 0.809074 0.881033
vt 0.987738 0.449515
vt 0.728360 0.061521
vt 0.497716 0.501017
vt 0.219290 0.086471
vt 0.217431 0.084781
vt 0.008724 0.401814
vt -0.000792 0.498439
vt 0.006864 0.400124
vt 0.219290 0.910028
vt 0.217431 0.908338
vt 0.683914 0.955393
vt 0.769527 0.909554
vt 0.767668 0.907863
vt 0.682054 0.953703
vt 0.980096 0.594210
vt 0.989611 0.497585
vt 0.987751 0.495895
vt 0.978236 0.592520
vt 0.769529 0.085996
vt 0.767669 0.084306
vt 0.397801 0.012369
vt 0.036904 0.308886
vt 0.082665 0.773509
vt 0.080805 0.771819
vt 0.589159 0.981965
vt 0.906155 0.222515
vt 0.904295 0.220825
vt 0.494410 0.002770
vt 0.492550 0.001080
vt 0.082665 0.223226
vt 0.494410 0.993254
vt 0.395941 0.982131
vt 0.951916 0.308097
vt 0.950056 0.306406
vt 0.142389 0.146435
vt 0.006864 0.593358
vt 0.304904 0.955719
vt 0.303044 0.954029
vt 0.682056 0.038614
vn 0.9943 -0.0942 0.0504
vn 0.9861 -0.1379 0.0921
vn 0.9845 -0.1546 0.0826
vn 0.9861 -0.1532 0.0634
vn 0.9971 -0.0706 0.0292
vn 0.9971 -0.0635 0.0424
vn 0.9943 -0.0104 0.1063
vn 0.9861 0.0000 0.1658
vn 0.9845 -0.0172 0.1745
vn 0.9861 -0.0323 0.1627
vn 0.9971 -0.0149 0.0749
vn 0.9971 0.0000 0.0764
vn 0.9943 0.0826 0.0678
vn 0.9861 0.1379 0.0921
vn 0.9845 0.1355 0.1112
vn 0.9861 0.1173 0.1173
vn 0.9971 0.0540 0.0540
vn 0.9971 0.0635 0.0424
vn 0.9943 0.0942 -0.0504
vn 0.9861 0.1379 -0.0921
vn 0.9845 0.1546 -0.0826
vn 0.9861 0.1532 -0.0634
vn 0.9971 0.0706 -0.0292
vn 0.9971 0.0635 -0.0424
vn 0.9943 0.0104 -0.1063
vn 0.9861 0.0000 -0.1659
vn 0.9845 0.0172 -0.1745
vn 0.9861 0.0323 -0.1627
vn 0.9971 0.0149 -0.0749
vn 0.9971 0.0000 -0.0764
vn 0.9943 -0.0826 -0.0678
vn 0.9861 -0.1379 -0.0921
vn 0.9845 -0.1355 -0.1112
vn 0.9861 -0.1173 -0.1173
vn 0.9971 -0.0540 -0.0540
vn 0.9971 -0.0635 -0.0424
vn 0.9943 -0.1022 0.0310
vn 0.9845 -0.1678 0.0509
vn 0.9861 -0.1627 0.0323
vn 0.9971 -0.0749 0.0149
vn 0.9943 -0.0310 0.1022
vn 0.9845 -0.0509 0.1678
vn 0.9861 -0.0634 0.1532
vn 0.9971 -0.0292 0.0706
vn 0.9943 0.0678 0.0826
vn 0.9845 0.1112 0.1355
vn 0.9861 0.0922 0.1379
vn 0.9971 0.0424 0.0635
vn 0.9943 0.1022 -0.0310
vn 0.9845 0.1678 -0.0509
vn 0.9861 0.1627 -0.0323
vn 0.9971 0.0749 -0.0149
vn 0.9943 0.0310 -0.1022
vn 0.9845 0.0509 -0.1678
vn 0.9861 0.0634 -0.1532
vn 0.9971 0.0292 -0.0706
vn 0.9943 -0.0678 -0.0826
vn 0.9845 -0.1112 -0.1355
vn 0.9861 -0.0922 -0.1379
vn 0.9971 -0.0424 -0.0635
vn 0.9943 -0.1063 0.0105
vn 0.9845 -0.1745 0.0172
vn 0.9861 -0.1659 0.0000
vn 0.9971 -0.0764 0.0000
vn 0.9943 -0.0504 0.0942
vn 0.9845 -0.0826 0.1546
vn 0.9861 -0.0921 0.1379
vn 0.9971 -0.0424 0.0635
vn 0.9943 0.0504 0.0942
vn 0.9845 0.0826 0.1546
vn 0.9861 0.0634 0.1532
vn 0.9971 0.0292 0.0706
vn 0.9943 0.1063 0.0104
vn 0.9861 0.1659 0.0000
vn 0.9845 0.1745 0.0172
vn 0.9861 0.1627 0.0323
vn 0.9971 0.0749 0.0149
vn 0.9971 0.0764 0.0000
vn 0.9943 0.1063 -0.0105
vn 0.9845 0.1745 -0.0172
vn 0.9943 0.0504 -0.0942
vn 0.9845 0.0826 -0.1546
vn 0.9861 0.0921 -0.1379
vn 0.9971 0.0424 -0.0635
vn 0.9943 -0.0504 -0.0942
vn 0.9845 -0.0826 -0.1546
vn 0.9861 -0.0634 -0.1532
vn 0.9971 -0.0292 -0.0706
vn 0.9943 -0.1063 -0.0105
vn 0.9845 -0.1745 -0.0172
vn 0.9861 -0.1627 -0.0323
vn 0.9971 -0.0749 -0.0149
vn 0.9943 -0.0678 0.0826
vn 0.9845 -0.1112 0.1355
vn 0.9861 -0.1173 0.1173
vn 0.9971 -0.0540 0.0540
vn 0.9943 0.0310 0.1022
vn 0.9845 0.0509 0.1678
vn 0.9861 0.0323 0.1627
vn 0.9971 0.0149 0.0749
vn 0.9943 0.1022 0.0310
vn 0.9845 0.1678 0.0509
vn 0.9861 0.1532 0.0634
vn 0.9971 0.0706 0.0292
vn 0.9943 0.0678 -0.0826
vn 0.9845 0.1112 -0.1355
vn 0.9861 0.1173 -0.1173
vn 0.9971 0.0540 -0.0540
vn 0.9943 -0.0310 -0.1022
vn 0.9845 -0.0509 -0.1678
vn 0.9861 -0.0323 -0.1627
vn 0.9971 -0.0149 -0.0749
vn 0.9943 -0.1022 -0.0310
vn 0.9845 -0.1678 -0.0509
vn 0.9861 -0.1532 -0.0634
vn 0.9971 -0.0706 -0.0292
vn 0.9943 -0.0826 0.0678
vn 0.9845 -0.1355 0.1112
vn 0.9943 0.0104 0.1063
vn 0.9845 0.0172 0.1745
vn 0.9943 0.0942 0.0504
vn 0.9845 0.1546 0.0826
vn 0.9943 0.0826 -0.0678
vn 0.9845 0.1355 -0.1112
vn 0.9943 -0.0104 -0.1063
vn 0.9845 -0.0172 -0.1745
vn 0.9943 -0.0942 -0.0504
vn 0.9845 -0.1546 -0.0826
vn 0.9694 -0.2041 0.1364
vn 0.9265 -0.3318 0.1773
vn 0.9693 -0.2169 0.1159
vn 0.9694 -0.2268 0.0939
vn 0.9694 0.0000 0.2455
vn 0.9265 -0.0369 0.3744
vn 0.9693 -0.0241 0.2447
vn 0.9694 -0.0479 0.2408
vn 0.9694 0.2041 0.1364
vn 0.9265 0.2908 0.2387
vn 0.9693 0.1901 0.1560
vn 0.9694 0.1736 0.1736
vn 0.9694 0.2041 -0.1364
vn 0.9265 0.3318 -0.1773
vn 0.9693 0.2169 -0.1159
vn 0.9694 0.2268 -0.0939
vn 0.9694 0.0000 -0.2455
vn 0.9265 0.0369 -0.3744
vn 0.9693 0.0241 -0.2447
vn 0.9694 0.0479 -0.2408
vn 0.9694 -0.2041 -0.1364
vn 0.9265 -0.2908 -0.2387
vn 0.9693 -0.1901 -0.1560
vn 0.9694 -0.1736 -0.1736
vn 0.9265 -0.3600 0.1092
vn 0.9693 -0.2353 0.0714
vn 0.9694 -0.2408 0.0479
vn 0.9265 -0.1092 0.3600
vn 0.9693 -0.0714 0.2353
vn 0.9694 -0.0939 0.2268
vn 0.9265 0.2387 0.2908
vn 0.9693 0.1560 0.1901
vn 0.9694 0.1364 0.2041
vn 0.9265 0.3600 -0.1092
vn 0.9693 0.2353 -0.0714
vn 0.9694 0.2408 -0.0479
vn 0.9265 0.1092 -0.3600
vn 0.9693 0.0714 -0.2353
vn 0.9694 0.0939 -0.2268
vn 0.9265 -0.2387 -0.2908
vn 0.9693 -0.1560 -0.1901
vn 0.9694 -0.1364 -0.2041
vn 0.9265 -0.3744 0.0369
vn 0.9693 -0.2447 0.0241
vn 0.9694 -0.2455 0.0000
vn 0.9265 -0.1773 0.3318
vn 0.9693 -0.1159 0.2169
vn 0.9694 -0.1364 0.2041
vn 0.9265 0.1773 0.3318
vn 0.9693 0.1159 0.2169
vn 0.9694 0.0939 0.2268
vn 0.9694 0.2455 0.0000
vn 0.9265 0.3744 0.0369
vn 0.9693 0.2447 0.0241
vn 0.9694 0.2408 0.0479
vn 0.9265 0.3744 -0.0369
vn 0.9693 0.2447 -0.0241
vn 0.9265 0.1773 -0.3318
vn 0.9693 0.1159 -0.2169
vn 0.9694 0.1364 -0.2041
vn 0.9265 -0.1773 -0.3318
vn 0.9693 -0.1159 -0.2169
vn 0.9694 -0.0939 -0.2268
vn 0.9265 -0.3744 -0.0369
vn 0.9693 -0.2447 -0.0241
vn 0.9694 -0.2408 -0.0479
vn 0.9265 -0.2387 0.2908
vn 0.9693 -0.1560 0.1901
vn 0.9694 -0.1736 0.1736
vn 0.9265 0.1092 0.3600
vn 0.9693 0.0714 0.2353
vn 0.9694 0.0479 0.2408
vn 0.9265 0.3600 0.1092
vn 0.9693 0.2353 0.0714
vn 0.9694 0.2268 0.0939
vn 0.9265 0.2387 -0.2908
vn 0.9693 0.1560 -0.1901
vn 0.9694 0.1736 -0.1736
vn 0.9265 -0.1092 -0.3600
vn 0.9693 -0.0714 -0.2353
vn 0.9694 -0.0479 -0.2408
vn 0.9265 -0.3600 -0.1092
vn 0.9693 -0.2353 -0.0714
vn 0.9694 -0.2268 -0.0939
vn 0.9265 -0.2908 0.2387
vn 0.9693 -0.1901 0.1560
vn 0.9265 0.0368 0.3744
vn 0.9693 0.0241 0.2447
vn 0.9265 0.3318 0.1773
vn 0.9693 0.2168 0.1159
vn 0.9265 0.2908 -0.2387
vn 0.9693 0.1901 -0.1560
vn 0.9265 -0.0368 -0.3744
vn 0.9693 -0.0241 -0.2447
vn 0.9265 -0.3318 -0.1773
vn 0.9693 -0.2169 -0.1159
vn 0.0000 -0.9239 0.3827
vn 0.0000 -0.8819 0.4714
vn 0.0000 -0.8314 0.5556
vn 0.0000 -0.1951 0.9808
vn 0.0000 -0.0980 0.9952
vn 0.0000 0.0000 1.0000
vn 0.0000 0.7730 0.6344
vn 0.0000 0.7071 0.7071
vn 0.0000 0.8314 0.5556
vn 0.0000 0.9239 -0.3827
vn 0.0000 0.8819 -0.4714
vn 0.0000 0.8314 -0.5556
vn 0.0000 0.1951 -0.9808
vn 0.0000 0.0980 -0.9952
vn 0.0000 0.0000 -1.0000
vn 0.0000 -0.7730 -0.6344
vn 0.0000 -0.7071 -0.7071
vn 0.0000 -0.8314 -0.5556
vn 0.0000 -0.9808 0.1951
vn 0.0000 -0.9569 0.2903
vn 0.0000 -0.3827 0.9239
vn 0.0000 -0.2903 0.9569
vn 0.0000 0.5556 0.8314
vn 0.0000 0.6344 0.7730
vn 0.0000 0.9808 -0.1951
vn 0.0000 0.9569 -0.2903
vn 0.0000 0.3827 -0.9239
vn 0.0000 0.2903 -0.9569
vn 0.0000 -0.5556 -0.8314
vn 0.0000 -0.6344 -0.7730
vn 0.0000 -1.0000 0.0000
vn 0.0000 -0.9952 0.0980
vn 0.0000 -0.5556 0.8314
vn 0.0000 -0.4714 0.8819
vn 0.0000 0.3827 0.9239
vn 0.0000 0.4714 0.8819
vn 0.0000 0.9952 0.0980
vn 0.0000 0.9808 0.1951
vn 0.0000 1.0000 0.0000
vn 0.0000 0.9952 -0.0980
vn 0.0000 0.5556 -0.8314
vn 0.0000 0.4714 -0.8819
vn 0.0000 -0.3827 -0.9239
vn 0.0000 -0.4714 -0.8819
vn 0.0000 -0.9808 -0.1951
vn 0.0000 -0.9952 -0.0980
vn 0.0000 -0.7071 0.7071
vn 0.0000 -0.6344 0.7730
vn 0.0000 0.1951 0.9808
vn 0.0000 0.2903 0.9569
vn 0.0000 0.9239 0.3827
vn 0.0000 0.9569 0.2903
vn 0.0000 0.6344 -0.7730
vn 0.0000 0.7071 -0.7071
vn 0.0000 -0.1951 -0.9808
vn 0.0000 -0.2903 -0.9569
vn 0.0000 -0.9239 -0.3827
vn 0.0000 -0.9569 -0.2903
vn 0.0000 -0.7730 0.6344
vn 0.0000 0.0980 0.9952
vn 0.0000 0.8819 0.4714
vn 0.0000 0.7730 -0.6344
vn 0.0000 -0.0980 -0.9952
vn 0.0000 -0.8819 -0.4714
vn 0.5085 -0.7594 0.4059
vn 0.9265 -0.3476 0.1440
vn 0.9265 -0.3128 0.2090
vn 0.5084 -0.7160 0.4784
vn 0.5084 -0.7955 0.3295
vn 0.5085 -0.0844 0.8569
vn 0.9265 -0.0734 0.3690
vn 0.9265 0.0000 0.3763
vn 0.5085 0.0000 0.8610
vn 0.5085 -0.1680 0.8445
vn 0.5085 0.6656 0.5462
vn 0.9265 0.2660 0.2661
vn 0.9265 0.3128 0.2090
vn 0.5084 0.7159 0.4784
vn 0.5084 0.6088 0.6089
vn 0.5085 0.7594 -0.4059
vn 0.9265 0.3476 -0.1440
vn 0.9265 0.3128 -0.2090
vn 0.5084 0.7159 -0.4784
vn 0.5084 0.7955 -0.3295
vn 0.5085 0.0844 -0.8569
vn 0.9265 0.0734 -0.3690
vn 0.9265 0.0000 -0.3763
vn 0.5085 0.0000 -0.8610
vn 0.5085 0.1680 -0.8445
vn 0.5085 -0.6656 -0.5462
vn 0.9265 -0.2660 -0.2660
vn 0.9265 -0.3128 -0.2090
vn 0.5084 -0.7160 -0.4784
vn 0.5085 -0.6089 -0.6088
vn 0.5085 -0.8240 0.2499
vn 0.9265 -0.3690 0.0734
vn 0.5085 -0.8445 0.1680
vn 0.5085 -0.2499 0.8240
vn 0.9265 -0.1440 0.3476
vn 0.5085 -0.3295 0.7955
vn 0.5085 0.5463 0.6656
vn 0.9265 0.2090 0.3128
vn 0.5085 0.4784 0.7159
vn 0.5085 0.8240 -0.2499
vn 0.9265 0.3690 -0.0734
vn 0.5085 0.8445 -0.1680
vn 0.5085 0.2499 -0.8240
vn 0.9265 0.1440 -0.3476
vn 0.5085 0.3295 -0.7955
vn 0.5085 -0.5463 -0.6656
vn 0.9265 -0.2090 -0.3128
vn 0.5085 -0.4784 -0.7159
vn 0.5085 -0.8569 0.0844
vn 0.9265 -0.3762 0.0000
vn 0.5085 -0.8610 0.0000
vn 0.5085 -0.4059 0.7594
vn 0.9265 -0.2090 0.3128
vn 0.5085 -0.4784 0.7159
vn 0.5085 0.4059 0.7594
vn 0.9265 0.1440 0.3476
vn 0.5085 0.3295 0.7955
vn 0.5085 0.8569 0.0844
vn 0.9265 0.3690 0.0734
vn 0.9265 0.3762 0.0000
vn 0.5085 0.8610 0.0000
vn 0.5085 0.8445 0.1680
vn 0.5085 0.8569 -0.0844
vn 0.5085 0.4059 -0.7594
vn 0.9265 0.2090 -0.3128
vn 0.5085 0.4784 -0.7159
vn 0.5085 -0.4059 -0.7594
vn 0.9265 -0.1440 -0.3476
vn 0.5085 -0.3295 -0.7955
vn 0.5085 -0.8569 -0.0844
vn 0.9265 -0.3690 -0.0734
vn 0.5085 -0.8445 -0.1680
vn 0.5085 -0.5463 0.6656
vn 0.9265 -0.2660 0.2661
vn 0.5084 -0.6088 0.6089
vn 0.5085 0.2499 0.8240
vn 0.9265 0.0734 0.3690
vn 0.5085 0.1680 0.8445
vn 0.5085 0.8240 0.2499
vn 0.9265 0.3476 0.1440
vn 0.5084 0.7955 0.3295
vn 0.5085 0.5462 -0.6656
vn 0.9265 0.2660 -0.2661
vn 0.5085 0.6089 -0.6088
vn 0.5085 -0.2499 -0.8240
vn 0.9265 -0.0734 -0.3690
vn 0.5085 -0.1680 -0.8445
vn 0.5085 -0.8240 -0.2499
vn 0.9265 -0.3476 -0.1440
vn 0.5085 -0.7955 -0.3295
vn 0.5085 -0.6656 0.5462
vn 0.5085 0.0844 0.8569
vn 0.5085 0.7594 0.4059
vn 0.5085 0.6656 -0.5462
vn 0.5085 -0.0844 -0.8569
vn 0.5085 -0.7594 -0.4059
vn 1.0000 0.0000 0.0000
vn 0.0000 0.8315 0.5555
vn 0.0000 0.8315 -0.5555
vn 0.0000 0.9239 -0.3826
vn 0.0000 0.5555 0.8315
vn 0.0000 -0.5555 0.8315
vn 0.0000 -0.9239 -0.3826
s 1
f 1/1/1 420/2/2 225/3/3
f 1/1/1 419/4/4 162/5/5
f 162/5/5 195/6/6 1/1/1
f 2/7/7 422/8/8 226/9/9
f 2/7/7 421/10/10 164/11/11
f 164/11/11 197/12/12 2/7/7
f 3/13/13 424/14/14 227/15/15
f 3/13/13 423/16/16 166/17/17
f 166/17/17 199/18/18 3/13/13
f 4/19/19 426/20/20 228/21/21
f 4/19/19 425/22/22 168/23/23
f 168/23/23 201/24/24 4/19/19
f 5/25/25 428/26/26 229/27/27
f 5/25/25 427/28/28 170/29/29
f 170/29/29 203/30/30 5/25/25
f 6/31/31 430/32/32 230/33/33
f 6/31/31 429/34/34 172/35/35
f 172/35/35 205/36/36 6/31/31
f 7/37/37 419/4/4 231/38/38
f 7/37/37 431/39/39 174/40/40
f 174/40/40 162/5/5 7/37/37
f 8/41/41 421/10/10 232/42/42
f 8/41/41 432/43/43 175/44/44
f 175/44/44 164/11/11 8/41/41
f 9/45/45 423/16/16 233/46/46
f 9/45/45 433/47/47 176/48/48
f 176/48/48 166/17/17 9/45/45
f 10/49/49 425/22/22 234/50/50
f 10/49/49 434/51/51 177/52/52
f 177/52/52 168/23/23 10/49/49
f 11/53/53 427/28/28 235/54/54
f 11/53/53 435/55/55 178/56/56
f 178/56/56 170/29/29 11/53/53
f 12/57/57 429/34/34 236/58/58
f 12/57/57 436/59/59 179/60/60
f 179/60/60 172/35/35 12/57/57
f 13/61/61 431/39/39 237/62/62
f 13/61/61 437/63/63 180/64/64
f 180/64/64 174/40/40 13/61/61
f 14/65/65 432/43/43 238/66/66
f 14/65/65 438/67/67 181/68/68
f 181/68/68 175/44/44 14/65/65
f 15/69/69 433/47/47 239/70/70
f 15/69/69 439/71/71 182/72/72
f 182/72/72 176/48/48 15/69/69
f 16/73/73 418/74/74 240/75/75
f 16/73/73 440/76/76 183/77/77
f 183/77/77 193/78/78 16/73/73
f 17/79/79 434/51/51 241/80/80
f 17/79/79 418/74/74 193/78/78
f 193/78/78 177/52/52 17/79/79
f 18/81/81 435/55/55 242/82/82
f 18/81/81 441/83/83 184/84/84
f 184/84/84 178/56/56 18/81/81
f 19/85/85 436/59/59 243/86/86
f 19/85/85 442/87/87 185/88/88
f 185/88/88 179/60/60 19/85/85
f 20/89/89 437/63/63 244/90/90
f 20/89/89 443/91/91 186/92/92
f 186/92/92 180/64/64 20/89/89
f 21/93/93 438/67/67 245/94/94
f 21/93/93 444/95/95 187/96/96
f 187/96/96 181/68/68 21/93/93
f 22/97/97 439/71/71 246/98/98
f 22/97/97 445/99/99 188/100/100
f 188/100/100 182/72/72 22/97/97
f 23/101/101 440/76/76 247/102/102
f 23/101/101 446/103/103 189/104/104
f 189/104/104 183/77/77 23/101/101
f 24/105/105 441/83/83 248/106/106
f 24/105/105 447/107/107 190/108/108
f 190/108/108 184/84/84 24/105/105
f 25/109/109 442/87/87 249/110/110
f 25/109/109 448/111/111 191/112/112
f 191/112/112 185/88/88 25/109/109
f 26/113/113 443/91/91 250/114/114
f 26/113/113 449/115/115 192/116/116
f 192/116/116 186/92/92 26/113/113
f 27/117/117 444/95/95 251/118/118
f 27/117/117 420/2/2 195/6/6
f 195/6/6 187/96/96 27/117/117
f 28/119/119 445/99/99 252/120/120
f 28/119/119 422/8/8 197/12/12
f 197/12/12 188/100/100 28/119/119
f 29/121/121 446/103/103 253/122/122
f 29/121/121 424/14/14 199/18/18
f 199/18/18 189/104/104 29/121/121
f 30/123/123 447/107/107 254/124/124
f 30/123/123 426/20/20 201/24/24
f 201/24/24 190/108/108 30/123/123
f 31/125/125 448/111/111 255/126/126
f 31/125/125 428/26/26 203/30/30
f 203/30/30 191/112/112 31/125/125
f 32/127/127 449/115/115 256/128/128
f 32/127/127 430/32/32 205/36/36
f 205/36/36 192/116/116 32/127/127
f 163/129/129 142/130/130 33/131/131
f 142/130/130 194/132/132 33/131/131
f 194/132/132 225/3/3 33/131/131
f 225/3/3 163/129/129 33/131/131
f 165/133/133 137/134/134 34/135/135
f 137/134/134 196/136/136 34/135/135
f 196/136/136 226/9/9 34/135/135
f 226/9/9 165/133/133 34/135/135
f 167/137/137 132/138/138 35/139/139
f 132/138/138 198/140/140 35/139/139
f 198/140/140 227/15/15 35/139/139
f 227/15/15 167/137/137 35/139/139
f 169/141/141 158/142/142 36/143/143
f 158/142/142 200/144/144 36/143/143
f 200/144/144 228/21/21 36/143/143
f 228/21/21 169/141/141 36/143/143
f 171/145/145 153/146/146 37/147/147
f 153/146/146 202/148/148 37/147/147
f 202/148/148 229/27/27 37/147/147
f 229/27/27 171/145/145 37/147/147
f 173/149/149 148/150/150 38/151/151
f 148/150/150 204/152/152 38/151/151
f 204/152/152 230/33/33 38/151/151
f 230/33/33 173/149/149 38/151/151
f 194/132/132 143/153/153 39/154/154
f 143/153/153 206/155/155 39/154/154
f 206/155/155 231/38/38 39/154/154
f 231/38/38 194/132/132 39/154/154
f 196/136/136 138/156/156 40/157/157
f 138/156/156 207/158/158 40/157/157
f 207/158/158 232/42/42 40/157/157
f 232/42/42 196/136/136 40/157/157
f 198/140/140 133/159/159 41/160/160
f 133/159/159 208/161/161 41/160/160
f 208/161/161 233/46/46 41/160/160
f 233/46/46 198/140/140 41/160/160
f 200/144/144 159/162/162 42/163/163
f 159/162/162 209/164/164 42/163/163
f 209/164/164 234/50/50 42/163/163
f 234/50/50 200/144/144 42/163/163
f 202/148/148 154/165/165 43/166/166
f 154/165/165 210/167/167 43/166/166
f 210/167/167 235/54/54 43/166/166
f 235/54/54 202/148/148 43/166/166
f 204/152/152 149/168/168 44/169/169
f 149/168/168 211/170/170 44/169/169
f 211/170/170 236/58/58 44/169/169
f 236/58/58 204/152/152 44/169/169
f 206/155/155 144/171/171 45/172/172
f 144/171/171 212/173/173 45/172/172
f 212/173/173 237/62/62 45/172/172
f 237/62/62 206/155/155 45/172/172
f 207/158/158 139/174/174 46/175/175
f 139/174/174 213/176/176 46/175/175
f 213/176/176 238/66/66 46/175/175
f 238/66/66 207/158/158 46/175/175
f 208/161/161 134/177/177 47/178/178
f 134/177/177 214/179/179 47/178/178
f 214/179/179 239/70/70 47/178/178
f 239/70/70 208/161/161 47/178/178
f 161/180/180 129/181/181 48/182/182
f 129/181/181 215/183/183 48/182/182
f 215/183/183 240/75/75 48/182/182
f 240/75/75 161/180/180 48/182/182
f 209/164/164 160/184/184 49/185/185
f 160/184/184 161/180/180 49/185/185
f 161/180/180 241/80/80 49/185/185
f 241/80/80 209/164/164 49/185/185
f 210/167/167 155/186/186 50/187/187
f 155/186/186 216/188/188 50/187/187
f 216/188/188 242/82/82 50/187/187
f 242/82/82 210/167/167 50/187/187
f 211/170/170 150/189/189 51/190/190
f 150/189/189 217/191/191 51/190/190
f 217/191/191 243/86/86 51/190/190
f 243/86/86 211/170/170 51/190/190
f 212/173/173 145/192/192 52/193/193
f 145/192/192 218/194/194 52/193/193
f 218/194/194 244/90/90 52/193/193
f 244/90/90 212/173/173 52/193/193
f 213/176/176 140/195/195 53/196/196
f 140/195/195 219/197/197 53/196/196
f 219/197/197 245/94/94 53/196/196
f 245/94/94 213/176/176 53/196/196
f 214/179/179 135/198/198 54/199/199
f 135/198/198 220/200/200 54/199/199
f 220/200/200 246/98/98 54/199/199
f 246/98/98 214/179/179 54/199/199
f 215/183/183 130/201/201 55/202/202
f 130/201/201 221/203/203 55/202/202
f 221/203/203 247/102/102 55/202/202
f 247/102/102 215/183/183 55/202/202
f 216/188/188 156/204/204 56/205/205
f 156/204/204 222/206/206 56/205/205
f 222/206/206 248/106/106 56/205/205
f 248/106/106 216/188/188 56/205/205
f 217/191/191 151/207/207 57/208/208
f 151/207/207 223/209/209 57/208/208
f 223/209/209 249/110/110 57/208/208
f 249/110/110 217/191/191 57/208/208
f 218/194/194 146/210/210 58/211/211
f 146/210/210 224/212/212 58/211/211
f 224/212/212 250/114/114 58/211/211
f 250/114/114 218/194/194 58/211/211
f 219/197/197 141/213/213 59/214/214
f 141/213/213 163/129/129 59/214/214
f 163/129/129 251/118/118 59/214/214
f 251/118/118 219/197/197 59/214/214
f 220/200/200 136/215/215 60/216/216
f 136/215/215 165/133/133 60/216/216
f 165/133/133 252/120/120 60/216/216
f 252/120/120 220/200/200 60/216/216
f 221/203/203 131/217/217 61/218/218
f 131/217/217 167/137/137 61/218/218
f 167/137/137 253/122/122 61/218/218
f 253/122/122 221/203/203 61/218/218
f 222/206/206 157/219/219 62/220/220
f 157/219/219 169/141/141 62/220/220
f 169/141/141 254/124/124 62/220/220
f 254/124/124 222/206/206 62/220/220
f 223/209/209 152/221/221 63/222/222
f 152/221/221 171/145/145 63/222/222
f 171/145/145 255/126/126 63/222/222
f 255/126/126 223/209/209 63/222/222
f 224/212/212 147/223/223 64/224/224
f 147/223/223 173/149/149 64/224/224
f 173/149/149 256/128/128 64/224/224
f 256/128/128 224/212/212 64/224/224
f 322/225/225 353/226/226 65/227/226
f 353/226/226 289/228/227 65/227/226
f 289/228/227 270/229/226 65/227/226
f 65/227/226 464/230/225 322/225/225
f 324/231/228 354/232/229 66/233/229
f 354/232/229 291/234/230 66/233/229
f 291/234/230 265/235/229 66/233/229
f 265/235/229 324/231/228 66/233/229
f 67/236/231 487/237/232 355/238/231
f 355/238/231 293/239/233 67/236/231
f 293/239/233 260/240/231 67/236/231
f 260/240/231 326/241/232 67/236/231
f 328/242/234 356/243/235 68/244/235
f 356/243/235 295/245/236 68/244/235
f 295/245/236 286/246/235 68/244/235
f 286/246/235 328/242/234 68/244/235
f 330/247/237 357/248/238 69/249/238
f 357/248/238 297/250/239 69/249/238
f 297/250/239 281/251/238 69/249/238
f 281/251/238 330/247/237 69/249/238
f 70/252/240 493/253/241 358/254/240
f 358/254/240 299/255/242 70/252/240
f 299/255/242 276/256/240 70/252/240
f 70/252/240 470/257/241 332/258/241
f 333/259/243 359/260/244 71/261/244
f 71/261/244 483/262/225 322/225/225
f 322/225/225 271/263/244 71/261/244
f 71/261/244 465/264/243 333/259/243
f 334/265/245 360/266/246 72/267/246
f 360/266/246 324/231/228 72/267/246
f 324/231/228 266/268/246 72/267/246
f 266/268/246 334/265/245 72/267/246
f 335/269/247 361/270/248 73/271/248
f 73/271/248 487/237/232 326/241/232
f 73/271/248 454/272/232 261/273/248
f 261/273/248 335/269/247 73/271/248
f 336/274/249 362/275/250 74/276/250
f 362/275/250 328/242/234 74/276/250
f 328/242/234 287/277/250 74/276/250
f 287/277/250 336/274/249 74/276/250
f 337/278/251 363/279/252 75/280/252
f 363/279/252 330/247/237 75/280/252
f 330/247/237 282/281/252 75/280/252
f 75/280/252 476/282/251 337/278/251
f 338/283/253 364/284/254 76/285/254
f 364/284/254 332/258/241 76/285/254
f 332/258/241 277/286/254 76/285/254
f 277/286/254 338/283/253 76/285/254
f 339/287/255 365/288/256 77/289/256
f 365/288/256 333/259/243 77/289/256
f 333/259/243 272/290/256 77/289/256
f 272/290/256 339/287/255 77/289/256
f 340/291/257 366/292/258 78/293/258
f 366/292/258 334/265/245 78/293/258
f 78/293/258 460/294/245 267/295/258
f 267/295/258 340/291/257 78/293/258
f 341/296/259 367/297/260 79/298/260
f 367/297/260 335/269/247 79/298/260
f 335/269/247 262/299/260 79/298/260
f 79/298/260 456/300/259 341/296/259
f 80/301/261 504/302/262 368/303/261
f 368/303/261 310/304/263 80/301/261
f 310/304/263 257/305/261 80/301/261
f 257/305/261 343/306/262 80/301/261
f 310/304/263 369/307/264 81/308/264
f 369/307/264 336/274/249 81/308/264
f 336/274/249 288/309/264 81/308/264
f 81/308/264 450/310/263 310/304/263
f 344/311/265 370/312/266 82/313/266
f 82/313/266 498/314/251 337/278/251
f 337/278/251 283/315/266 82/313/266
f 82/313/266 477/316/265 344/311/265
f 345/317/267 371/318/268 83/319/268
f 371/318/268 338/283/253 83/319/268
f 338/283/253 278/320/268 83/319/268
f 278/320/268 345/317/267 83/319/268
f 346/321/269 372/322/270 84/323/270
f 372/322/270 339/287/255 84/323/270
f 339/287/255 273/324/270 84/323/270
f 84/323/270 467/325/269 346/321/269
f 347/326/271 373/327/272 85/328/272
f 373/327/272 340/291/257 85/328/272
f 85/328/272 461/329/257 268/330/272
f 268/330/272 347/326/271 85/328/272
f 348/331/273 374/332/274 86/333/274
f 86/333/274 502/334/259 341/296/259
f 341/296/259 263/335/274 86/333/274
f 263/335/274 348/331/273 86/333/274
f 349/336/275 375/337/276 87/338/276
f 375/337/276 343/306/262 87/338/276
f 343/306/262 258/339/276 87/338/276
f 258/339/276 349/336/275 87/338/276
f 88/340/277 511/341/278 376/342/277
f 376/342/277 344/311/265 88/340/277
f 344/311/265 284/343/277 88/340/277
f 284/343/277 350/344/278 88/340/277
f 351/345/279 377/346/280 89/347/280
f 377/346/280 345/317/267 89/347/280
f 345/317/267 279/348/280 89/347/280
f 279/348/280 351/345/279 89/347/280
f 352/349/281 378/350/282 90/351/282
f 90/351/282 507/352/269 346/321/269
f 346/321/269 274/353/282 90/351/282
f 274/353/282 352/349/281 90/351/282
f 289/228/227 379/354/283 91/355/283
f 91/355/283 508/356/271 347/326/271
f 347/326/271 269/357/283 91/355/283
f 269/357/283 289/228/227 91/355/283
f 291/234/230 380/358/284 92/359/284
f 92/359/284 509/360/273 348/331/273
f 348/331/273 264/361/284 92/359/284
f 92/359/284 458/362/230 291/234/230
f 293/239/233 381/363/285 93/364/285
f 381/363/285 349/336/275 93/364/285
f 349/336/275 259/365/285 93/364/285
f 259/365/285 293/239/233 93/364/285
f 295/245/236 382/366/286 94/367/286
f 382/366/286 350/344/278 94/367/286
f 94/367/286 478/368/278 285/369/286
f 285/369/286 295/245/236 94/367/286
f 297/250/239 383/370/287 95/371/287
f 95/371/287 512/372/279 351/345/279
f 95/371/287 473/373/279 280/374/287
f 280/374/287 297/250/239 95/371/287
f 299/255/242 384/375/288 96/376/288
f 96/376/288 513/377/281 352/349/281
f 352/349/281 275/378/288 96/376/288
f 275/378/288 299/255/242 96/376/288
f 97/379/289 399/380/290 142/130/130
f 97/379/289 398/381/291 321/382/292
f 321/382/292 353/226/226 97/379/289
f 353/226/226 290/383/293 97/379/289
f 98/384/294 394/385/295 137/134/134
f 98/384/294 393/386/296 323/387/297
f 323/387/297 354/232/229 98/384/294
f 354/232/229 292/388/298 98/384/294
f 99/389/299 389/390/300 132/138/138
f 99/389/299 388/391/301 325/392/302
f 325/392/302 355/238/231 99/389/299
f 355/238/231 294/393/303 99/389/299
f 100/394/304 415/395/305 158/142/142
f 100/394/304 414/396/306 327/397/307
f 327/397/307 356/243/235 100/394/304
f 356/243/235 296/398/308 100/394/304
f 101/399/309 410/400/310 153/146/146
f 101/399/309 409/401/311 329/402/312
f 329/402/312 357/248/238 101/399/309
f 357/248/238 298/403/313 101/399/309
f 102/404/314 405/405/315 148/150/150
f 102/404/314 404/406/316 331/407/317
f 331/407/317 358/254/240 102/404/314
f 102/404/314 493/253/241 300/408/318
f 103/409/319 400/410/320 143/153/153
f 103/409/319 399/380/290 290/383/293
f 103/409/319 483/262/225 359/260/244
f 359/260/244 301/411/321 103/409/319
f 104/412/322 395/413/323 138/156/156
f 104/412/322 394/385/295 292/388/298
f 292/388/298 360/266/246 104/412/322
f 360/266/246 302/414/324 104/412/322
f 105/415/325 390/416/326 133/159/159
f 105/415/325 389/417/300 294/393/303
f 294/393/303 361/270/248 105/415/325
f 361/270/248 303/418/327 105/415/325
f 106/419/328 416/420/329 159/162/162
f 106/419/328 415/395/305 296/398/308
f 296/398/308 362/275/250 106/419/328
f 362/275/250 304/421/330 106/419/328
f 107/422/331 411/423/332 154/165/165
f 107/422/331 410/400/310 298/403/313
f 298/403/313 363/279/252 107/422/331
f 363/279/252 305/424/333 107/422/331
f 108/425/334 406/426/335 149/168/168
f 108/425/334 405/427/315 300/408/318
f 300/408/318 364/284/254 108/425/334
f 364/284/254 306/428/336 108/425/334
f 109/429/337 401/430/338 144/171/171
f 109/429/337 400/410/320 301/411/321
f 301/411/321 365/288/256 109/429/337
f 365/288/256 307/431/339 109/429/337
f 110/432/340 396/433/341 139/174/174
f 110/432/340 395/413/323 302/414/324
f 302/414/324 366/292/258 110/432/340
f 366/292/258 308/434/342 110/432/340
f 111/435/343 391/436/344 134/177/177
f 111/435/343 390/416/326 303/418/327
f 303/418/327 367/297/260 111/435/343
f 367/297/260 309/437/345 111/435/343
f 112/438/346 386/439/347 129/181/181
f 112/438/346 385/440/348 342/441/349
f 342/441/349 368/303/261 112/438/346
f 368/303/261 311/442/350 112/438/346
f 113/443/351 385/440/348 160/184/184
f 113/443/351 416/420/329 304/421/330
f 113/443/351 497/444/249 369/307/264
f 369/307/264 342/441/349 113/443/351
f 114/445/352 412/446/353 155/186/186
f 114/445/352 411/423/332 305/424/333
f 114/445/352 498/314/251 370/312/266
f 114/445/352 505/447/265 312/448/354
f 115/449/355 407/450/356 150/189/189
f 115/449/355 406/426/335 306/428/336
f 306/428/336 371/318/268 115/449/355
f 371/318/268 313/451/357 115/449/355
f 116/452/358 402/453/359 145/192/192
f 116/452/358 401/430/338 307/431/339
f 307/431/339 372/322/270 116/452/358
f 372/322/270 314/454/360 116/452/358
f 117/455/361 397/456/362 140/195/195
f 117/455/361 396/433/341 308/434/342
f 308/434/342 373/327/272 117/455/361
f 373/327/272 315/457/363 117/455/361
f 118/458/364 392/459/365 135/198/198
f 118/458/364 391/436/344 309/437/345
f 118/458/364 502/334/259 374/332/274
f 374/332/274 316/460/366 118/458/364
f 119/461/367 387/462/368 130/201/201
f 119/461/367 386/439/347 311/442/350
f 311/442/350 375/337/276 119/461/367
f 375/337/276 317/463/369 119/461/367
f 120/464/370 413/465/371 156/204/204
f 120/464/370 412/446/353 312/448/354
f 312/448/354 376/342/277 120/464/370
f 120/464/370 511/341/278 318/466/372
f 121/467/373 408/468/374 151/207/207
f 121/467/373 407/450/356 313/451/357
f 313/451/357 377/346/280 121/467/373
f 377/346/280 319/469/375 121/467/373
f 122/470/376 403/471/377 146/210/210
f 122/470/376 402/453/359 314/454/360
f 122/470/376 507/352/269 378/350/282
f 378/350/282 320/472/378 122/470/376
f 123/473/379 398/381/291 141/213/213
f 123/473/379 397/456/362 315/457/363
f 315/457/363 379/354/283 123/473/379
f 379/354/283 321/382/292 123/473/379
f 124/474/380 393/386/296 136/215/215
f 124/474/380 392/459/365 316/460/366
f 316/460/366 380/358/284 124/474/380
f 380/358/284 323/387/297 124/474/380
f 125/475/381 388/391/301 131/217/217
f 125/475/381 387/462/368 317/463/369
f 317/463/369 381/363/285 125/475/381
f 381/363/285 325/392/302 125/475/381
f 126/476/382 414/396/306 157/219/219
f 126/476/382 413/465/371 318/466/372
f 318/466/372 382/366/286 126/476/382
f 382/366/286 327/397/307 126/476/382
f 127/477/383 409/401/311 152/221/221
f 127/477/383 408/468/374 319/469/375
f 127/477/383 512/372/279 383/370/287
f 383/370/287 329/402/312 127/477/383
f 128/478/384 404/406/316 147/223/223
f 128/478/384 403/471/377 320/472/378
f 320/472/378 384/375/288 128/478/384
f 384/375/288 331/407/317 128/478/384
f 1/1/1 195/6/6 420/2/2
f 1/1/1 225/3/3 419/4/4
f 162/5/5 417/479/385 195/6/6
f 2/7/7 197/12/12 422/8/8
f 2/7/7 226/9/9 421/10/10
f 164/11/11 417/479/385 197/12/12
f 3/13/13 199/18/18 424/14/14
f 3/13/13 227/15/15 423/16/16
f 166/17/17 417/479/385 199/18/18
f 4/19/19 201/24/24 426/20/20
f 4/19/19 228/21/21 425/22/22
f 168/23/23 417/479/385 201/24/24
f 5/25/25 203/30/30 428/26/26
f 5/25/25 229/27/27 427/28/28
f 170/29/29 417/479/385 203/30/30
f 6/31/31 205/36/36 430/32/32
f 6/31/31 230/33/33 429/34/34
f 172/35/35 417/479/385 205/36/36
f 7/37/37 162/5/5 419/4/4
f 7/37/37 231/38/38 431/39/39
f 174/40/40 417/479/385 162/5/5
f 8/41/41 164/11/11 421/10/10
f 8/41/41 232/42/42 432/43/43
f 175/44/44 417/479/385 164/11/11
f 9/45/45 166/17/17 423/16/16
f 9/45/45 233/46/46 433/47/47
f 176/48/48 417/479/385 166/17/17
f 10/49/49 168/23/23 425/22/22
f 10/49/49 234/50/50 434/51/51
f 177/52/52 417/479/385 168/23/23
f 11/53/53 170/29/29 427/28/28
f 11/53/53 235/54/54 435/55/55
f 178/56/56 417/479/385 170/29/29
f 12/57/57 172/35/35 429/34/34
f 12/57/57 236/58/58 436/59/59
f 179/60/60 417/479/385 172/35/35
f 13/61/61 174/40/40 431/39/39
f 13/61/61 237/62/62 437/63/63
f 180/64/64 417/479/385 174/40/40
f 14/65/65 175/44/44 432/43/43
f 14/65/65 238/66/66 438/67/67
f 181/68/68 417/479/385 175/44/44
f 15/69/69 176/48/48 433/47/47
f 15/69/69 239/70/70 439/71/71
f 182/72/72 417/479/385 176/48/48
f 16/73/73 193/78/78 418/74/74
f 16/73/73 240/75/75 440/76/76
f 183/77/77 417/479/385 193/78/78
f 17/79/79 177/52/52 434/51/51
f 17/79/79 241/80/80 418/74/74
f 193/78/78 417/479/385 177/52/52
f 18/81/81 178/56/56 435/55/55
f 18/81/81 242/82/82 441/83/83
f 184/84/84 417/479/385 178/56/56
f 19/85/85 179/60/60 436/59/59
f 19/85/85 243/86/86 442/87/87
f 185/88/88 417/479/385 179/60/60
f 20/89/89 180/64/64 437/63/63
f 20/89/89 244/90/90 443/91/91
f 186/92/92 417/479/385 180/64/64
f 21/93/93 181/68/68 438/67/67
f 21/93/93 245/94/94 444/95/95
f 187/96/96 417/479/385 181/68/68
f 22/97/97 182/72/72 439/71/71
f 22/97/97 246/98/98 445/99/99
f 188/100/100 417/479/385 182/72/72
f 23/101/101 183/77/77 440/76/76
f 23/101/101 247/102/102 446/103/103
f 189/104/104 417/479/385 183/77/77
f 24/105/105 184/84/84 441/83/83
f 24/105/105 248/106/106 447/107/107
f 190/108/108 417/479/385 184/84/84
f 25/109/109 185/88/88 442/87/87
f 25/109/109 249/110/110 448/111/111
f 191/112/112 417/479/385 185/88/88
f 26/113/113 186/92/92 443/91/91
f 26/113/113 250/114/114 449/115/115
f 192/116/116 417/479/385 186/92/92
f 27/117/117 187/96/96 444/95/95
f 27/117/117 251/118/118 420/2/2
f 195/6/6 417/479/385 187/96/96
f 28/119/119 188/100/100 445/99/99
f 28/119/119 252/120/120 422/8/8
f 197/12/12 417/479/385 188/100/100
f 29/121/121 189/104/104 446/103/103
f 29/121/121 253/122/122 424/14/14
f 199/18/18 417/479/385 189/104/104
f 30/123/123 190/108/108 447/107/107
f 30/123/123 254/124/124 426/20/20
f 201/24/24 417/479/385 190/108/108
f 31/125/125 191/112/112 448/111/111
f 31/125/125 255/126/126 428/26/26
f 203/30/30 417/479/385 191/112/112
f 32/127/127 192/116/116 449/115/115
f 32/127/127 256/128/128 430/32/32
f 205/36/36 417/479/385 192/116/116
f 163/129/129 398/381/291 142/130/130
f 142/130/130 399/380/290 194/132/132
f 194/132/132 419/4/4 225/3/3
f 225/3/3 420/2/2 163/129/129
f 165/133/133 393/386/296 137/134/134
f 137/134/134 394/385/295 196/136/136
f 196/136/136 421/10/10 226/9/9
f 226/9/9 422/8/8 165/133/133
f 167/137/137 388/391/301 132/138/138
f 132/138/138 389/417/300 198/140/140
f 198/140/140 423/16/16 227/15/15
f 227/15/15 424/14/14 167/137/137
f 169/141/141 414/396/306 158/142/142
f 158/142/142 415/395/305 200/144/144
f 200/144/144 425/22/22 228/21/21
f 228/21/21 426/20/20 169/141/141
f 171/145/145 409/401/311 153/146/146
f 153/146/146 410/400/310 202/148/148
f 202/148/148 427/28/28 229/27/27
f 229/27/27 428/26/26 171/145/145
f 173/149/149 404/406/316 148/150/150
f 148/150/150 405/405/315 204/152/152
f 204/152/152 429/34/34 230/33/33
f 230/33/33 430/32/32 173/149/149
f 194/132/132 399/380/290 143/153/153
f 143/153/153 400/410/320 206/155/155
f 206/155/155 431/39/39 231/38/38
f 231/38/38 419/4/4 194/132/132
f 196/136/136 394/385/295 138/156/156
f 138/156/156 395/413/323 207/158/158
f 207/158/158 432/43/43 232/42/42
f 232/42/42 421/10/10 196/136/136
f 198/140/140 389/417/300 133/159/159
f 133/159/159 390/416/326 208/161/161
f 208/161/161 433/47/47 233/46/46
f 233/46/46 423/16/16 198/140/140
f 200/144/144 415/395/305 159/162/162
f 159/162/162 416/420/329 209/164/164
f 209/164/164 434/51/51 234/50/50
f 234/50/50 425/22/22 200/144/144
f 202/148/148 410/400/310 154/165/165
f 154/165/165 411/423/332 210/167/167
f 210/167/167 435/55/55 235/54/54
f 235/54/54 427/28/28 202/148/148
f 204/152/152 405/405/315 149/168/168
f 149/168/168 406/426/335 211/170/170
f 211/170/170 436/59/59 236/58/58
f 236/58/58 429/34/34 204/152/152
f 206/155/155 400/410/320 144/171/171
f 144/171/171 401/430/338 212/173/173
f 212/173/173 437/63/63 237/62/62
f 237/62/62 431/39/39 206/155/155
f 207/158/158 395/413/323 139/174/174
f 139/174/174 396/433/341 213/176/176
f 213/176/176 438/67/67 238/66/66
f 238/66/66 432/43/43 207/158/158
f 208/161/161 390/416/326 134/177/177
f 134/177/177 391/436/344 214/179/179
f 214/179/179 439/71/71 239/70/70
f 239/70/70 433/47/47 208/161/161
f 161/180/180 385/440/348 129/181/181
f 129/181/181 386/439/347 215/183/183
f 215/183/183 440/76/76 240/75/75
f 240/75/75 418/74/74 161/180/180
f 209/164/164 416/420/329 160/184/184
f 160/184/184 385/440/348 161/180/180
f 161/180/180 418/74/74 241/80/80
f 241/80/80 434/51/51 209/164/164
f 210/167/167 411/423/332 155/186/186
f 155/186/186 412/446/353 216/188/188
f 216/188/188 441/83/83 242/82/82
f 242/82/82 435/55/55 210/167/167
f 211/170/170 406/426/335 150/189/189
f 150/189/189 407/450/356 217/191/191
f 217/191/191 442/87/87 243/86/86
f 243/86/86 436/59/59 211/170/170
f 212/173/173 401/430/338 145/192/192
f 145/192/192 402/453/359 218/194/194
f 218/194/194 443/91/91 244/90/90
f 244/90/90 437/63/63 212/173/173
f 213/176/176 396/433/341 140/195/195
f 140/195/195 397/456/362 219/197/197
f 219/197/197 444/95/95 245/94/94
f 245/94/94 438/67/67 213/176/176
f 214/179/179 391/436/344 135/198/198
f 135/198/198 392/459/365 220/200/200
f 220/200/200 445/99/99 246/98/98
f 246/98/98 439/71/71 214/179/179
f 215/183/183 386/439/347 130/201/201
f 130/201/201 387/462/368 221/203/203
f 221/203/203 446/103/103 247/102/102
f 247/102/102 440/76/76 215/183/183
f 216/188/188 412/446/353 156/204/204
f 156/204/204 413/465/371 222/206/206
f 222/206/206 447/107/107 248/106/106
f 248/106/106 441/83/83 216/188/188
f 217/191/191 407/450/356 151/207/207
f 151/207/207 408/468/374 223/209/209
f 223/209/209 448/111/111 249/110/110
f 249/110/110 442/87/87 217/191/191
f 218/194/194 402/453/359 146/210/210
f 146/210/210 403/471/377 224/212/212
f 224/212/212 449/115/115 250/114/114
f 250/114/114 443/91/91 218/194/194
f 219/197/197 397/456/362 141/213/213
f 141/213/213 398/381/291 163/129/129
f 163/129/129 420/2/2 251/118/118
f 251/118/118 444/95/95 219/197/197
f 220/200/200 392/459/365 136/215/215
f 136/215/215 393/386/296 165/133/133
f 165/133/133 422/8/8 252/120/120
f 252/120/120 445/99/99 220/200/200
f 221/203/203 387/462/368 131/217/217
f 131/217/217 388/391/301 167/137/137
f 167/137/137 424/14/14 253/122/122
f 253/122/122 446/103/103 221/203/203
f 222/206/206 413/465/371 157/219/219
f 157/219/219 414/396/306 169/141/141
f 169/141/141 426/20/20 254/124/124
f 254/124/124 447/107/107 222/206/206
f 223/209/209 408/468/374 152/221/221
f 152/221/221 409/401/311 171/145/145
f 171/145/145 428/26/26 255/126/126
f 255/126/126 448/111/111 223/209/209
f 224/212/212 403/471/377 147/223/223
f 147/223/223 404/406/316 173/149/149
f 173/149/149 430/32/32 256/128/128
f 256/128/128 449/115/115 224/212/212
f 322/225/225 483/262/225 353/226/226
f 353/226/226 482/480/227 289/228/227
f 289/228/227 463/481/227 270/229/226
f 65/227/226 270/229/226 464/230/225
f 324/231/228 485/482/228 354/232/229
f 354/232/229 484/483/230 291/234/230
f 291/234/230 458/362/230 265/235/229
f 265/235/229 459/484/228 324/231/228
f 67/236/231 326/241/232 487/237/232
f 355/238/231 486/485/233 293/239/233
f 293/239/233 453/486/386 260/240/231
f 260/240/231 454/272/232 326/241/232
f 328/242/234 489/487/234 356/243/235
f 356/243/235 488/488/236 295/245/236
f 295/245/236 479/489/387 286/246/235
f 286/246/235 480/490/388 328/242/234
f 330/247/237 491/491/237 357/248/238
f 357/248/238 490/492/239 297/250/239
f 297/250/239 474/493/239 281/251/238
f 281/251/238 475/494/237 330/247/237
f 70/252/240 332/258/241 493/253/241
f 358/254/240 492/495/242 299/255/242
f 299/255/242 469/496/242 276/256/240
f 70/252/240 276/256/240 470/257/241
f 333/259/243 494/497/243 359/260/244
f 71/261/244 359/260/244 483/262/225
f 322/225/225 464/230/225 271/263/244
f 71/261/244 271/263/244 465/264/243
f 334/265/245 495/498/245 360/266/246
f 360/266/246 485/482/228 324/231/228
f 324/231/228 459/484/228 266/268/246
f 266/268/246 460/294/245 334/265/245
f 335/269/247 496/499/389 361/270/248
f 73/271/248 361/270/248 487/237/232
f 73/271/248 326/241/232 454/272/232
f 261/273/248 455/500/247 335/269/247
f 336/274/249 497/444/249 362/275/250
f 362/275/250 489/487/234 328/242/234
f 328/242/234 480/490/388 287/277/250
f 287/277/250 481/501/249 336/274/249
f 337/278/251 498/314/251 363/279/252
f 363/279/252 491/491/237 330/247/237
f 330/247/237 475/494/237 282/281/252
f 75/280/252 282/281/252 476/282/251
f 338/283/253 499/502/253 364/284/254
f 364/284/254 493/253/241 332/258/241
f 332/258/241 470/257/241 277/286/254
f 277/286/254 471/503/253 338/283/253
f 339/287/255 500/504/255 365/288/256
f 365/288/256 494/497/243 333/259/243
f 333/259/243 465/264/243 272/290/256
f 272/290/256 466/505/255 339/287/255
f 340/291/257 501/506/390 366/292/258
f 366/292/258 495/498/245 334/265/245
f 78/293/258 334/265/245 460/294/245
f 267/295/258 461/329/257 340/291/257
f 341/296/259 502/334/259 367/297/260
f 367/297/260 496/499/389 335/269/247
f 335/269/247 455/500/247 262/299/260
f 79/298/260 262/299/260 456/300/259
f 80/301/261 343/306/262 504/302/262
f 368/303/261 503/507/263 310/304/263
f 310/304/263 450/310/263 257/305/261
f 257/305/261 451/508/262 343/306/262
f 310/304/263 503/507/263 369/307/264
f 369/307/264 497/444/249 336/274/249
f 336/274/249 481/501/249 288/309/264
f 81/308/264 288/309/264 450/310/263
f 344/311/265 505/447/265 370/312/266
f 82/313/266 370/312/266 498/314/251
f 337/278/251 476/282/251 283/315/266
f 82/313/266 283/315/266 477/316/265
f 345/317/267 506/509/267 371/318/268
f 371/318/268 499/502/253 338/283/253
f 338/283/253 471/503/253 278/320/268
f 278/320/268 472/510/267 345/317/267
f 346/321/269 507/352/269 372/322/270
f 372/322/270 500/504/255 339/287/255
f 339/287/255 466/505/255 273/324/270
f 84/323/270 273/324/270 467/325/269
f 347/326/271 508/356/271 373/327/272
f 373/327/272 501/506/390 340/291/257
f 85/328/272 340/291/257 461/329/257
f 268/330/272 462/511/271 347/326/271
f 348/331/273 509/360/273 374/332/274
f 86/333/274 374/332/274 502/334/259
f 341/296/259 456/300/259 263/335/274
f 263/335/274 457/512/273 348/331/273
f 349/336/275 510/513/275 375/337/276
f 375/337/276 504/302/262 343/306/262
f 343/306/262 451/508/262 258/339/276
f 258/339/276 452/514/275 349/336/275
f 88/340/277 350/344/278 511/341/278
f 376/342/277 505/447/265 344/311/265
f 344/311/265 477/316/265 284/343/277
f 284/343/277 478/368/278 350/344/278
f 351/345/279 512/372/279 377/346/280
f 377/346/280 506/509/267 345/317/267
f 345/317/267 472/510/267 279/348/280
f 279/348/280 473/373/279 351/345/279
f 352/349/281 513/377/281 378/350/282
f 90/351/282 378/350/282 507/352/269
f 346/321/269 467/325/269 274/353/282
f 274/353/282 468/515/391 352/349/281
f 289/228/227 482/480/227 379/354/283
f 91/355/283 379/354/283 508/356/271
f 347/326/271 462/511/271 269/357/283
f 269/357/283 463/481/227 289/228/227
f 291/234/230 484/483/230 380/358/284
f 92/359/284 380/358/284 509/360/273
f 348/331/273 457/512/273 264/361/284
f 92/359/284 264/361/284 458/362/230
f 293/239/233 486/485/233 381/363/285
f 381/363/285 510/513/275 349/336/275
f 349/336/275 452/514/275 259/365/285
f 259/365/285 453/486/386 293/239/233
f 295/245/236 488/488/236 382/366/286
f 382/366/286 511/341/278 350/344/278
f 94/367/286 350/344/278 478/368/278
f 285/369/286 479/489/387 295/245/236
f 297/250/239 490/492/239 383/370/287
f 95/371/287 383/370/287 512/372/279
f 95/371/287 351/345/279 473/373/279
f 280/374/287 474/493/239 297/250/239
f 299/255/242 492/495/242 384/375/288
f 96/376/288 384/375/288 513/377/281
f 352/349/281 468/515/391 275/378/288
f 275/378/288 469/496/242 299/255/242
f 97/379/289 290/383/293 399/380/290
f 97/379/289 142/130/130 398/381/291
f 321/382/292 482/480/227 353/226/226
f 353/226/226 483/262/225 290/383/293
f 98/384/294 292/388/298 394/385/295
f 98/384/294 137/134/134 393/386/296
f 323/387/297 484/483/230 354/232/229
f 354/232/229 485/482/228 292/388/298
f 99/389/299 294/393/303 389/390/300
f 99/389/299 132/138/138 388/391/301
f 325/392/302 486/485/233 355/238/231
f 355/238/231 487/237/232 294/393/303
f 100/394/304 296/398/308 415/395/305
f 100/394/304 158/142/142 414/396/306
f 327/397/307 488/488/236 356/243/235
f 356/243/235 489/487/234 296/398/308
f 101/399/309 298/403/313 410/400/310
f 101/399/309 153/146/146 409/401/311
f 329/402/312 490/492/239 357/248/238
f 357/248/238 491/491/237 298/403/313
f 102/404/314 300/408/318 405/405/315
f 102/404/314 148/150/150 404/406/316
f 331/407/317 492/495/242 358/254/240
f 102/404/314 358/254/240 493/253/241
f 103/409/319 301/411/321 400/410/320
f 103/409/319 143/153/153 399/380/290
f 103/409/319 290/383/293 483/262/225
f 359/260/244 494/497/243 301/411/321
f 104/412/322 302/414/324 395/413/323
f 104/412/322 138/156/156 394/385/295
f 292/388/298 485/482/228 360/266/246
f 360/266/246 495/498/245 302/414/324
f 105/415/325 303/418/327 390/416/326
f 105/415/325 133/159/159 389/417/300
f 294/393/303 487/237/232 361/270/248
f 361/270/248 496/499/389 303/418/327
f 106/419/328 304/421/330 416/420/329
f 106/419/328 159/162/162 415/395/305
f 296/398/308 489/487/234 362/275/250
f 362/275/250 497/444/249 304/421/330
f 107/422/331 305/424/333 411/423/332
f 107/422/331 154/165/165 410/400/310
f 298/403/313 491/491/237 363/279/252
f 363/279/252 498/314/251 305/424/333
f 108/425/334 306/428/336 406/426/335
f 108/425/334 149/168/168 405/427/315
f 300/408/318 493/253/241 364/284/254
f 364/284/254 499/502/253 306/428/336
f 109/429/337 307/431/339 401/430/338
f 109/429/337 144/171/171 400/410/320
f 301/411/321 494/497/243 365/288/256
f 365/288/256 500/504/255 307/431/339
f 110/432/340 308/434/342 396/433/341
f 110/432/340 139/174/174 395/413/323
f 302/414/324 495/498/245 366/292/258
f 366/292/258 501/506/390 308/434/342
f 111/435/343 309/437/345 391/436/344
f 111/435/343 134/177/177 390/416/326
f 303/418/327 496/499/389 367/297/260
f 367/297/260 502/334/259 309/437/345
f 112/438/346 311/442/350 386/439/347
f 112/438/346 129/181/181 385/440/348
f 342/441/349 503/507/263 368/303/261
f 368/303/261 504/302/262 311/442/350
f 113/443/351 342/441/349 385/440/348
f 113/443/351 160/184/184 416/420/329
f 113/443/351 304/421/330 497/444/249
f 369/307/264 503/507/263 342/441/349
f 114/445/352 312/448/354 412/446/353
f 114/445/352 155/186/186 411/423/332
f 114/445/352 305/424/333 498/314/251
f 114/445/352 370/312/266 505/447/265
f 115/449/355 313/451/357 407/450/356
f 115/449/355 150/189/189 406/426/335
f 306/428/336 499/502/253 371/318/268
f 371/318/268 506/509/267 313/451/357
f 116/452/358 314/454/360 402/453/359
f 116/452/358 145/192/192 401/430/338
f 307/431/339 500/504/255 372/322/270
f 372/322/270 507/352/269 314/454/360
f 117/455/361 315/457/363 397/456/362
f 117/455/361 140/195/195 396/433/341
f 308/434/342 501/506/390 373/327/272
f 373/327/272 508/356/271 315/457/363
f 118/458/364 316/460/366 392/459/365
f 118/458/364 135/198/198 391/436/344
f 118/458/364 309/437/345 502/334/259
f 374/332/274 509/360/273 316/460/366
f 119/461/367 317/463/369 387/462/368
f 119/461/367 130/201/201 386/439/347
f 311/442/350 504/302/262 375/337/276
f 375/337/276 510/513/275 317/463/369
f 120/464/370 318/466/372 413/465/371
f 120/464/370 156/204/204 412/446/353
f 312/448/354 505/447/265 376/342/277
f 120/464/370 376/342/277 511/341/278
f 121/467/373 319/469/375 408/468/374
f 121/467/373 151/207/207 407/450/356
f 313/451/357 506/509/267 377/346/280
f 377/346/280 512/372/279 319/469/375
f 122/470/376 320/472/378 403/471/377
f 122/470/376 146/210/210 402/453/359
f 122/470/376 314/454/360 507/352/269
f 378/350/282 513/377/281 320/472/378
f 123/473/379 321/382/292 398/381/291
f 123/473/379 141/213/213 397/456/362
f 315/457/363 508/356/271 379/354/283
f 379/354/283 482/480/227 321/382/292
f 124/474/380 323/387/297 393/386/296
f 124/474/380 136/215/215 392/459/365
f 316/460/366 509/360/273 380/358/284
f 380/358/284 484/483/230 323/387/297
f 125/475/381 325/392/302 388/391/301
f 125/475/381 131/217/217 387/462/368
f 317/463/369 510/513/275 381/363/285
f 381/363/285 486/485/233 325/392/302
f 126/476/382 327/397/307 414/396/306
f 126/476/382 157/219/219 413/465/371
f 318/466/372 511/341/278 382/366/286
f 382/366/286 488/488/236 327/397/307
f 127/477/383 329/402/312 409/401/311
f 127/477/383 152/221/221 408/468/374
f 127/477/383 319/469/375 512/372/279
f 383/370/287 490/492/239 329/402/312
f 128/478/384 331/407/317 404/406/316
f 128/478/384 147/223/223 403/471/377
f 320/472/378 513/377/281 384/375/288
f 384/375/288 492/495/242 331/407/317
