# Blender v2.79 (sub 0) OBJ File: 'm3_interior_open.blend'
# www.blender.org
o Sub-Headlight_Bulb_Sphere.002
v 1.099689 -0.752855 4.253479
v 1.097048 -0.754620 4.253479
v 1.095283 -0.757262 4.253479
v 1.094663 -0.760378 4.253479
v 1.095283 -0.763494 4.253479
v 1.097048 -0.766135 4.253479
v 1.099689 -0.767900 4.253479
v 1.099926 -0.752855 4.252286
v 1.097486 -0.754620 4.251275
v 1.095855 -0.757262 4.250600
v 1.095283 -0.760378 4.250362
v 1.095855 -0.763494 4.250600
v 1.097486 -0.766135 4.251275
v 1.099926 -0.767900 4.252286
v 1.100602 -0.752855 4.251275
v 1.098734 -0.754620 4.249407
v 1.097486 -0.757262 4.248159
v 1.097048 -0.760378 4.247721
v 1.097486 -0.763494 4.248159
v 1.098734 -0.766135 4.249407
v 1.100602 -0.767900 4.251275
v 1.101613 -0.752855 4.250600
v 1.100602 -0.754620 4.248159
v 1.099926 -0.757262 4.246529
v 1.099689 -0.760378 4.245956
v 1.099926 -0.763494 4.246529
v 1.100602 -0.766135 4.248159
v 1.101613 -0.767900 4.250600
v 1.102805 -0.752855 4.250362
v 1.102805 -0.754620 4.247721
v 1.102805 -0.757262 4.245956
v 1.102805 -0.760378 4.245336
v 1.102805 -0.763494 4.245956
v 1.102805 -0.766135 4.247721
v 1.102805 -0.767900 4.250362
v 1.102805 -0.752235 4.253479
v 1.103997 -0.752855 4.250600
v 1.105008 -0.754620 4.248159
v 1.105684 -0.757262 4.246529
v 1.105921 -0.760378 4.245956
v 1.105684 -0.763494 4.246529
v 1.105008 -0.766135 4.248159
v 1.103997 -0.767900 4.250600
v 1.105008 -0.752855 4.251275
v 1.106876 -0.754620 4.249407
v 1.108124 -0.757262 4.248159
v 1.108562 -0.760378 4.247721
v 1.108124 -0.763494 4.248159
v 1.106876 -0.766135 4.249407
v 1.105008 -0.767900 4.251275
v 1.105684 -0.752855 4.252286
v 1.108124 -0.754620 4.251275
v 1.109755 -0.757262 4.250600
v 1.110327 -0.760378 4.250362
v 1.109755 -0.763494 4.250600
v 1.108124 -0.766135 4.251275
v 1.105684 -0.767900 4.252286
v 1.105921 -0.752855 4.253479
v 1.108562 -0.754620 4.253479
v 1.110327 -0.757262 4.253479
v 1.110947 -0.760378 4.253479
v 1.110327 -0.763494 4.253479
v 1.108562 -0.766135 4.253479
v 1.105921 -0.767900 4.253479
v 1.105684 -0.752855 4.254671
v 1.108124 -0.754620 4.255682
v 1.109755 -0.757262 4.256357
v 1.110327 -0.760378 4.256595
v 1.109755 -0.763494 4.256357
v 1.108124 -0.766135 4.255682
v 1.105684 -0.767900 4.254671
v 1.105008 -0.752855 4.255682
v 1.106876 -0.754620 4.257550
v 1.108124 -0.757262 4.258798
v 1.108562 -0.760378 4.259236
v 1.108124 -0.763494 4.258798
v 1.106876 -0.766135 4.257550
v 1.105008 -0.767900 4.255682
v 1.103997 -0.752855 4.256357
v 1.105008 -0.754620 4.258798
v 1.105684 -0.757262 4.260428
v 1.105921 -0.760378 4.261001
v 1.105684 -0.763494 4.260428
v 1.105008 -0.766135 4.258798
v 1.103997 -0.767900 4.256357
v 1.102805 -0.752855 4.256595
v 1.102805 -0.754620 4.259236
v 1.102805 -0.757262 4.261001
v 1.102805 -0.760378 4.261621
v 1.102805 -0.763494 4.261001
v 1.102805 -0.766135 4.259236
v 1.102805 -0.767900 4.256595
v 1.101613 -0.752855 4.256357
v 1.100602 -0.754620 4.258798
v 1.099926 -0.757262 4.260428
v 1.099689 -0.760378 4.261001
v 1.099926 -0.763494 4.260428
v 1.100602 -0.766135 4.258798
v 1.101613 -0.767900 4.256357
v 1.102805 -0.768520 4.253479
v 1.100602 -0.752855 4.255682
v 1.098734 -0.754620 4.257550
v 1.097486 -0.757262 4.258798
v 1.097048 -0.760378 4.259236
v 1.097486 -0.763494 4.258798
v 1.098734 -0.766135 4.257550
v 1.100602 -0.767900 4.255682
v 1.099926 -0.752855 4.254671
v 1.097486 -0.754620 4.255682
v 1.095855 -0.757262 4.256357
v 1.095283 -0.760378 4.256595
v 1.095855 -0.763494 4.256357
v 1.097486 -0.766135 4.255682
v 1.099926 -0.767900 4.254671
v -1.099689 -0.752855 4.253479
v -1.097048 -0.754620 4.253479
v -1.095283 -0.757262 4.253479
v -1.094663 -0.760378 4.253479
v -1.095283 -0.763494 4.253479
v -1.097048 -0.766135 4.253479
v -1.099689 -0.767900 4.253479
v -1.099926 -0.752855 4.252286
v -1.097486 -0.754620 4.251275
v -1.095855 -0.757262 4.250600
v -1.095283 -0.760378 4.250362
v -1.095855 -0.763494 4.250600
v -1.097486 -0.766135 4.251275
v -1.099926 -0.767900 4.252286
v -1.100602 -0.752855 4.251275
v -1.098734 -0.754620 4.249407
v -1.097486 -0.757262 4.248159
v -1.097048 -0.760378 4.247721
v -1.097486 -0.763494 4.248159
v -1.098734 -0.766135 4.249407
v -1.100602 -0.767900 4.251275
v -1.101613 -0.752855 4.250600
v -1.100602 -0.754620 4.248159
v -1.099926 -0.757262 4.246529
v -1.099689 -0.760378 4.245956
v -1.099926 -0.763494 4.246529
v -1.100602 -0.766135 4.248159
v -1.101613 -0.767900 4.250600
v -1.102805 -0.752855 4.250362
v -1.102805 -0.754620 4.247721
v -1.102805 -0.757262 4.245956
v -1.102805 -0.760378 4.245336
v -1.102805 -0.763494 4.245956
v -1.102805 -0.766135 4.247721
v -1.102805 -0.767900 4.250362
v -1.102805 -0.752235 4.253479
v -1.103997 -0.752855 4.250600
v -1.105008 -0.754620 4.248159
v -1.105684 -0.757262 4.246529
v -1.105921 -0.760378 4.245956
v -1.105684 -0.763494 4.246529
v -1.105008 -0.766135 4.248159
v -1.103997 -0.767900 4.250600
v -1.105008 -0.752855 4.251275
v -1.106876 -0.754620 4.249407
v -1.108124 -0.757262 4.248159
v -1.108562 -0.760378 4.247721
v -1.108124 -0.763494 4.248159
v -1.106876 -0.766135 4.249407
v -1.105008 -0.767900 4.251275
v -1.105684 -0.752855 4.252286
v -1.108124 -0.754620 4.251275
v -1.109755 -0.757262 4.250600
v -1.110327 -0.760378 4.250362
v -1.109755 -0.763494 4.250600
v -1.108124 -0.766135 4.251275
v -1.105684 -0.767900 4.252286
v -1.105921 -0.752855 4.253479
v -1.108562 -0.754620 4.253479
v -1.110327 -0.757262 4.253479
v -1.110947 -0.760378 4.253479
v -1.110327 -0.763494 4.253479
v -1.108562 -0.766135 4.253479
v -1.105921 -0.767900 4.253479
v -1.105684 -0.752855 4.254671
v -1.108124 -0.754620 4.255682
v -1.109755 -0.757262 4.256357
v -1.110327 -0.760378 4.256595
v -1.109755 -0.763494 4.256357
v -1.108124 -0.766135 4.255682
v -1.105684 -0.767900 4.254671
v -1.105008 -0.752855 4.255682
v -1.106876 -0.754620 4.257550
v -1.108124 -0.757262 4.258798
v -1.108562 -0.760378 4.259236
v -1.108124 -0.763494 4.258798
v -1.106876 -0.766135 4.257550
v -1.105008 -0.767900 4.255682
v -1.103997 -0.752855 4.256357
v -1.105008 -0.754620 4.258798
v -1.105684 -0.757262 4.260428
v -1.105921 -0.760378 4.261001
v -1.105684 -0.763494 4.260428
v -1.105008 -0.766135 4.258798
v -1.103997 -0.767900 4.256357
v -1.102805 -0.752855 4.256595
v -1.102805 -0.754620 4.259236
v -1.102805 -0.757262 4.261001
v -1.102805 -0.760378 4.261621
v -1.102805 -0.763494 4.261001
v -1.102805 -0.766135 4.259236
v -1.102805 -0.767900 4.256595
v -1.101613 -0.752855 4.256357
v -1.100602 -0.754620 4.258798
v -1.099926 -0.757262 4.260428
v -1.099689 -0.760378 4.261001
v -1.099926 -0.763494 4.260428
v -1.100602 -0.766135 4.258798
v -1.101613 -0.767900 4.256357
v -1.102805 -0.768520 4.253479
v -1.100602 -0.752855 4.255682
v -1.098734 -0.754620 4.257550
v -1.097486 -0.757262 4.258798
v -1.097048 -0.760378 4.259236
v -1.097486 -0.763494 4.258798
v -1.098734 -0.766135 4.257550
v -1.100602 -0.767900 4.255682
v -1.099926 -0.752855 4.254671
v -1.097486 -0.754620 4.255682
v -1.095855 -0.757262 4.256357
v -1.095283 -0.760378 4.256595
v -1.095855 -0.763494 4.256357
v -1.097486 -0.766135 4.255682
v -1.099926 -0.767900 4.254671
vn -0.9626 0.1915 -0.1915
vn -0.5520 -0.8266 -0.1098
vn -0.8203 0.5481 -0.1632
vn -0.8203 -0.5482 -0.1632
vn -0.5523 0.8264 -0.1099
vn -0.9626 -0.1915 -0.1915
vn -0.4681 -0.8264 -0.3128
vn -0.6955 0.5480 -0.4647
vn -0.6956 -0.5480 -0.4646
vn -0.4681 0.8265 -0.3128
vn -0.8162 -0.1914 -0.5452
vn -0.8160 0.1916 -0.5453
vn -0.3129 -0.8264 -0.4681
vn -0.4646 0.5482 -0.6954
vn -0.4645 -0.5481 -0.6956
vn -0.3129 0.8264 -0.4681
vn -0.5453 -0.1915 -0.8161
vn -0.5451 0.1915 -0.8162
vn -0.1104 -0.8263 -0.5522
vn -0.1631 0.5481 -0.8203
vn -0.1633 -0.5481 -0.8203
vn -0.1098 0.8264 -0.5522
vn -0.1917 -0.1915 -0.9626
vn -0.1915 0.1915 -0.9626
vn 0.1100 -0.8265 -0.5521
vn 0.1632 0.5482 -0.8203
vn 0.1633 -0.5481 -0.8203
vn 0.1100 0.8264 -0.5522
vn 0.1917 -0.1915 -0.9626
vn 0.1915 0.1915 -0.9626
vn 0.3126 -0.8265 -0.4682
vn 0.4646 0.5482 -0.6954
vn 0.4645 -0.5482 -0.6955
vn 0.3128 0.8265 -0.4681
vn 0.5453 -0.1915 -0.8161
vn 0.5451 0.1915 -0.8162
vn 0.4681 -0.8264 -0.3128
vn 0.6955 0.5481 -0.4647
vn 0.6953 -0.5482 -0.4647
vn 0.4681 0.8265 -0.3128
vn 0.8162 -0.1915 -0.5452
vn 0.8160 0.1916 -0.5454
vn 0.5520 -0.8266 -0.1098
vn 0.8203 0.5482 -0.1632
vn 0.8203 -0.5482 -0.1632
vn 0.5523 0.8264 -0.1099
vn 0.9626 -0.1915 -0.1915
vn 0.9626 0.1915 -0.1915
vn 0.5520 -0.8266 0.1098
vn 0.8203 0.5482 0.1632
vn 0.8204 -0.5481 0.1632
vn 0.5523 0.8264 0.1099
vn 0.9626 -0.1915 0.1915
vn 0.9626 0.1915 0.1915
vn 0.4679 -0.8265 0.3128
vn 0.6956 0.5480 0.4646
vn 0.6953 -0.5482 0.4647
vn 0.4681 0.8265 0.3128
vn 0.8162 -0.1915 0.5452
vn 0.8160 0.1915 0.5453
vn 0.3129 -0.8264 0.4681
vn 0.4648 0.5481 0.6954
vn 0.4645 -0.5482 0.6955
vn 0.3129 0.8264 0.4681
vn 0.5453 -0.1915 0.8161
vn 0.5451 0.1915 0.8162
vn 0.1100 -0.8265 0.5521
vn 0.1630 0.5482 0.8203
vn 0.1636 -0.5481 0.8203
vn 0.1099 0.8264 0.5522
vn 0.1917 -0.1915 0.9626
vn 0.1915 0.1915 0.9626
vn -0.1102 -0.8264 0.5522
vn -0.1631 0.5482 0.8203
vn -0.1633 -0.5481 0.8203
vn -0.1098 0.8264 0.5522
vn -0.1917 -0.1915 0.9626
vn -0.1915 0.1915 0.9626
vn -0.3128 -0.8265 0.4681
vn -0.4648 0.5481 0.6954
vn -0.4645 -0.5481 0.6956
vn -0.3129 0.8264 0.4681
vn -0.5453 -0.1915 0.8161
vn -0.5451 0.1915 0.8162
vn -0.4680 -0.8265 0.3129
vn -0.6955 0.5481 0.4647
vn -0.6954 -0.5482 0.4646
vn -0.4681 0.8265 0.3128
vn -0.8162 -0.1915 0.5452
vn -0.8160 0.1916 0.5453
vn -0.1949 -0.9801 -0.0387
vn -0.1949 0.9801 -0.0388
vn -0.1653 -0.9800 -0.1105
vn -0.1653 0.9800 -0.1104
vn -0.1104 -0.9800 -0.1653
vn -0.1104 0.9800 -0.1653
vn -0.0386 -0.9801 -0.1949
vn -0.0386 0.9801 -0.1949
vn 0.0386 -0.9801 -0.1949
vn 0.0386 0.9801 -0.1949
vn 0.1105 -0.9800 -0.1653
vn 0.1105 0.9800 -0.1653
vn 0.1653 -0.9800 -0.1104
vn 0.1653 0.9800 -0.1105
vn 0.1949 -0.9801 -0.0388
vn 0.1949 0.9801 -0.0388
vn 0.1950 -0.9800 0.0388
vn 0.1950 0.9800 0.0388
vn 0.1653 -0.9800 0.1104
vn 0.1653 0.9800 0.1105
vn 0.1103 -0.9800 0.1653
vn 0.1103 0.9801 0.1653
vn 0.0387 -0.9801 0.1949
vn 0.0387 0.9801 0.1949
vn -0.0387 -0.9801 0.1949
vn -0.0387 0.9801 0.1949
vn -0.1103 -0.9801 0.1653
vn -0.1103 0.9801 0.1653
vn -0.1653 -0.9800 0.1105
vn -0.1653 0.9800 0.1104
vn -0.5520 -0.8266 0.1098
vn -0.8203 0.5481 0.1632
vn -0.8204 -0.5481 0.1632
vn -0.5523 0.8264 0.1099
vn -0.9626 -0.1915 0.1915
vn -0.1950 -0.9800 0.0387
vn -0.1950 0.9800 0.0388
vn -0.9626 0.1915 0.1915
vn 0.5523 -0.8264 -0.1098
vn 0.8203 0.5481 -0.1632
vn 0.8203 -0.5481 -0.1632
vn 0.4681 -0.8265 -0.3128
vn 0.6953 0.5482 -0.4648
vn 0.6955 -0.5480 -0.4647
vn 0.8160 -0.1916 -0.5453
vn 0.8160 0.1916 -0.5453
vn 0.3128 -0.8265 -0.4681
vn 0.4645 0.5481 -0.6956
vn 0.4645 -0.5481 -0.6956
vn 0.3129 0.8264 -0.4681
vn 0.5453 0.1915 -0.8161
vn 0.1098 -0.8265 -0.5522
vn 0.1631 0.5481 -0.8203
vn 0.1098 0.8264 -0.5522
vn 0.1915 -0.1915 -0.9626
vn -0.1100 -0.8264 -0.5523
vn -0.1633 0.5481 -0.8203
vn -0.1100 0.8264 -0.5522
vn -0.1917 0.1915 -0.9626
vn -0.3126 -0.8265 -0.4682
vn -0.4645 -0.5482 -0.6955
vn -0.3128 0.8264 -0.4681
vn -0.5451 -0.1915 -0.8162
vn -0.6957 0.5479 -0.4645
vn -0.6957 -0.5479 -0.4646
vn -0.4681 0.8264 -0.3128
vn -0.8162 -0.1915 -0.5452
vn -0.8162 0.1915 -0.5452
vn -0.8203 0.5482 -0.1632
vn -0.5520 0.8266 -0.1098
vn -0.5523 -0.8264 0.1098
vn -0.8204 0.5479 0.1632
vn -0.4681 -0.8265 0.3128
vn -0.6953 0.5482 0.4648
vn -0.6953 -0.5482 0.4647
vn -0.8160 -0.1915 0.5453
vn -0.8160 0.1916 0.5454
vn -0.3129 -0.8264 0.4681
vn -0.4648 -0.5481 0.6954
vn -0.5453 0.1915 0.8161
vn -0.1100 -0.8265 0.5521
vn -0.1630 0.5482 0.8203
vn -0.1630 -0.5482 0.8203
vn -0.1100 0.8265 0.5521
vn 0.1102 -0.8264 0.5522
vn 0.1631 0.5482 0.8203
vn 0.1635 -0.5481 0.8202
vn 0.1102 0.8264 0.5522
vn 0.1917 0.1915 0.9626
vn 0.3129 -0.8264 0.4682
vn 0.4647 0.5482 0.6954
vn 0.4647 -0.5482 0.6954
vn 0.5451 -0.1915 0.8162
vn 0.6954 0.5482 0.4646
vn 0.6954 -0.5481 0.4646
vn 0.4680 0.8265 0.3129
vn 0.8162 -0.1914 0.5452
vn 0.8162 0.1915 0.5452
vn 0.1949 -0.9801 -0.0387
vn 0.1653 -0.9800 -0.1105
vn 0.1653 0.9800 -0.1104
vn 0.1104 -0.9800 -0.1653
vn 0.1104 0.9800 -0.1653
vn -0.1105 -0.9800 -0.1653
vn -0.1105 0.9800 -0.1653
vn -0.1653 -0.9800 -0.1104
vn -0.1653 0.9800 -0.1105
vn -0.1949 -0.9801 -0.0388
vn -0.1950 -0.9800 0.0388
vn -0.1653 -0.9800 0.1104
vn -0.1653 0.9800 0.1105
vn -0.1103 -0.9800 0.1653
vn 0.1103 -0.9801 0.1653
vn 0.1653 -0.9800 0.1105
vn 0.1653 0.9800 0.1104
vn 0.8204 0.5481 0.1632
vn 0.5520 0.8266 0.1098
vn 0.1950 -0.9800 0.0387
vn -0.5523 -0.8264 -0.1098
vn -0.8203 -0.5481 -0.1632
vn -0.4681 -0.8265 -0.3128
vn -0.6956 0.5480 -0.4646
vn -0.6955 -0.5480 -0.4647
vn -0.8160 -0.1916 -0.5453
vn -0.8162 0.1914 -0.5452
vn -0.3128 -0.8264 -0.4682
vn -0.4645 0.5481 -0.6956
vn -0.4646 -0.5482 -0.6954
vn -0.3126 0.8265 -0.4682
vn -0.5453 0.1915 -0.8161
vn -0.1098 -0.8265 -0.5522
vn -0.1633 0.5482 -0.8203
vn -0.1631 -0.5482 -0.8203
vn -0.1104 0.8263 -0.5522
vn -0.1915 -0.1915 -0.9626
vn 0.1100 -0.8264 -0.5523
vn 0.1633 0.5481 -0.8203
vn 0.1632 -0.5482 -0.8203
vn 0.1100 0.8265 -0.5521
vn 0.1917 0.1915 -0.9626
vn 0.3129 -0.8264 -0.4681
vn 0.4646 -0.5481 -0.6955
vn 0.3128 0.8263 -0.4683
vn 0.5451 -0.1915 -0.8162
vn 0.6956 0.5480 -0.4646
vn 0.6957 -0.5479 -0.4646
vn 0.4681 0.8264 -0.3128
vn 0.8160 -0.1916 -0.5454
vn 0.8162 0.1915 -0.5452
vn 0.8204 0.5481 -0.1632
vn 0.8204 -0.5481 -0.1632
vn 0.5520 0.8266 -0.1098
vn 0.5523 -0.8264 0.1098
vn 0.8204 0.5479 0.1632
vn 0.4681 -0.8265 0.3128
vn 0.6953 0.5482 0.4648
vn 0.6956 -0.5480 0.4646
vn 0.4679 0.8265 0.3128
vn 0.8160 -0.1915 0.5453
vn 0.4645 0.5482 0.6955
vn 0.4648 -0.5481 0.6954
vn 0.3128 0.8264 0.4682
vn 0.5453 0.1915 0.8161
vn 0.1099 -0.8264 0.5523
vn 0.1636 0.5481 0.8203
vn 0.1630 -0.5482 0.8203
vn 0.1100 0.8265 0.5521
vn 0.1915 -0.1915 0.9626
vn -0.1098 -0.8265 0.5522
vn -0.1633 0.5481 0.8203
vn -0.1631 -0.5482 0.8203
vn -0.1102 0.8264 0.5522
vn -0.1915 -0.1915 0.9626
vn -0.1917 0.1915 0.9626
vn -0.3129 -0.8264 0.4682
vn -0.4645 0.5482 0.6955
vn -0.4647 -0.5482 0.6954
vn -0.3128 0.8264 0.4682
vn -0.5451 -0.1915 0.8162
vn -0.6954 0.5482 0.4646
vn -0.6955 -0.5481 0.4647
vn -0.4680 0.8265 0.3129
vn -0.8160 -0.1916 0.5453
vn -0.8162 0.1915 0.5452
vn -0.8204 0.5481 0.1632
vn -0.8203 -0.5481 0.1632
vn -0.5520 0.8266 0.1098
vn 0.6957 0.5479 -0.4645
vn 0.6956 -0.5480 -0.4646
vn 0.4682 0.8264 -0.3128
vn 0.8162 -0.1914 -0.5452
vn 0.3128 -0.8264 -0.4682
vn 0.4646 -0.5482 -0.6954
vn 0.3126 0.8265 -0.4682
vn 0.1104 -0.8263 -0.5522
vn 0.1633 0.5482 -0.8203
vn 0.1631 -0.5482 -0.8203
vn 0.1104 0.8264 -0.5522
vn -0.1100 -0.8265 -0.5521
vn -0.1632 0.5482 -0.8203
vn -0.1632 -0.5482 -0.8203
vn -0.1100 0.8265 -0.5521
vn -0.4646 -0.5481 -0.6955
vn -0.3128 0.8264 -0.4682
vn -0.6953 0.5482 -0.4648
vn -0.6953 -0.5482 -0.4647
vn -0.8160 -0.1915 -0.5453
vn -0.8160 0.1916 -0.5454
vn -0.8204 0.5481 -0.1632
vn -0.8204 -0.5481 -0.1632
vn -0.8203 0.5482 0.1632
vn -0.4679 -0.8265 0.3128
vn -0.6956 0.5480 0.4646
vn -0.6956 -0.5480 0.4646
vn -0.4679 0.8265 0.3128
vn -0.4645 -0.5482 0.6955
vn -0.1099 -0.8264 0.5523
vn -0.1636 0.5481 0.8203
vn -0.1636 -0.5481 0.8203
vn -0.1099 0.8264 0.5522
vn 0.1098 -0.8265 0.5522
vn 0.1633 0.5481 0.8203
vn 0.1098 0.8264 0.5522
vn 0.3128 -0.8265 0.4681
vn 0.4645 0.5481 0.6956
vn 0.4645 -0.5481 0.6956
vn 0.6955 0.5481 0.4647
vn 0.6955 -0.5480 0.4647
vn 0.8160 -0.1916 0.5453
vn 0.8160 0.1916 0.5453
vn 0.8203 0.5481 0.1632
vn 0.8203 -0.5481 0.1632
s off
f 3//1 11//1 4//1
f 7//2 13//2 14//2
f 2//3 10//3 3//3
f 6//4 12//4 13//4
f 1//5 9//5 2//5
f 5//6 11//6 12//6
f 14//7 20//7 21//7
f 9//8 17//8 10//8
f 13//9 19//9 20//9
f 8//10 16//10 9//10
f 12//11 18//11 19//11
f 10//12 18//12 11//12
f 20//13 28//13 21//13
f 17//14 23//14 24//14
f 19//15 27//15 20//15
f 15//16 23//16 16//16
f 18//17 26//17 19//17
f 18//18 24//18 25//18
f 28//19 34//19 35//19
f 23//20 31//20 24//20
f 26//21 34//21 27//21
f 22//22 30//22 23//22
f 26//23 32//23 33//23
f 24//24 32//24 25//24
f 35//25 42//25 43//25
f 31//26 38//26 39//26
f 33//27 42//27 34//27
f 29//28 38//28 30//28
f 32//29 41//29 33//29
f 32//30 39//30 40//30
f 42//31 50//31 43//31
f 38//32 46//32 39//32
f 41//33 49//33 42//33
f 37//34 45//34 38//34
f 41//35 47//35 48//35
f 39//36 47//36 40//36
f 49//37 57//37 50//37
f 46//38 52//38 53//38
f 49//39 55//39 56//39
f 45//40 51//40 52//40
f 47//41 55//41 48//41
f 47//42 53//42 54//42
f 56//43 64//43 57//43
f 52//44 60//44 53//44
f 55//45 63//45 56//45
f 52//46 58//46 59//46
f 54//47 62//47 55//47
f 54//48 60//48 61//48
f 64//49 70//49 71//49
f 60//50 66//50 67//50
f 63//51 69//51 70//51
f 58//52 66//52 59//52
f 62//53 68//53 69//53
f 60//54 68//54 61//54
f 71//55 77//55 78//55
f 67//56 73//56 74//56
f 69//57 77//57 70//57
f 65//58 73//58 66//58
f 69//59 75//59 76//59
f 67//60 75//60 68//60
f 77//61 85//61 78//61
f 73//62 81//62 74//62
f 77//63 83//63 84//63
f 72//64 80//64 73//64
f 75//65 83//65 76//65
f 75//66 81//66 82//66
f 84//67 92//67 85//67
f 80//68 88//68 81//68
f 84//69 90//69 91//69
f 80//70 86//70 87//70
f 82//71 90//71 83//71
f 81//72 89//72 82//72
f 91//73 99//73 92//73
f 87//74 95//74 88//74
f 91//75 97//75 98//75
f 87//76 93//76 94//76
f 89//77 97//77 90//77
f 89//78 95//78 96//78
f 99//79 106//79 107//79
f 95//80 102//80 103//80
f 98//81 105//81 106//81
f 93//82 102//82 94//82
f 97//83 104//83 105//83
f 95//84 104//84 96//84
f 106//85 114//85 107//85
f 103//86 109//86 110//86
f 105//87 113//87 106//87
f 102//88 108//88 109//88
f 104//89 112//89 105//89
f 104//90 110//90 111//90
f 100//91 7//91 14//91
f 1//92 36//92 8//92
f 100//93 14//93 21//93
f 8//94 36//94 15//94
f 100//95 21//95 28//95
f 15//96 36//96 22//96
f 100//97 28//97 35//97
f 22//98 36//98 29//98
f 100//99 35//99 43//99
f 29//100 36//100 37//100
f 100//101 43//101 50//101
f 37//102 36//102 44//102
f 100//103 50//103 57//103
f 44//104 36//104 51//104
f 100//105 57//105 64//105
f 51//106 36//106 58//106
f 100//107 64//107 71//107
f 58//108 36//108 65//108
f 100//109 71//109 78//109
f 65//110 36//110 72//110
f 100//111 78//111 85//111
f 72//112 36//112 79//112
f 100//113 85//113 92//113
f 79//114 36//114 86//114
f 100//115 92//115 99//115
f 86//116 36//116 93//116
f 100//117 99//117 107//117
f 93//118 36//118 101//118
f 100//119 107//119 114//119
f 101//120 36//120 108//120
f 113//121 7//121 114//121
f 110//122 2//122 3//122
f 112//123 6//123 113//123
f 109//124 1//124 2//124
f 111//125 5//125 112//125
f 100//126 114//126 7//126
f 108//127 36//127 1//127
f 111//128 3//128 4//128
f 125//48 117//48 118//48
f 121//129 127//129 120//129
f 124//130 116//130 117//130
f 120//131 126//131 119//131
f 123//46 115//46 116//46
f 119//47 125//47 118//47
f 128//132 134//132 127//132
f 124//133 130//133 123//133
f 127//134 133//134 126//134
f 130//40 122//40 123//40
f 126//135 132//135 125//135
f 132//136 124//136 125//136
f 142//137 134//137 135//137
f 131//138 137//138 130//138
f 141//139 133//139 134//139
f 137//140 129//140 130//140
f 140//35 132//35 133//35
f 132//141 138//141 131//141
f 142//142 148//142 141//142
f 145//143 137//143 138//143
f 148//27 140//27 141//27
f 144//144 136//144 137//144
f 140//145 146//145 139//145
f 146//30 138//30 139//30
f 149//146 156//146 148//146
f 145//147 152//147 144//147
f 156//21 147//21 148//21
f 152//148 143//148 144//148
f 155//23 146//23 147//23
f 146//149 153//149 145//149
f 164//150 156//150 157//150
f 160//14 152//14 153//14
f 163//151 155//151 156//151
f 159//152 151//152 152//152
f 155//153 161//153 154//153
f 161//18 153//18 154//18
f 171//7 163//7 164//7
f 167//154 159//154 160//154
f 163//155 169//155 162//155
f 159//156 165//156 158//156
f 169//157 161//157 162//157
f 161//158 167//158 160//158
f 178//2 170//2 171//2
f 167//159 173//159 166//159
f 177//4 169//4 170//4
f 166//160 172//160 165//160
f 176//6 168//6 169//6
f 168//1 174//1 167//1
f 178//161 184//161 177//161
f 174//162 180//162 173//162
f 177//123 183//123 176//123
f 180//124 172//124 173//124
f 176//125 182//125 175//125
f 182//128 174//128 175//128
f 185//163 191//163 184//163
f 181//164 187//164 180//164
f 191//165 183//165 184//165
f 187//88 179//88 180//88
f 183//166 189//166 182//166
f 189//167 181//167 182//167
f 199//168 191//168 192//168
f 195//80 187//80 188//80
f 191//169 197//169 190//169
f 194//82 186//82 187//82
f 197//83 189//83 190//83
f 189//170 195//170 188//170
f 206//171 198//171 199//171
f 202//172 194//172 195//172
f 198//173 204//173 197//173
f 194//174 200//174 193//174
f 204//77 196//77 197//77
f 203//78 195//78 196//78
f 213//175 205//175 206//175
f 209//176 201//176 202//176
f 212//177 204//177 205//177
f 201//178 207//178 200//178
f 211//71 203//71 204//71
f 203//179 209//179 202//179
f 213//180 220//180 212//180
f 217//181 208//181 209//181
f 212//182 219//182 211//182
f 216//64 207//64 208//64
f 211//183 218//183 210//183
f 218//66 209//66 210//66
f 228//55 220//55 221//55
f 217//184 223//184 216//184
f 227//185 219//185 220//185
f 216//186 222//186 215//186
f 226//187 218//187 219//187
f 218//188 224//188 217//188
f 214//189 128//189 121//189
f 115//106 122//106 150//106
f 214//190 135//190 128//190
f 122//191 129//191 150//191
f 214//192 142//192 135//192
f 129//193 136//193 150//193
f 214//99 149//99 142//99
f 136//100 143//100 150//100
f 214//97 157//97 149//97
f 143//98 151//98 150//98
f 214//194 164//194 157//194
f 151//195 158//195 150//195
f 214//196 171//196 164//196
f 158//197 165//197 150//197
f 214//198 178//198 171//198
f 165//92 172//92 150//92
f 214//199 185//199 178//199
f 172//127 179//127 150//127
f 214//200 192//200 185//200
f 179//201 186//201 150//201
f 214//202 199//202 192//202
f 186//118 193//118 150//118
f 214//115 206//115 199//115
f 193//116 200//116 150//116
f 214//113 213//113 206//113
f 200//114 207//114 150//114
f 214//203 221//203 213//203
f 207//112 215//112 150//112
f 214//204 228//204 221//204
f 215//205 222//205 150//205
f 121//49 227//49 228//49
f 224//206 116//206 223//206
f 120//51 226//51 227//51
f 223//207 115//207 222//207
f 119//53 225//53 226//53
f 214//208 121//208 228//208
f 222//108 115//108 150//108
f 225//54 117//54 224//54
f 3//1 10//1 11//1
f 7//209 6//209 13//209
f 2//159 9//159 10//159
f 6//210 5//210 12//210
f 1//160 8//160 9//160
f 5//6 4//6 11//6
f 14//211 13//211 20//211
f 9//212 16//212 17//212
f 13//213 12//213 19//213
f 8//156 15//156 16//156
f 12//214 11//214 18//214
f 10//215 17//215 18//215
f 20//216 27//216 28//216
f 17//217 16//217 23//217
f 19//218 26//218 27//218
f 15//219 22//219 23//219
f 18//153 25//153 26//153
f 18//220 17//220 24//220
f 28//221 27//221 34//221
f 23//222 30//222 31//222
f 26//223 33//223 34//223
f 22//224 29//224 30//224
f 26//225 25//225 32//225
f 24//149 31//149 32//149
f 35//226 34//226 42//226
f 31//227 30//227 38//227
f 33//228 41//228 42//228
f 29//229 37//229 38//229
f 32//145 40//145 41//145
f 32//230 31//230 39//230
f 42//231 49//231 50//231
f 38//138 45//138 46//138
f 41//232 48//232 49//232
f 37//233 44//233 45//233
f 41//234 40//234 47//234
f 39//141 46//141 47//141
f 49//37 56//37 57//37
f 46//235 45//235 52//235
f 49//236 48//236 55//236
f 45//237 44//237 51//237
f 47//238 54//238 55//238
f 47//239 46//239 53//239
f 56//129 63//129 64//129
f 52//240 59//240 60//240
f 55//241 62//241 63//241
f 52//242 51//242 58//242
f 54//47 61//47 62//47
f 54//48 53//48 60//48
f 64//243 63//243 70//243
f 60//244 59//244 66//244
f 63//51 62//51 69//51
f 58//207 65//207 66//207
f 62//53 61//53 68//53
f 60//54 67//54 68//54
f 71//245 70//245 77//245
f 67//246 66//246 73//246
f 69//247 76//247 77//247
f 65//248 72//248 73//248
f 69//249 68//249 75//249
f 67//188 74//188 75//188
f 77//180 84//180 85//180
f 73//250 80//250 81//250
f 77//251 76//251 83//251
f 72//252 79//252 80//252
f 75//183 82//183 83//183
f 75//253 74//253 81//253
f 84//254 91//254 92//254
f 80//255 87//255 88//255
f 84//256 83//256 90//256
f 80//257 79//257 86//257
f 82//258 89//258 90//258
f 81//179 88//179 89//179
f 91//259 98//259 99//259
f 87//260 94//260 95//260
f 91//261 90//261 97//261
f 87//262 86//262 93//262
f 89//263 96//263 97//263
f 89//264 88//264 95//264
f 99//265 98//265 106//265
f 95//266 94//266 102//266
f 98//267 97//267 105//267
f 93//268 101//268 102//268
f 97//269 96//269 104//269
f 95//170 103//170 104//170
f 106//163 113//163 114//163
f 103//270 102//270 109//270
f 105//271 112//271 113//271
f 102//272 101//272 108//272
f 104//273 111//273 112//273
f 104//274 103//274 110//274
f 113//161 6//161 7//161
f 110//275 109//275 2//275
f 112//276 5//276 6//276
f 109//277 108//277 1//277
f 111//125 4//125 5//125
f 111//128 110//128 3//128
f 125//48 124//48 117//48
f 121//43 128//43 127//43
f 124//44 123//44 116//44
f 120//45 127//45 126//45
f 123//242 122//242 115//242
f 119//47 126//47 125//47
f 128//37 135//37 134//37
f 124//278 131//278 130//278
f 127//279 134//279 133//279
f 130//280 129//280 122//280
f 126//281 133//281 132//281
f 132//239 131//239 124//239
f 142//282 141//282 134//282
f 131//32 138//32 137//32
f 141//283 140//283 133//283
f 137//284 136//284 129//284
f 140//234 139//234 132//234
f 132//36 139//36 138//36
f 142//285 149//285 148//285
f 145//286 144//286 137//286
f 148//287 147//287 140//287
f 144//288 143//288 136//288
f 140//29 147//29 146//29
f 146//230 145//230 138//230
f 149//289 157//289 156//289
f 145//290 153//290 152//290
f 156//291 155//291 147//291
f 152//292 151//292 143//292
f 155//225 154//225 146//225
f 146//24 154//24 153//24
f 164//13 163//13 156//13
f 160//217 159//217 152//217
f 163//293 162//293 155//293
f 159//294 158//294 151//294
f 155//17 162//17 161//17
f 161//220 160//220 153//220
f 171//211 170//211 163//211
f 167//295 166//295 159//295
f 163//296 170//296 169//296
f 159//10 166//10 165//10
f 169//297 168//297 161//297
f 161//298 168//298 167//298
f 178//209 177//209 170//209
f 167//299 174//299 173//299
f 177//300 176//300 169//300
f 166//5 173//5 172//5
f 176//6 175//6 168//6
f 168//1 175//1 174//1
f 178//121 185//121 184//121
f 174//301 181//301 180//301
f 177//123 184//123 183//123
f 180//277 179//277 172//277
f 176//125 183//125 182//125
f 182//128 181//128 174//128
f 185//302 192//302 191//302
f 181//303 188//303 187//303
f 191//304 190//304 183//304
f 187//305 186//305 179//305
f 183//89 190//89 189//89
f 189//274 188//274 181//274
f 199//265 198//265 191//265
f 195//266 194//266 187//266
f 191//306 198//306 197//306
f 194//268 193//268 186//268
f 197//269 196//269 189//269
f 189//84 196//84 195//84
f 206//307 205//307 198//307
f 202//308 201//308 194//308
f 198//309 205//309 204//309
f 194//310 201//310 200//310
f 204//263 203//263 196//263
f 203//264 202//264 195//264
f 213//311 212//311 205//311
f 209//312 208//312 201//312
f 212//256 211//256 204//256
f 201//313 208//313 207//313
f 211//258 210//258 203//258
f 203//72 210//72 209//72
f 213//314 221//314 220//314
f 217//315 216//315 208//315
f 212//316 220//316 219//316
f 216//252 215//252 207//252
f 211//65 219//65 218//65
f 218//253 217//253 209//253
f 228//245 227//245 220//245
f 217//317 224//317 223//317
f 227//318 226//318 219//318
f 216//58 223//58 222//58
f 226//319 225//319 218//319
f 218//320 225//320 224//320
f 121//243 120//243 227//243
f 224//321 117//321 116//321
f 120//322 119//322 226//322
f 223//52 116//52 115//52
f 119//53 118//53 225//53
f 225//54 118//54 117//54
