# Blender v2.83.1 OBJ File: 'Cozy.blend'
# www.blender.org
o Plane
v 4.544125 0.002751 4.313552
v 4.544125 0.002751 -4.654716
v -4.424142 8.378666 4.313552
v -4.424142 8.378666 -4.654716
v -3.303109 0.002751 4.313552
v -4.424142 1.123784 4.313552
v -3.732110 0.088084 4.313552
v -4.095799 0.331094 4.313552
v -4.338809 0.694783 4.313552
v -4.424142 1.123784 -4.654716
v -3.303109 0.002751 -4.654716
v -4.338809 0.694783 -4.654716
v -4.095799 0.331094 -4.654716
v -3.732110 0.088084 -4.654716
vt 1.000000 0.000000
vt 0.125000 1.000000
vt 0.125000 0.000000
vt 0.000000 0.000000
vt 0.000000 1.000000
vt 0.000000 1.000000
vt 0.000000 0.000000
vt 0.000000 1.000000
vt 0.000000 0.000000
vt 0.077165 1.000000
vt 0.077165 0.000000
vt 0.000000 0.000000
vt 1.000000 1.000000
vt 0.000000 1.000000
vn 0.0000 1.0000 0.0000
vn 0.0980 0.9952 0.0000
vn 0.9952 0.0980 0.0000
vn 0.9239 0.3827 0.0000
vn 0.7071 0.7071 0.0000
vn 0.3827 0.9239 0.0000
vn 1.0000 0.0000 0.0000
s 1
f 1/1/1 11/2/2 5/3/2
f 6/4/3 12/5/4 10/6/3
f 9/7/4 13/8/5 12/5/4
f 8/9/5 14/10/6 13/8/5
f 7/11/6 11/2/2 14/10/6
f 10/6/3 3/12/7 6/4/3
f 1/1/1 2/13/1 11/2/2
f 6/4/3 9/7/4 12/5/4
f 9/7/4 8/9/5 13/8/5
f 8/9/5 7/11/6 14/10/6
f 7/11/6 5/3/2 11/2/2
f 10/6/3 4/14/7 3/12/7
