# Blender v2.83.1 OBJ File: 'Cozy.blend'
# www.blender.org
o Support_axis_C_Cylinder.005
v 0.396173 1.041831 0.064807
v 0.327437 1.041831 0.183862
v 0.396136 1.041400 0.064786
v 0.327400 1.041400 0.183841
v 0.396027 1.040985 0.064723
v 0.327291 1.040985 0.183778
v 0.395851 1.040603 0.064621
v 0.327114 1.040603 0.183676
v 0.395613 1.040268 0.064483
v 0.326876 1.040268 0.183538
v 0.395323 1.039993 0.064316
v 0.326586 1.039993 0.183371
v 0.394992 1.039789 0.064125
v 0.326255 1.039789 0.183180
v 0.394633 1.039663 0.063918
v 0.325896 1.039663 0.182973
v 0.394259 1.039621 0.063702
v 0.325523 1.039621 0.182757
v 0.393886 1.039663 0.063486
v 0.325149 1.039663 0.182542
v 0.393527 1.039789 0.063279
v 0.324790 1.039789 0.182334
v 0.393196 1.039993 0.063088
v 0.324459 1.039993 0.182143
v 0.392906 1.040268 0.062921
v 0.324169 1.040268 0.181976
v 0.392668 1.040603 0.062783
v 0.323931 1.040603 0.181838
v 0.392491 1.040985 0.062681
v 0.323755 1.040985 0.181736
v 0.392382 1.041400 0.062618
v 0.323646 1.041400 0.181673
v 0.392345 1.041831 0.062597
v 0.323609 1.041831 0.181652
v 0.392382 1.042262 0.062618
v 0.323646 1.042262 0.181673
v 0.392491 1.042676 0.062681
v 0.323755 1.042676 0.181736
v 0.392668 1.043059 0.062783
v 0.323931 1.043059 0.181838
v 0.392906 1.043393 0.062921
v 0.324169 1.043393 0.181976
v 0.393196 1.043668 0.063088
v 0.324459 1.043668 0.182143
v 0.393527 1.043872 0.063279
v 0.324790 1.043872 0.182334
v 0.393886 1.043998 0.063486
v 0.325149 1.043998 0.182542
v 0.394259 1.044041 0.063702
v 0.325523 1.044041 0.182757
v 0.394633 1.043998 0.063918
v 0.325896 1.043998 0.182973
v 0.394992 1.043872 0.064125
v 0.326255 1.043872 0.183180
v 0.395323 1.043668 0.064316
v 0.326586 1.043668 0.183371
v 0.395613 1.043393 0.064483
v 0.326876 1.043393 0.183538
v 0.395851 1.043059 0.064621
v 0.327114 1.043059 0.183676
v 0.396027 1.042676 0.064723
v 0.327291 1.042676 0.183778
v 0.396136 1.042262 0.064786
v 0.327400 1.042262 0.183841
vt 1.000000 1.000000
vt 0.968750 0.500000
vt 1.000000 0.500000
vt 0.968750 1.000000
vt 0.937500 0.500000
vt 0.937500 1.000000
vt 0.906250 0.500000
vt 0.906250 1.000000
vt 0.875000 0.500000
vt 0.875000 1.000000
vt 0.843750 0.500000
vt 0.843750 1.000000
vt 0.812500 0.500000
vt 0.812500 1.000000
vt 0.781250 0.500000
vt 0.781250 1.000000
vt 0.750000 0.500000
vt 0.750000 1.000000
vt 0.718750 0.500000
vt 0.718750 1.000000
vt 0.687500 0.500000
vt 0.687500 1.000000
vt 0.656250 0.500000
vt 0.656250 1.000000
vt 0.625000 0.500000
vt 0.625000 1.000000
vt 0.593750 0.500000
vt 0.593750 1.000000
vt 0.562500 0.500000
vt 0.562500 1.000000
vt 0.531250 0.500000
vt 0.531250 1.000000
vt 0.500000 0.500000
vt 0.500000 1.000000
vt 0.468750 0.500000
vt 0.468750 1.000000
vt 0.437500 0.500000
vt 0.437500 1.000000
vt 0.406250 0.500000
vt 0.406250 1.000000
vt 0.375000 0.500000
vt 0.375000 1.000000
vt 0.343750 0.500000
vt 0.343750 1.000000
vt 0.312500 0.500000
vt 0.312500 1.000000
vt 0.281250 0.500000
vt 0.281250 1.000000
vt 0.250000 0.500000
vt 0.250000 1.000000
vt 0.218750 0.500000
vt 0.218750 1.000000
vt 0.187500 0.500000
vt 0.187500 1.000000
vt 0.156250 0.500000
vt 0.156250 1.000000
vt 0.125000 0.500000
vt 0.125000 1.000000
vt 0.093750 0.500000
vt 0.093750 1.000000
vt 0.062500 0.500000
vt 0.158156 0.028269
vt 0.471731 0.158156
vt 0.341844 0.471731
vt 0.062500 1.000000
vt 0.031250 0.500000
vt 0.031250 1.000000
vt 0.000000 0.500000
vt 0.796822 0.014612
vt 0.514611 0.203179
vt 0.703179 0.485389
vt 0.296822 0.485388
vt 0.250000 0.490000
vt 0.203179 0.485389
vt 0.158156 0.471731
vt 0.116663 0.449553
vt 0.080295 0.419706
vt 0.050447 0.383337
vt 0.028269 0.341844
vt 0.014612 0.296822
vt 0.010000 0.250000
vt 0.014611 0.203179
vt 0.028269 0.158156
vt 0.050447 0.116663
vt 0.080294 0.080294
vt 0.116663 0.050447
vt 0.203178 0.014612
vt 0.250000 0.010000
vt 0.296822 0.014612
vt 0.341844 0.028269
vt 0.383337 0.050447
vt 0.419706 0.080294
vt 0.449553 0.116663
vt 0.485388 0.203178
vt 0.490000 0.250000
vt 0.485388 0.296822
vt 0.471731 0.341844
vt 0.449553 0.383337
vt 0.419706 0.419706
vt 0.383337 0.449553
vt 0.000000 1.000000
vt 0.750000 0.490000
vt 0.796822 0.485388
vt 0.841844 0.471731
vt 0.883337 0.449553
vt 0.919706 0.419706
vt 0.985388 0.296822
vt 0.949553 0.383337
vt 0.971731 0.341844
vt 0.990000 0.250000
vt 0.985388 0.203178
vt 0.971731 0.158156
vt 0.949553 0.116663
vt 0.919706 0.080294
vt 0.883337 0.050447
vt 0.841844 0.028269
vt 0.750000 0.010000
vt 0.703178 0.014612
vt 0.658156 0.028269
vt 0.616663 0.050447
vt 0.580294 0.080294
vt 0.550447 0.116663
vt 0.528269 0.158156
vt 0.510000 0.250000
vt 0.514612 0.296822
vt 0.528269 0.341844
vt 0.550447 0.383337
vt 0.580295 0.419706
vt 0.616663 0.449553
vt 0.658156 0.471731
vn 0.8620 -0.0981 0.4973
vn 0.8288 -0.2903 0.4784
vn 0.7638 -0.4713 0.4410
vn 0.6695 -0.6343 0.3865
vn 0.5493 -0.7730 0.3173
vn 0.4082 -0.8820 0.2355
vn 0.2514 -0.9570 0.1448
vn 0.0848 -0.9952 0.0489
vn -0.0848 -0.9952 -0.0489
vn -0.2514 -0.9569 -0.1452
vn -0.4082 -0.8819 -0.2358
vn -0.5493 -0.7731 -0.3170
vn -0.6695 -0.6342 -0.3867
vn -0.7638 -0.4714 -0.4410
vn -0.8288 -0.2905 -0.4783
vn -0.8617 -0.0980 -0.4979
vn -0.8619 0.0980 -0.4975
vn -0.8286 0.2903 -0.4787
vn -0.7638 0.4713 -0.4410
vn -0.6695 0.6344 -0.3865
vn -0.5493 0.7730 -0.3174
vn -0.4082 0.8819 -0.2357
vn -0.2514 0.9569 -0.1451
vn -0.0848 0.9952 -0.0488
vn 0.0848 0.9952 0.0491
vn 0.2514 0.9569 0.1454
vn 0.4082 0.8819 0.2357
vn 0.5494 0.7732 0.3169
vn 0.6696 0.6343 0.3863
vn 0.7637 0.4714 0.4410
vn -0.5000 0.0000 0.8660
vn 0.8288 0.2904 0.4782
vn 0.8618 0.0981 0.4977
vn 0.5000 0.0000 -0.8660
vn 0.8617 -0.0981 0.4978
vn 0.8288 -0.2904 0.4783
vn 0.7638 -0.4715 0.4409
vn 0.6695 -0.6342 0.3867
vn 0.5494 -0.7731 0.3170
vn 0.4082 -0.8819 0.2359
vn 0.2514 -0.9569 0.1454
vn 0.0848 -0.9952 0.0490
vn -0.0848 -0.9952 -0.0488
vn -0.2514 -0.9569 -0.1451
vn -0.4082 -0.8820 -0.2354
vn -0.5493 -0.7730 -0.3173
vn -0.6695 -0.6344 -0.3865
vn -0.7637 -0.4714 -0.4411
vn -0.8287 -0.2903 -0.4785
vn -0.8620 -0.0980 -0.4974
vn -0.8617 0.0979 -0.4978
vn -0.8288 0.2904 -0.4783
vn -0.7637 0.4714 -0.4411
vn -0.6696 0.6342 -0.3865
vn -0.5494 0.7732 -0.3168
vn -0.2514 0.9569 -0.1454
vn -0.0848 0.9952 -0.0490
vn 0.0848 0.9952 0.0488
vn 0.2514 0.9569 0.1451
vn 0.5494 0.7728 0.3177
vn 0.6694 0.6345 0.3865
vn 0.7638 0.4714 0.4409
vn -0.5001 0.0001 0.8660
vn -0.4999 -0.0001 0.8661
vn -0.4999 0.0000 0.8661
vn -0.4997 0.0004 0.8662
vn -0.5008 0.0004 0.8656
vn -0.4993 0.0008 0.8664
vn -0.5002 0.0000 0.8659
vn -0.5001 0.0000 0.8660
vn -0.4998 0.0000 0.8661
vn -0.5011 -0.0002 0.8654
vn -0.4997 0.0000 0.8662
vn -0.5001 0.0000 0.8659
vn -0.5015 0.0002 0.8652
vn -0.4986 0.0000 0.8668
vn -0.5006 0.0000 0.8657
vn -0.4995 -0.0004 0.8663
vn -0.5012 -0.0004 0.8653
vn -0.4995 0.0001 0.8663
vn -0.4996 0.0001 0.8663
vn 0.8286 0.2903 0.4787
vn 0.8620 0.0981 0.4974
vn 0.5001 0.0000 -0.8660
vn 0.4999 0.0000 -0.8661
vn 0.5002 -0.0001 -0.8659
vn 0.4999 -0.0001 -0.8661
vn 0.5002 0.0003 -0.8659
vn 0.5018 0.0000 -0.8650
vn 0.4996 -0.0004 -0.8663
vn 0.4994 0.0000 -0.8664
vn 0.5002 0.0000 -0.8659
vn 0.4998 0.0001 -0.8662
vn 0.4998 0.0000 -0.8661
vn 0.4996 0.0000 -0.8662
vn 0.5004 0.0003 -0.8658
vn 0.4997 0.0000 -0.8662
vn 0.5010 0.0004 -0.8654
vn 0.5011 -0.0008 -0.8654
vn 0.4998 -0.0001 -0.8661
vn 0.5004 0.0005 -0.8658
vn 0.5001 0.0001 -0.8660
s off
f 2/1/1 3/2/1 1/3/1
f 4/4/2 5/5/2 3/2/2
f 6/6/3 7/7/3 5/5/3
f 8/8/4 9/9/4 7/7/4
f 10/10/5 11/11/5 9/9/5
f 12/12/6 13/13/6 11/11/6
f 14/14/7 15/15/7 13/13/7
f 16/16/8 17/17/8 15/15/8
f 18/18/9 19/19/9 17/17/9
f 20/20/10 21/21/10 19/19/10
f 22/22/11 23/23/11 21/21/11
f 24/24/12 25/25/12 23/23/12
f 26/26/13 27/27/13 25/25/13
f 28/28/14 29/29/14 27/27/14
f 30/30/15 31/31/15 29/29/15
f 32/32/16 33/33/16 31/31/16
f 34/34/17 35/35/17 33/33/17
f 36/36/18 37/37/18 35/35/18
f 38/38/19 39/39/19 37/37/19
f 40/40/20 41/41/20 39/39/20
f 42/42/21 43/43/21 41/41/21
f 44/44/22 45/45/22 43/43/22
f 46/46/23 47/47/23 45/45/23
f 48/48/24 49/49/24 47/47/24
f 50/50/25 51/51/25 49/49/25
f 52/52/26 53/53/26 51/51/26
f 54/54/27 55/55/27 53/53/27
f 56/56/28 57/57/28 55/55/28
f 58/58/29 59/59/29 57/57/29
f 60/60/30 61/61/30 59/59/30
f 38/62/31 22/63/31 6/64/31
f 62/65/32 63/66/32 61/61/32
f 64/67/33 1/68/33 63/66/33
f 31/69/34 47/70/34 63/71/34
f 2/1/35 4/4/35 3/2/35
f 4/4/36 6/6/36 5/5/36
f 6/6/37 8/8/37 7/7/37
f 8/8/38 10/10/38 9/9/38
f 10/10/39 12/12/39 11/11/39
f 12/12/40 14/14/40 13/13/40
f 14/14/41 16/16/41 15/15/41
f 16/16/42 18/18/42 17/17/42
f 18/18/43 20/20/43 19/19/43
f 20/20/44 22/22/44 21/21/44
f 22/22/45 24/24/45 23/23/45
f 24/24/46 26/26/46 25/25/46
f 26/26/47 28/28/47 27/27/47
f 28/28/48 30/30/48 29/29/48
f 30/30/49 32/32/49 31/31/49
f 32/32/50 34/34/50 33/33/50
f 34/34/51 36/36/51 35/35/51
f 36/36/52 38/38/52 37/37/52
f 38/38/53 40/40/53 39/39/53
f 40/40/54 42/42/54 41/41/54
f 42/42/55 44/44/55 43/43/55
f 44/44/22 46/46/22 45/45/22
f 46/46/56 48/48/56 47/47/56
f 48/48/57 50/50/57 49/49/57
f 50/50/58 52/52/58 51/51/58
f 52/52/59 54/54/59 53/53/59
f 54/54/27 56/56/27 55/55/27
f 56/56/60 58/58/60 57/57/60
f 58/58/61 60/60/61 59/59/61
f 60/60/62 62/65/62 61/61/62
f 6/64/63 4/72/63 2/73/63
f 2/73/64 64/74/64 6/64/64
f 64/74/65 62/75/65 6/64/65
f 62/75/66 60/76/66 58/77/66
f 58/77/67 56/78/67 54/79/67
f 54/79/68 52/80/68 50/81/68
f 50/81/69 48/82/69 54/79/69
f 48/82/70 46/83/70 54/79/70
f 46/83/71 44/84/71 42/85/71
f 42/85/72 40/86/72 38/62/72
f 38/62/69 36/87/69 34/88/69
f 34/88/73 32/89/73 38/62/73
f 32/89/74 30/90/74 38/62/74
f 30/90/75 28/91/75 26/92/75
f 26/92/71 24/93/71 22/63/71
f 22/63/76 20/94/76 18/95/76
f 18/95/69 16/96/69 22/63/69
f 16/96/77 14/97/77 22/63/77
f 14/97/78 12/98/78 10/99/78
f 10/99/79 8/100/79 6/64/79
f 62/75/70 58/77/70 6/64/70
f 58/77/65 54/79/65 6/64/65
f 46/83/80 42/85/80 38/62/80
f 30/90/31 26/92/31 38/62/31
f 26/92/31 22/63/31 38/62/31
f 14/97/81 10/99/81 6/64/81
f 54/79/31 46/83/31 6/64/31
f 46/83/31 38/62/31 6/64/31
f 22/63/65 14/97/65 6/64/65
f 62/65/82 64/67/82 63/66/82
f 64/67/83 2/101/83 1/68/83
f 63/71/84 1/102/84 3/103/84
f 3/103/85 5/104/85 63/71/85
f 5/104/86 7/105/86 63/71/86
f 7/105/87 9/106/87 15/107/87
f 9/106/88 11/108/88 15/107/88
f 11/108/89 13/109/89 15/107/89
f 15/107/90 17/110/90 19/111/90
f 19/111/91 21/112/91 15/107/91
f 21/112/84 23/113/84 15/107/84
f 23/113/92 25/114/92 31/69/92
f 25/114/84 27/115/84 31/69/84
f 27/115/93 29/116/93 31/69/93
f 31/69/92 33/117/92 35/118/92
f 35/118/94 37/119/94 31/69/94
f 37/119/84 39/120/84 31/69/84
f 39/120/95 41/121/95 43/122/95
f 43/122/96 45/123/96 39/120/96
f 45/123/97 47/70/97 39/120/97
f 47/70/98 49/124/98 51/125/98
f 51/125/99 53/126/99 55/127/99
f 55/127/86 57/128/86 63/71/86
f 57/128/100 59/129/100 63/71/100
f 59/129/101 61/130/101 63/71/101
f 47/70/84 51/125/84 63/71/84
f 51/125/102 55/127/102 63/71/102
f 63/71/34 7/105/34 31/69/34
f 7/105/34 15/107/34 31/69/34
f 15/107/34 23/113/34 31/69/34
f 31/69/34 39/120/34 47/70/34
