# Blender v2.83.1 OBJ File: 'Cozy.blend'
# www.blender.org
o Support_axis_A_Cylinder.001
v 0.449616 1.039542 0.029875
v 0.587089 1.039542 0.029875
v 0.449616 1.039110 0.029917
v 0.587089 1.039110 0.029917
v 0.449616 1.038696 0.030043
v 0.587089 1.038696 0.030043
v 0.449616 1.038314 0.030247
v 0.587089 1.038314 0.030247
v 0.449616 1.037979 0.030522
v 0.587089 1.037979 0.030522
v 0.449616 1.037704 0.030857
v 0.587089 1.037704 0.030857
v 0.449616 1.037500 0.031239
v 0.587089 1.037500 0.031239
v 0.449616 1.037374 0.031654
v 0.587089 1.037374 0.031654
v 0.449616 1.037332 0.032085
v 0.587089 1.037332 0.032085
v 0.449616 1.037374 0.032516
v 0.587089 1.037374 0.032516
v 0.449616 1.037500 0.032930
v 0.587089 1.037500 0.032930
v 0.449616 1.037704 0.033312
v 0.587089 1.037704 0.033312
v 0.449616 1.037979 0.033647
v 0.587089 1.037979 0.033647
v 0.449616 1.038314 0.033922
v 0.587089 1.038314 0.033922
v 0.449616 1.038696 0.034126
v 0.587089 1.038696 0.034126
v 0.449616 1.039110 0.034252
v 0.587089 1.039110 0.034252
v 0.449616 1.039542 0.034295
v 0.587089 1.039542 0.034295
v 0.449616 1.039973 0.034252
v 0.587089 1.039973 0.034252
v 0.449616 1.040387 0.034126
v 0.587089 1.040387 0.034126
v 0.449616 1.040769 0.033922
v 0.587089 1.040769 0.033922
v 0.449616 1.041104 0.033647
v 0.587089 1.041104 0.033647
v 0.449616 1.041379 0.033312
v 0.587089 1.041379 0.033312
v 0.449616 1.041583 0.032930
v 0.587089 1.041583 0.032930
v 0.449616 1.041709 0.032516
v 0.587089 1.041709 0.032516
v 0.449616 1.041752 0.032085
v 0.587089 1.041752 0.032085
v 0.449616 1.041709 0.031654
v 0.587089 1.041709 0.031654
v 0.449616 1.041583 0.031239
v 0.587089 1.041583 0.031239
v 0.449616 1.041379 0.030857
v 0.587089 1.041379 0.030857
v 0.449616 1.041104 0.030522
v 0.587089 1.041104 0.030522
v 0.449616 1.040769 0.030247
v 0.587089 1.040769 0.030247
v 0.449616 1.040387 0.030043
v 0.587089 1.040387 0.030043
v 0.449616 1.039973 0.029917
v 0.587089 1.039973 0.029917
vt 1.000000 1.000000
vt 0.968750 0.500000
vt 1.000000 0.500000
vt 0.968750 1.000000
vt 0.937500 0.500000
vt 0.937500 1.000000
vt 0.906250 0.500000
vt 0.906250 1.000000
vt 0.875000 0.500000
vt 0.875000 1.000000
vt 0.843750 0.500000
vt 0.843750 1.000000
vt 0.812500 0.500000
vt 0.812500 1.000000
vt 0.781250 0.500000
vt 0.781250 1.000000
vt 0.750000 0.500000
vt 0.750000 1.000000
vt 0.718750 0.500000
vt 0.718750 1.000000
vt 0.687500 0.500000
vt 0.687500 1.000000
vt 0.656250 0.500000
vt 0.656250 1.000000
vt 0.625000 0.500000
vt 0.625000 1.000000
vt 0.593750 0.500000
vt 0.593750 1.000000
vt 0.562500 0.500000
vt 0.562500 1.000000
vt 0.531250 0.500000
vt 0.531250 1.000000
vt 0.500000 0.500000
vt 0.500000 1.000000
vt 0.468750 0.500000
vt 0.468750 1.000000
vt 0.437500 0.500000
vt 0.437500 1.000000
vt 0.406250 0.500000
vt 0.406250 1.000000
vt 0.375000 0.500000
vt 0.375000 1.000000
vt 0.343750 0.500000
vt 0.343750 1.000000
vt 0.312500 0.500000
vt 0.312500 1.000000
vt 0.281250 0.500000
vt 0.281250 1.000000
vt 0.250000 0.500000
vt 0.250000 1.000000
vt 0.218750 0.500000
vt 0.218750 1.000000
vt 0.187500 0.500000
vt 0.187500 1.000000
vt 0.156250 0.500000
vt 0.156250 1.000000
vt 0.125000 0.500000
vt 0.125000 1.000000
vt 0.093750 0.500000
vt 0.093750 1.000000
vt 0.062500 0.500000
vt 0.158156 0.028269
vt 0.471731 0.158156
vt 0.341844 0.471731
vt 0.062500 1.000000
vt 0.031250 0.500000
vt 0.031250 1.000000
vt 0.000000 0.500000
vt 0.796822 0.014612
vt 0.514611 0.203179
vt 0.703179 0.485389
vt 0.296822 0.485388
vt 0.250000 0.490000
vt 0.203179 0.485389
vt 0.158156 0.471731
vt 0.116663 0.449553
vt 0.080295 0.419706
vt 0.050447 0.383337
vt 0.028269 0.341844
vt 0.014612 0.296822
vt 0.010000 0.250000
vt 0.014611 0.203179
vt 0.028269 0.158156
vt 0.050447 0.116663
vt 0.080294 0.080294
vt 0.116663 0.050447
vt 0.203178 0.014612
vt 0.250000 0.010000
vt 0.296822 0.014612
vt 0.341844 0.028269
vt 0.383337 0.050447
vt 0.419706 0.080294
vt 0.449553 0.116663
vt 0.485388 0.203178
vt 0.490000 0.250000
vt 0.485388 0.296822
vt 0.471731 0.341844
vt 0.449553 0.383337
vt 0.419706 0.419706
vt 0.383337 0.449553
vt 0.000000 1.000000
vt 0.750000 0.490000
vt 0.796822 0.485388
vt 0.841844 0.471731
vt 0.883337 0.449553
vt 0.919706 0.419706
vt 0.985388 0.296822
vt 0.949553 0.383337
vt 0.971731 0.341844
vt 0.990000 0.250000
vt 0.985388 0.203178
vt 0.971731 0.158156
vt 0.949553 0.116663
vt 0.919706 0.080294
vt 0.883337 0.050447
vt 0.841844 0.028269
vt 0.750000 0.010000
vt 0.703178 0.014612
vt 0.658156 0.028269
vt 0.616663 0.050447
vt 0.580294 0.080294
vt 0.550447 0.116663
vt 0.528269 0.158156
vt 0.510000 0.250000
vt 0.514612 0.296822
vt 0.528269 0.341844
vt 0.550447 0.383337
vt 0.580295 0.419706
vt 0.616663 0.449553
vt 0.658156 0.471731
vn -0.0000 -0.0980 -0.9952
vn -0.0000 -0.2903 -0.9569
vn -0.0000 -0.4713 -0.8820
vn -0.0000 -0.6343 -0.7731
vn 0.0000 -0.7732 -0.6342
vn -0.0000 -0.8819 -0.4714
vn -0.0000 -0.9570 -0.2902
vn -0.0000 -0.9952 -0.0981
vn 0.0000 -0.9952 0.0976
vn 0.0000 -0.9570 0.2902
vn 0.0000 -0.8819 0.4714
vn 0.0000 -0.7730 0.6345
vn 0.0000 -0.6339 0.7735
vn 0.0000 -0.4715 0.8819
vn 0.0000 -0.2903 0.9569
vn 0.0000 -0.0980 0.9952
vn 0.0000 0.0980 0.9952
vn 0.0000 0.2903 0.9569
vn 0.0000 0.4713 0.8820
vn 0.0000 0.6346 0.7729
vn -0.0000 0.7734 0.6339
vn 0.0000 0.8819 0.4714
vn 0.0000 0.9568 0.2907
vn 0.0000 0.9952 0.0981
vn -0.0000 0.9952 -0.0976
vn -0.0000 0.9570 -0.2902
vn -0.0000 0.8821 -0.4710
vn -0.0000 0.7727 -0.6348
vn -0.0000 0.6341 -0.7733
vn -0.0000 0.4715 -0.8819
vn 1.0000 0.0000 0.0000
vn -0.0000 0.2903 -0.9569
vn -0.0000 0.0980 -0.9952
vn -1.0000 0.0000 0.0000
vn -0.0000 -0.0981 -0.9952
vn -0.0000 -0.4715 -0.8819
vn 0.0000 -0.6341 -0.7733
vn -0.0000 -0.7730 -0.6345
vn -0.0000 -0.9952 -0.0976
vn 0.0000 -0.9952 0.0981
vn 0.0000 -0.7732 0.6342
vn 0.0000 -0.6346 0.7729
vn 0.0000 -0.4713 0.8820
vn 0.0000 0.4715 0.8819
vn -0.0000 0.6339 0.7735
vn 0.0000 0.7727 0.6348
vn 0.0000 0.8821 0.4710
vn 0.0000 0.9570 0.2902
vn 0.0000 0.9952 0.0976
vn -0.0000 0.9952 -0.0981
vn -0.0000 0.9568 -0.2907
vn -0.0000 0.8819 -0.4714
vn -0.0000 0.7734 -0.6339
vn -0.0000 0.6343 -0.7731
vn -0.0000 0.4713 -0.8820
vn 1.0000 0.0002 0.0000
vn 1.0000 -0.0016 0.0000
vn 1.0000 -0.0011 0.0000
vn 1.0000 -0.0008 0.0000
vn 1.0000 0.0004 0.0000
vn 1.0000 -0.0001 0.0000
vn 1.0000 0.0008 0.0000
vn 1.0000 0.0016 0.0000
vn -1.0000 -0.0001 0.0000
vn -1.0000 0.0001 0.0000
vn -1.0000 -0.0008 0.0000
vn -1.0000 0.0006 0.0000
vn -1.0000 0.0008 0.0000
vn -1.0000 -0.0005 0.0000
vn -1.0000 0.0003 0.0000
vn -1.0000 -0.0006 0.0000
s off
f 2/1/1 3/2/1 1/3/1
f 4/4/2 5/5/2 3/2/2
f 6/6/3 7/7/3 5/5/3
f 8/8/4 9/9/4 7/7/4
f 10/10/5 11/11/5 9/9/5
f 12/12/6 13/13/6 11/11/6
f 14/14/7 15/15/7 13/13/7
f 16/16/8 17/17/8 15/15/8
f 18/18/9 19/19/9 17/17/9
f 20/20/10 21/21/10 19/19/10
f 22/22/11 23/23/11 21/21/11
f 24/24/12 25/25/12 23/23/12
f 26/26/13 27/27/13 25/25/13
f 28/28/14 29/29/14 27/27/14
f 30/30/15 31/31/15 29/29/15
f 32/32/16 33/33/16 31/31/16
f 34/34/17 35/35/17 33/33/17
f 36/36/18 37/37/18 35/35/18
f 38/38/19 39/39/19 37/37/19
f 40/40/20 41/41/20 39/39/20
f 42/42/21 43/43/21 41/41/21
f 44/44/22 45/45/22 43/43/22
f 46/46/23 47/47/23 45/45/23
f 48/48/24 49/49/24 47/47/24
f 50/50/25 51/51/25 49/49/25
f 52/52/26 53/53/26 51/51/26
f 54/54/27 55/55/27 53/53/27
f 56/56/28 57/57/28 55/55/28
f 58/58/29 59/59/29 57/57/29
f 60/60/30 61/61/30 59/59/30
f 38/62/31 22/63/31 6/64/31
f 62/65/32 63/66/32 61/61/32
f 64/67/33 1/68/33 63/66/33
f 31/69/34 47/70/34 63/71/34
f 2/1/35 4/4/35 3/2/35
f 4/4/2 6/6/2 5/5/2
f 6/6/36 8/8/36 7/7/36
f 8/8/37 10/10/37 9/9/37
f 10/10/38 12/12/38 11/11/38
f 12/12/6 14/14/6 13/13/6
f 14/14/7 16/16/7 15/15/7
f 16/16/39 18/18/39 17/17/39
f 18/18/40 20/20/40 19/19/40
f 20/20/10 22/22/10 21/21/10
f 22/22/11 24/24/11 23/23/11
f 24/24/41 26/26/41 25/25/41
f 26/26/42 28/28/42 27/27/42
f 28/28/43 30/30/43 29/29/43
f 30/30/15 32/32/15 31/31/15
f 32/32/16 34/34/16 33/33/16
f 34/34/17 36/36/17 35/35/17
f 36/36/18 38/38/18 37/37/18
f 38/38/44 40/40/44 39/39/44
f 40/40/45 42/42/45 41/41/45
f 42/42/46 44/44/46 43/43/46
f 44/44/47 46/46/47 45/45/47
f 46/46/48 48/48/48 47/47/48
f 48/48/49 50/50/49 49/49/49
f 50/50/50 52/52/50 51/51/50
f 52/52/51 54/54/51 53/53/51
f 54/54/52 56/56/52 55/55/52
f 56/56/53 58/58/53 57/57/53
f 58/58/54 60/60/54 59/59/54
f 60/60/55 62/65/55 61/61/55
f 6/64/56 4/72/56 2/73/56
f 2/73/31 64/74/31 6/64/31
f 64/74/31 62/75/31 6/64/31
f 62/75/31 60/76/31 58/77/31
f 58/77/31 56/78/31 54/79/31
f 54/79/57 52/80/57 50/81/57
f 50/81/58 48/82/58 54/79/58
f 48/82/31 46/83/31 54/79/31
f 46/83/59 44/84/59 42/85/59
f 42/85/60 40/86/60 38/62/60
f 38/62/61 36/87/61 34/88/61
f 34/88/31 32/89/31 38/62/31
f 32/89/31 30/90/31 38/62/31
f 30/90/31 28/91/31 26/92/31
f 26/92/62 24/93/62 22/63/62
f 22/63/63 20/94/63 18/95/63
f 18/95/31 16/96/31 22/63/31
f 16/96/31 14/97/31 22/63/31
f 14/97/31 12/98/31 10/99/31
f 10/99/31 8/100/31 6/64/31
f 62/75/31 58/77/31 6/64/31
f 58/77/31 54/79/31 6/64/31
f 46/83/56 42/85/56 38/62/56
f 30/90/31 26/92/31 38/62/31
f 26/92/61 22/63/61 38/62/61
f 14/97/56 10/99/56 6/64/56
f 54/79/31 46/83/31 6/64/31
f 46/83/31 38/62/31 6/64/31
f 22/63/61 14/97/61 6/64/61
f 62/65/32 64/67/32 63/66/32
f 64/67/33 2/101/33 1/68/33
f 63/71/64 1/102/64 3/103/64
f 3/103/65 5/104/65 63/71/65
f 5/104/34 7/105/34 63/71/34
f 7/105/34 9/106/34 15/107/34
f 9/106/34 11/108/34 15/107/34
f 11/108/66 13/109/66 15/107/66
f 15/107/34 17/110/34 19/111/34
f 19/111/34 21/112/34 15/107/34
f 21/112/34 23/113/34 15/107/34
f 23/113/34 25/114/34 31/69/34
f 25/114/34 27/115/34 31/69/34
f 27/115/67 29/116/67 31/69/67
f 31/69/34 33/117/34 35/118/34
f 35/118/34 37/119/34 31/69/34
f 37/119/34 39/120/34 31/69/34
f 39/120/68 41/121/68 43/122/68
f 43/122/69 45/123/69 39/120/69
f 45/123/34 47/70/34 39/120/34
f 47/70/34 49/124/34 51/125/34
f 51/125/34 53/126/34 55/127/34
f 55/127/34 57/128/34 63/71/34
f 57/128/70 59/129/70 63/71/70
f 59/129/71 61/130/71 63/71/71
f 47/70/34 51/125/34 63/71/34
f 51/125/65 55/127/65 63/71/65
f 63/71/34 7/105/34 31/69/34
f 7/105/34 15/107/34 31/69/34
f 15/107/34 23/113/34 31/69/34
f 31/69/34 39/120/34 47/70/34
