# Blender v2.83.1 OBJ File: 'Cozy.blend'
# www.blender.org
o Vertical_Cube.009
v 0.622089 0.059248 0.347125
v 0.625967 0.061472 0.347125
v 0.622089 0.061472 0.347628
v 0.624025 0.059545 0.347125
v 0.622089 0.059545 0.347376
v 0.623944 0.059834 0.347366
v 0.625449 0.061472 0.347376
v 0.625449 0.060362 0.347125
v 0.624945 0.060409 0.347366
v 0.622089 0.060362 0.347561
v 0.624025 0.061472 0.347561
v 0.623944 0.060409 0.347496
v 0.625967 0.279488 0.347125
v 0.622089 0.281713 0.347125
v 0.622089 0.279488 0.347628
v 0.625449 0.280599 0.347125
v 0.625449 0.279488 0.347376
v 0.624945 0.280552 0.347366
v 0.622089 0.281415 0.347376
v 0.624025 0.281415 0.347125
v 0.623944 0.281127 0.347366
v 0.624025 0.279488 0.347561
v 0.622089 0.280599 0.347561
v 0.623944 0.280552 0.347496
v 0.242121 0.059248 0.347125
v 0.242121 0.061472 0.347628
v 0.238244 0.061472 0.347125
v 0.242121 0.059545 0.347376
v 0.240185 0.059545 0.347125
v 0.240267 0.059834 0.347366
v 0.240185 0.061472 0.347561
v 0.242121 0.060362 0.347561
v 0.240267 0.060409 0.347496
v 0.238762 0.060362 0.347125
v 0.238762 0.061472 0.347376
v 0.239265 0.060409 0.347366
v 0.242121 0.281713 0.347125
v 0.238244 0.279488 0.347125
v 0.242121 0.279488 0.347628
v 0.240185 0.281415 0.347125
v 0.242121 0.281415 0.347376
v 0.240267 0.281127 0.347366
v 0.238762 0.279488 0.347376
v 0.238762 0.280599 0.347125
v 0.239265 0.280552 0.347366
v 0.242121 0.280599 0.347561
v 0.240185 0.279488 0.347561
v 0.240267 0.280552 0.347496
v 0.622089 0.059248 0.297851
v 0.622089 0.061472 0.297348
v 0.625967 0.061472 0.297851
v 0.622089 0.059545 0.297599
v 0.624025 0.059545 0.297851
v 0.623944 0.059834 0.297610
v 0.624025 0.061472 0.297415
v 0.622089 0.060362 0.297415
v 0.623944 0.060409 0.297480
v 0.625449 0.060362 0.297851
v 0.625449 0.061472 0.297599
v 0.624945 0.060409 0.297610
v 0.622089 0.281713 0.297851
v 0.625967 0.279488 0.297851
v 0.622089 0.279488 0.297348
v 0.624025 0.281415 0.297851
v 0.622089 0.281415 0.297599
v 0.623944 0.281127 0.297610
v 0.625449 0.279488 0.297599
v 0.625449 0.280599 0.297851
v 0.624945 0.280552 0.297610
v 0.622089 0.280599 0.297415
v 0.624025 0.279488 0.297415
v 0.623944 0.280552 0.297480
v 0.242121 0.059248 0.297851
v 0.238244 0.061472 0.297851
v 0.242121 0.061472 0.297348
v 0.240185 0.059545 0.297851
v 0.242121 0.059545 0.297599
v 0.240267 0.059834 0.297610
v 0.238762 0.061472 0.297599
v 0.238762 0.060362 0.297851
v 0.239265 0.060409 0.297610
v 0.242121 0.060362 0.297415
v 0.240185 0.061472 0.297415
v 0.240267 0.060409 0.297480
v 0.242121 0.281713 0.297851
v 0.242121 0.279488 0.297348
v 0.238244 0.279488 0.297851
v 0.242121 0.281415 0.297599
v 0.240185 0.281415 0.297851
v 0.240267 0.281127 0.297610
v 0.240185 0.279488 0.297415
v 0.242121 0.280599 0.297415
v 0.240267 0.280552 0.297480
v 0.238762 0.280599 0.297851
v 0.238762 0.279488 0.297599
v 0.239265 0.280552 0.297610
v 0.622089 0.059248 0.794621
v 0.625967 0.061472 0.794621
v 0.622089 0.061472 0.795124
v 0.624025 0.059545 0.794621
v 0.622089 0.059545 0.794872
v 0.623943 0.059834 0.794861
v 0.625449 0.061472 0.794872
v 0.625449 0.060362 0.794621
v 0.624945 0.060409 0.794861
v 0.622089 0.060362 0.795056
v 0.624025 0.061472 0.795056
v 0.623943 0.060409 0.794991
v 0.625967 0.279488 0.794621
v 0.622089 0.281713 0.794621
v 0.622089 0.279488 0.795124
v 0.625449 0.280599 0.794621
v 0.625449 0.279488 0.794872
v 0.624945 0.280552 0.794861
v 0.622089 0.281415 0.794872
v 0.624025 0.281415 0.794621
v 0.623943 0.281127 0.794861
v 0.624025 0.279488 0.795056
v 0.622089 0.280599 0.795056
v 0.623943 0.280552 0.794991
v 0.242121 0.059248 0.794621
v 0.242121 0.061472 0.795124
v 0.238244 0.061472 0.794621
v 0.242121 0.059545 0.794872
v 0.240185 0.059545 0.794621
v 0.240267 0.059834 0.794861
v 0.240185 0.061472 0.795056
v 0.242121 0.060362 0.795056
v 0.240267 0.060409 0.794991
v 0.238762 0.060362 0.794621
v 0.238762 0.061472 0.794872
v 0.239265 0.060409 0.794861
v 0.242121 0.281713 0.794621
v 0.238244 0.279488 0.794621
v 0.242121 0.279488 0.795124
v 0.240185 0.281415 0.794621
v 0.242121 0.281415 0.794872
v 0.240267 0.281127 0.794861
v 0.238762 0.279488 0.794872
v 0.238762 0.280599 0.794621
v 0.239265 0.280552 0.794861
v 0.242121 0.280599 0.795056
v 0.240185 0.279488 0.795056
v 0.240267 0.280552 0.794991
v 0.622089 0.059248 0.745346
v 0.622089 0.061472 0.744843
v 0.625967 0.061472 0.745346
v 0.622089 0.059545 0.745095
v 0.624025 0.059545 0.745346
v 0.623943 0.059834 0.745106
v 0.624025 0.061472 0.744910
v 0.622089 0.060362 0.744910
v 0.623943 0.060409 0.744976
v 0.625449 0.060362 0.745346
v 0.625449 0.061472 0.745095
v 0.624945 0.060409 0.745106
v 0.622089 0.281713 0.745346
v 0.625967 0.279488 0.745346
v 0.622089 0.279488 0.744843
v 0.624025 0.281415 0.745346
v 0.622089 0.281415 0.745095
v 0.623943 0.281127 0.745106
v 0.625449 0.279488 0.745095
v 0.625449 0.280599 0.745346
v 0.624945 0.280552 0.745106
v 0.622089 0.280599 0.744910
v 0.624025 0.279488 0.744910
v 0.623943 0.280552 0.744976
v 0.242121 0.059248 0.745346
v 0.238244 0.061472 0.745346
v 0.242121 0.061472 0.744843
v 0.240185 0.059545 0.745346
v 0.242121 0.059545 0.745095
v 0.240267 0.059834 0.745106
v 0.238762 0.061472 0.745095
v 0.238762 0.060362 0.745346
v 0.239265 0.060409 0.745106
v 0.242121 0.060362 0.744910
v 0.240185 0.061472 0.744910
v 0.240267 0.060409 0.744976
v 0.242121 0.281713 0.745346
v 0.242121 0.279488 0.744843
v 0.238244 0.279488 0.745346
v 0.242121 0.281415 0.745095
v 0.240185 0.281415 0.745346
v 0.240267 0.281127 0.745106
v 0.240185 0.279488 0.744910
v 0.242121 0.280599 0.744910
v 0.240267 0.280552 0.744976
v 0.238762 0.280599 0.745346
v 0.238762 0.279488 0.745095
v 0.239265 0.280552 0.745106
v 0.622089 0.335104 -0.100873
v 0.625967 0.337329 -0.100873
v 0.622089 0.337329 -0.100370
v 0.624025 0.335401 -0.100873
v 0.622089 0.335401 -0.100622
v 0.623944 0.335690 -0.100633
v 0.625449 0.337329 -0.100622
v 0.625449 0.336218 -0.100873
v 0.624945 0.336265 -0.100633
v 0.622089 0.336218 -0.100437
v 0.624025 0.337329 -0.100437
v 0.623944 0.336265 -0.100503
v 0.625967 0.555344 -0.100873
v 0.622089 0.557569 -0.100873
v 0.622089 0.555344 -0.100370
v 0.625449 0.556455 -0.100873
v 0.625449 0.555344 -0.100622
v 0.624945 0.556408 -0.100633
v 0.622089 0.557272 -0.100622
v 0.624025 0.557272 -0.100873
v 0.623944 0.556983 -0.100633
v 0.624025 0.555344 -0.100437
v 0.622089 0.556455 -0.100437
v 0.623944 0.556408 -0.100503
v 0.242121 0.335104 -0.100873
v 0.242121 0.337329 -0.100370
v 0.238244 0.337329 -0.100873
v 0.242121 0.335401 -0.100622
v 0.240185 0.335401 -0.100873
v 0.240267 0.335690 -0.100633
v 0.240185 0.337329 -0.100437
v 0.242121 0.336218 -0.100437
v 0.240267 0.336265 -0.100503
v 0.238762 0.336218 -0.100873
v 0.238762 0.337329 -0.100622
v 0.239265 0.336265 -0.100633
v 0.242121 0.557569 -0.100873
v 0.238244 0.555344 -0.100873
v 0.242121 0.555344 -0.100370
v 0.240185 0.557272 -0.100873
v 0.242121 0.557272 -0.100622
v 0.240267 0.556983 -0.100633
v 0.238762 0.555344 -0.100622
v 0.238762 0.556455 -0.100873
v 0.239265 0.556408 -0.100633
v 0.242121 0.556455 -0.100437
v 0.240185 0.555344 -0.100437
v 0.240267 0.556408 -0.100503
v 0.622089 0.335104 -0.150148
v 0.622089 0.337329 -0.150651
v 0.625967 0.337329 -0.150148
v 0.622089 0.335401 -0.150399
v 0.624025 0.335401 -0.150148
v 0.623944 0.335690 -0.150388
v 0.624025 0.337329 -0.150583
v 0.622089 0.336218 -0.150583
v 0.623944 0.336265 -0.150518
v 0.625449 0.336218 -0.150148
v 0.625449 0.337329 -0.150399
v 0.624945 0.336265 -0.150388
v 0.622089 0.557569 -0.150148
v 0.625967 0.555344 -0.150148
v 0.622089 0.555344 -0.150651
v 0.624025 0.557272 -0.150148
v 0.622089 0.557272 -0.150399
v 0.623944 0.556983 -0.150388
v 0.625449 0.555344 -0.150399
v 0.625449 0.556455 -0.150148
v 0.624945 0.556408 -0.150388
v 0.622089 0.556455 -0.150583
v 0.624025 0.555344 -0.150583
v 0.623944 0.556408 -0.150518
v 0.242121 0.335104 -0.150148
v 0.238244 0.337329 -0.150148
v 0.242121 0.337329 -0.150651
v 0.240185 0.335401 -0.150148
v 0.242121 0.335401 -0.150399
v 0.240267 0.335690 -0.150388
v 0.238762 0.337329 -0.150399
v 0.238762 0.336218 -0.150148
v 0.239265 0.336265 -0.150388
v 0.242121 0.336218 -0.150583
v 0.240185 0.337329 -0.150583
v 0.240267 0.336265 -0.150518
v 0.242121 0.557569 -0.150148
v 0.242121 0.555344 -0.150651
v 0.238244 0.555344 -0.150148
v 0.242121 0.557272 -0.150399
v 0.240185 0.557272 -0.150148
v 0.240267 0.556983 -0.150388
v 0.240185 0.555344 -0.150583
v 0.242121 0.556455 -0.150583
v 0.240267 0.556408 -0.150518
v 0.238762 0.556455 -0.150148
v 0.238762 0.555344 -0.150399
v 0.239265 0.556408 -0.150388
v 0.622089 0.335104 0.346623
v 0.625967 0.337329 0.346623
v 0.622089 0.337329 0.347125
v 0.624025 0.335401 0.346623
v 0.622089 0.335401 0.346874
v 0.623944 0.335690 0.346863
v 0.625449 0.337329 0.346874
v 0.625449 0.336218 0.346623
v 0.624945 0.336265 0.346863
v 0.622089 0.336218 0.347058
v 0.624025 0.337329 0.347058
v 0.623944 0.336265 0.346993
v 0.625967 0.555344 0.346623
v 0.622089 0.557569 0.346623
v 0.622089 0.555344 0.347125
v 0.625449 0.556455 0.346623
v 0.625449 0.555344 0.346874
v 0.624945 0.556408 0.346863
v 0.622089 0.557272 0.346874
v 0.624025 0.557272 0.346623
v 0.623944 0.556983 0.346863
v 0.624025 0.555344 0.347058
v 0.622089 0.556455 0.347058
v 0.623944 0.556408 0.346993
v 0.242121 0.335104 0.346622
v 0.242121 0.337329 0.347125
v 0.238244 0.337329 0.346622
v 0.242121 0.335401 0.346874
v 0.240185 0.335401 0.346622
v 0.240267 0.335690 0.346863
v 0.240185 0.337329 0.347058
v 0.242121 0.336218 0.347058
v 0.240267 0.336265 0.346993
v 0.238762 0.336218 0.346622
v 0.238762 0.337329 0.346874
v 0.239265 0.336265 0.346863
v 0.242121 0.557569 0.346622
v 0.238244 0.555344 0.346622
v 0.242121 0.555344 0.347125
v 0.240185 0.557272 0.346622
v 0.242121 0.557272 0.346874
v 0.240267 0.556983 0.346863
v 0.238762 0.555344 0.346874
v 0.238762 0.556455 0.346622
v 0.239265 0.556408 0.346863
v 0.242121 0.556455 0.347058
v 0.240185 0.555344 0.347058
v 0.240267 0.556408 0.346993
v 0.622089 0.335104 0.297348
v 0.622089 0.337329 0.296845
v 0.625967 0.337329 0.297348
v 0.622089 0.335401 0.297097
v 0.624025 0.335401 0.297348
v 0.623944 0.335690 0.297107
v 0.624025 0.337329 0.296912
v 0.622089 0.336218 0.296912
v 0.623944 0.336265 0.296977
v 0.625449 0.336218 0.297348
v 0.625449 0.337329 0.297097
v 0.624945 0.336265 0.297107
v 0.622089 0.557569 0.297348
v 0.625967 0.555344 0.297348
v 0.622089 0.555344 0.296845
v 0.624025 0.557272 0.297348
v 0.622089 0.557272 0.297097
v 0.623944 0.556983 0.297107
v 0.625449 0.555344 0.297097
v 0.625449 0.556455 0.297348
v 0.624945 0.556408 0.297107
v 0.622089 0.556455 0.296912
v 0.624025 0.555344 0.296912
v 0.623944 0.556408 0.296977
v 0.242121 0.335104 0.297348
v 0.238244 0.337329 0.297348
v 0.242121 0.337329 0.296845
v 0.240185 0.335401 0.297348
v 0.242121 0.335401 0.297097
v 0.240267 0.335690 0.297107
v 0.238762 0.337329 0.297097
v 0.238762 0.336218 0.297348
v 0.239265 0.336265 0.297107
v 0.242121 0.336218 0.296912
v 0.240185 0.337329 0.296912
v 0.240267 0.336265 0.296977
v 0.242121 0.557569 0.297348
v 0.242121 0.555344 0.296845
v 0.238244 0.555344 0.297348
v 0.242121 0.557272 0.297097
v 0.240185 0.557272 0.297348
v 0.240267 0.556983 0.297107
v 0.240185 0.555344 0.296912
v 0.242121 0.556455 0.296912
v 0.240267 0.556408 0.296977
v 0.238762 0.556455 0.297348
v 0.238762 0.555344 0.297097
v 0.239265 0.556408 0.297107
vt 0.622500 0.752500
vt 0.377500 0.997500
vt 0.377500 0.752500
vt 0.622500 0.502500
vt 0.377500 0.747500
vt 0.377500 0.502500
vt 0.872500 0.502500
vt 0.627500 0.747500
vt 0.627500 0.502500
vt 0.622500 0.002500
vt 0.377500 0.247500
vt 0.377500 0.002500
vt 0.622500 0.252500
vt 0.377500 0.497500
vt 0.377500 0.252500
vt 0.127500 0.748748
vt 0.126252 0.747500
vt 0.127500 0.747500
vt 0.127500 0.750000
vt 0.126304 0.748695
vt 0.377500 0.998748
vt 0.376252 0.997500
vt 0.377500 1.000000
vt 0.376304 0.998695
vt 0.376252 0.002500
vt 0.377500 0.001252
vt 0.375000 0.001304
vt 0.376304 0.001304
vt 0.126304 0.750000
vt 0.125000 0.748696
vt 0.623748 0.997500
vt 0.622500 0.998748
vt 0.622500 0.997500
vt 0.625000 0.998695
vt 0.623695 0.998696
vt 0.873748 0.747500
vt 0.872500 0.748748
vt 0.872500 0.747500
vt 0.875000 0.747500
vt 0.873695 0.748696
vt 0.622500 0.001252
vt 0.623748 0.002500
vt 0.622500 0.000000
vt 0.623695 0.001304
vt 0.623695 1.000000
vt 0.126252 0.502500
vt 0.127500 0.501252
vt 0.127500 0.502500
vt 0.125000 0.502500
vt 0.126304 0.501304
vt 0.377500 0.248748
vt 0.376252 0.247500
vt 0.377500 0.251252
vt 0.376304 0.248696
vt 0.376252 0.252500
vt 0.375000 0.251304
vt 0.376304 0.251304
vt 0.125000 0.501305
vt 0.126304 0.500000
vt 0.872500 0.501252
vt 0.873748 0.502500
vt 0.872500 0.500000
vt 0.873695 0.501304
vt 0.622500 0.251252
vt 0.623748 0.252500
vt 0.622500 0.248748
vt 0.623695 0.251304
vt 0.623748 0.247500
vt 0.622500 0.247500
vt 0.625000 0.248696
vt 0.623695 0.248696
vt 0.873696 0.500000
vt 0.875000 0.501305
vt 0.373748 0.747500
vt 0.372500 0.748748
vt 0.372500 0.747500
vt 0.376252 0.747500
vt 0.373696 0.748696
vt 0.377500 0.748748
vt 0.377500 0.751252
vt 0.376304 0.748695
vt 0.376252 0.752500
vt 0.375000 0.751305
vt 0.376304 0.751304
vt 0.375000 0.748696
vt 0.373696 0.750000
vt 0.627500 0.748748
vt 0.626252 0.747500
vt 0.627500 0.750000
vt 0.626304 0.748695
vt 0.622500 0.751252
vt 0.623748 0.752500
vt 0.622500 0.748748
vt 0.623695 0.751305
vt 0.623748 0.747500
vt 0.622500 0.747500
vt 0.623695 0.748696
vt 0.626304 0.750000
vt 0.625000 0.748696
vt 0.372500 0.501252
vt 0.373748 0.502500
vt 0.372500 0.502500
vt 0.372500 0.500000
vt 0.373696 0.501304
vt 0.377500 0.498748
vt 0.376252 0.497500
vt 0.377500 0.501252
vt 0.376304 0.498696
vt 0.376252 0.502500
vt 0.376304 0.501304
vt 0.373696 0.500000
vt 0.375000 0.501305
vt 0.626252 0.502500
vt 0.627500 0.501252
vt 0.623748 0.502500
vt 0.626304 0.501304
vt 0.622500 0.501252
vt 0.622500 0.498748
vt 0.623695 0.501304
vt 0.623748 0.497500
vt 0.622500 0.497500
vt 0.625000 0.498696
vt 0.623695 0.498696
vt 0.625000 0.501305
vt 0.626304 0.500000
vt 0.622500 0.752500
vt 0.377500 0.997500
vt 0.377500 0.752500
vt 0.622500 0.502500
vt 0.377500 0.747500
vt 0.377500 0.502500
vt 0.872500 0.502500
vt 0.627500 0.747500
vt 0.627500 0.502500
vt 0.622500 0.002500
vt 0.377500 0.247500
vt 0.377500 0.002500
vt 0.622500 0.252500
vt 0.377500 0.497500
vt 0.377500 0.252500
vt 0.127500 0.748748
vt 0.126252 0.747500
vt 0.127500 0.747500
vt 0.126304 0.750000
vt 0.126304 0.748695
vt 0.377500 0.998748
vt 0.376252 0.997500
vt 0.377500 1.000000
vt 0.376304 0.998695
vt 0.376252 0.002500
vt 0.377500 0.001252
vt 0.375000 0.001304
vt 0.376304 0.001304
vt 0.125000 0.748696
vt 0.623748 0.997500
vt 0.622500 0.998748
vt 0.622500 0.997500
vt 0.625000 0.997500
vt 0.623695 0.998696
vt 0.873748 0.747500
vt 0.872500 0.748748
vt 0.872500 0.747500
vt 0.875000 0.747500
vt 0.873695 0.748696
vt 0.622500 0.001252
vt 0.623748 0.002500
vt 0.623695 0.000000
vt 0.623695 0.001304
vt 0.625000 0.998695
vt 0.623695 1.000000
vt 0.126252 0.502500
vt 0.127500 0.501252
vt 0.127500 0.502500
vt 0.125000 0.502500
vt 0.126304 0.501304
vt 0.377500 0.248748
vt 0.376252 0.247500
vt 0.376304 0.251304
vt 0.376304 0.248696
vt 0.376252 0.252500
vt 0.377500 0.251252
vt 0.375000 0.252500
vt 0.125000 0.501305
vt 0.126304 0.500000
vt 0.872500 0.501252
vt 0.873748 0.502500
vt 0.873696 0.500000
vt 0.873695 0.501304
vt 0.622500 0.251252
vt 0.623748 0.252500
vt 0.622500 0.248748
vt 0.623695 0.251304
vt 0.623748 0.247500
vt 0.622500 0.247500
vt 0.625000 0.248696
vt 0.623695 0.248696
vt 0.875000 0.501305
vt 0.373748 0.747500
vt 0.372500 0.748748
vt 0.372500 0.747500
vt 0.376252 0.747500
vt 0.373696 0.748696
vt 0.377500 0.748748
vt 0.377500 0.751252
vt 0.376304 0.748695
vt 0.376252 0.752500
vt 0.375000 0.752500
vt 0.376304 0.751304
vt 0.375000 0.748696
vt 0.373696 0.750000
vt 0.627500 0.748748
vt 0.626252 0.747500
vt 0.626304 0.750000
vt 0.626304 0.748695
vt 0.622500 0.751252
vt 0.623748 0.752500
vt 0.622500 0.748748
vt 0.623695 0.751305
vt 0.623748 0.747500
vt 0.622500 0.747500
vt 0.623695 0.748696
vt 0.625000 0.748696
vt 0.372500 0.501252
vt 0.373748 0.502500
vt 0.372500 0.502500
vt 0.373696 0.500000
vt 0.373696 0.501304
vt 0.377500 0.498748
vt 0.376252 0.497500
vt 0.377500 0.501252
vt 0.376304 0.498696
vt 0.376252 0.502500
vt 0.376304 0.501304
vt 0.375000 0.501305
vt 0.626252 0.502500
vt 0.627500 0.501252
vt 0.623748 0.502500
vt 0.626304 0.501304
vt 0.622500 0.501252
vt 0.622500 0.498748
vt 0.623695 0.501304
vt 0.623748 0.497500
vt 0.622500 0.497500
vt 0.625000 0.497500
vt 0.623695 0.498696
vt 0.625000 0.501305
vt 0.626304 0.500000
vt 0.372500 0.500000
vt 0.872500 0.500000
vt 0.127500 0.750000
vt 0.627500 0.750000
vt 0.622500 0.752500
vt 0.377500 0.997500
vt 0.377500 0.752500
vt 0.622500 0.502500
vt 0.377500 0.747500
vt 0.377500 0.502500
vt 0.872500 0.502500
vt 0.627500 0.747500
vt 0.627500 0.502500
vt 0.622500 0.002500
vt 0.377500 0.247500
vt 0.377500 0.002500
vt 0.622500 0.252500
vt 0.377500 0.497500
vt 0.377500 0.252500
vt 0.127500 0.748748
vt 0.126252 0.747500
vt 0.127500 0.747500
vt 0.126304 0.750000
vt 0.126304 0.748695
vt 0.377500 0.998748
vt 0.376252 0.997500
vt 0.377500 1.000000
vt 0.376304 0.998695
vt 0.376252 0.002500
vt 0.377500 0.001252
vt 0.375000 0.001304
vt 0.376304 0.001304
vt 0.125000 0.748696
vt 0.623748 0.997500
vt 0.622500 0.998748
vt 0.622500 0.997500
vt 0.625000 0.997500
vt 0.623695 0.998696
vt 0.873748 0.747500
vt 0.872500 0.748748
vt 0.872500 0.747500
vt 0.875000 0.747500
vt 0.873695 0.748696
vt 0.622500 0.001252
vt 0.623748 0.002500
vt 0.623695 0.000000
vt 0.623695 0.001304
vt 0.625000 0.998695
vt 0.623695 1.000000
vt 0.126252 0.502500
vt 0.127500 0.501252
vt 0.127500 0.502500
vt 0.125000 0.502500
vt 0.126304 0.501304
vt 0.377500 0.248748
vt 0.376252 0.247500
vt 0.376304 0.251304
vt 0.376304 0.248696
vt 0.376252 0.252500
vt 0.377500 0.251252
vt 0.375000 0.252500
vt 0.125000 0.501305
vt 0.126304 0.500000
vt 0.872500 0.501252
vt 0.873748 0.502500
vt 0.873696 0.500000
vt 0.873695 0.501304
vt 0.622500 0.251252
vt 0.623748 0.252500
vt 0.622500 0.248748
vt 0.623695 0.251304
vt 0.623748 0.247500
vt 0.622500 0.247500
vt 0.625000 0.248696
vt 0.623695 0.248696
vt 0.875000 0.501305
vt 0.373748 0.747500
vt 0.372500 0.748748
vt 0.372500 0.747500
vt 0.376252 0.747500
vt 0.373696 0.748696
vt 0.377500 0.748748
vt 0.376304 0.751304
vt 0.376304 0.748695
vt 0.376252 0.752500
vt 0.377500 0.751252
vt 0.375000 0.752500
vt 0.375000 0.748696
vt 0.373696 0.750000
vt 0.627500 0.748748
vt 0.626252 0.747500
vt 0.626304 0.750000
vt 0.626304 0.748695
vt 0.622500 0.751252
vt 0.623748 0.752500
vt 0.622500 0.748748
vt 0.623695 0.751305
vt 0.623748 0.747500
vt 0.622500 0.747500
vt 0.623695 0.748696
vt 0.625000 0.748696
vt 0.372500 0.501252
vt 0.373748 0.502500
vt 0.372500 0.502500
vt 0.373696 0.500000
vt 0.373696 0.501304
vt 0.377500 0.498748
vt 0.376252 0.497500
vt 0.377500 0.501252
vt 0.376304 0.498696
vt 0.376252 0.502500
vt 0.376304 0.501304
vt 0.375000 0.501305
vt 0.626252 0.502500
vt 0.627500 0.501252
vt 0.623748 0.502500
vt 0.626304 0.501304
vt 0.622500 0.501252
vt 0.623695 0.498696
vt 0.623695 0.501304
vt 0.623748 0.497500
vt 0.622500 0.498748
vt 0.622500 0.497500
vt 0.625000 0.497500
vt 0.625000 0.501305
vt 0.626304 0.500000
vt 0.372500 0.500000
vt 0.872500 0.500000
vt 0.127500 0.750000
vt 0.627500 0.750000
vt 0.622500 0.752500
vt 0.377500 0.997500
vt 0.377500 0.752500
vt 0.622500 0.502500
vt 0.377500 0.747500
vt 0.377500 0.502500
vt 0.872500 0.502500
vt 0.627500 0.747500
vt 0.627500 0.502500
vt 0.622500 0.002500
vt 0.377500 0.247500
vt 0.377500 0.002500
vt 0.622500 0.252500
vt 0.377500 0.497500
vt 0.377500 0.252500
vt 0.127500 0.748748
vt 0.126252 0.747500
vt 0.127500 0.747500
vt 0.126304 0.750000
vt 0.126304 0.748695
vt 0.377500 0.998748
vt 0.376252 0.997500
vt 0.377500 1.000000
vt 0.376304 0.998695
vt 0.376252 0.002500
vt 0.377500 0.001252
vt 0.375000 0.001304
vt 0.376304 0.001304
vt 0.125000 0.748696
vt 0.623748 0.997500
vt 0.622500 0.998748
vt 0.622500 0.997500
vt 0.625000 0.998695
vt 0.623695 0.998696
vt 0.873748 0.747500
vt 0.872500 0.748748
vt 0.872500 0.747500
vt 0.875000 0.747500
vt 0.873695 0.748696
vt 0.622500 0.001252
vt 0.623748 0.002500
vt 0.623695 0.000000
vt 0.623695 0.001304
vt 0.623695 1.000000
vt 0.126252 0.502500
vt 0.127500 0.501252
vt 0.127500 0.502500
vt 0.125000 0.502500
vt 0.126304 0.501304
vt 0.377500 0.248748
vt 0.376252 0.247500
vt 0.376304 0.251304
vt 0.376304 0.248696
vt 0.376252 0.252500
vt 0.377500 0.251252
vt 0.375000 0.252500
vt 0.125000 0.501305
vt 0.126304 0.500000
vt 0.872500 0.501252
vt 0.873748 0.502500
vt 0.872500 0.500000
vt 0.873695 0.501304
vt 0.622500 0.251252
vt 0.623748 0.252500
vt 0.622500 0.248748
vt 0.623695 0.251304
vt 0.623748 0.247500
vt 0.622500 0.247500
vt 0.625000 0.248696
vt 0.623695 0.248696
vt 0.873696 0.500000
vt 0.875000 0.501305
vt 0.373748 0.747500
vt 0.372500 0.748748
vt 0.372500 0.747500
vt 0.376252 0.747500
vt 0.373696 0.748696
vt 0.377500 0.748748
vt 0.376304 0.751304
vt 0.376304 0.748695
vt 0.376252 0.752500
vt 0.377500 0.751252
vt 0.375000 0.751305
vt 0.375000 0.748696
vt 0.373696 0.750000
vt 0.627500 0.748748
vt 0.626252 0.747500
vt 0.626304 0.750000
vt 0.626304 0.748695
vt 0.622500 0.751252
vt 0.623748 0.752500
vt 0.622500 0.748748
vt 0.623695 0.751305
vt 0.623748 0.747500
vt 0.622500 0.747500
vt 0.623695 0.748696
vt 0.625000 0.748696
vt 0.372500 0.501252
vt 0.373748 0.502500
vt 0.372500 0.502500
vt 0.373696 0.500000
vt 0.373696 0.501304
vt 0.377500 0.498748
vt 0.376252 0.497500
vt 0.377500 0.501252
vt 0.376304 0.498696
vt 0.376252 0.502500
vt 0.376304 0.501304
vt 0.375000 0.501305
vt 0.626252 0.502500
vt 0.627500 0.501252
vt 0.623748 0.502500
vt 0.626304 0.501304
vt 0.622500 0.501252
vt 0.623695 0.498696
vt 0.623695 0.501304
vt 0.623748 0.497500
vt 0.622500 0.498748
vt 0.622500 0.497500
vt 0.625000 0.498696
vt 0.625000 0.501305
vt 0.626304 0.500000
vt 0.372500 0.500000
vt 0.127500 0.750000
vt 0.627500 0.750000
vt 0.376305 1.000000
vt 0.375000 0.002500
vt 0.625000 0.997500
vt 0.875000 0.748696
vt 0.623695 0.000000
vt 0.375000 0.252500
vt 0.625000 0.247500
vt 0.375000 0.752500
vt 0.625000 0.497500
vt 0.125000 0.747500
vt 0.622500 1.000000
vt 0.875000 0.502500
vt 0.127500 0.500000
vt 0.627500 0.500000
vt 0.372500 0.750000
vt 0.872500 0.750000
vt 0.376305 1.000000
vt 0.375000 0.002500
vt 0.875000 0.748696
vt 0.622500 0.000000
vt 0.375000 0.251304
vt 0.625000 0.247500
vt 0.375000 0.751305
vt 0.625000 0.498696
vt 0.125000 0.747500
vt 0.622500 1.000000
vt 0.875000 0.502500
vt 0.127500 0.500000
vt 0.627500 0.500000
vt 0.372500 0.750000
vt 0.872500 0.750000
vt 0.376305 1.000000
vt 0.375000 0.002500
vt 0.875000 0.748696
vt 0.622500 0.000000
vt 0.375000 0.251304
vt 0.625000 0.247500
vt 0.375000 0.751305
vt 0.625000 0.498696
vt 0.125000 0.747500
vt 0.622500 1.000000
vt 0.875000 0.502500
vt 0.127500 0.500000
vt 0.627500 0.500000
vt 0.372500 0.750000
vt 0.872500 0.750000
vt 0.376305 1.000000
vt 0.375000 0.002500
vt 0.625000 0.997500
vt 0.875000 0.748696
vt 0.622500 0.000000
vt 0.375000 0.251304
vt 0.625000 0.247500
vt 0.375000 0.752500
vt 0.625000 0.497500
vt 0.125000 0.747500
vt 0.622500 1.000000
vt 0.875000 0.502500
vt 0.127500 0.500000
vt 0.627500 0.500000
vt 0.372500 0.750000
vt 0.872500 0.750000
vn 1.0000 0.0000 0.0000
vn 0.0000 0.0000 -1.0000
vn 0.0000 1.0000 0.0000
vn -0.0000 0.0000 1.0000
vn -1.0000 0.0000 0.0000
vn 0.3210 -0.9012 0.2911
vn -0.0793 -0.4478 0.8906
vn -0.0879 -0.9200 0.3819
vn 0.7039 -0.6238 0.3397
vn 0.1538 -0.4335 0.8879
vn 0.2992 0.0393 0.9534
vn 0.8624 -0.0598 0.5027
vn 0.0877 0.0781 0.9931
vn 0.2667 -0.3067 0.9137
vn -0.0927 -0.1459 0.9850
vn -0.1403 0.1235 0.9824
vn 0.0816 -0.1429 0.9864
vn 0.7039 0.6238 0.3398
vn 0.2991 -0.0396 0.9534
vn 0.8565 0.0689 0.5115
vn 0.1537 0.4335 0.8879
vn 0.2666 0.3067 0.9137
vn -0.0793 0.4478 0.8906
vn 0.3210 0.9012 0.2911
vn -0.0977 0.9231 0.3720
vn -0.0927 0.1459 0.9850
vn 0.0877 -0.0779 0.9931
vn -0.1399 -0.1232 0.9825
vn 0.0816 0.1429 0.9864
vn 0.0793 -0.4478 0.8906
vn -0.3210 -0.9012 0.2911
vn 0.0977 -0.9231 0.3719
vn 0.0927 -0.1459 0.9850
vn -0.1537 -0.4335 0.8879
vn -0.0877 0.0779 0.9931
vn 0.1399 0.1232 0.9825
vn -0.2991 0.0396 0.9534
vn -0.0816 -0.1429 0.9864
vn -0.7039 -0.6238 0.3398
vn -0.8565 -0.0689 0.5116
vn -0.2667 -0.3066 0.9137
vn -0.3210 0.9012 0.2911
vn 0.0793 0.4478 0.8906
vn 0.0879 0.9200 0.3819
vn -0.7039 0.6238 0.3397
vn -0.1537 0.4335 0.8879
vn -0.2992 -0.0393 0.9534
vn -0.8624 0.0598 0.5026
vn -0.0877 -0.0781 0.9931
vn -0.2666 0.3067 0.9137
vn 0.0927 0.1459 0.9850
vn 0.1403 -0.1235 0.9824
vn -0.0816 0.1429 0.9864
vn -0.0793 -0.4478 -0.8906
vn 0.3210 -0.9012 -0.2911
vn -0.0977 -0.9231 -0.3719
vn -0.0927 -0.1459 -0.9850
vn 0.1537 -0.4335 -0.8879
vn 0.0877 0.0779 -0.9931
vn -0.1400 0.1232 -0.9825
vn 0.2991 0.0396 -0.9534
vn 0.0816 -0.1429 -0.9864
vn 0.7039 -0.6238 -0.3398
vn 0.8565 -0.0689 -0.5115
vn 0.2666 -0.3067 -0.9137
vn 0.3210 0.9012 -0.2911
vn -0.0793 0.4478 -0.8906
vn -0.0879 0.9200 -0.3819
vn 0.7039 0.6238 -0.3397
vn 0.1538 0.4335 -0.8879
vn 0.2992 -0.0393 -0.9534
vn 0.8624 0.0598 -0.5026
vn 0.0877 -0.0781 -0.9931
vn 0.2666 0.3067 -0.9137
vn -0.0927 0.1459 -0.9850
vn -0.1403 -0.1235 -0.9824
vn 0.0816 0.1429 -0.9864
vn -0.3210 -0.9012 -0.2911
vn 0.0793 -0.4478 -0.8906
vn 0.0879 -0.9200 -0.3819
vn -0.7039 -0.6238 -0.3397
vn -0.1537 -0.4335 -0.8879
vn -0.2991 0.0393 -0.9534
vn -0.8624 -0.0598 -0.5027
vn -0.0877 0.0781 -0.9931
vn -0.2667 -0.3066 -0.9137
vn 0.0927 -0.1459 -0.9850
vn 0.1403 0.1235 -0.9824
vn -0.0816 -0.1429 -0.9864
vn 0.0793 0.4478 -0.8906
vn -0.3210 0.9012 -0.2911
vn 0.0977 0.9231 -0.3719
vn 0.0927 0.1459 -0.9850
vn -0.1537 0.4335 -0.8879
vn -0.0877 -0.0779 -0.9931
vn 0.1399 -0.1232 -0.9825
vn -0.2991 -0.0396 -0.9534
vn -0.0816 0.1429 -0.9864
vn -0.7039 0.6238 -0.3398
vn -0.8565 0.0689 -0.5115
vn -0.2666 0.3067 -0.9137
vn 0.0000 -1.0000 0.0000
vn 0.3209 -0.9012 0.2914
vn 0.2666 -0.3066 0.9137
vn 0.1537 -0.4335 0.8879
vn 0.7040 -0.6239 0.3394
vn 0.8624 -0.0598 0.5026
vn 0.7040 0.6238 0.3394
vn 0.2992 -0.0394 0.9534
vn 0.3209 0.9012 0.2914
vn 0.2666 0.3066 0.9137
vn 0.0877 -0.0781 0.9931
vn -0.3209 -0.9012 0.2914
vn 0.0977 -0.9231 0.3720
vn -0.0877 0.0781 0.9931
vn -0.2666 -0.3066 0.9137
vn -0.7040 -0.6239 0.3394
vn -0.2992 0.0394 0.9534
vn -0.8565 -0.0689 0.5115
vn -0.3209 0.9012 0.2914
vn -0.2666 0.3066 0.9137
vn -0.1537 0.4336 0.8879
vn -0.7040 0.6239 0.3394
vn 0.3210 -0.9012 -0.2914
vn -0.0977 -0.9231 -0.3720
vn -0.1399 0.1232 -0.9825
vn 0.7040 -0.6238 -0.3394
vn 0.8565 -0.0689 -0.5116
vn 0.2666 -0.3066 -0.9137
vn 0.3209 0.9012 -0.2914
vn 0.2666 0.3066 -0.9137
vn 0.7040 0.6239 -0.3394
vn -0.3210 -0.9012 -0.2914
vn -0.2992 0.0393 -0.9534
vn -0.7040 -0.6239 -0.3394
vn -0.8624 -0.0598 -0.5026
vn -0.3209 0.9012 -0.2914
vn 0.0977 0.9231 -0.3720
vn -0.1538 0.4335 -0.8879
vn -0.7040 0.6239 -0.3394
vn -0.8565 0.0689 -0.5116
vn -0.2666 0.3066 -0.9137
vn 0.3209 -0.9012 0.2913
vn -0.0879 -0.9200 0.3818
vn 0.2666 -0.3067 0.9137
vn 0.7040 0.6239 0.3394
vn 0.2992 -0.0393 0.9534
vn 0.3209 0.9012 0.2913
vn 0.1538 0.4336 0.8879
vn -0.2667 -0.3067 0.9137
vn -0.2992 0.0393 0.9534
vn -0.3209 0.9012 0.2913
vn 0.0879 0.9200 0.3818
vn -0.1538 0.4336 0.8879
vn -0.8624 0.0598 0.5027
vn 0.3209 -0.9012 -0.2914
vn 0.0877 0.0781 -0.9931
vn 0.7040 -0.6239 -0.3394
vn 0.2991 0.0394 -0.9534
vn 0.3209 0.9012 -0.2913
vn 0.1538 0.4336 -0.8879
vn 0.2992 -0.0394 -0.9534
vn 0.8624 0.0598 -0.5027
vn -0.3209 -0.9012 -0.2914
vn -0.2667 -0.3067 -0.9137
vn -0.3209 0.9012 -0.2913
vn -0.1538 0.4336 -0.8879
vn -0.0877 -0.0781 -0.9931
vn -0.2991 -0.0394 -0.9534
vn 0.3210 -0.9012 0.2913
vn 0.1538 -0.4336 0.8879
vn 0.7040 -0.6239 0.3393
vn 0.7039 0.6238 0.3397
vn 0.2667 0.3067 0.9137
vn 0.3210 0.9013 0.2910
vn 0.1538 -0.4335 -0.8879
vn 0.2667 -0.3067 -0.9137
vn 0.7039 -0.6237 -0.3398
vn 0.3209 0.9012 -0.2912
vn 0.2667 0.3066 -0.9137
vn 0.1538 0.4337 -0.8879
vn -0.2666 -0.3067 -0.9137
vn -0.3209 0.9013 -0.2911
vn -0.1537 0.4336 -0.8879
vn -0.2667 0.3067 -0.9137
s 1
f 62/1/1 2/2/1 51/3/1
f 86/4/2 50/5/2 75/6/2
f 37/7/3 61/8/3 85/9/3
f 15/10/4 26/11/4 3/12/4
f 38/13/5 74/14/5 27/15/5
f 4/16/6 5/17/7 1/18/8
f 8/19/9 6/20/10 4/16/6
f 7/21/11 8/22/9 2/2/12
f 11/23/13 9/24/14 7/21/11
f 10/25/15 11/26/13 3/12/16
f 10/25/15 6/27/10 12/28/17
f 6/20/10 9/29/14 12/30/17
f 16/31/18 17/32/19 13/33/20
f 16/31/18 21/34/21 18/35/22
f 19/36/23 20/37/24 14/38/25
f 23/39/26 21/40/21 19/36/23
f 22/41/27 23/42/26 15/10/28
f 17/43/19 24/44/29 22/41/27
f 18/35/22 21/34/21 24/45/29
f 28/46/30 29/47/31 25/48/32
f 32/49/33 30/50/34 28/46/30
f 31/51/35 32/52/33 26/11/36
f 35/53/37 33/54/38 31/51/35
f 34/55/39 35/53/37 27/15/40
f 34/55/39 30/56/34 36/57/41
f 30/50/34 33/58/38 36/59/41
f 40/60/42 41/61/43 37/7/44
f 44/62/45 42/63/46 40/60/42
f 43/64/47 44/65/45 38/13/48
f 47/66/49 45/67/50 43/64/47
f 46/68/51 47/66/49 39/69/52
f 46/68/51 42/70/46 48/71/53
f 42/63/46 45/72/50 48/73/53
f 52/74/54 53/75/55 49/76/56
f 56/77/57 54/78/58 52/74/54
f 55/79/59 56/77/57 50/5/60
f 59/80/61 57/81/62 55/79/59
f 58/82/63 59/80/61 51/3/64
f 58/82/63 54/83/58 60/84/65
f 54/78/58 57/85/62 60/86/65
f 64/87/66 65/88/67 61/8/68
f 68/89/69 66/90/70 64/87/66
f 67/91/71 68/92/69 62/1/72
f 71/93/73 69/94/74 67/91/71
f 70/95/75 71/93/73 63/96/76
f 70/95/75 66/90/70 72/97/77
f 66/90/70 69/98/74 72/99/77
f 76/100/78 77/101/79 73/102/80
f 80/103/81 78/104/82 76/100/78
f 79/105/83 80/106/81 74/14/84
f 83/107/85 81/108/86 79/105/83
f 82/109/87 83/107/85 75/6/88
f 82/109/87 78/104/82 84/110/89
f 78/104/82 81/111/86 84/112/89
f 88/113/90 89/114/91 85/9/92
f 92/115/93 90/116/94 88/113/90
f 91/117/95 92/115/93 86/4/96
f 95/118/97 93/119/98 91/117/95
f 94/120/99 95/118/97 87/121/100
f 94/120/99 90/122/94 96/123/101
f 90/116/94 93/124/98 96/125/101
f 1/18/8 28/46/30 25/48/32
f 5/17/7 32/49/33 28/46/30
f 10/25/15 26/11/36 32/52/33
f 13/33/20 7/21/11 2/2/12
f 17/32/19 11/23/13 7/21/11
f 22/41/27 3/12/16 11/26/13
f 37/7/44 19/36/23 14/38/25
f 41/61/43 23/39/26 19/36/23
f 46/68/51 15/10/28 23/42/26
f 27/15/40 43/64/47 38/13/48
f 35/53/37 47/66/49 43/64/47
f 31/51/35 39/69/52 47/66/49
f 25/48/32 76/100/78 73/102/80
f 29/47/31 80/103/81 76/100/78
f 34/55/39 74/14/84 80/106/81
f 85/9/92 40/60/42 37/7/44
f 89/114/91 44/62/45 40/60/42
f 94/120/99 38/13/48 44/65/45
f 75/6/88 91/117/95 86/4/96
f 83/107/85 95/118/97 91/117/95
f 79/105/83 87/121/100 95/118/97
f 73/102/80 52/74/54 49/76/56
f 77/101/79 56/77/57 52/74/54
f 82/109/87 50/5/60 56/77/57
f 61/8/68 88/113/90 85/9/92
f 65/88/67 92/115/93 88/113/90
f 70/95/75 86/4/96 92/115/93
f 51/3/64 67/91/71 62/1/72
f 59/80/61 71/93/73 67/91/71
f 55/79/59 63/96/76 71/93/73
f 49/76/56 4/16/6 1/18/8
f 53/75/55 8/19/9 4/16/6
f 58/82/63 2/2/12 8/22/9
f 14/38/25 64/87/66 61/8/68
f 20/37/24 68/89/69 64/87/66
f 16/31/18 62/1/72 68/92/69
f 73/102/102 1/18/102 25/48/102
f 158/126/1 98/127/1 147/128/1
f 182/129/2 146/130/2 171/131/2
f 133/132/3 157/133/3 181/134/3
f 111/135/4 122/136/4 99/137/4
f 134/138/5 170/139/5 123/140/5
f 100/141/103 101/142/7 97/143/8
f 100/141/103 105/144/104 102/145/105
f 103/146/11 104/147/106 98/127/107
f 107/148/13 105/149/104 103/146/11
f 106/150/15 107/151/13 99/137/16
f 106/150/15 102/152/105 108/153/17
f 102/145/105 105/144/104 108/154/17
f 112/155/108 113/156/109 109/157/20
f 116/158/110 114/159/111 112/155/108
f 115/160/23 116/161/110 110/162/25
f 119/163/26 117/164/21 115/160/23
f 118/165/112 119/166/26 111/135/28
f 118/165/112 114/167/111 120/168/29
f 114/159/111 117/169/21 120/170/29
f 124/171/30 125/172/113 121/173/114
f 128/174/33 126/175/34 124/171/30
f 127/176/115 128/177/33 122/136/36
f 127/176/115 132/178/116 129/179/38
f 130/180/117 131/181/118 123/140/119
f 125/182/113 132/178/116 130/180/117
f 126/175/34 129/183/38 132/184/116
f 136/185/120 137/186/43 133/132/44
f 136/185/120 141/187/121 138/188/122
f 139/189/47 140/190/123 134/138/48
f 143/191/49 141/192/121 139/189/47
f 142/193/51 143/191/49 135/194/52
f 142/193/51 138/195/122 144/196/53
f 138/188/122 141/187/121 144/197/53
f 148/198/54 149/199/124 145/200/125
f 152/201/57 150/202/58 148/198/54
f 151/203/59 152/201/57 146/130/126
f 155/204/61 153/205/62 151/203/59
f 154/206/127 155/204/61 147/128/128
f 149/207/124 156/208/129 154/206/127
f 150/202/58 153/209/62 156/210/129
f 160/211/130 161/212/67 157/133/68
f 160/211/130 165/213/131 162/214/70
f 163/215/71 164/216/132 158/126/72
f 167/217/73 165/218/131 163/215/71
f 166/219/75 167/217/73 159/220/76
f 166/219/75 162/214/70 168/221/77
f 162/214/70 165/213/131 168/222/77
f 172/223/133 173/224/79 169/225/80
f 172/223/133 177/226/86 174/227/82
f 175/228/134 176/229/135 170/139/136
f 179/230/85 177/231/86 175/228/134
f 178/232/87 179/230/85 171/131/88
f 178/232/87 174/227/82 180/233/89
f 174/227/82 177/226/86 180/234/89
f 184/235/90 185/236/137 181/134/138
f 188/237/93 186/238/139 184/235/90
f 187/239/95 188/237/93 182/129/96
f 191/240/97 189/241/98 187/239/95
f 190/242/140 191/240/97 183/243/141
f 185/244/137 192/245/142 190/242/140
f 186/238/139 189/246/98 192/247/142
f 97/143/8 124/171/30 121/173/114
f 101/142/7 128/174/33 124/171/30
f 106/150/15 122/136/36 128/177/33
f 109/157/20 103/146/11 98/127/107
f 113/156/109 107/148/13 103/146/11
f 118/165/112 99/137/16 107/151/13
f 133/132/44 115/160/23 110/162/25
f 137/186/43 119/163/26 115/160/23
f 142/193/51 111/135/28 119/166/26
f 123/140/119 139/189/47 134/138/48
f 131/181/118 143/191/49 139/189/47
f 127/176/115 135/194/52 143/191/49
f 121/173/114 172/223/133 169/225/80
f 125/172/113 176/248/135 172/223/133
f 130/180/117 170/139/136 176/229/135
f 181/134/138 136/185/120 133/132/44
f 185/236/137 140/249/123 136/185/120
f 190/242/140 134/138/48 140/190/123
f 171/131/88 187/239/95 182/129/96
f 179/230/85 191/240/97 187/239/95
f 175/228/134 183/243/141 191/240/97
f 169/225/80 148/198/54 145/200/125
f 173/224/79 152/201/57 148/198/54
f 178/232/87 146/130/126 152/201/57
f 157/133/68 184/235/90 181/134/138
f 161/212/67 188/237/93 184/235/90
f 166/219/75 182/129/96 188/237/93
f 147/128/128 163/215/71 158/126/72
f 155/204/61 167/217/73 163/215/71
f 151/203/59 159/220/76 167/217/73
f 145/200/125 100/141/103 97/143/8
f 149/199/124 104/250/106 100/141/103
f 154/206/127 98/127/107 104/147/106
f 110/162/25 160/211/130 157/133/68
f 116/161/110 164/251/132 160/211/130
f 112/155/108 158/126/72 164/216/132
f 169/225/102 97/143/102 121/173/102
f 254/252/1 194/253/1 243/254/1
f 278/255/2 242/256/2 267/257/2
f 229/258/3 253/259/3 277/260/3
f 207/261/4 218/262/4 195/263/4
f 230/264/5 266/265/5 219/266/5
f 196/267/143 197/268/7 193/269/144
f 196/267/143 201/270/145 198/271/105
f 199/272/11 200/273/106 194/253/12
f 203/274/13 201/275/145 199/272/11
f 202/276/15 203/277/13 195/263/16
f 202/276/15 198/278/105 204/279/17
f 198/271/105 201/270/145 204/280/17
f 208/281/146 209/282/147 205/283/20
f 212/284/148 210/285/111 208/281/146
f 211/286/23 212/287/148 206/288/25
f 215/289/26 213/290/149 211/286/23
f 214/291/112 215/292/26 207/261/28
f 214/291/112 210/293/111 216/294/29
f 210/285/111 213/295/149 216/296/29
f 220/297/30 221/298/113 217/299/32
f 224/300/33 222/301/34 220/297/30
f 223/302/115 224/303/33 218/262/36
f 223/302/115 228/304/150 225/305/38
f 226/306/117 227/307/151 219/266/119
f 221/308/113 228/304/150 226/306/117
f 222/301/34 225/309/38 228/310/150
f 232/311/152 233/312/43 229/258/153
f 232/311/152 237/313/121 234/314/154
f 235/315/47 236/316/123 230/264/155
f 239/317/49 237/318/121 235/315/47
f 238/319/51 239/317/49 231/320/52
f 238/319/51 234/321/154 240/322/53
f 234/314/154 237/313/121 240/323/53
f 244/324/54 245/325/156 241/326/125
f 248/327/57 246/328/58 244/324/54
f 247/329/157 248/327/57 242/256/126
f 247/329/157 252/330/129 249/331/62
f 250/332/158 251/333/159 243/254/128
f 245/334/156 252/330/129 250/332/158
f 246/328/58 249/335/62 252/336/129
f 256/337/160 257/338/67 253/259/68
f 256/337/160 261/339/131 258/340/161
f 259/341/162 260/342/132 254/252/163
f 263/343/73 261/344/131 259/341/162
f 262/345/75 263/343/73 255/346/76
f 262/345/75 258/340/161 264/347/77
f 258/340/161 261/339/131 264/348/77
f 268/349/164 269/350/79 265/351/80
f 268/349/164 273/352/165 270/353/82
f 271/354/83 272/355/135 266/265/84
f 275/356/85 273/357/165 271/354/83
f 274/358/87 275/356/85 267/257/88
f 274/358/87 270/353/82 276/359/89
f 270/353/82 273/352/165 276/360/89
f 280/361/90 281/362/166 277/260/138
f 284/363/93 282/364/167 280/361/90
f 283/365/168 284/363/93 278/255/96
f 283/365/168 288/366/142 285/367/98
f 286/368/140 287/369/169 279/370/141
f 281/371/166 288/366/142 286/368/140
f 282/364/167 285/372/98 288/373/142
f 193/269/144 220/297/30 217/299/32
f 197/268/7 224/300/33 220/297/30
f 202/276/15 218/262/36 224/303/33
f 205/283/20 199/272/11 194/253/12
f 209/282/147 203/274/13 199/272/11
f 214/291/112 195/263/16 203/277/13
f 229/258/153 211/286/23 206/288/25
f 233/312/43 215/289/26 211/286/23
f 238/319/51 207/261/28 215/292/26
f 219/266/119 235/315/47 230/264/155
f 227/307/151 239/317/49 235/315/47
f 223/302/115 231/320/52 239/317/49
f 217/299/32 268/349/164 265/351/80
f 221/298/113 272/374/135 268/349/164
f 226/306/117 266/265/84 272/355/135
f 277/260/138 232/311/152 229/258/153
f 281/362/166 236/375/123 232/311/152
f 286/368/140 230/264/155 236/316/123
f 267/257/88 283/365/168 278/255/96
f 275/356/85 287/369/169 283/365/168
f 271/354/83 279/370/141 287/369/169
f 265/351/80 244/324/54 241/326/125
f 269/350/79 248/327/57 244/324/54
f 274/358/87 242/256/126 248/327/57
f 253/259/68 280/361/90 277/260/138
f 257/338/67 284/363/93 280/361/90
f 262/345/75 278/255/96 284/363/93
f 243/254/128 259/341/162 254/252/163
f 251/333/159 263/343/73 259/341/162
f 247/329/157 255/346/76 263/343/73
f 241/326/125 196/267/143 193/269/144
f 245/325/156 200/376/106 196/267/143
f 250/332/158 194/253/12 200/273/106
f 206/288/25 256/337/160 253/259/68
f 212/287/148 260/377/132 256/337/160
f 208/281/146 254/252/163 260/342/132
f 265/351/102 193/269/102 217/299/102
f 350/378/1 290/379/1 339/380/1
f 374/381/2 338/382/2 363/383/2
f 325/384/3 349/385/3 373/386/3
f 303/387/4 314/388/4 291/389/4
f 326/390/5 362/391/5 315/392/5
f 292/393/170 293/394/7 289/395/8
f 292/393/170 297/396/14 294/397/171
f 295/398/11 296/399/172 290/379/12
f 299/400/13 297/401/14 295/398/11
f 298/402/15 299/403/13 291/389/16
f 298/402/15 294/404/171 300/405/17
f 294/397/171 297/396/14 300/406/17
f 304/407/173 305/408/147 301/409/20
f 304/407/173 309/410/149 306/411/174
f 307/412/23 308/413/175 302/414/25
f 311/415/26 309/416/149 307/412/23
f 310/417/112 311/418/26 303/387/28
f 310/417/112 306/419/174 312/420/29
f 306/411/174 309/410/149 312/421/29
f 316/422/30 317/423/113 313/424/32
f 320/425/33 318/426/34 316/422/30
f 319/427/115 320/428/33 314/388/36
f 319/427/115 324/429/150 321/430/38
f 322/431/117 323/432/151 315/392/119
f 317/433/113 324/429/150 322/431/117
f 318/426/34 321/434/38 324/435/150
f 328/436/42 329/437/43 325/384/153
f 332/438/45 330/439/154 328/436/42
f 331/440/47 332/441/45 326/390/48
f 335/442/49 333/443/50 331/440/47
f 334/444/51 335/442/49 327/445/52
f 334/444/51 330/446/154 336/447/53
f 330/439/154 333/448/50 336/449/53
f 340/450/54 341/451/55 337/452/125
f 344/453/57 342/454/176 340/450/54
f 343/455/157 344/453/57 338/382/126
f 343/455/157 348/456/177 345/457/62
f 346/458/178 347/459/159 339/380/128
f 346/458/178 342/460/176 348/456/177
f 342/454/176 345/461/62 348/462/177
f 352/463/179 353/464/67 349/385/68
f 352/463/179 357/465/180 354/466/181
f 355/467/71 356/468/132 350/378/163
f 359/469/73 357/470/180 355/467/71
f 358/471/75 359/469/73 351/472/76
f 358/471/75 354/466/181 360/473/77
f 354/466/181 357/465/180 360/474/77
f 364/475/164 365/476/79 361/477/80
f 364/475/164 369/478/182 366/479/82
f 367/480/134 368/481/135 362/391/84
f 371/482/85 369/483/182 367/480/134
f 370/484/87 371/482/85 363/383/88
f 370/484/87 366/479/82 372/485/89
f 366/479/82 369/478/182 372/486/89
f 376/487/90 377/488/183 373/386/138
f 380/489/93 378/490/184 376/487/90
f 379/491/168 380/489/93 374/381/96
f 379/491/168 384/492/185 381/493/98
f 382/494/99 383/495/169 375/496/141
f 382/494/99 378/497/184 384/492/185
f 378/490/184 381/498/98 384/499/185
f 289/395/8 316/422/30 313/424/32
f 293/394/7 320/425/33 316/422/30
f 298/402/15 314/388/36 320/428/33
f 301/409/20 295/398/11 290/379/12
f 305/408/147 299/400/13 295/398/11
f 310/417/112 291/389/16 299/403/13
f 325/384/153 307/412/23 302/414/25
f 329/437/43 311/415/26 307/412/23
f 334/444/51 303/387/28 311/418/26
f 315/392/119 331/440/47 326/390/48
f 323/432/151 335/442/49 331/440/47
f 319/427/115 327/445/52 335/442/49
f 313/424/32 364/475/164 361/477/80
f 317/423/113 368/500/135 364/475/164
f 322/431/117 362/391/84 368/481/135
f 373/386/138 328/436/42 325/384/153
f 377/488/183 332/438/45 328/436/42
f 382/494/99 326/390/48 332/441/45
f 363/383/88 379/491/168 374/381/96
f 371/482/85 383/495/169 379/491/168
f 367/480/134 375/496/141 383/495/169
f 361/477/80 340/450/54 337/452/125
f 365/476/79 344/453/57 340/450/54
f 370/484/87 338/382/126 344/453/57
f 349/385/68 376/487/90 373/386/138
f 353/464/67 380/489/93 376/487/90
f 358/471/75 374/381/96 380/489/93
f 339/380/128 355/467/71 350/378/163
f 347/459/159 359/469/73 355/467/71
f 343/455/157 351/472/76 359/469/73
f 337/452/125 292/393/170 289/395/8
f 341/451/55 296/501/172 292/393/170
f 346/458/178 290/379/12 296/399/172
f 302/414/25 352/463/179 349/385/68
f 308/413/175 356/502/132 352/463/179
f 304/407/173 350/378/163 356/468/132
f 361/477/102 289/395/102 313/424/102
f 62/1/1 13/33/1 2/2/1
f 86/4/2 63/96/2 50/5/2
f 37/7/3 14/38/3 61/8/3
f 15/10/4 39/69/4 26/11/4
f 38/13/5 87/121/5 74/14/5
f 4/16/6 6/20/10 5/17/7
f 8/19/9 9/29/14 6/20/10
f 7/21/11 9/24/14 8/22/9
f 11/23/13 12/503/17 9/24/14
f 10/25/15 12/28/17 11/26/13
f 10/25/15 5/504/7 6/27/10
f 16/31/18 18/35/22 17/32/19
f 16/31/18 20/505/24 21/34/21
f 19/36/23 21/40/21 20/37/24
f 23/39/26 24/506/29 21/40/21
f 22/41/27 24/44/29 23/42/26
f 17/43/19 18/507/22 24/44/29
f 28/46/30 30/50/34 29/47/31
f 32/49/33 33/58/38 30/50/34
f 31/51/35 33/54/38 32/52/33
f 35/53/37 36/57/41 33/54/38
f 34/55/39 36/57/41 35/53/37
f 34/55/39 29/508/31 30/56/34
f 40/60/42 42/63/46 41/61/43
f 44/62/45 45/72/50 42/63/46
f 43/64/47 45/67/50 44/65/45
f 47/66/49 48/71/53 45/67/50
f 46/68/51 48/71/53 47/66/49
f 46/68/51 41/509/43 42/70/46
f 52/74/54 54/78/58 53/75/55
f 56/77/57 57/81/62 54/78/58
f 55/79/59 57/81/62 56/77/57
f 59/80/61 60/84/65 57/81/62
f 58/82/63 60/84/65 59/80/61
f 58/82/63 53/510/55 54/83/58
f 64/87/66 66/90/70 65/88/67
f 68/89/69 69/98/74 66/90/70
f 67/91/71 69/94/74 68/92/69
f 71/93/73 72/97/77 69/94/74
f 70/95/75 72/97/77 71/93/73
f 70/95/75 65/88/67 66/90/70
f 76/100/78 78/104/82 77/101/79
f 80/103/81 81/111/86 78/104/82
f 79/105/83 81/108/86 80/106/81
f 83/107/85 84/110/89 81/108/86
f 82/109/87 84/110/89 83/107/85
f 82/109/87 77/101/79 78/104/82
f 88/113/90 90/116/94 89/114/91
f 92/115/93 93/119/98 90/116/94
f 91/117/95 93/119/98 92/115/93
f 95/118/97 96/123/101 93/119/98
f 94/120/99 96/123/101 95/118/97
f 94/120/99 89/511/91 90/122/94
f 1/18/8 5/17/7 28/46/30
f 5/17/7 10/512/15 32/49/33
f 10/25/15 3/12/16 26/11/36
f 13/33/20 17/32/19 7/21/11
f 17/32/19 22/513/27 11/23/13
f 22/41/27 15/10/28 3/12/16
f 37/7/44 41/61/43 19/36/23
f 41/61/43 46/514/51 23/39/26
f 46/68/51 39/69/52 15/10/28
f 27/15/40 35/53/37 43/64/47
f 35/53/37 31/51/35 47/66/49
f 31/51/35 26/11/36 39/69/52
f 25/48/32 29/47/31 76/100/78
f 29/47/31 34/515/39 80/103/81
f 34/55/39 27/15/40 74/14/84
f 85/9/92 89/114/91 40/60/42
f 89/114/91 94/516/99 44/62/45
f 94/120/99 87/121/100 38/13/48
f 75/6/88 83/107/85 91/117/95
f 83/107/85 79/105/83 95/118/97
f 79/105/83 74/14/84 87/121/100
f 73/102/80 77/101/79 52/74/54
f 77/101/79 82/109/87 56/77/57
f 82/109/87 75/6/88 50/5/60
f 61/8/68 65/88/67 88/113/90
f 65/88/67 70/95/75 92/115/93
f 70/95/75 63/96/76 86/4/96
f 51/3/64 59/80/61 67/91/71
f 59/80/61 55/79/59 71/93/73
f 55/79/59 50/5/60 63/96/76
f 49/76/56 53/75/55 4/16/6
f 53/75/55 58/517/63 8/19/9
f 58/82/63 51/3/64 2/2/12
f 14/38/25 20/37/24 64/87/66
f 20/37/24 16/518/18 68/89/69
f 16/31/18 13/33/20 62/1/72
f 73/102/102 49/76/102 1/18/102
f 158/126/1 109/157/1 98/127/1
f 182/129/2 159/220/2 146/130/2
f 133/132/3 110/162/3 157/133/3
f 111/135/4 135/194/4 122/136/4
f 134/138/5 183/243/5 170/139/5
f 100/141/103 102/145/105 101/142/7
f 100/141/103 104/250/106 105/144/104
f 103/146/11 105/149/104 104/147/106
f 107/148/13 108/519/17 105/149/104
f 106/150/15 108/153/17 107/151/13
f 106/150/15 101/520/7 102/152/105
f 112/155/108 114/159/111 113/156/109
f 116/158/110 117/169/21 114/159/111
f 115/160/23 117/164/21 116/161/110
f 119/163/26 120/521/29 117/164/21
f 118/165/112 120/168/29 119/166/26
f 118/165/112 113/522/109 114/167/111
f 124/171/30 126/175/34 125/172/113
f 128/174/33 129/183/38 126/175/34
f 127/176/115 129/179/38 128/177/33
f 127/176/115 131/181/118 132/178/116
f 130/180/117 132/178/116 131/181/118
f 125/182/113 126/523/34 132/178/116
f 136/185/120 138/188/122 137/186/43
f 136/185/120 140/249/123 141/187/121
f 139/189/47 141/192/121 140/190/123
f 143/191/49 144/196/53 141/192/121
f 142/193/51 144/196/53 143/191/49
f 142/193/51 137/524/43 138/195/122
f 148/198/54 150/202/58 149/199/124
f 152/201/57 153/205/62 150/202/58
f 151/203/59 153/205/62 152/201/57
f 155/204/61 156/208/129 153/205/62
f 154/206/127 156/208/129 155/204/61
f 149/207/124 150/525/58 156/208/129
f 160/211/130 162/214/70 161/212/67
f 160/211/130 164/251/132 165/213/131
f 163/215/71 165/218/131 164/216/132
f 167/217/73 168/221/77 165/218/131
f 166/219/75 168/221/77 167/217/73
f 166/219/75 161/212/67 162/214/70
f 172/223/133 174/227/82 173/224/79
f 172/223/133 176/248/135 177/226/86
f 175/228/134 177/231/86 176/229/135
f 179/230/85 180/233/89 177/231/86
f 178/232/87 180/233/89 179/230/85
f 178/232/87 173/224/79 174/227/82
f 184/235/90 186/238/139 185/236/137
f 188/237/93 189/241/98 186/238/139
f 187/239/95 189/241/98 188/237/93
f 191/240/97 192/245/142 189/241/98
f 190/242/140 192/245/142 191/240/97
f 185/244/137 186/526/139 192/245/142
f 97/143/8 101/142/7 124/171/30
f 101/142/7 106/527/15 128/174/33
f 106/150/15 99/137/16 122/136/36
f 109/157/20 113/156/109 103/146/11
f 113/156/109 118/528/112 107/148/13
f 118/165/112 111/135/28 99/137/16
f 133/132/44 137/186/43 115/160/23
f 137/186/43 142/529/51 119/163/26
f 142/193/51 135/194/52 111/135/28
f 123/140/119 131/181/118 139/189/47
f 131/181/118 127/176/115 143/191/49
f 127/176/115 122/136/36 135/194/52
f 121/173/114 125/172/113 172/223/133
f 125/172/113 130/530/117 176/248/135
f 130/180/117 123/140/119 170/139/136
f 181/134/138 185/236/137 136/185/120
f 185/236/137 190/531/140 140/249/123
f 190/242/140 183/243/141 134/138/48
f 171/131/88 179/230/85 187/239/95
f 179/230/85 175/228/134 191/240/97
f 175/228/134 170/139/136 183/243/141
f 169/225/80 173/224/79 148/198/54
f 173/224/79 178/232/87 152/201/57
f 178/232/87 171/131/88 146/130/126
f 157/133/68 161/212/67 184/235/90
f 161/212/67 166/219/75 188/237/93
f 166/219/75 159/220/76 182/129/96
f 147/128/128 155/204/61 163/215/71
f 155/204/61 151/203/59 167/217/73
f 151/203/59 146/130/126 159/220/76
f 145/200/125 149/199/124 100/141/103
f 149/199/124 154/532/127 104/250/106
f 154/206/127 147/128/128 98/127/107
f 110/162/25 116/161/110 160/211/130
f 116/161/110 112/533/108 164/251/132
f 112/155/108 109/157/20 158/126/72
f 169/225/102 145/200/102 97/143/102
f 254/252/1 205/283/1 194/253/1
f 278/255/2 255/346/2 242/256/2
f 229/258/3 206/288/3 253/259/3
f 207/261/4 231/320/4 218/262/4
f 230/264/5 279/370/5 266/265/5
f 196/267/143 198/271/105 197/268/7
f 196/267/143 200/376/106 201/270/145
f 199/272/11 201/275/145 200/273/106
f 203/274/13 204/534/17 201/275/145
f 202/276/15 204/279/17 203/277/13
f 202/276/15 197/535/7 198/278/105
f 208/281/146 210/285/111 209/282/147
f 212/284/148 213/295/149 210/285/111
f 211/286/23 213/290/149 212/287/148
f 215/289/26 216/536/29 213/290/149
f 214/291/112 216/294/29 215/292/26
f 214/291/112 209/537/147 210/293/111
f 220/297/30 222/301/34 221/298/113
f 224/300/33 225/309/38 222/301/34
f 223/302/115 225/305/38 224/303/33
f 223/302/115 227/307/151 228/304/150
f 226/306/117 228/304/150 227/307/151
f 221/308/113 222/538/34 228/304/150
f 232/311/152 234/314/154 233/312/43
f 232/311/152 236/375/123 237/313/121
f 235/315/47 237/318/121 236/316/123
f 239/317/49 240/322/53 237/318/121
f 238/319/51 240/322/53 239/317/49
f 238/319/51 233/539/43 234/321/154
f 244/324/54 246/328/58 245/325/156
f 248/327/57 249/331/62 246/328/58
f 247/329/157 249/331/62 248/327/57
f 247/329/157 251/333/159 252/330/129
f 250/332/158 252/330/129 251/333/159
f 245/334/156 246/540/58 252/330/129
f 256/337/160 258/340/161 257/338/67
f 256/337/160 260/377/132 261/339/131
f 259/341/162 261/344/131 260/342/132
f 263/343/73 264/347/77 261/344/131
f 262/345/75 264/347/77 263/343/73
f 262/345/75 257/338/67 258/340/161
f 268/349/164 270/353/82 269/350/79
f 268/349/164 272/374/135 273/352/165
f 271/354/83 273/357/165 272/355/135
f 275/356/85 276/359/89 273/357/165
f 274/358/87 276/359/89 275/356/85
f 274/358/87 269/350/79 270/353/82
f 280/361/90 282/364/167 281/362/166
f 284/363/93 285/367/98 282/364/167
f 283/365/168 285/367/98 284/363/93
f 283/365/168 287/369/169 288/366/142
f 286/368/140 288/366/142 287/369/169
f 281/371/166 282/541/167 288/366/142
f 193/269/144 197/268/7 220/297/30
f 197/268/7 202/542/15 224/300/33
f 202/276/15 195/263/16 218/262/36
f 205/283/20 209/282/147 199/272/11
f 209/282/147 214/543/112 203/274/13
f 214/291/112 207/261/28 195/263/16
f 229/258/153 233/312/43 211/286/23
f 233/312/43 238/544/51 215/289/26
f 238/319/51 231/320/52 207/261/28
f 219/266/119 227/307/151 235/315/47
f 227/307/151 223/302/115 239/317/49
f 223/302/115 218/262/36 231/320/52
f 217/299/32 221/298/113 268/349/164
f 221/298/113 226/545/117 272/374/135
f 226/306/117 219/266/119 266/265/84
f 277/260/138 281/362/166 232/311/152
f 281/362/166 286/546/140 236/375/123
f 286/368/140 279/370/141 230/264/155
f 267/257/88 275/356/85 283/365/168
f 275/356/85 271/354/83 287/369/169
f 271/354/83 266/265/84 279/370/141
f 265/351/80 269/350/79 244/324/54
f 269/350/79 274/358/87 248/327/57
f 274/358/87 267/257/88 242/256/126
f 253/259/68 257/338/67 280/361/90
f 257/338/67 262/345/75 284/363/93
f 262/345/75 255/346/76 278/255/96
f 243/254/128 251/333/159 259/341/162
f 251/333/159 247/329/157 263/343/73
f 247/329/157 242/256/126 255/346/76
f 241/326/125 245/325/156 196/267/143
f 245/325/156 250/547/158 200/376/106
f 250/332/158 243/254/128 194/253/12
f 206/288/25 212/287/148 256/337/160
f 212/287/148 208/548/146 260/377/132
f 208/281/146 205/283/20 254/252/163
f 265/351/102 241/326/102 193/269/102
f 350/378/1 301/409/1 290/379/1
f 374/381/2 351/472/2 338/382/2
f 325/384/3 302/414/3 349/385/3
f 303/387/4 327/445/4 314/388/4
f 326/390/5 375/496/5 362/391/5
f 292/393/170 294/397/171 293/394/7
f 292/393/170 296/501/172 297/396/14
f 295/398/11 297/401/14 296/399/172
f 299/400/13 300/549/17 297/401/14
f 298/402/15 300/405/17 299/403/13
f 298/402/15 293/550/7 294/404/171
f 304/407/173 306/411/174 305/408/147
f 304/407/173 308/551/175 309/410/149
f 307/412/23 309/416/149 308/413/175
f 311/415/26 312/552/29 309/416/149
f 310/417/112 312/420/29 311/418/26
f 310/417/112 305/553/147 306/419/174
f 316/422/30 318/426/34 317/423/113
f 320/425/33 321/434/38 318/426/34
f 319/427/115 321/430/38 320/428/33
f 319/427/115 323/432/151 324/429/150
f 322/431/117 324/429/150 323/432/151
f 317/433/113 318/554/34 324/429/150
f 328/436/42 330/439/154 329/437/43
f 332/438/45 333/448/50 330/439/154
f 331/440/47 333/443/50 332/441/45
f 335/442/49 336/447/53 333/443/50
f 334/444/51 336/447/53 335/442/49
f 334/444/51 329/555/43 330/446/154
f 340/450/54 342/454/176 341/451/55
f 344/453/57 345/457/62 342/454/176
f 343/455/157 345/457/62 344/453/57
f 343/455/157 347/459/159 348/456/177
f 346/458/178 348/456/177 347/459/159
f 346/458/178 341/556/55 342/460/176
f 352/463/179 354/466/181 353/464/67
f 352/463/179 356/502/132 357/465/180
f 355/467/71 357/470/180 356/468/132
f 359/469/73 360/473/77 357/470/180
f 358/471/75 360/473/77 359/469/73
f 358/471/75 353/464/67 354/466/181
f 364/475/164 366/479/82 365/476/79
f 364/475/164 368/500/135 369/478/182
f 367/480/134 369/483/182 368/481/135
f 371/482/85 372/485/89 369/483/182
f 370/484/87 372/485/89 371/482/85
f 370/484/87 365/476/79 366/479/82
f 376/487/90 378/490/184 377/488/183
f 380/489/93 381/493/98 378/490/184
f 379/491/168 381/493/98 380/489/93
f 379/491/168 383/495/169 384/492/185
f 382/494/99 384/492/185 383/495/169
f 382/494/99 377/557/183 378/497/184
f 289/395/8 293/394/7 316/422/30
f 293/394/7 298/558/15 320/425/33
f 298/402/15 291/389/16 314/388/36
f 301/409/20 305/408/147 295/398/11
f 305/408/147 310/559/112 299/400/13
f 310/417/112 303/387/28 291/389/16
f 325/384/153 329/437/43 307/412/23
f 329/437/43 334/560/51 311/415/26
f 334/444/51 327/445/52 303/387/28
f 315/392/119 323/432/151 331/440/47
f 323/432/151 319/427/115 335/442/49
f 319/427/115 314/388/36 327/445/52
f 313/424/32 317/423/113 364/475/164
f 317/423/113 322/561/117 368/500/135
f 322/431/117 315/392/119 362/391/84
f 373/386/138 377/488/183 328/436/42
f 377/488/183 382/562/99 332/438/45
f 382/494/99 375/496/141 326/390/48
f 363/383/88 371/482/85 379/491/168
f 371/482/85 367/480/134 383/495/169
f 367/480/134 362/391/84 375/496/141
f 361/477/80 365/476/79 340/450/54
f 365/476/79 370/484/87 344/453/57
f 370/484/87 363/383/88 338/382/126
f 349/385/68 353/464/67 376/487/90
f 353/464/67 358/471/75 380/489/93
f 358/471/75 351/472/76 374/381/96
f 339/380/128 347/459/159 355/467/71
f 347/459/159 343/455/157 359/469/73
f 343/455/157 338/382/126 351/472/76
f 337/452/125 341/451/55 292/393/170
f 341/451/55 346/563/178 296/501/172
f 346/458/178 339/380/128 290/379/12
f 302/414/25 308/413/175 352/463/179
f 308/413/175 304/564/173 356/502/132
f 304/407/173 301/409/20 350/378/163
f 361/477/102 337/452/102 289/395/102
