o floor
v -1 1.74846e-007 -1
v -1 1.74846e-007 1
v 1 -1.74846e-007 1
v 1 -1.74846e-007 -1
vn 4.37114e-008 1 1.91069e-015
vn 4.37114e-008 1 1.91069e-015
vn 4.37114e-008 1 1.91069e-015
vn 4.37114e-008 1 1.91069e-015
s off
f 1//1 2//1 3//1
f 1//1 3//1 4//1