o leftwall
v -1 0 1
v -1 2 1
v -1 2 -1
v -1 0 -1
vn -1 -4.37114e-008 -4.37114e-008
vn -1 -4.37114e-008 -4.37114e-008
vn -1 -4.37114e-008 -4.37114e-008
vn -1 -4.37114e-008 -4.37114e-008
s off
f 1//1 2//1 3//1
f 1//1 3//1 4//1