ply
format ascii 1.0
comment Created by Blender 2.79 (sub 0) - www.blender.org, source file: 'm3_v2.blend'
element vertex 582
property float x
property float y
property float z
property float nx
property float ny
property float nz
element face 504
property list uchar uint vertex_indices
end_header
1.499900 0.620755 -1.014678 -0.880215 -0.474410 -0.010193
1.448959 0.715611 -1.037296 -0.879543 -0.475661 -0.010254
1.449342 0.715390 -1.053995 -0.879116 -0.476333 -0.015290
1.500537 0.620041 -1.031688 -0.879849 -0.475021 -0.014008
1.450103 0.715062 -1.085156 -0.879177 -0.476150 -0.017151
1.501005 0.620187 -1.064029 -0.879910 -0.474837 -0.015320
1.397488 0.811083 -1.060120 -0.878475 -0.477584 -0.011689
1.398014 0.810644 -1.076323 -0.878048 -0.478225 -0.017335
1.399062 0.809887 -1.106306 -0.878170 -0.477920 -0.019471
1.551643 0.524628 -1.009394 -0.880306 -0.474197 -0.013184
1.549954 0.527311 -0.992451 -0.880490 -0.473891 -0.011505
1.602706 0.429183 -0.987106 -0.880428 -0.473952 -0.012909
1.599564 0.434572 -0.970420 -0.880459 -0.473922 -0.012421
1.551814 0.525276 -1.042917 -0.880398 -0.473983 -0.013825
1.602576 0.430349 -1.021813 -0.880551 -0.473708 -0.013153
1.545115 0.536215 -0.987579 -0.881344 -0.472427 -0.003723
1.498616 0.623043 -1.008144 -0.881741 -0.471664 0.004181
1.538703 0.548231 -0.988742 -0.882839 -0.469405 0.013916
1.497009 0.626118 -1.006848 -0.882870 -0.469161 0.019562
1.589970 0.452332 -0.967779 -0.880673 -0.473556 -0.010773
1.570743 0.488280 -0.975211 -0.881924 -0.471358 0.000580
1.448828 0.715760 -1.030239 -0.881314 -0.472427 0.007477
1.397310 0.811309 -1.053104 -0.880245 -0.474441 0.006256
1.448824 0.715873 -1.028002 -0.882565 -0.469680 0.021332
1.397307 0.811430 -1.050681 -0.881527 -0.471664 0.020356
1.319860 0.973001 -1.523156 -0.878597 -0.477432 -0.008667
1.367298 0.885450 -1.520022 -0.879269 -0.476119 -0.011658
1.363348 0.890437 -1.446162 -0.879727 -0.475143 -0.016907
1.315131 0.979830 -1.452345 -0.879177 -0.476211 -0.015595
1.359790 0.894107 -1.373677 -0.879635 -0.475173 -0.020051
1.310863 0.985005 -1.383311 -0.879116 -0.476150 -0.020386
1.414563 0.797821 -1.516888 -0.880276 -0.474227 -0.013977
1.411387 0.801051 -1.439981 -0.880551 -0.473586 -0.017670
1.408539 0.803271 -1.364049 -0.880398 -0.473800 -0.019440
1.266795 1.069226 -1.458530 -0.878872 -0.476821 -0.013855
1.272308 1.060503 -1.526290 -0.878231 -0.478164 -0.005188
1.218399 1.158625 -1.464715 -0.878780 -0.476974 -0.013276
1.224697 1.147978 -1.529424 -0.878170 -0.478286 -0.003967
1.261817 1.075946 -1.392947 -0.878780 -0.476730 -0.020600
1.212710 1.166908 -1.402586 -0.878658 -0.476943 -0.020844
1.278889 1.048540 -1.598374 -0.876797 -0.480789 0.004639
1.325510 0.963396 -1.597496 -0.877316 -0.479873 -0.000153
1.287074 1.032102 -1.676927 -0.874660 -0.484451 0.014985
1.332540 0.949891 -1.677121 -0.875332 -0.483383 0.009400
1.232214 1.133628 -1.599252 -0.876766 -0.480819 0.006256
1.241558 1.114237 -1.676733 -0.874660 -0.484390 0.016755
1.372023 0.878145 -1.596618 -0.878170 -0.478256 -0.004608
1.418374 0.792731 -1.595741 -0.879391 -0.475997 -0.008515
1.377907 0.867526 -1.677315 -0.876370 -0.481582 0.003876
1.423126 0.784930 -1.677508 -0.877773 -0.479049 -0.001434
1.351536 0.909063 -1.854029 -0.869808 -0.492599 0.027619
1.393774 0.834429 -1.852160 -0.870937 -0.490890 0.021241
1.385332 0.852593 -1.763471 -0.873897 -0.485916 0.012696
1.341408 0.931360 -1.763783 -0.872738 -0.487747 0.018830
1.435896 0.759538 -1.850292 -0.872463 -0.488418 0.014405
1.429124 0.773568 -1.763160 -0.875393 -0.483322 0.006378
1.297396 1.009955 -1.764095 -0.872005 -0.488815 0.024720
1.309221 0.983525 -1.855897 -0.869045 -0.493515 0.033570
1.253340 1.088464 -1.764406 -0.872036 -0.488662 0.026612
1.266868 1.057901 -1.857766 -0.869106 -0.493301 0.035493
1.321916 0.954242 -1.948356 -0.865932 -0.498306 0.042512
1.362346 0.884260 -1.944404 -0.866634 -0.497543 0.036561
1.334845 0.923531 -2.037491 -0.862758 -0.502884 0.052400
1.373257 0.858210 -2.031457 -0.863399 -0.502304 0.046419
1.281452 1.024142 -1.952307 -0.866024 -0.498001 0.044343
1.296403 0.988777 -2.043525 -0.862850 -0.502518 0.054079
1.402707 0.814117 -1.940453 -0.867733 -0.496048 0.030091
1.442967 0.743729 -1.936502 -0.869228 -0.493820 0.023133
1.411608 0.792736 -2.025422 -0.864467 -0.501053 0.039949
1.449867 0.727036 -2.019388 -0.865932 -0.499039 0.033052
1.529447 0.580129 -2.151255 -0.861965 -0.505081 0.043062
1.495597 0.637045 -2.159855 -0.860927 -0.506211 0.050142
1.498257 0.625116 -2.226560 -0.857234 -0.510880 0.063753
1.530009 0.572738 -2.217527 -0.858425 -0.509903 0.055574
1.500146 0.613280 -2.289573 -0.852443 -0.516861 0.078494
1.529882 0.565322 -2.280705 -0.853786 -0.516098 0.068178
1.461660 0.693735 -2.168455 -0.859371 -0.508072 0.057558
1.466416 0.677262 -2.235595 -0.855495 -0.512680 0.072451
1.470321 0.660998 -2.298442 -0.850368 -0.518448 0.089511
1.561703 0.520204 -2.208493 -0.858974 -0.509751 0.047639
1.563239 0.523063 -2.142655 -0.862484 -0.504776 0.036103
1.593367 0.467593 -2.199459 -0.859371 -0.509507 0.043092
1.597002 0.465921 -2.134054 -0.862789 -0.504532 0.031953
1.559558 0.517205 -2.271836 -0.854457 -0.516221 0.058290
1.589204 0.469007 -2.262967 -0.854946 -0.515976 0.052858
1.564054 0.525796 -2.073769 -0.865566 -0.500198 0.023927
1.528144 0.587486 -2.081362 -0.865078 -0.500626 0.030763
1.564035 0.528418 -2.001284 -0.868709 -0.495163 0.011475
1.526050 0.594801 -2.007319 -0.868252 -0.495743 0.018830
1.599935 0.464031 -2.066177 -0.865810 -0.499954 0.019898
1.601989 0.461959 -1.995250 -0.868923 -0.494858 0.007233
1.492176 0.649029 -2.088954 -0.864132 -0.501816 0.037538
1.456120 0.710348 -2.096546 -0.862697 -0.503708 0.044496
1.488004 0.661032 -2.013353 -0.867336 -0.497024 0.025971
1.423033 0.707450 -2.425341 -0.828639 -0.537919 0.154637
1.449631 0.668195 -2.419083 -0.830988 -0.539048 0.137181
1.445234 0.688123 -2.365557 -0.840724 -0.527787 0.120792
1.417074 0.730993 -2.373637 -0.838649 -0.527482 0.135563
1.440375 0.708396 -2.307311 -0.848201 -0.519883 0.101077
1.410340 0.755555 -2.316180 -0.846553 -0.520188 0.112735
1.476195 0.628692 -2.412519 -0.834407 -0.537919 0.119938
1.473305 0.645010 -2.357477 -0.843379 -0.526658 0.106204
1.388855 0.773700 -2.381716 -0.837153 -0.525956 0.150029
1.396730 0.745925 -2.432157 -0.827143 -0.535234 0.171148
1.360605 0.816326 -2.389797 -0.837733 -0.523972 0.153661
1.370575 0.784011 -2.439254 -0.827998 -0.532304 0.176153
1.380245 0.802554 -2.325048 -0.845393 -0.519456 0.124180
1.350120 0.849472 -2.333917 -0.845790 -0.518326 0.126133
1.404466 0.719567 -2.475827 -0.816797 -0.546342 0.185186
1.428635 0.685363 -2.470600 -0.817591 -0.550371 0.169134
1.412656 0.694962 -2.512181 -0.808313 -0.558214 0.187048
1.433667 0.666196 -2.507999 -0.807947 -0.562456 0.175604
1.380976 0.752455 -2.482172 -0.818018 -0.542467 0.191168
1.392756 0.721590 -2.518436 -0.809687 -0.553789 0.194006
1.454161 0.648527 -2.467609 -0.819544 -0.552873 0.150395
1.479819 0.611438 -2.463388 -0.823573 -0.551836 0.130985
1.456899 0.633157 -2.507967 -0.808985 -0.565569 0.160100
1.486902 0.588809 -2.514683 -0.811487 -0.566881 0.141850
1.539772 0.514539 -2.508341 -0.816218 -0.568438 0.103214
1.534417 0.523463 -2.501357 -0.817774 -0.566881 0.099094
1.519997 0.542800 -2.508425 -0.814966 -0.568255 0.113407
1.533929 0.521937 -2.513337 -0.812952 -0.567553 0.130100
1.512742 0.551762 -2.515284 -0.812616 -0.568743 0.127110
1.530252 0.526543 -2.516010 -0.812220 -0.567400 0.135258
1.529995 0.533412 -2.480843 -0.822932 -0.559648 0.097537
1.509491 0.561324 -2.491386 -0.819636 -0.561388 0.114078
1.549317 0.499770 -2.513874 -0.812250 -0.562914 0.152745
1.551280 0.497923 -2.508919 -0.817072 -0.567858 0.099429
1.565431 0.476952 -2.512221 -0.814661 -0.565294 0.129368
1.567114 0.475511 -2.506901 -0.817896 -0.567644 0.093661
1.547262 0.502253 -2.515279 -0.810053 -0.561724 0.167974
1.564023 0.478427 -2.513818 -0.807764 -0.556230 0.195105
1.551243 0.499876 -2.497090 -0.820276 -0.565386 0.086215
1.550943 0.503651 -2.474622 -0.825373 -0.558489 0.082308
1.569273 0.474163 -2.494225 -0.821345 -0.564745 0.080172
1.572112 0.472966 -2.470561 -0.826716 -0.557604 0.074862
1.294478 1.000798 -1.105672 -0.876034 -0.481826 -0.019379
1.243836 1.093650 -1.128085 -0.874844 -0.483657 -0.025727
1.243147 1.095770 -1.143440 -0.874844 -0.483505 -0.028932
1.294872 1.000802 -1.121053 -0.875790 -0.482009 -0.024140
1.245014 1.094016 -1.169901 -0.875271 -0.482620 -0.030305
1.296472 0.999346 -1.148685 -0.876095 -0.481368 -0.026032
1.193557 1.185717 -1.150352 -0.874355 -0.484329 -0.029756
1.191377 1.190705 -1.165835 -0.874477 -0.484024 -0.031434
1.193511 1.188669 -1.191123 -0.874905 -0.483169 -0.032594
1.346509 0.905771 -1.098678 -0.876858 -0.480270 -0.020264
1.345845 0.906377 -1.082965 -0.877224 -0.479781 -0.014710
1.347836 0.904642 -1.127485 -0.877071 -0.479781 -0.022431
1.345621 0.906635 -1.075980 -0.878842 -0.477065 0.001648
1.295427 0.998834 -1.098257 -0.877316 -0.479812 -0.006165
1.345619 0.906720 -1.073360 -0.880032 -0.474624 0.014649
1.297049 0.995890 -1.094825 -0.878933 -0.476821 0.008332
1.248394 1.085001 -1.119324 -0.875912 -0.482192 -0.015320
1.202941 1.168152 -1.139787 -0.874630 -0.484085 -0.025452
1.254886 1.073088 -1.113860 -0.877651 -0.479293 -0.000244
1.222421 1.132460 -1.129253 -0.876095 -0.481948 -0.011902
1.508461 0.622286 -1.510623 -0.881985 -0.470931 -0.016572
1.555209 0.534430 -1.507491 -0.882412 -0.470107 -0.017182
1.554312 0.532936 -1.421451 -0.882412 -0.470138 -0.017121
1.506809 0.622303 -1.427626 -0.882015 -0.470840 -0.017609
1.553592 0.531183 -1.335198 -0.882107 -0.470717 -0.016358
1.505380 0.621830 -1.344811 -0.881741 -0.471389 -0.017518
1.601899 0.446548 -1.504359 -0.882565 -0.469802 -0.017426
1.601755 0.443571 -1.415276 -0.882534 -0.469893 -0.016785
1.601744 0.440557 -1.325587 -0.882229 -0.470534 -0.015717
1.459187 0.711674 -1.433802 -0.881405 -0.471999 -0.017884
1.461599 0.710092 -1.513756 -0.881283 -0.472304 -0.015564
1.457049 0.712519 -1.354428 -0.881161 -0.472427 -0.018586
1.464510 0.707101 -1.594864 -0.880581 -0.473708 -0.011750
1.510483 0.621308 -1.593986 -0.881436 -0.472060 -0.014344
1.468148 0.702028 -1.677702 -0.879147 -0.476485 -0.006378
1.513022 0.618895 -1.677896 -0.880093 -0.474624 -0.010926
1.556349 0.535407 -1.593108 -0.881924 -0.471084 -0.016572
1.602160 0.449451 -1.592231 -0.882077 -0.470717 -0.017609
1.557797 0.535608 -1.678090 -0.880642 -0.473495 -0.015198
1.602523 0.452245 -1.678283 -0.880825 -0.473098 -0.017304
1.519714 0.608808 -1.846555 -0.874935 -0.484176 0.000183
1.561488 0.533143 -1.844686 -0.875454 -0.483169 -0.007172
1.559620 0.534775 -1.762224 -0.878445 -0.477645 -0.012360
1.516224 0.614573 -1.762536 -0.877895 -0.478805 -0.006134
1.603223 0.457391 -1.842817 -0.875668 -0.482772 -0.011017
1.602972 0.454891 -1.761913 -0.878628 -0.477218 -0.015503
1.472740 0.694200 -1.762848 -0.876888 -0.480667 0.000061
1.477863 0.684302 -1.848423 -0.873959 -0.485916 0.007355
1.483092 0.673018 -1.932551 -0.870663 -0.491592 0.015870
1.523114 0.602063 -1.928599 -0.871609 -0.490097 0.008362
1.563069 0.530945 -1.924648 -0.872066 -0.489334 0.000610
1.602990 0.459747 -1.920697 -0.872280 -0.488968 -0.003571
1.393469 0.806287 -2.185656 -0.856563 -0.510849 0.072665
1.359273 0.862300 -2.194257 -0.855831 -0.511002 0.079806
1.370307 0.832148 -2.262697 -0.851405 -0.514969 0.099307
1.402412 0.780701 -2.253663 -0.852290 -0.515122 0.090548
1.325047 0.918237 -2.202857 -0.856014 -0.510514 0.081240
1.338172 0.883519 -2.271731 -0.851680 -0.514237 0.100864
1.434458 0.729098 -2.244629 -0.853633 -0.514389 0.081515
1.427608 0.750124 -2.177056 -0.857753 -0.509873 0.065157
1.419949 0.771371 -2.104138 -0.861202 -0.505600 0.051454
1.383691 0.832171 -2.111730 -0.860134 -0.506699 0.058138
1.347375 0.892822 -2.119323 -0.859462 -0.507096 0.064455
1.311029 0.953400 -2.126915 -0.859584 -0.506668 0.065950
1.528375 0.550255 -2.396818 -0.839534 -0.536027 0.088351
1.554272 0.510738 -2.389579 -0.840846 -0.536180 0.073855
1.556917 0.514049 -2.333237 -0.848354 -0.525101 0.067110
1.529116 0.557892 -2.341317 -0.847499 -0.524766 0.079409
1.580128 0.471073 -2.382703 -0.841731 -0.535722 0.066622
1.584688 0.470125 -2.325157 -0.849025 -0.524827 0.060732
1.501255 0.601573 -2.349396 -0.845851 -0.525315 0.092410
1.502396 0.589476 -2.404780 -0.837458 -0.536515 0.103763
1.504383 0.576471 -2.454474 -0.828028 -0.549272 0.112369
1.528325 0.542219 -2.444662 -0.830805 -0.548357 0.094852
1.552116 0.507272 -2.437746 -0.832728 -0.547990 0.078951
1.575833 0.471978 -2.432279 -0.833888 -0.547288 0.071169
1.440774 0.642624 -2.552077 -0.798517 -0.576647 0.172552
1.451975 0.625528 -2.557674 -0.797571 -0.579180 0.168493
1.455917 0.626122 -2.536994 -0.801538 -0.574175 0.166784
1.437917 0.651417 -2.536126 -0.801721 -0.571490 0.174871
1.464882 0.606629 -2.561848 -0.797937 -0.579730 0.164861
1.471967 0.602478 -2.541735 -0.801691 -0.575854 0.160131
1.421894 0.672448 -2.540674 -0.802728 -0.568346 0.180425
1.432760 0.650972 -2.561036 -0.798761 -0.576067 0.173467
1.406860 0.691345 -2.547930 -0.804102 -0.565142 0.184454
1.422424 0.662471 -2.570410 -0.799829 -0.574084 0.175054
1.445830 0.629485 -2.572993 -0.796106 -0.581011 0.169073
1.459302 0.609542 -2.578471 -0.796167 -0.581347 0.167547
1.438584 0.635717 -2.585631 -0.796258 -0.580737 0.169378
1.454476 0.611835 -2.593349 -0.795648 -0.581805 0.168523
1.535707 0.517942 -2.518708 -0.812464 -0.562548 0.152989
1.546285 0.502820 -2.518084 -0.812647 -0.562181 0.153417
1.547028 0.502209 -2.516456 -0.811151 -0.560930 0.165288
1.531794 0.523879 -2.517642 -0.811487 -0.563311 0.155309
1.560706 0.482152 -2.517399 -0.812250 -0.561480 0.157994
1.562685 0.479879 -2.515321 -0.809992 -0.558916 0.177313
1.517408 0.544227 -2.518926 -0.811975 -0.566027 0.142369
1.529045 0.527095 -2.520422 -0.812494 -0.563799 0.148198
1.507295 0.557796 -2.522585 -0.810999 -0.567705 0.141118
1.522556 0.535472 -2.524187 -0.812464 -0.564592 0.145207
1.542704 0.507266 -2.520838 -0.813196 -0.562761 0.148289
1.557373 0.486089 -2.520715 -0.813257 -0.562487 0.148930
1.537376 0.513833 -2.525208 -0.813349 -0.563128 0.146001
1.551974 0.492535 -2.525937 -0.813562 -0.562700 0.146397
1.516782 0.540511 -2.536812 -0.811670 -0.564653 0.149419
1.507881 0.552323 -2.540478 -0.810022 -0.566424 0.151585
1.514013 0.541488 -2.547990 -0.810602 -0.564714 0.154851
1.523890 0.529562 -2.539526 -0.812220 -0.563555 0.150578
1.521709 0.528638 -2.554462 -0.811274 -0.563768 0.154790
1.533493 0.514648 -2.543454 -0.812769 -0.562883 0.150182
1.497472 0.565262 -2.547481 -0.807001 -0.569689 0.155492
1.503188 0.554422 -2.557232 -0.808069 -0.567095 0.159429
1.509097 0.543467 -2.566113 -0.808802 -0.565844 0.160009
1.531391 0.520804 -2.531685 -0.813074 -0.563250 0.146947
1.518560 0.539620 -2.530463 -0.812098 -0.564898 0.146062
1.543797 0.502334 -2.533731 -0.813501 -0.562700 0.146733
1.504881 0.559127 -2.530889 -0.809687 -0.568011 0.147343
1.492144 0.575872 -2.535995 -0.805994 -0.572283 0.151097
1.481958 0.581776 -2.566310 -0.801386 -0.575304 0.163518
1.475133 0.591687 -2.564792 -0.799493 -0.578021 0.163335
1.471372 0.592699 -2.579399 -0.798425 -0.578234 0.167638
1.482424 0.578429 -2.575728 -0.801630 -0.574023 0.166936
1.469234 0.591574 -2.593320 -0.798120 -0.578173 0.169286
1.483098 0.574029 -2.587479 -0.801691 -0.573443 0.168493
1.492844 0.566203 -2.567408 -0.804987 -0.570147 0.163884
1.488437 0.575206 -2.557581 -0.803735 -0.573016 0.160100
1.496306 0.558295 -2.577764 -0.805475 -0.569109 0.165197
1.482143 0.586402 -2.548810 -0.802087 -0.576128 0.157109
1.302600 0.993664 -1.249437 -0.877712 -0.478469 -0.025361
1.352921 0.900391 -1.233110 -0.878414 -0.477309 -0.022706
1.350047 0.902818 -1.173749 -0.877651 -0.478713 -0.023072
1.299136 0.996931 -1.192857 -0.876797 -0.480087 -0.026368
1.403081 0.807164 -1.216798 -0.879299 -0.475814 -0.020356
1.400807 0.808705 -1.154661 -0.878628 -0.477035 -0.020264
1.248126 1.091045 -1.211978 -0.876095 -0.481155 -0.030183
1.252171 1.086967 -1.265775 -0.877132 -0.479354 -0.028352
1.197066 1.185158 -1.231105 -0.875790 -0.481613 -0.032167
1.201688 1.180286 -1.282118 -0.876888 -0.479690 -0.029908
1.256838 1.081897 -1.327397 -0.878140 -0.477706 -0.025269
1.306597 0.989653 -1.314298 -0.878567 -0.477004 -0.023408
1.207021 1.174165 -1.340499 -0.877957 -0.477981 -0.026246
1.356242 0.897456 -1.301206 -0.879147 -0.475997 -0.021699
1.405714 0.805331 -1.288124 -0.879940 -0.474654 -0.020051
1.502808 0.620878 -1.184231 -0.880734 -0.473281 -0.016419
1.552483 0.527788 -1.167966 -0.881161 -0.472549 -0.014710
1.552093 0.526367 -1.097533 -0.880703 -0.473373 -0.014191
1.501781 0.620479 -1.116560 -0.880245 -0.474197 -0.015931
1.602104 0.434714 -1.151706 -0.881314 -0.472304 -0.013886
1.602356 0.432254 -1.078512 -0.880856 -0.473128 -0.013367
1.451369 0.714592 -1.135600 -0.879574 -0.475387 -0.017914
1.453025 0.713998 -1.200507 -0.880123 -0.474349 -0.018281
1.454957 0.713300 -1.275056 -0.880703 -0.473281 -0.018464
1.504027 0.621342 -1.261997 -0.881283 -0.472274 -0.016907
1.552982 0.529430 -1.248945 -0.881649 -0.471603 -0.015412
1.601880 0.437543 -1.235897 -0.881771 -0.471389 -0.014618
-1.507044 0.620755 -1.014678 0.880215 -0.474410 -0.010193
-1.507681 0.620041 -1.031688 0.879849 -0.475021 -0.014008
-1.456486 0.715390 -1.053995 0.879116 -0.476333 -0.015290
-1.456103 0.715611 -1.037297 0.879543 -0.475661 -0.010254
-1.405158 0.810644 -1.076323 0.878048 -0.478225 -0.017335
-1.404632 0.811083 -1.060120 0.878475 -0.477584 -0.011689
-1.508149 0.620187 -1.064030 0.879910 -0.474837 -0.015320
-1.457247 0.715062 -1.085157 0.879177 -0.476150 -0.017151
-1.406207 0.809887 -1.106306 0.878170 -0.477920 -0.019471
-1.455973 0.715760 -1.030239 0.881314 -0.472427 0.007477
-1.505761 0.623043 -1.008144 0.881741 -0.471664 0.004181
-1.455969 0.715873 -1.028002 0.882565 -0.469680 0.021332
-1.504154 0.626118 -1.006848 0.882870 -0.469161 0.019532
-1.404455 0.811309 -1.053104 0.880245 -0.474441 0.006226
-1.404452 0.811430 -1.050681 0.881527 -0.471664 0.020356
-1.552260 0.536215 -0.987579 0.881344 -0.472427 -0.003693
-1.557098 0.527311 -0.992451 0.880490 -0.473891 -0.011505
-1.597114 0.452332 -0.967779 0.880673 -0.473556 -0.010773
-1.606708 0.434572 -0.970420 0.880459 -0.473922 -0.012421
-1.545847 0.548231 -0.988742 0.882839 -0.469405 0.013886
-1.577887 0.488280 -0.975211 0.881924 -0.471328 0.000580
-1.558788 0.524628 -1.009394 0.880306 -0.474197 -0.013184
-1.558958 0.525276 -1.042917 0.880398 -0.473983 -0.013825
-1.609850 0.429183 -0.987106 0.880428 -0.473952 -0.012909
-1.609721 0.430349 -1.021813 0.880551 -0.473708 -0.013153
-1.327005 0.973001 -1.523156 0.878597 -0.477432 -0.008667
-1.322275 0.979830 -1.452345 0.879177 -0.476211 -0.015595
-1.370492 0.890437 -1.446162 0.879727 -0.475143 -0.016907
-1.374442 0.885450 -1.520022 0.879269 -0.476119 -0.011658
-1.418531 0.801051 -1.439981 0.880551 -0.473586 -0.017670
-1.421708 0.797821 -1.516888 0.880276 -0.474227 -0.013977
-1.318007 0.985005 -1.383311 0.879116 -0.476150 -0.020386
-1.366935 0.894107 -1.373677 0.879635 -0.475173 -0.020051
-1.415683 0.803271 -1.364049 0.880398 -0.473800 -0.019440
-1.379168 0.878145 -1.596618 0.878170 -0.478256 -0.004608
-1.332654 0.963396 -1.597496 0.877316 -0.479873 -0.000153
-1.385051 0.867526 -1.677315 0.876370 -0.481582 0.003876
-1.339684 0.949891 -1.677121 0.875332 -0.483383 0.009400
-1.425519 0.792731 -1.595741 0.879391 -0.475997 -0.008515
-1.430271 0.784930 -1.677508 0.877773 -0.479049 -0.001434
-1.286033 1.048540 -1.598374 0.876797 -0.480789 0.004639
-1.279452 1.060503 -1.526290 0.878231 -0.478164 -0.005188
-1.239358 1.133628 -1.599252 0.876766 -0.480819 0.006256
-1.231842 1.147978 -1.529424 0.878170 -0.478286 -0.003967
-1.294218 1.032102 -1.676927 0.874660 -0.484451 0.014985
-1.248703 1.114237 -1.676733 0.874660 -0.484390 0.016755
-1.273939 1.069226 -1.458530 0.878872 -0.476821 -0.013855
-1.268961 1.075946 -1.392947 0.878780 -0.476730 -0.020600
-1.225543 1.158625 -1.464715 0.878780 -0.476974 -0.013276
-1.219855 1.166908 -1.402586 0.878658 -0.476943 -0.020844
-1.358681 0.909063 -1.854029 0.869808 -0.492599 0.027619
-1.348552 0.931360 -1.763783 0.872738 -0.487747 0.018830
-1.392477 0.852593 -1.763471 0.873897 -0.485916 0.012696
-1.400918 0.834429 -1.852160 0.870937 -0.490890 0.021241
-1.436269 0.773568 -1.763160 0.875393 -0.483322 0.006378
-1.443040 0.759538 -1.850292 0.872463 -0.488418 0.014405
-1.409852 0.814117 -1.940453 0.867733 -0.496048 0.030091
-1.369490 0.884260 -1.944404 0.866634 -0.497543 0.036561
-1.418752 0.792736 -2.025422 0.864467 -0.501053 0.039949
-1.380401 0.858210 -2.031457 0.863399 -0.502304 0.046419
-1.450112 0.743729 -1.936502 0.869228 -0.493820 0.023133
-1.457011 0.727036 -2.019388 0.865932 -0.499039 0.033052
-1.329060 0.954242 -1.948356 0.865932 -0.498306 0.042512
-1.316366 0.983525 -1.855898 0.869045 -0.493515 0.033570
-1.288597 1.024142 -1.952307 0.866024 -0.498001 0.044343
-1.274012 1.057901 -1.857766 0.869106 -0.493301 0.035493
-1.341990 0.923531 -2.037491 0.862758 -0.502884 0.052400
-1.303547 0.988777 -2.043525 0.862850 -0.502518 0.054079
-1.304540 1.009955 -1.764095 0.872005 -0.488815 0.024720
-1.260484 1.088464 -1.764406 0.872036 -0.488662 0.026612
-1.536591 0.580129 -2.151255 0.861965 -0.505081 0.043062
-1.537154 0.572738 -2.217527 0.858425 -0.509903 0.055574
-1.505401 0.625116 -2.226560 0.857265 -0.510880 0.063753
-1.502741 0.637045 -2.159855 0.860927 -0.506211 0.050142
-1.473561 0.677262 -2.235595 0.855495 -0.512680 0.072451
-1.468804 0.693735 -2.168455 0.859371 -0.508072 0.057558
-1.537027 0.565322 -2.280705 0.853786 -0.516098 0.068178
-1.507291 0.613280 -2.289573 0.852443 -0.516861 0.078494
-1.477465 0.660998 -2.298442 0.850368 -0.518448 0.089511
-1.499320 0.649029 -2.088954 0.864132 -0.501816 0.037538
-1.535288 0.587486 -2.081362 0.865078 -0.500626 0.030763
-1.495148 0.661032 -2.013354 0.867336 -0.497024 0.025971
-1.533194 0.594801 -2.007319 0.868252 -0.495743 0.018830
-1.463265 0.710348 -2.096546 0.862697 -0.503708 0.044496
-1.571198 0.525796 -2.073769 0.865566 -0.500198 0.023927
-1.570384 0.523063 -2.142655 0.862484 -0.504776 0.036103
-1.607079 0.464031 -2.066177 0.865810 -0.499954 0.019898
-1.604147 0.465921 -2.134054 0.862789 -0.504532 0.031953
-1.571179 0.528418 -2.001284 0.868709 -0.495163 0.011475
-1.609134 0.461959 -1.995250 0.868923 -0.494858 0.007233
-1.568847 0.520204 -2.208493 0.858974 -0.509751 0.047639
-1.566702 0.517205 -2.271836 0.854457 -0.516221 0.058290
-1.600512 0.467593 -2.199459 0.859371 -0.509507 0.043092
-1.596348 0.469007 -2.262967 0.854946 -0.515976 0.052858
-1.430178 0.707450 -2.425341 0.828639 -0.537919 0.154637
-1.424219 0.730993 -2.373637 0.838649 -0.527482 0.135533
-1.452379 0.688123 -2.365556 0.840724 -0.527787 0.120792
-1.456775 0.668195 -2.419083 0.830988 -0.539048 0.137181
-1.480449 0.645010 -2.357477 0.843379 -0.526658 0.106204
-1.483339 0.628692 -2.412519 0.834407 -0.537919 0.119938
-1.417485 0.755555 -2.316180 0.846553 -0.520188 0.112735
-1.447520 0.708396 -2.307311 0.848201 -0.519883 0.101077
-1.461305 0.648527 -2.467609 0.819544 -0.552873 0.150395
-1.435779 0.685363 -2.470600 0.817591 -0.550371 0.169134
-1.464043 0.633157 -2.507967 0.808985 -0.565569 0.160100
-1.440811 0.666196 -2.507999 0.807947 -0.562456 0.175604
-1.486964 0.611438 -2.463388 0.823573 -0.551836 0.130985
-1.494047 0.588809 -2.514683 0.811487 -0.566881 0.141850
-1.411611 0.719567 -2.475827 0.816797 -0.546342 0.185186
-1.403875 0.745925 -2.432158 0.827143 -0.535234 0.171148
-1.388121 0.752455 -2.482172 0.818018 -0.542467 0.191168
-1.377719 0.784011 -2.439254 0.827998 -0.532304 0.176153
-1.419801 0.694962 -2.512181 0.808313 -0.558214 0.187048
-1.399900 0.721590 -2.518436 0.809687 -0.553789 0.194006
-1.395999 0.773700 -2.381717 0.837153 -0.525956 0.149998
-1.387389 0.802553 -2.325048 0.845393 -0.519456 0.124180
-1.367749 0.816326 -2.389797 0.837733 -0.523972 0.153661
-1.357264 0.849472 -2.333917 0.845790 -0.518326 0.126133
-1.546917 0.514539 -2.508341 0.816187 -0.568438 0.103214
-1.541074 0.521937 -2.513337 0.812983 -0.567522 0.130100
-1.527142 0.542800 -2.508425 0.814966 -0.568255 0.113407
-1.541561 0.523463 -2.501357 0.817774 -0.566881 0.099094
-1.516636 0.561324 -2.491386 0.819605 -0.561388 0.114078
-1.537140 0.533412 -2.480843 0.822932 -0.559679 0.097537
-1.537396 0.526543 -2.516010 0.812220 -0.567400 0.135258
-1.519886 0.551762 -2.515284 0.812616 -0.568743 0.127110
-1.558388 0.499876 -2.497090 0.820276 -0.565386 0.086245
-1.558425 0.497923 -2.508919 0.817072 -0.567858 0.099429
-1.576417 0.474163 -2.494225 0.821345 -0.564745 0.080172
-1.574258 0.475511 -2.506901 0.817896 -0.567644 0.093661
-1.558087 0.503651 -2.474622 0.825373 -0.558489 0.082308
-1.579256 0.472966 -2.470561 0.826716 -0.557604 0.074862
-1.556461 0.499770 -2.513873 0.812250 -0.562914 0.152715
-1.554407 0.502253 -2.515279 0.810083 -0.561724 0.167974
-1.572576 0.476952 -2.512221 0.814661 -0.565294 0.129368
-1.571167 0.478427 -2.513818 0.807764 -0.556230 0.195074
-1.301622 1.000798 -1.105672 0.876034 -0.481826 -0.019379
-1.302017 1.000802 -1.121053 0.875790 -0.482009 -0.024140
-1.250291 1.095770 -1.143440 0.874844 -0.483505 -0.028932
-1.250981 1.093650 -1.128085 0.874844 -0.483657 -0.025727
-1.198522 1.190705 -1.165835 0.874477 -0.484024 -0.031434
-1.200702 1.185717 -1.150352 0.874355 -0.484329 -0.029756
-1.303616 0.999346 -1.148685 0.876095 -0.481368 -0.026032
-1.252159 1.094016 -1.169901 0.875271 -0.482620 -0.030305
-1.200655 1.188669 -1.191123 0.874905 -0.483169 -0.032594
-1.255539 1.085001 -1.119325 0.875912 -0.482192 -0.015351
-1.302572 0.998834 -1.098257 0.877316 -0.479812 -0.006195
-1.262031 1.073088 -1.113860 0.877651 -0.479293 -0.000275
-1.304193 0.995890 -1.094825 0.878933 -0.476852 0.008301
-1.210086 1.168152 -1.139787 0.874630 -0.484085 -0.025483
-1.229565 1.132460 -1.129253 0.876095 -0.481948 -0.011933
-1.352766 0.906635 -1.075980 0.878842 -0.477065 0.001648
-1.352989 0.906377 -1.082965 0.877255 -0.479781 -0.014710
-1.352763 0.906720 -1.073360 0.880032 -0.474624 0.014618
-1.353654 0.905771 -1.098678 0.876858 -0.480270 -0.020264
-1.354981 0.904642 -1.127485 0.877071 -0.479781 -0.022431
-1.515606 0.622286 -1.510623 0.881985 -0.470931 -0.016572
-1.513954 0.622303 -1.427626 0.882015 -0.470840 -0.017609
-1.561457 0.532936 -1.421450 0.882412 -0.470138 -0.017121
-1.562353 0.534430 -1.507491 0.882412 -0.470107 -0.017182
-1.608900 0.443571 -1.415276 0.882534 -0.469893 -0.016785
-1.609044 0.446548 -1.504359 0.882565 -0.469802 -0.017426
-1.512524 0.621830 -1.344811 0.881741 -0.471389 -0.017518
-1.560736 0.531183 -1.335198 0.882107 -0.470717 -0.016358
-1.608888 0.440557 -1.325587 0.882229 -0.470534 -0.015717
-1.563493 0.535407 -1.593108 0.881924 -0.471084 -0.016572
-1.517628 0.621308 -1.593986 0.881436 -0.472060 -0.014344
-1.564941 0.535608 -1.678090 0.880642 -0.473525 -0.015198
-1.520166 0.618895 -1.677896 0.880093 -0.474624 -0.010926
-1.609304 0.449451 -1.592231 0.882077 -0.470717 -0.017609
-1.609667 0.452245 -1.678283 0.880825 -0.473098 -0.017304
-1.471654 0.707101 -1.594864 0.880581 -0.473708 -0.011750
-1.468743 0.710092 -1.513756 0.881283 -0.472304 -0.015564
-1.475293 0.702028 -1.677702 0.879147 -0.476485 -0.006378
-1.466332 0.711674 -1.433802 0.881405 -0.471999 -0.017884
-1.464193 0.712519 -1.354428 0.881161 -0.472427 -0.018586
-1.526858 0.608808 -1.846555 0.874935 -0.484176 0.000183
-1.523369 0.614573 -1.762536 0.877895 -0.478805 -0.006134
-1.566764 0.534775 -1.762224 0.878445 -0.477645 -0.012360
-1.568632 0.533143 -1.844686 0.875454 -0.483169 -0.007172
-1.610116 0.454891 -1.761913 0.878628 -0.477218 -0.015503
-1.610367 0.457391 -1.842817 0.875668 -0.482772 -0.011017
-1.570214 0.530945 -1.924648 0.872066 -0.489334 0.000610
-1.530259 0.602063 -1.928599 0.871609 -0.490097 0.008362
-1.610135 0.459747 -1.920697 0.872280 -0.488968 -0.003571
-1.490236 0.673018 -1.932551 0.870663 -0.491592 0.015870
-1.485007 0.684302 -1.848423 0.873959 -0.485916 0.007355
-1.479885 0.694200 -1.762848 0.876888 -0.480667 0.000061
-1.400614 0.806287 -2.185656 0.856563 -0.510849 0.072665
-1.409556 0.780701 -2.253663 0.852290 -0.515122 0.090548
-1.377451 0.832148 -2.262697 0.851405 -0.514969 0.099307
-1.366417 0.862300 -2.194256 0.855831 -0.511002 0.079806
-1.345317 0.883519 -2.271731 0.851680 -0.514237 0.100864
-1.332192 0.918237 -2.202857 0.856014 -0.510514 0.081240
-1.354519 0.892822 -2.119323 0.859462 -0.507096 0.064455
-1.390836 0.832171 -2.111730 0.860134 -0.506699 0.058138
-1.318174 0.953400 -2.126915 0.859584 -0.506668 0.065950
-1.427094 0.771371 -2.104139 0.861202 -0.505600 0.051454
-1.434752 0.750124 -2.177056 0.857753 -0.509873 0.065157
-1.441603 0.729098 -2.244629 0.853633 -0.514389 0.081515
-1.535520 0.550255 -2.396818 0.839534 -0.536027 0.088351
-1.536260 0.557892 -2.341317 0.847499 -0.524766 0.079409
-1.564061 0.514049 -2.333237 0.848354 -0.525101 0.067110
-1.561416 0.510738 -2.389579 0.840846 -0.536180 0.073855
-1.591832 0.470125 -2.325157 0.849025 -0.524827 0.060732
-1.587272 0.471073 -2.382703 0.841731 -0.535722 0.066622
-1.559261 0.507272 -2.437746 0.832728 -0.547990 0.078951
-1.535469 0.542219 -2.444662 0.830805 -0.548357 0.094852
-1.582977 0.471978 -2.432279 0.833888 -0.547288 0.071169
-1.511528 0.576471 -2.454474 0.828028 -0.549272 0.112369
-1.509541 0.589476 -2.404781 0.837458 -0.536515 0.103763
-1.508399 0.601573 -2.349397 0.845851 -0.525315 0.092410
-1.447919 0.642624 -2.552076 0.798517 -0.576647 0.172552
-1.445062 0.651417 -2.536126 0.801721 -0.571490 0.174871
-1.463062 0.626122 -2.536993 0.801538 -0.574175 0.166784
-1.459119 0.625528 -2.557674 0.797571 -0.579180 0.168493
-1.479112 0.602478 -2.541735 0.801691 -0.575854 0.160131
-1.472026 0.606629 -2.561848 0.797937 -0.579730 0.164861
-1.452975 0.629485 -2.572993 0.796106 -0.581011 0.169073
-1.439904 0.650972 -2.561036 0.798761 -0.576067 0.173467
-1.445729 0.635717 -2.585631 0.796258 -0.580737 0.169378
-1.429569 0.662471 -2.570410 0.799829 -0.574114 0.175054
-1.466447 0.609542 -2.578471 0.796167 -0.581347 0.167547
-1.461620 0.611835 -2.593349 0.795648 -0.581805 0.168523
-1.429039 0.672448 -2.540675 0.802728 -0.568346 0.180425
-1.414004 0.691345 -2.547930 0.804102 -0.565142 0.184454
-1.542851 0.517942 -2.518708 0.812464 -0.562517 0.153020
-1.538939 0.523879 -2.517642 0.811487 -0.563311 0.155309
-1.554172 0.502209 -2.516456 0.811151 -0.560930 0.165319
-1.553429 0.502820 -2.518084 0.812616 -0.562181 0.153447
-1.569829 0.479879 -2.515321 0.809992 -0.558946 0.177343
-1.567850 0.482152 -2.517399 0.812250 -0.561449 0.158025
-1.549848 0.507266 -2.520838 0.813196 -0.562761 0.148289
-1.536190 0.527095 -2.520422 0.812494 -0.563799 0.148198
-1.544520 0.513833 -2.525208 0.813349 -0.563128 0.146001
-1.529701 0.535472 -2.524187 0.812464 -0.564592 0.145207
-1.564517 0.486089 -2.520715 0.813257 -0.562487 0.148930
-1.559119 0.492535 -2.525937 0.813562 -0.562700 0.146397
-1.524552 0.544227 -2.518927 0.811975 -0.566027 0.142369
-1.514439 0.557796 -2.522585 0.810999 -0.567705 0.141118
-1.523927 0.540511 -2.536812 0.811670 -0.564653 0.149419
-1.531034 0.529562 -2.539526 0.812220 -0.563555 0.150578
-1.521157 0.541488 -2.547990 0.810602 -0.564714 0.154851
-1.515026 0.552323 -2.540478 0.810022 -0.566424 0.151585
-1.510332 0.554422 -2.557232 0.808069 -0.567095 0.159429
-1.504616 0.565262 -2.547481 0.807001 -0.569659 0.155492
-1.540637 0.514648 -2.543454 0.812769 -0.562853 0.150182
-1.528854 0.528638 -2.554462 0.811274 -0.563768 0.154790
-1.516242 0.543467 -2.566113 0.808802 -0.565844 0.160009
-1.512025 0.559127 -2.530889 0.809687 -0.568011 0.147313
-1.525705 0.539620 -2.530463 0.812098 -0.564898 0.146062
-1.499289 0.575872 -2.535995 0.805994 -0.572283 0.151097
-1.538535 0.520804 -2.531685 0.813074 -0.563250 0.146947
-1.550942 0.502334 -2.533731 0.813501 -0.562700 0.146702
-1.489102 0.581776 -2.566310 0.801386 -0.575304 0.163518
-1.489568 0.578429 -2.575728 0.801630 -0.574023 0.166936
-1.478516 0.592699 -2.579400 0.798425 -0.578234 0.167638
-1.482278 0.591687 -2.564792 0.799493 -0.578021 0.163305
-1.490243 0.574029 -2.587479 0.801691 -0.573443 0.168523
-1.476379 0.591574 -2.593320 0.798120 -0.578173 0.169286
-1.489287 0.586402 -2.548810 0.802087 -0.576128 0.157109
-1.495582 0.575206 -2.557581 0.803735 -0.573016 0.160100
-1.499988 0.566203 -2.567408 0.804987 -0.570147 0.163884
-1.503451 0.558295 -2.577764 0.805475 -0.569109 0.165197
-1.309744 0.993664 -1.249437 0.877712 -0.478469 -0.025361
-1.306281 0.996931 -1.192857 0.876797 -0.480087 -0.026368
-1.357191 0.902818 -1.173749 0.877651 -0.478713 -0.023072
-1.360066 0.900391 -1.233110 0.878414 -0.477309 -0.022706
-1.407952 0.808705 -1.154661 0.878628 -0.477035 -0.020264
-1.410225 0.807164 -1.216798 0.879299 -0.475814 -0.020356
-1.363387 0.897456 -1.301206 0.879147 -0.475997 -0.021699
-1.313742 0.989653 -1.314298 0.878567 -0.477035 -0.023408
-1.412859 0.805331 -1.288124 0.879940 -0.474654 -0.020051
-1.263983 1.081897 -1.327397 0.878140 -0.477706 -0.025269
-1.259315 1.086967 -1.265775 0.877132 -0.479354 -0.028352
-1.214166 1.174165 -1.340499 0.877957 -0.477981 -0.026246
-1.208833 1.180286 -1.282118 0.876888 -0.479690 -0.029908
-1.255270 1.091045 -1.211978 0.876095 -0.481155 -0.030183
-1.204211 1.185158 -1.231105 0.875790 -0.481613 -0.032167
-1.509952 0.620878 -1.184231 0.880734 -0.473281 -0.016419
-1.508925 0.620479 -1.116560 0.880245 -0.474197 -0.015931
-1.559238 0.526367 -1.097533 0.880703 -0.473373 -0.014191
-1.559627 0.527788 -1.167966 0.881161 -0.472549 -0.014710
-1.609500 0.432254 -1.078512 0.880856 -0.473128 -0.013367
-1.609248 0.434714 -1.151706 0.881314 -0.472304 -0.013886
-1.560127 0.529430 -1.248946 0.881649 -0.471603 -0.015412
-1.511171 0.621342 -1.261997 0.881283 -0.472274 -0.016907
-1.609024 0.437543 -1.235897 0.881771 -0.471389 -0.014618
-1.462101 0.713300 -1.275056 0.880703 -0.473281 -0.018464
-1.460170 0.713998 -1.200507 0.880123 -0.474349 -0.018281
-1.458513 0.714592 -1.135601 0.879574 -0.475387 -0.017914
4 0 1 2 3
4 3 2 4 5
4 1 6 7 2
4 2 7 8 4
4 0 3 9 10
4 10 9 11 12
4 3 5 13 9
4 9 13 14 11
4 0 10 15 16
4 16 15 17 18
4 10 12 19 15
4 15 19 20 17
4 0 16 21 1
4 1 21 22 6
4 16 18 23 21
4 21 23 24 22
4 25 26 27 28
4 28 27 29 30
4 26 31 32 27
4 27 32 33 29
4 25 28 34 35
4 35 34 36 37
4 28 30 38 34
4 34 38 39 36
4 25 35 40 41
4 41 40 42 43
4 35 37 44 40
4 40 44 45 42
4 25 41 46 26
4 26 46 47 31
4 41 43 48 46
4 46 48 49 47
4 50 51 52 53
4 53 52 48 43
4 51 54 55 52
4 52 55 49 48
4 50 53 56 57
4 57 56 58 59
4 53 43 42 56
4 56 42 45 58
4 50 57 60 61
4 61 60 62 63
4 57 59 64 60
4 60 64 65 62
4 50 61 66 51
4 51 66 67 54
4 61 63 68 66
4 66 68 69 67
4 70 71 72 73
4 73 72 74 75
4 71 76 77 72
4 72 77 78 74
4 70 73 79 80
4 80 79 81 82
4 73 75 83 79
4 79 83 84 81
4 70 80 85 86
4 86 85 87 88
4 80 82 89 85
4 85 89 90 87
4 70 86 91 71
4 71 91 92 76
4 86 88 93 91
4 91 93 69 92
4 94 95 96 97
4 97 96 98 99
4 95 100 101 96
4 96 101 78 98
4 94 97 102 103
4 103 102 104 105
4 97 99 106 102
4 102 106 107 104
4 94 103 108 109
4 109 108 110 111
4 103 105 112 108
4 108 112 113 110
4 94 109 114 95
4 95 114 115 100
4 109 111 116 114
4 114 116 117 115
4 118 119 120 121
4 121 120 122 123
4 119 124 125 120
4 120 125 117 122
4 118 121 126 127
4 127 126 128 129
4 121 123 130 126
4 126 130 131 128
4 118 127 132 119
4 119 132 133 124
4 127 129 134 132
4 132 134 135 133
4 136 137 138 139
4 139 138 140 141
4 137 142 143 138
4 138 143 144 140
4 136 139 145 146
4 146 145 7 6
4 139 141 147 145
4 145 147 8 7
4 136 146 148 149
4 149 148 150 151
4 146 6 22 148
4 148 22 24 150
4 136 149 152 137
4 137 152 153 142
4 149 151 154 152
4 152 154 155 153
4 156 157 158 159
4 159 158 160 161
4 157 162 163 158
4 158 163 164 160
4 156 159 165 166
4 166 165 32 31
4 159 161 167 165
4 165 167 33 32
4 156 166 168 169
4 169 168 170 171
4 166 31 47 168
4 168 47 49 170
4 156 169 172 157
4 157 172 173 162
4 169 171 174 172
4 172 174 175 173
4 176 177 178 179
4 179 178 174 171
4 177 180 181 178
4 178 181 175 174
4 176 179 182 183
4 183 182 55 54
4 179 171 170 182
4 182 170 49 55
4 176 183 184 185
4 185 184 93 88
4 183 54 67 184
4 184 67 69 93
4 176 185 186 177
4 177 186 187 180
4 185 88 87 186
4 186 87 90 187
4 188 189 190 191
4 191 190 106 99
4 189 192 193 190
4 190 193 107 106
4 188 191 194 195
4 195 194 77 76
4 191 99 98 194
4 194 98 78 77
4 188 195 196 197
4 197 196 68 63
4 195 76 92 196
4 196 92 69 68
4 188 197 198 189
4 189 198 199 192
4 197 63 62 198
4 198 62 65 199
4 200 201 202 203
4 203 202 83 75
4 201 204 205 202
4 202 205 84 83
4 200 203 206 207
4 207 206 101 100
4 203 75 74 206
4 206 74 78 101
4 200 207 208 209
4 209 208 125 124
4 207 100 115 208
4 208 115 117 125
4 200 209 210 201
4 201 210 211 204
4 209 124 133 210
4 210 133 135 211
4 212 213 214 215
4 215 214 116 111
4 213 216 217 214
4 214 217 117 116
4 212 215 218 219
4 219 218 220 221
4 215 111 110 218
4 218 110 113 220
4 212 219 222 213
4 213 222 223 216
4 219 221 224 222
4 222 224 225 223
4 226 227 228 229
4 229 228 130 123
4 227 230 231 228
4 228 231 131 130
4 226 229 232 233
4 233 232 234 235
4 229 123 122 232
4 232 122 117 234
4 226 233 236 227
4 227 236 237 230
4 233 235 238 236
4 236 238 239 237
4 240 241 242 243
4 243 242 244 245
4 241 246 247 242
4 242 247 248 244
4 240 243 249 250
4 250 249 238 235
4 243 245 251 249
4 249 251 239 238
4 240 250 252 241
4 241 252 253 246
4 250 235 234 252
4 252 234 117 253
4 254 255 256 257
4 257 256 258 259
4 255 216 223 256
4 256 223 225 258
4 254 257 260 261
4 261 260 247 246
4 257 259 262 260
4 260 262 248 247
4 254 261 263 255
4 255 263 217 216
4 261 246 253 263
4 263 253 117 217
4 264 265 266 267
4 267 266 147 141
4 265 268 269 266
4 266 269 8 147
4 264 267 270 271
4 271 270 272 273
4 267 141 140 270
4 270 140 144 272
4 264 271 274 275
4 275 274 38 30
4 271 273 276 274
4 274 276 39 38
4 264 275 277 265
4 265 277 278 268
4 275 30 29 277
4 277 29 33 278
4 279 280 281 282
4 282 281 13 5
4 280 283 284 281
4 281 284 14 13
4 279 282 285 286
4 286 285 269 268
4 282 5 4 285
4 285 4 8 269
4 279 286 287 288
4 288 287 167 161
4 286 268 278 287
4 287 278 33 167
4 279 288 289 280
4 280 289 290 283
4 288 161 160 289
4 289 160 164 290
4 291 292 293 294
4 294 293 295 296
4 292 297 298 293
4 293 298 299 295
4 291 294 300 301
4 301 300 302 303
4 294 296 304 300
4 300 304 305 302
4 291 301 306 307
4 307 306 308 309
4 301 303 310 306
4 306 310 311 308
4 291 307 312 292
4 292 312 313 297
4 307 309 314 312
4 312 314 315 313
4 316 317 318 319
4 319 318 320 321
4 317 322 323 318
4 318 323 324 320
4 316 319 325 326
4 326 325 327 328
4 319 321 329 325
4 325 329 330 327
4 316 326 331 332
4 332 331 333 334
4 326 328 335 331
4 331 335 336 333
4 316 332 337 317
4 317 337 338 322
4 332 334 339 337
4 337 339 340 338
4 341 342 343 344
4 344 343 345 346
4 342 328 327 343
4 343 327 330 345
4 341 344 347 348
4 348 347 349 350
4 344 346 351 347
4 347 351 352 349
4 341 348 353 354
4 354 353 355 356
4 348 350 357 353
4 353 357 358 355
4 341 354 359 342
4 342 359 335 328
4 354 356 360 359
4 359 360 336 335
4 361 362 363 364
4 364 363 365 366
4 362 367 368 363
4 363 368 369 365
4 361 364 370 371
4 371 370 372 373
4 364 366 374 370
4 370 374 352 372
4 361 371 375 376
4 376 375 377 378
4 371 373 379 375
4 375 379 380 377
4 361 376 381 362
4 362 381 382 367
4 376 378 383 381
4 381 383 384 382
4 385 386 387 388
4 388 387 389 390
4 386 391 392 387
4 387 392 369 389
4 385 388 393 394
4 394 393 395 396
4 388 390 397 393
4 393 397 398 395
4 385 394 399 400
4 400 399 401 402
4 394 396 403 399
4 399 403 404 401
4 385 400 405 386
4 386 405 406 391
4 400 402 407 405
4 405 407 408 406
4 409 410 411 412
4 412 411 413 414
4 410 415 416 411
4 411 416 398 413
4 409 412 417 418
4 418 417 419 420
4 412 414 421 417
4 417 421 422 419
4 409 418 423 410
4 410 423 424 415
4 418 420 425 423
4 423 425 426 424
4 427 428 429 430
4 430 429 431 432
4 428 433 434 429
4 429 434 435 431
4 427 430 436 437
4 437 436 438 439
4 430 432 440 436
4 436 440 441 438
4 427 437 442 443
4 443 442 304 296
4 437 439 444 442
4 442 444 305 304
4 427 443 445 428
4 428 445 446 433
4 443 296 295 445
4 445 295 299 446
4 447 448 449 450
4 450 449 451 452
4 448 453 454 449
4 449 454 455 451
4 447 450 456 457
4 457 456 458 459
4 450 452 460 456
4 456 460 461 458
4 447 457 462 463
4 463 462 329 321
4 457 459 464 462
4 462 464 330 329
4 447 463 465 448
4 448 465 466 453
4 463 321 320 465
4 465 320 324 466
4 467 468 469 470
4 470 469 471 472
4 468 459 458 469
4 469 458 461 471
4 467 470 473 474
4 474 473 379 373
4 470 472 475 473
4 473 475 380 379
4 467 474 476 477
4 477 476 351 346
4 474 373 372 476
4 476 372 352 351
4 467 477 478 468
4 468 478 464 459
4 477 346 345 478
4 478 345 330 464
4 479 480 481 482
4 482 481 483 484
4 480 391 406 481
4 481 406 408 483
4 479 482 485 486
4 486 485 357 350
4 482 484 487 485
4 485 487 358 357
4 479 486 488 489
4 489 488 374 366
4 486 350 349 488
4 488 349 352 374
4 479 489 490 480
4 480 490 392 391
4 489 366 365 490
4 490 365 369 392
4 491 492 493 494
4 494 493 495 496
4 492 367 382 493
4 493 382 384 495
4 491 494 497 498
4 498 497 421 414
4 494 496 499 497
4 497 499 422 421
4 491 498 500 501
4 501 500 397 390
4 498 414 413 500
4 500 413 398 397
4 491 501 502 492
4 492 502 368 367
4 501 390 389 502
4 502 389 369 368
4 503 504 505 506
4 506 505 507 508
4 504 396 395 505
4 505 395 398 507
4 503 506 509 510
4 510 509 511 512
4 506 508 513 509
4 509 513 514 511
4 503 510 515 504
4 504 515 403 396
4 510 512 516 515
4 515 516 404 403
4 517 518 519 520
4 520 519 521 522
4 518 415 424 519
4 519 424 426 521
4 517 520 523 524
4 524 523 525 526
4 520 522 527 523
4 523 527 528 525
4 517 524 529 518
4 518 529 416 415
4 524 526 530 529
4 529 530 398 416
4 531 532 533 534
4 534 533 535 536
4 532 537 538 533
4 533 538 539 535
4 531 534 540 541
4 541 540 530 526
4 534 536 542 540
4 540 542 398 530
4 531 541 543 532
4 532 543 544 537
4 541 526 525 543
4 543 525 528 544
4 545 546 547 548
4 548 547 513 508
4 546 549 550 547
4 547 550 514 513
4 545 548 551 552
4 552 551 542 536
4 548 508 507 551
4 551 507 398 542
4 545 552 553 546
4 546 553 554 549
4 552 536 535 553
4 553 535 539 554
4 555 556 557 558
4 558 557 559 560
4 556 433 446 557
4 557 446 299 559
4 555 558 561 562
4 562 561 323 322
4 558 560 563 561
4 561 563 324 323
4 555 562 564 565
4 565 564 566 567
4 562 322 338 564
4 564 338 340 566
4 555 565 568 556
4 556 568 434 433
4 565 567 569 568
4 568 569 435 434
4 570 571 572 573
4 573 572 574 575
4 571 297 313 572
4 572 313 315 574
4 570 573 576 577
4 577 576 454 453
4 573 575 578 576
4 576 578 455 454
4 570 577 579 580
4 580 579 563 560
4 577 453 466 579
4 579 466 324 563
4 570 580 581 571
4 571 581 298 297
4 580 560 559 581
4 581 559 299 298
