ply
format ascii 1.0
comment Created by Blender 2.79 (sub 0) - www.blender.org, source file: 'm3_v2.blend'
element vertex 896
property float x
property float y
property float z
property float nx
property float ny
property float nz
element face 768
property list uchar uint vertex_indices
end_header
0.631230 -0.840538 -4.515048 0.000000 0.914945 -0.403516
0.631230 -0.840538 -4.242651 0.000000 0.999969 0.000000
0.646181 -0.842011 -4.242651 0.195074 0.980773 0.000000
0.646181 -0.842011 -4.515048 0.178503 0.897366 -0.403516
0.660557 -0.846372 -4.242651 0.382672 0.923856 0.000000
0.660557 -0.846372 -4.515048 0.350139 0.845302 -0.403516
0.673806 -0.853453 -4.242651 0.555559 0.831446 0.000000
0.673806 -0.853453 -4.515048 0.508316 0.760735 -0.403516
0.685419 -0.862984 -4.242651 0.707083 0.707083 0.000000
0.685419 -0.862984 -4.515048 0.646962 0.646962 -0.403516
0.694949 -0.874597 -4.242651 0.831446 0.555559 0.000000
0.694949 -0.874597 -4.515048 0.760735 0.508316 -0.403546
0.702031 -0.887846 -4.242651 0.923856 0.382672 0.000000
0.702031 -0.887846 -4.515048 0.845302 0.350108 -0.403516
0.706392 -0.902222 -4.242651 0.980773 0.195074 0.000000
0.706392 -0.902222 -4.515048 0.897366 0.178472 -0.403546
0.707864 -0.917172 -4.242651 1.000000 0.000000 0.000000
0.707864 -0.917172 -4.515048 0.914914 0.000000 -0.403577
0.706392 -0.932123 -4.242651 0.980773 -0.195074 0.000000
0.706392 -0.932123 -4.515048 0.897366 -0.178472 -0.403546
0.702031 -0.946499 -4.242651 0.923856 -0.382672 0.000000
0.702031 -0.946499 -4.515048 0.845302 -0.350108 -0.403516
0.694949 -0.959748 -4.242651 0.831446 -0.555559 0.000000
0.694949 -0.959748 -4.515048 0.760735 -0.508316 -0.403546
0.685419 -0.971360 -4.242651 0.707083 -0.707083 0.000000
0.685419 -0.971360 -4.515048 0.646962 -0.646962 -0.403516
0.673806 -0.980891 -4.242651 0.555559 -0.831446 0.000000
0.673806 -0.980891 -4.515048 0.508316 -0.760735 -0.403516
0.660557 -0.987972 -4.242651 0.382672 -0.923856 0.000000
0.660557 -0.987972 -4.515048 0.350139 -0.845302 -0.403546
0.646181 -0.992333 -4.242651 0.195074 -0.980773 0.000000
0.646181 -0.992333 -4.515048 0.178472 -0.897366 -0.403516
0.631230 -0.993806 -4.242651 0.000000 -1.000000 0.000000
0.631230 -0.993806 -4.515048 0.000000 -0.914945 -0.403546
0.616280 -0.992333 -4.242651 -0.195074 -0.980773 0.000000
0.616280 -0.992333 -4.515048 -0.178503 -0.897366 -0.403546
0.601904 -0.987972 -4.242651 -0.382672 -0.923856 0.000000
0.601904 -0.987972 -4.515048 -0.350139 -0.845302 -0.403516
0.588655 -0.980891 -4.242651 -0.555559 -0.831446 0.000000
0.588655 -0.980891 -4.515048 -0.508316 -0.760735 -0.403546
0.577042 -0.971360 -4.242651 -0.707083 -0.707083 0.000000
0.577042 -0.971360 -4.515048 -0.646962 -0.646962 -0.403546
0.567512 -0.959747 -4.242651 -0.831446 -0.555559 0.000000
0.567512 -0.959748 -4.515048 -0.760735 -0.508316 -0.403546
0.560430 -0.946499 -4.242651 -0.923856 -0.382672 0.000000
0.560430 -0.946499 -4.515048 -0.845302 -0.350108 -0.403516
0.556069 -0.932123 -4.242651 -0.980773 -0.195074 0.000000
0.556069 -0.932123 -4.515048 -0.897366 -0.178472 -0.403546
0.554596 -0.917172 -4.242651 -1.000000 0.000000 0.000000
0.554596 -0.917172 -4.515048 -0.914914 0.000000 -0.403577
0.556069 -0.902222 -4.242651 -0.980773 0.195074 0.000000
0.556069 -0.902222 -4.515048 -0.897366 0.178472 -0.403546
0.560430 -0.887846 -4.242651 -0.923856 0.382672 0.000000
0.560430 -0.887846 -4.515048 -0.845302 0.350108 -0.403516
0.567512 -0.874597 -4.242651 -0.831446 0.555559 0.000000
0.567512 -0.874597 -4.515048 -0.760735 0.508316 -0.403546
0.577042 -0.862984 -4.242651 -0.707083 0.707083 0.000000
0.577042 -0.862984 -4.515048 -0.646962 0.646962 -0.403516
0.588655 -0.853453 -4.242651 -0.555559 0.831446 0.000000
0.588655 -0.853453 -4.515048 -0.508316 0.760735 -0.403546
0.601904 -0.846372 -4.242651 -0.382672 0.923856 0.000000
0.601904 -0.846372 -4.515048 -0.350108 0.845302 -0.403546
0.616280 -0.842011 -4.515048 -0.178472 0.897366 -0.403516
0.616280 -0.842011 -4.242651 -0.195074 0.980773 0.000000
0.617988 -0.850596 -4.517604 0.109226 -0.549150 -0.828547
0.631230 -0.849292 -4.517604 0.000000 -0.559893 -0.828547
0.631230 -0.852210 -4.515048 0.000000 -0.906125 -0.422926
0.618557 -0.853458 -4.515048 0.176763 -0.888730 -0.422926
0.593518 -0.973612 -4.517604 0.311045 0.465529 -0.828547
0.583232 -0.965171 -4.517604 0.395886 0.395917 -0.828547
0.585295 -0.963107 -4.515048 0.640736 0.640736 -0.422956
0.595139 -0.971186 -4.515048 0.503433 0.753410 -0.422926
0.697806 -0.903929 -4.517604 -0.549120 -0.109226 -0.828547
0.699110 -0.917172 -4.517604 -0.559893 0.000000 -0.828547
0.696192 -0.917172 -4.515048 -0.906125 0.000000 -0.422926
0.694944 -0.904499 -4.515048 -0.888730 -0.176763 -0.422926
0.568517 -0.891195 -4.517604 0.517289 -0.214270 -0.828516
0.574790 -0.879460 -4.517604 0.465560 -0.311045 -0.828516
0.577216 -0.881081 -4.515048 0.753410 -0.503403 -0.422926
0.571213 -0.892312 -4.515048 0.837153 -0.346751 -0.422926
0.657207 -0.979885 -4.517604 -0.214240 0.517289 -0.828547
0.644473 -0.983748 -4.517604 -0.109226 0.549150 -0.828547
0.643904 -0.980886 -4.515048 -0.176763 0.888730 -0.422926
0.656090 -0.977189 -4.515048 -0.346751 0.837153 -0.422926
0.657207 -0.854459 -4.517604 -0.214270 -0.517289 -0.828547
0.668942 -0.860732 -4.517604 -0.311045 -0.465529 -0.828547
0.667321 -0.863158 -4.515048 -0.503433 -0.753410 -0.422926
0.656090 -0.857155 -4.515048 -0.346782 -0.837153 -0.422926
0.574790 -0.954884 -4.517604 0.465529 0.311045 -0.828547
0.568517 -0.943149 -4.517604 0.532640 0.214362 -0.818720
0.571213 -0.942032 -4.515048 0.837153 0.346751 -0.422926
0.577216 -0.953263 -4.515048 0.753410 0.503433 -0.422956
0.697806 -0.930415 -4.517604 -0.549120 0.109226 -0.828547
0.693943 -0.943149 -4.517604 -0.517289 0.214240 -0.828547
0.691247 -0.942032 -4.515048 -0.837153 0.346751 -0.422926
0.694944 -0.929846 -4.515048 -0.888730 0.176763 -0.422956
0.583232 -0.869174 -4.517604 0.395917 -0.395917 -0.828516
0.593518 -0.860732 -4.517604 0.311075 -0.465529 -0.828516
0.595139 -0.863158 -4.515048 0.503433 -0.753410 -0.422926
0.585295 -0.871237 -4.515048 0.640736 -0.640736 -0.422926
0.631230 -0.985052 -4.517604 0.000000 0.559893 -0.828547
0.617988 -0.983748 -4.517604 0.109226 0.549120 -0.828547
0.618557 -0.980886 -4.515048 0.176763 0.888730 -0.422956
0.631230 -0.982134 -4.515048 0.000000 0.906125 -0.422926
0.679229 -0.869174 -4.517604 -0.395917 -0.395917 -0.828547
0.687670 -0.879460 -4.517604 -0.465560 -0.311045 -0.828516
0.685244 -0.881081 -4.515048 -0.753410 -0.503403 -0.422926
0.677165 -0.871237 -4.515048 -0.640736 -0.640736 -0.422926
0.564655 -0.930415 -4.517604 0.578082 0.114963 -0.807825
0.563350 -0.917172 -4.517604 0.574114 0.005768 -0.818720
0.566268 -0.917172 -4.515048 0.906125 0.000000 -0.422926
0.567516 -0.929846 -4.515048 0.888730 0.176763 -0.422926
0.687670 -0.954884 -4.517604 -0.465560 0.311045 -0.828516
0.679229 -0.965171 -4.517604 -0.395917 0.395917 -0.828547
0.677165 -0.963107 -4.515048 -0.640736 0.640736 -0.422926
0.685244 -0.953263 -4.515048 -0.753441 0.503403 -0.422926
0.605254 -0.854459 -4.517604 0.214270 -0.517289 -0.828547
0.606370 -0.857155 -4.515048 0.346751 -0.837153 -0.422956
0.605254 -0.979885 -4.517604 0.214270 0.517289 -0.828547
0.606370 -0.977189 -4.515048 0.346751 0.837153 -0.422956
0.693943 -0.891196 -4.517604 -0.517289 -0.214240 -0.828547
0.691247 -0.892312 -4.515048 -0.837153 -0.346751 -0.422926
0.564655 -0.903929 -4.517604 0.549120 -0.109226 -0.828547
0.567516 -0.904499 -4.515048 0.888730 -0.176763 -0.422926
0.668942 -0.973612 -4.517604 -0.311045 0.465529 -0.828547
0.667321 -0.971186 -4.515048 -0.503433 0.753410 -0.422926
0.644473 -0.850596 -4.517604 -0.109226 -0.549150 -0.828547
0.643904 -0.853458 -4.515048 -0.176763 -0.888730 -0.422926
0.606370 -0.857155 -4.242651 0.382672 -0.923856 0.000000
0.595139 -0.863158 -4.242651 0.555559 -0.831446 0.000000
0.567516 -0.904499 -4.242651 0.980773 -0.195074 0.000000
0.566268 -0.917172 -4.242651 0.999969 0.000000 0.000000
0.585295 -0.963107 -4.242651 0.707083 0.707083 0.000000
0.595139 -0.971186 -4.242651 0.555559 0.831446 0.000000
0.643904 -0.980886 -4.242651 -0.195074 0.980773 0.000000
0.656090 -0.977189 -4.242651 -0.382672 0.923856 0.000000
0.691247 -0.942032 -4.242651 -0.923856 0.382672 0.000000
0.694944 -0.929846 -4.242651 -0.980773 0.195074 0.000000
0.685244 -0.881081 -4.242651 -0.831446 -0.555559 0.000000
0.677165 -0.871237 -4.242651 -0.707083 -0.707083 0.000000
0.618557 -0.853458 -4.242651 0.195074 -0.980773 0.000000
0.571213 -0.892312 -4.242651 0.923856 -0.382672 0.000000
0.577216 -0.953263 -4.242651 0.831446 0.555559 0.000000
0.631230 -0.982134 -4.242651 0.000000 1.000000 0.000000
0.685244 -0.953263 -4.242651 -0.831446 0.555559 0.000000
0.691247 -0.892312 -4.242651 -0.923856 -0.382672 0.000000
0.643904 -0.853458 -4.242651 -0.195074 -0.980773 0.000000
0.631230 -0.852210 -4.242651 0.000000 -1.000000 0.000000
0.577216 -0.881081 -4.242651 0.831446 -0.555559 0.000000
0.571213 -0.942032 -4.242651 0.923856 0.382672 0.000000
0.618557 -0.980886 -4.242651 0.195074 0.980773 0.000000
0.677165 -0.963107 -4.242651 -0.707083 0.707083 0.000000
0.694944 -0.904499 -4.242651 -0.980773 -0.195074 0.000000
0.656090 -0.857155 -4.242651 -0.382672 -0.923856 0.000000
0.585295 -0.871237 -4.242651 0.707083 -0.707083 0.000000
0.567516 -0.929846 -4.242651 0.980773 0.195074 0.000000
0.606370 -0.977189 -4.242651 0.382672 0.923856 0.000000
0.667321 -0.971186 -4.242651 -0.555559 0.831446 0.000000
0.696192 -0.917172 -4.242651 -1.000000 0.000000 0.000000
0.667321 -0.863158 -4.242651 -0.555559 -0.831446 0.000000
0.616849 -0.844873 -4.517604 -0.111179 0.559038 -0.821619
0.631230 -0.843456 -4.517604 0.000000 0.569994 -0.821619
0.631230 -0.846374 -4.519128 0.000000 0.028901 -0.999573
0.617418 -0.847735 -4.519128 -0.005615 0.028352 -0.999573
0.590276 -0.978465 -4.517604 -0.316660 -0.473922 -0.821619
0.579105 -0.969297 -4.517604 -0.403027 -0.403058 -0.821619
0.581169 -0.967234 -4.519128 -0.020447 -0.020447 -0.999573
0.591897 -0.976038 -4.519128 -0.016053 -0.024018 -0.999573
0.703530 -0.902791 -4.517604 0.559038 0.111179 -0.821619
0.704946 -0.917172 -4.517604 0.569964 0.000000 -0.821650
0.702028 -0.917172 -4.519128 0.028932 0.000000 -0.999573
0.700668 -0.903360 -4.519128 0.028382 0.005615 -0.999573
0.563126 -0.888962 -4.517604 -0.526627 0.218116 -0.821619
0.569938 -0.876218 -4.517604 -0.473952 0.316660 -0.821619
0.572364 -0.877839 -4.519128 -0.024049 0.016053 -0.999573
0.565822 -0.890079 -4.519128 -0.026704 0.011048 -0.999573
0.659440 -0.985277 -4.517604 0.218085 -0.526597 -0.821619
0.645612 -0.989472 -4.517604 0.111179 -0.559038 -0.821619
0.645042 -0.986610 -4.519128 0.005615 -0.028352 -0.999573
0.658324 -0.982581 -4.519128 0.011048 -0.026704 -0.999573
0.659440 -0.849068 -4.517604 0.218116 0.526597 -0.821619
0.672185 -0.855880 -4.517604 0.316660 0.473922 -0.821619
0.670564 -0.858306 -4.519128 0.016053 0.024018 -0.999573
0.658324 -0.851763 -4.519128 0.011048 0.026704 -0.999573
0.569938 -0.958126 -4.517604 -0.473922 -0.316660 -0.821619
0.563126 -0.945382 -4.517604 -0.537950 -0.225318 -0.812281
0.565821 -0.944265 -4.519128 -0.026154 -0.020508 -0.999420
0.572364 -0.956505 -4.519128 -0.024018 -0.016053 -0.999573
0.703530 -0.931553 -4.517604 0.559038 -0.111179 -0.821619
0.699335 -0.945382 -4.517604 0.526627 -0.218116 -0.821619
0.696639 -0.944265 -4.519128 0.026704 -0.011048 -0.999573
0.700668 -0.930984 -4.519128 0.028352 -0.005615 -0.999573
0.579105 -0.865047 -4.517604 -0.403058 0.403027 -0.821619
0.590276 -0.855880 -4.517604 -0.316660 0.473922 -0.821619
0.591897 -0.858306 -4.519128 -0.016022 0.024018 -0.999573
0.581169 -0.867110 -4.519128 -0.020417 0.020417 -0.999573
0.631230 -0.990888 -4.517604 0.000000 -0.569994 -0.821619
0.616849 -0.989472 -4.517604 -0.111179 -0.559038 -0.821619
0.617418 -0.986610 -4.519128 -0.005615 -0.028352 -0.999573
0.631230 -0.987970 -4.519128 0.000000 -0.028901 -0.999573
0.683355 -0.865047 -4.517604 0.403058 0.403027 -0.821619
0.692523 -0.876218 -4.517604 0.473922 0.316660 -0.821619
0.690097 -0.877839 -4.519128 0.024018 0.016053 -0.999573
0.681292 -0.867110 -4.519128 0.020447 0.020417 -0.999573
0.558931 -0.931553 -4.517604 -0.583728 -0.116092 -0.803583
0.557514 -0.917172 -4.517604 -0.583209 0.002319 -0.812281
0.560432 -0.917172 -4.519128 -0.032075 0.008911 -0.999420
0.561793 -0.930984 -4.519644 -0.029298 -0.005799 -0.999542
0.692523 -0.958126 -4.517604 0.473952 -0.316660 -0.821619
0.683355 -0.969297 -4.517604 0.403058 -0.403027 -0.821619
0.681292 -0.967234 -4.519128 0.020447 -0.020447 -0.999573
0.690097 -0.956505 -4.519128 0.024049 -0.016053 -0.999573
0.603021 -0.849068 -4.517604 -0.218116 0.526597 -0.821619
0.604137 -0.851763 -4.519128 -0.011048 0.026704 -0.999573
0.603020 -0.985277 -4.517604 -0.218116 -0.526597 -0.821619
0.604137 -0.982581 -4.519128 -0.011017 -0.026704 -0.999573
0.699335 -0.888962 -4.517604 0.526597 0.218116 -0.821619
0.696639 -0.890079 -4.519128 0.026704 0.011048 -0.999573
0.558931 -0.902791 -4.517604 -0.559038 0.111179 -0.821619
0.561793 -0.903360 -4.519128 -0.028352 0.005615 -0.999573
0.672185 -0.978465 -4.517604 0.316660 -0.473922 -0.821619
0.670564 -0.976038 -4.519128 0.016053 -0.024018 -0.999573
0.645612 -0.844873 -4.517604 0.111179 0.559038 -0.821619
0.645042 -0.847735 -4.519128 0.005615 0.028352 -0.999573
0.790657 -0.840538 -4.515048 0.000000 0.914945 -0.403546
0.790657 -0.840538 -4.242652 0.000000 1.000000 0.000000
0.805607 -0.842011 -4.242652 0.195074 0.980773 0.000000
0.805607 -0.842011 -4.515048 0.178472 0.897366 -0.403546
0.819983 -0.846372 -4.242652 0.382672 0.923856 0.000000
0.819983 -0.846372 -4.515048 0.350108 0.845302 -0.403546
0.833232 -0.853454 -4.242652 0.555559 0.831446 0.000000
0.833232 -0.853454 -4.515048 0.508316 0.760735 -0.403546
0.844845 -0.862984 -4.242652 0.707083 0.707083 0.000000
0.844845 -0.862984 -4.515048 0.646962 0.646962 -0.403516
0.854375 -0.874597 -4.242652 0.831446 0.555559 0.000000
0.854375 -0.874597 -4.515048 0.760735 0.508316 -0.403546
0.861457 -0.887846 -4.242652 0.923856 0.382672 0.000000
0.861457 -0.887846 -4.515048 0.845302 0.350108 -0.403516
0.865818 -0.902222 -4.242652 0.980773 0.195074 0.000000
0.865818 -0.902222 -4.515048 0.897366 0.178472 -0.403546
0.867290 -0.917172 -4.242652 1.000000 0.000000 0.000000
0.867290 -0.917172 -4.515048 0.914914 0.000000 -0.403577
0.865818 -0.932123 -4.242652 0.980773 -0.195074 0.000000
0.865818 -0.932123 -4.515048 0.897366 -0.178472 -0.403516
0.861457 -0.946499 -4.242652 0.923856 -0.382672 0.000000
0.861457 -0.946499 -4.515048 0.845302 -0.350108 -0.403516
0.854375 -0.959748 -4.242652 0.831446 -0.555559 0.000000
0.854375 -0.959748 -4.515048 0.760735 -0.508316 -0.403546
0.844845 -0.971360 -4.242652 0.707083 -0.707083 0.000000
0.844845 -0.971360 -4.515048 0.646962 -0.646962 -0.403546
0.833232 -0.980891 -4.242652 0.555559 -0.831446 0.000000
0.833232 -0.980891 -4.515048 0.508316 -0.760735 -0.403516
0.819983 -0.987973 -4.242652 0.382672 -0.923856 0.000000
0.819983 -0.987973 -4.515048 0.350108 -0.845302 -0.403546
0.805607 -0.992333 -4.242652 0.195074 -0.980773 0.000000
0.805607 -0.992333 -4.515048 0.178472 -0.897366 -0.403546
0.790657 -0.993806 -4.242652 0.000000 -1.000000 0.000000
0.790657 -0.993806 -4.515048 0.000000 -0.914945 -0.403546
0.775706 -0.992333 -4.242652 -0.195074 -0.980773 0.000000
0.775706 -0.992333 -4.515048 -0.178472 -0.897366 -0.403546
0.761330 -0.987973 -4.242652 -0.382672 -0.923856 0.000000
0.761330 -0.987973 -4.515048 -0.350139 -0.845302 -0.403516
0.748081 -0.980891 -4.242652 -0.555559 -0.831446 0.000000
0.748081 -0.980891 -4.515048 -0.508316 -0.760735 -0.403516
0.736468 -0.971360 -4.242652 -0.707083 -0.707083 0.000000
0.736468 -0.971360 -4.515048 -0.646962 -0.646962 -0.403546
0.726938 -0.959748 -4.242652 -0.831446 -0.555559 0.000000
0.726938 -0.959748 -4.515048 -0.760735 -0.508316 -0.403546
0.719856 -0.946499 -4.242652 -0.923856 -0.382672 0.000000
0.719856 -0.946499 -4.515048 -0.845302 -0.350108 -0.403516
0.715495 -0.932123 -4.242652 -0.980773 -0.195074 0.000000
0.715495 -0.932123 -4.515048 -0.897366 -0.178472 -0.403546
0.714023 -0.917172 -4.242652 -1.000000 0.000000 0.000000
0.714023 -0.917172 -4.515048 -0.914914 0.000000 -0.403577
0.715495 -0.902222 -4.242652 -0.980773 0.195074 0.000000
0.715495 -0.902222 -4.515048 -0.897366 0.178472 -0.403546
0.719856 -0.887846 -4.242652 -0.923856 0.382672 0.000000
0.719856 -0.887846 -4.515048 -0.845302 0.350108 -0.403516
0.726938 -0.874597 -4.242652 -0.831446 0.555559 0.000000
0.726938 -0.874597 -4.515048 -0.760735 0.508316 -0.403546
0.736468 -0.862984 -4.242652 -0.707083 0.707083 0.000000
0.736468 -0.862984 -4.515048 -0.646962 0.646962 -0.403546
0.748081 -0.853453 -4.242652 -0.555559 0.831446 0.000000
0.748081 -0.853454 -4.515048 -0.508316 0.760735 -0.403516
0.761330 -0.846372 -4.242652 -0.382672 0.923856 0.000000
0.761330 -0.846372 -4.515048 -0.350108 0.845302 -0.403546
0.775706 -0.842011 -4.515048 -0.178472 0.897366 -0.403546
0.775706 -0.842011 -4.242652 -0.195074 0.980773 0.000000
0.777414 -0.850596 -4.517604 0.109226 -0.549150 -0.828547
0.790657 -0.849292 -4.517604 0.000000 -0.559893 -0.828547
0.790657 -0.852210 -4.515048 0.000000 -0.906125 -0.422926
0.777983 -0.853458 -4.515048 0.176763 -0.888730 -0.422926
0.752945 -0.973612 -4.517604 0.311045 0.465529 -0.828547
0.742658 -0.965171 -4.517604 0.395886 0.395917 -0.828547
0.744722 -0.963107 -4.515048 0.640736 0.640736 -0.422926
0.754566 -0.971186 -4.515048 0.503433 0.753410 -0.422926
0.857232 -0.903929 -4.517604 -0.549150 -0.109226 -0.828516
0.858537 -0.917172 -4.517604 -0.559893 0.000000 -0.828547
0.855619 -0.917172 -4.515048 -0.906125 0.000000 -0.422956
0.854371 -0.904499 -4.515048 -0.888730 -0.176763 -0.422956
0.727944 -0.891196 -4.517604 0.517289 -0.214240 -0.828516
0.734217 -0.879460 -4.517604 0.465560 -0.311045 -0.828516
0.736643 -0.881081 -4.515048 0.753441 -0.503403 -0.422926
0.730640 -0.892312 -4.515048 0.837153 -0.346751 -0.422926
0.816633 -0.979885 -4.517604 -0.214270 0.517289 -0.828547
0.803899 -0.983748 -4.517604 -0.109226 0.549150 -0.828547
0.803330 -0.980886 -4.515048 -0.176763 0.888730 -0.422926
0.815517 -0.977189 -4.515048 -0.346751 0.837153 -0.422926
0.816633 -0.854459 -4.517604 -0.214270 -0.517289 -0.828547
0.828369 -0.860732 -4.517604 -0.311075 -0.465529 -0.828547
0.826748 -0.863158 -4.515048 -0.503433 -0.753410 -0.422926
0.815517 -0.857155 -4.515048 -0.346751 -0.837153 -0.422926
0.734217 -0.954884 -4.517604 0.465529 0.311045 -0.828547
0.727944 -0.943149 -4.517604 0.532640 0.214362 -0.818720
0.730640 -0.942032 -4.515048 0.837153 0.346751 -0.422926
0.736643 -0.953263 -4.515048 0.753410 0.503403 -0.422926
0.857232 -0.930415 -4.517604 -0.549150 0.109226 -0.828516
0.853370 -0.943149 -4.517604 -0.517289 0.214240 -0.828516
0.850674 -0.942032 -4.515048 -0.837153 0.346751 -0.422926
0.854371 -0.929846 -4.515048 -0.888730 0.176763 -0.422956
0.742658 -0.869174 -4.517604 0.395886 -0.395917 -0.828547
0.752945 -0.860732 -4.517604 0.311045 -0.465529 -0.828547
0.754566 -0.863158 -4.515048 0.503433 -0.753410 -0.422926
0.744722 -0.871237 -4.515048 0.640736 -0.640736 -0.422956
0.790657 -0.985052 -4.517604 0.000000 0.559893 -0.828547
0.777414 -0.983748 -4.517604 0.109226 0.549150 -0.828547
0.777983 -0.980886 -4.515048 0.176763 0.888730 -0.422956
0.790657 -0.982134 -4.515048 0.000000 0.906125 -0.422926
0.838655 -0.869174 -4.517604 -0.395917 -0.395917 -0.828547
0.847097 -0.879460 -4.517604 -0.465560 -0.311045 -0.828516
0.844671 -0.881081 -4.515048 -0.753441 -0.503403 -0.422926
0.836592 -0.871237 -4.515048 -0.640736 -0.640736 -0.422926
0.724081 -0.930415 -4.517604 0.578082 0.114963 -0.807825
0.722777 -0.917172 -4.517604 0.574114 0.005768 -0.818720
0.725695 -0.917172 -4.515048 0.906125 0.000000 -0.422956
0.726943 -0.929846 -4.515048 0.888730 0.176763 -0.422956
0.847097 -0.954884 -4.517604 -0.465560 0.311045 -0.828516
0.838655 -0.965171 -4.517604 -0.395917 0.395917 -0.828547
0.836592 -0.963107 -4.515048 -0.640736 0.640736 -0.422926
0.844671 -0.953263 -4.515048 -0.753441 0.503403 -0.422926
0.764680 -0.854459 -4.517604 0.214270 -0.517289 -0.828516
0.765797 -0.857155 -4.515048 0.346782 -0.837153 -0.422926
0.764680 -0.979885 -4.517604 0.214270 0.517289 -0.828547
0.765797 -0.977189 -4.515048 0.346751 0.837153 -0.422926
0.853370 -0.891196 -4.517604 -0.517289 -0.214240 -0.828516
0.850674 -0.892312 -4.515048 -0.837153 -0.346751 -0.422926
0.724081 -0.903929 -4.517604 0.549150 -0.109226 -0.828516
0.726943 -0.904499 -4.515048 0.888730 -0.176763 -0.422956
0.828369 -0.973612 -4.517604 -0.311045 0.465529 -0.828547
0.826748 -0.971186 -4.515048 -0.503433 0.753410 -0.422926
0.803899 -0.850596 -4.517604 -0.109226 -0.549150 -0.828547
0.803330 -0.853458 -4.515048 -0.176763 -0.888730 -0.422926
0.765797 -0.857155 -4.242652 0.382672 -0.923856 0.000000
0.754566 -0.863158 -4.242652 0.555559 -0.831446 0.000000
0.726943 -0.904499 -4.242652 0.980773 -0.195074 0.000000
0.725695 -0.917172 -4.242652 1.000000 0.000000 0.000000
0.744722 -0.963107 -4.242652 0.707083 0.707083 0.000000
0.754566 -0.971186 -4.242652 0.555559 0.831446 0.000000
0.803330 -0.980886 -4.242652 -0.195074 0.980773 0.000000
0.815517 -0.977189 -4.242652 -0.382672 0.923856 0.000000
0.850674 -0.942032 -4.242652 -0.923856 0.382672 0.000000
0.854371 -0.929846 -4.242652 -0.980773 0.195074 0.000000
0.844671 -0.881081 -4.242652 -0.831446 -0.555559 0.000000
0.836592 -0.871237 -4.242652 -0.707083 -0.707083 0.000000
0.777983 -0.853458 -4.242652 0.195074 -0.980773 0.000000
0.730640 -0.892312 -4.242652 0.923856 -0.382672 0.000000
0.736643 -0.953263 -4.242652 0.831446 0.555559 0.000000
0.790657 -0.982134 -4.242652 0.000000 1.000000 0.000000
0.844671 -0.953263 -4.242652 -0.831446 0.555559 0.000000
0.850674 -0.892312 -4.242652 -0.923856 -0.382672 0.000000
0.803330 -0.853458 -4.242652 -0.195074 -0.980773 0.000000
0.790657 -0.852210 -4.242652 0.000000 -1.000000 0.000000
0.736643 -0.881081 -4.242652 0.831446 -0.555559 0.000000
0.730640 -0.942032 -4.242652 0.923856 0.382672 0.000000
0.777983 -0.980886 -4.242652 0.195074 0.980773 0.000000
0.836592 -0.963107 -4.242652 -0.707083 0.707083 0.000000
0.854371 -0.904499 -4.242652 -0.980773 -0.195074 0.000000
0.815517 -0.857155 -4.242652 -0.382672 -0.923856 0.000000
0.744722 -0.871237 -4.242652 0.707083 -0.707083 0.000000
0.726943 -0.929846 -4.242652 0.980773 0.195074 0.000000
0.765797 -0.977189 -4.242652 0.382672 0.923856 0.000000
0.826748 -0.971186 -4.242652 -0.555559 0.831446 0.000000
0.855619 -0.917172 -4.242652 -1.000000 0.000000 0.000000
0.826748 -0.863158 -4.242652 -0.555559 -0.831446 0.000000
0.776276 -0.844873 -4.517604 -0.111179 0.559038 -0.821619
0.790657 -0.843456 -4.517604 0.000000 0.569994 -0.821619
0.790657 -0.846374 -4.519129 0.000000 0.028901 -0.999573
0.776845 -0.847735 -4.519129 -0.005615 0.028352 -0.999573
0.749702 -0.978465 -4.517604 -0.316660 -0.473922 -0.821619
0.738532 -0.969297 -4.517604 -0.403027 -0.403027 -0.821619
0.740595 -0.967234 -4.519129 -0.020447 -0.020417 -0.999573
0.751323 -0.976038 -4.519129 -0.016083 -0.024018 -0.999573
0.862956 -0.902791 -4.517604 0.559038 0.111179 -0.821619
0.864373 -0.917172 -4.517604 0.569964 0.000000 -0.821650
0.861455 -0.917172 -4.519129 0.028901 0.000000 -0.999573
0.860094 -0.903360 -4.519129 0.028321 0.005615 -0.999573
0.722552 -0.888962 -4.517604 -0.526627 0.218116 -0.821619
0.729364 -0.876218 -4.517604 -0.473922 0.316660 -0.821619
0.731790 -0.877839 -4.519129 -0.024049 0.016053 -0.999573
0.725248 -0.890079 -4.519129 -0.026704 0.011048 -0.999573
0.818867 -0.985277 -4.517604 0.218116 -0.526597 -0.821619
0.805038 -0.989472 -4.517604 0.111179 -0.559038 -0.821619
0.804469 -0.986610 -4.519129 0.005615 -0.028352 -0.999573
0.817750 -0.982581 -4.519129 0.011048 -0.026704 -0.999573
0.818867 -0.849068 -4.517604 0.218085 0.526597 -0.821619
0.831611 -0.855880 -4.517604 0.316660 0.473922 -0.821619
0.829990 -0.858306 -4.519129 0.016083 0.024018 -0.999573
0.817750 -0.851763 -4.519129 0.011017 0.026704 -0.999573
0.729364 -0.958126 -4.517604 -0.473922 -0.316660 -0.821650
0.722552 -0.945382 -4.517604 -0.537950 -0.225318 -0.812281
0.725248 -0.944265 -4.519129 -0.026154 -0.020478 -0.999420
0.731790 -0.956505 -4.519129 -0.024018 -0.016053 -0.999573
0.862956 -0.931553 -4.517604 0.559038 -0.111179 -0.821619
0.858761 -0.945382 -4.517604 0.526597 -0.218116 -0.821619
0.856065 -0.944265 -4.519129 0.026673 -0.011048 -0.999573
0.860094 -0.930984 -4.519129 0.028321 -0.005615 -0.999573
0.738532 -0.865047 -4.517604 -0.403058 0.403058 -0.821619
0.749702 -0.855880 -4.517604 -0.316691 0.473922 -0.821619
0.751324 -0.858306 -4.519129 -0.016083 0.024018 -0.999573
0.740595 -0.867110 -4.519129 -0.020478 0.020417 -0.999573
0.790657 -0.990888 -4.517604 0.000000 -0.569994 -0.821619
0.776275 -0.989472 -4.517604 -0.111179 -0.559038 -0.821619
0.776845 -0.986610 -4.519129 -0.005615 -0.028352 -0.999573
0.790657 -0.987970 -4.519129 0.000000 -0.028901 -0.999573
0.842782 -0.865047 -4.517604 0.403058 0.403027 -0.821619
0.851949 -0.876218 -4.517604 0.473922 0.316660 -0.821619
0.849523 -0.877839 -4.519129 0.024049 0.016053 -0.999573
0.840718 -0.867110 -4.519129 0.020478 0.020417 -0.999573
0.718357 -0.931553 -4.517604 -0.583728 -0.116092 -0.803583
0.716941 -0.917172 -4.517604 -0.583209 0.002319 -0.812311
0.719859 -0.917172 -4.519129 -0.032014 0.008911 -0.999420
0.721219 -0.930984 -4.519645 -0.029267 -0.005799 -0.999542
0.851949 -0.958127 -4.517604 0.473922 -0.316660 -0.821619
0.842782 -0.969297 -4.517604 0.403058 -0.403027 -0.821619
0.840718 -0.967234 -4.519129 0.020478 -0.020417 -0.999573
0.849523 -0.956505 -4.519129 0.024018 -0.016053 -0.999573
0.762447 -0.849068 -4.517604 -0.218116 0.526597 -0.821619
0.763564 -0.851763 -4.519129 -0.011048 0.026704 -0.999573
0.762447 -0.985277 -4.517604 -0.218116 -0.526597 -0.821619
0.763563 -0.982581 -4.519129 -0.011048 -0.026704 -0.999573
0.858761 -0.888962 -4.517604 0.526597 0.218116 -0.821619
0.856065 -0.890079 -4.519129 0.026704 0.011048 -0.999573
0.718357 -0.902791 -4.517604 -0.559038 0.111179 -0.821619
0.721219 -0.903360 -4.519129 -0.028321 0.005615 -0.999573
0.831611 -0.978465 -4.517604 0.316691 -0.473922 -0.821619
0.829990 -0.976039 -4.519129 0.016114 -0.024018 -0.999573
0.805038 -0.844873 -4.517604 0.111179 0.559038 -0.821619
0.804469 -0.847735 -4.519129 0.005615 0.028352 -0.999573
-0.631230 -0.840538 -4.515048 0.000000 0.914945 -0.403516
-0.646181 -0.842011 -4.515048 -0.178472 0.897366 -0.403516
-0.646181 -0.842011 -4.242651 -0.195074 0.980773 0.000000
-0.631230 -0.840538 -4.242651 0.000000 0.999969 0.000000
-0.660557 -0.846372 -4.515048 -0.350139 0.845302 -0.403516
-0.660557 -0.846372 -4.242651 -0.382672 0.923856 0.000000
-0.673806 -0.853453 -4.515048 -0.508316 0.760735 -0.403516
-0.673806 -0.853453 -4.242651 -0.555559 0.831446 0.000000
-0.685419 -0.862984 -4.515048 -0.646962 0.646962 -0.403516
-0.685419 -0.862984 -4.242651 -0.707083 0.707083 0.000000
-0.694949 -0.874597 -4.515048 -0.760735 0.508316 -0.403546
-0.694949 -0.874597 -4.242651 -0.831446 0.555559 0.000000
-0.702031 -0.887846 -4.515048 -0.845302 0.350108 -0.403516
-0.702031 -0.887846 -4.242651 -0.923856 0.382672 0.000000
-0.706392 -0.902222 -4.515048 -0.897366 0.178472 -0.403546
-0.706392 -0.902222 -4.242651 -0.980773 0.195074 0.000000
-0.707864 -0.917172 -4.515048 -0.914945 0.000000 -0.403577
-0.707864 -0.917172 -4.242651 -1.000000 0.000000 0.000000
-0.706392 -0.932123 -4.515048 -0.897366 -0.178472 -0.403516
-0.706392 -0.932123 -4.242651 -0.980773 -0.195074 0.000000
-0.702031 -0.946499 -4.515048 -0.845302 -0.350108 -0.403516
-0.702031 -0.946499 -4.242651 -0.923856 -0.382672 0.000000
-0.694949 -0.959748 -4.515048 -0.760735 -0.508316 -0.403546
-0.694949 -0.959748 -4.242651 -0.831446 -0.555559 0.000000
-0.685419 -0.971360 -4.515048 -0.646962 -0.646962 -0.403516
-0.685419 -0.971360 -4.242651 -0.707083 -0.707083 0.000000
-0.673806 -0.980891 -4.515048 -0.508316 -0.760735 -0.403516
-0.673806 -0.980891 -4.242651 -0.555559 -0.831446 0.000000
-0.660557 -0.987972 -4.515048 -0.350139 -0.845302 -0.403516
-0.660557 -0.987972 -4.242651 -0.382672 -0.923856 0.000000
-0.646181 -0.992333 -4.515048 -0.178503 -0.897366 -0.403516
-0.646181 -0.992333 -4.242651 -0.195074 -0.980773 0.000000
-0.631230 -0.993806 -4.515048 0.000000 -0.914945 -0.403516
-0.631230 -0.993806 -4.242651 0.000000 -1.000000 0.000000
-0.616280 -0.992333 -4.515048 0.178472 -0.897366 -0.403546
-0.616280 -0.992333 -4.242651 0.195074 -0.980773 0.000000
-0.601904 -0.987972 -4.515048 0.350139 -0.845302 -0.403516
-0.601904 -0.987972 -4.242651 0.382672 -0.923856 0.000000
-0.588655 -0.980891 -4.515048 0.508316 -0.760735 -0.403546
-0.588655 -0.980891 -4.242651 0.555559 -0.831446 0.000000
-0.577042 -0.971360 -4.515048 0.646962 -0.646962 -0.403546
-0.577042 -0.971360 -4.242651 0.707083 -0.707083 0.000000
-0.567512 -0.959748 -4.515048 0.760735 -0.508316 -0.403516
-0.567512 -0.959747 -4.242651 0.831446 -0.555559 0.000000
-0.560430 -0.946499 -4.515048 0.845302 -0.350108 -0.403516
-0.560430 -0.946499 -4.242651 0.923856 -0.382672 0.000000
-0.556069 -0.932123 -4.515048 0.897366 -0.178472 -0.403546
-0.556069 -0.932123 -4.242651 0.980773 -0.195074 0.000000
-0.554596 -0.917172 -4.515048 0.914914 0.000000 -0.403577
-0.554596 -0.917172 -4.242651 1.000000 0.000000 0.000000
-0.556069 -0.902222 -4.515048 0.897366 0.178472 -0.403516
-0.556069 -0.902222 -4.242651 0.980773 0.195074 0.000000
-0.560430 -0.887846 -4.515048 0.845302 0.350108 -0.403516
-0.560430 -0.887846 -4.242651 0.923856 0.382672 0.000000
-0.567512 -0.874597 -4.515048 0.760735 0.508316 -0.403546
-0.567512 -0.874597 -4.242651 0.831446 0.555559 0.000000
-0.577042 -0.862984 -4.515048 0.646962 0.646962 -0.403516
-0.577042 -0.862984 -4.242651 0.707083 0.707083 0.000000
-0.588655 -0.853453 -4.515048 0.508316 0.760735 -0.403516
-0.588655 -0.853453 -4.242651 0.555559 0.831446 0.000000
-0.601904 -0.846372 -4.515048 0.350108 0.845302 -0.403516
-0.601904 -0.846372 -4.242651 0.382672 0.923856 0.000000
-0.616280 -0.842011 -4.515048 0.178472 0.897366 -0.403516
-0.616280 -0.842011 -4.242651 0.195074 0.980773 0.000000
-0.617988 -0.850596 -4.517604 -0.109226 -0.549150 -0.828547
-0.618557 -0.853458 -4.515048 -0.176763 -0.888730 -0.422926
-0.631230 -0.852210 -4.515048 0.000000 -0.906125 -0.422926
-0.631230 -0.849292 -4.517604 0.000000 -0.559893 -0.828547
-0.593518 -0.973612 -4.517604 -0.311045 0.465529 -0.828547
-0.595139 -0.971186 -4.515048 -0.503433 0.753410 -0.422926
-0.585295 -0.963107 -4.515048 -0.640736 0.640736 -0.422926
-0.583232 -0.965171 -4.517604 -0.395917 0.395917 -0.828547
-0.697806 -0.903929 -4.517604 0.549120 -0.109226 -0.828547
-0.694944 -0.904499 -4.515048 0.888730 -0.176763 -0.422956
-0.696192 -0.917172 -4.515048 0.906125 0.000000 -0.422926
-0.699110 -0.917172 -4.517604 0.559862 0.000000 -0.828547
-0.568517 -0.891195 -4.517604 -0.517289 -0.214270 -0.828547
-0.571213 -0.892312 -4.515048 -0.837153 -0.346751 -0.422926
-0.577216 -0.881081 -4.515048 -0.753410 -0.503433 -0.422956
-0.574790 -0.879460 -4.517604 -0.465529 -0.311045 -0.828547
-0.657207 -0.979885 -4.517604 0.214240 0.517289 -0.828547
-0.656090 -0.977189 -4.515048 0.346751 0.837153 -0.422926
-0.643904 -0.980886 -4.515048 0.176763 0.888730 -0.422926
-0.644473 -0.983748 -4.517604 0.109226 0.549150 -0.828547
-0.657207 -0.854459 -4.517604 0.214270 -0.517289 -0.828547
-0.656090 -0.857155 -4.515048 0.346751 -0.837153 -0.422926
-0.667321 -0.863158 -4.515048 0.503433 -0.753410 -0.422926
-0.668942 -0.860732 -4.517604 0.311045 -0.465529 -0.828547
-0.574790 -0.954884 -4.517604 -0.465529 0.311045 -0.828516
-0.577216 -0.953263 -4.515048 -0.753410 0.503433 -0.422956
-0.571213 -0.942032 -4.515048 -0.837153 0.346751 -0.422956
-0.568517 -0.943149 -4.517604 -0.532640 0.214362 -0.818720
-0.697806 -0.930415 -4.517604 0.549120 0.109226 -0.828547
-0.694944 -0.929846 -4.515048 0.888730 0.176763 -0.422926
-0.691247 -0.942032 -4.515048 0.837153 0.346751 -0.422926
-0.693943 -0.943149 -4.517604 0.517289 0.214240 -0.828547
-0.583232 -0.869174 -4.517604 -0.395917 -0.395917 -0.828547
-0.585295 -0.871237 -4.515048 -0.640736 -0.640736 -0.422926
-0.595139 -0.863158 -4.515048 -0.503403 -0.753410 -0.422956
-0.593518 -0.860732 -4.517604 -0.311045 -0.465529 -0.828547
-0.631230 -0.985052 -4.517604 0.000000 0.559893 -0.828547
-0.631230 -0.982134 -4.515048 0.000000 0.906125 -0.422926
-0.618557 -0.980886 -4.515048 -0.176763 0.888730 -0.422956
-0.617988 -0.983748 -4.517604 -0.109226 0.549120 -0.828547
-0.679229 -0.869174 -4.517604 0.395917 -0.395917 -0.828547
-0.677165 -0.871237 -4.515048 0.640736 -0.640736 -0.422926
-0.685244 -0.881081 -4.515048 0.753441 -0.503403 -0.422926
-0.687670 -0.879460 -4.517604 0.465560 -0.311045 -0.828516
-0.564655 -0.930415 -4.517604 -0.578082 0.114963 -0.807825
-0.567516 -0.929846 -4.515048 -0.888730 0.176763 -0.422956
-0.566268 -0.917172 -4.515048 -0.906125 0.000000 -0.422926
-0.563350 -0.917172 -4.517604 -0.574114 0.005768 -0.818720
-0.687670 -0.954884 -4.517604 0.465529 0.311045 -0.828547
-0.685244 -0.953263 -4.515048 0.753410 0.503433 -0.422926
-0.677165 -0.963107 -4.515048 0.640736 0.640736 -0.422926
-0.679229 -0.965171 -4.517604 0.395886 0.395917 -0.828547
-0.605254 -0.854459 -4.517604 -0.214240 -0.517289 -0.828547
-0.606370 -0.857155 -4.515048 -0.346751 -0.837153 -0.422956
-0.605254 -0.979885 -4.517604 -0.214270 0.517289 -0.828547
-0.606370 -0.977189 -4.515048 -0.346751 0.837153 -0.422956
-0.693943 -0.891196 -4.517604 0.517258 -0.214240 -0.828547
-0.691247 -0.892312 -4.515048 0.837153 -0.346751 -0.422956
-0.564655 -0.903929 -4.517604 -0.549150 -0.109226 -0.828547
-0.567516 -0.904499 -4.515048 -0.888730 -0.176763 -0.422926
-0.668942 -0.973612 -4.517604 0.311045 0.465529 -0.828547
-0.667321 -0.971186 -4.515048 0.503403 0.753410 -0.422926
-0.644473 -0.850596 -4.517604 0.109226 -0.549150 -0.828547
-0.643904 -0.853458 -4.515048 0.176763 -0.888730 -0.422926
-0.595139 -0.863158 -4.242651 -0.555559 -0.831446 0.000000
-0.606370 -0.857155 -4.242651 -0.382672 -0.923856 0.000000
-0.566268 -0.917172 -4.242651 -0.999969 0.000000 0.000000
-0.567516 -0.904499 -4.242651 -0.980773 -0.195074 0.000000
-0.595139 -0.971186 -4.242651 -0.555559 0.831446 0.000000
-0.585295 -0.963107 -4.242651 -0.707083 0.707083 0.000000
-0.656090 -0.977189 -4.242651 0.382672 0.923856 0.000000
-0.643904 -0.980886 -4.242651 0.195074 0.980773 0.000000
-0.694944 -0.929846 -4.242651 0.980773 0.195074 0.000000
-0.691247 -0.942032 -4.242651 0.923856 0.382672 0.000000
-0.677165 -0.871237 -4.242651 0.707083 -0.707083 0.000000
-0.685244 -0.881081 -4.242651 0.831446 -0.555559 0.000000
-0.618557 -0.853458 -4.242651 -0.195074 -0.980773 0.000000
-0.571213 -0.892312 -4.242651 -0.923856 -0.382672 0.000000
-0.577216 -0.953263 -4.242651 -0.831446 0.555559 0.000000
-0.631230 -0.982134 -4.242651 0.000000 1.000000 0.000000
-0.685244 -0.953263 -4.242651 0.831446 0.555559 0.000000
-0.691247 -0.892312 -4.242651 0.923856 -0.382672 0.000000
-0.631230 -0.852210 -4.242651 0.000000 -1.000000 0.000000
-0.643904 -0.853458 -4.242651 0.195074 -0.980773 0.000000
-0.577216 -0.881081 -4.242651 -0.831446 -0.555559 0.000000
-0.571213 -0.942032 -4.242651 -0.923856 0.382672 0.000000
-0.618557 -0.980886 -4.242651 -0.195074 0.980773 0.000000
-0.677165 -0.963107 -4.242651 0.707083 0.707083 0.000000
-0.694944 -0.904499 -4.242651 0.980773 -0.195074 0.000000
-0.656090 -0.857155 -4.242651 0.382672 -0.923856 0.000000
-0.585295 -0.871237 -4.242651 -0.707083 -0.707083 0.000000
-0.567516 -0.929846 -4.242651 -0.980773 0.195074 0.000000
-0.606370 -0.977189 -4.242651 -0.382672 0.923856 0.000000
-0.667321 -0.971186 -4.242651 0.555559 0.831446 0.000000
-0.696192 -0.917172 -4.242651 1.000000 0.000000 0.000000
-0.667321 -0.863158 -4.242651 0.555559 -0.831446 0.000000
-0.616849 -0.844873 -4.517604 0.111179 0.559038 -0.821619
-0.617418 -0.847735 -4.519128 0.005615 0.028352 -0.999573
-0.631230 -0.846374 -4.519128 0.000000 0.028901 -0.999573
-0.631230 -0.843456 -4.517604 0.000000 0.569994 -0.821619
-0.590276 -0.978465 -4.517604 0.316660 -0.473922 -0.821619
-0.591897 -0.976038 -4.519128 0.016053 -0.024018 -0.999573
-0.581169 -0.967234 -4.519128 0.020447 -0.020447 -0.999573
-0.579105 -0.969297 -4.517604 0.403027 -0.403058 -0.821619
-0.703530 -0.902791 -4.517604 -0.559038 0.111179 -0.821619
-0.700668 -0.903360 -4.519128 -0.028382 0.005615 -0.999573
-0.702028 -0.917172 -4.519128 -0.028932 0.000000 -0.999573
-0.704946 -0.917172 -4.517604 -0.569964 0.000000 -0.821650
-0.563126 -0.888962 -4.517604 0.526627 0.218116 -0.821619
-0.565822 -0.890079 -4.519128 0.026704 0.011048 -0.999573
-0.572364 -0.877839 -4.519128 0.024049 0.016053 -0.999573
-0.569938 -0.876218 -4.517604 0.473952 0.316660 -0.821619
-0.659440 -0.985277 -4.517604 -0.218116 -0.526597 -0.821619
-0.658324 -0.982581 -4.519128 -0.011017 -0.026704 -0.999573
-0.645042 -0.986610 -4.519128 -0.005615 -0.028352 -0.999573
-0.645612 -0.989472 -4.517604 -0.111179 -0.559038 -0.821619
-0.659440 -0.849068 -4.517604 -0.218116 0.526597 -0.821619
-0.658324 -0.851763 -4.519128 -0.011048 0.026704 -0.999573
-0.670564 -0.858306 -4.519128 -0.016053 0.024018 -0.999573
-0.672185 -0.855880 -4.517604 -0.316660 0.473922 -0.821619
-0.569938 -0.958126 -4.517604 0.473952 -0.316660 -0.821619
-0.572364 -0.956505 -4.519128 0.024018 -0.016053 -0.999573
-0.565821 -0.944265 -4.519128 0.026154 -0.020508 -0.999420
-0.563126 -0.945382 -4.517604 0.537950 -0.225318 -0.812281
-0.703530 -0.931553 -4.517604 -0.559038 -0.111179 -0.821619
-0.700668 -0.930984 -4.519128 -0.028352 -0.005615 -0.999573
-0.696639 -0.944265 -4.519128 -0.026704 -0.011048 -0.999573
-0.699335 -0.945382 -4.517604 -0.526627 -0.218116 -0.821619
-0.579105 -0.865047 -4.517604 0.403058 0.403027 -0.821619
-0.581169 -0.867110 -4.519128 0.020417 0.020417 -0.999573
-0.591897 -0.858306 -4.519128 0.016022 0.024018 -0.999573
-0.590276 -0.855880 -4.517604 0.316660 0.473922 -0.821619
-0.631230 -0.990888 -4.517604 0.000000 -0.569994 -0.821619
-0.631230 -0.987970 -4.519128 0.000000 -0.028901 -0.999573
-0.617418 -0.986610 -4.519128 0.005615 -0.028352 -0.999573
-0.616849 -0.989472 -4.517604 0.111179 -0.559038 -0.821619
-0.683355 -0.865047 -4.517604 -0.403027 0.403058 -0.821619
-0.681292 -0.867110 -4.519128 -0.020417 0.020417 -0.999573
-0.690097 -0.877839 -4.519128 -0.024018 0.016053 -0.999573
-0.692523 -0.876218 -4.517604 -0.473922 0.316660 -0.821619
-0.558931 -0.931553 -4.517604 0.583728 -0.116092 -0.803583
-0.561793 -0.930984 -4.519644 0.029298 -0.005799 -0.999542
-0.560432 -0.917172 -4.519128 0.032075 0.008911 -0.999420
-0.557514 -0.917172 -4.517604 0.583209 0.002319 -0.812281
-0.692523 -0.958126 -4.517604 -0.473952 -0.316660 -0.821619
-0.690097 -0.956505 -4.519128 -0.024049 -0.016053 -0.999573
-0.681292 -0.967234 -4.519128 -0.020447 -0.020417 -0.999573
-0.683355 -0.969297 -4.517604 -0.403058 -0.403027 -0.821619
-0.603021 -0.849068 -4.517604 0.218116 0.526597 -0.821619
-0.604137 -0.851763 -4.519128 0.011048 0.026704 -0.999573
-0.603020 -0.985277 -4.517604 0.218116 -0.526597 -0.821619
-0.604137 -0.982581 -4.519128 0.011017 -0.026704 -0.999573
-0.699335 -0.888962 -4.517604 -0.526627 0.218116 -0.821619
-0.696639 -0.890079 -4.519128 -0.026704 0.011048 -0.999573
-0.558931 -0.902791 -4.517604 0.559038 0.111179 -0.821619
-0.561793 -0.903360 -4.519128 0.028352 0.005615 -0.999573
-0.672185 -0.978465 -4.517604 -0.316660 -0.473922 -0.821619
-0.670564 -0.976038 -4.519128 -0.016053 -0.024018 -0.999573
-0.645612 -0.844873 -4.517604 -0.111179 0.559038 -0.821619
-0.645042 -0.847735 -4.519128 -0.005615 0.028352 -0.999573
-0.790657 -0.840538 -4.515048 0.000000 0.914945 -0.403546
-0.805607 -0.842011 -4.515048 -0.178472 0.897366 -0.403546
-0.805607 -0.842011 -4.242652 -0.195074 0.980773 0.000000
-0.790657 -0.840538 -4.242652 0.000000 1.000000 0.000000
-0.819983 -0.846372 -4.515048 -0.350108 0.845302 -0.403546
-0.819983 -0.846372 -4.242652 -0.382672 0.923856 0.000000
-0.833232 -0.853454 -4.515048 -0.508316 0.760735 -0.403546
-0.833232 -0.853454 -4.242652 -0.555559 0.831446 0.000000
-0.844845 -0.862984 -4.515048 -0.646962 0.646962 -0.403516
-0.844845 -0.862984 -4.242652 -0.707083 0.707083 0.000000
-0.854375 -0.874597 -4.515048 -0.760735 0.508316 -0.403516
-0.854375 -0.874597 -4.242652 -0.831446 0.555559 0.000000
-0.861457 -0.887846 -4.515048 -0.845302 0.350108 -0.403516
-0.861457 -0.887846 -4.242652 -0.923856 0.382672 0.000000
-0.865818 -0.902222 -4.515048 -0.897366 0.178472 -0.403546
-0.865818 -0.902222 -4.242652 -0.980773 0.195074 0.000000
-0.867290 -0.917172 -4.515048 -0.914945 0.000000 -0.403546
-0.867290 -0.917172 -4.242652 -1.000000 0.000000 0.000000
-0.865818 -0.932123 -4.515048 -0.897366 -0.178472 -0.403516
-0.865818 -0.932123 -4.242652 -0.980773 -0.195074 0.000000
-0.861457 -0.946499 -4.515048 -0.845302 -0.350108 -0.403516
-0.861457 -0.946499 -4.242652 -0.923856 -0.382672 0.000000
-0.854375 -0.959748 -4.515048 -0.760735 -0.508316 -0.403546
-0.854375 -0.959748 -4.242652 -0.831446 -0.555559 0.000000
-0.844845 -0.971360 -4.515048 -0.646962 -0.646962 -0.403546
-0.844845 -0.971360 -4.242652 -0.707083 -0.707083 0.000000
-0.833232 -0.980891 -4.515048 -0.508316 -0.760735 -0.403516
-0.833232 -0.980891 -4.242652 -0.555559 -0.831446 0.000000
-0.819983 -0.987973 -4.515048 -0.350108 -0.845302 -0.403546
-0.819983 -0.987973 -4.242652 -0.382672 -0.923856 0.000000
-0.805607 -0.992333 -4.515048 -0.178472 -0.897366 -0.403546
-0.805607 -0.992333 -4.242652 -0.195074 -0.980773 0.000000
-0.790657 -0.993806 -4.515048 0.000000 -0.914945 -0.403546
-0.790657 -0.993806 -4.242652 0.000000 -1.000000 0.000000
-0.775706 -0.992333 -4.515048 0.178503 -0.897366 -0.403546
-0.775706 -0.992333 -4.242652 0.195074 -0.980773 0.000000
-0.761330 -0.987973 -4.515048 0.350139 -0.845302 -0.403516
-0.761330 -0.987973 -4.242652 0.382672 -0.923856 0.000000
-0.748081 -0.980891 -4.515048 0.508316 -0.760735 -0.403516
-0.748081 -0.980891 -4.242652 0.555559 -0.831446 0.000000
-0.736468 -0.971360 -4.515048 0.646962 -0.646962 -0.403516
-0.736468 -0.971360 -4.242652 0.707083 -0.707083 0.000000
-0.726938 -0.959748 -4.515048 0.760735 -0.508316 -0.403546
-0.726938 -0.959748 -4.242652 0.831446 -0.555559 0.000000
-0.719856 -0.946499 -4.515048 0.845302 -0.350108 -0.403516
-0.719856 -0.946499 -4.242652 0.923856 -0.382672 0.000000
-0.715495 -0.932123 -4.515048 0.897366 -0.178472 -0.403546
-0.715495 -0.932123 -4.242652 0.980773 -0.195074 0.000000
-0.714023 -0.917172 -4.515048 0.914945 0.000000 -0.403577
-0.714023 -0.917172 -4.242652 1.000000 0.000000 0.000000
-0.715495 -0.902222 -4.515048 0.897366 0.178472 -0.403516
-0.715495 -0.902222 -4.242652 0.980773 0.195074 0.000000
-0.719856 -0.887846 -4.515048 0.845302 0.350108 -0.403516
-0.719856 -0.887846 -4.242652 0.923856 0.382672 0.000000
-0.726938 -0.874597 -4.515048 0.760735 0.508316 -0.403546
-0.726938 -0.874597 -4.242652 0.831446 0.555559 0.000000
-0.736468 -0.862984 -4.515048 0.646962 0.646962 -0.403546
-0.736468 -0.862984 -4.242652 0.707083 0.707083 0.000000
-0.748081 -0.853454 -4.515048 0.508316 0.760735 -0.403516
-0.748081 -0.853453 -4.242652 0.555559 0.831446 0.000000
-0.761330 -0.846372 -4.515048 0.350139 0.845302 -0.403546
-0.761330 -0.846372 -4.242652 0.382672 0.923856 0.000000
-0.775706 -0.842011 -4.515048 0.178472 0.897366 -0.403546
-0.775706 -0.842011 -4.242652 0.195074 0.980773 0.000000
-0.777414 -0.850596 -4.517604 -0.109226 -0.549150 -0.828547
-0.777983 -0.853458 -4.515048 -0.176763 -0.888730 -0.422926
-0.790657 -0.852210 -4.515048 0.000000 -0.906125 -0.422926
-0.790657 -0.849292 -4.517604 0.000000 -0.559893 -0.828547
-0.752945 -0.973612 -4.517604 -0.311045 0.465529 -0.828547
-0.754566 -0.971186 -4.515048 -0.503433 0.753410 -0.422926
-0.744722 -0.963107 -4.515048 -0.640736 0.640736 -0.422926
-0.742658 -0.965171 -4.517604 -0.395886 0.395917 -0.828547
-0.857232 -0.903929 -4.517604 0.549150 -0.109226 -0.828547
-0.854371 -0.904499 -4.515048 0.888730 -0.176763 -0.422956
-0.855619 -0.917172 -4.515048 0.906125 0.000000 -0.422956
-0.858537 -0.917172 -4.517604 0.559923 0.000000 -0.828516
-0.727944 -0.891196 -4.517604 -0.517289 -0.214240 -0.828516
-0.730640 -0.892312 -4.515048 -0.837153 -0.346751 -0.422926
-0.736643 -0.881081 -4.515048 -0.753441 -0.503403 -0.422926
-0.734217 -0.879460 -4.517604 -0.465560 -0.311045 -0.828516
-0.816633 -0.979885 -4.517604 0.214270 0.517289 -0.828547
-0.815517 -0.977189 -4.515048 0.346751 0.837153 -0.422956
-0.803330 -0.980886 -4.515048 0.176763 0.888730 -0.422926
-0.803899 -0.983748 -4.517604 0.109226 0.549150 -0.828547
-0.816633 -0.854459 -4.517604 0.214270 -0.517289 -0.828547
-0.815517 -0.857155 -4.515048 0.346751 -0.837153 -0.422926
-0.826748 -0.863158 -4.515048 0.503433 -0.753410 -0.422926
-0.828369 -0.860732 -4.517604 0.311045 -0.465529 -0.828547
-0.734217 -0.954884 -4.517604 -0.465529 0.311045 -0.828547
-0.736643 -0.953263 -4.515048 -0.753410 0.503403 -0.422926
-0.730640 -0.942032 -4.515048 -0.837153 0.346751 -0.422926
-0.727944 -0.943149 -4.517604 -0.532640 0.214362 -0.818720
-0.857232 -0.930415 -4.517604 0.549181 0.109226 -0.828516
-0.854371 -0.929846 -4.515048 0.888730 0.176763 -0.422926
-0.850674 -0.942032 -4.515048 0.837153 0.346751 -0.422926
-0.853370 -0.943149 -4.517604 0.517289 0.214240 -0.828516
-0.742658 -0.869174 -4.517604 -0.395886 -0.395917 -0.828547
-0.744722 -0.871237 -4.515048 -0.640736 -0.640736 -0.422926
-0.754566 -0.863158 -4.515048 -0.503433 -0.753410 -0.422926
-0.752945 -0.860732 -4.517604 -0.311045 -0.465529 -0.828547
-0.790657 -0.985052 -4.517604 0.000000 0.559893 -0.828547
-0.790657 -0.982134 -4.515048 0.000000 0.906125 -0.422926
-0.777983 -0.980886 -4.515048 -0.176763 0.888730 -0.422956
-0.777414 -0.983748 -4.517604 -0.109226 0.549150 -0.828547
-0.838655 -0.869174 -4.517604 0.395886 -0.395917 -0.828547
-0.836592 -0.871237 -4.515048 0.640736 -0.640736 -0.422926
-0.844671 -0.881081 -4.515048 0.753441 -0.503403 -0.422926
-0.847097 -0.879460 -4.517604 0.465529 -0.311045 -0.828547
-0.724081 -0.930415 -4.517604 -0.578082 0.114963 -0.807825
-0.726943 -0.929846 -4.515048 -0.888699 0.176763 -0.422956
-0.725695 -0.917172 -4.515048 -0.906125 0.000000 -0.422956
-0.722777 -0.917172 -4.517604 -0.574145 0.005768 -0.818720
-0.847097 -0.954884 -4.517604 0.465560 0.311045 -0.828516
-0.844671 -0.953263 -4.515048 0.753410 0.503403 -0.422926
-0.836592 -0.963107 -4.515048 0.640736 0.640736 -0.422926
-0.838655 -0.965171 -4.517604 0.395886 0.395917 -0.828547
-0.764680 -0.854459 -4.517604 -0.214270 -0.517289 -0.828547
-0.765797 -0.857155 -4.515048 -0.346751 -0.837153 -0.422926
-0.764680 -0.979885 -4.517604 -0.214270 0.517289 -0.828547
-0.765797 -0.977189 -4.515048 -0.346751 0.837153 -0.422926
-0.853370 -0.891196 -4.517604 0.517289 -0.214240 -0.828516
-0.850674 -0.892312 -4.515048 0.837153 -0.346751 -0.422926
-0.724081 -0.903929 -4.517604 -0.549150 -0.109226 -0.828516
-0.726943 -0.904499 -4.515048 -0.888730 -0.176763 -0.422956
-0.828369 -0.973612 -4.517604 0.311045 0.465529 -0.828547
-0.826748 -0.971186 -4.515048 0.503433 0.753410 -0.422926
-0.803899 -0.850596 -4.517604 0.109226 -0.549150 -0.828547
-0.803330 -0.853458 -4.515048 0.176763 -0.888730 -0.422926
-0.754566 -0.863158 -4.242652 -0.555559 -0.831446 0.000000
-0.765797 -0.857155 -4.242652 -0.382672 -0.923856 0.000000
-0.725695 -0.917172 -4.242652 -1.000000 0.000000 0.000000
-0.726943 -0.904499 -4.242652 -0.980773 -0.195074 0.000000
-0.754566 -0.971186 -4.242652 -0.555559 0.831446 0.000000
-0.744722 -0.963107 -4.242652 -0.707083 0.707083 0.000000
-0.815517 -0.977189 -4.242652 0.382672 0.923856 0.000000
-0.803330 -0.980886 -4.242652 0.195074 0.980773 0.000000
-0.854371 -0.929846 -4.242652 0.980773 0.195074 0.000000
-0.850674 -0.942032 -4.242652 0.923856 0.382672 0.000000
-0.836592 -0.871237 -4.242652 0.707083 -0.707083 0.000000
-0.844671 -0.881081 -4.242652 0.831446 -0.555559 0.000000
-0.777983 -0.853458 -4.242652 -0.195074 -0.980773 0.000000
-0.730640 -0.892312 -4.242652 -0.923856 -0.382672 0.000000
-0.736643 -0.953263 -4.242652 -0.831446 0.555559 0.000000
-0.790657 -0.982134 -4.242652 0.000000 1.000000 0.000000
-0.844671 -0.953263 -4.242652 0.831446 0.555559 0.000000
-0.850674 -0.892312 -4.242652 0.923856 -0.382672 0.000000
-0.790657 -0.852210 -4.242652 0.000000 -1.000000 0.000000
-0.803330 -0.853458 -4.242652 0.195074 -0.980773 0.000000
-0.736643 -0.881081 -4.242652 -0.831446 -0.555559 0.000000
-0.730640 -0.942032 -4.242652 -0.923856 0.382672 0.000000
-0.777983 -0.980886 -4.242652 -0.195074 0.980773 0.000000
-0.836592 -0.963107 -4.242652 0.707083 0.707083 0.000000
-0.854371 -0.904499 -4.242652 0.980773 -0.195074 0.000000
-0.815517 -0.857155 -4.242652 0.382672 -0.923856 0.000000
-0.744722 -0.871237 -4.242652 -0.707083 -0.707083 0.000000
-0.726943 -0.929846 -4.242652 -0.980773 0.195074 0.000000
-0.765797 -0.977189 -4.242652 -0.382672 0.923856 0.000000
-0.826748 -0.971186 -4.242652 0.555559 0.831446 0.000000
-0.855619 -0.917172 -4.242652 1.000000 0.000000 0.000000
-0.826748 -0.863158 -4.242652 0.555559 -0.831446 0.000000
-0.776276 -0.844873 -4.517604 0.111179 0.559038 -0.821619
-0.776845 -0.847735 -4.519129 0.005615 0.028352 -0.999573
-0.790657 -0.846374 -4.519129 0.000000 0.028901 -0.999573
-0.790657 -0.843456 -4.517604 0.000000 0.569994 -0.821619
-0.749702 -0.978465 -4.517604 0.316660 -0.473922 -0.821619
-0.751323 -0.976038 -4.519129 0.016083 -0.024018 -0.999573
-0.740595 -0.967234 -4.519129 0.020447 -0.020417 -0.999573
-0.738532 -0.969297 -4.517604 0.403058 -0.403027 -0.821619
-0.862956 -0.902791 -4.517604 -0.559038 0.111179 -0.821619
-0.860094 -0.903360 -4.519129 -0.028321 0.005615 -0.999573
-0.861455 -0.917172 -4.519129 -0.028901 0.000000 -0.999573
-0.864373 -0.917172 -4.517604 -0.569994 0.000000 -0.821619
-0.722552 -0.888962 -4.517604 0.526627 0.218116 -0.821619
-0.725248 -0.890079 -4.519129 0.026673 0.011048 -0.999573
-0.731790 -0.877839 -4.519129 0.024018 0.016053 -0.999573
-0.729364 -0.876218 -4.517604 0.473922 0.316660 -0.821619
-0.818867 -0.985277 -4.517604 -0.218116 -0.526597 -0.821619
-0.817750 -0.982581 -4.519129 -0.011048 -0.026704 -0.999573
-0.804469 -0.986610 -4.519129 -0.005615 -0.028352 -0.999573
-0.805038 -0.989472 -4.517604 -0.111179 -0.559038 -0.821619
-0.818867 -0.849068 -4.517604 -0.218116 0.526597 -0.821619
-0.817750 -0.851763 -4.519129 -0.011048 0.026704 -0.999573
-0.829990 -0.858306 -4.519129 -0.016083 0.024018 -0.999573
-0.831611 -0.855880 -4.517604 -0.316660 0.473922 -0.821619
-0.729364 -0.958126 -4.517604 0.473922 -0.316660 -0.821619
-0.731790 -0.956505 -4.519129 0.024018 -0.016053 -0.999573
-0.725248 -0.944265 -4.519129 0.026185 -0.020478 -0.999420
-0.722552 -0.945382 -4.517604 0.537950 -0.225318 -0.812281
-0.862956 -0.931553 -4.517604 -0.559069 -0.111179 -0.821619
-0.860094 -0.930984 -4.519129 -0.028321 -0.005615 -0.999573
-0.856065 -0.944265 -4.519129 -0.026673 -0.011048 -0.999573
-0.858761 -0.945382 -4.517604 -0.526597 -0.218116 -0.821619
-0.738532 -0.865047 -4.517604 0.403027 0.403058 -0.821619
-0.740595 -0.867110 -4.519129 0.020447 0.020447 -0.999573
-0.751324 -0.858306 -4.519129 0.016083 0.024018 -0.999573
-0.749702 -0.855880 -4.517604 0.316691 0.473922 -0.821619
-0.790657 -0.990888 -4.517604 0.000000 -0.569994 -0.821619
-0.790657 -0.987970 -4.519129 0.000000 -0.028901 -0.999573
-0.776845 -0.986610 -4.519129 0.005615 -0.028352 -0.999573
-0.776275 -0.989472 -4.517604 0.111179 -0.559038 -0.821619
-0.842782 -0.865047 -4.517604 -0.403058 0.403027 -0.821619
-0.840718 -0.867110 -4.519129 -0.020447 0.020417 -0.999573
-0.849523 -0.877839 -4.519129 -0.024018 0.016053 -0.999573
-0.851949 -0.876218 -4.517604 -0.473922 0.316660 -0.821619
-0.718357 -0.931553 -4.517604 0.583728 -0.116092 -0.803583
-0.721219 -0.930984 -4.519645 0.029267 -0.005799 -0.999542
-0.719859 -0.917172 -4.519129 0.032044 0.008911 -0.999420
-0.716941 -0.917172 -4.517604 0.583209 0.002319 -0.812281
-0.851949 -0.958127 -4.517604 -0.473922 -0.316660 -0.821619
-0.849523 -0.956505 -4.519129 -0.024018 -0.016053 -0.999573
-0.840718 -0.967234 -4.519129 -0.020447 -0.020417 -0.999573
-0.842782 -0.969297 -4.517604 -0.403058 -0.403058 -0.821619
-0.762447 -0.849068 -4.517604 0.218116 0.526597 -0.821619
-0.763564 -0.851763 -4.519129 0.011048 0.026704 -0.999573
-0.762447 -0.985277 -4.517604 0.218116 -0.526597 -0.821619
-0.763563 -0.982581 -4.519129 0.011048 -0.026704 -0.999573
-0.858761 -0.888962 -4.517604 -0.526597 0.218116 -0.821619
-0.856065 -0.890079 -4.519129 -0.026673 0.011048 -0.999573
-0.718357 -0.902791 -4.517604 0.559069 0.111179 -0.821619
-0.721219 -0.903360 -4.519129 0.028321 0.005615 -0.999573
-0.831611 -0.978465 -4.517604 -0.316691 -0.473922 -0.821619
-0.829990 -0.976039 -4.519129 -0.016083 -0.024018 -0.999573
-0.805038 -0.844873 -4.517604 -0.111179 0.559038 -0.821619
-0.804469 -0.847735 -4.519129 -0.005615 0.028352 -0.999573
4 0 1 2 3
4 3 2 4 5
4 5 4 6 7
4 7 6 8 9
4 9 8 10 11
4 11 10 12 13
4 13 12 14 15
4 15 14 16 17
4 17 16 18 19
4 19 18 20 21
4 21 20 22 23
4 23 22 24 25
4 25 24 26 27
4 27 26 28 29
4 29 28 30 31
4 31 30 32 33
4 33 32 34 35
4 35 34 36 37
4 37 36 38 39
4 39 38 40 41
4 41 40 42 43
4 43 42 44 45
4 45 44 46 47
4 47 46 48 49
4 49 48 50 51
4 51 50 52 53
4 53 52 54 55
4 55 54 56 57
4 57 56 58 59
4 59 58 60 61
4 1 0 62 63
4 61 60 63 62
4 64 65 66 67
4 68 69 70 71
4 72 73 74 75
4 76 77 78 79
4 80 81 82 83
4 84 85 86 87
4 88 89 90 91
4 92 93 94 95
4 96 97 98 99
4 100 101 102 103
4 104 105 106 107
4 108 109 110 111
4 112 113 114 115
4 116 64 67 117
4 118 68 71 119
4 120 72 75 121
4 122 76 79 123
4 124 80 83 125
4 126 84 87 127
4 69 88 91 70
4 73 92 95 74
4 77 96 99 78
4 81 100 103 82
4 85 104 107 86
4 89 108 111 90
4 65 126 127 66
4 93 112 115 94
4 97 116 117 98
4 101 118 119 102
4 105 120 121 106
4 109 122 123 110
4 113 124 125 114
4 98 117 128 129
4 110 123 130 131
4 71 70 132 133
4 83 82 134 135
4 95 94 136 137
4 107 106 138 139
4 117 67 140 128
4 123 79 141 130
4 70 91 142 132
4 82 103 143 134
4 94 115 144 136
4 106 121 145 138
4 66 127 146 147
4 67 66 147 140
4 79 78 148 141
4 91 90 149 142
4 103 102 150 143
4 115 114 151 144
4 121 75 152 145
4 127 87 153 146
4 78 99 154 148
4 90 111 155 149
4 102 119 156 150
4 114 125 157 151
4 75 74 158 152
4 87 86 159 153
4 99 98 129 154
4 111 110 131 155
4 119 71 133 156
4 125 83 135 157
4 74 95 137 158
4 86 107 139 159
4 160 161 162 163
4 164 165 166 167
4 168 169 170 171
4 172 173 174 175
4 176 177 178 179
4 180 181 182 183
4 184 185 186 187
4 188 189 190 191
4 192 193 194 195
4 196 197 198 199
4 200 201 202 203
4 204 205 206 207
4 208 209 210 211
4 212 160 163 213
4 214 164 167 215
4 216 168 171 217
4 218 172 175 219
4 220 176 179 221
4 222 180 183 223
4 165 184 187 166
4 169 188 191 170
4 173 192 195 174
4 177 196 199 178
4 181 200 203 182
4 185 204 207 186
4 161 222 223 162
4 189 208 211 190
4 193 212 213 194
4 197 214 215 198
4 201 216 217 202
4 205 218 219 206
4 209 220 221 210
4 62 0 161 160
4 39 41 165 164
4 15 17 169 168
4 53 55 173 172
4 29 31 177 176
4 5 7 181 180
4 43 45 185 184
4 19 21 189 188
4 57 59 193 192
4 33 35 197 196
4 9 11 201 200
4 47 49 205 204
4 23 25 209 208
4 61 62 160 212
4 37 39 164 214
4 13 15 168 216
4 51 53 172 218
4 27 29 176 220
4 3 5 180 222
4 41 43 184 165
4 17 19 188 169
4 55 57 192 173
4 31 33 196 177
4 7 9 200 181
4 45 47 204 185
4 0 3 222 161
4 21 23 208 189
4 59 61 212 193
4 35 37 214 197
4 11 13 216 201
4 49 51 218 205
4 25 27 220 209
4 163 162 65 64
4 167 166 69 68
4 171 170 73 72
4 175 174 77 76
4 179 178 81 80
4 183 182 85 84
4 187 186 89 88
4 191 190 93 92
4 195 194 97 96
4 199 198 101 100
4 203 202 105 104
4 207 206 109 108
4 211 210 113 112
4 213 163 64 116
4 215 167 68 118
4 217 171 72 120
4 219 175 76 122
4 221 179 80 124
4 223 183 84 126
4 166 187 88 69
4 170 191 92 73
4 174 195 96 77
4 178 199 100 81
4 182 203 104 85
4 186 207 108 89
4 162 223 126 65
4 190 211 112 93
4 194 213 116 97
4 198 215 118 101
4 202 217 120 105
4 206 219 122 109
4 210 221 124 113
4 224 225 226 227
4 227 226 228 229
4 229 228 230 231
4 231 230 232 233
4 233 232 234 235
4 235 234 236 237
4 237 236 238 239
4 239 238 240 241
4 241 240 242 243
4 243 242 244 245
4 245 244 246 247
4 247 246 248 249
4 249 248 250 251
4 251 250 252 253
4 253 252 254 255
4 255 254 256 257
4 257 256 258 259
4 259 258 260 261
4 261 260 262 263
4 263 262 264 265
4 265 264 266 267
4 267 266 268 269
4 269 268 270 271
4 271 270 272 273
4 273 272 274 275
4 275 274 276 277
4 277 276 278 279
4 279 278 280 281
4 281 280 282 283
4 283 282 284 285
4 286 287 225 224
4 285 284 287 286
4 288 289 290 291
4 292 293 294 295
4 296 297 298 299
4 300 301 302 303
4 304 305 306 307
4 308 309 310 311
4 312 313 314 315
4 316 317 318 319
4 320 321 322 323
4 324 325 326 327
4 328 329 330 331
4 332 333 334 335
4 336 337 338 339
4 340 288 291 341
4 342 292 295 343
4 344 296 299 345
4 346 300 303 347
4 348 304 307 349
4 350 308 311 351
4 293 312 315 294
4 297 316 319 298
4 301 320 323 302
4 305 324 327 306
4 309 328 331 310
4 313 332 335 314
4 289 350 351 290
4 317 336 339 318
4 321 340 341 322
4 325 342 343 326
4 329 344 345 330
4 333 346 347 334
4 337 348 349 338
4 322 341 352 353
4 334 347 354 355
4 295 294 356 357
4 307 306 358 359
4 319 318 360 361
4 331 330 362 363
4 341 291 364 352
4 347 303 365 354
4 294 315 366 356
4 306 327 367 358
4 318 339 368 360
4 330 345 369 362
4 290 351 370 371
4 291 290 371 364
4 303 302 372 365
4 315 314 373 366
4 327 326 374 367
4 339 338 375 368
4 345 299 376 369
4 351 311 377 370
4 302 323 378 372
4 314 335 379 373
4 326 343 380 374
4 338 349 381 375
4 299 298 382 376
4 311 310 383 377
4 323 322 353 378
4 335 334 355 379
4 343 295 357 380
4 349 307 359 381
4 298 319 361 382
4 310 331 363 383
4 384 385 386 387
4 388 389 390 391
4 392 393 394 395
4 396 397 398 399
4 400 401 402 403
4 404 405 406 407
4 408 409 410 411
4 412 413 414 415
4 416 417 418 419
4 420 421 422 423
4 424 425 426 427
4 428 429 430 431
4 432 433 434 435
4 436 384 387 437
4 438 388 391 439
4 440 392 395 441
4 442 396 399 443
4 444 400 403 445
4 446 404 407 447
4 389 408 411 390
4 393 412 415 394
4 397 416 419 398
4 401 420 423 402
4 405 424 427 406
4 409 428 431 410
4 385 446 447 386
4 413 432 435 414
4 417 436 437 418
4 421 438 439 422
4 425 440 441 426
4 429 442 443 430
4 433 444 445 434
4 286 224 385 384
4 263 265 389 388
4 239 241 393 392
4 277 279 397 396
4 253 255 401 400
4 229 231 405 404
4 267 269 409 408
4 243 245 413 412
4 281 283 417 416
4 257 259 421 420
4 233 235 425 424
4 271 273 429 428
4 247 249 433 432
4 285 286 384 436
4 261 263 388 438
4 237 239 392 440
4 275 277 396 442
4 251 253 400 444
4 227 229 404 446
4 265 267 408 389
4 241 243 412 393
4 279 281 416 397
4 255 257 420 401
4 231 233 424 405
4 269 271 428 409
4 224 227 446 385
4 245 247 432 413
4 283 285 436 417
4 259 261 438 421
4 235 237 440 425
4 273 275 442 429
4 249 251 444 433
4 387 386 289 288
4 391 390 293 292
4 395 394 297 296
4 399 398 301 300
4 403 402 305 304
4 407 406 309 308
4 411 410 313 312
4 415 414 317 316
4 419 418 321 320
4 423 422 325 324
4 427 426 329 328
4 431 430 333 332
4 435 434 337 336
4 437 387 288 340
4 439 391 292 342
4 441 395 296 344
4 443 399 300 346
4 445 403 304 348
4 447 407 308 350
4 390 411 312 293
4 394 415 316 297
4 398 419 320 301
4 402 423 324 305
4 406 427 328 309
4 410 431 332 313
4 386 447 350 289
4 414 435 336 317
4 418 437 340 321
4 422 439 342 325
4 426 441 344 329
4 430 443 346 333
4 434 445 348 337
4 448 449 450 451
4 449 452 453 450
4 452 454 455 453
4 454 456 457 455
4 456 458 459 457
4 458 460 461 459
4 460 462 463 461
4 462 464 465 463
4 464 466 467 465
4 466 468 469 467
4 468 470 471 469
4 470 472 473 471
4 472 474 475 473
4 474 476 477 475
4 476 478 479 477
4 478 480 481 479
4 480 482 483 481
4 482 484 485 483
4 484 486 487 485
4 486 488 489 487
4 488 490 491 489
4 490 492 493 491
4 492 494 495 493
4 494 496 497 495
4 496 498 499 497
4 498 500 501 499
4 500 502 503 501
4 502 504 505 503
4 504 506 507 505
4 506 508 509 507
4 510 448 451 511
4 508 510 511 509
4 512 513 514 515
4 516 517 518 519
4 520 521 522 523
4 524 525 526 527
4 528 529 530 531
4 532 533 534 535
4 536 537 538 539
4 540 541 542 543
4 544 545 546 547
4 548 549 550 551
4 552 553 554 555
4 556 557 558 559
4 560 561 562 563
4 564 565 513 512
4 566 567 517 516
4 568 569 521 520
4 570 571 525 524
4 572 573 529 528
4 574 575 533 532
4 519 518 537 536
4 523 522 541 540
4 527 526 545 544
4 531 530 549 548
4 535 534 553 552
4 539 538 557 556
4 515 514 575 574
4 543 542 561 560
4 547 546 565 564
4 551 550 567 566
4 555 554 569 568
4 559 558 571 570
4 563 562 573 572
4 546 576 577 565
4 558 578 579 571
4 517 580 581 518
4 529 582 583 530
4 541 584 585 542
4 553 586 587 554
4 565 577 588 513
4 571 579 589 525
4 518 581 590 537
4 530 583 591 549
4 542 585 592 561
4 554 587 593 569
4 514 594 595 575
4 513 588 594 514
4 525 589 596 526
4 537 590 597 538
4 549 591 598 550
4 561 592 599 562
4 569 593 600 521
4 575 595 601 533
4 526 596 602 545
4 538 597 603 557
4 550 598 604 567
4 562 599 605 573
4 521 600 606 522
4 533 601 607 534
4 545 602 576 546
4 557 603 578 558
4 567 604 580 517
4 573 605 582 529
4 522 606 584 541
4 534 607 586 553
4 608 609 610 611
4 612 613 614 615
4 616 617 618 619
4 620 621 622 623
4 624 625 626 627
4 628 629 630 631
4 632 633 634 635
4 636 637 638 639
4 640 641 642 643
4 644 645 646 647
4 648 649 650 651
4 652 653 654 655
4 656 657 658 659
4 660 661 609 608
4 662 663 613 612
4 664 665 617 616
4 666 667 621 620
4 668 669 625 624
4 670 671 629 628
4 615 614 633 632
4 619 618 637 636
4 623 622 641 640
4 627 626 645 644
4 631 630 649 648
4 635 634 653 652
4 611 610 671 670
4 639 638 657 656
4 643 642 661 660
4 647 646 663 662
4 651 650 665 664
4 655 654 667 666
4 659 658 669 668
4 510 608 611 448
4 486 612 615 488
4 462 616 619 464
4 500 620 623 502
4 476 624 627 478
4 452 628 631 454
4 490 632 635 492
4 466 636 639 468
4 504 640 643 506
4 480 644 647 482
4 456 648 651 458
4 494 652 655 496
4 470 656 659 472
4 508 660 608 510
4 484 662 612 486
4 460 664 616 462
4 498 666 620 500
4 474 668 624 476
4 449 670 628 452
4 488 615 632 490
4 464 619 636 466
4 502 623 640 504
4 478 627 644 480
4 454 631 648 456
4 492 635 652 494
4 448 611 670 449
4 468 639 656 470
4 506 643 660 508
4 482 647 662 484
4 458 651 664 460
4 496 655 666 498
4 472 659 668 474
4 609 512 515 610
4 613 516 519 614
4 617 520 523 618
4 621 524 527 622
4 625 528 531 626
4 629 532 535 630
4 633 536 539 634
4 637 540 543 638
4 641 544 547 642
4 645 548 551 646
4 649 552 555 650
4 653 556 559 654
4 657 560 563 658
4 661 564 512 609
4 663 566 516 613
4 665 568 520 617
4 667 570 524 621
4 669 572 528 625
4 671 574 532 629
4 614 519 536 633
4 618 523 540 637
4 622 527 544 641
4 626 531 548 645
4 630 535 552 649
4 634 539 556 653
4 610 515 574 671
4 638 543 560 657
4 642 547 564 661
4 646 551 566 663
4 650 555 568 665
4 654 559 570 667
4 658 563 572 669
4 672 673 674 675
4 673 676 677 674
4 676 678 679 677
4 678 680 681 679
4 680 682 683 681
4 682 684 685 683
4 684 686 687 685
4 686 688 689 687
4 688 690 691 689
4 690 692 693 691
4 692 694 695 693
4 694 696 697 695
4 696 698 699 697
4 698 700 701 699
4 700 702 703 701
4 702 704 705 703
4 704 706 707 705
4 706 708 709 707
4 708 710 711 709
4 710 712 713 711
4 712 714 715 713
4 714 716 717 715
4 716 718 719 717
4 718 720 721 719
4 720 722 723 721
4 722 724 725 723
4 724 726 727 725
4 726 728 729 727
4 728 730 731 729
4 730 732 733 731
4 734 672 675 735
4 732 734 735 733
4 736 737 738 739
4 740 741 742 743
4 744 745 746 747
4 748 749 750 751
4 752 753 754 755
4 756 757 758 759
4 760 761 762 763
4 764 765 766 767
4 768 769 770 771
4 772 773 774 775
4 776 777 778 779
4 780 781 782 783
4 784 785 786 787
4 788 789 737 736
4 790 791 741 740
4 792 793 745 744
4 794 795 749 748
4 796 797 753 752
4 798 799 757 756
4 743 742 761 760
4 747 746 765 764
4 751 750 769 768
4 755 754 773 772
4 759 758 777 776
4 763 762 781 780
4 739 738 799 798
4 767 766 785 784
4 771 770 789 788
4 775 774 791 790
4 779 778 793 792
4 783 782 795 794
4 787 786 797 796
4 770 800 801 789
4 782 802 803 795
4 741 804 805 742
4 753 806 807 754
4 765 808 809 766
4 777 810 811 778
4 789 801 812 737
4 795 803 813 749
4 742 805 814 761
4 754 807 815 773
4 766 809 816 785
4 778 811 817 793
4 738 818 819 799
4 737 812 818 738
4 749 813 820 750
4 761 814 821 762
4 773 815 822 774
4 785 816 823 786
4 793 817 824 745
4 799 819 825 757
4 750 820 826 769
4 762 821 827 781
4 774 822 828 791
4 786 823 829 797
4 745 824 830 746
4 757 825 831 758
4 769 826 800 770
4 781 827 802 782
4 791 828 804 741
4 797 829 806 753
4 746 830 808 765
4 758 831 810 777
4 832 833 834 835
4 836 837 838 839
4 840 841 842 843
4 844 845 846 847
4 848 849 850 851
4 852 853 854 855
4 856 857 858 859
4 860 861 862 863
4 864 865 866 867
4 868 869 870 871
4 872 873 874 875
4 876 877 878 879
4 880 881 882 883
4 884 885 833 832
4 886 887 837 836
4 888 889 841 840
4 890 891 845 844
4 892 893 849 848
4 894 895 853 852
4 839 838 857 856
4 843 842 861 860
4 847 846 865 864
4 851 850 869 868
4 855 854 873 872
4 859 858 877 876
4 835 834 895 894
4 863 862 881 880
4 867 866 885 884
4 871 870 887 886
4 875 874 889 888
4 879 878 891 890
4 883 882 893 892
4 734 832 835 672
4 710 836 839 712
4 686 840 843 688
4 724 844 847 726
4 700 848 851 702
4 676 852 855 678
4 714 856 859 716
4 690 860 863 692
4 728 864 867 730
4 704 868 871 706
4 680 872 875 682
4 718 876 879 720
4 694 880 883 696
4 732 884 832 734
4 708 886 836 710
4 684 888 840 686
4 722 890 844 724
4 698 892 848 700
4 673 894 852 676
4 712 839 856 714
4 688 843 860 690
4 726 847 864 728
4 702 851 868 704
4 678 855 872 680
4 716 859 876 718
4 672 835 894 673
4 692 863 880 694
4 730 867 884 732
4 706 871 886 708
4 682 875 888 684
4 720 879 890 722
4 696 883 892 698
4 833 736 739 834
4 837 740 743 838
4 841 744 747 842
4 845 748 751 846
4 849 752 755 850
4 853 756 759 854
4 857 760 763 858
4 861 764 767 862
4 865 768 771 866
4 869 772 775 870
4 873 776 779 874
4 877 780 783 878
4 881 784 787 882
4 885 788 736 833
4 887 790 740 837
4 889 792 744 841
4 891 794 748 845
4 893 796 752 849
4 895 798 756 853
4 838 743 760 857
4 842 747 764 861
4 846 751 768 865
4 850 755 772 869
4 854 759 776 873
4 858 763 780 877
4 834 739 798 895
4 862 767 784 881
4 866 771 788 885
4 870 775 790 887
4 874 779 792 889
4 878 783 794 891
4 882 787 796 893
