ply
format ascii 1.0
comment Created by Blender 2.79 (sub 0) - www.blender.org, source file: 'm3_v2.blend'
element vertex 501
property float x
property float y
property float z
property float nx
property float ny
property float nz
element face 464
property list uchar uint vertex_indices
end_header
1.461228 0.453383 1.383364 0.419782 0.854823 0.304971
1.430187 0.458325 1.393224 0.213294 0.897000 0.387097
1.469808 0.390805 1.527051 0.233650 0.894192 0.381787
1.502982 0.385584 1.514153 0.437361 0.847407 0.300974
1.512034 0.318688 1.669806 0.245460 0.892575 0.378124
1.547580 0.312918 1.653392 0.417554 0.853694 0.311106
1.380257 0.462308 1.404172 0.160649 0.903714 0.396771
1.415398 0.396599 1.538890 0.182684 0.901914 0.391339
1.452853 0.326413 1.682593 0.193182 0.900845 0.388745
1.521660 0.378142 1.493267 0.705374 0.695334 0.137577
1.480170 0.444211 1.370200 0.695120 0.705435 0.138249
1.532580 0.365685 1.457466 0.841792 0.539659 0.008972
1.493800 0.427535 1.349341 0.836390 0.548051 0.007111
1.566278 0.306569 1.623445 0.661611 0.729789 0.172155
1.574915 0.297108 1.570057 0.833186 0.552568 0.021271
1.444937 0.499272 1.261356 0.705649 0.698233 0.120273
1.425165 0.511449 1.269477 0.426130 0.855129 0.295175
1.418072 0.540345 1.176600 0.725852 0.681204 0.095218
1.397381 0.555546 1.181630 0.444777 0.851375 0.278024
1.462132 0.475929 1.250146 0.839320 0.543565 -0.006745
1.438584 0.510448 1.171231 0.846767 0.531358 -0.024689
1.395778 0.516650 1.277252 0.199103 0.899533 0.388775
1.349742 0.519064 1.287427 0.138005 0.905606 0.401013
1.369187 0.561184 1.188063 0.190405 0.902829 0.385449
1.326166 0.562391 1.197642 0.117283 0.908475 0.401105
1.522291 0.371463 1.288852 0.885830 0.460158 -0.059450
1.508909 0.400083 1.316395 0.873714 0.484664 -0.041078
1.542482 0.345420 1.399824 0.877682 0.477645 -0.038484
1.548034 0.326636 1.326908 0.889157 0.453658 -0.059572
1.580280 0.282000 1.483322 0.876766 0.479598 -0.034669
1.583110 0.264133 1.380144 0.890042 0.452132 -0.057802
1.545905 0.318622 1.245286 0.892361 0.445479 -0.071932
1.511255 0.384390 1.226168 0.886685 0.457228 -0.068300
1.540797 0.316370 1.173689 0.892758 0.443098 -0.081240
1.500496 0.394817 1.162013 0.887417 0.454115 -0.078860
1.584144 0.246389 1.277431 0.894070 0.442122 -0.071413
1.584122 0.231654 1.192088 0.894314 0.440107 -0.080294
1.483784 0.437231 1.233102 0.873806 0.483474 -0.051546
1.466242 0.460724 1.163781 0.876217 0.477523 -0.064455
1.483398 0.345764 1.253465 -0.844966 -0.533280 -0.039918
1.466035 0.370415 1.273409 -0.809564 -0.579180 -0.095431
1.447322 0.405135 1.208594 -0.824396 -0.562090 -0.066195
1.476988 0.358778 1.205142 -0.852931 -0.521653 -0.017762
1.435354 0.428137 1.154767 -0.840968 -0.537980 -0.057283
1.470266 0.370358 1.155525 -0.859828 -0.510300 -0.015992
1.442084 0.395272 1.297002 -0.707968 -0.674764 -0.208441
1.420888 0.439522 1.219976 -0.747093 -0.643727 -0.165593
1.405912 0.471947 1.158723 -0.787683 -0.600024 -0.139531
1.511237 0.300792 1.221873 -0.864284 -0.502976 -0.001679
1.507516 0.305479 1.284059 -0.850581 -0.524216 -0.040407
1.547777 0.236991 1.248697 -0.867641 -0.497177 -0.000519
1.539304 0.249756 1.326690 -0.850887 -0.523179 -0.047365
1.510039 0.301441 1.166873 -0.868282 -0.496017 0.003296
1.552242 0.226955 1.183517 -0.870937 -0.491256 0.008423
1.493015 0.320890 1.338783 -0.808008 -0.578234 -0.112766
1.469309 0.339643 1.381158 -0.692923 -0.681906 -0.234169
1.524127 0.263962 1.404437 -0.799402 -0.586566 -0.129765
1.499550 0.278324 1.468880 -0.666158 -0.698965 -0.260140
1.351400 0.551080 1.103748 -0.412671 -0.702200 -0.580126
1.326295 0.556494 1.108389 -0.210211 -0.749474 -0.627735
1.326979 0.563585 1.101441 -0.232429 -0.330180 -0.914823
1.351773 0.558169 1.096781 -0.262307 -0.303140 -0.916105
1.328766 0.568405 1.101147 -0.204413 0.014130 -0.978759
1.353812 0.562913 1.096438 -0.141026 -0.013977 -0.989898
1.288640 0.556634 1.117004 -0.147954 -0.761071 -0.631550
1.289552 0.563585 1.110157 -0.211676 -0.359020 -0.908994
1.291044 0.568405 1.109894 -0.226051 0.015534 -0.973968
1.371551 0.541919 1.095477 -0.335948 -0.322703 -0.884854
1.371418 0.535145 1.102309 -0.652577 -0.607898 -0.452284
1.393931 0.509419 1.096828 -0.436079 -0.331034 -0.836787
1.393806 0.503442 1.103301 -0.777520 -0.529923 -0.338542
1.373799 0.546438 1.095061 -0.078188 -0.056246 -0.995331
1.396346 0.513486 1.096312 -0.068117 -0.090274 -0.993561
1.374662 0.522146 1.122130 -0.678274 -0.672964 -0.294992
1.353588 0.537502 1.124093 -0.417920 -0.791986 -0.445021
1.382547 0.498953 1.161514 -0.640034 -0.715201 -0.280709
1.359229 0.513291 1.164570 -0.386059 -0.820795 -0.420972
1.397341 0.492102 1.121881 -0.808435 -0.565935 -0.161626
1.327135 0.543030 1.128759 -0.192145 -0.837977 -0.510697
1.288320 0.543591 1.137119 -0.123966 -0.846004 -0.518540
1.329926 0.519093 1.169317 -0.183142 -0.857418 -0.480880
1.288605 0.520495 1.177185 -0.121097 -0.864132 -0.488418
1.465709 0.382108 1.110411 -0.836879 -0.494980 -0.233680
1.426025 0.450724 1.105954 -0.816279 -0.503311 -0.283395
1.426533 0.455252 1.100135 -0.487106 -0.339274 -0.804712
1.466801 0.384836 1.104907 -0.538347 -0.357799 -0.762963
1.429069 0.458566 1.099485 -0.103580 -0.119785 -0.987365
1.469424 0.387170 1.104101 -0.166906 -0.156957 -0.973388
1.512179 0.303586 1.110657 -0.605792 -0.387066 -0.695090
1.510490 0.302711 1.116816 -0.852412 -0.492416 -0.175665
1.560112 0.216919 1.116896 -0.585009 -0.375439 -0.718863
1.557821 0.217923 1.124195 -0.857540 -0.491012 -0.153264
1.514868 0.304791 1.109677 -0.258705 -0.205878 -0.943724
1.562856 0.216919 1.115735 -0.311502 -0.232368 -0.921384
1.509784 0.302038 1.133704 -0.868465 -0.494766 -0.030366
1.466685 0.377708 1.125616 -0.862087 -0.503647 -0.055788
1.555393 0.220933 1.144209 -0.870510 -0.491653 -0.021302
1.428610 0.442510 1.122359 -0.847896 -0.521714 -0.094028
1.209783 0.475417 1.438055 0.116855 0.916745 0.381939
1.102078 0.480944 1.452089 0.068667 0.923307 0.377850
1.112298 0.423706 1.590485 0.079104 0.922544 0.377636
1.229650 0.415666 1.575386 0.134129 0.915281 0.379772
1.123192 0.362555 1.738113 0.084262 0.922208 0.377361
1.250826 0.351837 1.721878 0.142857 0.914457 0.378552
0.987953 0.483386 1.458251 0.000000 0.926359 0.376568
0.987953 0.427258 1.597112 0.000000 0.926084 0.377239
0.987953 0.367292 1.745235 0.000000 0.926023 0.377392
1.333015 0.405758 1.556594 0.170049 0.907529 0.383953
1.304649 0.468605 1.420599 0.148839 0.909452 0.388165
1.363248 0.338626 1.701661 0.180731 0.906400 0.381756
1.280020 0.522881 1.302747 0.127049 0.911466 0.391186
1.192533 0.527009 1.319044 0.099124 0.918424 0.382916
1.260995 0.564299 1.212108 0.107089 0.914457 0.390179
1.179210 0.566363 1.227514 0.082888 0.921201 0.380108
1.093204 0.530359 1.332155 0.057924 0.924406 0.376904
0.987953 0.531839 1.337914 0.000000 0.927091 0.374767
1.086351 0.568038 1.239915 0.048158 0.926786 0.372417
0.987953 0.568778 1.245364 0.000000 0.929197 0.369549
1.152522 0.442295 1.351642 -0.087619 -0.877407 -0.471633
1.071876 0.444030 1.360680 -0.050386 -0.880764 -0.470840
1.073278 0.488393 1.277738 -0.049471 -0.878872 -0.474441
1.154629 0.487342 1.267654 -0.085452 -0.875668 -0.475265
1.074397 0.522998 1.213912 -0.049440 -0.873684 -0.483902
1.156328 0.522473 1.203024 -0.084872 -0.870510 -0.484725
0.987953 0.444635 1.364698 0.000000 -0.882290 -0.470687
0.987953 0.488760 1.282203 0.000000 -0.880367 -0.474258
0.987953 0.523182 1.218722 0.000000 -0.875210 -0.483718
1.228031 0.485656 1.255266 -0.110721 -0.872036 -0.476730
1.226615 0.439513 1.340598 -0.114139 -0.873623 -0.473006
1.289509 0.483386 1.243887 -0.124424 -0.869045 -0.478805
1.290878 0.435768 1.330565 -0.129704 -0.870449 -0.474837
1.229235 0.521630 1.189602 -0.109256 -0.866970 -0.486190
1.225058 0.386591 1.439042 -0.118320 -0.873989 -0.471236
1.150143 0.390637 1.448535 -0.090457 -0.877987 -0.469985
1.223430 0.330279 1.544042 -0.120090 -0.874081 -0.470656
1.147628 0.335673 1.551880 -0.091159 -0.878201 -0.469466
1.292555 0.381144 1.430561 -0.135258 -0.870693 -0.472823
1.294388 0.323016 1.537216 -0.138066 -0.870632 -0.472121
1.070284 0.393160 1.456367 -0.051668 -0.881527 -0.469253
0.987953 0.394041 1.459869 0.000000 -0.883114 -0.469131
1.068598 0.339038 1.558426 -0.051576 -0.881771 -0.468795
0.987953 0.340213 1.561377 0.000000 -0.883358 -0.468673
1.382605 0.423965 1.319207 -0.310007 -0.844234 -0.437147
1.342034 0.431143 1.324558 -0.175695 -0.864681 -0.470534
1.335090 0.480583 1.236830 -0.177160 -0.863155 -0.472793
1.369217 0.474301 1.231933 -0.342448 -0.837245 -0.426252
1.396335 0.461595 1.227036 -0.576159 -0.756951 -0.308267
1.415114 0.412565 1.311145 -0.518418 -0.782434 -0.344951
1.437976 0.354355 1.406292 -0.494034 -0.788659 -0.365886
1.398449 0.365716 1.419417 -0.299722 -0.844905 -0.443007
1.462879 0.291554 1.506959 -0.477920 -0.793695 -0.376263
1.415522 0.303509 1.526094 -0.300394 -0.844325 -0.443648
1.350164 0.374415 1.425763 -0.179052 -0.864650 -0.469344
1.358888 0.314045 1.533707 -0.183233 -0.864193 -0.468551
1.158305 0.556832 1.144720 -0.106876 -0.769189 -0.629994
1.075630 0.556884 1.156331 -0.062655 -0.774346 -0.629627
1.076010 0.563585 1.149786 -0.090762 -0.396649 -0.913450
1.159005 0.563585 1.138095 -0.153996 -0.383343 -0.910672
1.076409 0.568405 1.149545 -0.098453 -0.040132 -0.994324
1.159792 0.568405 1.137853 -0.166295 -0.021607 -0.985809
0.987953 0.556903 1.161450 0.000000 -0.777245 -0.629170
0.987953 0.563585 1.154938 0.000000 -0.403485 -0.914975
0.987953 0.568405 1.154695 0.000000 -0.047761 -0.998840
1.231873 0.563585 1.123630 -0.195624 -0.368999 -0.908567
1.230976 0.556747 1.130363 -0.136357 -0.764122 -0.630482
1.233028 0.568405 1.123383 -0.210089 -0.000031 -0.977660
1.230157 0.544045 1.150160 -0.113346 -0.848720 -0.516526
1.157483 0.544382 1.164205 -0.088534 -0.852412 -0.515305
1.075137 0.544592 1.175575 -0.051790 -0.855831 -0.514603
0.987953 0.544665 1.180591 0.000000 -0.857570 -0.514359
1.371496 0.593186 1.102716 0.457991 0.884610 0.087466
1.344484 0.599185 1.107920 0.160039 0.958922 0.234138
1.353019 0.587329 1.134585 0.182470 0.912961 0.364940
1.380467 0.581438 1.128963 0.458510 0.854366 0.244575
1.304305 0.599306 1.116948 0.063814 0.962066 0.265206
1.311843 0.587812 1.143802 0.098788 0.917844 0.384381
1.401685 0.564449 1.125795 0.739952 0.670247 0.056368
1.392923 0.575361 1.100498 0.737327 0.668081 -0.099887
1.424168 0.530675 1.123943 0.850734 0.522355 -0.057802
1.416350 0.539761 1.100429 0.836512 0.507248 -0.207190
1.388937 0.576857 1.092263 0.425031 0.448286 -0.786340
1.367539 0.594853 1.094129 0.203070 0.695029 -0.689657
1.386874 0.572712 1.092644 -0.092013 -0.049104 -0.994537
1.365668 0.590501 1.094444 -0.146794 -0.011261 -0.989074
1.412600 0.540863 1.092836 0.471084 0.272317 -0.838984
1.410385 0.537132 1.093310 -0.084017 -0.080599 -0.993194
1.340792 0.600852 1.099171 -0.052370 0.775811 -0.628773
1.301085 0.600852 1.108122 -0.140446 0.766686 -0.626453
1.339154 0.596431 1.099440 -0.202063 0.013306 -0.979278
1.299717 0.596431 1.108363 -0.220832 0.013886 -0.975188
1.489680 0.403194 1.104621 0.865719 0.434462 -0.248451
1.449359 0.480439 1.101672 0.856075 0.455000 -0.245064
1.455413 0.474425 1.122265 0.876309 0.472304 -0.094668
1.493726 0.400794 1.123616 0.886227 0.450911 -0.105960
1.537410 0.314875 1.130848 0.891293 0.441542 -0.102878
1.535039 0.313824 1.109675 0.875759 0.429182 -0.220923
1.583780 0.222813 1.141021 0.892880 0.439192 -0.099307
1.582917 0.218392 1.115781 0.879910 0.429029 -0.204077
1.532973 0.312902 1.103082 0.413709 0.162236 -0.895810
1.487087 0.402887 1.098672 0.434584 0.182195 -0.881985
1.530506 0.311797 1.103980 -0.267342 -0.186377 -0.945372
1.484680 0.400745 1.099412 -0.179479 -0.142247 -0.973418
1.581329 0.216919 1.107918 0.521104 0.217353 -0.825312
1.578812 0.216919 1.108983 -0.317637 -0.210303 -0.924589
1.446139 0.480873 1.095115 0.456771 0.213721 -0.863491
1.443813 0.477834 1.095710 -0.118259 -0.108249 -0.987060
1.166880 0.599703 1.145241 0.042177 0.970550 0.237068
1.080010 0.599870 1.157003 0.023804 0.973907 0.225593
1.082191 0.590071 1.184600 0.039521 0.935240 0.351756
1.171123 0.589401 1.172625 0.068545 0.930082 0.360851
0.987953 0.599944 1.162174 0.000000 0.975036 0.221931
0.987953 0.590367 1.189864 0.000000 0.937346 0.348369
1.249442 0.588575 1.157754 0.089389 0.923704 0.372509
1.243374 0.599496 1.130639 0.056490 0.966155 0.251625
1.240804 0.600852 1.121718 -0.133702 0.760186 -0.635762
1.165093 0.600852 1.136228 -0.108371 0.749413 -0.653127
1.239744 0.596431 1.121945 -0.205023 -0.001312 -0.978729
1.164370 0.596431 1.136449 -0.162206 -0.022309 -0.986480
1.079095 0.600852 1.147919 -0.065310 0.740806 -0.668508
0.987953 0.600852 1.153060 0.000000 0.740135 -0.672414
1.078729 0.596431 1.148140 -0.095950 -0.040376 -0.994537
0.987953 0.596431 1.153283 0.000000 -0.047823 -0.998840
1.359807 0.576864 1.095429 -0.144047 -0.012543 -0.989471
1.334019 0.582578 1.100284 -0.203192 0.013703 -0.979034
1.336778 0.590022 1.099830 -0.202551 0.013489 -0.979156
1.362957 0.584192 1.094900 -0.145543 -0.011841 -0.989257
1.295430 0.582578 1.109120 -0.223365 0.014679 -0.974609
1.297733 0.590022 1.108713 -0.221992 0.014252 -0.974914
1.383884 0.566703 1.093197 -0.089053 -0.050630 -0.994720
1.380411 0.559724 1.093839 -0.085452 -0.052492 -0.994934
1.407174 0.531724 1.093997 -0.080508 -0.082705 -0.993286
1.403445 0.525444 1.094794 -0.076357 -0.085238 -0.993408
1.376901 0.552671 1.094488 -0.081668 -0.054445 -0.995148
1.356625 0.569458 1.095965 -0.142460 -0.013306 -0.989685
1.399677 0.519096 1.095600 -0.072054 -0.087893 -0.993500
1.331230 0.575054 1.100742 -0.203833 0.013947 -0.978881
1.293101 0.575054 1.109531 -0.224769 0.015137 -0.974273
1.477139 0.394035 1.101730 -0.173437 -0.149297 -0.973449
1.436525 0.468309 1.097576 -0.111179 -0.113804 -0.987243
1.440441 0.473427 1.096574 -0.115024 -0.110752 -0.987152
1.481191 0.397641 1.100484 -0.176733 -0.145451 -0.973418
1.526930 0.310195 1.105283 -0.265481 -0.190649 -0.945067
1.522776 0.308334 1.106797 -0.263222 -0.195746 -0.944639
1.575163 0.216919 1.110527 -0.316385 -0.214972 -0.923948
1.570925 0.216919 1.112320 -0.314798 -0.220679 -0.923124
1.518578 0.306453 1.108326 -0.260842 -0.201056 -0.944182
1.473044 0.390391 1.102988 -0.169988 -0.153325 -0.973418
1.566642 0.216919 1.114133 -0.313089 -0.226753 -0.922239
1.432567 0.463137 1.098590 -0.107212 -0.116947 -0.987304
1.162107 0.582578 1.137143 -0.164190 -0.021973 -0.986175
1.077582 0.582578 1.148834 -0.097171 -0.040254 -0.994446
1.078198 0.590022 1.148462 -0.096500 -0.040345 -0.994507
1.163323 0.590022 1.136770 -0.163121 -0.022156 -0.986328
0.987953 0.582578 1.153981 0.000000 -0.047792 -0.998840
0.987953 0.590022 1.153606 0.000000 -0.047823 -0.998840
1.238208 0.590022 1.122274 -0.206153 -0.001038 -0.978484
1.236424 0.582578 1.122656 -0.207495 -0.000671 -0.978210
1.234621 0.575054 1.123042 -0.208869 -0.000336 -0.977935
1.160878 0.575054 1.137520 -0.165319 -0.021760 -0.985992
1.076959 0.575054 1.149211 -0.097842 -0.040193 -0.994385
0.987953 0.575054 1.154360 0.000000 -0.047792 -0.998840
0.514678 0.453383 1.383364 -0.419782 0.854823 0.304971
0.472924 0.385584 1.514153 -0.437361 0.847407 0.300974
0.506098 0.390805 1.527051 -0.233650 0.894192 0.381787
0.545719 0.458325 1.393224 -0.213294 0.897000 0.387097
0.560508 0.396599 1.538890 -0.182684 0.901914 0.391339
0.595649 0.462308 1.404172 -0.160649 0.903714 0.396771
0.428326 0.312918 1.653392 -0.417554 0.853694 0.311106
0.463872 0.318688 1.669806 -0.245460 0.892575 0.378124
0.523054 0.326413 1.682593 -0.193182 0.900845 0.388745
0.580128 0.516650 1.277252 -0.199103 0.899533 0.388775
0.550741 0.511449 1.269477 -0.426130 0.855129 0.295175
0.606719 0.561184 1.188063 -0.190405 0.902829 0.385449
0.578525 0.555546 1.181630 -0.444777 0.851375 0.278024
0.626164 0.519064 1.287427 -0.138005 0.905606 0.401013
0.649740 0.562391 1.197642 -0.117283 0.908475 0.401105
0.530969 0.499272 1.261356 -0.705649 0.698233 0.120273
0.495736 0.444211 1.370200 -0.695120 0.705435 0.138249
0.513774 0.475929 1.250146 -0.839320 0.543565 -0.006745
0.482106 0.427535 1.349341 -0.836390 0.548051 0.007111
0.557834 0.540345 1.176600 -0.725852 0.681204 0.095218
0.537322 0.510448 1.171231 -0.846767 0.531358 -0.024689
0.454247 0.378142 1.493267 -0.705374 0.695334 0.137577
0.409628 0.306569 1.623445 -0.661611 0.729789 0.172155
0.443326 0.365685 1.457466 -0.841792 0.539659 0.008972
0.400991 0.297108 1.570057 -0.833186 0.552568 0.021271
0.453615 0.371463 1.288852 -0.885830 0.460158 -0.059450
0.427872 0.326636 1.326908 -0.889157 0.453658 -0.059572
0.433424 0.345420 1.399824 -0.877682 0.477645 -0.038484
0.466998 0.400083 1.316395 -0.873714 0.484664 -0.041078
0.392796 0.264133 1.380144 -0.890042 0.452132 -0.057802
0.395626 0.282000 1.483322 -0.876766 0.479598 -0.034669
0.492122 0.437231 1.233102 -0.873806 0.483474 -0.051546
0.464651 0.384390 1.226168 -0.886685 0.457228 -0.068300
0.509664 0.460724 1.163781 -0.876217 0.477523 -0.064455
0.475411 0.394817 1.162013 -0.887417 0.454115 -0.078860
0.430001 0.318622 1.245286 -0.892361 0.445479 -0.071932
0.391762 0.246389 1.277431 -0.894070 0.442122 -0.071413
0.435109 0.316370 1.173689 -0.892758 0.443098 -0.081240
0.391785 0.231654 1.192088 -0.894314 0.440107 -0.080294
0.492508 0.345764 1.253465 0.844966 -0.533280 -0.039918
0.498918 0.358778 1.205142 0.852931 -0.521653 -0.017762
0.528584 0.405135 1.208594 0.824396 -0.562090 -0.066195
0.509871 0.370415 1.273409 0.809564 -0.579180 -0.095431
0.555018 0.439522 1.219976 0.747093 -0.643727 -0.165593
0.533822 0.395272 1.297002 0.707968 -0.674764 -0.208441
0.505640 0.370358 1.155525 0.859828 -0.510300 -0.015992
0.540552 0.428137 1.154767 0.840968 -0.537980 -0.057283
0.569995 0.471947 1.158723 0.787683 -0.600024 -0.139531
0.482892 0.320890 1.338783 0.808008 -0.578234 -0.112766
0.468390 0.305479 1.284059 0.850581 -0.524216 -0.040407
0.451779 0.263962 1.404437 0.799402 -0.586566 -0.129765
0.436602 0.249756 1.326690 0.850887 -0.523179 -0.047365
0.506597 0.339643 1.381158 0.692923 -0.681906 -0.234169
0.476356 0.278324 1.468880 0.666158 -0.698935 -0.260140
0.464670 0.300792 1.221873 0.864284 -0.502976 -0.001679
0.465867 0.301441 1.166873 0.868282 -0.496017 0.003296
0.428129 0.236991 1.248697 0.867641 -0.497177 -0.000519
0.423664 0.226955 1.183517 0.870937 -0.491256 0.008423
0.624506 0.551080 1.103748 0.412671 -0.702200 -0.580126
0.624133 0.558169 1.096781 0.262307 -0.303140 -0.916105
0.648927 0.563585 1.101441 0.232429 -0.330180 -0.914823
0.649612 0.556494 1.108389 0.210211 -0.749474 -0.627735
0.686354 0.563585 1.110157 0.211676 -0.359020 -0.908994
0.687266 0.556634 1.117004 0.147954 -0.761071 -0.631550
0.622094 0.562913 1.096438 0.141026 -0.014008 -0.989898
0.647140 0.568405 1.101147 0.204413 0.014130 -0.978759
0.684862 0.568405 1.109894 0.226051 0.015534 -0.973968
0.648771 0.543030 1.128759 0.192145 -0.837977 -0.510697
0.622318 0.537502 1.124093 0.417920 -0.791986 -0.445021
0.645980 0.519093 1.169317 0.183142 -0.857418 -0.480880
0.616677 0.513291 1.164570 0.386059 -0.820795 -0.420972
0.687587 0.543591 1.137119 0.123966 -0.846004 -0.518540
0.687301 0.520495 1.177185 0.121097 -0.864132 -0.488418
0.601244 0.522146 1.122130 0.678274 -0.672964 -0.294992
0.604489 0.535145 1.102308 0.652577 -0.607898 -0.452254
0.578565 0.492102 1.121881 0.808435 -0.565935 -0.161626
0.582100 0.503442 1.103301 0.777520 -0.529923 -0.338542
0.593359 0.498953 1.161514 0.640034 -0.715201 -0.280709
0.604356 0.541919 1.095477 0.335978 -0.322703 -0.884823
0.602107 0.546438 1.095061 0.078188 -0.056246 -0.995331
0.581975 0.509419 1.096828 0.436110 -0.331034 -0.836787
0.579560 0.513486 1.096312 0.068117 -0.090274 -0.993561
0.510197 0.382108 1.110411 0.836879 -0.494980 -0.233680
0.509106 0.384836 1.104907 0.538377 -0.357799 -0.762932
0.549373 0.455252 1.100135 0.487106 -0.339274 -0.804712
0.549881 0.450724 1.105954 0.816279 -0.503311 -0.283395
0.506482 0.387170 1.104101 0.166906 -0.156957 -0.973388
0.546837 0.458566 1.099485 0.103610 -0.119785 -0.987365
0.547296 0.442510 1.122359 0.847896 -0.521714 -0.094028
0.509221 0.377708 1.125616 0.862087 -0.503647 -0.055788
0.466123 0.302038 1.133704 0.868465 -0.494766 -0.030366
0.465416 0.302711 1.116816 0.852412 -0.492416 -0.175665
0.420513 0.220933 1.144209 0.870510 -0.491653 -0.021302
0.418085 0.217923 1.124195 0.857540 -0.491012 -0.153264
0.463727 0.303586 1.110657 0.605792 -0.387066 -0.695090
0.461038 0.304791 1.109677 0.258705 -0.205878 -0.943724
0.415794 0.216919 1.116896 0.585009 -0.375439 -0.718863
0.413050 0.216919 1.115735 0.311502 -0.232368 -0.921384
0.766123 0.475417 1.438055 -0.116855 0.916745 0.381939
0.746256 0.415666 1.575386 -0.134129 0.915281 0.379772
0.863608 0.423706 1.590485 -0.079104 0.922544 0.377636
0.873828 0.480944 1.452089 -0.068667 0.923307 0.377850
0.725080 0.351837 1.721878 -0.142857 0.914457 0.378552
0.852714 0.362555 1.738113 -0.084262 0.922208 0.377361
0.882702 0.530359 1.332155 -0.057924 0.924406 0.376904
0.783373 0.527009 1.319044 -0.099124 0.918424 0.382916
0.889556 0.568038 1.239915 -0.048158 0.926786 0.372417
0.796696 0.566363 1.227514 -0.082888 0.921201 0.380108
0.695886 0.522881 1.302747 -0.127049 0.911466 0.391186
0.671257 0.468605 1.420599 -0.148839 0.909452 0.388165
0.714911 0.564299 1.212108 -0.107089 0.914457 0.390179
0.642892 0.405758 1.556594 -0.170049 0.907529 0.383953
0.612658 0.338626 1.701661 -0.180731 0.906400 0.381756
0.823384 0.442295 1.351642 0.087619 -0.877407 -0.471633
0.821277 0.487342 1.267654 0.085452 -0.875668 -0.475265
0.902628 0.488393 1.277738 0.049471 -0.878872 -0.474441
0.904030 0.444030 1.360680 0.050386 -0.880764 -0.470840
0.819578 0.522473 1.203024 0.084872 -0.870510 -0.484725
0.901509 0.522998 1.213912 0.049440 -0.873684 -0.483902
0.905622 0.393160 1.456367 0.051668 -0.881527 -0.469253
0.825763 0.390637 1.448535 0.090457 -0.877987 -0.469985
0.907308 0.339038 1.558426 0.051576 -0.881771 -0.468795
0.828278 0.335673 1.551880 0.091159 -0.878201 -0.469466
0.750849 0.386591 1.439042 0.118320 -0.873989 -0.471236
0.749291 0.439513 1.340598 0.114139 -0.873623 -0.473006
0.683351 0.381144 1.430561 0.135258 -0.870693 -0.472823
0.685028 0.435768 1.330565 0.129704 -0.870449 -0.474837
0.752477 0.330279 1.544042 0.120090 -0.874081 -0.470656
0.681518 0.323016 1.537216 0.138066 -0.870632 -0.472121
0.747875 0.485656 1.255266 0.110721 -0.872036 -0.476730
0.746671 0.521630 1.189602 0.109256 -0.866970 -0.486190
0.686397 0.483386 1.243887 0.124424 -0.869045 -0.478805
0.593301 0.423965 1.319207 0.310007 -0.844234 -0.437147
0.606690 0.474301 1.231933 0.342479 -0.837245 -0.426252
0.640816 0.480583 1.236830 0.177160 -0.863155 -0.472793
0.633873 0.431143 1.324558 0.175695 -0.864681 -0.470534
0.625742 0.374415 1.425763 0.179022 -0.864650 -0.469344
0.577457 0.365716 1.419417 0.299722 -0.844905 -0.443007
0.617018 0.314045 1.533707 0.183233 -0.864193 -0.468551
0.560385 0.303509 1.526094 0.300394 -0.844325 -0.443648
0.537930 0.354355 1.406292 0.494034 -0.788659 -0.365917
0.560792 0.412565 1.311145 0.518418 -0.782434 -0.344951
0.513028 0.291554 1.506959 0.477920 -0.793695 -0.376263
0.579571 0.461595 1.227036 0.576159 -0.756951 -0.308267
0.817601 0.556832 1.144720 0.106876 -0.769189 -0.629994
0.816902 0.563585 1.138095 0.153996 -0.383343 -0.910672
0.899896 0.563585 1.149786 0.090762 -0.396649 -0.913450
0.900276 0.556884 1.156331 0.062655 -0.774346 -0.629627
0.816114 0.568405 1.137853 0.166295 -0.021607 -0.985809
0.899497 0.568405 1.149545 0.098453 -0.040132 -0.994324
0.900769 0.544592 1.175575 0.051790 -0.855831 -0.514603
0.818423 0.544382 1.164205 0.088534 -0.852412 -0.515305
0.745749 0.544045 1.150160 0.113346 -0.848720 -0.516526
0.744930 0.556747 1.130363 0.136357 -0.764092 -0.630482
0.744033 0.563585 1.123630 0.195624 -0.368999 -0.908567
0.742878 0.568405 1.123383 0.210089 -0.000031 -0.977660
0.604410 0.593186 1.102716 -0.457991 0.884610 0.087466
0.595439 0.581438 1.128963 -0.458510 0.854366 0.244575
0.622887 0.587329 1.134585 -0.182470 0.912961 0.364940
0.631422 0.599185 1.107920 -0.160039 0.958922 0.234138
0.664063 0.587812 1.143802 -0.098788 0.917844 0.384381
0.671602 0.599306 1.116948 -0.063814 0.962066 0.265206
0.635114 0.600852 1.099171 0.052370 0.775811 -0.628773
0.608367 0.594853 1.094129 -0.203070 0.695029 -0.689657
0.636753 0.596431 1.099440 0.202063 0.013306 -0.979278
0.610238 0.590501 1.094444 0.146794 -0.011261 -0.989074
0.674821 0.600852 1.108122 0.140446 0.766686 -0.626453
0.676189 0.596431 1.108363 0.220832 0.013886 -0.975188
0.586969 0.576857 1.092263 -0.425031 0.448286 -0.786340
0.582983 0.575361 1.100498 -0.737327 0.668081 -0.099887
0.563307 0.540863 1.092836 -0.471084 0.272317 -0.838984
0.559556 0.539761 1.100429 -0.836512 0.507248 -0.207190
0.589032 0.572712 1.092644 0.092013 -0.049104 -0.994537
0.565521 0.537132 1.093310 0.084017 -0.080599 -0.993194
0.574222 0.564449 1.125795 -0.739952 0.670247 0.056368
0.551739 0.530675 1.123943 -0.850734 0.522355 -0.057802
0.486226 0.403194 1.104621 -0.865719 0.434462 -0.248451
0.482180 0.400794 1.123616 -0.886227 0.450911 -0.105960
0.520493 0.474425 1.122265 -0.876309 0.472304 -0.094668
0.526547 0.480439 1.101672 -0.856075 0.455000 -0.245064
0.529767 0.480873 1.095115 -0.456771 0.213721 -0.863491
0.488819 0.402887 1.098672 -0.434584 0.182195 -0.881985
0.532093 0.477834 1.095710 0.118259 -0.108249 -0.987060
0.491226 0.400745 1.099412 0.179479 -0.142247 -0.973418
0.442933 0.312902 1.103082 -0.413709 0.162236 -0.895810
0.440867 0.313824 1.109675 -0.875759 0.429182 -0.220923
0.394577 0.216919 1.107918 -0.521104 0.217353 -0.825312
0.392989 0.218392 1.115781 -0.879910 0.429029 -0.204077
0.445400 0.311797 1.103980 0.267342 -0.186377 -0.945372
0.397094 0.216919 1.108983 0.317637 -0.210303 -0.924589
0.438496 0.314875 1.130848 -0.891293 0.441542 -0.102878
0.392126 0.222813 1.141021 -0.892880 0.439192 -0.099307
0.809026 0.599703 1.145241 -0.042177 0.970550 0.237068
0.804783 0.589401 1.172625 -0.068545 0.930082 0.360851
0.893715 0.590071 1.184600 -0.039521 0.935240 0.351756
0.895896 0.599870 1.157003 -0.023804 0.973907 0.225593
0.896812 0.600852 1.147919 0.065310 0.740806 -0.668508
0.810814 0.600852 1.136228 0.108371 0.749413 -0.653127
0.897177 0.596431 1.148140 0.095950 -0.040376 -0.994537
0.811536 0.596431 1.136449 0.162206 -0.022309 -0.986480
0.735102 0.600852 1.121718 0.133702 0.760186 -0.635762
0.732532 0.599496 1.130639 -0.056490 0.966155 0.251625
0.736162 0.596431 1.121945 0.205023 -0.001312 -0.978729
0.726464 0.588575 1.157754 -0.089389 0.923704 0.372509
0.616099 0.576864 1.095429 0.144047 -0.012543 -0.989471
0.612949 0.584192 1.094900 0.145543 -0.011841 -0.989257
0.639128 0.590022 1.099830 0.202551 0.013489 -0.979156
0.641887 0.582578 1.100284 0.203162 0.013703 -0.979034
0.678173 0.590022 1.108713 0.221992 0.014252 -0.974914
0.680477 0.582578 1.109120 0.223365 0.014679 -0.974609
0.644676 0.575054 1.100742 0.203833 0.013947 -0.978881
0.619281 0.569458 1.095965 0.142460 -0.013306 -0.989685
0.682805 0.575054 1.109531 0.224769 0.015137 -0.974273
0.599005 0.552671 1.094488 0.081668 -0.054445 -0.995148
0.595495 0.559724 1.093839 0.085421 -0.052492 -0.994934
0.576230 0.519096 1.095600 0.072054 -0.087893 -0.993500
0.572461 0.525444 1.094794 0.076357 -0.085238 -0.993408
0.592022 0.566703 1.093197 0.089053 -0.050630 -0.994720
0.568732 0.531724 1.093997 0.080508 -0.082705 -0.993286
0.498767 0.394035 1.101730 0.173437 -0.149297 -0.973449
0.494715 0.397641 1.100484 0.176733 -0.145451 -0.973418
0.535465 0.473427 1.096574 0.115024 -0.110752 -0.987152
0.539381 0.468309 1.097576 0.111209 -0.113804 -0.987243
0.543339 0.463137 1.098590 0.107212 -0.116947 -0.987304
0.502862 0.390391 1.102988 0.169988 -0.153325 -0.973418
0.457328 0.306453 1.108326 0.260842 -0.201056 -0.944182
0.453130 0.308334 1.106797 0.263222 -0.195746 -0.944639
0.409265 0.216919 1.114133 0.313089 -0.226753 -0.922239
0.404981 0.216919 1.112320 0.314798 -0.220679 -0.923124
0.448976 0.310195 1.105283 0.265481 -0.190649 -0.945067
0.400743 0.216919 1.110527 0.316385 -0.214972 -0.923948
0.813799 0.582578 1.137143 0.164190 -0.021973 -0.986175
0.812583 0.590022 1.136770 0.163121 -0.022156 -0.986328
0.897708 0.590022 1.148462 0.096500 -0.040345 -0.994507
0.898324 0.582578 1.148834 0.097171 -0.040254 -0.994446
0.898947 0.575054 1.149211 0.097842 -0.040193 -0.994385
0.815028 0.575054 1.137520 0.165319 -0.021760 -0.985992
0.741285 0.575054 1.123042 0.208869 -0.000336 -0.977935
0.739482 0.582578 1.122656 0.207495 -0.000671 -0.978210
0.737698 0.590022 1.122274 0.206153 -0.001038 -0.978484
4 0 1 2 3
4 3 2 4 5
4 1 6 7 2
4 2 7 8 4
4 0 3 9 10
4 10 9 11 12
4 3 5 13 9
4 9 13 14 11
4 0 10 15 16
4 16 15 17 18
4 10 12 19 15
4 15 19 20 17
4 0 16 21 1
4 1 21 22 6
4 16 18 23 21
4 21 23 24 22
4 25 26 27 28
4 28 27 29 30
4 26 12 11 27
4 27 11 14 29
4 25 28 31 32
4 32 31 33 34
4 28 30 35 31
4 31 35 36 33
4 25 32 37 26
4 26 37 19 12
4 32 34 38 37
4 37 38 20 19
4 39 40 41 42
4 42 41 43 44
4 40 45 46 41
4 41 46 47 43
4 39 42 48 49
4 49 48 50 51
4 42 44 52 48
4 48 52 53 50
4 39 49 54 40
4 40 54 55 45
4 49 51 56 54
4 54 56 57 55
4 58 59 60 61
4 61 60 62 63
4 59 64 65 60
4 60 65 66 62
4 58 61 67 68
4 68 67 69 70
4 61 63 71 67
4 67 71 72 69
4 58 68 73 74
4 74 73 75 76
4 68 70 77 73
4 73 77 47 75
4 58 74 78 59
4 59 78 79 64
4 74 76 80 78
4 78 80 81 79
4 82 83 84 85
4 85 84 86 87
4 83 70 69 84
4 84 69 72 86
4 82 85 88 89
4 89 88 90 91
4 85 87 92 88
4 88 92 93 90
4 82 89 94 95
4 95 94 52 44
4 89 91 96 94
4 94 96 53 52
4 82 95 97 83
4 83 97 77 70
4 95 44 43 97
4 97 43 47 77
4 98 99 100 101
4 101 100 102 103
4 99 104 105 100
4 100 105 106 102
4 98 101 107 108
4 108 107 7 6
4 101 103 109 107
4 107 109 8 7
4 98 108 110 111
4 111 110 112 113
4 108 6 22 110
4 110 22 24 112
4 98 111 114 99
4 99 114 115 104
4 111 113 116 114
4 114 116 117 115
4 118 119 120 121
4 121 120 122 123
4 119 124 125 120
4 120 125 126 122
4 118 121 127 128
4 128 127 129 130
4 121 123 131 127
4 127 131 81 129
4 118 128 132 133
4 133 132 134 135
4 128 130 136 132
4 132 136 137 134
4 118 133 138 119
4 119 138 139 124
4 133 135 140 138
4 138 140 141 139
4 142 143 144 145
4 145 144 80 76
4 143 130 129 144
4 144 129 81 80
4 142 145 146 147
4 147 146 46 45
4 145 76 75 146
4 146 75 47 46
4 142 147 148 149
4 149 148 150 151
4 147 45 55 148
4 148 55 57 150
4 142 149 152 143
4 143 152 136 130
4 149 151 153 152
4 152 153 137 136
4 154 155 156 157
4 157 156 158 159
4 155 160 161 156
4 156 161 162 158
4 154 157 163 164
4 164 163 65 64
4 157 159 165 163
4 163 165 66 65
4 154 164 166 167
4 167 166 131 123
4 164 64 79 166
4 166 79 81 131
4 154 167 168 155
4 155 168 169 160
4 167 123 122 168
4 168 122 126 169
4 170 171 172 173
4 173 172 23 18
4 171 174 175 172
4 172 175 24 23
4 170 173 176 177
4 177 176 178 179
4 173 18 17 176
4 176 17 20 178
4 170 177 180 181
4 181 180 182 183
4 177 179 184 180
4 180 184 185 182
4 170 181 186 171
4 171 186 187 174
4 181 183 188 186
4 186 188 189 187
4 190 191 192 193
4 193 192 38 34
4 191 179 178 192
4 192 178 20 38
4 190 193 194 195
4 195 194 196 197
4 193 34 33 194
4 194 33 36 196
4 190 195 198 199
4 199 198 200 201
4 195 197 202 198
4 198 202 203 200
4 190 199 204 191
4 191 204 184 179
4 199 201 205 204
4 204 205 185 184
4 206 207 208 209
4 209 208 116 113
4 207 210 211 208
4 208 211 117 116
4 206 209 212 213
4 213 212 175 174
4 209 113 112 212
4 212 112 24 175
4 206 213 214 215
4 215 214 216 217
4 213 174 187 214
4 214 187 189 216
4 206 215 218 207
4 207 218 219 210
4 215 217 220 218
4 218 220 221 219
4 222 223 224 225
4 225 224 188 183
4 223 226 227 224
4 224 227 189 188
4 222 225 228 229
4 229 228 230 231
4 225 183 182 228
4 228 182 185 230
4 222 229 232 233
4 233 232 71 63
4 229 231 234 232
4 232 234 72 71
4 222 233 235 223
4 223 235 236 226
4 233 63 62 235
4 235 62 66 236
4 237 238 239 240
4 240 239 205 201
4 238 231 230 239
4 239 230 185 205
4 237 240 241 242
4 242 241 243 244
4 240 201 200 241
4 241 200 203 243
4 237 242 245 246
4 246 245 92 87
4 242 244 247 245
4 245 247 93 92
4 237 246 248 238
4 238 248 234 231
4 246 87 86 248
4 248 86 72 234
4 249 250 251 252
4 252 251 220 217
4 250 253 254 251
4 251 254 221 220
4 249 252 255 256
4 256 255 227 226
4 252 217 216 255
4 255 216 189 227
4 249 256 257 258
4 258 257 165 159
4 256 226 236 257
4 257 236 66 165
4 249 258 259 250
4 250 259 260 253
4 258 159 158 259
4 259 158 162 260
4 261 262 263 264
4 264 263 265 266
4 262 267 268 263
4 263 268 269 265
4 261 264 270 271
4 271 270 272 273
4 264 266 274 270
4 270 274 275 272
4 261 271 276 277
4 277 276 278 279
4 271 273 280 276
4 276 280 281 278
4 261 277 282 262
4 262 282 283 267
4 277 279 284 282
4 282 284 285 283
4 286 287 288 289
4 289 288 284 279
4 287 290 291 288
4 288 291 285 284
4 286 289 292 293
4 293 292 294 295
4 289 279 278 292
4 292 278 281 294
4 286 293 296 287
4 287 296 297 290
4 293 295 298 296
4 296 298 299 297
4 300 301 302 303
4 303 302 304 305
4 301 306 307 302
4 302 307 308 304
4 300 303 309 310
4 310 309 311 312
4 303 305 313 309
4 309 313 314 311
4 300 310 315 301
4 301 315 316 306
4 310 312 317 315
4 315 317 318 316
4 319 320 321 322
4 322 321 323 324
4 320 325 326 321
4 321 326 327 323
4 319 322 328 329
4 329 328 330 331
4 322 324 332 328
4 328 332 333 330
4 319 329 334 335
4 335 334 336 337
4 329 331 338 334
4 334 338 308 336
4 319 335 339 320
4 320 339 340 325
4 335 337 341 339
4 339 341 342 340
4 343 344 345 346
4 346 345 341 337
4 344 347 348 345
4 345 348 342 341
4 343 346 349 350
4 350 349 307 306
4 346 337 336 349
4 349 336 308 307
4 343 350 351 352
4 352 351 353 354
4 350 306 316 351
4 351 316 318 353
4 343 352 355 344
4 344 355 356 347
4 352 354 357 355
4 355 357 358 356
4 359 360 361 362
4 362 361 105 104
4 360 363 364 361
4 361 364 106 105
4 359 362 365 366
4 366 365 367 368
4 362 104 115 365
4 365 115 117 367
4 359 366 369 370
4 370 369 274 266
4 366 368 371 369
4 369 371 275 274
4 359 370 372 360
4 360 372 373 363
4 370 266 265 372
4 372 265 269 373
4 374 375 376 377
4 377 376 125 124
4 375 378 379 376
4 376 379 126 125
4 374 377 380 381
4 381 380 382 383
4 377 124 139 380
4 380 139 141 382
4 374 381 384 385
4 385 384 386 387
4 381 383 388 384
4 384 388 389 386
4 374 385 390 375
4 375 390 391 378
4 385 387 392 390
4 390 392 333 391
4 393 394 395 396
4 396 395 392 387
4 394 331 330 395
4 395 330 333 392
4 393 396 397 398
4 398 397 399 400
4 396 387 386 397
4 397 386 389 399
4 393 398 401 402
4 402 401 313 305
4 398 400 403 401
4 401 403 314 313
4 393 402 404 394
4 394 404 338 331
4 402 305 304 404
4 404 304 308 338
4 405 406 407 408
4 408 407 161 160
4 406 409 410 407
4 407 410 162 161
4 405 408 411 412
4 412 411 379 378
4 408 160 169 411
4 411 169 126 379
4 405 412 413 414
4 414 413 332 324
4 412 378 391 413
4 413 391 333 332
4 405 414 415 406
4 406 415 416 409
4 414 324 323 415
4 415 323 327 416
4 417 418 419 420
4 420 419 421 422
4 418 273 272 419
4 419 272 275 421
4 417 420 423 424
4 424 423 425 426
4 420 422 427 423
4 423 427 428 425
4 417 424 429 430
4 430 429 431 432
4 424 426 433 429
4 429 433 434 431
4 417 430 435 418
4 418 435 280 273
4 430 432 436 435
4 435 436 281 280
4 437 438 439 440
4 440 439 436 432
4 438 295 294 439
4 439 294 281 436
4 437 440 441 442
4 442 441 443 444
4 440 432 431 441
4 441 431 434 443
4 437 442 445 446
4 446 445 447 448
4 442 444 449 445
4 445 449 450 447
4 437 446 451 438
4 438 451 298 295
4 446 448 452 451
4 451 452 299 298
4 453 454 455 456
4 456 455 211 210
4 454 368 367 455
4 455 367 117 211
4 453 456 457 458
4 458 457 459 460
4 456 210 219 457
4 457 219 221 459
4 453 458 461 462
4 462 461 427 422
4 458 460 463 461
4 461 463 428 427
4 453 462 464 454
4 454 464 371 368
4 462 422 421 464
4 464 421 275 371
4 465 466 467 468
4 468 467 469 470
4 466 426 425 467
4 467 425 428 469
4 465 468 471 472
4 472 471 326 325
4 468 470 473 471
4 471 473 327 326
4 465 472 474 475
4 475 474 476 477
4 472 325 340 474
4 474 340 342 476
4 465 475 478 466
4 466 478 433 426
4 475 477 479 478
4 478 479 434 433
4 480 481 482 483
4 483 482 479 477
4 481 444 443 482
4 482 443 434 479
4 480 483 484 485
4 485 484 348 347
4 483 477 476 484
4 484 476 342 348
4 480 485 486 487
4 487 486 488 489
4 485 347 356 486
4 486 356 358 488
4 480 487 490 481
4 481 490 449 444
4 487 489 491 490
4 490 491 450 449
4 492 493 494 495
4 495 494 254 253
4 493 460 459 494
4 494 459 221 254
4 492 495 496 497
4 497 496 410 409
4 495 253 260 496
4 496 260 162 410
4 492 497 498 499
4 499 498 473 470
4 497 409 416 498
4 498 416 327 473
4 492 499 500 493
4 493 500 463 460
4 499 470 469 500
4 500 469 428 463
