ply
format ascii 1.0
comment Created by Blender 2.79 (sub 0) - www.blender.org, source file: 'm3_v2.blend'
element vertex 754
property float x
property float y
property float z
property float nx
property float ny
property float nz
element face 672
property list uchar uint vertex_indices
end_header
1.590126 0.432965 -0.671291 -0.877102 -0.479781 -0.021058
1.569356 0.471217 -0.677571 -0.877285 -0.479476 -0.021027
1.570849 0.473071 -0.779851 -0.877285 -0.479415 -0.021790
1.591468 0.435032 -0.772751 -0.877102 -0.479781 -0.021577
1.572103 0.474476 -0.860421 -0.877468 -0.479080 -0.022065
1.592574 0.436631 -0.852675 -0.877255 -0.479507 -0.021760
1.529673 0.544339 -0.689752 -0.877316 -0.479385 -0.021027
1.531451 0.545794 -0.793531 -0.877316 -0.479354 -0.022217
1.532988 0.546832 -0.875275 -0.877499 -0.479019 -0.022614
1.599570 0.420114 -0.770038 -0.876003 -0.481765 -0.021546
1.598287 0.417959 -0.668947 -0.876247 -0.481338 -0.021119
1.601412 0.416757 -0.769520 -0.875118 -0.483413 -0.021546
1.600143 0.414578 -0.668571 -0.875576 -0.482589 -0.021149
1.600617 0.421793 -0.849667 -0.875973 -0.481826 -0.021699
1.602445 0.418458 -0.849028 -0.874905 -0.483779 -0.021699
1.596923 0.415479 -0.554640 -0.876888 -0.480239 -0.020478
1.588723 0.430560 -0.556574 -0.877468 -0.479141 -0.020264
1.595632 0.412824 -0.435360 -0.878079 -0.478072 -0.019532
1.587435 0.427946 -0.436875 -0.878414 -0.477462 -0.019074
1.598788 0.412074 -0.554405 -0.876400 -0.481063 -0.020539
1.597497 0.409401 -0.435243 -0.877804 -0.478591 -0.019654
1.567855 0.468990 -0.561907 -0.877621 -0.478896 -0.019868
1.527985 0.542447 -0.572337 -0.877712 -0.478774 -0.019166
1.566574 0.466469 -0.441184 -0.878567 -0.477248 -0.018097
1.526719 0.540093 -0.449685 -0.878689 -0.477065 -0.016358
1.582115 0.398545 0.566690 -0.884884 -0.465346 -0.018921
1.566979 0.427280 0.566679 -0.884579 -0.465957 -0.018494
1.566072 0.433216 0.461052 -0.884121 -0.466811 -0.018738
1.582432 0.402239 0.461052 -0.884365 -0.466353 -0.018952
1.565372 0.438673 0.359370 -0.884091 -0.466842 -0.019379
1.582781 0.405721 0.359370 -0.884274 -0.466506 -0.019166
1.538066 0.482128 0.566659 -0.884487 -0.466170 -0.017670
1.534820 0.492355 0.461052 -0.884060 -0.466994 -0.018403
1.532118 0.501589 0.359370 -0.884030 -0.466964 -0.019776
1.588864 0.390036 0.461052 -0.885586 -0.464003 -0.019013
1.588065 0.387219 0.566695 -0.886471 -0.462325 -0.019074
1.590333 0.387220 0.461052 -0.886654 -0.462020 -0.019013
1.589423 0.384598 0.566696 -0.887814 -0.459761 -0.019105
1.589626 0.392747 0.359370 -0.885189 -0.464766 -0.019074
1.591190 0.389760 0.359370 -0.885983 -0.463301 -0.019044
1.587258 0.384401 0.671650 -0.887570 -0.460189 -0.019318
1.581825 0.394794 0.671633 -0.885708 -0.463790 -0.019135
1.586472 0.381684 0.771271 -0.888577 -0.458266 -0.019776
1.581555 0.391140 0.771227 -0.886654 -0.461989 -0.019593
1.588498 0.381988 0.671654 -0.889157 -0.457137 -0.019318
1.587595 0.379484 0.771282 -0.890194 -0.455092 -0.019776
1.568004 0.421148 0.671589 -0.885342 -0.464492 -0.018555
1.541602 0.471445 0.671506 -0.885250 -0.464736 -0.017457
1.569052 0.415108 0.771118 -0.886258 -0.462752 -0.019013
1.545170 0.460843 0.770911 -0.886166 -0.462996 -0.017853
1.583591 0.411694 0.177723 -0.885067 -0.465011 -0.019074
1.583169 0.408837 0.266296 -0.884610 -0.465865 -0.019318
1.564973 0.443363 0.266296 -0.884457 -0.466140 -0.019868
1.564805 0.447449 0.177654 -0.884945 -0.465224 -0.019532
1.530216 0.509292 0.266296 -0.884396 -0.466231 -0.020844
1.528918 0.515731 0.177517 -0.884884 -0.465285 -0.020386
1.564801 0.451092 0.089267 -0.885159 -0.464858 -0.018433
1.584048 0.414397 0.089540 -0.885250 -0.464705 -0.018464
1.564891 0.454454 -0.003042 -0.884762 -0.465682 -0.016785
1.584536 0.417055 -0.002358 -0.884823 -0.465560 -0.017609
1.528032 0.521175 0.088719 -0.885128 -0.464919 -0.018403
1.527360 0.525891 -0.004411 -0.884793 -0.465712 -0.015290
1.591615 0.399962 0.089632 -0.885708 -0.463790 -0.018464
1.590978 0.397624 0.177746 -0.885647 -0.463942 -0.018860
1.593341 0.396656 0.089632 -0.886135 -0.463027 -0.018464
1.592664 0.394397 0.177746 -0.886135 -0.463027 -0.018799
1.592258 0.402347 -0.002130 -0.885189 -0.464858 -0.017945
1.594019 0.398985 -0.002130 -0.885495 -0.464248 -0.018036
1.590323 0.395247 0.266296 -0.885311 -0.464553 -0.019074
1.591957 0.392125 0.266296 -0.885922 -0.463393 -0.019013
1.581072 0.384707 0.938478 -0.888150 -0.459059 -0.020692
1.580879 0.382160 1.002255 -0.888668 -0.458052 -0.021058
1.571652 0.400084 1.001773 -0.888607 -0.458144 -0.020569
1.570913 0.404367 0.938128 -0.887936 -0.459456 -0.020173
1.554043 0.434287 1.000858 -0.888638 -0.458144 -0.019532
1.551515 0.441881 0.937465 -0.887906 -0.459578 -0.019105
1.580729 0.380216 1.050214 -0.889004 -0.457381 -0.021210
1.572216 0.396804 1.049620 -0.889126 -0.457137 -0.020753
1.555974 0.428462 1.048491 -0.889218 -0.457015 -0.019776
1.570034 0.409445 0.860604 -0.887143 -0.461013 -0.019654
1.581301 0.387739 0.860822 -0.887478 -0.460372 -0.020203
1.548516 0.450861 0.860190 -0.887051 -0.461226 -0.018555
1.585735 0.379174 0.860909 -0.889126 -0.457167 -0.020325
1.585074 0.376949 0.938618 -0.889187 -0.457015 -0.020814
1.586751 0.377179 0.860931 -0.890500 -0.454482 -0.020295
1.585997 0.375143 0.938653 -0.890042 -0.455336 -0.020783
1.584517 0.375089 1.002448 -0.888882 -0.457625 -0.021180
1.584091 0.373674 1.050452 -0.888394 -0.458571 -0.021363
1.585362 0.373445 1.002496 -0.889035 -0.457320 -0.021180
1.584877 0.372155 1.050512 -0.887814 -0.459639 -0.021363
1.185159 1.173867 -0.254894 -0.882839 -0.469527 0.008515
1.206299 1.134181 -0.252638 -0.882687 -0.469893 0.007233
1.212449 1.124683 -0.129004 -0.884121 -0.467208 0.004913
1.191684 1.163991 -0.130373 -0.884274 -0.466872 0.006104
1.219393 1.112077 -0.015820 -0.885067 -0.465407 -0.005158
1.199044 1.150834 -0.016504 -0.885220 -0.465102 -0.004425
1.245853 1.059961 -0.248142 -0.882565 -0.470107 0.004852
1.251298 1.051170 -0.126266 -0.884030 -0.467360 0.002747
1.257466 1.039597 -0.014451 -0.884976 -0.465529 -0.006409
1.182977 1.180496 -0.130830 -0.884823 -0.465835 0.006775
1.176295 1.190531 -0.255658 -0.883419 -0.468459 0.009156
1.180298 1.185600 -0.130830 -0.885189 -0.465102 0.007233
1.173569 1.195684 -0.255676 -0.883816 -0.467696 0.009369
1.190509 1.167107 -0.016732 -0.885769 -0.464034 -0.003906
1.187881 1.172140 -0.016732 -0.886166 -0.463301 -0.002899
1.171341 1.197364 -0.388373 -0.881893 -0.471358 0.005280
1.180328 1.180611 -0.387234 -0.881252 -0.472549 0.004730
1.168992 1.201146 -0.526131 -0.880459 -0.474044 -0.004181
1.178050 1.184371 -0.524562 -0.879696 -0.475448 -0.004456
1.168578 1.202544 -0.388443 -0.882382 -0.470473 0.005371
1.166208 1.206330 -0.526306 -0.881039 -0.472945 -0.004151
1.201762 1.140712 -0.383959 -0.881069 -0.472945 0.003632
1.241869 1.066093 -0.377477 -0.880917 -0.473220 0.001556
1.199657 1.144416 -0.520206 -0.879452 -0.475906 -0.005158
1.240087 1.069691 -0.511669 -0.879330 -0.476150 -0.006500
1.387202 0.806929 -0.733803 -0.877346 -0.479324 -0.021058
1.309520 0.950121 -0.757825 -0.877377 -0.479293 -0.021058
1.312885 0.949370 -0.869735 -0.877163 -0.479537 -0.024293
1.390007 0.806956 -0.842845 -0.877224 -0.479446 -0.023591
1.315991 0.948386 -0.957816 -0.877255 -0.479293 -0.025361
1.392560 0.806686 -0.928690 -0.877346 -0.479171 -0.024445
1.244275 1.070395 -0.777947 -0.877407 -0.479263 -0.021088
1.248110 1.068989 -0.892287 -0.877132 -0.479568 -0.024873
1.251682 1.067404 -0.982263 -0.877194 -0.479385 -0.026093
1.467017 0.664760 -0.815987 -0.877285 -0.479385 -0.022858
1.464771 0.663956 -0.709805 -0.877346 -0.479354 -0.021027
1.469017 0.665202 -0.899603 -0.877438 -0.479080 -0.023469
1.462777 0.662604 -0.589565 -0.877804 -0.478622 -0.018189
1.384844 0.806221 -0.610198 -0.877895 -0.478500 -0.017090
1.461536 0.660517 -0.463775 -0.878842 -0.476852 -0.013947
1.383632 0.804451 -0.480663 -0.879025 -0.476608 -0.011170
1.306796 0.950059 -0.630846 -0.877987 -0.478378 -0.016022
1.241245 1.070877 -0.648117 -0.878079 -0.478225 -0.015198
1.305614 0.948606 -0.497558 -0.879177 -0.476394 -0.008545
1.434272 0.679026 0.566585 -0.884762 -0.465743 -0.014649
1.377676 0.786572 0.566544 -0.885220 -0.464949 -0.012391
1.361461 0.820502 0.461052 -0.884487 -0.466231 -0.015809
1.422632 0.704638 0.461052 -0.884213 -0.466750 -0.017029
1.347652 0.850613 0.359370 -0.884213 -0.466567 -0.021302
1.412742 0.727420 0.359370 -0.884060 -0.466842 -0.020966
1.330137 0.877182 0.566510 -0.886441 -0.462722 -0.009186
1.310082 0.917997 0.461052 -0.885250 -0.464827 -0.013855
1.292981 0.954177 0.359370 -0.884610 -0.465835 -0.020997
1.483712 0.589042 0.461052 -0.884060 -0.466964 -0.017853
1.490783 0.571794 0.566625 -0.884548 -0.466109 -0.016388
1.477736 0.604458 0.359370 -0.884030 -0.466964 -0.020356
1.498425 0.553663 0.671371 -0.885311 -0.464675 -0.015748
1.446819 0.652023 0.671210 -0.885647 -0.464125 -0.013459
1.506115 0.535602 0.770574 -0.886258 -0.462874 -0.016053
1.459430 0.625069 0.770170 -0.886654 -0.462203 -0.013611
1.395130 0.750742 0.671048 -0.886288 -0.462996 -0.010590
1.351705 0.834038 0.670913 -0.887936 -0.459914 -0.006500
1.412661 0.714930 0.769766 -0.887417 -0.460799 -0.010590
1.373350 0.790870 0.769427 -0.889401 -0.457045 -0.006195
1.400091 0.760823 0.177015 -0.884823 -0.465285 -0.023133
1.405444 0.745933 0.266296 -0.884365 -0.466140 -0.024018
1.337412 0.874985 0.266296 -0.884396 -0.466018 -0.025575
1.329848 0.894467 0.176742 -0.884823 -0.465224 -0.024506
1.280271 0.983419 0.266296 -0.884548 -0.465682 -0.026582
1.270850 1.006730 0.176513 -0.884884 -0.465072 -0.025544
1.324065 0.909906 0.085616 -0.885159 -0.464919 -0.018281
1.396036 0.772739 0.086711 -0.885128 -0.464949 -0.018342
1.319167 0.922151 -0.012169 -0.884915 -0.465621 -0.008332
1.392630 0.782327 -0.009431 -0.884884 -0.465651 -0.010712
1.263615 1.025120 0.084704 -0.885189 -0.464858 -0.018189
1.467901 0.635777 0.087806 -0.885128 -0.464949 -0.018372
1.470231 0.627384 0.177289 -0.884854 -0.465316 -0.021638
1.465984 0.642711 -0.006693 -0.884823 -0.465712 -0.013184
1.473376 0.617092 0.266296 -0.884365 -0.466231 -0.022309
1.481876 0.576630 0.935090 -0.888455 -0.458632 -0.015076
1.490823 0.557162 0.997582 -0.889187 -0.457198 -0.015656
1.456266 0.624536 0.995796 -0.889950 -0.455794 -0.013123
1.443842 0.650471 0.933795 -0.889309 -0.457106 -0.012360
1.427114 0.681668 0.994294 -0.891842 -0.452223 -0.009705
1.411804 0.713030 0.932706 -0.891354 -0.453169 -0.008454
1.497663 0.542208 1.044451 -0.889737 -0.456130 -0.016144
1.465762 0.604604 1.042248 -0.890439 -0.454848 -0.013855
1.438812 0.657554 1.040395 -0.892087 -0.451704 -0.010865
1.429103 0.681054 0.857900 -0.888455 -0.458785 -0.011536
1.471264 0.599601 0.858708 -0.887600 -0.460341 -0.014405
1.393633 0.749982 0.857221 -0.890561 -0.454726 -0.007294
1.513331 0.518558 0.859515 -0.887173 -0.461074 -0.016785
1.519802 0.503201 0.936383 -0.888028 -0.459395 -0.017365
1.525258 0.490196 0.999365 -0.888791 -0.457930 -0.017823
1.529428 0.480212 1.046650 -0.889370 -0.456771 -0.018189
1.585666 0.422518 -0.208496 -0.881832 -0.471175 -0.017151
1.593686 0.407477 -0.207738 -0.881893 -0.471053 -0.017914
1.592932 0.404866 -0.101624 -0.883816 -0.467452 -0.017670
1.585054 0.419774 -0.102081 -0.883602 -0.467879 -0.017029
1.595513 0.404056 -0.207726 -0.881954 -0.470962 -0.018097
1.594728 0.401465 -0.101624 -0.884030 -0.467086 -0.017853
1.565007 0.457698 -0.103450 -0.883602 -0.467940 -0.015534
1.565256 0.460798 -0.210748 -0.881893 -0.471145 -0.015473
1.526711 0.530147 -0.106188 -0.883663 -0.467910 -0.012879
1.526265 0.533937 -0.215239 -0.882015 -0.471023 -0.012513
1.565743 0.463730 -0.323728 -0.880093 -0.474502 -0.016388
1.586438 0.425254 -0.320472 -0.879971 -0.474624 -0.017853
1.526206 0.537254 -0.330195 -0.880215 -0.474319 -0.013733
1.594570 0.410143 -0.319355 -0.879849 -0.474868 -0.018525
1.596421 0.406715 -0.319308 -0.879727 -0.475051 -0.018738
1.386284 0.796516 -0.231690 -0.882321 -0.470595 -0.003357
1.462497 0.653553 -0.222718 -0.882168 -0.470840 -0.008240
1.464079 0.648628 -0.110751 -0.883755 -0.467818 -0.009064
1.389225 0.790232 -0.116227 -0.883877 -0.467666 -0.004700
1.314261 0.932049 -0.121703 -0.883969 -0.467513 -0.000519
1.309958 0.939695 -0.240662 -0.882443 -0.470351 0.001221
1.306872 0.945183 -0.366722 -0.880764 -0.473495 -0.001617
1.384266 0.801236 -0.353831 -0.880612 -0.473769 -0.005646
1.461545 0.657507 -0.340942 -0.880398 -0.474075 -0.009949
1.182508 1.184289 -0.796674 -0.877682 -0.478774 -0.021088
1.173491 1.200937 -0.799192 -0.878384 -0.477432 -0.021088
1.177837 1.198801 -0.916386 -0.877804 -0.478286 -0.025452
1.186789 1.182252 -0.913434 -0.877285 -0.479263 -0.025361
1.181915 1.196547 -1.008618 -0.877590 -0.478652 -0.026856
1.190802 1.180088 -1.005315 -0.877255 -0.479232 -0.026765
1.170721 1.206071 -0.799753 -0.878933 -0.476455 -0.021210
1.175088 1.203897 -0.917161 -0.878201 -0.477554 -0.025575
1.179186 1.201609 -1.009572 -0.877834 -0.478195 -0.026856
1.208146 1.142799 -0.906127 -0.877163 -0.479507 -0.025208
1.204020 1.144613 -0.790244 -0.877468 -0.479110 -0.021088
1.212005 1.140839 -0.997313 -0.877194 -0.479385 -0.026551
1.200800 1.145434 -0.658620 -0.878201 -0.478042 -0.014679
1.179186 1.185296 -0.664046 -0.878445 -0.477584 -0.014374
1.170125 1.202028 -0.666089 -0.879269 -0.476089 -0.014283
1.167341 1.207194 -0.666439 -0.879879 -0.474929 -0.014313
1.285108 0.964383 0.566478 -0.896329 -0.443281 0.006256
1.278519 0.978068 0.566473 -0.915799 -0.400220 0.033235
1.254321 1.025429 0.461052 -0.906034 -0.422895 0.014191
1.261431 1.011208 0.461052 -0.891781 -0.452437 -0.003754
1.233644 1.067422 0.359370 -0.896817 -0.442305 -0.006470
1.241211 1.052709 0.359370 -0.888180 -0.459151 -0.016175
1.276480 0.983206 0.566471 -0.925993 -0.374432 0.047639
1.252129 1.030398 0.461052 -0.913083 -0.407147 0.022034
1.231311 1.072262 0.359370 -0.900784 -0.434187 -0.003754
1.278379 0.978481 0.461052 -0.887051 -0.461470 -0.010498
1.300798 0.933603 0.566489 -0.889248 -0.457381 -0.004059
1.259246 1.018252 0.359370 -0.885586 -0.464034 -0.019623
1.324889 0.886131 0.670828 -0.891720 -0.452559 0.000092
1.310531 0.914820 0.670783 -0.900967 -0.433637 0.013855
1.349042 0.838576 0.769216 -0.893918 -0.448164 0.001190
1.335985 0.865105 0.769103 -0.904599 -0.425886 0.017243
1.304477 0.927908 0.670763 -0.923856 -0.379620 0.048555
1.302575 0.933194 0.670757 -0.936247 -0.344340 0.069460
1.330430 0.877516 0.769054 -0.928739 -0.366344 0.056642
1.328626 0.882869 0.769038 -0.942289 -0.324320 0.082949
1.214983 1.113109 0.176308 -0.885495 -0.463881 -0.025788
1.226161 1.086303 0.266296 -0.886166 -0.462630 -0.025513
1.218253 1.101479 0.266296 -0.890347 -0.454695 -0.021485
1.206819 1.128706 0.176285 -0.887234 -0.460646 -0.024476
1.215815 1.106292 0.266296 -0.892331 -0.450911 -0.020234
1.204303 1.133563 0.176285 -0.888119 -0.458937 -0.023469
1.198014 1.150213 0.083791 -0.886227 -0.462905 -0.017396
1.206377 1.134246 0.083882 -0.885464 -0.464309 -0.017884
1.195437 1.155153 0.083791 -0.886715 -0.461959 -0.016327
1.226315 1.096224 0.084156 -0.885250 -0.464705 -0.018067
1.234444 1.076031 0.176377 -0.885037 -0.464766 -0.026002
1.245011 1.050404 0.266296 -0.884945 -0.464858 -0.026673
1.381004 0.774953 0.931669 -0.906461 -0.421979 0.014191
1.398868 0.738485 0.992863 -0.905301 -0.424574 0.010010
1.394311 0.748614 0.992647 -0.924009 -0.380016 0.041658
1.376191 0.785808 0.931512 -0.927915 -0.369213 0.051088
1.392486 0.753520 0.992575 -0.936766 -0.343333 0.067446
1.374404 0.790918 0.931460 -0.941557 -0.327250 0.079562
1.412504 0.710400 1.038630 -0.903745 -0.428022 0.005707
1.408131 0.719942 1.038364 -0.919706 -0.391247 0.031861
1.406265 0.724662 1.038275 -0.930906 -0.361248 0.053346
1.354616 0.829462 0.856476 -0.929868 -0.363414 0.056734
1.359760 0.817821 0.856573 -0.906430 -0.422010 0.016785
1.352843 0.834739 0.856443 -0.943815 -0.319102 0.085543
1.371642 0.793449 0.856800 -0.895383 -0.445235 0.000153
1.391866 0.752609 0.932032 -0.896023 -0.443953 -0.001495
1.408892 0.717910 0.993364 -0.896023 -0.443953 -0.003632
1.421895 0.691211 1.039248 -0.895718 -0.444533 -0.005768
1.593636 0.438213 -0.930506 -0.877468 -0.479080 -0.021668
1.573324 0.475840 -0.938967 -0.877743 -0.478622 -0.021851
1.573525 0.476061 -0.951961 -0.877804 -0.478500 -0.021516
1.593770 0.438543 -0.943246 -0.877529 -0.478988 -0.021455
1.573610 0.476151 -0.957445 -0.877834 -0.478439 -0.021241
1.593785 0.438749 -0.948498 -0.877590 -0.478866 -0.021332
1.534485 0.547830 -0.955064 -0.877773 -0.478500 -0.022217
1.534733 0.547986 -0.968328 -0.877895 -0.478317 -0.021485
1.534837 0.548043 -0.973984 -0.877957 -0.478225 -0.020905
1.601570 0.424097 -0.939443 -0.876003 -0.481796 -0.021577
1.601578 0.423528 -0.927085 -0.875973 -0.481826 -0.021638
1.603148 0.421185 -0.938096 -0.874691 -0.484146 -0.021699
1.603334 0.420314 -0.926186 -0.874722 -0.484085 -0.021699
1.601405 0.424609 -0.944232 -0.876736 -0.480483 -0.021363
1.602511 0.422498 -0.941735 -0.874722 -0.484085 -0.021699
1.601273 0.422845 -0.899588 -0.875973 -0.481826 -0.021668
1.593267 0.437633 -0.902788 -0.877377 -0.479232 -0.021729
1.603093 0.419524 -0.898873 -0.874783 -0.483993 -0.021699
1.572889 0.475355 -0.910958 -0.877651 -0.478774 -0.022004
1.533952 0.547478 -0.926583 -0.877682 -0.478683 -0.022492
1.395048 0.806379 -1.012846 -0.877712 -0.478561 -0.023286
1.319019 0.947367 -1.044353 -0.877682 -0.478622 -0.023835
1.319519 0.947160 -1.059104 -0.877987 -0.478164 -0.021180
1.395459 0.806300 -1.027073 -0.877987 -0.478195 -0.021271
1.319730 0.947039 -1.065708 -0.878201 -0.477828 -0.019257
1.395632 0.806242 -1.033343 -0.878140 -0.477950 -0.019776
1.255163 1.065786 -1.070815 -0.877621 -0.478683 -0.024232
1.255738 1.065471 -1.086010 -0.878018 -0.478133 -0.021088
1.255981 1.065297 -1.092895 -0.878262 -0.477767 -0.018891
1.471287 0.665653 -0.995090 -0.877957 -0.478225 -0.021393
1.470965 0.665605 -0.981387 -0.877773 -0.478500 -0.022706
1.471422 0.665658 -1.001025 -0.878079 -0.478072 -0.020356
1.470270 0.665469 -0.952147 -0.877621 -0.478744 -0.023255
1.394161 0.806500 -0.982705 -0.877560 -0.478835 -0.024110
1.317939 0.947747 -1.013306 -0.877468 -0.478957 -0.024903
1.253922 1.066383 -1.039003 -0.877407 -0.479019 -0.025544
1.194732 1.177857 -1.095809 -0.877651 -0.478652 -0.024628
1.185965 1.194114 -1.099275 -0.877834 -0.478286 -0.024781
1.186849 1.193231 -1.114185 -0.878231 -0.477767 -0.020997
1.195435 1.177327 -1.111237 -0.878079 -0.478042 -0.021027
1.187429 1.192402 -1.120328 -0.878384 -0.477523 -0.018464
1.195783 1.176954 -1.118127 -0.878323 -0.477645 -0.018525
1.183331 1.198994 -1.100142 -0.877987 -0.477981 -0.024842
1.184446 1.197657 -1.114296 -0.878292 -0.477584 -0.021790
1.185635 1.195628 -1.118359 -0.878475 -0.477371 -0.018464
1.216388 1.138467 -1.102616 -0.878018 -0.478103 -0.021058
1.215766 1.138848 -1.087145 -0.877621 -0.478713 -0.024476
1.216650 1.138260 -1.109675 -0.878292 -0.477706 -0.018647
1.214425 1.139581 -1.054848 -0.877377 -0.479049 -0.025941
1.193318 1.178700 -1.063304 -0.877407 -0.478988 -0.026124
1.184472 1.195101 -1.066833 -0.877621 -0.478622 -0.026215
1.181756 1.200143 -1.067900 -0.877773 -0.478317 -0.026215
1.580576 0.378317 1.097273 -0.889248 -0.456862 -0.021424
1.580534 0.378026 1.105194 -0.889218 -0.456893 -0.021851
1.572852 0.393027 1.104582 -0.889523 -0.456282 -0.022431
1.572763 0.393579 1.096596 -0.889584 -0.456252 -0.021332
1.558163 0.421745 1.103204 -0.889584 -0.456099 -0.023682
1.557854 0.422729 1.095255 -0.889676 -0.456038 -0.021119
1.580501 0.377926 1.108647 -0.889218 -0.456923 -0.022126
1.572888 0.392778 1.108140 -0.889462 -0.456374 -0.023133
1.558292 0.421300 1.106744 -0.889492 -0.456221 -0.025239
1.572569 0.394737 1.079751 -0.889462 -0.456496 -0.020905
1.580635 0.378991 1.080417 -0.889187 -0.456984 -0.021271
1.557184 0.424789 1.078487 -0.889584 -0.456313 -0.020112
1.583823 0.372783 1.080683 -0.887936 -0.459395 -0.021393
1.583652 0.372330 1.097470 -0.887631 -0.459975 -0.021455
1.584571 0.371343 1.080750 -0.886868 -0.461470 -0.021424
1.584358 0.370980 1.097427 -0.886288 -0.462600 -0.021455
1.583517 0.372231 1.105142 -0.887448 -0.460341 -0.021607
1.583400 0.372308 1.108257 -0.888180 -0.458937 -0.021760
1.584150 0.371038 1.104760 -0.885983 -0.463149 -0.021485
1.583860 0.371491 1.106964 -0.885861 -0.463393 -0.021516
1.504326 0.527482 1.090456 -0.890133 -0.455214 -0.020203
1.505426 0.524950 1.098272 -0.889828 -0.455428 -0.027772
1.476545 0.581598 1.095582 -0.890225 -0.454482 -0.029664
1.475016 0.584975 1.087840 -0.890683 -0.454176 -0.019410
1.452101 0.629719 1.093321 -0.891507 -0.451949 -0.030000
1.450215 0.633805 1.085640 -0.892026 -0.451582 -0.017792
1.505887 0.523798 1.101748 -0.889523 -0.455702 -0.032289
1.477188 0.580062 1.099024 -0.889798 -0.454909 -0.035981
1.452897 0.627859 1.096733 -0.890713 -0.452895 -0.038270
1.471717 0.592030 1.071495 -0.890683 -0.454329 -0.015320
1.501951 0.532774 1.073962 -0.890072 -0.455458 -0.017182
1.446149 0.642341 1.069421 -0.892148 -0.451491 -0.012787
1.532043 0.473914 1.076425 -0.889737 -0.456038 -0.018830
1.533490 0.470382 1.093068 -0.889828 -0.455763 -0.020753
1.534160 0.468693 1.100957 -0.889645 -0.455885 -0.025575
1.534440 0.467926 1.104468 -0.889462 -0.456069 -0.028443
1.425818 0.682723 1.083518 -0.901608 -0.432508 -0.005432
1.428049 0.677912 1.091064 -0.900418 -0.434431 -0.021363
1.423988 0.686566 1.090434 -0.914151 -0.405286 0.002136
1.421655 0.691635 1.083126 -0.915067 -0.402936 0.016663
1.422210 0.690787 1.089916 -0.922575 -0.384991 0.024445
1.419789 0.696100 1.082918 -0.923521 -0.382031 0.033418
1.429018 0.675675 1.094347 -0.897824 -0.439009 -0.033753
1.425064 0.684071 1.093406 -0.907041 -0.420484 -0.021485
1.423522 0.687712 1.092070 -0.922025 -0.387005 0.008972
1.416807 0.701855 1.067147 -0.916623 -0.398999 0.024171
1.421062 0.692683 1.067444 -0.902493 -0.430677 0.001526
1.414921 0.706457 1.067047 -0.926115 -0.374859 0.041810
1.430053 0.674368 1.068136 -0.895383 -0.445143 -0.008393
1.434577 0.664917 1.084277 -0.895047 -0.445723 -0.014191
1.436678 0.660393 1.091921 -0.894345 -0.446455 -0.027863
1.437567 0.658334 1.095315 -0.893094 -0.448225 -0.037721
-1.597271 0.432965 -0.671291 0.877102 -0.479781 -0.021058
-1.598613 0.435032 -0.772751 0.877102 -0.479781 -0.021577
-1.577993 0.473071 -0.779851 0.877285 -0.479415 -0.021790
-1.576501 0.471217 -0.677571 0.877285 -0.479476 -0.021027
-1.538596 0.545794 -0.793531 0.877316 -0.479354 -0.022217
-1.536817 0.544339 -0.689752 0.877316 -0.479385 -0.021027
-1.599718 0.436631 -0.852675 0.877255 -0.479507 -0.021760
-1.579247 0.474476 -0.860421 0.877468 -0.479080 -0.022065
-1.540133 0.546832 -0.875275 0.877499 -0.479019 -0.022614
-1.575000 0.468990 -0.561907 0.877621 -0.478896 -0.019868
-1.595868 0.430560 -0.556574 0.877468 -0.479141 -0.020264
-1.573719 0.466469 -0.441184 0.878567 -0.477248 -0.018097
-1.594579 0.427946 -0.436875 0.878414 -0.477462 -0.019074
-1.535129 0.542447 -0.572337 0.877712 -0.478774 -0.019166
-1.533863 0.540093 -0.449685 0.878689 -0.477065 -0.016388
-1.604067 0.415479 -0.554640 0.876888 -0.480239 -0.020478
-1.605431 0.417959 -0.668947 0.876247 -0.481338 -0.021119
-1.605932 0.412074 -0.554405 0.876400 -0.481094 -0.020539
-1.607287 0.414578 -0.668571 0.875546 -0.482620 -0.021149
-1.602777 0.412824 -0.435360 0.878079 -0.478103 -0.019532
-1.604642 0.409401 -0.435243 0.877804 -0.478591 -0.019654
-1.606714 0.420114 -0.770038 0.876003 -0.481796 -0.021546
-1.607761 0.421793 -0.849667 0.875973 -0.481857 -0.021699
-1.608556 0.416757 -0.769520 0.875088 -0.483444 -0.021546
-1.609590 0.418458 -0.849028 0.874874 -0.483810 -0.021699
-1.589260 0.398545 0.566690 0.884915 -0.465346 -0.018921
-1.589576 0.402239 0.461052 0.884365 -0.466353 -0.018952
-1.573216 0.433216 0.461052 0.884121 -0.466811 -0.018738
-1.574124 0.427280 0.566679 0.884579 -0.465957 -0.018494
-1.541964 0.492355 0.461052 0.884060 -0.466994 -0.018403
-1.545211 0.482128 0.566659 0.884487 -0.466170 -0.017670
-1.589926 0.405721 0.359370 0.884274 -0.466506 -0.019166
-1.572517 0.438673 0.359370 0.884091 -0.466842 -0.019379
-1.539262 0.501589 0.359370 0.884030 -0.466964 -0.019776
-1.575148 0.421148 0.671589 0.885342 -0.464492 -0.018555
-1.588969 0.394794 0.671633 0.885739 -0.463759 -0.019135
-1.576197 0.415108 0.771118 0.886258 -0.462752 -0.019013
-1.588700 0.391140 0.771227 0.886654 -0.461989 -0.019593
-1.548746 0.471445 0.671506 0.885250 -0.464736 -0.017457
-1.552315 0.460843 0.770911 0.886166 -0.462996 -0.017853
-1.594403 0.384401 0.671650 0.887570 -0.460219 -0.019318
-1.595210 0.387219 0.566695 0.886471 -0.462355 -0.019074
-1.595643 0.381988 0.671654 0.889126 -0.457198 -0.019318
-1.596568 0.384598 0.566696 0.887814 -0.459792 -0.019105
-1.593616 0.381684 0.771271 0.888577 -0.458266 -0.019776
-1.594739 0.379484 0.771282 0.890194 -0.455123 -0.019776
-1.596009 0.390036 0.461052 0.885586 -0.464003 -0.019013
-1.596771 0.392747 0.359370 0.885189 -0.464766 -0.019074
-1.597477 0.387220 0.461052 0.886654 -0.462020 -0.019013
-1.598334 0.389760 0.359370 0.885983 -0.463301 -0.019044
-1.590736 0.411694 0.177723 0.885067 -0.465011 -0.019074
-1.571949 0.447449 0.177654 0.884945 -0.465224 -0.019532
-1.572117 0.443363 0.266296 0.884457 -0.466140 -0.019868
-1.590313 0.408837 0.266296 0.884610 -0.465865 -0.019318
-1.536063 0.515731 0.177517 0.884884 -0.465285 -0.020386
-1.537360 0.509292 0.266296 0.884396 -0.466231 -0.020844
-1.597467 0.395247 0.266296 0.885311 -0.464553 -0.019074
-1.598122 0.397624 0.177745 0.885647 -0.463942 -0.018860
-1.599101 0.392125 0.266296 0.885922 -0.463424 -0.019013
-1.599808 0.394397 0.177746 0.886105 -0.463027 -0.018799
-1.598759 0.399962 0.089632 0.885708 -0.463820 -0.018464
-1.591192 0.414397 0.089541 0.885250 -0.464705 -0.018464
-1.599403 0.402347 -0.002130 0.885159 -0.464858 -0.017945
-1.591681 0.417055 -0.002358 0.884823 -0.465560 -0.017609
-1.600485 0.396656 0.089632 0.886105 -0.463057 -0.018464
-1.601163 0.398985 -0.002130 0.885495 -0.464278 -0.018036
-1.571945 0.451092 0.089267 0.885159 -0.464858 -0.018433
-1.535176 0.521175 0.088719 0.885128 -0.464919 -0.018403
-1.572035 0.454454 -0.003042 0.884762 -0.465682 -0.016785
-1.534505 0.525891 -0.004411 0.884793 -0.465712 -0.015290
-1.588217 0.384707 0.938478 0.888150 -0.459029 -0.020692
-1.578057 0.404367 0.938128 0.887936 -0.459456 -0.020173
-1.578796 0.400084 1.001773 0.888607 -0.458144 -0.020569
-1.588023 0.382160 1.002255 0.888638 -0.458052 -0.021058
-1.579360 0.396804 1.049620 0.889126 -0.457137 -0.020753
-1.587874 0.380216 1.050214 0.889004 -0.457381 -0.021210
-1.558660 0.441881 0.937465 0.887906 -0.459578 -0.019105
-1.561187 0.434287 1.000858 0.888638 -0.458144 -0.019532
-1.563119 0.428462 1.048491 0.889218 -0.457015 -0.019776
-1.591662 0.375089 1.002448 0.888882 -0.457625 -0.021180
-1.592219 0.376949 0.938618 0.889187 -0.457015 -0.020814
-1.592506 0.373445 1.002496 0.889004 -0.457350 -0.021180
-1.593141 0.375143 0.938653 0.890042 -0.455336 -0.020783
-1.591235 0.373674 1.050452 0.888363 -0.458602 -0.021363
-1.592021 0.372155 1.050512 0.887814 -0.459700 -0.021363
-1.592879 0.379174 0.860909 0.889126 -0.457167 -0.020325
-1.588446 0.387739 0.860822 0.887478 -0.460372 -0.020203
-1.593896 0.377179 0.860931 0.890500 -0.454482 -0.020295
-1.577179 0.409445 0.860604 0.887143 -0.461013 -0.019654
-1.555661 0.450861 0.860190 0.887051 -0.461226 -0.018555
-1.192304 1.173867 -0.254894 0.882839 -0.469527 0.008515
-1.198829 1.163991 -0.130373 0.884274 -0.466872 0.006104
-1.219593 1.124683 -0.129004 0.884121 -0.467208 0.004913
-1.213444 1.134181 -0.252638 0.882687 -0.469893 0.007233
-1.258443 1.051169 -0.126266 0.884030 -0.467360 0.002747
-1.252997 1.059961 -0.248142 0.882565 -0.470107 0.004852
-1.206188 1.150834 -0.016504 0.885220 -0.465102 -0.004425
-1.226538 1.112077 -0.015820 0.885067 -0.465407 -0.005158
-1.264610 1.039597 -0.014451 0.884976 -0.465529 -0.006409
-1.208907 1.140712 -0.383959 0.881069 -0.472945 0.003632
-1.187472 1.180611 -0.387234 0.881252 -0.472549 0.004730
-1.206801 1.144416 -0.520206 0.879452 -0.475906 -0.005158
-1.185194 1.184371 -0.524562 0.879696 -0.475448 -0.004456
-1.249014 1.066093 -0.377477 0.880917 -0.473220 0.001556
-1.247231 1.069691 -0.511669 0.879330 -0.476150 -0.006500
-1.178485 1.197364 -0.388373 0.881893 -0.471358 0.005280
-1.183439 1.190531 -0.255658 0.883419 -0.468459 0.009156
-1.175722 1.202544 -0.388443 0.882382 -0.470473 0.005371
-1.180713 1.195684 -0.255676 0.883816 -0.467696 0.009369
-1.176136 1.201146 -0.526131 0.880459 -0.474044 -0.004181
-1.173352 1.206330 -0.526306 0.881039 -0.472976 -0.004151
-1.190121 1.180496 -0.130830 0.884823 -0.465835 0.006775
-1.197653 1.167107 -0.016732 0.885769 -0.464034 -0.003906
-1.187442 1.185600 -0.130830 0.885189 -0.465102 0.007233
-1.195026 1.172140 -0.016732 0.886166 -0.463301 -0.002899
-1.394347 0.806929 -0.733804 0.877346 -0.479324 -0.021058
-1.397152 0.806956 -0.842845 0.877224 -0.479446 -0.023591
-1.320029 0.949370 -0.869736 0.877163 -0.479537 -0.024293
-1.316664 0.950121 -0.757825 0.877377 -0.479293 -0.021058
-1.255255 1.068989 -0.892287 0.877132 -0.479568 -0.024873
-1.251420 1.070395 -0.777947 0.877407 -0.479263 -0.021088
-1.399704 0.806686 -0.928690 0.877346 -0.479171 -0.024445
-1.323135 0.948386 -0.957816 0.877255 -0.479293 -0.025361
-1.258826 1.067404 -0.982263 0.877194 -0.479385 -0.026093
-1.313941 0.950059 -0.630846 0.877987 -0.478378 -0.016022
-1.391989 0.806221 -0.610198 0.877895 -0.478500 -0.017090
-1.312758 0.948606 -0.497558 0.879177 -0.476394 -0.008545
-1.390777 0.804451 -0.480663 0.879025 -0.476608 -0.011170
-1.248389 1.070877 -0.648117 0.878079 -0.478225 -0.015198
-1.469922 0.662604 -0.589565 0.877804 -0.478622 -0.018189
-1.471915 0.663956 -0.709804 0.877346 -0.479354 -0.021027
-1.468680 0.660517 -0.463775 0.878842 -0.476852 -0.013947
-1.474161 0.664760 -0.815987 0.877285 -0.479385 -0.022858
-1.476161 0.665202 -0.899603 0.877438 -0.479080 -0.023469
-1.441416 0.679026 0.566585 0.884762 -0.465743 -0.014649
-1.429776 0.704638 0.461052 0.884213 -0.466750 -0.017029
-1.368606 0.820502 0.461052 0.884487 -0.466231 -0.015809
-1.384820 0.786572 0.566544 0.885220 -0.464949 -0.012391
-1.317227 0.917997 0.461052 0.885250 -0.464827 -0.013855
-1.337281 0.877182 0.566510 0.886441 -0.462722 -0.009186
-1.419886 0.727420 0.359370 0.884060 -0.466842 -0.020966
-1.354796 0.850613 0.359370 0.884213 -0.466567 -0.021302
-1.300126 0.954177 0.359370 0.884610 -0.465835 -0.020997
-1.402275 0.750742 0.671048 0.886288 -0.462996 -0.010590
-1.453963 0.652023 0.671210 0.885647 -0.464125 -0.013459
-1.419805 0.714930 0.769766 0.887417 -0.460799 -0.010590
-1.466575 0.625069 0.770170 0.886654 -0.462203 -0.013611
-1.358850 0.834038 0.670913 0.887936 -0.459914 -0.006500
-1.380495 0.790870 0.769427 0.889401 -0.457045 -0.006195
-1.505569 0.553663 0.671371 0.885311 -0.464675 -0.015748
-1.497927 0.571794 0.566625 0.884548 -0.466109 -0.016388
-1.513259 0.535602 0.770574 0.886258 -0.462874 -0.016053
-1.490857 0.589042 0.461052 0.884060 -0.466964 -0.017853
-1.484880 0.604458 0.359370 0.884030 -0.466964 -0.020356
-1.407236 0.760823 0.177015 0.884823 -0.465285 -0.023103
-1.336993 0.894467 0.176742 0.884823 -0.465224 -0.024506
-1.344557 0.874985 0.266296 0.884396 -0.466018 -0.025575
-1.412589 0.745933 0.266296 0.884365 -0.466140 -0.024018
-1.277994 1.006730 0.176513 0.884884 -0.465072 -0.025544
-1.287415 0.983419 0.266296 0.884548 -0.465682 -0.026582
-1.480520 0.617092 0.266296 0.884365 -0.466231 -0.022309
-1.477376 0.627384 0.177289 0.884854 -0.465316 -0.021638
-1.475045 0.635777 0.087806 0.885128 -0.464949 -0.018372
-1.403180 0.772739 0.086711 0.885128 -0.464949 -0.018342
-1.473128 0.642711 -0.006693 0.884823 -0.465712 -0.013184
-1.399774 0.782327 -0.009431 0.884884 -0.465651 -0.010712
-1.331209 0.909906 0.085616 0.885159 -0.464919 -0.018281
-1.270760 1.025120 0.084704 0.885189 -0.464858 -0.018189
-1.326312 0.922151 -0.012169 0.884915 -0.465621 -0.008332
-1.489020 0.576630 0.935090 0.888455 -0.458632 -0.015076
-1.450986 0.650471 0.933795 0.889309 -0.457106 -0.012360
-1.463411 0.624536 0.995796 0.889950 -0.455794 -0.013123
-1.497968 0.557162 0.997582 0.889187 -0.457198 -0.015656
-1.472907 0.604604 1.042248 0.890439 -0.454848 -0.013855
-1.504807 0.542208 1.044451 0.889737 -0.456130 -0.016144
-1.418948 0.713030 0.932706 0.891354 -0.453139 -0.008454
-1.434258 0.681668 0.994294 0.891842 -0.452223 -0.009705
-1.445956 0.657554 1.040395 0.892087 -0.451704 -0.010865
-1.532402 0.490196 0.999365 0.888791 -0.457930 -0.017823
-1.526946 0.503201 0.936383 0.888028 -0.459395 -0.017365
-1.536573 0.480212 1.046650 0.889370 -0.456771 -0.018189
-1.520475 0.518558 0.859515 0.887173 -0.461074 -0.016785
-1.478408 0.599601 0.858708 0.887600 -0.460341 -0.014405
-1.436247 0.681054 0.857900 0.888455 -0.458785 -0.011536
-1.400777 0.749982 0.857221 0.890561 -0.454726 -0.007294
-1.592810 0.422518 -0.208496 0.881832 -0.471175 -0.017151
-1.592198 0.419774 -0.102081 0.883602 -0.467879 -0.017029
-1.600077 0.404866 -0.101624 0.883816 -0.467452 -0.017670
-1.600831 0.407477 -0.207738 0.881893 -0.471053 -0.017914
-1.601872 0.401465 -0.101624 0.884030 -0.467055 -0.017853
-1.602658 0.404056 -0.207726 0.881954 -0.470931 -0.018097
-1.601714 0.410143 -0.319354 0.879849 -0.474868 -0.018525
-1.593582 0.425254 -0.320472 0.879971 -0.474624 -0.017853
-1.603566 0.406715 -0.319308 0.879727 -0.475051 -0.018738
-1.572888 0.463730 -0.323728 0.880093 -0.474502 -0.016388
-1.572401 0.460798 -0.210748 0.881893 -0.471145 -0.015473
-1.533351 0.537254 -0.330195 0.880215 -0.474319 -0.013733
-1.533409 0.533937 -0.215239 0.882015 -0.471023 -0.012513
-1.572152 0.457698 -0.103450 0.883602 -0.467940 -0.015534
-1.533855 0.530147 -0.106188 0.883663 -0.467910 -0.012879
-1.393428 0.796516 -0.231689 0.882321 -0.470595 -0.003357
-1.396370 0.790232 -0.116227 0.883877 -0.467666 -0.004700
-1.471224 0.648628 -0.110751 0.883755 -0.467818 -0.009064
-1.469641 0.653553 -0.222718 0.882168 -0.470840 -0.008240
-1.468690 0.657507 -0.340942 0.880398 -0.474075 -0.009949
-1.391410 0.801236 -0.353831 0.880612 -0.473769 -0.005646
-1.314016 0.945183 -0.366722 0.880764 -0.473495 -0.001617
-1.317103 0.939695 -0.240662 0.882443 -0.470351 0.001221
-1.321405 0.932049 -0.121703 0.883969 -0.467513 -0.000519
-1.189652 1.184289 -0.796674 0.877682 -0.478744 -0.021088
-1.193933 1.182252 -0.913434 0.877285 -0.479263 -0.025361
-1.184982 1.198801 -0.916386 0.877804 -0.478286 -0.025452
-1.180635 1.200937 -0.799192 0.878384 -0.477462 -0.021088
-1.182232 1.203897 -0.917161 0.878201 -0.477554 -0.025575
-1.177865 1.206071 -0.799753 0.878933 -0.476455 -0.021210
-1.197946 1.180088 -1.005315 0.877255 -0.479232 -0.026765
-1.189059 1.196547 -1.008618 0.877590 -0.478622 -0.026856
-1.186330 1.201609 -1.009572 0.877834 -0.478164 -0.026856
-1.177269 1.202028 -0.666089 0.879269 -0.476089 -0.014283
-1.186330 1.185296 -0.664046 0.878445 -0.477584 -0.014374
-1.174486 1.207194 -0.666439 0.879879 -0.474929 -0.014313
-1.207944 1.145434 -0.658620 0.878201 -0.478042 -0.014679
-1.211165 1.144613 -0.790245 0.877468 -0.479110 -0.021088
-1.215290 1.142799 -0.906127 0.877163 -0.479507 -0.025208
-1.219149 1.140839 -0.997313 0.877194 -0.479385 -0.026551
-1.292253 0.964383 0.566478 0.896329 -0.443281 0.006256
-1.268575 1.011208 0.461052 0.891781 -0.452437 -0.003754
-1.261465 1.025429 0.461052 0.906034 -0.422895 0.014191
-1.285664 0.978068 0.566473 0.915769 -0.400250 0.033235
-1.259274 1.030398 0.461052 0.913083 -0.407147 0.022034
-1.283625 0.983206 0.566471 0.925993 -0.374493 0.047609
-1.248356 1.052709 0.359370 0.888180 -0.459151 -0.016175
-1.240789 1.067422 0.359370 0.896817 -0.442305 -0.006470
-1.238456 1.072262 0.359370 0.900815 -0.434156 -0.003754
-1.311621 0.927908 0.670763 0.923826 -0.379650 0.048555
-1.317675 0.914820 0.670783 0.900967 -0.433607 0.013855
-1.337575 0.877516 0.769054 0.928739 -0.366344 0.056642
-1.343130 0.865105 0.769103 0.904599 -0.425886 0.017243
-1.309720 0.933194 0.670757 0.936216 -0.344401 0.069430
-1.335770 0.882869 0.769038 0.942259 -0.324351 0.082949
-1.332034 0.886131 0.670828 0.891720 -0.452559 0.000092
-1.307942 0.933603 0.566489 0.889248 -0.457381 -0.004059
-1.356186 0.838576 0.769216 0.893918 -0.448164 0.001190
-1.285523 0.978481 0.461052 0.887051 -0.461470 -0.010498
-1.266390 1.018252 0.359370 0.885586 -0.464034 -0.019623
-1.222128 1.113109 0.176308 0.885495 -0.463881 -0.025788
-1.213963 1.128706 0.176285 0.887234 -0.460646 -0.024476
-1.225397 1.101479 0.266296 0.890347 -0.454695 -0.021485
-1.233306 1.086303 0.266296 0.886166 -0.462630 -0.025513
-1.211447 1.133563 0.176285 0.888119 -0.458968 -0.023469
-1.222959 1.106292 0.266296 0.892331 -0.450911 -0.020234
-1.252155 1.050404 0.266296 0.884945 -0.464858 -0.026673
-1.241588 1.076031 0.176376 0.885037 -0.464766 -0.026002
-1.233460 1.096225 0.084156 0.885250 -0.464705 -0.018067
-1.213521 1.134246 0.083882 0.885464 -0.464309 -0.017884
-1.205158 1.150213 0.083791 0.886227 -0.462905 -0.017396
-1.202582 1.155153 0.083791 0.886715 -0.461959 -0.016327
-1.388148 0.774953 0.931669 0.906461 -0.421979 0.014191
-1.383336 0.785808 0.931513 0.927915 -0.369213 0.051088
-1.401455 0.748614 0.992647 0.924009 -0.380016 0.041658
-1.406013 0.738485 0.992863 0.905301 -0.424574 0.010010
-1.415275 0.719942 1.038364 0.919706 -0.391217 0.031861
-1.419649 0.710400 1.038630 0.903745 -0.428022 0.005707
-1.381548 0.790918 0.931460 0.941557 -0.327250 0.079562
-1.399630 0.753520 0.992575 0.936766 -0.343333 0.067446
-1.413410 0.724662 1.038275 0.930937 -0.361248 0.053346
-1.416036 0.717910 0.993364 0.896023 -0.443953 -0.003632
-1.399011 0.752609 0.932032 0.896023 -0.443953 -0.001495
-1.429040 0.691211 1.039248 0.895718 -0.444533 -0.005768
-1.378786 0.793449 0.856800 0.895383 -0.445235 0.000153
-1.366904 0.817821 0.856574 0.906430 -0.422010 0.016785
-1.361761 0.829462 0.856476 0.929899 -0.363384 0.056734
-1.359987 0.834739 0.856443 0.943815 -0.319102 0.085543
-1.600781 0.438213 -0.930506 0.877468 -0.479080 -0.021668
-1.600914 0.438543 -0.943246 0.877529 -0.478988 -0.021455
-1.580670 0.476061 -0.951960 0.877804 -0.478500 -0.021516
-1.580468 0.475840 -0.938967 0.877743 -0.478622 -0.021851
-1.541877 0.547986 -0.968328 0.877895 -0.478317 -0.021485
-1.541630 0.547830 -0.955064 0.877773 -0.478500 -0.022217
-1.600930 0.438749 -0.948498 0.877590 -0.478866 -0.021332
-1.580754 0.476151 -0.957445 0.877834 -0.478439 -0.021271
-1.541981 0.548043 -0.973984 0.877957 -0.478225 -0.020905
-1.580033 0.475356 -0.910958 0.877651 -0.478774 -0.022004
-1.600412 0.437633 -0.902787 0.877377 -0.479232 -0.021729
-1.541096 0.547478 -0.926583 0.877682 -0.478683 -0.022492
-1.608418 0.422845 -0.899588 0.875973 -0.481826 -0.021668
-1.608722 0.423528 -0.927085 0.875973 -0.481796 -0.021638
-1.610238 0.419524 -0.898873 0.874783 -0.483993 -0.021699
-1.610479 0.420314 -0.926186 0.874722 -0.484085 -0.021699
-1.608714 0.424097 -0.939443 0.875973 -0.481826 -0.021577
-1.608549 0.424609 -0.944232 0.876705 -0.480483 -0.021393
-1.610292 0.421185 -0.938096 0.874691 -0.484146 -0.021699
-1.609656 0.422498 -0.941735 0.874660 -0.484207 -0.021699
-1.402192 0.806379 -1.012846 0.877712 -0.478561 -0.023286
-1.402603 0.806300 -1.027073 0.877987 -0.478195 -0.021271
-1.326663 0.947160 -1.059104 0.877987 -0.478164 -0.021180
-1.326163 0.947367 -1.044353 0.877682 -0.478622 -0.023835
-1.262883 1.065471 -1.086010 0.878018 -0.478133 -0.021088
-1.262307 1.065786 -1.070815 0.877621 -0.478683 -0.024232
-1.402776 0.806242 -1.033343 0.878140 -0.477950 -0.019776
-1.326874 0.947039 -1.065708 0.878201 -0.477828 -0.019257
-1.263125 1.065297 -1.092895 0.878262 -0.477767 -0.018891
-1.325084 0.947747 -1.013306 0.877468 -0.478957 -0.024903
-1.401305 0.806501 -0.982705 0.877560 -0.478835 -0.024110
-1.261066 1.066383 -1.039003 0.877407 -0.479019 -0.025544
-1.477415 0.665469 -0.952147 0.877621 -0.478744 -0.023255
-1.478109 0.665605 -0.981387 0.877773 -0.478500 -0.022706
-1.478431 0.665653 -0.995090 0.877957 -0.478225 -0.021393
-1.478567 0.665658 -1.001025 0.878079 -0.478072 -0.020356
-1.201876 1.177857 -1.095809 0.877651 -0.478652 -0.024628
-1.202579 1.177327 -1.111237 0.878079 -0.478042 -0.021027
-1.193994 1.193231 -1.114185 0.878231 -0.477767 -0.020997
-1.193109 1.194114 -1.099275 0.877834 -0.478286 -0.024781
-1.191591 1.197657 -1.114296 0.878292 -0.477584 -0.021790
-1.190476 1.198994 -1.100142 0.877987 -0.477981 -0.024842
-1.202928 1.176954 -1.118127 0.878323 -0.477645 -0.018525
-1.194574 1.192402 -1.120328 0.878384 -0.477523 -0.018464
-1.192779 1.195628 -1.118359 0.878475 -0.477401 -0.018464
-1.191616 1.195101 -1.066834 0.877621 -0.478622 -0.026215
-1.200463 1.178700 -1.063304 0.877407 -0.478988 -0.026124
-1.188900 1.200143 -1.067900 0.877773 -0.478317 -0.026215
-1.221569 1.139581 -1.054848 0.877377 -0.479049 -0.025941
-1.222910 1.138848 -1.087145 0.877621 -0.478713 -0.024476
-1.223532 1.138467 -1.102616 0.878018 -0.478103 -0.021058
-1.223794 1.138260 -1.109675 0.878292 -0.477706 -0.018647
-1.587721 0.378317 1.097273 0.889248 -0.456862 -0.021424
-1.579908 0.393579 1.096596 0.889584 -0.456252 -0.021332
-1.579997 0.393027 1.104582 0.889523 -0.456282 -0.022431
-1.587679 0.378026 1.105194 0.889248 -0.456893 -0.021851
-1.580033 0.392778 1.108140 0.889462 -0.456374 -0.023133
-1.587645 0.377926 1.108647 0.889218 -0.456923 -0.022126
-1.564998 0.422729 1.095255 0.889676 -0.456038 -0.021119
-1.565308 0.421745 1.103204 0.889584 -0.456099 -0.023682
-1.565436 0.421300 1.106744 0.889492 -0.456221 -0.025269
-1.590661 0.372231 1.105142 0.887448 -0.460341 -0.021577
-1.590796 0.372330 1.097470 0.887631 -0.460036 -0.021455
-1.591294 0.371038 1.104760 0.885952 -0.463210 -0.021485
-1.591502 0.370980 1.097427 0.886227 -0.462691 -0.021455
-1.590545 0.372308 1.108257 0.888180 -0.458907 -0.021760
-1.591004 0.371491 1.106964 0.885891 -0.463332 -0.021516
-1.590967 0.372783 1.080683 0.887936 -0.459426 -0.021393
-1.587780 0.378991 1.080417 0.889187 -0.456984 -0.021271
-1.591715 0.371343 1.080750 0.886837 -0.461531 -0.021424
-1.579713 0.394737 1.079751 0.889462 -0.456496 -0.020905
-1.564329 0.424788 1.078487 0.889553 -0.456313 -0.020112
-1.511471 0.527482 1.090456 0.890133 -0.455214 -0.020203
-1.482161 0.584974 1.087840 0.890683 -0.454176 -0.019410
-1.483689 0.581598 1.095582 0.890225 -0.454482 -0.029664
-1.512570 0.524950 1.098272 0.889798 -0.455428 -0.027772
-1.484332 0.580062 1.099024 0.889798 -0.454909 -0.036012
-1.513032 0.523798 1.101748 0.889523 -0.455672 -0.032319
-1.457360 0.633805 1.085640 0.892026 -0.451552 -0.017792
-1.459245 0.629719 1.093321 0.891507 -0.451949 -0.030000
-1.460041 0.627859 1.096733 0.890713 -0.452895 -0.038270
-1.541304 0.468693 1.100957 0.889645 -0.455885 -0.025575
-1.540635 0.470382 1.093068 0.889828 -0.455763 -0.020753
-1.541584 0.467926 1.104468 0.889462 -0.456069 -0.028474
-1.539187 0.473914 1.076425 0.889737 -0.456038 -0.018830
-1.509096 0.532774 1.073962 0.890072 -0.455458 -0.017182
-1.478862 0.592030 1.071495 0.890683 -0.454299 -0.015320
-1.453293 0.642341 1.069421 0.892148 -0.451491 -0.012787
-1.432962 0.682723 1.083518 0.901578 -0.432508 -0.005432
-1.428799 0.691635 1.083126 0.915067 -0.402936 0.016663
-1.431132 0.686566 1.090434 0.914151 -0.405316 0.002136
-1.435193 0.677912 1.091064 0.900418 -0.434462 -0.021393
-1.432208 0.684071 1.093406 0.907010 -0.420484 -0.021485
-1.436162 0.675675 1.094347 0.897824 -0.439009 -0.033784
-1.426934 0.696100 1.082918 0.923521 -0.382031 0.033387
-1.429355 0.690787 1.089916 0.922575 -0.384991 0.024445
-1.430667 0.687712 1.092070 0.921995 -0.387036 0.008972
-1.443822 0.660393 1.091921 0.894345 -0.446455 -0.027863
-1.441721 0.664917 1.084278 0.895047 -0.445723 -0.014191
-1.444712 0.658334 1.095315 0.893094 -0.448256 -0.037721
-1.437197 0.674368 1.068136 0.895383 -0.445143 -0.008423
-1.428206 0.692683 1.067444 0.902493 -0.430677 0.001526
-1.423952 0.701855 1.067147 0.916623 -0.398999 0.024171
-1.422065 0.706457 1.067047 0.926115 -0.374859 0.041810
4 0 1 2 3
4 3 2 4 5
4 1 6 7 2
4 2 7 8 4
4 0 3 9 10
4 10 9 11 12
4 3 5 13 9
4 9 13 14 11
4 0 10 15 16
4 16 15 17 18
4 10 12 19 15
4 15 19 20 17
4 0 16 21 1
4 1 21 22 6
4 16 18 23 21
4 21 23 24 22
4 25 26 27 28
4 28 27 29 30
4 26 31 32 27
4 27 32 33 29
4 25 28 34 35
4 35 34 36 37
4 28 30 38 34
4 34 38 39 36
4 25 35 40 41
4 41 40 42 43
4 35 37 44 40
4 40 44 45 42
4 25 41 46 26
4 26 46 47 31
4 41 43 48 46
4 46 48 49 47
4 50 51 52 53
4 53 52 54 55
4 51 30 29 52
4 52 29 33 54
4 50 53 56 57
4 57 56 58 59
4 53 55 60 56
4 56 60 61 58
4 50 57 62 63
4 63 62 64 65
4 57 59 66 62
4 62 66 67 64
4 50 63 68 51
4 51 68 38 30
4 63 65 69 68
4 68 69 39 38
4 70 71 72 73
4 73 72 74 75
4 71 76 77 72
4 72 77 78 74
4 70 73 79 80
4 80 79 48 43
4 73 75 81 79
4 79 81 49 48
4 70 80 82 83
4 83 82 84 85
4 80 43 42 82
4 82 42 45 84
4 70 83 86 71
4 71 86 87 76
4 83 85 88 86
4 86 88 89 87
4 90 91 92 93
4 93 92 94 95
4 91 96 97 92
4 92 97 98 94
4 90 93 99 100
4 100 99 101 102
4 93 95 103 99
4 99 103 104 101
4 90 100 105 106
4 106 105 107 108
4 100 102 109 105
4 105 109 110 107
4 90 106 111 91
4 91 111 112 96
4 106 108 113 111
4 111 113 114 112
4 115 116 117 118
4 118 117 119 120
4 116 121 122 117
4 117 122 123 119
4 115 118 124 125
4 125 124 7 6
4 118 120 126 124
4 124 126 8 7
4 115 125 127 128
4 128 127 129 130
4 125 6 22 127
4 127 22 24 129
4 115 128 131 116
4 116 131 132 121
4 128 130 133 131
4 131 133 114 132
4 134 135 136 137
4 137 136 138 139
4 135 140 141 136
4 136 141 142 138
4 134 137 143 144
4 144 143 32 31
4 137 139 145 143
4 143 145 33 32
4 134 144 146 147
4 147 146 148 149
4 144 31 47 146
4 146 47 49 148
4 134 147 150 135
4 135 150 151 140
4 147 149 152 150
4 150 152 153 151
4 154 155 156 157
4 157 156 158 159
4 155 139 138 156
4 156 138 142 158
4 154 157 160 161
4 161 160 162 163
4 157 159 164 160
4 160 164 98 162
4 154 161 165 166
4 166 165 60 55
4 161 163 167 165
4 165 167 61 60
4 154 166 168 155
4 155 168 145 139
4 166 55 54 168
4 168 54 33 145
4 169 170 171 172
4 172 171 173 174
4 170 175 176 171
4 171 176 177 173
4 169 172 178 179
4 179 178 152 149
4 172 174 180 178
4 178 180 153 152
4 169 179 181 182
4 182 181 81 75
4 179 149 148 181
4 181 148 49 81
4 169 182 183 170
4 170 183 184 175
4 182 75 74 183
4 183 74 78 184
4 185 186 187 188
4 188 187 66 59
4 186 189 190 187
4 187 190 67 66
4 185 188 191 192
4 192 191 193 194
4 188 59 58 191
4 191 58 61 193
4 185 192 195 196
4 196 195 23 18
4 192 194 197 195
4 195 197 24 23
4 185 196 198 186
4 186 198 199 189
4 196 18 17 198
4 198 17 20 199
4 200 201 202 203
4 203 202 167 163
4 201 194 193 202
4 202 193 61 167
4 200 203 204 205
4 205 204 97 96
4 203 163 162 204
4 204 162 98 97
4 200 205 206 207
4 207 206 133 130
4 205 96 112 206
4 206 112 114 133
4 200 207 208 201
4 201 208 197 194
4 207 130 129 208
4 208 129 24 197
4 209 210 211 212
4 212 211 213 214
4 210 215 216 211
4 211 216 217 213
4 209 212 218 219
4 219 218 122 121
4 212 214 220 218
4 218 220 123 122
4 209 219 221 222
4 222 221 113 108
4 219 121 132 221
4 221 132 114 113
4 209 222 223 210
4 210 223 224 215
4 222 108 107 223
4 223 107 110 224
4 225 226 227 228
4 228 227 229 230
4 226 231 232 227
4 227 232 233 229
4 225 228 234 235
4 235 234 141 140
4 228 230 236 234
4 234 236 142 141
4 225 235 237 238
4 238 237 239 240
4 235 140 151 237
4 237 151 153 239
4 225 238 241 226
4 226 241 242 231
4 238 240 243 241
4 241 243 244 242
4 245 246 247 248
4 248 247 249 250
4 246 230 229 247
4 247 229 233 249
4 245 248 251 252
4 252 251 103 95
4 248 250 253 251
4 251 253 104 103
4 245 252 254 255
4 255 254 164 159
4 252 95 94 254
4 254 94 98 164
4 245 255 256 246
4 246 256 236 230
4 255 159 158 256
4 256 158 142 236
4 257 258 259 260
4 260 259 261 262
4 258 263 264 259
4 259 264 265 261
4 257 260 266 267
4 267 266 243 240
4 260 262 268 266
4 266 268 244 243
4 257 267 269 270
4 270 269 180 174
4 267 240 239 269
4 269 239 153 180
4 257 270 271 258
4 258 271 272 263
4 270 174 173 271
4 271 173 177 272
4 273 274 275 276
4 276 275 277 278
4 274 279 280 275
4 275 280 281 277
4 273 276 282 283
4 283 282 284 285
4 276 278 286 282
4 282 286 287 284
4 273 283 288 289
4 289 288 13 5
4 283 285 290 288
4 288 290 14 13
4 273 289 291 274
4 274 291 292 279
4 289 5 4 291
4 291 4 8 292
4 293 294 295 296
4 296 295 297 298
4 294 299 300 295
4 295 300 301 297
4 293 296 302 303
4 303 302 280 279
4 296 298 304 302
4 302 304 281 280
4 293 303 305 306
4 306 305 126 120
4 303 279 292 305
4 305 292 8 126
4 293 306 307 294
4 294 307 308 299
4 306 120 119 307
4 307 119 123 308
4 309 310 311 312
4 312 311 313 314
4 310 315 316 311
4 311 316 317 313
4 309 312 318 319
4 319 318 300 299
4 312 314 320 318
4 318 320 301 300
4 309 319 321 322
4 322 321 220 214
4 319 299 308 321
4 321 308 123 220
4 309 322 323 310
4 310 323 324 315
4 322 214 213 323
4 323 213 217 324
4 325 326 327 328
4 328 327 329 330
4 326 331 332 327
4 327 332 333 329
4 325 328 334 335
4 335 334 77 76
4 328 330 336 334
4 334 336 78 77
4 325 335 337 338
4 338 337 339 340
4 335 76 87 337
4 337 87 89 339
4 325 338 341 326
4 326 341 342 331
4 338 340 343 341
4 341 343 344 342
4 345 346 347 348
4 348 347 349 350
4 346 351 352 347
4 347 352 353 349
4 345 348 354 355
4 355 354 176 175
4 348 350 356 354
4 354 356 177 176
4 345 355 357 358
4 358 357 336 330
4 355 175 184 357
4 357 184 78 336
4 345 358 359 346
4 346 359 360 351
4 358 330 329 359
4 359 329 333 360
4 361 362 363 364
4 364 363 365 366
4 362 367 368 363
4 363 368 369 365
4 361 364 370 371
4 371 370 264 263
4 364 366 372 370
4 370 372 265 264
4 361 371 373 374
4 374 373 356 350
4 371 263 272 373
4 373 272 177 356
4 361 374 375 362
4 362 375 376 367
4 374 350 349 375
4 375 349 353 376
4 377 378 379 380
4 380 379 381 382
4 378 383 384 379
4 379 384 385 381
4 377 380 386 387
4 387 386 388 389
4 380 382 390 386
4 386 390 391 388
4 377 387 392 393
4 393 392 394 395
4 387 389 396 392
4 392 396 397 394
4 377 393 398 378
4 378 398 399 383
4 393 395 400 398
4 398 400 401 399
4 402 403 404 405
4 405 404 406 407
4 403 408 409 404
4 404 409 410 406
4 402 405 411 412
4 412 411 413 414
4 405 407 415 411
4 411 415 416 413
4 402 412 417 418
4 418 417 419 420
4 412 414 421 417
4 417 421 422 419
4 402 418 423 403
4 403 423 424 408
4 418 420 425 423
4 423 425 426 424
4 427 428 429 430
4 430 429 409 408
4 428 431 432 429
4 429 432 410 409
4 427 430 433 434
4 434 433 435 436
4 430 408 424 433
4 433 424 426 435
4 427 434 437 438
4 438 437 439 440
4 434 436 441 437
4 437 441 442 439
4 427 438 443 428
4 428 443 444 431
4 438 440 445 443
4 443 445 446 444
4 447 448 449 450
4 450 449 451 452
4 448 453 454 449
4 449 454 455 451
4 447 450 456 457
4 457 456 458 459
4 450 452 460 456
4 456 460 461 458
4 447 457 462 463
4 463 462 421 414
4 457 459 464 462
4 462 464 422 421
4 447 463 465 448
4 448 465 466 453
4 463 414 413 465
4 465 413 416 466
4 467 468 469 470
4 470 469 471 472
4 468 473 474 469
4 469 474 475 471
4 467 470 476 477
4 477 476 478 479
4 470 472 480 476
4 476 480 481 478
4 467 477 482 483
4 483 482 484 485
4 477 479 486 482
4 482 486 487 484
4 467 483 488 468
4 468 488 489 473
4 483 485 490 488
4 488 490 491 489
4 492 493 494 495
4 495 494 496 497
4 493 498 499 494
4 494 499 500 496
4 492 495 501 502
4 502 501 503 504
4 495 497 505 501
4 501 505 481 503
4 492 502 506 507
4 507 506 390 382
4 502 504 508 506
4 506 508 391 390
4 492 507 509 493
4 493 509 510 498
4 507 382 381 509
4 509 381 385 510
4 511 512 513 514
4 514 513 515 516
4 512 517 518 513
4 513 518 519 515
4 511 514 520 521
4 521 520 522 523
4 514 516 524 520
4 520 524 525 522
4 511 521 526 527
4 527 526 415 407
4 521 523 528 526
4 526 528 416 415
4 511 527 529 512
4 512 529 530 517
4 527 407 406 529
4 529 406 410 530
4 531 532 533 534
4 534 533 518 517
4 532 535 536 533
4 533 536 519 518
4 531 534 537 538
4 538 537 432 431
4 534 517 530 537
4 537 530 410 432
4 531 538 539 540
4 540 539 541 542
4 538 431 444 539
4 539 444 446 541
4 531 540 543 532
4 532 543 544 535
4 540 542 545 543
4 543 545 475 544
4 546 547 548 549
4 549 548 550 551
4 547 552 553 548
4 548 553 554 550
4 546 549 555 556
4 556 555 454 453
4 549 551 557 555
4 555 557 455 454
4 546 556 558 559
4 559 558 528 523
4 556 453 466 558
4 558 466 416 528
4 546 559 560 547
4 547 560 561 552
4 559 523 522 560
4 560 522 525 561
4 562 563 564 565
4 565 564 566 567
4 563 440 439 564
4 564 439 442 566
4 562 565 568 569
4 569 568 396 389
4 565 567 570 568
4 568 570 397 396
4 562 569 571 572
4 572 571 573 574
4 569 389 388 571
4 571 388 391 573
4 562 572 575 563
4 563 575 445 440
4 572 574 576 575
4 575 576 446 445
4 577 578 579 580
4 580 579 576 574
4 578 542 541 579
4 579 541 446 576
4 577 580 581 582
4 582 581 508 504
4 580 574 573 581
4 581 573 391 508
4 577 582 583 584
4 584 583 480 472
4 582 504 503 583
4 583 503 481 480
4 577 584 585 578
4 578 585 545 542
4 584 472 471 585
4 585 471 475 545
4 586 587 588 589
4 589 588 590 591
4 587 592 593 588
4 588 593 594 590
4 586 589 595 596
4 596 595 486 479
4 589 591 597 595
4 595 597 487 486
4 586 596 598 599
4 599 598 505 497
4 596 479 478 598
4 598 478 481 505
4 586 599 600 587
4 587 600 601 592
4 599 497 496 600
4 600 496 500 601
4 602 603 604 605
4 605 604 606 607
4 603 608 609 604
4 604 609 610 606
4 602 605 611 612
4 612 611 613 614
4 605 607 615 611
4 611 615 616 613
4 602 612 617 618
4 618 617 524 516
4 612 614 619 617
4 617 619 525 524
4 602 618 620 603
4 603 620 621 608
4 618 516 515 620
4 620 515 519 621
4 622 623 624 625
4 625 624 609 608
4 623 626 627 624
4 624 627 610 609
4 622 625 628 629
4 629 628 536 535
4 625 608 621 628
4 628 621 519 536
4 622 629 630 631
4 631 630 474 473
4 629 535 544 630
4 630 544 475 474
4 622 631 632 623
4 623 632 633 626
4 631 473 489 632
4 632 489 491 633
4 634 635 636 637
4 637 636 638 639
4 635 640 641 636
4 636 641 642 638
4 634 637 643 644
4 644 643 553 552
4 637 639 645 643
4 643 645 554 553
4 634 644 646 647
4 647 646 619 614
4 644 552 561 646
4 646 561 525 619
4 634 647 648 635
4 635 648 649 640
4 647 614 613 648
4 648 613 616 649
4 650 651 652 653
4 653 652 654 655
4 651 656 657 652
4 652 657 658 654
4 650 653 659 660
4 660 659 384 383
4 653 655 661 659
4 659 661 385 384
4 650 660 662 663
4 663 662 664 665
4 660 383 399 662
4 662 399 401 664
4 650 663 666 651
4 651 666 667 656
4 663 665 668 666
4 666 668 669 667
4 670 671 672 673
4 673 672 674 675
4 671 676 677 672
4 672 677 678 674
4 670 673 679 680
4 680 679 499 498
4 673 675 681 679
4 679 681 500 499
4 670 680 682 683
4 683 682 661 655
4 680 498 510 682
4 682 510 385 661
4 670 683 684 671
4 671 684 685 676
4 683 655 654 684
4 684 654 658 685
4 686 687 688 689
4 689 688 690 691
4 687 692 693 688
4 688 693 694 690
4 686 689 695 696
4 696 695 593 592
4 689 691 697 695
4 695 697 594 593
4 686 696 698 699
4 699 698 681 675
4 696 592 601 698
4 698 601 500 681
4 686 699 700 687
4 687 700 701 692
4 699 675 674 700
4 700 674 678 701
4 702 703 704 705
4 705 704 706 707
4 703 708 709 704
4 704 709 710 706
4 702 705 711 712
4 712 711 713 714
4 705 707 715 711
4 711 715 716 713
4 702 712 717 718
4 718 717 460 452
4 712 714 719 717
4 717 719 461 460
4 702 718 720 703
4 703 720 721 708
4 718 452 451 720
4 720 451 455 721
4 722 723 724 725
4 725 724 726 727
4 723 728 729 724
4 724 729 730 726
4 722 725 731 732
4 732 731 709 708
4 725 727 733 731
4 731 733 710 709
4 722 732 734 735
4 735 734 557 551
4 732 708 721 734
4 734 721 455 557
4 722 735 736 723
4 723 736 737 728
4 735 551 550 736
4 736 550 554 737
4 738 739 740 741
4 741 740 742 743
4 739 744 745 740
4 740 745 746 742
4 738 741 747 748
4 748 747 729 728
4 741 743 749 747
4 747 749 730 729
4 738 748 750 751
4 751 750 645 639
4 748 728 737 750
4 750 737 554 645
4 738 751 752 739
4 739 752 753 744
4 751 639 638 752
4 752 638 642 753
