ply
format ascii 1.0
comment Created by Blender 2.79 (sub 0) - www.blender.org, source file: 'm3_v2.blend'
element vertex 912
property float x
property float y
property float z
property float nx
property float ny
property float nz
element face 228
property list uchar uint vertex_indices
end_header
1.251299 -0.278509 3.956640 -1.000000 -0.000000 0.000000
1.251299 -0.278509 3.991424 -1.000000 -0.000000 0.000000
1.251299 -0.272354 3.991424 -1.000000 -0.000000 0.000000
1.251299 -0.272354 3.956640 -1.000000 -0.000000 0.000000
1.251299 -0.272354 3.956640 -0.500666 0.000000 -0.865641
1.580173 -0.272354 3.766427 -0.500666 0.000000 -0.865641
1.580173 -0.278509 3.766427 -0.500666 0.000000 -0.865641
1.251299 -0.278509 3.956640 -0.500666 0.000000 -0.865641
1.580173 -0.272354 3.766427 1.000000 -0.000000 0.000000
1.580173 -0.272354 3.801212 1.000000 -0.000000 0.000000
1.580173 -0.278509 3.801212 1.000000 -0.000000 0.000000
1.580173 -0.278509 3.766427 1.000000 -0.000000 0.000000
1.251299 -0.278509 3.991424 0.500665 0.000000 0.865641
1.580173 -0.278509 3.801212 0.500665 0.000000 0.865641
1.580173 -0.272354 3.801212 0.500665 0.000000 0.865641
1.251299 -0.272354 3.991424 0.500665 0.000000 0.865641
1.251299 -0.278509 3.991424 0.000000 -1.000000 0.000000
1.251299 -0.278509 3.956640 0.000000 -1.000000 0.000000
1.580173 -0.278509 3.766427 0.000000 -1.000000 0.000000
1.580173 -0.278509 3.801212 0.000000 -1.000000 0.000000
1.580173 -0.272354 3.801212 0.000000 1.000000 0.000000
1.580173 -0.272354 3.766427 0.000000 1.000000 0.000000
1.251299 -0.272354 3.956640 0.000000 1.000000 0.000000
1.251299 -0.272354 3.991424 0.000000 1.000000 0.000000
1.249655 -0.260043 3.991424 -1.000000 0.000000 0.000000
1.249655 -0.260043 3.956640 -1.000000 0.000000 0.000000
1.249655 -0.266198 3.956640 -1.000000 0.000000 0.000000
1.249655 -0.266198 3.991424 -1.000000 0.000000 0.000000
1.249655 -0.260043 3.956640 -0.500666 0.000000 -0.865641
1.578528 -0.260043 3.766427 -0.500666 0.000000 -0.865641
1.578528 -0.266198 3.766427 -0.500666 0.000000 -0.865641
1.249655 -0.266198 3.956640 -0.500666 0.000000 -0.865641
1.578528 -0.260043 3.766427 1.000000 -0.000000 0.000000
1.578528 -0.260043 3.801212 1.000000 -0.000000 0.000000
1.578528 -0.266198 3.801212 1.000000 -0.000000 0.000000
1.578528 -0.266198 3.766427 1.000000 -0.000000 0.000000
1.578528 -0.260043 3.801212 0.500665 0.000000 0.865641
1.249655 -0.260043 3.991424 0.500665 0.000000 0.865641
1.249655 -0.266198 3.991424 0.500665 0.000000 0.865641
1.578528 -0.266198 3.801212 0.500665 0.000000 0.865641
1.249655 -0.266198 3.991424 0.000000 -1.000000 0.000000
1.249655 -0.266198 3.956640 0.000000 -1.000000 0.000000
1.578528 -0.266198 3.766427 0.000000 -1.000000 0.000000
1.578528 -0.266198 3.801212 0.000000 -1.000000 0.000000
1.578528 -0.260043 3.801212 0.000000 1.000000 0.000000
1.578528 -0.260043 3.766427 0.000000 1.000000 0.000000
1.249655 -0.260043 3.956640 0.000000 1.000000 0.000000
1.249655 -0.260043 3.991424 0.000000 1.000000 0.000000
1.248011 -0.247732 3.991424 -1.000000 0.000000 0.000000
1.248011 -0.247732 3.956640 -1.000000 0.000000 0.000000
1.248011 -0.253887 3.956640 -1.000000 0.000000 0.000000
1.248011 -0.253887 3.991424 -1.000000 0.000000 0.000000
1.248011 -0.247732 3.956640 -0.500666 0.000000 -0.865641
1.576884 -0.247732 3.766427 -0.500666 0.000000 -0.865641
1.576884 -0.253887 3.766427 -0.500666 0.000000 -0.865641
1.248011 -0.253887 3.956640 -0.500666 0.000000 -0.865641
1.576884 -0.247732 3.766427 1.000000 -0.000000 0.000000
1.576884 -0.247732 3.801212 1.000000 -0.000000 0.000000
1.576884 -0.253887 3.801212 1.000000 -0.000000 0.000000
1.576884 -0.253887 3.766427 1.000000 -0.000000 0.000000
1.576884 -0.247732 3.801212 0.500665 0.000000 0.865641
1.248011 -0.247732 3.991424 0.500665 0.000000 0.865641
1.248011 -0.253887 3.991424 0.500665 0.000000 0.865641
1.576884 -0.253887 3.801212 0.500665 0.000000 0.865641
1.248011 -0.253887 3.991424 0.000000 -1.000000 0.000000
1.248011 -0.253887 3.956640 0.000000 -1.000000 0.000000
1.576884 -0.253887 3.766427 0.000000 -1.000000 0.000000
1.576884 -0.253887 3.801212 0.000000 -1.000000 0.000000
1.576884 -0.247732 3.801212 0.000000 1.000000 0.000000
1.576884 -0.247732 3.766427 0.000000 1.000000 0.000000
1.248011 -0.247732 3.956640 0.000000 1.000000 0.000000
1.248011 -0.247732 3.991424 0.000000 1.000000 0.000000
1.246366 -0.235421 3.991424 -1.000000 0.000000 0.000000
1.246366 -0.235421 3.956640 -1.000000 0.000000 0.000000
1.246366 -0.241576 3.956640 -1.000000 0.000000 0.000000
1.246366 -0.241576 3.991424 -1.000000 0.000000 0.000000
1.246366 -0.235421 3.956640 -0.500666 0.000000 -0.865641
1.575240 -0.235421 3.766427 -0.500666 0.000000 -0.865641
1.575240 -0.241576 3.766427 -0.500666 0.000000 -0.865641
1.246366 -0.241576 3.956640 -0.500666 0.000000 -0.865641
1.575240 -0.235421 3.766427 1.000000 -0.000000 0.000000
1.575240 -0.235421 3.801212 1.000000 -0.000000 0.000000
1.575240 -0.241576 3.801212 1.000000 -0.000000 0.000000
1.575240 -0.241576 3.766427 1.000000 -0.000000 0.000000
1.575240 -0.235421 3.801212 0.500665 0.000000 0.865641
1.246366 -0.235421 3.991424 0.500665 0.000000 0.865641
1.246366 -0.241576 3.991424 0.500665 0.000000 0.865641
1.575240 -0.241576 3.801212 0.500665 0.000000 0.865641
1.246366 -0.241576 3.991424 0.000000 -1.000000 0.000000
1.246366 -0.241576 3.956640 0.000000 -1.000000 0.000000
1.575240 -0.241576 3.766427 0.000000 -1.000000 0.000000
1.575240 -0.241576 3.801212 0.000000 -1.000000 0.000000
1.575240 -0.235421 3.801212 0.000000 1.000000 0.000000
1.575240 -0.235421 3.766427 0.000000 1.000000 0.000000
1.246366 -0.235421 3.956640 0.000000 1.000000 0.000000
1.246366 -0.235421 3.991424 0.000000 1.000000 0.000000
1.244722 -0.223110 3.991424 -1.000000 0.000000 0.000000
1.244722 -0.223110 3.956640 -1.000000 0.000000 0.000000
1.244722 -0.229266 3.956640 -1.000000 0.000000 0.000000
1.244722 -0.229266 3.991424 -1.000000 0.000000 0.000000
1.244722 -0.223110 3.956640 -0.500666 0.000000 -0.865641
1.573595 -0.223110 3.766427 -0.500666 0.000000 -0.865641
1.573595 -0.229266 3.766427 -0.500666 0.000000 -0.865641
1.244722 -0.229266 3.956640 -0.500666 0.000000 -0.865641
1.573595 -0.223110 3.766427 1.000000 -0.000000 0.000000
1.573595 -0.223110 3.801212 1.000000 -0.000000 0.000000
1.573595 -0.229266 3.801212 1.000000 -0.000000 0.000000
1.573595 -0.229266 3.766427 1.000000 -0.000000 0.000000
1.573595 -0.223110 3.801212 0.500665 0.000000 0.865641
1.244722 -0.223110 3.991424 0.500665 0.000000 0.865641
1.244722 -0.229266 3.991424 0.500665 0.000000 0.865641
1.573595 -0.229266 3.801212 0.500665 0.000000 0.865641
1.244722 -0.229266 3.991424 0.000000 -1.000000 0.000000
1.244722 -0.229266 3.956640 0.000000 -1.000000 0.000000
1.573595 -0.229266 3.766427 0.000000 -1.000000 0.000000
1.573595 -0.229266 3.801212 0.000000 -1.000000 0.000000
1.573595 -0.223110 3.801212 0.000000 1.000000 0.000000
1.573595 -0.223110 3.766427 0.000000 1.000000 0.000000
1.244722 -0.223110 3.956640 0.000000 1.000000 0.000000
1.244722 -0.223110 3.991424 0.000000 1.000000 0.000000
1.243077 -0.210799 3.991424 -1.000000 0.000000 0.000000
1.243077 -0.210799 3.956640 -1.000000 0.000000 0.000000
1.243077 -0.216955 3.956640 -1.000000 0.000000 0.000000
1.243077 -0.216955 3.991424 -1.000000 0.000000 0.000000
1.243077 -0.210799 3.956640 -0.500666 0.000000 -0.865641
1.571951 -0.210799 3.766427 -0.500666 0.000000 -0.865641
1.571951 -0.216955 3.766427 -0.500666 0.000000 -0.865641
1.243077 -0.216955 3.956640 -0.500666 0.000000 -0.865641
1.571951 -0.210799 3.766427 1.000000 -0.000000 0.000000
1.571951 -0.210799 3.801212 1.000000 -0.000000 0.000000
1.571951 -0.216955 3.801212 1.000000 -0.000000 0.000000
1.571951 -0.216955 3.766427 1.000000 -0.000000 0.000000
1.571951 -0.210799 3.801212 0.500665 0.000000 0.865641
1.243077 -0.210799 3.991424 0.500665 0.000000 0.865641
1.243077 -0.216955 3.991424 0.500665 0.000000 0.865641
1.571951 -0.216955 3.801212 0.500665 0.000000 0.865641
1.243077 -0.216955 3.991424 0.000000 -1.000000 0.000000
1.243077 -0.216955 3.956640 0.000000 -1.000000 0.000000
1.571951 -0.216955 3.766427 0.000000 -1.000000 0.000000
1.571951 -0.216955 3.801212 0.000000 -1.000000 0.000000
1.571951 -0.210799 3.801212 0.000000 1.000000 0.000000
1.571951 -0.210799 3.766427 0.000000 1.000000 0.000000
1.243077 -0.210799 3.956640 0.000000 1.000000 0.000000
1.243077 -0.210799 3.991424 0.000000 1.000000 0.000000
1.241433 -0.198488 3.991424 -1.000000 0.000000 0.000000
1.241433 -0.198488 3.956640 -1.000000 0.000000 0.000000
1.241433 -0.204644 3.956640 -1.000000 0.000000 0.000000
1.241433 -0.204644 3.991424 -1.000000 0.000000 0.000000
1.241433 -0.198488 3.956640 -0.500666 0.000000 -0.865641
1.570306 -0.198488 3.766427 -0.500666 0.000000 -0.865641
1.570306 -0.204644 3.766427 -0.500666 0.000000 -0.865641
1.241433 -0.204644 3.956640 -0.500666 0.000000 -0.865641
1.570306 -0.198488 3.766427 1.000000 -0.000000 0.000000
1.570306 -0.198488 3.801212 1.000000 -0.000000 0.000000
1.570306 -0.204644 3.801212 1.000000 -0.000000 0.000000
1.570306 -0.204644 3.766427 1.000000 -0.000000 0.000000
1.570306 -0.198488 3.801212 0.500665 0.000000 0.865641
1.241433 -0.198488 3.991424 0.500665 0.000000 0.865641
1.241433 -0.204644 3.991424 0.500665 0.000000 0.865641
1.570306 -0.204644 3.801212 0.500665 0.000000 0.865641
1.241433 -0.204644 3.991424 0.000000 -1.000000 0.000000
1.241433 -0.204644 3.956640 0.000000 -1.000000 0.000000
1.570306 -0.204644 3.766427 0.000000 -1.000000 0.000000
1.570306 -0.204644 3.801212 0.000000 -1.000000 0.000000
1.570306 -0.198488 3.801212 0.000000 1.000000 0.000000
1.570306 -0.198488 3.766427 0.000000 1.000000 0.000000
1.241433 -0.198488 3.956640 0.000000 1.000000 0.000000
1.241433 -0.198488 3.991424 0.000000 1.000000 0.000000
1.239789 -0.186177 3.991424 -1.000000 0.000000 0.000000
1.239789 -0.186177 3.956640 -1.000000 0.000000 0.000000
1.239789 -0.192333 3.956640 -1.000000 0.000000 0.000000
1.239789 -0.192333 3.991424 -1.000000 0.000000 0.000000
1.239789 -0.186177 3.956640 -0.500666 0.000000 -0.865641
1.568662 -0.186177 3.766427 -0.500666 0.000000 -0.865641
1.568662 -0.192333 3.766427 -0.500666 0.000000 -0.865641
1.239789 -0.192333 3.956640 -0.500666 0.000000 -0.865641
1.568662 -0.186177 3.766427 1.000000 -0.000000 0.000000
1.568662 -0.186177 3.801212 1.000000 -0.000000 0.000000
1.568662 -0.192333 3.801212 1.000000 -0.000000 0.000000
1.568662 -0.192333 3.766427 1.000000 -0.000000 0.000000
1.568662 -0.186177 3.801212 0.500665 0.000000 0.865641
1.239789 -0.186177 3.991424 0.500665 0.000000 0.865641
1.239789 -0.192333 3.991424 0.500665 0.000000 0.865641
1.568662 -0.192333 3.801212 0.500665 0.000000 0.865641
1.239789 -0.192333 3.991424 0.000000 -1.000000 0.000000
1.239789 -0.192333 3.956640 0.000000 -1.000000 0.000000
1.568662 -0.192333 3.766427 0.000000 -1.000000 0.000000
1.568662 -0.192333 3.801212 0.000000 -1.000000 0.000000
1.568662 -0.186177 3.801212 0.000000 1.000000 0.000000
1.568662 -0.186177 3.766427 0.000000 1.000000 0.000000
1.239789 -0.186177 3.956640 0.000000 1.000000 0.000000
1.239789 -0.186177 3.991424 0.000000 1.000000 0.000000
1.238144 -0.173866 3.991424 -1.000000 0.000000 0.000000
1.238144 -0.173866 3.956640 -1.000000 0.000000 0.000000
1.238144 -0.180022 3.956640 -1.000000 0.000000 0.000000
1.238144 -0.180022 3.991424 -1.000000 0.000000 0.000000
1.238144 -0.173866 3.956640 -0.500666 0.000000 -0.865641
1.567018 -0.173866 3.766427 -0.500666 0.000000 -0.865641
1.567018 -0.180022 3.766427 -0.500666 0.000000 -0.865641
1.238144 -0.180022 3.956640 -0.500666 0.000000 -0.865641
1.567018 -0.173866 3.766427 1.000000 -0.000000 0.000000
1.567018 -0.173866 3.801212 1.000000 -0.000000 0.000000
1.567018 -0.180022 3.801212 1.000000 -0.000000 0.000000
1.567018 -0.180022 3.766427 1.000000 -0.000000 0.000000
1.567018 -0.173866 3.801212 0.500665 0.000000 0.865641
1.238144 -0.173866 3.991424 0.500665 0.000000 0.865641
1.238144 -0.180022 3.991424 0.500665 0.000000 0.865641
1.567018 -0.180022 3.801212 0.500665 0.000000 0.865641
1.238144 -0.180022 3.991424 0.000000 -1.000000 0.000000
1.238144 -0.180022 3.956640 0.000000 -1.000000 0.000000
1.567018 -0.180022 3.766427 0.000000 -1.000000 0.000000
1.567018 -0.180022 3.801212 0.000000 -1.000000 0.000000
1.567018 -0.173866 3.801212 0.000000 1.000000 0.000000
1.567018 -0.173866 3.766427 0.000000 1.000000 0.000000
1.238144 -0.173866 3.956640 0.000000 1.000000 0.000000
1.238144 -0.173866 3.991424 0.000000 1.000000 0.000000
1.236500 -0.161555 3.991424 -1.000000 0.000000 0.000000
1.236500 -0.161555 3.956640 -1.000000 0.000000 0.000000
1.236500 -0.167711 3.956640 -1.000000 0.000000 0.000000
1.236500 -0.167711 3.991424 -1.000000 0.000000 0.000000
1.236500 -0.161555 3.956640 -0.500666 0.000000 -0.865641
1.565373 -0.161555 3.766427 -0.500666 0.000000 -0.865641
1.565373 -0.167711 3.766427 -0.500666 0.000000 -0.865641
1.236500 -0.167711 3.956640 -0.500666 0.000000 -0.865641
1.565373 -0.161555 3.766427 1.000000 -0.000000 0.000000
1.565373 -0.161555 3.801212 1.000000 -0.000000 0.000000
1.565373 -0.167711 3.801212 1.000000 -0.000000 0.000000
1.565373 -0.167711 3.766427 1.000000 -0.000000 0.000000
1.565373 -0.161555 3.801212 0.500665 0.000000 0.865641
1.236500 -0.161555 3.991424 0.500665 0.000000 0.865641
1.236500 -0.167711 3.991424 0.500665 0.000000 0.865641
1.565373 -0.167711 3.801212 0.500665 0.000000 0.865641
1.236500 -0.167711 3.991424 0.000000 -1.000000 0.000000
1.236500 -0.167711 3.956640 0.000000 -1.000000 0.000000
1.565373 -0.167711 3.766427 0.000000 -1.000000 0.000000
1.565373 -0.167711 3.801212 0.000000 -1.000000 0.000000
1.565373 -0.161555 3.801212 0.000000 1.000000 0.000000
1.565373 -0.161555 3.766427 0.000000 1.000000 0.000000
1.236500 -0.161555 3.956640 0.000000 1.000000 0.000000
1.236500 -0.161555 3.991424 0.000000 1.000000 0.000000
1.234856 -0.149245 3.991424 -1.000000 0.000000 0.000000
1.234856 -0.149245 3.956640 -1.000000 0.000000 0.000000
1.234856 -0.155400 3.956640 -1.000000 0.000000 0.000000
1.234856 -0.155400 3.991424 -1.000000 0.000000 0.000000
1.234856 -0.149245 3.956640 -0.500666 0.000000 -0.865641
1.563729 -0.149245 3.766427 -0.500666 0.000000 -0.865641
1.563729 -0.155400 3.766427 -0.500666 0.000000 -0.865641
1.234856 -0.155400 3.956640 -0.500666 0.000000 -0.865641
1.563729 -0.149245 3.766427 1.000000 -0.000000 0.000000
1.563729 -0.149245 3.801212 1.000000 -0.000000 0.000000
1.563729 -0.155400 3.801212 1.000000 -0.000000 0.000000
1.563729 -0.155400 3.766427 1.000000 -0.000000 0.000000
1.563729 -0.149245 3.801212 0.500665 0.000000 0.865641
1.234856 -0.149245 3.991424 0.500665 0.000000 0.865641
1.234856 -0.155400 3.991424 0.500665 0.000000 0.865641
1.563729 -0.155400 3.801212 0.500665 0.000000 0.865641
1.234856 -0.155400 3.991424 0.000000 -1.000000 0.000000
1.234856 -0.155400 3.956640 0.000000 -1.000000 0.000000
1.563729 -0.155400 3.766427 0.000000 -1.000000 0.000000
1.563729 -0.155400 3.801212 0.000000 -1.000000 0.000000
1.563729 -0.149245 3.801212 0.000000 1.000000 0.000000
1.563729 -0.149245 3.766427 0.000000 1.000000 0.000000
1.234856 -0.149245 3.956640 0.000000 1.000000 0.000000
1.234856 -0.149245 3.991424 0.000000 1.000000 0.000000
1.233211 -0.136934 3.991424 -1.000000 0.000000 0.000000
1.233211 -0.136934 3.956640 -1.000000 0.000000 0.000000
1.233211 -0.143089 3.956640 -1.000000 0.000000 0.000000
1.233211 -0.143089 3.991424 -1.000000 0.000000 0.000000
1.233211 -0.136934 3.956640 -0.500666 0.000000 -0.865641
1.562085 -0.136934 3.766427 -0.500666 0.000000 -0.865641
1.562085 -0.143089 3.766427 -0.500666 0.000000 -0.865641
1.233211 -0.143089 3.956640 -0.500666 0.000000 -0.865641
1.562085 -0.136934 3.766427 1.000000 -0.000000 0.000000
1.562085 -0.136934 3.801212 1.000000 -0.000000 0.000000
1.562085 -0.143089 3.801212 1.000000 -0.000000 0.000000
1.562085 -0.143089 3.766427 1.000000 -0.000000 0.000000
1.562085 -0.136934 3.801212 0.500665 0.000000 0.865641
1.233211 -0.136934 3.991424 0.500665 0.000000 0.865641
1.233211 -0.143089 3.991424 0.500665 0.000000 0.865641
1.562085 -0.143089 3.801212 0.500665 0.000000 0.865641
1.233211 -0.143089 3.991424 0.000000 -1.000000 0.000000
1.233211 -0.143089 3.956640 0.000000 -1.000000 0.000000
1.562085 -0.143089 3.766427 0.000000 -1.000000 0.000000
1.562085 -0.143089 3.801212 0.000000 -1.000000 0.000000
1.562085 -0.136934 3.801212 0.000000 1.000000 0.000000
1.562085 -0.136934 3.766427 0.000000 1.000000 0.000000
1.233211 -0.136934 3.956640 0.000000 1.000000 0.000000
1.233211 -0.136934 3.991424 0.000000 1.000000 0.000000
1.231567 -0.124623 3.991424 -1.000000 0.000000 0.000000
1.231567 -0.124623 3.956640 -1.000000 0.000000 0.000000
1.231567 -0.130778 3.956640 -1.000000 0.000000 0.000000
1.231567 -0.130778 3.991424 -1.000000 0.000000 0.000000
1.231567 -0.124623 3.956640 -0.500666 0.000000 -0.865641
1.560440 -0.124623 3.766427 -0.500666 0.000000 -0.865641
1.560440 -0.130778 3.766427 -0.500666 0.000000 -0.865641
1.231567 -0.130778 3.956640 -0.500666 0.000000 -0.865641
1.560440 -0.124623 3.766427 1.000000 -0.000000 0.000000
1.560440 -0.124623 3.801212 1.000000 -0.000000 0.000000
1.560440 -0.130778 3.801212 1.000000 -0.000000 0.000000
1.560440 -0.130778 3.766427 1.000000 -0.000000 0.000000
1.560440 -0.124623 3.801212 0.500665 0.000000 0.865641
1.231567 -0.124623 3.991424 0.500665 0.000000 0.865641
1.231567 -0.130778 3.991424 0.500665 0.000000 0.865641
1.560440 -0.130778 3.801212 0.500665 0.000000 0.865641
1.231567 -0.130778 3.991424 0.000000 -1.000000 0.000000
1.231567 -0.130778 3.956640 0.000000 -1.000000 0.000000
1.560440 -0.130778 3.766427 0.000000 -1.000000 0.000000
1.560440 -0.130778 3.801212 0.000000 -1.000000 0.000000
1.560440 -0.124623 3.801212 0.000000 1.000000 0.000000
1.560440 -0.124623 3.766427 0.000000 1.000000 0.000000
1.231567 -0.124623 3.956640 0.000000 1.000000 0.000000
1.231567 -0.124623 3.991424 0.000000 1.000000 0.000000
1.229922 -0.112312 3.991424 -1.000000 0.000000 0.000000
1.229922 -0.112312 3.956640 -1.000000 0.000000 0.000000
1.229922 -0.118467 3.956640 -1.000000 0.000000 0.000000
1.229922 -0.118467 3.991424 -1.000000 0.000000 0.000000
1.229922 -0.112312 3.956640 -0.500666 0.000000 -0.865641
1.558796 -0.112312 3.766427 -0.500666 0.000000 -0.865641
1.558796 -0.118467 3.766427 -0.500666 0.000000 -0.865641
1.229922 -0.118467 3.956640 -0.500666 0.000000 -0.865641
1.558796 -0.112312 3.766427 1.000000 -0.000000 0.000000
1.558796 -0.112312 3.801212 1.000000 -0.000000 0.000000
1.558796 -0.118467 3.801212 1.000000 -0.000000 0.000000
1.558796 -0.118467 3.766427 1.000000 -0.000000 0.000000
1.558796 -0.112312 3.801212 0.500665 0.000000 0.865641
1.229922 -0.112312 3.991424 0.500665 0.000000 0.865641
1.229922 -0.118467 3.991424 0.500665 0.000000 0.865641
1.558796 -0.118467 3.801212 0.500665 0.000000 0.865641
1.229922 -0.118467 3.991424 0.000000 -1.000000 0.000000
1.229922 -0.118467 3.956640 0.000000 -1.000000 0.000000
1.558796 -0.118467 3.766427 0.000000 -1.000000 0.000000
1.558796 -0.118467 3.801212 0.000000 -1.000000 0.000000
1.558796 -0.112312 3.801212 0.000000 1.000000 0.000000
1.558796 -0.112312 3.766427 0.000000 1.000000 0.000000
1.229922 -0.112312 3.956640 0.000000 1.000000 0.000000
1.229922 -0.112312 3.991424 0.000000 1.000000 0.000000
1.228278 -0.100001 3.991424 -1.000000 0.000000 0.000000
1.228278 -0.100001 3.956640 -1.000000 0.000000 0.000000
1.228278 -0.106156 3.956640 -1.000000 0.000000 0.000000
1.228278 -0.106156 3.991424 -1.000000 0.000000 0.000000
1.228278 -0.100001 3.956640 -0.500666 0.000000 -0.865641
1.557151 -0.100001 3.766427 -0.500666 0.000000 -0.865641
1.557151 -0.106156 3.766427 -0.500666 0.000000 -0.865641
1.228278 -0.106156 3.956640 -0.500666 0.000000 -0.865641
1.557151 -0.100001 3.766427 1.000000 -0.000000 0.000000
1.557151 -0.100001 3.801212 1.000000 -0.000000 0.000000
1.557151 -0.106156 3.801212 1.000000 -0.000000 0.000000
1.557151 -0.106156 3.766427 1.000000 -0.000000 0.000000
1.557151 -0.100001 3.801212 0.500665 0.000000 0.865641
1.228278 -0.100001 3.991424 0.500665 0.000000 0.865641
1.228278 -0.106156 3.991424 0.500665 0.000000 0.865641
1.557151 -0.106156 3.801212 0.500665 0.000000 0.865641
1.228278 -0.106156 3.991424 0.000000 -1.000000 0.000000
1.228278 -0.106156 3.956640 0.000000 -1.000000 0.000000
1.557151 -0.106156 3.766427 0.000000 -1.000000 0.000000
1.557151 -0.106156 3.801212 0.000000 -1.000000 0.000000
1.557151 -0.100001 3.801212 0.000000 1.000000 0.000000
1.557151 -0.100001 3.766427 0.000000 1.000000 0.000000
1.228278 -0.100001 3.956640 0.000000 1.000000 0.000000
1.228278 -0.100001 3.991424 0.000000 1.000000 0.000000
1.226634 -0.087690 3.991424 -1.000000 0.000000 0.000000
1.226634 -0.087690 3.956640 -1.000000 0.000000 0.000000
1.226634 -0.093845 3.956640 -1.000000 0.000000 0.000000
1.226634 -0.093845 3.991424 -1.000000 0.000000 0.000000
1.226634 -0.087690 3.956640 -0.500666 0.000000 -0.865641
1.555507 -0.087690 3.766427 -0.500666 0.000000 -0.865641
1.555507 -0.093845 3.766427 -0.500666 0.000000 -0.865641
1.226634 -0.093845 3.956640 -0.500666 0.000000 -0.865641
1.555507 -0.087690 3.766427 1.000000 -0.000000 0.000000
1.555507 -0.087690 3.801212 1.000000 -0.000000 0.000000
1.555507 -0.093845 3.801212 1.000000 -0.000000 0.000000
1.555507 -0.093845 3.766427 1.000000 -0.000000 0.000000
1.555507 -0.087690 3.801212 0.500665 0.000000 0.865641
1.226634 -0.087690 3.991424 0.500665 0.000000 0.865641
1.226634 -0.093845 3.991424 0.500665 0.000000 0.865641
1.555507 -0.093845 3.801212 0.500665 0.000000 0.865641
1.226634 -0.093845 3.991424 0.000000 -1.000000 0.000000
1.226634 -0.093845 3.956640 0.000000 -1.000000 0.000000
1.555507 -0.093845 3.766427 0.000000 -1.000000 0.000000
1.555507 -0.093845 3.801212 0.000000 -1.000000 0.000000
1.555507 -0.087690 3.801212 0.000000 1.000000 0.000000
1.555507 -0.087690 3.766427 0.000000 1.000000 0.000000
1.226634 -0.087690 3.956640 0.000000 1.000000 0.000000
1.226634 -0.087690 3.991424 0.000000 1.000000 0.000000
1.224989 -0.075379 3.991424 -1.000000 0.000000 0.000000
1.224989 -0.075379 3.956640 -1.000000 0.000000 0.000000
1.224989 -0.081535 3.956640 -1.000000 0.000000 0.000000
1.224989 -0.081535 3.991424 -1.000000 0.000000 0.000000
1.224989 -0.075379 3.956640 -0.500666 0.000000 -0.865641
1.553863 -0.075379 3.766427 -0.500666 0.000000 -0.865641
1.553863 -0.081535 3.766427 -0.500666 0.000000 -0.865641
1.224989 -0.081535 3.956640 -0.500666 0.000000 -0.865641
1.553863 -0.075379 3.766427 1.000000 -0.000000 0.000000
1.553863 -0.075379 3.801212 1.000000 -0.000000 0.000000
1.553863 -0.081535 3.801212 1.000000 -0.000000 0.000000
1.553863 -0.081535 3.766427 1.000000 -0.000000 0.000000
1.553863 -0.075379 3.801212 0.500665 0.000000 0.865641
1.224989 -0.075379 3.991424 0.500665 0.000000 0.865641
1.224989 -0.081535 3.991424 0.500665 0.000000 0.865641
1.553863 -0.081535 3.801212 0.500665 0.000000 0.865641
1.224989 -0.081535 3.991424 0.000000 -1.000000 0.000000
1.224989 -0.081535 3.956640 0.000000 -1.000000 0.000000
1.553863 -0.081535 3.766427 0.000000 -1.000000 0.000000
1.553863 -0.081535 3.801212 0.000000 -1.000000 0.000000
1.553863 -0.075379 3.801212 0.000000 1.000000 0.000000
1.553863 -0.075379 3.766427 0.000000 1.000000 0.000000
1.224989 -0.075379 3.956640 0.000000 1.000000 0.000000
1.224989 -0.075379 3.991424 0.000000 1.000000 0.000000
1.223345 -0.063068 3.991424 -1.000000 0.000000 0.000000
1.223345 -0.063068 3.956640 -1.000000 0.000000 0.000000
1.223345 -0.069224 3.956640 -1.000000 0.000000 0.000000
1.223345 -0.069224 3.991424 -1.000000 0.000000 0.000000
1.223345 -0.063068 3.956640 -0.500666 0.000000 -0.865641
1.552218 -0.063068 3.766427 -0.500666 0.000000 -0.865641
1.552218 -0.069224 3.766427 -0.500666 0.000000 -0.865641
1.223345 -0.069224 3.956640 -0.500666 0.000000 -0.865641
1.552218 -0.063068 3.766427 1.000000 -0.000000 0.000000
1.552218 -0.063068 3.801212 1.000000 -0.000000 0.000000
1.552218 -0.069224 3.801212 1.000000 -0.000000 0.000000
1.552218 -0.069224 3.766427 1.000000 -0.000000 0.000000
1.552218 -0.063068 3.801212 0.500665 0.000000 0.865641
1.223345 -0.063068 3.991424 0.500665 0.000000 0.865641
1.223345 -0.069224 3.991424 0.500665 0.000000 0.865641
1.552218 -0.069224 3.801212 0.500665 0.000000 0.865641
1.223345 -0.069224 3.991424 0.000000 -1.000000 0.000000
1.223345 -0.069224 3.956640 0.000000 -1.000000 0.000000
1.552218 -0.069224 3.766427 0.000000 -1.000000 0.000000
1.552218 -0.069224 3.801212 0.000000 -1.000000 0.000000
1.552218 -0.063068 3.801212 0.000000 1.000000 0.000000
1.552218 -0.063068 3.766427 0.000000 1.000000 0.000000
1.223345 -0.063068 3.956640 0.000000 1.000000 0.000000
1.223345 -0.063068 3.991424 0.000000 1.000000 0.000000
1.221701 -0.050757 3.991424 -1.000000 0.000000 0.000000
1.221701 -0.050757 3.956640 -1.000000 0.000000 0.000000
1.221701 -0.056913 3.956640 -1.000000 0.000000 0.000000
1.221701 -0.056913 3.991424 -1.000000 0.000000 0.000000
1.221701 -0.050757 3.956640 -0.500666 0.000000 -0.865641
1.550574 -0.050757 3.766427 -0.500666 0.000000 -0.865641
1.550574 -0.056913 3.766427 -0.500666 0.000000 -0.865641
1.221701 -0.056913 3.956640 -0.500666 0.000000 -0.865641
1.550574 -0.050757 3.766427 1.000000 -0.000000 0.000000
1.550574 -0.050757 3.801212 1.000000 -0.000000 0.000000
1.550574 -0.056913 3.801212 1.000000 -0.000000 0.000000
1.550574 -0.056913 3.766427 1.000000 -0.000000 0.000000
1.550574 -0.050757 3.801212 0.500665 0.000000 0.865641
1.221701 -0.050757 3.991424 0.500665 0.000000 0.865641
1.221701 -0.056913 3.991424 0.500665 0.000000 0.865641
1.550574 -0.056913 3.801212 0.500665 0.000000 0.865641
1.221701 -0.056913 3.991424 0.000000 -1.000000 0.000000
1.221701 -0.056913 3.956640 0.000000 -1.000000 0.000000
1.550574 -0.056913 3.766427 0.000000 -1.000000 0.000000
1.550574 -0.056913 3.801212 0.000000 -1.000000 0.000000
1.550574 -0.050757 3.801212 0.000000 1.000000 0.000000
1.550574 -0.050757 3.766427 0.000000 1.000000 0.000000
1.221701 -0.050757 3.956640 0.000000 1.000000 0.000000
1.221701 -0.050757 3.991424 0.000000 1.000000 0.000000
-1.251299 -0.272354 3.991424 1.000000 0.000000 -0.000000
-1.251299 -0.278509 3.991424 1.000000 0.000000 -0.000000
-1.251299 -0.278509 3.956640 1.000000 0.000000 -0.000000
-1.251299 -0.272354 3.956640 1.000000 0.000000 -0.000000
-1.251299 -0.272354 3.956640 0.500666 0.000000 -0.865641
-1.251299 -0.278509 3.956640 0.500666 0.000000 -0.865641
-1.580173 -0.278509 3.766427 0.500666 0.000000 -0.865641
-1.580173 -0.272354 3.766427 0.500666 0.000000 -0.865641
-1.580173 -0.272354 3.766427 -1.000000 0.000000 -0.000000
-1.580173 -0.278509 3.766427 -1.000000 0.000000 -0.000000
-1.580173 -0.278509 3.801212 -1.000000 0.000000 -0.000000
-1.580173 -0.272354 3.801212 -1.000000 0.000000 -0.000000
-1.580173 -0.272354 3.801212 -0.500665 0.000000 0.865641
-1.580173 -0.278509 3.801212 -0.500665 0.000000 0.865641
-1.251299 -0.278509 3.991424 -0.500665 0.000000 0.865641
-1.251299 -0.272354 3.991424 -0.500665 0.000000 0.865641
-1.251299 -0.278509 3.991424 -0.000000 -1.000000 0.000000
-1.580173 -0.278509 3.801212 -0.000000 -1.000000 0.000000
-1.580173 -0.278509 3.766427 -0.000000 -1.000000 0.000000
-1.251299 -0.278509 3.956640 -0.000000 -1.000000 0.000000
-1.580173 -0.272354 3.801212 0.000000 1.000000 -0.000000
-1.251299 -0.272354 3.991424 0.000000 1.000000 -0.000000
-1.251299 -0.272354 3.956640 0.000000 1.000000 -0.000000
-1.580173 -0.272354 3.766427 0.000000 1.000000 -0.000000
-1.249655 -0.260043 3.991424 1.000000 0.000000 -0.000000
-1.249655 -0.266198 3.991424 1.000000 0.000000 -0.000000
-1.249655 -0.266198 3.956640 1.000000 0.000000 -0.000000
-1.249655 -0.260043 3.956640 1.000000 0.000000 -0.000000
-1.249655 -0.260043 3.956640 0.500666 0.000000 -0.865641
-1.249655 -0.266198 3.956640 0.500666 0.000000 -0.865641
-1.578528 -0.266198 3.766427 0.500666 0.000000 -0.865641
-1.578528 -0.260043 3.766427 0.500666 0.000000 -0.865641
-1.578528 -0.260043 3.766427 -1.000000 0.000000 -0.000000
-1.578528 -0.266198 3.766427 -1.000000 0.000000 -0.000000
-1.578528 -0.266198 3.801212 -1.000000 0.000000 -0.000000
-1.578528 -0.260043 3.801212 -1.000000 0.000000 -0.000000
-1.578528 -0.260043 3.801212 -0.500665 0.000000 0.865641
-1.578528 -0.266198 3.801212 -0.500665 0.000000 0.865641
-1.249655 -0.266198 3.991424 -0.500665 0.000000 0.865641
-1.249655 -0.260043 3.991424 -0.500665 0.000000 0.865641
-1.249655 -0.266198 3.991424 -0.000000 -1.000000 0.000000
-1.578528 -0.266198 3.801212 -0.000000 -1.000000 0.000000
-1.578528 -0.266198 3.766427 -0.000000 -1.000000 0.000000
-1.249655 -0.266198 3.956640 -0.000000 -1.000000 0.000000
-1.578528 -0.260043 3.801212 0.000000 1.000000 -0.000000
-1.249655 -0.260043 3.991424 0.000000 1.000000 -0.000000
-1.249655 -0.260043 3.956640 0.000000 1.000000 -0.000000
-1.578528 -0.260043 3.766427 0.000000 1.000000 -0.000000
-1.248011 -0.247732 3.991424 1.000000 0.000000 -0.000000
-1.248011 -0.253887 3.991424 1.000000 0.000000 -0.000000
-1.248011 -0.253887 3.956640 1.000000 0.000000 -0.000000
-1.248011 -0.247732 3.956640 1.000000 0.000000 -0.000000
-1.248011 -0.247732 3.956640 0.500666 0.000000 -0.865641
-1.248011 -0.253887 3.956640 0.500666 0.000000 -0.865641
-1.576884 -0.253887 3.766427 0.500666 0.000000 -0.865641
-1.576884 -0.247732 3.766427 0.500666 0.000000 -0.865641
-1.576884 -0.247732 3.766427 -1.000000 0.000000 -0.000000
-1.576884 -0.253887 3.766427 -1.000000 0.000000 -0.000000
-1.576884 -0.253887 3.801212 -1.000000 0.000000 -0.000000
-1.576884 -0.247732 3.801212 -1.000000 0.000000 -0.000000
-1.576884 -0.247732 3.801212 -0.500665 0.000000 0.865641
-1.576884 -0.253887 3.801212 -0.500665 0.000000 0.865641
-1.248011 -0.253887 3.991424 -0.500665 0.000000 0.865641
-1.248011 -0.247732 3.991424 -0.500665 0.000000 0.865641
-1.248011 -0.253887 3.991424 -0.000000 -1.000000 0.000000
-1.576884 -0.253887 3.801212 -0.000000 -1.000000 0.000000
-1.576884 -0.253887 3.766427 -0.000000 -1.000000 0.000000
-1.248011 -0.253887 3.956640 -0.000000 -1.000000 0.000000
-1.576884 -0.247732 3.801212 0.000000 1.000000 -0.000000
-1.248011 -0.247732 3.991424 0.000000 1.000000 -0.000000
-1.248011 -0.247732 3.956640 0.000000 1.000000 -0.000000
-1.576884 -0.247732 3.766427 0.000000 1.000000 -0.000000
-1.246366 -0.235421 3.991424 1.000000 0.000000 -0.000000
-1.246366 -0.241576 3.991424 1.000000 0.000000 -0.000000
-1.246366 -0.241576 3.956640 1.000000 0.000000 -0.000000
-1.246366 -0.235421 3.956640 1.000000 0.000000 -0.000000
-1.246366 -0.235421 3.956640 0.500666 0.000000 -0.865641
-1.246366 -0.241576 3.956640 0.500666 0.000000 -0.865641
-1.575240 -0.241576 3.766427 0.500666 0.000000 -0.865641
-1.575240 -0.235421 3.766427 0.500666 0.000000 -0.865641
-1.575240 -0.235421 3.766427 -1.000000 0.000000 -0.000000
-1.575240 -0.241576 3.766427 -1.000000 0.000000 -0.000000
-1.575240 -0.241576 3.801212 -1.000000 0.000000 -0.000000
-1.575240 -0.235421 3.801212 -1.000000 0.000000 -0.000000
-1.575240 -0.235421 3.801212 -0.500665 0.000000 0.865641
-1.575240 -0.241576 3.801212 -0.500665 0.000000 0.865641
-1.246366 -0.241576 3.991424 -0.500665 0.000000 0.865641
-1.246366 -0.235421 3.991424 -0.500665 0.000000 0.865641
-1.246366 -0.241576 3.991424 -0.000000 -1.000000 0.000000
-1.575240 -0.241576 3.801212 -0.000000 -1.000000 0.000000
-1.575240 -0.241576 3.766427 -0.000000 -1.000000 0.000000
-1.246366 -0.241576 3.956640 -0.000000 -1.000000 0.000000
-1.575240 -0.235421 3.801212 0.000000 1.000000 -0.000000
-1.246366 -0.235421 3.991424 0.000000 1.000000 -0.000000
-1.246366 -0.235421 3.956640 0.000000 1.000000 -0.000000
-1.575240 -0.235421 3.766427 0.000000 1.000000 -0.000000
-1.244722 -0.223110 3.991424 1.000000 0.000000 -0.000000
-1.244722 -0.229266 3.991424 1.000000 0.000000 -0.000000
-1.244722 -0.229266 3.956640 1.000000 0.000000 -0.000000
-1.244722 -0.223110 3.956640 1.000000 0.000000 -0.000000
-1.244722 -0.223110 3.956640 0.500666 0.000000 -0.865641
-1.244722 -0.229266 3.956640 0.500666 0.000000 -0.865641
-1.573595 -0.229266 3.766427 0.500666 0.000000 -0.865641
-1.573595 -0.223110 3.766427 0.500666 0.000000 -0.865641
-1.573595 -0.223110 3.766427 -1.000000 0.000000 -0.000000
-1.573595 -0.229266 3.766427 -1.000000 0.000000 -0.000000
-1.573595 -0.229266 3.801212 -1.000000 0.000000 -0.000000
-1.573595 -0.223110 3.801212 -1.000000 0.000000 -0.000000
-1.573595 -0.223110 3.801212 -0.500665 0.000000 0.865641
-1.573595 -0.229266 3.801212 -0.500665 0.000000 0.865641
-1.244722 -0.229266 3.991424 -0.500665 0.000000 0.865641
-1.244722 -0.223110 3.991424 -0.500665 0.000000 0.865641
-1.244722 -0.229266 3.991424 -0.000000 -1.000000 0.000000
-1.573595 -0.229266 3.801212 -0.000000 -1.000000 0.000000
-1.573595 -0.229266 3.766427 -0.000000 -1.000000 0.000000
-1.244722 -0.229266 3.956640 -0.000000 -1.000000 0.000000
-1.573595 -0.223110 3.801212 0.000000 1.000000 -0.000000
-1.244722 -0.223110 3.991424 0.000000 1.000000 -0.000000
-1.244722 -0.223110 3.956640 0.000000 1.000000 -0.000000
-1.573595 -0.223110 3.766427 0.000000 1.000000 -0.000000
-1.243077 -0.210799 3.991424 1.000000 0.000000 -0.000000
-1.243077 -0.216955 3.991424 1.000000 0.000000 -0.000000
-1.243077 -0.216955 3.956640 1.000000 0.000000 -0.000000
-1.243077 -0.210799 3.956640 1.000000 0.000000 -0.000000
-1.243077 -0.210799 3.956640 0.500666 0.000000 -0.865641
-1.243077 -0.216955 3.956640 0.500666 0.000000 -0.865641
-1.571951 -0.216955 3.766427 0.500666 0.000000 -0.865641
-1.571951 -0.210799 3.766427 0.500666 0.000000 -0.865641
-1.571951 -0.210799 3.766427 -1.000000 0.000000 -0.000000
-1.571951 -0.216955 3.766427 -1.000000 0.000000 -0.000000
-1.571951 -0.216955 3.801212 -1.000000 0.000000 -0.000000
-1.571951 -0.210799 3.801212 -1.000000 0.000000 -0.000000
-1.571951 -0.210799 3.801212 -0.500665 0.000000 0.865641
-1.571951 -0.216955 3.801212 -0.500665 0.000000 0.865641
-1.243077 -0.216955 3.991424 -0.500665 0.000000 0.865641
-1.243077 -0.210799 3.991424 -0.500665 0.000000 0.865641
-1.243077 -0.216955 3.991424 -0.000000 -1.000000 0.000000
-1.571951 -0.216955 3.801212 -0.000000 -1.000000 0.000000
-1.571951 -0.216955 3.766427 -0.000000 -1.000000 0.000000
-1.243077 -0.216955 3.956640 -0.000000 -1.000000 0.000000
-1.571951 -0.210799 3.801212 0.000000 1.000000 -0.000000
-1.243077 -0.210799 3.991424 0.000000 1.000000 -0.000000
-1.243077 -0.210799 3.956640 0.000000 1.000000 -0.000000
-1.571951 -0.210799 3.766427 0.000000 1.000000 -0.000000
-1.241433 -0.198488 3.991424 1.000000 0.000000 -0.000000
-1.241433 -0.204644 3.991424 1.000000 0.000000 -0.000000
-1.241433 -0.204644 3.956640 1.000000 0.000000 -0.000000
-1.241433 -0.198488 3.956640 1.000000 0.000000 -0.000000
-1.241433 -0.198488 3.956640 0.500666 0.000000 -0.865641
-1.241433 -0.204644 3.956640 0.500666 0.000000 -0.865641
-1.570306 -0.204644 3.766427 0.500666 0.000000 -0.865641
-1.570306 -0.198488 3.766427 0.500666 0.000000 -0.865641
-1.570306 -0.198488 3.766427 -1.000000 0.000000 -0.000000
-1.570306 -0.204644 3.766427 -1.000000 0.000000 -0.000000
-1.570306 -0.204644 3.801212 -1.000000 0.000000 -0.000000
-1.570306 -0.198488 3.801212 -1.000000 0.000000 -0.000000
-1.570306 -0.198488 3.801212 -0.500665 0.000000 0.865641
-1.570306 -0.204644 3.801212 -0.500665 0.000000 0.865641
-1.241433 -0.204644 3.991424 -0.500665 0.000000 0.865641
-1.241433 -0.198488 3.991424 -0.500665 0.000000 0.865641
-1.241433 -0.204644 3.991424 -0.000000 -1.000000 0.000000
-1.570306 -0.204644 3.801212 -0.000000 -1.000000 0.000000
-1.570306 -0.204644 3.766427 -0.000000 -1.000000 0.000000
-1.241433 -0.204644 3.956640 -0.000000 -1.000000 0.000000
-1.570306 -0.198488 3.801212 0.000000 1.000000 -0.000000
-1.241433 -0.198488 3.991424 0.000000 1.000000 -0.000000
-1.241433 -0.198488 3.956640 0.000000 1.000000 -0.000000
-1.570306 -0.198488 3.766427 0.000000 1.000000 -0.000000
-1.239789 -0.186177 3.991424 1.000000 0.000000 -0.000000
-1.239789 -0.192333 3.991424 1.000000 0.000000 -0.000000
-1.239789 -0.192333 3.956640 1.000000 0.000000 -0.000000
-1.239789 -0.186177 3.956640 1.000000 0.000000 -0.000000
-1.239789 -0.186177 3.956640 0.500666 0.000000 -0.865641
-1.239789 -0.192333 3.956640 0.500666 0.000000 -0.865641
-1.568662 -0.192333 3.766427 0.500666 0.000000 -0.865641
-1.568662 -0.186177 3.766427 0.500666 0.000000 -0.865641
-1.568662 -0.186177 3.766427 -1.000000 0.000000 -0.000000
-1.568662 -0.192333 3.766427 -1.000000 0.000000 -0.000000
-1.568662 -0.192333 3.801212 -1.000000 0.000000 -0.000000
-1.568662 -0.186177 3.801212 -1.000000 0.000000 -0.000000
-1.568662 -0.186177 3.801212 -0.500665 0.000000 0.865641
-1.568662 -0.192333 3.801212 -0.500665 0.000000 0.865641
-1.239789 -0.192333 3.991424 -0.500665 0.000000 0.865641
-1.239789 -0.186177 3.991424 -0.500665 0.000000 0.865641
-1.239789 -0.192333 3.991424 -0.000000 -1.000000 0.000000
-1.568662 -0.192333 3.801212 -0.000000 -1.000000 0.000000
-1.568662 -0.192333 3.766427 -0.000000 -1.000000 0.000000
-1.239789 -0.192333 3.956640 -0.000000 -1.000000 0.000000
-1.568662 -0.186177 3.801212 0.000000 1.000000 -0.000000
-1.239789 -0.186177 3.991424 0.000000 1.000000 -0.000000
-1.239789 -0.186177 3.956640 0.000000 1.000000 -0.000000
-1.568662 -0.186177 3.766427 0.000000 1.000000 -0.000000
-1.238144 -0.173866 3.991424 1.000000 0.000000 -0.000000
-1.238144 -0.180022 3.991424 1.000000 0.000000 -0.000000
-1.238144 -0.180022 3.956640 1.000000 0.000000 -0.000000
-1.238144 -0.173866 3.956640 1.000000 0.000000 -0.000000
-1.238144 -0.173866 3.956640 0.500666 0.000000 -0.865641
-1.238144 -0.180022 3.956640 0.500666 0.000000 -0.865641
-1.567018 -0.180022 3.766427 0.500666 0.000000 -0.865641
-1.567018 -0.173866 3.766427 0.500666 0.000000 -0.865641
-1.567018 -0.173866 3.766427 -1.000000 0.000000 -0.000000
-1.567018 -0.180022 3.766427 -1.000000 0.000000 -0.000000
-1.567018 -0.180022 3.801212 -1.000000 0.000000 -0.000000
-1.567018 -0.173866 3.801212 -1.000000 0.000000 -0.000000
-1.567018 -0.173866 3.801212 -0.500665 0.000000 0.865641
-1.567018 -0.180022 3.801212 -0.500665 0.000000 0.865641
-1.238144 -0.180022 3.991424 -0.500665 0.000000 0.865641
-1.238144 -0.173866 3.991424 -0.500665 0.000000 0.865641
-1.238144 -0.180022 3.991424 -0.000000 -1.000000 0.000000
-1.567018 -0.180022 3.801212 -0.000000 -1.000000 0.000000
-1.567018 -0.180022 3.766427 -0.000000 -1.000000 0.000000
-1.238144 -0.180022 3.956640 -0.000000 -1.000000 0.000000
-1.567018 -0.173866 3.801212 0.000000 1.000000 -0.000000
-1.238144 -0.173866 3.991424 0.000000 1.000000 -0.000000
-1.238144 -0.173866 3.956640 0.000000 1.000000 -0.000000
-1.567018 -0.173866 3.766427 0.000000 1.000000 -0.000000
-1.236500 -0.161555 3.991424 1.000000 0.000000 -0.000000
-1.236500 -0.167711 3.991424 1.000000 0.000000 -0.000000
-1.236500 -0.167711 3.956640 1.000000 0.000000 -0.000000
-1.236500 -0.161555 3.956640 1.000000 0.000000 -0.000000
-1.236500 -0.161555 3.956640 0.500666 0.000000 -0.865641
-1.236500 -0.167711 3.956640 0.500666 0.000000 -0.865641
-1.565373 -0.167711 3.766427 0.500666 0.000000 -0.865641
-1.565373 -0.161555 3.766427 0.500666 0.000000 -0.865641
-1.565373 -0.161555 3.766427 -1.000000 0.000000 -0.000000
-1.565373 -0.167711 3.766427 -1.000000 0.000000 -0.000000
-1.565373 -0.167711 3.801212 -1.000000 0.000000 -0.000000
-1.565373 -0.161555 3.801212 -1.000000 0.000000 -0.000000
-1.565373 -0.161555 3.801212 -0.500665 0.000000 0.865641
-1.565373 -0.167711 3.801212 -0.500665 0.000000 0.865641
-1.236500 -0.167711 3.991424 -0.500665 0.000000 0.865641
-1.236500 -0.161555 3.991424 -0.500665 0.000000 0.865641
-1.236500 -0.167711 3.991424 -0.000000 -1.000000 0.000000
-1.565373 -0.167711 3.801212 -0.000000 -1.000000 0.000000
-1.565373 -0.167711 3.766427 -0.000000 -1.000000 0.000000
-1.236500 -0.167711 3.956640 -0.000000 -1.000000 0.000000
-1.565373 -0.161555 3.801212 0.000000 1.000000 -0.000000
-1.236500 -0.161555 3.991424 0.000000 1.000000 -0.000000
-1.236500 -0.161555 3.956640 0.000000 1.000000 -0.000000
-1.565373 -0.161555 3.766427 0.000000 1.000000 -0.000000
-1.234856 -0.149245 3.991424 1.000000 0.000000 -0.000000
-1.234856 -0.155400 3.991424 1.000000 0.000000 -0.000000
-1.234856 -0.155400 3.956640 1.000000 0.000000 -0.000000
-1.234856 -0.149245 3.956640 1.000000 0.000000 -0.000000
-1.234856 -0.149245 3.956640 0.500666 0.000000 -0.865641
-1.234856 -0.155400 3.956640 0.500666 0.000000 -0.865641
-1.563729 -0.155400 3.766427 0.500666 0.000000 -0.865641
-1.563729 -0.149245 3.766427 0.500666 0.000000 -0.865641
-1.563729 -0.149245 3.766427 -1.000000 0.000000 -0.000000
-1.563729 -0.155400 3.766427 -1.000000 0.000000 -0.000000
-1.563729 -0.155400 3.801212 -1.000000 0.000000 -0.000000
-1.563729 -0.149245 3.801212 -1.000000 0.000000 -0.000000
-1.563729 -0.149245 3.801212 -0.500665 0.000000 0.865641
-1.563729 -0.155400 3.801212 -0.500665 0.000000 0.865641
-1.234856 -0.155400 3.991424 -0.500665 0.000000 0.865641
-1.234856 -0.149245 3.991424 -0.500665 0.000000 0.865641
-1.234856 -0.155400 3.991424 -0.000000 -1.000000 0.000000
-1.563729 -0.155400 3.801212 -0.000000 -1.000000 0.000000
-1.563729 -0.155400 3.766427 -0.000000 -1.000000 0.000000
-1.234856 -0.155400 3.956640 -0.000000 -1.000000 0.000000
-1.563729 -0.149245 3.801212 0.000000 1.000000 -0.000000
-1.234856 -0.149245 3.991424 0.000000 1.000000 -0.000000
-1.234856 -0.149245 3.956640 0.000000 1.000000 -0.000000
-1.563729 -0.149245 3.766427 0.000000 1.000000 -0.000000
-1.233211 -0.136934 3.991424 1.000000 0.000000 -0.000000
-1.233211 -0.143089 3.991424 1.000000 0.000000 -0.000000
-1.233211 -0.143089 3.956640 1.000000 0.000000 -0.000000
-1.233211 -0.136934 3.956640 1.000000 0.000000 -0.000000
-1.233211 -0.136934 3.956640 0.500666 0.000000 -0.865641
-1.233211 -0.143089 3.956640 0.500666 0.000000 -0.865641
-1.562085 -0.143089 3.766427 0.500666 0.000000 -0.865641
-1.562085 -0.136934 3.766427 0.500666 0.000000 -0.865641
-1.562085 -0.136934 3.766427 -1.000000 0.000000 -0.000000
-1.562085 -0.143089 3.766427 -1.000000 0.000000 -0.000000
-1.562085 -0.143089 3.801212 -1.000000 0.000000 -0.000000
-1.562085 -0.136934 3.801212 -1.000000 0.000000 -0.000000
-1.562085 -0.136934 3.801212 -0.500665 0.000000 0.865641
-1.562085 -0.143089 3.801212 -0.500665 0.000000 0.865641
-1.233211 -0.143089 3.991424 -0.500665 0.000000 0.865641
-1.233211 -0.136934 3.991424 -0.500665 0.000000 0.865641
-1.233211 -0.143089 3.991424 -0.000000 -1.000000 0.000000
-1.562085 -0.143089 3.801212 -0.000000 -1.000000 0.000000
-1.562085 -0.143089 3.766427 -0.000000 -1.000000 0.000000
-1.233211 -0.143089 3.956640 -0.000000 -1.000000 0.000000
-1.562085 -0.136934 3.801212 0.000000 1.000000 -0.000000
-1.233211 -0.136934 3.991424 0.000000 1.000000 -0.000000
-1.233211 -0.136934 3.956640 0.000000 1.000000 -0.000000
-1.562085 -0.136934 3.766427 0.000000 1.000000 -0.000000
-1.231567 -0.124623 3.991424 1.000000 0.000000 -0.000000
-1.231567 -0.130778 3.991424 1.000000 0.000000 -0.000000
-1.231567 -0.130778 3.956640 1.000000 0.000000 -0.000000
-1.231567 -0.124623 3.956640 1.000000 0.000000 -0.000000
-1.231567 -0.124623 3.956640 0.500666 0.000000 -0.865641
-1.231567 -0.130778 3.956640 0.500666 0.000000 -0.865641
-1.560440 -0.130778 3.766427 0.500666 0.000000 -0.865641
-1.560440 -0.124623 3.766427 0.500666 0.000000 -0.865641
-1.560440 -0.124623 3.766427 -1.000000 0.000000 -0.000000
-1.560440 -0.130778 3.766427 -1.000000 0.000000 -0.000000
-1.560440 -0.130778 3.801212 -1.000000 0.000000 -0.000000
-1.560440 -0.124623 3.801212 -1.000000 0.000000 -0.000000
-1.560440 -0.124623 3.801212 -0.500665 0.000000 0.865641
-1.560440 -0.130778 3.801212 -0.500665 0.000000 0.865641
-1.231567 -0.130778 3.991424 -0.500665 0.000000 0.865641
-1.231567 -0.124623 3.991424 -0.500665 0.000000 0.865641
-1.231567 -0.130778 3.991424 -0.000000 -1.000000 0.000000
-1.560440 -0.130778 3.801212 -0.000000 -1.000000 0.000000
-1.560440 -0.130778 3.766427 -0.000000 -1.000000 0.000000
-1.231567 -0.130778 3.956640 -0.000000 -1.000000 0.000000
-1.560440 -0.124623 3.801212 0.000000 1.000000 -0.000000
-1.231567 -0.124623 3.991424 0.000000 1.000000 -0.000000
-1.231567 -0.124623 3.956640 0.000000 1.000000 -0.000000
-1.560440 -0.124623 3.766427 0.000000 1.000000 -0.000000
-1.229922 -0.112312 3.991424 1.000000 0.000000 -0.000000
-1.229922 -0.118467 3.991424 1.000000 0.000000 -0.000000
-1.229922 -0.118467 3.956640 1.000000 0.000000 -0.000000
-1.229922 -0.112312 3.956640 1.000000 0.000000 -0.000000
-1.229922 -0.112312 3.956640 0.500666 0.000000 -0.865641
-1.229922 -0.118467 3.956640 0.500666 0.000000 -0.865641
-1.558796 -0.118467 3.766427 0.500666 0.000000 -0.865641
-1.558796 -0.112312 3.766427 0.500666 0.000000 -0.865641
-1.558796 -0.112312 3.766427 -1.000000 0.000000 -0.000000
-1.558796 -0.118467 3.766427 -1.000000 0.000000 -0.000000
-1.558796 -0.118467 3.801212 -1.000000 0.000000 -0.000000
-1.558796 -0.112312 3.801212 -1.000000 0.000000 -0.000000
-1.558796 -0.112312 3.801212 -0.500665 0.000000 0.865641
-1.558796 -0.118467 3.801212 -0.500665 0.000000 0.865641
-1.229922 -0.118467 3.991424 -0.500665 0.000000 0.865641
-1.229922 -0.112312 3.991424 -0.500665 0.000000 0.865641
-1.229922 -0.118467 3.991424 -0.000000 -1.000000 0.000000
-1.558796 -0.118467 3.801212 -0.000000 -1.000000 0.000000
-1.558796 -0.118467 3.766427 -0.000000 -1.000000 0.000000
-1.229922 -0.118467 3.956640 -0.000000 -1.000000 0.000000
-1.558796 -0.112312 3.801212 0.000000 1.000000 -0.000000
-1.229922 -0.112312 3.991424 0.000000 1.000000 -0.000000
-1.229922 -0.112312 3.956640 0.000000 1.000000 -0.000000
-1.558796 -0.112312 3.766427 0.000000 1.000000 -0.000000
-1.228278 -0.100001 3.991424 1.000000 0.000000 -0.000000
-1.228278 -0.106156 3.991424 1.000000 0.000000 -0.000000
-1.228278 -0.106156 3.956640 1.000000 0.000000 -0.000000
-1.228278 -0.100001 3.956640 1.000000 0.000000 -0.000000
-1.228278 -0.100001 3.956640 0.500666 0.000000 -0.865641
-1.228278 -0.106156 3.956640 0.500666 0.000000 -0.865641
-1.557151 -0.106156 3.766427 0.500666 0.000000 -0.865641
-1.557151 -0.100001 3.766427 0.500666 0.000000 -0.865641
-1.557151 -0.100001 3.766427 -1.000000 0.000000 -0.000000
-1.557151 -0.106156 3.766427 -1.000000 0.000000 -0.000000
-1.557151 -0.106156 3.801212 -1.000000 0.000000 -0.000000
-1.557151 -0.100001 3.801212 -1.000000 0.000000 -0.000000
-1.557151 -0.100001 3.801212 -0.500665 0.000000 0.865641
-1.557151 -0.106156 3.801212 -0.500665 0.000000 0.865641
-1.228278 -0.106156 3.991424 -0.500665 0.000000 0.865641
-1.228278 -0.100001 3.991424 -0.500665 0.000000 0.865641
-1.228278 -0.106156 3.991424 -0.000000 -1.000000 0.000000
-1.557151 -0.106156 3.801212 -0.000000 -1.000000 0.000000
-1.557151 -0.106156 3.766427 -0.000000 -1.000000 0.000000
-1.228278 -0.106156 3.956640 -0.000000 -1.000000 0.000000
-1.557151 -0.100001 3.801212 0.000000 1.000000 -0.000000
-1.228278 -0.100001 3.991424 0.000000 1.000000 -0.000000
-1.228278 -0.100001 3.956640 0.000000 1.000000 -0.000000
-1.557151 -0.100001 3.766427 0.000000 1.000000 -0.000000
-1.226634 -0.087690 3.991424 1.000000 0.000000 -0.000000
-1.226634 -0.093845 3.991424 1.000000 0.000000 -0.000000
-1.226634 -0.093845 3.956640 1.000000 0.000000 -0.000000
-1.226634 -0.087690 3.956640 1.000000 0.000000 -0.000000
-1.226634 -0.087690 3.956640 0.500666 0.000000 -0.865641
-1.226634 -0.093845 3.956640 0.500666 0.000000 -0.865641
-1.555507 -0.093845 3.766427 0.500666 0.000000 -0.865641
-1.555507 -0.087690 3.766427 0.500666 0.000000 -0.865641
-1.555507 -0.087690 3.766427 -1.000000 0.000000 -0.000000
-1.555507 -0.093845 3.766427 -1.000000 0.000000 -0.000000
-1.555507 -0.093845 3.801212 -1.000000 0.000000 -0.000000
-1.555507 -0.087690 3.801212 -1.000000 0.000000 -0.000000
-1.555507 -0.087690 3.801212 -0.500665 0.000000 0.865641
-1.555507 -0.093845 3.801212 -0.500665 0.000000 0.865641
-1.226634 -0.093845 3.991424 -0.500665 0.000000 0.865641
-1.226634 -0.087690 3.991424 -0.500665 0.000000 0.865641
-1.226634 -0.093845 3.991424 -0.000000 -1.000000 0.000000
-1.555507 -0.093845 3.801212 -0.000000 -1.000000 0.000000
-1.555507 -0.093845 3.766427 -0.000000 -1.000000 0.000000
-1.226634 -0.093845 3.956640 -0.000000 -1.000000 0.000000
-1.555507 -0.087690 3.801212 0.000000 1.000000 -0.000000
-1.226634 -0.087690 3.991424 0.000000 1.000000 -0.000000
-1.226634 -0.087690 3.956640 0.000000 1.000000 -0.000000
-1.555507 -0.087690 3.766427 0.000000 1.000000 -0.000000
-1.224989 -0.075379 3.991424 1.000000 0.000000 -0.000000
-1.224989 -0.081535 3.991424 1.000000 0.000000 -0.000000
-1.224989 -0.081535 3.956640 1.000000 0.000000 -0.000000
-1.224989 -0.075379 3.956640 1.000000 0.000000 -0.000000
-1.224989 -0.075379 3.956640 0.500666 0.000000 -0.865641
-1.224989 -0.081535 3.956640 0.500666 0.000000 -0.865641
-1.553863 -0.081535 3.766427 0.500666 0.000000 -0.865641
-1.553863 -0.075379 3.766427 0.500666 0.000000 -0.865641
-1.553863 -0.075379 3.766427 -1.000000 0.000000 -0.000000
-1.553863 -0.081535 3.766427 -1.000000 0.000000 -0.000000
-1.553863 -0.081535 3.801212 -1.000000 0.000000 -0.000000
-1.553863 -0.075379 3.801212 -1.000000 0.000000 -0.000000
-1.553863 -0.075379 3.801212 -0.500665 0.000000 0.865641
-1.553863 -0.081535 3.801212 -0.500665 0.000000 0.865641
-1.224989 -0.081535 3.991424 -0.500665 0.000000 0.865641
-1.224989 -0.075379 3.991424 -0.500665 0.000000 0.865641
-1.224989 -0.081535 3.991424 -0.000000 -1.000000 0.000000
-1.553863 -0.081535 3.801212 -0.000000 -1.000000 0.000000
-1.553863 -0.081535 3.766427 -0.000000 -1.000000 0.000000
-1.224989 -0.081535 3.956640 -0.000000 -1.000000 0.000000
-1.553863 -0.075379 3.801212 0.000000 1.000000 -0.000000
-1.224989 -0.075379 3.991424 0.000000 1.000000 -0.000000
-1.224989 -0.075379 3.956640 0.000000 1.000000 -0.000000
-1.553863 -0.075379 3.766427 0.000000 1.000000 -0.000000
-1.223345 -0.063068 3.991424 1.000000 0.000000 -0.000000
-1.223345 -0.069224 3.991424 1.000000 0.000000 -0.000000
-1.223345 -0.069224 3.956640 1.000000 0.000000 -0.000000
-1.223345 -0.063068 3.956640 1.000000 0.000000 -0.000000
-1.223345 -0.063068 3.956640 0.500666 0.000000 -0.865641
-1.223345 -0.069224 3.956640 0.500666 0.000000 -0.865641
-1.552218 -0.069224 3.766427 0.500666 0.000000 -0.865641
-1.552218 -0.063068 3.766427 0.500666 0.000000 -0.865641
-1.552218 -0.063068 3.766427 -1.000000 0.000000 -0.000000
-1.552218 -0.069224 3.766427 -1.000000 0.000000 -0.000000
-1.552218 -0.069224 3.801212 -1.000000 0.000000 -0.000000
-1.552218 -0.063068 3.801212 -1.000000 0.000000 -0.000000
-1.552218 -0.063068 3.801212 -0.500665 0.000000 0.865641
-1.552218 -0.069224 3.801212 -0.500665 0.000000 0.865641
-1.223345 -0.069224 3.991424 -0.500665 0.000000 0.865641
-1.223345 -0.063068 3.991424 -0.500665 0.000000 0.865641
-1.223345 -0.069224 3.991424 -0.000000 -1.000000 0.000000
-1.552218 -0.069224 3.801212 -0.000000 -1.000000 0.000000
-1.552218 -0.069224 3.766427 -0.000000 -1.000000 0.000000
-1.223345 -0.069224 3.956640 -0.000000 -1.000000 0.000000
-1.552218 -0.063068 3.801212 0.000000 1.000000 -0.000000
-1.223345 -0.063068 3.991424 0.000000 1.000000 -0.000000
-1.223345 -0.063068 3.956640 0.000000 1.000000 -0.000000
-1.552218 -0.063068 3.766427 0.000000 1.000000 -0.000000
-1.221701 -0.050757 3.991424 1.000000 0.000000 -0.000000
-1.221701 -0.056913 3.991424 1.000000 0.000000 -0.000000
-1.221701 -0.056913 3.956640 1.000000 0.000000 -0.000000
-1.221701 -0.050757 3.956640 1.000000 0.000000 -0.000000
-1.221701 -0.050757 3.956640 0.500666 0.000000 -0.865641
-1.221701 -0.056913 3.956640 0.500666 0.000000 -0.865641
-1.550574 -0.056913 3.766427 0.500666 0.000000 -0.865641
-1.550574 -0.050757 3.766427 0.500666 0.000000 -0.865641
-1.550574 -0.050757 3.766427 -1.000000 0.000000 -0.000000
-1.550574 -0.056913 3.766427 -1.000000 0.000000 -0.000000
-1.550574 -0.056913 3.801212 -1.000000 0.000000 -0.000000
-1.550574 -0.050757 3.801212 -1.000000 0.000000 -0.000000
-1.550574 -0.050757 3.801212 -0.500665 0.000000 0.865641
-1.550574 -0.056913 3.801212 -0.500665 0.000000 0.865641
-1.221701 -0.056913 3.991424 -0.500665 0.000000 0.865641
-1.221701 -0.050757 3.991424 -0.500665 0.000000 0.865641
-1.221701 -0.056913 3.991424 -0.000000 -1.000000 0.000000
-1.550574 -0.056913 3.801212 -0.000000 -1.000000 0.000000
-1.550574 -0.056913 3.766427 -0.000000 -1.000000 0.000000
-1.221701 -0.056913 3.956640 -0.000000 -1.000000 0.000000
-1.550574 -0.050757 3.801212 0.000000 1.000000 -0.000000
-1.221701 -0.050757 3.991424 0.000000 1.000000 -0.000000
-1.221701 -0.050757 3.956640 0.000000 1.000000 -0.000000
-1.550574 -0.050757 3.766427 0.000000 1.000000 -0.000000
4 0 1 2 3
4 4 5 6 7
4 8 9 10 11
4 12 13 14 15
4 16 17 18 19
4 20 21 22 23
4 24 25 26 27
4 28 29 30 31
4 32 33 34 35
4 36 37 38 39
4 40 41 42 43
4 44 45 46 47
4 48 49 50 51
4 52 53 54 55
4 56 57 58 59
4 60 61 62 63
4 64 65 66 67
4 68 69 70 71
4 72 73 74 75
4 76 77 78 79
4 80 81 82 83
4 84 85 86 87
4 88 89 90 91
4 92 93 94 95
4 96 97 98 99
4 100 101 102 103
4 104 105 106 107
4 108 109 110 111
4 112 113 114 115
4 116 117 118 119
4 120 121 122 123
4 124 125 126 127
4 128 129 130 131
4 132 133 134 135
4 136 137 138 139
4 140 141 142 143
4 144 145 146 147
4 148 149 150 151
4 152 153 154 155
4 156 157 158 159
4 160 161 162 163
4 164 165 166 167
4 168 169 170 171
4 172 173 174 175
4 176 177 178 179
4 180 181 182 183
4 184 185 186 187
4 188 189 190 191
4 192 193 194 195
4 196 197 198 199
4 200 201 202 203
4 204 205 206 207
4 208 209 210 211
4 212 213 214 215
4 216 217 218 219
4 220 221 222 223
4 224 225 226 227
4 228 229 230 231
4 232 233 234 235
4 236 237 238 239
4 240 241 242 243
4 244 245 246 247
4 248 249 250 251
4 252 253 254 255
4 256 257 258 259
4 260 261 262 263
4 264 265 266 267
4 268 269 270 271
4 272 273 274 275
4 276 277 278 279
4 280 281 282 283
4 284 285 286 287
4 288 289 290 291
4 292 293 294 295
4 296 297 298 299
4 300 301 302 303
4 304 305 306 307
4 308 309 310 311
4 312 313 314 315
4 316 317 318 319
4 320 321 322 323
4 324 325 326 327
4 328 329 330 331
4 332 333 334 335
4 336 337 338 339
4 340 341 342 343
4 344 345 346 347
4 348 349 350 351
4 352 353 354 355
4 356 357 358 359
4 360 361 362 363
4 364 365 366 367
4 368 369 370 371
4 372 373 374 375
4 376 377 378 379
4 380 381 382 383
4 384 385 386 387
4 388 389 390 391
4 392 393 394 395
4 396 397 398 399
4 400 401 402 403
4 404 405 406 407
4 408 409 410 411
4 412 413 414 415
4 416 417 418 419
4 420 421 422 423
4 424 425 426 427
4 428 429 430 431
4 432 433 434 435
4 436 437 438 439
4 440 441 442 443
4 444 445 446 447
4 448 449 450 451
4 452 453 454 455
4 456 457 458 459
4 460 461 462 463
4 464 465 466 467
4 468 469 470 471
4 472 473 474 475
4 476 477 478 479
4 480 481 482 483
4 484 485 486 487
4 488 489 490 491
4 492 493 494 495
4 496 497 498 499
4 500 501 502 503
4 504 505 506 507
4 508 509 510 511
4 512 513 514 515
4 516 517 518 519
4 520 521 522 523
4 524 525 526 527
4 528 529 530 531
4 532 533 534 535
4 536 537 538 539
4 540 541 542 543
4 544 545 546 547
4 548 549 550 551
4 552 553 554 555
4 556 557 558 559
4 560 561 562 563
4 564 565 566 567
4 568 569 570 571
4 572 573 574 575
4 576 577 578 579
4 580 581 582 583
4 584 585 586 587
4 588 589 590 591
4 592 593 594 595
4 596 597 598 599
4 600 601 602 603
4 604 605 606 607
4 608 609 610 611
4 612 613 614 615
4 616 617 618 619
4 620 621 622 623
4 624 625 626 627
4 628 629 630 631
4 632 633 634 635
4 636 637 638 639
4 640 641 642 643
4 644 645 646 647
4 648 649 650 651
4 652 653 654 655
4 656 657 658 659
4 660 661 662 663
4 664 665 666 667
4 668 669 670 671
4 672 673 674 675
4 676 677 678 679
4 680 681 682 683
4 684 685 686 687
4 688 689 690 691
4 692 693 694 695
4 696 697 698 699
4 700 701 702 703
4 704 705 706 707
4 708 709 710 711
4 712 713 714 715
4 716 717 718 719
4 720 721 722 723
4 724 725 726 727
4 728 729 730 731
4 732 733 734 735
4 736 737 738 739
4 740 741 742 743
4 744 745 746 747
4 748 749 750 751
4 752 753 754 755
4 756 757 758 759
4 760 761 762 763
4 764 765 766 767
4 768 769 770 771
4 772 773 774 775
4 776 777 778 779
4 780 781 782 783
4 784 785 786 787
4 788 789 790 791
4 792 793 794 795
4 796 797 798 799
4 800 801 802 803
4 804 805 806 807
4 808 809 810 811
4 812 813 814 815
4 816 817 818 819
4 820 821 822 823
4 824 825 826 827
4 828 829 830 831
4 832 833 834 835
4 836 837 838 839
4 840 841 842 843
4 844 845 846 847
4 848 849 850 851
4 852 853 854 855
4 856 857 858 859
4 860 861 862 863
4 864 865 866 867
4 868 869 870 871
4 872 873 874 875
4 876 877 878 879
4 880 881 882 883
4 884 885 886 887
4 888 889 890 891
4 892 893 894 895
4 896 897 898 899
4 900 901 902 903
4 904 905 906 907
4 908 909 910 911
