ply
format ascii 1.0
comment Created by Blender 2.79 (sub 0) - www.blender.org, source file: 'm3_v2.blend'
element vertex 250
property float x
property float y
property float z
property float nx
property float ny
property float nz
element face 192
property list uchar uint vertex_indices
end_header
1.333986 -0.265293 3.910259 -0.488754 0.144963 -0.860256
1.328294 -0.273638 3.911905 -0.475112 0.168554 -0.863613
1.300035 -0.274035 3.927351 -0.469985 0.228034 -0.852687
1.306566 -0.266025 3.925706 -0.485488 0.194678 -0.852260
1.271775 -0.274431 3.942798 -0.462386 0.268838 -0.844905
1.279146 -0.266756 3.941153 -0.479232 0.231391 -0.846614
1.323797 -0.279662 3.913089 -0.463790 0.185949 -0.866176
1.294850 -0.279723 3.928535 -0.457198 0.249855 -0.853511
1.265904 -0.279784 3.943982 -0.450331 0.285195 -0.846065
1.314047 -0.255325 3.923612 -0.501175 0.158116 -0.850734
1.340553 -0.254372 3.908165 -0.502945 0.119236 -0.856014
1.322083 -0.241566 3.921081 -0.515641 0.120975 -0.848201
1.347680 -0.240620 3.905635 -0.516495 0.092502 -0.851253
1.287541 -0.256277 3.939059 -0.496628 0.188025 -0.847316
1.296485 -0.242513 3.936528 -0.512589 0.143681 -0.846522
1.367060 -0.253420 3.892718 -0.503952 0.080844 -0.859920
1.361405 -0.264562 3.894813 -0.490677 0.097385 -0.865841
1.393566 -0.252467 3.877272 -0.506027 0.060732 -0.860347
1.388825 -0.263830 3.879366 -0.493057 0.073122 -0.866909
1.373278 -0.239674 3.890188 -0.516953 0.063356 -0.853633
1.398875 -0.238728 3.874741 -0.518723 0.047517 -0.853603
1.356554 -0.273242 3.896458 -0.478317 0.113010 -0.870846
1.352744 -0.279601 3.897642 -0.468032 0.126774 -0.874538
1.384813 -0.272846 3.881011 -0.480911 0.085025 -0.872616
1.381690 -0.279541 3.882195 -0.470687 0.096683 -0.876949
1.312582 -0.040786 3.897879 -0.438276 -0.361644 -0.822871
1.314764 -0.043084 3.897710 -0.442518 -0.356670 -0.822748
1.286437 -0.043613 3.913157 -0.433363 -0.400342 -0.807398
1.284954 -0.041384 3.912843 -0.426405 -0.416120 -0.803125
1.258109 -0.044142 3.928603 -0.427992 -0.420515 -0.799951
1.257338 -0.041994 3.927807 -0.425428 -0.424116 -0.799432
1.318447 -0.046905 3.897372 -0.447432 -0.356822 -0.820032
1.290415 -0.047304 3.912818 -0.439436 -0.395520 -0.806482
1.262383 -0.047703 3.928265 -0.433363 -0.415937 -0.799463
1.286380 -0.040131 3.911451 -0.421979 -0.425489 -0.800531
1.311413 -0.039518 3.897935 -0.433973 -0.372051 -0.820490
1.289260 -0.039367 3.909520 -0.424696 -0.410230 -0.807031
1.310751 -0.038767 3.897935 -0.429182 -0.390362 -0.814478
1.261391 -0.040794 3.924967 -0.420576 -0.434675 -0.796319
1.271591 -0.040073 3.919174 -0.413038 -0.457381 -0.787500
1.336534 -0.039006 3.884419 -0.443892 -0.320292 -0.836848
1.340231 -0.040212 3.882915 -0.447310 -0.312876 -0.837855
1.361699 -0.038544 3.870903 -0.449080 -0.294320 -0.843593
1.367891 -0.039652 3.867951 -0.451704 -0.293252 -0.842555
1.332418 -0.038368 3.886350 -0.437513 -0.350108 -0.828242
1.350616 -0.038262 3.876696 -0.446577 -0.299478 -0.843104
1.343092 -0.042555 3.882263 -0.450453 -0.313730 -0.835841
1.346478 -0.046506 3.881925 -0.454421 -0.318827 -0.831751
1.371420 -0.042026 3.866816 -0.454543 -0.295724 -0.840175
1.374510 -0.046107 3.866478 -0.458357 -0.301645 -0.835994
1.362007 -0.120668 3.893612 -0.532182 -0.152532 -0.832759
1.337581 -0.119614 3.909059 -0.531144 -0.170598 -0.829920
1.330111 -0.100832 3.909377 -0.516312 -0.214820 -0.828974
1.355255 -0.101693 3.893931 -0.518296 -0.191290 -0.833491
1.321437 -0.084470 3.910027 -0.499435 -0.258797 -0.826777
1.347335 -0.085061 3.894580 -0.502487 -0.231727 -0.832911
1.313156 -0.118560 3.924505 -0.529099 -0.185339 -0.828059
1.304967 -0.099970 3.924824 -0.512833 -0.233436 -0.826106
1.295540 -0.083879 3.925474 -0.494613 -0.280801 -0.822474
1.380398 -0.102554 3.878484 -0.519974 -0.168065 -0.837458
1.386432 -0.121722 3.878165 -0.533036 -0.134587 -0.835292
1.405542 -0.103415 3.863037 -0.522019 -0.153966 -0.838893
1.410858 -0.122776 3.862719 -0.534227 -0.123875 -0.836177
1.373232 -0.085653 3.879134 -0.505081 -0.205206 -0.838282
1.399130 -0.086244 3.863687 -0.508103 -0.187506 -0.840602
1.390574 -0.142322 3.878408 -0.542741 -0.098270 -0.834101
1.366712 -0.141220 3.893855 -0.542467 -0.109043 -0.832942
1.392066 -0.163520 3.879443 -0.547136 -0.055544 -0.835170
1.368492 -0.162580 3.894889 -0.547136 -0.057192 -0.835047
1.414437 -0.143425 3.862961 -0.543138 -0.091891 -0.834590
1.415641 -0.164460 3.863996 -0.547105 -0.055025 -0.835231
1.342849 -0.140117 3.909302 -0.542131 -0.119785 -0.831690
1.318987 -0.139014 3.924748 -0.541429 -0.128941 -0.830775
1.344917 -0.161640 3.910336 -0.547166 -0.058870 -0.834925
1.321342 -0.160700 3.925783 -0.547166 -0.059725 -0.834864
1.361649 -0.204644 3.899664 -0.538469 0.032960 -0.841975
1.385756 -0.204578 3.884217 -0.538621 0.018647 -0.842311
1.379821 -0.223185 3.887233 -0.528794 0.043580 -0.847591
1.355049 -0.223784 3.902680 -0.528550 0.064699 -0.846400
1.409864 -0.204513 3.868770 -0.539445 0.009461 -0.841945
1.404593 -0.222586 3.871787 -0.530168 0.031190 -0.847285
1.330277 -0.224383 3.918127 -0.528092 0.084811 -0.844905
1.337541 -0.204709 3.915110 -0.538224 0.046510 -0.841487
1.305506 -0.224981 3.933574 -0.526170 0.100894 -0.844356
1.313434 -0.204775 3.930557 -0.537126 0.058229 -0.841456
1.342784 -0.183483 3.912393 -0.545213 0.000214 -0.838282
1.366467 -0.183982 3.896946 -0.545274 -0.006623 -0.838221
1.319102 -0.182984 3.927840 -0.544877 0.007050 -0.838466
1.390149 -0.184481 3.881499 -0.545305 -0.013825 -0.838099
1.413831 -0.184980 3.866053 -0.545549 -0.018983 -0.837825
1.331196 -0.060859 3.896101 -0.470382 -0.312967 -0.825068
1.339125 -0.071542 3.895331 -0.486099 -0.273965 -0.829829
1.312559 -0.071231 3.910778 -0.481887 -0.303568 -0.821925
1.304048 -0.060819 3.911547 -0.464827 -0.345378 -0.815210
1.285992 -0.070920 3.926224 -0.475936 -0.327860 -0.816065
1.276900 -0.060779 3.926994 -0.457900 -0.371288 -0.807733
1.296476 -0.052941 3.912255 -0.449568 -0.380016 -0.808344
1.324113 -0.052738 3.896808 -0.456496 -0.344554 -0.820276
1.268839 -0.053144 3.927701 -0.442213 -0.405744 -0.799860
1.351750 -0.052535 3.881361 -0.462539 -0.309854 -0.830683
1.358343 -0.060899 3.880654 -0.475234 -0.281228 -0.833674
1.379387 -0.052332 3.865915 -0.467208 -0.289132 -0.835505
1.385491 -0.060939 3.865207 -0.479629 -0.260506 -0.837886
1.365692 -0.071853 3.879884 -0.489792 -0.244942 -0.836695
1.392259 -0.072164 3.864438 -0.493545 -0.225501 -0.839961
1.318969 -0.286012 3.914155 -0.445967 0.247566 -0.860103
1.317906 -0.287344 3.914273 -0.433515 0.317240 -0.843440
1.291870 -0.286976 3.927789 -0.424757 0.366619 -0.827723
1.290238 -0.285715 3.929119 -0.436415 0.314707 -0.842891
1.265879 -0.286555 3.941305 -0.428175 0.353435 -0.831690
1.261517 -0.285404 3.944083 -0.437605 0.314707 -0.842280
1.317231 -0.288147 3.914273 -0.423872 0.366680 -0.828150
1.294903 -0.287739 3.925858 -0.420545 0.383526 -0.822199
1.276528 -0.287186 3.935512 -0.411542 0.425398 -0.805994
1.291408 -0.283457 3.929246 -0.447340 0.270363 -0.852504
1.320811 -0.283619 3.913799 -0.454970 0.205329 -0.866482
1.262005 -0.283294 3.944693 -0.441786 0.302133 -0.844691
1.350214 -0.283781 3.898353 -0.460189 0.144688 -0.875912
1.347723 -0.286282 3.899191 -0.452467 0.186987 -0.871914
1.379617 -0.283943 3.882906 -0.463576 0.111209 -0.879025
1.376489 -0.286539 3.884227 -0.457900 0.137486 -0.878292
1.344031 -0.287605 3.900757 -0.440657 0.269234 -0.856319
1.339739 -0.288340 3.902688 -0.429975 0.333048 -0.839137
1.370202 -0.287813 3.887241 -0.450209 0.193701 -0.871639
1.358654 -0.288251 3.893034 -0.436445 0.292642 -0.850765
-1.341130 -0.265293 3.910259 0.488754 0.144963 -0.860256
-1.313710 -0.266025 3.925706 0.485488 0.194678 -0.852260
-1.307179 -0.274035 3.927351 0.469985 0.228034 -0.852687
-1.335439 -0.273638 3.911905 0.475112 0.168554 -0.863613
-1.301995 -0.279723 3.928535 0.457198 0.249855 -0.853511
-1.330941 -0.279662 3.913089 0.463790 0.185949 -0.866176
-1.286290 -0.266756 3.941153 0.479232 0.231391 -0.846614
-1.278920 -0.274431 3.942798 0.462386 0.268838 -0.844905
-1.273048 -0.279784 3.943982 0.450331 0.285226 -0.846065
-1.363698 -0.273242 3.896458 0.478317 0.113010 -0.870846
-1.368550 -0.264562 3.894813 0.490677 0.097385 -0.865841
-1.391958 -0.272846 3.881011 0.480911 0.085025 -0.872616
-1.395970 -0.263830 3.879366 0.493057 0.073122 -0.866909
-1.359888 -0.279601 3.897642 0.468032 0.126774 -0.874538
-1.388835 -0.279541 3.882195 0.470687 0.096683 -0.876949
-1.374204 -0.253420 3.892718 0.503952 0.080844 -0.859920
-1.347698 -0.254372 3.908165 0.502945 0.119236 -0.856014
-1.380422 -0.239674 3.890188 0.516953 0.063356 -0.853633
-1.354825 -0.240620 3.905635 0.516495 0.092502 -0.851253
-1.400710 -0.252467 3.877272 0.506027 0.060732 -0.860347
-1.406020 -0.238728 3.874741 0.518723 0.047517 -0.853603
-1.321192 -0.255325 3.923612 0.501175 0.158116 -0.850734
-1.294685 -0.256277 3.939059 0.496628 0.188025 -0.847316
-1.329227 -0.241566 3.921081 0.515641 0.120975 -0.848201
-1.303630 -0.242513 3.936528 0.512558 0.143681 -0.846522
-1.319726 -0.040786 3.897879 0.438246 -0.361644 -0.822840
-1.292099 -0.041384 3.912843 0.426405 -0.416089 -0.803125
-1.293581 -0.043613 3.913157 0.433363 -0.400342 -0.807398
-1.321909 -0.043084 3.897710 0.442518 -0.356639 -0.822748
-1.297559 -0.047304 3.912818 0.439436 -0.395520 -0.806482
-1.325591 -0.046905 3.897372 0.447432 -0.356822 -0.820032
-1.264482 -0.041994 3.927807 0.425428 -0.424116 -0.799432
-1.265254 -0.044142 3.928603 0.427992 -0.420515 -0.799951
-1.269528 -0.047703 3.928265 0.433363 -0.415937 -0.799463
-1.350237 -0.042555 3.882263 0.450453 -0.313700 -0.835841
-1.347375 -0.040212 3.882915 0.447310 -0.312815 -0.837855
-1.378564 -0.042026 3.866816 0.454543 -0.295755 -0.840175
-1.375036 -0.039652 3.867951 0.451735 -0.293191 -0.842586
-1.353623 -0.046506 3.881925 0.454421 -0.318857 -0.831751
-1.381655 -0.046107 3.866478 0.458357 -0.301675 -0.835994
-1.343678 -0.039006 3.884419 0.443892 -0.320353 -0.836848
-1.318557 -0.039518 3.897935 0.433973 -0.372051 -0.820490
-1.339563 -0.038368 3.886350 0.437513 -0.350047 -0.828242
-1.317895 -0.038767 3.897935 0.429182 -0.390362 -0.814478
-1.368843 -0.038544 3.870903 0.449080 -0.294320 -0.843593
-1.357761 -0.038262 3.876696 0.446547 -0.299478 -0.843104
-1.293524 -0.040131 3.911451 0.421979 -0.425489 -0.800531
-1.268536 -0.040794 3.924967 0.420576 -0.434645 -0.796319
-1.296404 -0.039367 3.909520 0.424696 -0.410260 -0.807001
-1.278736 -0.040073 3.919174 0.413038 -0.457320 -0.787530
-1.369151 -0.120668 3.893612 0.532182 -0.152532 -0.832759
-1.362399 -0.101693 3.893931 0.518296 -0.191290 -0.833491
-1.337255 -0.100832 3.909377 0.516312 -0.214820 -0.828974
-1.344726 -0.119614 3.909059 0.531144 -0.170598 -0.829920
-1.312112 -0.099970 3.924824 0.512833 -0.233436 -0.826106
-1.320300 -0.118560 3.924505 0.529099 -0.185339 -0.828059
-1.354479 -0.085061 3.894580 0.502487 -0.231727 -0.832911
-1.328581 -0.084470 3.910027 0.499435 -0.258797 -0.826777
-1.302684 -0.083879 3.925474 0.494613 -0.280801 -0.822474
-1.349994 -0.140117 3.909302 0.542131 -0.119785 -0.831690
-1.373856 -0.141220 3.893855 0.542467 -0.109043 -0.832942
-1.352061 -0.161640 3.910336 0.547166 -0.058870 -0.834925
-1.375636 -0.162580 3.894889 0.547136 -0.057192 -0.835047
-1.326132 -0.139014 3.924748 0.541429 -0.128941 -0.830775
-1.328487 -0.160700 3.925783 0.547166 -0.059725 -0.834864
-1.397719 -0.142322 3.878408 0.542741 -0.098270 -0.834101
-1.393577 -0.121722 3.878165 0.533036 -0.134587 -0.835292
-1.421581 -0.143425 3.862961 0.543138 -0.091891 -0.834590
-1.418002 -0.122776 3.862719 0.534227 -0.123875 -0.836177
-1.399211 -0.163520 3.879443 0.547136 -0.055544 -0.835170
-1.422785 -0.164460 3.863996 0.547105 -0.055025 -0.835231
-1.387543 -0.102554 3.878484 0.519944 -0.168065 -0.837458
-1.380376 -0.085653 3.879134 0.505081 -0.205206 -0.838282
-1.412687 -0.103415 3.863037 0.522019 -0.153966 -0.838893
-1.406274 -0.086244 3.863687 0.508072 -0.187506 -0.840632
-1.368793 -0.204644 3.899664 0.538469 0.032960 -0.841975
-1.362194 -0.223784 3.902680 0.528550 0.064699 -0.846400
-1.386966 -0.223185 3.887233 0.528794 0.043580 -0.847591
-1.392901 -0.204578 3.884217 0.538621 0.018647 -0.842311
-1.411738 -0.222586 3.871787 0.530168 0.031190 -0.847285
-1.417008 -0.204513 3.868770 0.539445 0.009491 -0.841945
-1.397293 -0.184481 3.881500 0.545305 -0.013825 -0.838099
-1.373611 -0.183982 3.896946 0.545274 -0.006623 -0.838221
-1.420976 -0.184980 3.866053 0.545549 -0.018983 -0.837825
-1.349929 -0.183483 3.912393 0.545213 0.000214 -0.838282
-1.344686 -0.204709 3.915111 0.538224 0.046541 -0.841487
-1.326246 -0.182984 3.927840 0.544877 0.007050 -0.838466
-1.320578 -0.204775 3.930557 0.537126 0.058199 -0.841456
-1.337422 -0.224383 3.918127 0.528092 0.084811 -0.844905
-1.312650 -0.224981 3.933574 0.526170 0.100894 -0.844356
-1.338340 -0.060859 3.896101 0.470382 -0.312937 -0.825068
-1.311192 -0.060819 3.911547 0.464827 -0.345378 -0.815210
-1.319703 -0.071231 3.910778 0.481887 -0.303568 -0.821925
-1.346270 -0.071542 3.895331 0.486099 -0.273965 -0.829829
-1.284045 -0.060779 3.926994 0.457900 -0.371258 -0.807733
-1.293137 -0.070920 3.926224 0.475936 -0.327860 -0.816065
-1.372836 -0.071853 3.879884 0.489792 -0.244972 -0.836695
-1.365488 -0.060899 3.880654 0.475234 -0.281228 -0.833674
-1.399403 -0.072164 3.864438 0.493545 -0.225501 -0.839961
-1.392635 -0.060939 3.865207 0.479629 -0.260506 -0.837886
-1.358895 -0.052535 3.881361 0.462539 -0.309854 -0.830683
-1.331258 -0.052738 3.896808 0.456465 -0.344554 -0.820276
-1.386532 -0.052332 3.865915 0.467208 -0.289132 -0.835505
-1.303620 -0.052941 3.912255 0.449568 -0.379986 -0.808344
-1.275983 -0.053144 3.927701 0.442213 -0.405713 -0.799860
-1.326114 -0.286012 3.914155 0.445967 0.247536 -0.860103
-1.297382 -0.285715 3.929119 0.436415 0.314707 -0.842891
-1.299014 -0.286976 3.927789 0.424757 0.366588 -0.827723
-1.325050 -0.287344 3.914273 0.433515 0.317209 -0.843440
-1.302048 -0.287739 3.925858 0.420545 0.383557 -0.822169
-1.324376 -0.288147 3.914273 0.423872 0.366680 -0.828150
-1.268661 -0.285404 3.944083 0.437605 0.314707 -0.842280
-1.273023 -0.286555 3.941305 0.428175 0.353435 -0.831690
-1.283673 -0.287186 3.935512 0.411542 0.425367 -0.805994
-1.351176 -0.287605 3.900757 0.440657 0.269234 -0.856319
-1.354868 -0.286282 3.899191 0.452467 0.186987 -0.871914
-1.377347 -0.287813 3.887241 0.450209 0.193732 -0.871639
-1.383633 -0.286539 3.884227 0.457900 0.137486 -0.878292
-1.346883 -0.288340 3.902688 0.430006 0.333018 -0.839137
-1.365798 -0.288251 3.893034 0.436445 0.292642 -0.850765
-1.357358 -0.283781 3.898353 0.460189 0.144658 -0.875942
-1.327955 -0.283619 3.913799 0.454970 0.205329 -0.866482
-1.386761 -0.283943 3.882906 0.463576 0.111209 -0.879025
-1.298552 -0.283457 3.929246 0.447340 0.270363 -0.852504
-1.269149 -0.283294 3.944693 0.441786 0.302133 -0.844691
4 0 1 2 3
4 3 2 4 5
4 1 6 7 2
4 2 7 8 4
4 0 3 9 10
4 10 9 11 12
4 3 5 13 9
4 9 13 14 11
4 0 10 15 16
4 16 15 17 18
4 10 12 19 15
4 15 19 20 17
4 0 16 21 1
4 1 21 22 6
4 16 18 23 21
4 21 23 24 22
4 25 26 27 28
4 28 27 29 30
4 26 31 32 27
4 27 32 33 29
4 25 28 34 35
4 35 34 36 37
4 28 30 38 34
4 34 38 39 36
4 25 35 40 41
4 41 40 42 43
4 35 37 44 40
4 40 44 45 42
4 25 41 46 26
4 26 46 47 31
4 41 43 48 46
4 46 48 49 47
4 50 51 52 53
4 53 52 54 55
4 51 56 57 52
4 52 57 58 54
4 50 53 59 60
4 60 59 61 62
4 53 55 63 59
4 59 63 64 61
4 50 60 65 66
4 66 65 67 68
4 60 62 69 65
4 65 69 70 67
4 50 66 71 51
4 51 71 72 56
4 66 68 73 71
4 71 73 74 72
4 75 76 77 78
4 78 77 19 12
4 76 79 80 77
4 77 80 20 19
4 75 78 81 82
4 82 81 83 84
4 78 12 11 81
4 81 11 14 83
4 75 82 85 86
4 86 85 73 68
4 82 84 87 85
4 85 87 74 73
4 75 86 88 76
4 76 88 89 79
4 86 68 67 88
4 88 67 70 89
4 90 91 92 93
4 93 92 94 95
4 91 55 54 92
4 92 54 58 94
4 90 93 96 97
4 97 96 32 31
4 93 95 98 96
4 96 98 33 32
4 90 97 99 100
4 100 99 101 102
4 97 31 47 99
4 99 47 49 101
4 90 100 103 91
4 91 103 63 55
4 100 102 104 103
4 103 104 64 63
4 105 106 107 108
4 108 107 109 110
4 106 111 112 107
4 107 112 113 109
4 105 108 114 115
4 115 114 7 6
4 108 110 116 114
4 114 116 8 7
4 105 115 117 118
4 118 117 119 120
4 115 6 22 117
4 117 22 24 119
4 105 118 121 106
4 106 121 122 111
4 118 120 123 121
4 121 123 124 122
4 125 126 127 128
4 128 127 129 130
4 126 131 132 127
4 127 132 133 129
4 125 128 134 135
4 135 134 136 137
4 128 130 138 134
4 134 138 139 136
4 125 135 140 141
4 141 140 142 143
4 135 137 144 140
4 140 144 145 142
4 125 141 146 126
4 126 146 147 131
4 141 143 148 146
4 146 148 149 147
4 150 151 152 153
4 153 152 154 155
4 151 156 157 152
4 152 157 158 154
4 150 153 159 160
4 160 159 161 162
4 153 155 163 159
4 159 163 164 161
4 150 160 165 166
4 166 165 167 168
4 160 162 169 165
4 165 169 170 167
4 150 166 171 151
4 151 171 172 156
4 166 168 173 171
4 171 173 174 172
4 175 176 177 178
4 178 177 179 180
4 176 181 182 177
4 177 182 183 179
4 175 178 184 185
4 185 184 186 187
4 178 180 188 184
4 184 188 189 186
4 175 185 190 191
4 191 190 192 193
4 185 187 194 190
4 190 194 195 192
4 175 191 196 176
4 176 196 197 181
4 191 193 198 196
4 196 198 199 197
4 200 201 202 203
4 203 202 204 205
4 201 143 142 202
4 202 142 145 204
4 200 203 206 207
4 207 206 194 187
4 203 205 208 206
4 206 208 195 194
4 200 207 209 210
4 210 209 211 212
4 207 187 186 209
4 209 186 189 211
4 200 210 213 201
4 201 213 148 143
4 210 212 214 213
4 213 214 149 148
4 215 216 217 218
4 218 217 182 181
4 216 219 220 217
4 217 220 183 182
4 215 218 221 222
4 222 221 223 224
4 218 181 197 221
4 221 197 199 223
4 215 222 225 226
4 226 225 163 155
4 222 224 227 225
4 225 227 164 163
4 215 226 228 216
4 216 228 229 219
4 226 155 154 228
4 228 154 158 229
4 230 231 232 233
4 233 232 234 235
4 231 236 237 232
4 232 237 238 234
4 230 233 239 240
4 240 239 241 242
4 233 235 243 239
4 239 243 244 241
4 230 240 245 246
4 246 245 138 130
4 240 242 247 245
4 245 247 139 138
4 230 246 248 231
4 231 248 249 236
4 246 130 129 248
4 248 129 133 249
