ply
format ascii 1.0
comment Created by Blender 2.79 (sub 0) - www.blender.org, source file: 'm3_v2.blend'
element vertex 570
property float x
property float y
property float z
property float nx
property float ny
property float nz
element face 568
property list uchar uint vertex_indices
end_header
-0.816694 0.589485 -0.637746 0.054476 -0.991333 0.119419
-0.816419 0.588754 -0.657224 0.064852 -0.997864 0.005737
-0.779692 0.592520 -0.654581 0.181127 -0.983428 0.005860
-0.780790 0.593120 -0.634181 0.165777 -0.978515 0.122349
-0.751440 0.600103 -0.651289 0.437422 -0.899136 0.013245
-0.753441 0.600439 -0.629602 0.406903 -0.901395 0.147771
-0.816419 0.589368 -0.680553 0.067019 -0.997406 -0.026215
-0.779692 0.593167 -0.679182 0.183447 -0.982665 -0.025819
-0.751440 0.600791 -0.677435 0.439894 -0.897702 -0.023591
-0.784086 0.596107 -0.618135 0.123661 -0.938139 0.323344
-0.817518 0.592784 -0.621419 0.030549 -0.945677 0.323649
-0.786284 0.602498 -0.604612 0.076632 -0.835414 0.544237
-0.818067 0.599845 -0.607044 -0.001190 -0.831294 0.555803
-0.759444 0.602729 -0.613404 0.311533 -0.879879 0.358776
-0.767554 0.606151 -0.603977 0.187750 -0.826258 0.531053
-0.858797 0.591728 -0.624464 -0.006134 -0.942961 0.332804
-0.858797 0.588310 -0.640353 0.007813 -0.992157 0.124485
-0.904000 0.591766 -0.625926 0.000000 -0.941252 0.337687
-0.904000 0.588338 -0.641416 0.000000 -0.991852 0.127262
-0.858797 0.599024 -0.610247 -0.025269 -0.823359 0.566912
-0.904000 0.599071 -0.612041 0.000000 -0.820429 0.571703
-0.858797 0.587522 -0.658991 0.013825 -0.999847 0.007324
-0.858797 0.588113 -0.681454 0.015046 -0.999512 -0.026276
-0.904000 0.587540 -0.659655 0.000000 -0.999939 0.008026
-0.904000 0.588122 -0.681786 0.000000 -0.999634 -0.026276
-0.816694 0.592103 -0.737324 0.068484 -0.990417 -0.119816
-0.817518 0.596525 -0.763661 0.074374 -0.960601 -0.267769
-0.784086 0.599865 -0.761040 0.194647 -0.939879 -0.280526
-0.780790 0.595810 -0.736466 0.188086 -0.973662 -0.128727
-0.759444 0.606563 -0.759175 0.414838 -0.850307 -0.323801
-0.753441 0.603229 -0.735694 0.440840 -0.884274 -0.153935
-0.818067 0.604511 -0.784470 0.089450 -0.829798 -0.550798
-0.786284 0.607105 -0.779788 0.217750 -0.816523 -0.534623
-0.767554 0.610608 -0.773463 0.360668 -0.788720 -0.497787
-0.779692 0.593920 -0.707828 0.184606 -0.981567 -0.048952
-0.816419 0.590101 -0.708437 0.067202 -0.996551 -0.048036
-0.751440 0.601569 -0.707009 0.442610 -0.895138 -0.052797
-0.858797 0.588832 -0.708818 0.015076 -0.998718 -0.048280
-0.858797 0.590869 -0.737654 0.015107 -0.992798 -0.118595
-0.904000 0.588836 -0.708951 0.000000 -0.998810 -0.048433
-0.904000 0.590870 -0.737687 0.000000 -0.992920 -0.118748
-0.858797 0.595411 -0.764535 0.015900 -0.964354 -0.264016
-0.858797 0.603647 -0.786030 0.019135 -0.833369 -0.552355
-0.904000 0.595411 -0.764535 0.000000 -0.964629 -0.263527
-0.904000 0.603647 -0.786031 0.000000 -0.834223 -0.551408
-0.991306 0.589485 -0.637746 -0.054476 -0.991333 0.119419
-0.991581 0.588754 -0.657224 -0.064852 -0.997864 0.005737
-0.949203 0.587522 -0.658991 -0.013825 -0.999847 0.007324
-0.949203 0.588310 -0.640353 -0.007813 -0.992157 0.124485
-0.991581 0.589368 -0.680553 -0.067019 -0.997406 -0.026215
-0.949203 0.588113 -0.681454 -0.015046 -0.999512 -0.026276
-0.949203 0.591728 -0.624464 0.006134 -0.942961 0.332804
-0.990482 0.592784 -0.621419 -0.030549 -0.945677 0.323649
-0.949203 0.599024 -0.610247 0.025269 -0.823359 0.566912
-0.989933 0.599845 -0.607044 0.001190 -0.831294 0.555803
-1.023914 0.596107 -0.618135 -0.123661 -0.938139 0.323344
-1.027210 0.593120 -0.634181 -0.165777 -0.978515 0.122349
-1.048556 0.602729 -0.613405 -0.311533 -0.879879 0.358776
-1.054559 0.600439 -0.629602 -0.406903 -0.901425 0.147771
-1.021716 0.602498 -0.604612 -0.076632 -0.835414 0.544237
-1.040446 0.606151 -0.603977 -0.187750 -0.826258 0.531053
-1.028308 0.592520 -0.654581 -0.181127 -0.983428 0.005860
-1.028308 0.593167 -0.679182 -0.183447 -0.982665 -0.025819
-1.056560 0.600103 -0.651289 -0.437422 -0.899136 0.013245
-1.056560 0.600791 -0.677435 -0.439894 -0.897702 -0.023591
-0.991306 0.592103 -0.737324 -0.068484 -0.990417 -0.119816
-0.990482 0.596525 -0.763661 -0.074374 -0.960601 -0.267739
-0.949203 0.595411 -0.764535 -0.015900 -0.964354 -0.264016
-0.949203 0.590869 -0.737654 -0.015107 -0.992798 -0.118595
-0.989933 0.604511 -0.784470 -0.089450 -0.829798 -0.550798
-0.949203 0.603647 -0.786031 -0.019135 -0.833369 -0.552355
-0.949203 0.588832 -0.708818 -0.015076 -0.998718 -0.048280
-0.991581 0.590101 -0.708437 -0.067202 -0.996551 -0.048036
-1.028308 0.593920 -0.707828 -0.184606 -0.981567 -0.048952
-1.027210 0.595810 -0.736466 -0.188086 -0.973662 -0.128727
-1.056560 0.601569 -0.707009 -0.442610 -0.895138 -0.052797
-1.054559 0.603229 -0.735694 -0.440840 -0.884274 -0.153935
-1.023914 0.599865 -0.761040 -0.194647 -0.939879 -0.280526
-1.021716 0.607105 -0.779788 -0.217750 -0.816523 -0.534654
-1.048556 0.606563 -0.759175 -0.414838 -0.850307 -0.323801
-1.040446 0.610608 -0.773463 -0.360637 -0.788720 -0.497787
-0.961263 0.946089 -0.748497 -0.020631 0.999695 0.012024
-0.933601 0.945921 -0.749412 0.010926 0.999695 0.021210
-0.933747 0.944725 -0.760755 0.003479 0.958922 -0.283608
-0.961166 0.944836 -0.759838 -0.044313 0.956328 -0.288858
-0.934187 0.940292 -0.769566 -0.006073 0.775079 -0.631825
-0.961600 0.940437 -0.768504 -0.070101 0.771752 -0.632038
-0.904000 0.945505 -0.749473 0.000000 0.999664 0.025117
-0.904000 0.944340 -0.760765 0.000000 0.959685 -0.280984
-0.904000 0.939945 -0.769575 0.000000 0.776940 -0.629566
-0.983927 0.943628 -0.757127 -0.161596 0.941771 -0.294809
-0.985049 0.944925 -0.745997 -0.119633 0.992798 -0.002564
-1.001612 0.940233 -0.753354 -0.389203 0.863735 -0.320078
-1.003976 0.941421 -0.741211 -0.341838 0.939482 -0.021393
-0.983464 0.939485 -0.765357 -0.198462 0.764580 -0.613178
-0.996774 0.937729 -0.760791 -0.345561 0.749962 -0.563982
-0.983927 0.943173 -0.732483 -0.066256 0.976135 0.206763
-0.961166 0.944123 -0.734709 0.001770 0.974853 0.222816
-0.983464 0.938594 -0.717032 -0.025575 0.939695 0.341014
-0.961600 0.938970 -0.718683 0.025483 0.931150 0.363720
-1.001612 0.940015 -0.727180 -0.222968 0.953337 0.203528
-0.996774 0.937245 -0.716052 -0.118290 0.940245 0.319254
-0.933747 0.943825 -0.735734 0.019166 0.971313 0.236915
-0.904000 0.943365 -0.735946 0.000000 0.970000 0.243049
-0.934187 0.938381 -0.719918 0.031404 0.922697 0.384167
-0.904000 0.937846 -0.720431 0.000000 0.919584 0.392804
-0.846737 0.946089 -0.748497 0.020631 0.999695 0.012024
-0.822951 0.944925 -0.745997 0.119602 0.992798 -0.002564
-0.824073 0.943628 -0.757127 0.161596 0.941771 -0.294809
-0.846834 0.944836 -0.759838 0.044313 0.956328 -0.288858
-0.824536 0.939485 -0.765356 0.198462 0.764580 -0.613178
-0.846400 0.940437 -0.768504 0.070101 0.771752 -0.632038
-0.804024 0.941421 -0.741211 0.341838 0.939482 -0.021393
-0.806388 0.940233 -0.753354 0.389203 0.863704 -0.320078
-0.811226 0.937729 -0.760791 0.345561 0.749962 -0.563982
-0.874253 0.944725 -0.760755 -0.003479 0.958922 -0.283608
-0.874399 0.945921 -0.749412 -0.010926 0.999695 0.021210
-0.873813 0.940292 -0.769566 0.006073 0.775079 -0.631825
-0.874253 0.943825 -0.735734 -0.019166 0.971313 0.236915
-0.846834 0.944123 -0.734709 -0.001770 0.974853 0.222816
-0.873813 0.938381 -0.719917 -0.031404 0.922697 0.384167
-0.846400 0.938970 -0.718683 -0.025483 0.931120 0.363720
-0.824073 0.943173 -0.732483 0.066256 0.976135 0.206763
-0.806388 0.940015 -0.727180 0.222968 0.953337 0.203528
-0.824536 0.938594 -0.717032 0.025575 0.939695 0.341014
-0.811226 0.937245 -0.716052 0.118290 0.940245 0.319254
-0.728760 0.632119 -0.735655 0.937651 -0.288552 -0.193579
-0.737000 0.615602 -0.735622 0.756920 -0.627552 -0.182257
-0.744534 0.617750 -0.760570 0.687338 -0.606098 -0.400189
-0.737000 0.633203 -0.762697 0.846614 -0.279977 -0.452559
-0.759444 0.619241 -0.779469 0.499496 -0.567217 -0.654744
-0.753441 0.634004 -0.783694 0.598895 -0.257881 -0.758141
-0.734488 0.652698 -0.763028 0.885739 -0.053987 -0.460982
-0.726013 0.651967 -0.735201 0.979369 -0.062319 -0.192083
-0.734488 0.674754 -0.762448 0.887509 0.012360 -0.460585
-0.726013 0.674019 -0.734517 0.981658 0.005615 -0.190435
-0.751440 0.653269 -0.784725 0.621387 -0.041444 -0.782373
-0.751440 0.675324 -0.784145 0.620838 0.020600 -0.783624
-0.723188 0.651141 -0.703792 0.996612 -0.067873 -0.046144
-0.726013 0.631185 -0.704892 0.954222 -0.294656 -0.050844
-0.723188 0.650287 -0.671352 0.997528 -0.070162 -0.001831
-0.726013 0.630355 -0.673314 0.954466 -0.298166 -0.007813
-0.723188 0.673185 -0.702796 0.998993 0.001526 -0.044252
-0.723188 0.672315 -0.669730 1.000000 0.000000 0.000000
-0.734488 0.614326 -0.705997 0.769616 -0.636128 -0.054720
-0.734488 0.613522 -0.675410 0.768029 -0.640187 -0.016816
-0.726686 0.721561 -0.732720 0.980163 0.062716 -0.187933
-0.726013 0.697150 -0.733862 0.981567 0.020356 -0.189886
-0.734488 0.697886 -0.761840 0.887753 0.027528 -0.459456
-0.735136 0.722295 -0.760780 0.887783 0.070559 -0.454787
-0.751440 0.698456 -0.783537 0.622059 0.033357 -0.782250
-0.752023 0.722846 -0.782565 0.624989 0.069399 -0.777490
-0.737080 0.748181 -0.758847 0.886135 0.135136 -0.443251
-0.728705 0.747455 -0.730577 0.974853 0.126682 -0.183172
-0.740968 0.775745 -0.755616 0.880947 0.213996 -0.421979
-0.732744 0.775033 -0.726915 0.963103 0.205084 -0.174200
-0.753772 0.748673 -0.780892 0.630634 0.124119 -0.766076
-0.757271 0.776118 -0.778184 0.639241 0.192602 -0.744469
-0.725837 0.746456 -0.698676 0.992492 0.114048 -0.043916
-0.723850 0.720683 -0.700823 0.997528 0.054292 -0.044069
-0.725664 0.745147 -0.665737 0.994446 0.105014 -0.002930
-0.723807 0.719696 -0.667526 0.998779 0.048769 -0.000885
-0.729811 0.773793 -0.694974 0.981079 0.188665 -0.042817
-0.729379 0.771836 -0.662688 0.984130 0.177313 -0.004791
-0.723188 0.696312 -0.702001 0.998901 0.015137 -0.044191
-0.723188 0.695435 -0.668656 0.999908 0.012604 -0.000061
-0.728760 0.629028 -0.618122 0.908719 -0.352886 0.222816
-0.737000 0.612666 -0.623959 0.716300 -0.671041 0.191198
-0.734489 0.612790 -0.647576 0.763329 -0.645314 0.029176
-0.726013 0.629580 -0.643827 0.950591 -0.307352 0.043550
-0.723188 0.649474 -0.640428 0.995636 -0.078921 0.049654
-0.726013 0.648752 -0.612963 0.965636 -0.121250 0.229804
-0.723188 0.671475 -0.637765 0.998718 -0.005799 0.050020
-0.726013 0.670720 -0.609051 0.973662 -0.033570 0.225410
-0.734489 0.648172 -0.590902 0.801935 -0.218940 0.555803
-0.737000 0.628869 -0.597889 0.728599 -0.439619 0.525193
-0.751440 0.647785 -0.576187 0.422010 -0.322123 0.847407
-0.753441 0.628771 -0.584740 0.366924 -0.509873 0.778039
-0.734489 0.670107 -0.585740 0.824915 -0.101535 0.556047
-0.751440 0.669692 -0.569983 0.449751 -0.180425 0.874722
-0.744534 0.613686 -0.606023 0.557146 -0.700491 0.445906
-0.759444 0.614388 -0.594916 0.274178 -0.704611 0.654439
-0.726506 0.717745 -0.606249 0.974120 0.040529 0.222266
-0.726013 0.693813 -0.606952 0.975372 -0.003357 0.220527
-0.723188 0.694582 -0.636225 0.998779 0.008637 0.048555
-0.723735 0.718640 -0.635268 0.997925 0.043397 0.047395
-0.725376 0.743489 -0.634356 0.994232 0.096561 0.046022
-0.727986 0.742232 -0.606527 0.967986 0.098544 0.230811
-0.728659 0.768973 -0.632949 0.985015 0.166112 0.046144
-0.730944 0.766987 -0.607370 0.953795 0.169836 0.247749
-0.736504 0.742126 -0.584248 0.809748 0.131596 0.571795
-0.734993 0.717245 -0.582670 0.830164 0.048982 0.555315
-0.753484 0.742501 -0.569459 0.428632 0.173101 0.886715
-0.751951 0.717017 -0.566716 0.458724 0.062075 0.886380
-0.739528 0.767666 -0.587561 0.769402 0.218116 0.600360
-0.756551 0.769247 -0.574991 0.372723 0.271828 0.887204
-0.734489 0.693185 -0.583081 0.834407 -0.028230 0.550371
-0.751440 0.692758 -0.566859 0.464980 -0.056948 0.883450
-0.816694 0.628058 -0.581253 -0.037935 -0.527207 0.848872
-0.817518 0.611863 -0.593422 -0.026582 -0.678701 0.733909
-0.784086 0.613311 -0.591783 0.059328 -0.690146 0.721213
-0.780790 0.628406 -0.580286 0.068667 -0.526322 0.847468
-0.779692 0.647642 -0.570760 0.084536 -0.367351 0.926206
-0.816419 0.647655 -0.571238 -0.038697 -0.380657 0.923887
-0.779692 0.669533 -0.563932 0.099033 -0.218360 0.970824
-0.816419 0.669537 -0.564097 -0.036164 -0.229804 0.972564
-0.858797 0.647733 -0.574233 -0.054659 -0.385479 0.921079
-0.858797 0.628016 -0.584367 -0.050417 -0.527085 0.848292
-0.904000 0.647789 -0.576359 0.000000 -0.387341 0.921903
-0.904000 0.628071 -0.586461 0.000000 -0.527604 0.849452
-0.858797 0.669613 -0.566988 -0.056459 -0.233863 0.970611
-0.904000 0.669669 -0.569115 0.000000 -0.235389 0.971892
-0.858797 0.611450 -0.596627 -0.041261 -0.670949 0.740318
-0.904000 0.611502 -0.598620 0.000000 -0.669118 0.743126
-0.816747 0.716952 -0.560720 -0.037599 0.077639 0.996246
-0.816419 0.692592 -0.560553 -0.034852 -0.072634 0.996734
-0.779692 0.692592 -0.560528 0.106906 -0.070223 0.991760
-0.780138 0.716938 -0.560575 0.102054 0.070193 0.992279
-0.781477 0.742690 -0.564099 0.082522 0.194311 0.977447
-0.817729 0.742750 -0.564712 -0.046602 0.210547 0.976470
-0.784155 0.769970 -0.571128 0.047304 0.296793 0.953734
-0.819695 0.770119 -0.572644 -0.063936 0.320475 0.945067
-0.859488 0.742740 -0.567844 -0.061769 0.223823 0.972655
-0.858970 0.717006 -0.563627 -0.058626 0.083804 0.994751
-0.904000 0.742717 -0.570040 0.000000 0.229713 0.973235
-0.904000 0.717042 -0.565771 0.000000 0.086489 0.996246
-0.860525 0.769981 -0.576215 -0.068667 0.341533 0.937346
-0.904000 0.769840 -0.578514 0.000000 0.350993 0.936369
-0.858797 0.692667 -0.563397 -0.057405 -0.072573 0.995697
-0.904000 0.692723 -0.565524 0.000000 -0.072481 0.997345
-0.991306 0.628058 -0.581253 0.037935 -0.527207 0.848872
-0.990482 0.611863 -0.593422 0.026582 -0.678701 0.733909
-0.949203 0.611450 -0.596627 0.041261 -0.670949 0.740318
-0.949203 0.628016 -0.584367 0.050417 -0.527085 0.848292
-0.949203 0.647733 -0.574233 0.054659 -0.385479 0.921079
-0.991581 0.647655 -0.571238 0.038697 -0.380657 0.923887
-0.949203 0.669613 -0.566988 0.056459 -0.233863 0.970611
-0.991581 0.669537 -0.564097 0.036164 -0.229804 0.972564
-1.028308 0.647642 -0.570760 -0.084536 -0.367351 0.926206
-1.027210 0.628406 -0.580286 -0.068667 -0.526322 0.847468
-1.056560 0.647785 -0.576187 -0.422010 -0.322123 0.847407
-1.054559 0.628771 -0.584740 -0.366924 -0.509873 0.778039
-1.028308 0.669533 -0.563932 -0.099033 -0.218360 0.970824
-1.056560 0.669692 -0.569983 -0.449751 -0.180425 0.874722
-1.023914 0.613311 -0.591783 -0.059328 -0.690146 0.721213
-1.048556 0.614388 -0.594916 -0.274178 -0.704611 0.654439
-0.991253 0.716952 -0.560720 0.037599 0.077639 0.996246
-0.991581 0.692592 -0.560553 0.034852 -0.072634 0.996734
-0.949203 0.692667 -0.563397 0.057405 -0.072573 0.995697
-0.949030 0.717006 -0.563627 0.058626 0.083804 0.994751
-0.948512 0.742740 -0.567845 0.061769 0.223823 0.972655
-0.990271 0.742750 -0.564712 0.046571 0.210547 0.976470
-0.947475 0.769981 -0.576215 0.068667 0.341502 0.937346
-0.988305 0.770119 -0.572644 0.063936 0.320475 0.945067
-1.026523 0.742690 -0.564099 -0.082522 0.194311 0.977447
-1.027862 0.716938 -0.560575 -0.102054 0.070193 0.992279
-1.054516 0.742501 -0.569459 -0.428632 0.173101 0.886715
-1.056049 0.717017 -0.566716 -0.458724 0.062075 0.886380
-1.023845 0.769970 -0.571128 -0.047304 0.296793 0.953734
-1.051449 0.769247 -0.574991 -0.372723 0.271828 0.887204
-1.028308 0.692592 -0.560528 -0.106906 -0.070223 0.991760
-1.056560 0.692758 -0.566859 -0.464980 -0.056948 0.883450
-1.079240 0.629028 -0.618122 -0.908719 -0.352886 0.222816
-1.071000 0.612666 -0.623959 -0.716300 -0.671041 0.191198
-1.063466 0.613686 -0.606023 -0.557146 -0.700491 0.445906
-1.071000 0.628869 -0.597889 -0.728599 -0.439619 0.525193
-1.073511 0.648172 -0.590902 -0.801935 -0.218940 0.555803
-1.081987 0.648752 -0.612963 -0.965636 -0.121250 0.229804
-1.073511 0.670107 -0.585740 -0.824915 -0.101535 0.556047
-1.081987 0.670720 -0.609051 -0.973662 -0.033570 0.225410
-1.084812 0.649474 -0.640428 -0.995636 -0.078921 0.049654
-1.081987 0.629580 -0.643827 -0.950591 -0.307352 0.043550
-1.084812 0.650287 -0.671352 -0.997528 -0.070162 -0.001831
-1.081987 0.630355 -0.673314 -0.954466 -0.298166 -0.007813
-1.084812 0.671475 -0.637765 -0.998718 -0.005799 0.050020
-1.084812 0.672315 -0.669730 -1.000000 0.000000 0.000000
-1.073511 0.612790 -0.647576 -0.763329 -0.645314 0.029176
-1.073511 0.613522 -0.675410 -0.768029 -0.640187 -0.016816
-1.081494 0.717745 -0.606249 -0.974120 0.040498 0.222266
-1.081987 0.693813 -0.606952 -0.975372 -0.003357 0.220527
-1.073511 0.693185 -0.583081 -0.834407 -0.028230 0.550371
-1.073008 0.717245 -0.582670 -0.830164 0.048982 0.555315
-1.071496 0.742126 -0.584248 -0.809748 0.131596 0.571795
-1.080014 0.742232 -0.606527 -0.967986 0.098544 0.230811
-1.068472 0.767666 -0.587561 -0.769402 0.218116 0.600330
-1.077056 0.766987 -0.607370 -0.953795 0.169836 0.247749
-1.082624 0.743489 -0.634356 -0.994232 0.096561 0.046022
-1.084265 0.718640 -0.635268 -0.997925 0.043397 0.047395
-1.082336 0.745147 -0.665737 -0.994446 0.105014 -0.002930
-1.084193 0.719696 -0.667526 -0.998779 0.048769 -0.000885
-1.079341 0.768973 -0.632949 -0.985015 0.166112 0.046144
-1.078621 0.771836 -0.662688 -0.984130 0.177313 -0.004791
-1.084812 0.694582 -0.636225 -0.998779 0.008637 0.048555
-1.084812 0.695435 -0.668656 -0.999908 0.012604 -0.000061
-1.079240 0.632119 -0.735655 -0.937651 -0.288552 -0.193579
-1.071000 0.615602 -0.735622 -0.756920 -0.627552 -0.182257
-1.073511 0.614326 -0.705997 -0.769616 -0.636128 -0.054720
-1.081987 0.631186 -0.704892 -0.954222 -0.294656 -0.050844
-1.084812 0.651141 -0.703792 -0.996612 -0.067873 -0.046144
-1.081987 0.651967 -0.735201 -0.979369 -0.062319 -0.192083
-1.084812 0.673185 -0.702796 -0.998993 0.001526 -0.044252
-1.081987 0.674019 -0.734517 -0.981658 0.005615 -0.190435
-1.073511 0.652698 -0.763028 -0.885739 -0.053987 -0.460982
-1.071000 0.633203 -0.762697 -0.846614 -0.279977 -0.452559
-1.056560 0.653269 -0.784726 -0.621387 -0.041444 -0.782373
-1.054559 0.634004 -0.783694 -0.598895 -0.257881 -0.758141
-1.073511 0.674754 -0.762448 -0.887509 0.012360 -0.460585
-1.056560 0.675324 -0.784146 -0.620838 0.020600 -0.783624
-1.063466 0.617750 -0.760570 -0.687338 -0.606098 -0.400189
-1.048556 0.619241 -0.779469 -0.499496 -0.567217 -0.654744
-1.081314 0.721561 -0.732720 -0.980163 0.062716 -0.187933
-1.081987 0.697150 -0.733862 -0.981567 0.020356 -0.189886
-1.084812 0.696312 -0.702001 -0.998901 0.015137 -0.044191
-1.084150 0.720683 -0.700823 -0.997528 0.054292 -0.044069
-1.082163 0.746456 -0.698676 -0.992492 0.114048 -0.043916
-1.079294 0.747455 -0.730577 -0.974853 0.126682 -0.183172
-1.078189 0.773793 -0.694974 -0.981079 0.188665 -0.042817
-1.075256 0.775033 -0.726915 -0.963103 0.205084 -0.174200
-1.070920 0.748181 -0.758847 -0.886135 0.135136 -0.443251
-1.072863 0.722295 -0.760780 -0.887783 0.070559 -0.454787
-1.054228 0.748673 -0.780892 -0.630634 0.124119 -0.766076
-1.055977 0.722846 -0.782565 -0.624989 0.069399 -0.777490
-1.067032 0.775745 -0.755616 -0.880947 0.213996 -0.421979
-1.050729 0.776118 -0.778184 -0.639241 0.192602 -0.744469
-1.073511 0.697886 -0.761840 -0.887753 0.027528 -0.459456
-1.056560 0.698456 -0.783537 -0.622059 0.033357 -0.782250
-0.816754 0.723342 -0.802171 0.114780 0.049562 -0.992126
-0.817758 0.749115 -0.800733 0.117710 0.076205 -0.990112
-0.781592 0.748968 -0.794120 0.309427 0.095737 -0.946074
-0.780167 0.723176 -0.795635 0.303018 0.058107 -0.951201
-0.819767 0.776454 -0.798495 0.123264 0.110416 -0.986206
-0.784443 0.776342 -0.791725 0.321055 0.144139 -0.936003
-0.779692 0.698799 -0.796556 0.300119 0.033662 -0.953276
-0.816419 0.698970 -0.803065 0.113529 0.032197 -0.992981
-0.779692 0.675667 -0.797164 0.299020 0.025056 -0.953887
-0.816419 0.675838 -0.803673 0.113071 0.026093 -0.993225
-0.858797 0.699027 -0.805235 0.025666 0.031465 -0.999146
-0.858970 0.723397 -0.804349 0.025971 0.046144 -0.998566
-0.904000 0.699027 -0.805235 0.000000 0.031281 -0.999481
-0.904000 0.723397 -0.804349 0.000000 0.045473 -0.998962
-0.858797 0.675895 -0.805843 0.025575 0.026276 -0.999298
-0.904000 0.675895 -0.805843 0.000000 0.026276 -0.999634
-0.859488 0.749164 -0.802938 0.026643 0.068667 -0.997253
-0.860525 0.776491 -0.800752 0.027985 0.097324 -0.994842
-0.904000 0.749164 -0.802938 0.000000 0.067202 -0.997711
-0.904000 0.776491 -0.800752 0.000000 0.094760 -0.995483
-0.816694 0.633881 -0.802666 0.111667 -0.211768 -0.970885
-0.816419 0.653782 -0.804253 0.112857 -0.027375 -0.993225
-0.779692 0.653611 -0.797744 0.299692 -0.030427 -0.953520
-0.780790 0.634087 -0.796327 0.295541 -0.227027 -0.927946
-0.784086 0.618549 -0.790946 0.262795 -0.538377 -0.800653
-0.817518 0.617210 -0.796771 0.104953 -0.528520 -0.842372
-0.858797 0.616764 -0.798713 0.022858 -0.526322 -0.849940
-0.858797 0.633812 -0.804778 0.024720 -0.209693 -0.977447
-0.904000 0.616764 -0.798713 0.000000 -0.527085 -0.849788
-0.904000 0.633812 -0.804778 0.000000 -0.210273 -0.977630
-0.858797 0.653840 -0.806423 0.025422 -0.027528 -0.999268
-0.904000 0.653840 -0.806423 0.000000 -0.027802 -0.999603
-0.991246 0.723342 -0.802171 -0.114780 0.049562 -0.992126
-0.990242 0.749115 -0.800733 -0.117710 0.076205 -0.990112
-0.948512 0.749164 -0.802938 -0.026643 0.068667 -0.997253
-0.949030 0.723397 -0.804349 -0.025971 0.046144 -0.998566
-0.988233 0.776454 -0.798495 -0.123264 0.110416 -0.986206
-0.947475 0.776491 -0.800752 -0.027985 0.097324 -0.994842
-0.949203 0.699027 -0.805235 -0.025666 0.031465 -0.999146
-0.991581 0.698970 -0.803065 -0.113529 0.032197 -0.992981
-0.949203 0.675895 -0.805843 -0.025575 0.026276 -0.999298
-0.991581 0.675838 -0.803673 -0.113071 0.026093 -0.993225
-1.028308 0.698799 -0.796556 -0.300119 0.033662 -0.953276
-1.027833 0.723176 -0.795635 -0.303018 0.058107 -0.951201
-1.028308 0.675667 -0.797164 -0.299051 0.025056 -0.953887
-1.026408 0.748968 -0.794120 -0.309427 0.095737 -0.946074
-1.023557 0.776342 -0.791725 -0.321055 0.144139 -0.936003
-0.991306 0.633881 -0.802666 -0.111667 -0.211768 -0.970885
-0.991581 0.653782 -0.804253 -0.112857 -0.027375 -0.993225
-0.949203 0.653840 -0.806423 -0.025422 -0.027528 -0.999268
-0.949203 0.633812 -0.804778 -0.024720 -0.209693 -0.977447
-0.949203 0.616764 -0.798713 -0.022858 -0.526322 -0.849940
-0.990482 0.617210 -0.796771 -0.104953 -0.528520 -0.842372
-1.023914 0.618549 -0.790946 -0.262795 -0.538377 -0.800653
-1.027210 0.634087 -0.796327 -0.295541 -0.227027 -0.927946
-1.028308 0.653611 -0.797744 -0.299692 -0.030427 -0.953520
-0.748038 0.834206 -0.715161 0.937895 0.320444 -0.132786
-0.739475 0.804498 -0.721220 0.948576 0.273873 -0.158483
-0.747447 0.805186 -0.750666 0.876309 0.279122 -0.392590
-0.755497 0.834823 -0.745371 0.877682 0.312723 -0.363079
-0.763102 0.805361 -0.774104 0.652058 0.250221 -0.715659
-0.770347 0.834766 -0.769554 0.669424 0.279000 -0.688467
-0.764097 0.862974 -0.741106 0.884487 0.321512 -0.338054
-0.757573 0.862517 -0.710408 0.933103 0.346812 -0.094668
-0.772225 0.887957 -0.739247 0.897092 0.298471 -0.325724
-0.766735 0.887714 -0.709567 0.933378 0.354961 -0.052461
-0.778087 0.862693 -0.765435 0.685720 0.283334 -0.670431
-0.785403 0.887506 -0.762647 0.696585 0.253761 -0.671072
-0.756654 0.860514 -0.676701 0.912748 0.402264 0.071017
-0.745463 0.832231 -0.682570 0.942686 0.333567 -0.004120
-0.757076 0.853713 -0.644841 0.847346 0.485702 0.214606
-0.744662 0.827599 -0.651618 0.929716 0.363903 0.056063
-0.767836 0.886006 -0.676687 0.857112 0.483261 0.178228
-0.775969 0.880342 -0.641488 0.532121 0.668233 0.519852
-0.736434 0.802854 -0.689133 0.963958 0.263802 -0.034394
-0.735570 0.799814 -0.657774 0.964660 0.263405 0.004456
-0.781669 0.923684 -0.724261 0.831813 0.554888 -0.012329
-0.774184 0.908085 -0.715244 0.914396 0.404065 -0.023377
-0.778861 0.908091 -0.741168 0.894559 0.297250 -0.333689
-0.785640 0.923368 -0.745094 0.838496 0.417158 -0.350505
-0.791375 0.907567 -0.762092 0.685507 0.235023 -0.689077
-0.797247 0.922692 -0.762401 0.633015 0.325571 -0.702292
-0.794196 0.933781 -0.749249 0.667104 0.655995 -0.352977
-0.790940 0.934568 -0.733441 0.631458 0.775109 -0.020020
-0.804262 0.932700 -0.762205 0.507523 0.542467 -0.669393
-0.794196 0.933687 -0.716924 0.452498 0.860012 0.235725
-0.785134 0.923063 -0.703248 0.647481 0.714896 0.263955
-0.804262 0.932261 -0.704279 0.201910 0.897214 0.392651
-0.796489 0.921828 -0.687133 0.313089 0.824366 0.471541
-0.776838 0.907013 -0.687686 0.775018 0.581133 0.248177
-0.788341 0.905440 -0.666344 0.428297 0.744163 0.512589
-0.742300 0.809779 -0.611555 0.886013 0.372143 0.276498
-0.735876 0.791726 -0.608361 0.923368 0.271554 0.271310
-0.734131 0.794933 -0.630509 0.962798 0.262642 0.063478
-0.742525 0.819016 -0.626325 0.911344 0.385632 0.143864
-0.754576 0.838863 -0.619685 0.755211 0.533036 0.381451
-0.750093 0.818136 -0.601949 0.686514 0.469069 0.555559
-0.772602 0.852210 -0.614549 0.387951 0.631275 0.671529
-0.767464 0.825361 -0.595834 0.290750 0.522507 0.801508
-0.744567 0.793703 -0.592351 0.709159 0.332194 0.621845
-0.761663 0.797286 -0.583215 0.302011 0.380871 0.873867
-0.826967 0.828496 -0.600107 -0.104648 0.495651 0.862178
-0.822970 0.799192 -0.584630 -0.087252 0.411634 0.907132
-0.788619 0.798895 -0.581688 0.004547 0.391949 0.919950
-0.793872 0.828243 -0.596148 -0.013886 0.499527 0.866176
-0.798921 0.856790 -0.614877 0.012482 0.606616 0.794885
-0.831096 0.856555 -0.618513 -0.107486 0.577319 0.809381
-0.804215 0.882648 -0.636357 0.042940 0.691336 0.721213
-0.835129 0.881732 -0.638811 -0.098270 0.661855 0.743126
-0.866692 0.855462 -0.623302 -0.096316 0.581042 0.808130
-0.864399 0.827830 -0.604931 -0.090365 0.510361 0.855190
-0.904000 0.854701 -0.625985 0.000000 0.588183 0.808679
-0.904000 0.827268 -0.607558 0.000000 0.520402 0.853908
-0.868860 0.880248 -0.643034 -0.093966 0.656728 0.748222
-0.904000 0.879364 -0.645588 0.000000 0.659780 0.751427
-0.862253 0.798841 -0.588906 -0.079470 0.434614 0.897061
-0.904000 0.798503 -0.591377 0.000000 0.445906 0.895047
-0.842081 0.918652 -0.680927 -0.068026 0.814722 0.575823
-0.838839 0.902386 -0.659969 -0.083590 0.743614 0.663320
-0.810209 0.903932 -0.659071 0.045259 0.764397 0.643147
-0.816186 0.920301 -0.680992 0.027161 0.831233 0.555223
-0.821434 0.931413 -0.700090 0.013733 0.891354 0.453047
-0.844709 0.930663 -0.700627 -0.049379 0.878201 0.475692
-0.873080 0.929534 -0.702161 -0.048219 0.867061 0.495834
-0.872028 0.917052 -0.683042 -0.066622 0.803705 0.591235
-0.904000 0.928875 -0.703177 0.000000 0.863063 0.505020
-0.904000 0.916263 -0.684645 0.000000 0.800684 0.599048
-0.870630 0.900700 -0.663141 -0.083010 0.733573 0.674490
-0.904000 0.899822 -0.665295 0.000000 0.732810 0.680410
-0.981033 0.828496 -0.600107 0.104648 0.495651 0.862178
-0.985030 0.799192 -0.584630 0.087252 0.411634 0.907132
-0.945747 0.798841 -0.588906 0.079470 0.434614 0.897061
-0.943601 0.827830 -0.604931 0.090365 0.510361 0.855190
-0.941308 0.855462 -0.623302 0.096316 0.581042 0.808130
-0.976904 0.856555 -0.618513 0.107486 0.577319 0.809381
-0.939140 0.880248 -0.643034 0.093966 0.656728 0.748222
-0.972871 0.881732 -0.638811 0.098270 0.661855 0.743126
-1.009080 0.856790 -0.614877 -0.012482 0.606616 0.794885
-1.014128 0.828243 -0.596148 0.013886 0.499527 0.866176
-1.035398 0.852210 -0.614549 -0.387951 0.631275 0.671529
-1.040536 0.825361 -0.595834 -0.290750 0.522507 0.801508
-1.003785 0.882648 -0.636357 -0.042940 0.691336 0.721213
-1.032031 0.880342 -0.641488 -0.532121 0.668233 0.519852
-1.019381 0.798895 -0.581688 -0.004547 0.391949 0.919950
-1.046337 0.797286 -0.583215 -0.302011 0.380871 0.873867
-0.965919 0.918652 -0.680927 0.068026 0.814722 0.575823
-0.969161 0.902386 -0.659969 0.083590 0.743614 0.663320
-0.937370 0.900700 -0.663141 0.083010 0.733573 0.674490
-0.935972 0.917052 -0.683042 0.066622 0.803705 0.591235
-0.934920 0.929534 -0.702161 0.048219 0.867061 0.495834
-0.963292 0.930663 -0.700627 0.049379 0.878201 0.475692
-0.986566 0.931413 -0.700090 -0.013733 0.891354 0.453047
-0.991814 0.920301 -0.680992 -0.027161 0.831233 0.555223
-1.003738 0.932261 -0.704279 -0.201910 0.897214 0.392651
-1.011511 0.921828 -0.687133 -0.313089 0.824366 0.471541
-0.997791 0.903932 -0.659071 -0.045259 0.764397 0.643147
-1.019659 0.905440 -0.666345 -0.428297 0.744163 0.512589
-1.065700 0.809779 -0.611555 -0.886013 0.372143 0.276498
-1.072124 0.791726 -0.608361 -0.923368 0.271554 0.271310
-1.063433 0.793703 -0.592351 -0.709159 0.332194 0.621845
-1.057907 0.818136 -0.601949 -0.686514 0.469069 0.555559
-1.053424 0.838863 -0.619685 -0.755211 0.533036 0.381451
-1.065475 0.819016 -0.626325 -0.911344 0.385632 0.143864
-1.050924 0.853713 -0.644841 -0.847346 0.485702 0.214606
-1.063338 0.827599 -0.651618 -0.929716 0.363903 0.056063
-1.073869 0.794933 -0.630509 -0.962798 0.262642 0.063478
-1.072430 0.799814 -0.657774 -0.964660 0.263405 0.004456
-1.059962 0.834206 -0.715161 -0.937895 0.320444 -0.132786
-1.068525 0.804498 -0.721220 -0.948576 0.273873 -0.158483
-1.071566 0.802854 -0.689133 -0.963958 0.263802 -0.034394
-1.062537 0.832231 -0.682570 -0.942686 0.333567 -0.004120
-1.051346 0.860514 -0.676701 -0.912748 0.402264 0.071017
-1.050427 0.862517 -0.710408 -0.933103 0.346812 -0.094699
-1.040164 0.886006 -0.676687 -0.857112 0.483261 0.178228
-1.041265 0.887714 -0.709567 -0.933378 0.354961 -0.052461
-1.043903 0.862974 -0.741106 -0.884487 0.321512 -0.338054
-1.052503 0.834823 -0.745371 -0.877682 0.312723 -0.363079
-1.029913 0.862693 -0.765435 -0.685720 0.283334 -0.670431
-1.037653 0.834766 -0.769554 -0.669424 0.279000 -0.688467
-1.035775 0.887957 -0.739247 -0.897092 0.298471 -0.325724
-1.022597 0.887506 -0.762647 -0.696585 0.253761 -0.671072
-1.060553 0.805186 -0.750666 -0.876309 0.279122 -0.392590
-1.044898 0.805361 -0.774104 -0.652058 0.250221 -0.715659
-1.026331 0.923684 -0.724261 -0.831813 0.554888 -0.012329
-1.033816 0.908085 -0.715244 -0.914396 0.404065 -0.023408
-1.031162 0.907013 -0.687686 -0.775018 0.581133 0.248177
-1.022866 0.923063 -0.703248 -0.647481 0.714896 0.263955
-1.013804 0.933687 -0.716924 -0.452498 0.860012 0.235725
-1.017060 0.934568 -0.733441 -0.631458 0.775109 -0.020020
-1.013804 0.933781 -0.749249 -0.667104 0.655995 -0.352977
-1.022360 0.923368 -0.745094 -0.838496 0.417158 -0.350505
-1.003738 0.932700 -0.762205 -0.507523 0.542467 -0.669393
-1.010753 0.922692 -0.762402 -0.633015 0.325571 -0.702292
-1.029139 0.908091 -0.741168 -0.894559 0.297250 -0.333689
-1.016625 0.907567 -0.762092 -0.685507 0.235023 -0.689077
-0.842207 0.921868 -0.778093 0.122929 0.270638 -0.954772
-0.844708 0.932965 -0.774269 0.098239 0.486099 -0.868343
-0.821434 0.932700 -0.770167 0.263436 0.492172 -0.829646
-0.816692 0.922233 -0.772839 0.326792 0.275948 -0.903897
-0.812232 0.907047 -0.774653 0.363292 0.191626 -0.911740
-0.839345 0.906594 -0.780938 0.140568 0.179052 -0.973724
-0.807365 0.887133 -0.776690 0.378094 0.197638 -0.904386
-0.835916 0.886850 -0.783714 0.149113 0.164708 -0.974975
-0.870630 0.906272 -0.783037 0.031190 0.178350 -0.983459
-0.872028 0.921472 -0.779852 0.025513 0.276437 -0.960662
-0.904000 0.906144 -0.783041 0.000000 0.178961 -0.983825
-0.904000 0.921266 -0.779857 0.000000 0.279397 -0.960143
-0.868860 0.886670 -0.786057 0.033815 0.153356 -0.987579
-0.904000 0.886606 -0.786059 0.000000 0.151372 -0.988464
-0.873080 0.932676 -0.775646 0.016785 0.490860 -0.871059
-0.904000 0.932394 -0.775654 0.000000 0.494247 -0.869289
-0.827273 0.834689 -0.791320 0.140690 0.159642 -0.977081
-0.831717 0.862340 -0.787333 0.148015 0.168371 -0.974517
-0.801404 0.862484 -0.780033 0.373333 0.216010 -0.902158
-0.795098 0.834721 -0.784064 0.357341 0.209845 -0.910062
-0.789194 0.805467 -0.788167 0.337718 0.186407 -0.922575
-0.823114 0.805519 -0.795199 0.131321 0.140965 -0.981262
-0.862252 0.805537 -0.797543 0.029908 0.123112 -0.991913
-0.864399 0.834670 -0.793738 0.032105 0.139836 -0.989624
-0.904000 0.805537 -0.797543 0.000000 0.119663 -0.992798
-0.904000 0.834664 -0.793739 0.000000 0.135990 -0.990692
-0.866692 0.862258 -0.789767 0.033753 0.149937 -0.988098
-0.904000 0.862233 -0.789768 0.000000 0.146397 -0.989196
-0.965792 0.921868 -0.778093 -0.122929 0.270638 -0.954772
-0.963291 0.932965 -0.774269 -0.098239 0.486099 -0.868343
-0.934920 0.932676 -0.775646 -0.016785 0.490860 -0.871059
-0.935972 0.921472 -0.779852 -0.025513 0.276437 -0.960662
-0.937370 0.906272 -0.783037 -0.031190 0.178381 -0.983459
-0.968655 0.906594 -0.780938 -0.140568 0.179052 -0.973724
-0.939140 0.886670 -0.786057 -0.033784 0.153356 -0.987579
-0.972084 0.886850 -0.783714 -0.149113 0.164708 -0.974975
-0.995768 0.907047 -0.774653 -0.363292 0.191626 -0.911740
-0.991308 0.922233 -0.772839 -0.326792 0.275948 -0.903897
-1.000635 0.887133 -0.776690 -0.378094 0.197638 -0.904386
-0.986566 0.932700 -0.770167 -0.263436 0.492172 -0.829646
-0.980726 0.834689 -0.791320 -0.140690 0.159642 -0.977081
-0.976283 0.862340 -0.787333 -0.148015 0.168371 -0.974517
-0.941307 0.862258 -0.789767 -0.033753 0.149937 -0.988098
-0.943601 0.834670 -0.793738 -0.032105 0.139836 -0.989624
-0.945747 0.805537 -0.797543 -0.029908 0.123112 -0.991913
-0.984886 0.805519 -0.795199 -0.131291 0.140965 -0.981262
-1.018806 0.805467 -0.788167 -0.337718 0.186407 -0.922575
-1.012902 0.834721 -0.784064 -0.357341 0.209845 -0.910062
-1.006596 0.862484 -0.780033 -0.373333 0.216010 -0.902158
4 0 1 2 3
4 3 2 4 5
4 1 6 7 2
4 2 7 8 4
4 0 3 9 10
4 10 9 11 12
4 3 5 13 9
4 9 13 14 11
4 0 10 15 16
4 16 15 17 18
4 10 12 19 15
4 15 19 20 17
4 0 16 21 1
4 1 21 22 6
4 16 18 23 21
4 21 23 24 22
4 25 26 27 28
4 28 27 29 30
4 26 31 32 27
4 27 32 33 29
4 25 28 34 35
4 35 34 7 6
4 28 30 36 34
4 34 36 8 7
4 25 35 37 38
4 38 37 39 40
4 35 6 22 37
4 37 22 24 39
4 25 38 41 26
4 26 41 42 31
4 38 40 43 41
4 41 43 44 42
4 45 46 47 48
4 48 47 23 18
4 46 49 50 47
4 47 50 24 23
4 45 48 51 52
4 52 51 53 54
4 48 18 17 51
4 51 17 20 53
4 45 52 55 56
4 56 55 57 58
4 52 54 59 55
4 55 59 60 57
4 45 56 61 46
4 46 61 62 49
4 56 58 63 61
4 61 63 64 62
4 65 66 67 68
4 68 67 43 40
4 66 69 70 67
4 67 70 44 43
4 65 68 71 72
4 72 71 50 49
4 68 40 39 71
4 71 39 24 50
4 65 72 73 74
4 74 73 75 76
4 72 49 62 73
4 73 62 64 75
4 65 74 77 66
4 66 77 78 69
4 74 76 79 77
4 77 79 80 78
4 81 82 83 84
4 84 83 85 86
4 82 87 88 83
4 83 88 89 85
4 81 84 90 91
4 91 90 92 93
4 84 86 94 90
4 90 94 95 92
4 81 91 96 97
4 97 96 98 99
4 91 93 100 96
4 96 100 101 98
4 81 97 102 82
4 82 102 103 87
4 97 99 104 102
4 102 104 105 103
4 106 107 108 109
4 109 108 110 111
4 107 112 113 108
4 108 113 114 110
4 106 109 115 116
4 116 115 88 87
4 109 111 117 115
4 115 117 89 88
4 106 116 118 119
4 119 118 120 121
4 116 87 103 118
4 118 103 105 120
4 106 119 122 107
4 107 122 123 112
4 119 121 124 122
4 122 124 125 123
4 126 127 128 129
4 129 128 130 131
4 127 30 29 128
4 128 29 33 130
4 126 129 132 133
4 133 132 134 135
4 129 131 136 132
4 132 136 137 134
4 126 133 138 139
4 139 138 140 141
4 133 135 142 138
4 138 142 143 140
4 126 139 144 127
4 127 144 36 30
4 139 141 145 144
4 144 145 8 36
4 146 147 148 149
4 149 148 150 151
4 147 135 134 148
4 148 134 137 150
4 146 149 152 153
4 153 152 154 155
4 149 151 156 152
4 152 156 157 154
4 146 153 158 159
4 159 158 160 161
4 153 155 162 158
4 158 162 163 160
4 146 159 164 147
4 147 164 142 135
4 159 161 165 164
4 164 165 143 142
4 166 167 168 169
4 169 168 145 141
4 167 5 4 168
4 168 4 8 145
4 166 169 170 171
4 171 170 172 173
4 169 141 140 170
4 170 140 143 172
4 166 171 174 175
4 175 174 176 177
4 171 173 178 174
4 174 178 179 176
4 166 175 180 167
4 167 180 13 5
4 175 177 181 180
4 180 181 14 13
4 182 183 184 185
4 185 184 165 161
4 183 173 172 184
4 184 172 143 165
4 182 185 186 187
4 187 186 188 189
4 185 161 160 186
4 186 160 163 188
4 182 187 190 191
4 191 190 192 193
4 187 189 194 190
4 190 194 195 192
4 182 191 196 183
4 183 196 178 173
4 191 193 197 196
4 196 197 179 178
4 198 199 200 201
4 201 200 181 177
4 199 12 11 200
4 200 11 14 181
4 198 201 202 203
4 203 202 204 205
4 201 177 176 202
4 202 176 179 204
4 198 203 206 207
4 207 206 208 209
4 203 205 210 206
4 206 210 211 208
4 198 207 212 199
4 199 212 19 12
4 207 209 213 212
4 212 213 20 19
4 214 215 216 217
4 217 216 197 193
4 215 205 204 216
4 216 204 179 197
4 214 217 218 219
4 219 218 220 221
4 217 193 192 218
4 218 192 195 220
4 214 219 222 223
4 223 222 224 225
4 219 221 226 222
4 222 226 227 224
4 214 223 228 215
4 215 228 210 205
4 223 225 229 228
4 228 229 211 210
4 230 231 232 233
4 233 232 213 209
4 231 54 53 232
4 232 53 20 213
4 230 233 234 235
4 235 234 236 237
4 233 209 208 234
4 234 208 211 236
4 230 235 238 239
4 239 238 240 241
4 235 237 242 238
4 238 242 243 240
4 230 239 244 231
4 231 244 59 54
4 239 241 245 244
4 244 245 60 59
4 246 247 248 249
4 249 248 229 225
4 247 237 236 248
4 248 236 211 229
4 246 249 250 251
4 251 250 252 253
4 249 225 224 250
4 250 224 227 252
4 246 251 254 255
4 255 254 256 257
4 251 253 258 254
4 254 258 259 256
4 246 255 260 247
4 247 260 242 237
4 255 257 261 260
4 260 261 243 242
4 262 263 264 265
4 265 264 245 241
4 263 58 57 264
4 264 57 60 245
4 262 265 266 267
4 267 266 268 269
4 265 241 240 266
4 266 240 243 268
4 262 267 270 271
4 271 270 272 273
4 267 269 274 270
4 270 274 275 272
4 262 271 276 263
4 263 276 63 58
4 271 273 277 276
4 276 277 64 63
4 278 279 280 281
4 281 280 261 257
4 279 269 268 280
4 280 268 243 261
4 278 281 282 283
4 283 282 284 285
4 281 257 256 282
4 282 256 259 284
4 278 283 286 287
4 287 286 288 289
4 283 285 290 286
4 286 290 291 288
4 278 287 292 279
4 279 292 274 269
4 287 289 293 292
4 292 293 275 274
4 294 295 296 297
4 297 296 277 273
4 295 76 75 296
4 296 75 64 277
4 294 297 298 299
4 299 298 300 301
4 297 273 272 298
4 298 272 275 300
4 294 299 302 303
4 303 302 304 305
4 299 301 306 302
4 302 306 307 304
4 294 303 308 295
4 295 308 79 76
4 303 305 309 308
4 308 309 80 79
4 310 311 312 313
4 313 312 293 289
4 311 301 300 312
4 312 300 275 293
4 310 313 314 315
4 315 314 316 317
4 313 289 288 314
4 314 288 291 316
4 310 315 318 319
4 319 318 320 321
4 315 317 322 318
4 318 322 323 320
4 310 319 324 311
4 311 324 306 301
4 319 321 325 324
4 324 325 307 306
4 326 327 328 329
4 329 328 156 151
4 327 330 331 328
4 328 331 157 156
4 326 329 332 333
4 333 332 334 335
4 329 151 150 332
4 332 150 137 334
4 326 333 336 337
4 337 336 338 339
4 333 335 340 336
4 336 340 341 338
4 326 337 342 327
4 327 342 343 330
4 337 339 344 342
4 342 344 345 343
4 346 347 348 349
4 349 348 136 131
4 347 335 334 348
4 348 334 137 136
4 346 349 350 351
4 351 350 32 31
4 349 131 130 350
4 350 130 33 32
4 346 351 352 353
4 353 352 354 355
4 351 31 42 352
4 352 42 44 354
4 346 353 356 347
4 347 356 340 335
4 353 355 357 356
4 356 357 341 340
4 358 359 360 361
4 361 360 344 339
4 359 362 363 360
4 360 363 345 344
4 358 361 364 365
4 365 364 366 367
4 361 339 338 364
4 364 338 341 366
4 358 365 368 369
4 369 368 325 321
4 365 367 370 368
4 368 370 307 325
4 358 369 371 359
4 359 371 372 362
4 369 321 320 371
4 371 320 323 372
4 373 374 375 376
4 376 375 357 355
4 374 367 366 375
4 375 366 341 357
4 373 376 377 378
4 378 377 70 69
4 376 355 354 377
4 377 354 44 70
4 373 378 379 380
4 380 379 309 305
4 378 69 78 379
4 379 78 80 309
4 373 380 381 374
4 374 381 370 367
4 380 305 304 381
4 381 304 307 370
4 382 383 384 385
4 385 384 386 387
4 383 155 154 384
4 384 154 157 386
4 382 385 388 389
4 389 388 390 391
4 385 387 392 388
4 388 392 393 390
4 382 389 394 395
4 395 394 396 397
4 389 391 398 394
4 394 398 399 396
4 382 395 400 383
4 383 400 162 155
4 395 397 401 400
4 400 401 163 162
4 402 403 404 405
4 405 404 406 407
4 403 391 390 404
4 404 390 393 406
4 402 405 408 409
4 409 408 113 112
4 405 407 410 408
4 408 410 114 113
4 402 409 411 412
4 412 411 413 414
4 409 112 123 411
4 411 123 125 413
4 402 412 415 403
4 403 415 398 391
4 412 414 416 415
4 415 416 399 398
4 417 418 419 420
4 420 419 401 397
4 418 189 188 419
4 419 188 163 401
4 417 420 421 422
4 422 421 423 424
4 420 397 396 421
4 421 396 399 423
4 417 422 425 418
4 418 425 194 189
4 422 424 426 425
4 425 426 195 194
4 427 428 429 430
4 430 429 426 424
4 428 221 220 429
4 429 220 195 426
4 427 430 431 432
4 432 431 433 434
4 430 424 423 431
4 431 423 399 433
4 427 432 435 436
4 436 435 437 438
4 432 434 439 435
4 435 439 440 437
4 427 436 441 428
4 428 441 226 221
4 436 438 442 441
4 441 442 227 226
4 443 444 445 446
4 446 445 416 414
4 444 434 433 445
4 445 433 399 416
4 443 446 447 448
4 448 447 124 121
4 446 414 413 447
4 447 413 125 124
4 443 448 449 450
4 450 449 451 452
4 448 121 120 449
4 449 120 105 451
4 443 450 453 444
4 444 453 439 434
4 450 452 454 453
4 453 454 440 439
4 455 456 457 458
4 458 457 442 438
4 456 253 252 457
4 457 252 227 442
4 455 458 459 460
4 460 459 461 462
4 458 438 437 459
4 459 437 440 461
4 455 460 463 464
4 464 463 465 466
4 460 462 467 463
4 463 467 468 465
4 455 464 469 456
4 456 469 258 253
4 464 466 470 469
4 469 470 259 258
4 471 472 473 474
4 474 473 454 452
4 472 462 461 473
4 473 461 440 454
4 471 474 475 476
4 476 475 104 99
4 474 452 451 475
4 475 451 105 104
4 471 476 477 478
4 478 477 479 480
4 476 99 98 477
4 477 98 101 479
4 471 478 481 472
4 472 481 467 462
4 478 480 482 481
4 481 482 468 467
4 483 484 485 486
4 486 485 470 466
4 484 285 284 485
4 485 284 259 470
4 483 486 487 488
4 488 487 489 490
4 486 466 465 487
4 487 465 468 489
4 483 488 491 484
4 484 491 290 285
4 488 490 492 491
4 491 492 291 290
4 493 494 495 496
4 496 495 492 490
4 494 317 316 495
4 495 316 291 492
4 493 496 497 498
4 498 497 499 500
4 496 490 489 497
4 497 489 468 499
4 493 498 501 502
4 502 501 503 504
4 498 500 505 501
4 501 505 506 503
4 493 502 507 494
4 494 507 322 317
4 502 504 508 507
4 507 508 323 322
4 509 510 511 512
4 512 511 482 480
4 510 500 499 511
4 511 499 468 482
4 509 512 513 514
4 514 513 100 93
4 512 480 479 513
4 513 479 101 100
4 509 514 515 516
4 516 515 517 518
4 514 93 92 515
4 515 92 95 517
4 509 516 519 510
4 510 519 505 500
4 516 518 520 519
4 519 520 506 505
4 521 522 523 524
4 524 523 410 407
4 522 111 110 523
4 523 110 114 410
4 521 524 525 526
4 526 525 527 528
4 524 407 406 525
4 525 406 393 527
4 521 526 529 530
4 530 529 531 532
4 526 528 533 529
4 529 533 534 531
4 521 530 535 522
4 522 535 117 111
4 530 532 536 535
4 535 536 89 117
4 537 538 539 540
4 540 539 392 387
4 538 528 527 539
4 539 527 393 392
4 537 540 541 542
4 542 541 331 330
4 540 387 386 541
4 541 386 157 331
4 537 542 543 544
4 544 543 545 546
4 542 330 343 543
4 543 343 345 545
4 537 544 547 538
4 538 547 533 528
4 544 546 548 547
4 547 548 534 533
4 549 550 551 552
4 552 551 536 532
4 550 86 85 551
4 551 85 89 536
4 549 552 553 554
4 554 553 555 556
4 552 532 531 553
4 553 531 534 555
4 549 554 557 558
4 558 557 520 518
4 554 556 559 557
4 557 559 506 520
4 549 558 560 550
4 550 560 94 86
4 558 518 517 560
4 560 517 95 94
4 561 562 563 564
4 564 563 548 546
4 562 556 555 563
4 563 555 534 548
4 561 564 565 566
4 566 565 363 362
4 564 546 545 565
4 565 545 345 363
4 561 566 567 568
4 568 567 508 504
4 566 362 372 567
4 567 372 323 508
4 561 568 569 562
4 562 569 559 556
4 568 504 503 569
4 569 503 506 559
