ply
format ascii 1.0
comment Created by Blender 2.79 (sub 0) - www.blender.org, source file: 'm3_v2.blend'
element vertex 1074
property float x
property float y
property float z
property float nx
property float ny
property float nz
element face 960
property list uchar uint vertex_indices
end_header
1.573981 -0.260333 3.885104 0.912564 0.075991 0.401776
1.573582 -0.273113 3.888245 0.912107 0.068331 0.404157
1.583705 -0.271562 3.862856 0.934233 0.055483 0.352275
1.584838 -0.259933 3.857872 0.934172 0.061403 0.351451
1.591975 -0.269647 3.839139 0.941740 0.049104 0.332682
1.594054 -0.259454 3.831751 0.940947 0.055666 0.333903
1.573004 -0.285728 3.891578 0.908444 0.066561 0.412610
1.582181 -0.282896 3.868708 0.929655 0.058046 0.363781
1.588152 -0.277798 3.851090 0.942106 0.045045 0.332224
1.585192 -0.247715 3.854625 0.932524 0.072756 0.353618
1.574023 -0.247223 3.882349 0.911008 0.090670 0.402264
1.584914 -0.235376 3.852567 0.929350 0.090365 0.357921
1.573665 -0.233809 3.879818 0.907407 0.112857 0.404767
1.594797 -0.248231 3.827821 0.939360 0.065371 0.336558
1.594610 -0.236991 3.826246 0.936613 0.079836 0.341075
1.559727 -0.246783 3.911912 0.876980 0.109348 0.467879
1.559840 -0.260577 3.914558 0.879208 0.088900 0.468001
1.540739 -0.246418 3.944234 0.834651 0.127171 0.535844
1.540909 -0.260776 3.946990 0.837672 0.102084 0.536515
1.559313 -0.232338 3.908927 0.872860 0.136082 0.468551
1.540305 -0.231011 3.940822 0.830195 0.157537 0.534715
1.559753 -0.273938 3.916978 0.879727 0.076205 0.469314
1.559566 -0.287082 3.919285 0.877377 0.072237 0.474288
1.540903 -0.274435 3.949311 0.839198 0.085452 0.537034
1.540810 -0.287745 3.951413 0.837519 0.080050 0.540483
1.351262 -0.262946 4.135348 0.491409 0.124699 0.861934
1.318025 -0.263175 4.152757 0.441725 0.109012 0.890469
1.318061 -0.278564 4.154375 0.435286 0.087100 0.896054
1.351298 -0.278222 4.137303 0.486190 0.103366 0.867702
1.318061 -0.293251 4.155668 0.431440 0.078890 0.898648
1.351298 -0.292794 4.138917 0.482070 0.095279 0.870907
1.285134 -0.263178 4.168206 0.420118 0.092105 0.902768
1.285168 -0.278569 4.169493 0.413953 0.069185 0.907651
1.285168 -0.293257 4.170464 0.410688 0.060762 0.909726
1.384871 -0.277654 4.116744 0.557817 0.114231 0.822047
1.384834 -0.262574 4.114500 0.560686 0.135136 0.816889
1.418770 -0.276974 4.091163 0.638630 0.116581 0.760613
1.418730 -0.262144 4.088732 0.638874 0.137211 0.756951
1.384871 -0.292037 4.118630 0.553850 0.106388 0.825770
1.418770 -0.291130 4.093227 0.635304 0.109165 0.764489
1.384724 -0.246100 4.111542 0.563250 0.164342 0.809748
1.351153 -0.246262 4.132711 0.496414 0.154485 0.854213
1.384504 -0.227533 4.107511 0.566118 0.196142 0.800623
1.350934 -0.227466 4.129053 0.501694 0.186956 0.844569
1.418611 -0.245964 4.085567 0.638569 0.166082 0.751396
1.418373 -0.227762 4.081300 0.638356 0.197607 0.743919
1.317916 -0.246380 4.150489 0.447859 0.139653 0.883114
1.285033 -0.246382 4.166286 0.425520 0.124180 0.896359
1.317698 -0.227476 4.147248 0.454024 0.173193 0.873959
1.284831 -0.227477 4.163415 0.430280 0.159368 0.888485
1.133770 -0.249496 4.233463 0.355358 0.067171 0.932279
1.134158 -0.258533 4.233706 0.343120 0.020417 0.939055
1.149215 -0.265008 4.228150 0.362041 0.020936 0.931913
1.149091 -0.253855 4.227760 0.370556 0.060671 0.926817
1.168735 -0.270669 4.220452 0.380078 0.024110 0.924619
1.168672 -0.257747 4.219964 0.386059 0.058473 0.920591
1.134345 -0.266508 4.233657 0.340220 0.003082 0.940336
1.149340 -0.275175 4.228162 0.360332 0.006775 0.932768
1.168797 -0.282724 4.220566 0.378430 0.012238 0.925535
1.148966 -0.240731 4.226615 0.372784 0.109531 0.921415
1.132980 -0.238337 4.232633 0.356273 0.120090 0.926603
1.148841 -0.224651 4.224335 0.368908 0.154912 0.916440
1.132122 -0.223737 4.230689 0.348888 0.163152 0.922849
1.168610 -0.243090 4.218725 0.388379 0.103427 0.915647
1.168548 -0.225831 4.216361 0.386364 0.148686 0.910245
1.119387 -0.236629 4.237503 0.341655 0.133274 0.930296
1.122005 -0.245452 4.237561 0.343181 0.076357 0.936155
1.109048 -0.236231 4.241174 0.331462 0.146184 0.932035
1.113621 -0.242482 4.240350 0.338603 0.088321 0.936766
1.116515 -0.223731 4.236373 0.330363 0.171484 0.928129
1.098182 -0.225977 4.243126 0.315378 0.173650 0.932920
1.123027 -0.252248 4.237530 0.326548 0.021851 0.944914
1.123252 -0.258029 4.237453 0.320017 0.000580 0.947386
1.115287 -0.247156 4.240027 0.320719 0.025300 0.946806
1.115499 -0.251041 4.239955 0.306742 -0.000732 0.951781
1.042056 -0.238051 4.263209 0.303659 0.101199 0.947386
1.042127 -0.241715 4.263476 0.304544 0.036866 0.951781
1.066133 -0.241765 4.255798 0.304514 0.037355 0.951750
1.066834 -0.238289 4.255300 0.303659 0.102359 0.947233
1.086240 -0.241914 4.249364 0.304697 0.034974 0.951781
1.087399 -0.238988 4.248781 0.304575 0.099063 0.947295
1.042108 -0.244052 4.263483 0.304636 0.000214 0.952452
1.066020 -0.244052 4.255836 0.304666 0.000793 0.952452
1.086084 -0.244052 4.249417 0.304910 0.001099 0.952361
1.068713 -0.232435 4.253881 0.303903 0.148076 0.941099
1.041806 -0.231731 4.262420 0.303262 0.144108 0.941923
1.070248 -0.221809 4.251507 0.306467 0.173528 0.935911
1.041444 -0.220815 4.260684 0.304971 0.166387 0.937681
1.090563 -0.234484 4.247138 0.307627 0.148473 0.939848
1.014378 -0.232479 4.271351 0.302805 0.137150 0.943114
1.017153 -0.238300 4.271215 0.303812 0.095614 0.947905
0.991614 -0.234616 4.278928 0.299356 0.128758 0.945402
0.996373 -0.239021 4.277938 0.303262 0.087344 0.948882
1.011652 -0.221874 4.270518 0.303964 0.157109 0.939604
0.980083 -0.226262 4.281362 0.297769 0.139470 0.944365
1.018129 -0.241765 4.271152 0.304666 0.034089 0.951842
1.018206 -0.244052 4.271127 0.304666 -0.000397 0.952452
0.998044 -0.241914 4.277579 0.304819 0.029725 0.951933
0.998173 -0.244052 4.277535 0.304849 -0.000793 0.952391
1.131099 -0.078899 4.171904 0.301798 0.529771 0.792596
1.130941 -0.104833 4.188511 0.311563 0.482650 0.818506
1.148530 -0.104833 4.181676 0.322947 0.480361 0.815424
1.148608 -0.078899 4.165128 0.310862 0.527268 0.790765
1.168392 -0.104833 4.173649 0.333201 0.476699 0.813440
1.168431 -0.078899 4.157207 0.319163 0.523545 0.789941
1.130878 -0.130768 4.202649 0.323099 0.409253 0.853267
1.148499 -0.130768 4.195804 0.337168 0.407727 0.848537
1.168376 -0.130768 4.187707 0.349773 0.404553 0.844966
1.148717 -0.052964 4.146966 0.301920 0.553636 0.776055
1.131320 -0.052964 4.153650 0.294992 0.556047 0.777001
1.148841 -0.027030 4.127997 0.298715 0.562029 0.771264
1.131572 -0.027030 4.134573 0.292703 0.564440 0.771813
1.168485 -0.052964 4.139178 0.308542 0.550066 0.775994
1.168547 -0.027030 4.120354 0.304483 0.558458 0.771599
1.113869 -0.052964 4.160197 0.289895 0.557085 0.778191
1.113529 -0.078899 4.178492 0.294809 0.530747 0.794580
1.093938 -0.052964 4.167572 0.287942 0.556627 0.779229
1.093524 -0.078899 4.185847 0.291726 0.530076 0.796136
1.114257 -0.027030 4.141062 0.288369 0.565477 0.772668
1.094411 -0.027030 4.148442 0.286843 0.565142 0.773492
1.113287 -0.104833 4.195106 0.302591 0.483200 0.821528
1.113190 -0.130768 4.209198 0.312082 0.408734 0.857631
1.093228 -0.104833 4.202410 0.298502 0.481887 0.823786
1.093109 -0.130768 4.216406 0.307077 0.406079 0.860683
1.104835 -0.241445 4.243350 0.314737 0.076296 0.946104
1.105711 -0.242836 4.243121 0.311869 0.024415 0.949797
1.110403 -0.244259 4.241606 0.321024 0.028840 0.946623
1.108445 -0.241342 4.242125 0.329936 0.092288 0.939451
1.105716 -0.244751 4.243119 0.306650 -0.000061 0.951811
1.110528 -0.246848 4.241564 0.307169 -0.000671 0.951628
1.102819 -0.237768 4.243593 0.318644 0.138127 0.937742
1.099665 -0.240120 4.244948 0.308481 0.090426 0.946898
1.098545 -0.242163 4.245422 0.305643 0.029420 0.951659
1.098442 -0.244052 4.245457 0.305521 0.000793 0.952178
0.923799 -0.253402 4.300909 0.291055 0.037904 0.955931
0.923416 -0.264217 4.301271 0.295419 0.010590 0.955290
0.944333 -0.256298 4.294694 0.296793 0.013337 0.954833
0.945467 -0.248231 4.294113 0.289682 0.046785 0.955962
0.960608 -0.249181 4.289532 0.296487 0.016846 0.954863
0.962461 -0.243865 4.288769 0.287118 0.057985 0.956114
0.923259 -0.274087 4.301325 0.297372 0.000458 0.954741
0.944131 -0.263429 4.294763 0.300485 0.000549 0.953764
0.960417 -0.253741 4.289597 0.302164 0.000702 0.953246
0.948463 -0.238292 4.292506 0.288980 0.087374 0.953307
0.924635 -0.240699 4.299928 0.290780 0.072512 0.954009
0.951478 -0.224538 4.290043 0.296060 0.121433 0.947386
0.925455 -0.224912 4.298191 0.295969 0.105045 0.949370
0.967640 -0.237038 4.286610 0.287118 0.104556 0.952147
0.899625 -0.243116 4.307712 0.291177 0.061708 0.954650
0.899571 -0.257790 4.308429 0.290506 0.031495 0.956328
0.874161 -0.244327 4.315526 0.289468 0.054720 0.955596
0.874207 -0.259788 4.316156 0.287637 0.027589 0.957335
0.899668 -0.225844 4.306304 0.295358 0.092227 0.950896
0.874126 -0.226449 4.314255 0.293130 0.082858 0.952452
0.899507 -0.270732 4.308685 0.292276 0.008637 0.956267
0.899440 -0.282807 4.308711 0.292917 0.000427 0.956114
0.874259 -0.273638 4.316359 0.286966 0.007477 0.957884
0.874315 -0.286682 4.316348 0.286874 0.000427 0.957945
1.349272 -0.079492 4.074430 0.464125 0.415265 0.782373
1.316431 -0.078899 4.091931 0.404096 0.451155 0.795679
1.316280 -0.104833 4.106154 0.427747 0.412366 0.804346
1.349275 -0.105327 4.087657 0.484268 0.383343 0.786431
1.316299 -0.130768 4.118593 0.447371 0.357921 0.819575
1.349412 -0.131163 4.099461 0.500076 0.339824 0.796472
1.283887 -0.078899 4.107442 0.369732 0.478103 0.796655
1.283657 -0.104833 4.122505 0.392865 0.434736 0.810327
1.283604 -0.130768 4.135486 0.413831 0.371899 0.830897
1.382519 -0.106810 4.066051 0.554888 0.351024 0.754204
1.382310 -0.081271 4.053888 0.540849 0.375011 0.752861
1.415887 -0.109775 4.040379 0.630940 0.319224 0.707083
1.415441 -0.084829 4.029252 0.623737 0.335704 0.705832
1.382814 -0.132349 4.077163 0.565569 0.318979 0.760491
1.416376 -0.134721 4.050770 0.636402 0.297098 0.711814
1.382160 -0.055732 4.041023 0.524735 0.391278 0.755974
1.349359 -0.053656 4.060257 0.441511 0.436476 0.783898
1.382038 -0.030192 4.027808 0.521195 0.394971 0.756523
1.349490 -0.027820 4.045609 0.434675 0.441542 0.784875
1.415025 -0.059882 4.017633 0.615528 0.346751 0.707694
1.414623 -0.034936 4.005770 0.614765 0.349223 0.707144
1.316694 -0.052964 4.076518 0.378674 0.475997 0.793725
1.284236 -0.052964 4.090991 0.346446 0.504807 0.790613
1.317013 -0.027030 4.060509 0.368999 0.482528 0.794336
1.284644 -0.027030 4.073845 0.335582 0.512650 0.790277
0.705058 -0.237968 4.362371 0.244697 0.034303 0.968963
0.704766 -0.241715 4.362540 0.243995 0.011322 0.969695
0.729990 -0.241765 4.356197 0.244057 0.014435 0.969634
0.731251 -0.238300 4.355773 0.245155 0.040590 0.968627
0.751183 -0.241914 4.350866 0.244484 0.017243 0.969481
0.753075 -0.239021 4.350284 0.246437 0.047792 0.967956
0.704796 -0.244052 4.362527 0.243812 -0.002014 0.969817
0.729831 -0.244052 4.356237 0.243812 -0.000244 0.969817
0.750925 -0.244052 4.350934 0.244148 0.000824 0.969726
0.734718 -0.232479 4.354578 0.248207 0.057955 0.966948
0.705997 -0.231399 4.361839 0.246467 0.048585 0.967925
0.738740 -0.221874 4.352864 0.253212 0.064943 0.965209
0.708058 -0.220316 4.360707 0.249519 0.055208 0.966765
0.758232 -0.234616 4.348673 0.252693 0.068300 0.965117
0.770263 -0.226262 4.344839 0.264412 0.073550 0.961577
0.676906 -0.231105 4.369207 0.245857 0.041597 0.968383
0.678766 -0.237956 4.368999 0.244606 0.029237 0.969176
0.653385 -0.232288 4.375212 0.246162 0.036805 0.968505
0.656919 -0.238439 4.374522 0.245125 0.024903 0.969146
0.676772 -0.219813 4.368706 0.248115 0.047578 0.967528
0.642740 -0.219788 4.377408 0.247719 0.042299 0.967895
0.679530 -0.241765 4.368888 0.244118 0.008637 0.969695
0.679746 -0.244052 4.368824 0.243995 -0.003540 0.969756
0.658300 -0.241914 4.374234 0.244789 0.006684 0.969543
0.658603 -0.244052 4.374148 0.244667 -0.003937 0.969573
0.639255 -0.240576 4.379050 0.248451 0.016114 0.968505
0.636655 -0.239388 4.379699 0.253304 0.018983 0.967193
0.635018 -0.241765 4.380157 0.260079 0.005280 0.965545
0.637976 -0.242213 4.379388 0.249550 0.004486 0.968322
0.634920 -0.243456 4.380184 0.257637 0.000122 0.966216
0.638001 -0.243903 4.379380 0.249519 -0.000824 0.968352
0.635165 -0.237658 4.380057 0.254830 0.024506 0.966643
0.634138 -0.241069 4.380404 0.263771 0.009735 0.964507
0.634236 -0.242561 4.380376 0.270028 0.000000 0.962828
0.645092 -0.242163 4.377574 0.246315 0.005127 0.969146
0.644063 -0.239587 4.377804 0.246742 0.020447 0.968841
0.645292 -0.244052 4.377518 0.246193 -0.002808 0.969207
0.641373 -0.235639 4.378380 0.248360 0.031281 0.968139
0.637853 -0.231005 4.379128 0.248817 0.035249 0.967895
0.825534 -0.253402 4.330400 0.281259 0.028291 0.959197
0.804591 -0.248231 4.336365 0.279977 0.032991 0.959410
0.805921 -0.256298 4.336143 0.275033 0.009674 0.961364
0.826081 -0.264217 4.330420 0.277413 0.008118 0.960692
0.806324 -0.263429 4.336035 0.272530 0.000702 0.962127
0.826412 -0.274087 4.330332 0.275979 0.000580 0.961150
0.788160 -0.243865 4.341005 0.279794 0.041932 0.959136
0.790224 -0.249181 4.340550 0.274545 0.012574 0.961486
0.790605 -0.253741 4.340448 0.270547 0.000855 0.962676
0.849322 -0.270731 4.323714 0.281320 0.007447 0.959563
0.849133 -0.257790 4.323571 0.283944 0.026643 0.958434
0.849524 -0.282807 4.323662 0.280709 0.000488 0.959777
0.848970 -0.243116 4.323037 0.286386 0.051820 0.956694
0.824551 -0.240699 4.330162 0.283090 0.052705 0.957610
0.848844 -0.225844 4.321916 0.289193 0.076998 0.954161
0.823646 -0.224912 4.329382 0.283975 0.073946 0.955962
0.801408 -0.238292 4.336817 0.279855 0.058382 0.958251
0.782728 -0.237038 4.342165 0.275246 0.068484 0.958922
0.798361 -0.224538 4.336749 0.277169 0.074007 0.957945
1.485806 -0.261367 4.020527 0.753777 0.124271 0.645222
1.485856 -0.275632 4.022938 0.755852 0.104221 0.646352
1.515716 -0.275006 3.985498 0.797204 0.095340 0.596088
1.515680 -0.261043 3.983158 0.795221 0.114261 0.595416
1.485847 -0.289340 4.025010 0.754784 0.097324 0.648671
1.515679 -0.288506 3.987546 0.796167 0.088961 0.598468
1.515496 -0.246154 3.980234 0.791894 0.141881 0.593890
1.485635 -0.245991 4.017439 0.750664 0.152928 0.642720
1.515090 -0.229876 3.976434 0.787561 0.174047 0.591113
1.485284 -0.228947 4.013335 0.746879 0.185308 0.638569
1.452794 -0.245928 4.053374 0.703085 0.161107 0.692587
1.452938 -0.261738 4.056563 0.705405 0.132328 0.696310
1.452506 -0.228238 4.049099 0.700552 0.192969 0.686972
1.452986 -0.276294 4.059027 0.706870 0.111881 0.698386
1.452986 -0.290223 4.061129 0.705161 0.104740 0.701224
1.221579 -0.262021 4.197146 0.407178 0.067354 0.910825
1.193219 -0.260391 4.209583 0.398541 0.060945 0.915098
1.193250 -0.274515 4.210205 0.393811 0.030641 0.918668
1.221601 -0.276886 4.197941 0.402509 0.040254 0.914518
1.193275 -0.287851 4.210466 0.391614 0.020051 0.919889
1.221608 -0.291012 4.198395 0.400037 0.030671 0.915952
1.252627 -0.278123 4.184193 0.408795 0.053072 0.911039
1.252602 -0.262872 4.183178 0.414014 0.077670 0.906919
1.252627 -0.292663 4.184883 0.405988 0.044221 0.912778
1.252524 -0.246196 4.181514 0.417951 0.112033 0.901517
1.221526 -0.245681 4.195668 0.409986 0.104831 0.906034
1.252369 -0.227384 4.178876 0.420301 0.149632 0.894955
1.221425 -0.227126 4.193165 0.410413 0.145360 0.900204
1.193175 -0.244693 4.208241 0.400739 0.102054 0.910459
1.193113 -0.226632 4.205815 0.399701 0.145390 0.905026
0.772514 -0.241689 4.345387 0.261208 0.047212 0.964110
0.772903 -0.243039 4.345339 0.259255 0.017121 0.965636
0.780376 -0.245069 4.343310 0.271310 0.015992 0.962340
0.778096 -0.241893 4.343856 0.273537 0.050295 0.960509
0.772915 -0.245021 4.345335 0.256783 0.000153 0.966460
0.780600 -0.247928 4.343250 0.267342 0.000671 0.963591
0.771703 -0.238082 4.345371 0.263527 0.069735 0.962096
0.766261 -0.240198 4.346984 0.252449 0.052004 0.966186
0.764330 -0.242163 4.347552 0.247536 0.018616 0.968688
0.764155 -0.244052 4.347599 0.247200 0.000641 0.968963
0.978076 -0.241689 4.283930 0.295267 0.061251 0.953429
0.972671 -0.241893 4.285603 0.288186 0.065706 0.955290
0.970588 -0.245069 4.286362 0.296548 0.019349 0.954802
0.977802 -0.243039 4.284061 0.300790 0.018677 0.953490
0.970475 -0.247928 4.286400 0.302927 0.000671 0.953001
0.977795 -0.245021 4.284063 0.304331 0.000061 0.952544
0.985778 -0.242163 4.281507 0.304544 0.024567 0.952147
0.983964 -0.240198 4.281996 0.300088 0.076266 0.950835
0.985865 -0.244052 4.281478 0.305032 -0.000641 0.952330
0.978696 -0.238082 4.283401 0.290719 0.109958 0.950438
1.040661 -0.078899 4.205176 0.292367 0.525132 0.799188
1.040438 -0.104833 4.221465 0.298227 0.475295 0.827693
1.068426 -0.104833 4.211374 0.297769 0.479080 0.825678
1.068707 -0.078899 4.194924 0.291482 0.528092 0.797571
1.040348 -0.130768 4.235141 0.306192 0.396680 0.865352
1.068313 -0.130768 4.225229 0.306070 0.401868 0.863002
1.069101 -0.052964 4.176743 0.288278 0.554979 0.780297
1.040973 -0.052964 4.187146 0.289712 0.552385 0.781579
1.069551 -0.027030 4.157696 0.287454 0.563616 0.774377
1.041330 -0.027030 4.168246 0.289132 0.561205 0.775506
1.011169 -0.052964 4.198224 0.292154 0.548936 0.783105
1.010965 -0.078899 4.216058 0.294198 0.521287 0.801019
0.981302 -0.052964 4.209413 0.295816 0.544542 0.784783
0.981200 -0.078899 4.227023 0.297067 0.516617 0.803003
1.011401 -0.027030 4.179515 0.291818 0.557878 0.776910
0.981418 -0.027030 4.190928 0.295785 0.553636 0.778436
1.010819 -0.104833 4.232147 0.299539 0.470687 0.829890
1.010761 -0.130768 4.245615 0.307047 0.390698 0.867763
0.981127 -0.104833 4.242886 0.301675 0.465285 0.832148
0.981098 -0.130768 4.256125 0.308603 0.384075 0.870174
0.925889 -0.078899 4.247644 0.302622 0.505295 0.808100
0.925882 -0.104833 4.263010 0.305399 0.452742 0.837672
0.952918 -0.104833 4.253147 0.303934 0.459273 0.834651
0.952947 -0.078899 4.237525 0.300180 0.511216 0.805292
0.925879 -0.130768 4.275750 0.310465 0.369549 0.875790
0.952906 -0.130768 4.266146 0.310007 0.377026 0.872768
0.952988 -0.052964 4.220153 0.299905 0.539445 0.786767
0.925900 -0.052964 4.230530 0.303354 0.533738 0.789331
0.953035 -0.027030 4.201906 0.300394 0.548601 0.780206
0.925911 -0.027030 4.212540 0.304392 0.543016 0.782586
0.899710 -0.052964 4.240627 0.305948 0.527512 0.792505
0.899710 -0.078899 4.257464 0.304209 0.498825 0.811518
0.874091 -0.052964 4.250531 0.307596 0.520768 0.796319
0.874091 -0.078899 4.267065 0.304880 0.491775 0.815577
0.899710 -0.027030 4.222915 0.307566 0.536851 0.785577
0.874091 -0.027030 4.233122 0.309763 0.530198 0.789239
0.899710 -0.104833 4.272551 0.305918 0.445692 0.841273
0.899710 -0.130768 4.285013 0.309885 0.361553 0.879330
0.874091 -0.104833 4.281849 0.305490 0.438002 0.845454
0.874091 -0.130768 4.294008 0.308206 0.352886 0.883419
0.740373 -0.079101 4.314931 0.278115 0.441908 0.852840
0.734331 -0.104833 4.329361 0.270791 0.385632 0.881985
0.755047 -0.104833 4.322925 0.277657 0.393841 0.876217
0.758713 -0.078899 4.308769 0.284585 0.450026 0.846431
0.776753 -0.104833 4.315923 0.286691 0.402356 0.869411
0.778586 -0.078899 4.301977 0.292459 0.458357 0.839229
0.728283 -0.130768 4.341276 0.267434 0.295938 0.916990
0.751381 -0.130768 4.334455 0.274483 0.304086 0.912198
0.774920 -0.130768 4.327243 0.284005 0.313120 0.906247
0.762379 -0.052964 4.292864 0.297098 0.478835 0.826075
0.746403 -0.053775 4.298970 0.289804 0.471297 0.832972
0.766044 -0.027030 4.276083 0.305582 0.487899 0.817621
0.752427 -0.028651 4.282244 0.298807 0.480728 0.824366
0.780419 -0.052964 4.286281 0.303140 0.487503 0.818781
0.782252 -0.027030 4.269711 0.309946 0.496872 0.810572
0.731771 -0.056206 4.305344 0.283944 0.464248 0.838923
0.723048 -0.079709 4.320819 0.274789 0.432569 0.858669
0.717810 -0.059448 4.311851 0.280709 0.453047 0.846126
0.706230 -0.080520 4.326570 0.271920 0.419385 0.866085
0.740468 -0.033513 4.289433 0.291452 0.475356 0.830073
0.729239 -0.043239 4.298888 0.286111 0.471206 0.834284
0.714275 -0.104833 4.335421 0.266854 0.377117 0.886868
0.705477 -0.130768 4.347836 0.263253 0.288156 0.920652
0.694549 -0.104833 4.341292 0.264565 0.361644 0.893948
0.682819 -0.130768 4.354266 0.261696 0.267251 0.927396
0.824041 -0.078899 4.285645 0.302591 0.475875 0.825800
0.800513 -0.078899 4.294198 0.298898 0.467116 0.832118
0.799780 -0.104833 4.308167 0.294931 0.411420 0.862362
0.823857 -0.104833 4.299805 0.300424 0.420759 0.855953
0.799046 -0.130768 4.319511 0.293344 0.323069 0.899747
0.823674 -0.130768 4.311339 0.300272 0.333415 0.893643
0.848718 -0.104833 4.290983 0.303812 0.429670 0.850307
0.848718 -0.078899 4.276530 0.304422 0.484115 0.820307
0.848718 -0.130768 4.302811 0.305155 0.343486 0.888180
0.848718 -0.052964 4.260326 0.308359 0.513413 0.800775
0.824224 -0.052964 4.269734 0.308176 0.505387 0.805933
0.848718 -0.027030 4.243248 0.311136 0.522965 0.793512
0.824407 -0.027030 4.252950 0.311838 0.515000 0.798425
0.801246 -0.052964 4.278479 0.306742 0.496658 0.811914
0.801979 -0.027030 4.261885 0.311686 0.506241 0.804071
1.480223 -0.098892 3.967236 0.737571 0.285653 0.611835
1.481155 -0.121494 3.976517 0.738548 0.277291 0.614490
1.510102 -0.129968 3.943463 0.774895 0.262459 0.574969
1.508957 -0.109060 3.935254 0.773644 0.269692 0.573290
1.534623 -0.139997 3.913082 0.810755 0.243355 0.532365
1.533311 -0.121095 3.906218 0.807550 0.250435 0.533921
1.482092 -0.144096 3.985385 0.739586 0.265511 0.618427
1.511248 -0.150875 3.951328 0.776330 0.252327 0.577593
1.535935 -0.158899 3.919653 0.813929 0.233863 0.531754
1.507812 -0.088152 3.926816 0.772546 0.274117 0.572710
1.479293 -0.076289 3.957680 0.736656 0.290719 0.610523
1.506667 -0.067245 3.918263 0.770898 0.276193 0.573931
1.478365 -0.053687 3.947986 0.736106 0.292489 0.610370
1.531999 -0.102193 3.899159 0.804224 0.255226 0.536699
1.530686 -0.083291 3.892002 0.800012 0.258889 0.541185
1.447883 -0.066801 3.988902 0.688803 0.312296 0.654195
1.448565 -0.090758 3.999468 0.691610 0.305246 0.654561
1.447207 -0.042843 3.978158 0.688528 0.314280 0.653554
1.449258 -0.114716 4.009678 0.694174 0.294137 0.656941
1.449969 -0.138674 4.019354 0.696249 0.278787 0.661397
1.221070 -0.078899 4.135361 0.338298 0.509445 0.791192
1.192942 -0.078899 4.147188 0.327555 0.518021 0.790155
1.192865 -0.104833 4.163479 0.343394 0.471145 0.812433
1.220919 -0.104833 4.151406 0.356365 0.462752 0.811670
1.192834 -0.130768 4.177402 0.361705 0.399426 0.842372
1.220863 -0.130768 4.165115 0.375988 0.392132 0.839534
1.251526 -0.104833 4.137669 0.372570 0.450850 0.811090
1.251743 -0.078899 4.122015 0.352062 0.496567 0.793359
1.251456 -0.130768 4.151068 0.393139 0.382916 0.835932
1.252056 -0.052964 4.104859 0.333201 0.523759 0.783959
1.221285 -0.052964 4.117758 0.323008 0.536515 0.779595
1.252418 -0.027030 4.086952 0.324778 0.531999 0.781945
1.221530 -0.027030 4.099376 0.316538 0.544908 0.776421
1.193051 -0.052964 4.129319 0.315073 0.544786 0.777093
1.193175 -0.027030 4.110662 0.310038 0.553209 0.773156
1.565898 -0.149733 3.863738 0.870388 0.190771 0.453871
1.567431 -0.163946 3.866733 0.878262 0.183599 0.441450
1.578670 -0.177159 3.848144 0.896817 0.144261 0.418165
1.576921 -0.165285 3.847603 0.887417 0.154027 0.434400
1.588434 -0.190726 3.830865 0.905148 0.119724 0.407849
1.586421 -0.181161 3.832946 0.895230 0.128941 0.426466
1.568900 -0.178058 3.869636 0.885311 0.176061 0.430372
1.580162 -0.188629 3.848870 0.905850 0.138249 0.400342
1.589931 -0.199482 3.829316 0.914640 0.117954 0.386578
1.574657 -0.152602 3.847542 0.877529 0.162542 0.451125
1.564235 -0.135318 3.860770 0.860530 0.195898 0.470168
1.572135 -0.139514 3.847720 0.867550 0.176183 0.465072
1.562508 -0.120801 3.857816 0.850276 0.207038 0.483840
1.583377 -0.169976 3.836094 0.886044 0.141026 0.441603
1.578787 -0.156364 3.840841 0.876980 0.149388 0.456679
1.550411 -0.118215 3.877560 0.834498 0.228889 0.501175
1.551826 -0.134828 3.882828 0.841243 0.223548 0.492233
1.548996 -0.101602 3.872215 0.826807 0.236000 0.510544
1.553241 -0.151441 3.887942 0.847133 0.216437 0.485214
1.554656 -0.168054 3.892826 0.852504 0.207648 0.479659
1.131151 -0.181588 4.221495 0.336833 0.260079 0.904904
1.131528 -0.204377 4.227101 0.341746 0.205573 0.916990
1.148717 -0.204630 4.220542 0.363140 0.201453 0.909665
1.148608 -0.181651 4.214808 0.356883 0.258370 0.897671
1.168485 -0.205101 4.212496 0.381542 0.196844 0.903134
1.168431 -0.181769 4.206711 0.374371 0.254921 0.891537
1.148530 -0.156702 4.206705 0.349010 0.326731 0.878292
1.130941 -0.156702 4.213494 0.331889 0.327677 0.884548
1.168392 -0.156702 4.198588 0.364238 0.323832 0.873165
1.113287 -0.156702 4.219928 0.318522 0.326212 0.889981
1.113744 -0.181672 4.227767 0.320963 0.259041 0.910947
1.093228 -0.156702 4.226979 0.312723 0.322398 0.893429
1.093844 -0.181708 4.234629 0.313944 0.255409 0.914426
1.114727 -0.204714 4.233189 0.323679 0.207343 0.923154
1.095220 -0.204855 4.239853 0.313639 0.206000 0.926908
1.350140 -0.182131 4.117516 0.510239 0.254738 0.821406
1.316918 -0.181934 4.136599 0.462203 0.251045 0.850459
1.317334 -0.205759 4.142708 0.459548 0.209326 0.863124
1.350569 -0.205854 4.124032 0.506943 0.219855 0.833430
1.284115 -0.181934 4.153494 0.433699 0.246712 0.866604
1.284494 -0.205760 4.159277 0.433668 0.198798 0.878842
1.384137 -0.206178 4.102052 0.569353 0.226356 0.790307
1.383690 -0.182730 4.095169 0.571734 0.255043 0.779748
1.417976 -0.206862 4.075565 0.638844 0.226112 0.735343
1.417475 -0.183939 4.068485 0.639607 0.250160 0.726798
1.383227 -0.157888 4.086871 0.571184 0.285043 0.769707
1.349728 -0.156999 4.109369 0.508866 0.293893 0.809076
1.416924 -0.159667 4.060179 0.639271 0.273049 0.718833
1.316543 -0.156702 4.128651 0.459151 0.299875 0.836177
1.283787 -0.156702 4.145689 0.427961 0.303903 0.851131
1.040678 -0.181334 4.252621 0.310984 0.242561 0.918912
1.041041 -0.203360 4.257578 0.308237 0.193457 0.931425
1.069916 -0.204015 4.248144 0.309854 0.201361 0.929197
1.068911 -0.181498 4.243084 0.312113 0.250008 0.916532
1.068426 -0.156702 4.235623 0.311502 0.316996 0.895779
1.040438 -0.156702 4.245335 0.311167 0.310434 0.898221
1.010819 -0.156702 4.255590 0.311502 0.302683 0.900723
1.010878 -0.181509 4.262725 0.310678 0.233070 0.921476
0.981127 -0.156702 4.265869 0.312510 0.294290 0.903134
0.981084 -0.181741 4.272821 0.311106 0.222724 0.923887
1.010820 -0.204058 4.267672 0.307413 0.182867 0.933805
0.980835 -0.204987 4.277689 0.306223 0.170904 0.936491
0.925863 -0.181705 4.291378 0.309854 0.201727 0.929106
0.925792 -0.204844 4.295559 0.303537 0.144139 0.941832
0.952666 -0.205027 4.286891 0.304788 0.157720 0.939238
0.952867 -0.181751 4.282331 0.311106 0.212317 0.926328
0.952918 -0.156702 4.275645 0.313242 0.285745 0.905637
0.925882 -0.156702 4.284990 0.312754 0.276955 0.908536
0.899710 -0.156702 4.293974 0.311106 0.267739 0.911863
0.899705 -0.181771 4.300080 0.307566 0.190954 0.932127
0.874091 -0.156702 4.302667 0.308267 0.258065 0.915616
0.874095 -0.181831 4.308487 0.304209 0.180578 0.935301
0.899693 -0.205107 4.303975 0.301645 0.131840 0.944243
0.874105 -0.205349 4.312129 0.298532 0.121372 0.946623
0.716582 -0.181251 4.355284 0.259316 0.126286 0.957488
0.711722 -0.203028 4.358739 0.254036 0.076510 0.964141
0.741668 -0.204058 4.350882 0.259041 0.084658 0.962127
0.744371 -0.181509 4.347723 0.265328 0.133793 0.954802
0.770438 -0.204987 4.343109 0.268197 0.092227 0.958922
0.771509 -0.181741 4.340110 0.274117 0.142033 0.951140
0.747715 -0.156702 4.342484 0.270821 0.207068 0.940062
0.722234 -0.156702 4.349689 0.264168 0.199011 0.943693
0.773087 -0.156702 4.335063 0.280068 0.216163 0.935301
0.696679 -0.156702 4.356751 0.260292 0.191443 0.946348
0.688408 -0.181165 4.362818 0.255928 0.118992 0.959319
0.671088 -0.156702 4.363740 0.258461 0.175115 0.949980
0.660042 -0.181165 4.370338 0.254250 0.106479 0.961241
0.681189 -0.202684 4.366690 0.251595 0.069033 0.965361
0.650365 -0.202684 4.374686 0.250374 0.060060 0.966247
0.823359 -0.181705 4.324607 0.292276 0.161077 0.942656
0.797728 -0.181751 4.332416 0.283761 0.151280 0.946867
0.797439 -0.205027 4.335415 0.278664 0.098941 0.955260
0.823330 -0.204844 4.327737 0.286996 0.105686 0.952055
0.848768 -0.205107 4.320012 0.293649 0.112949 0.949187
0.848730 -0.181771 4.316647 0.299234 0.170782 0.938749
0.848718 -0.156702 4.311139 0.303934 0.247932 0.919828
0.823491 -0.156702 4.319374 0.297769 0.237312 0.924650
0.798313 -0.156702 4.327354 0.289773 0.226447 0.929899
1.483922 -0.188745 4.001266 0.741783 0.234504 0.628254
1.484692 -0.209680 4.007877 0.743706 0.213630 0.633412
1.514388 -0.211746 3.971466 0.783380 0.202612 0.587573
1.513464 -0.192228 3.965507 0.780297 0.223426 0.584094
1.539520 -0.214206 3.936538 0.825282 0.185369 0.533372
1.538472 -0.196353 3.931501 0.821009 0.205969 0.532426
1.512393 -0.171783 3.958735 0.778069 0.239448 0.580737
1.483035 -0.166699 3.993701 0.740593 0.251167 0.623188
1.537247 -0.177800 3.925833 0.817286 0.221656 0.531846
1.450703 -0.162632 4.028319 0.697501 0.261177 0.667257
1.451406 -0.185963 4.036387 0.698080 0.242592 0.673635
1.452025 -0.208041 4.043375 0.698782 0.220954 0.680319
1.221081 -0.181899 4.183622 0.402478 0.246895 0.881466
1.192936 -0.181849 4.196208 0.388592 0.250740 0.886624
1.193026 -0.205422 4.201947 0.395734 0.192969 0.897824
1.221261 -0.205619 4.189296 0.408185 0.190893 0.892697
1.252110 -0.205723 4.174939 0.420545 0.192328 0.886624
1.251822 -0.181925 4.169276 0.417249 0.245033 0.875118
1.251579 -0.156702 4.161461 0.408765 0.308237 0.858974
1.220932 -0.156702 4.175708 0.392224 0.313730 0.864681
1.192865 -0.156702 4.188169 0.377636 0.319315 0.869137
1.571727 -0.206212 3.874876 0.897183 0.153569 0.414014
1.572863 -0.220115 3.877350 0.902493 0.135807 0.408673
1.584150 -0.223384 3.851150 0.924924 0.109256 0.364086
1.583023 -0.211654 3.850186 0.919706 0.123692 0.372600
1.593899 -0.226744 3.825920 0.932707 0.095462 0.347728
1.592795 -0.217242 3.826531 0.927946 0.107395 0.356853
1.581653 -0.200098 3.849488 0.913572 0.133274 0.384167
1.570369 -0.192170 3.872327 0.891568 0.166784 0.421003
1.591428 -0.208238 3.827767 0.922178 0.114994 0.369213
1.556070 -0.184667 3.897403 0.857570 0.196417 0.475326
1.557385 -0.201063 3.901636 0.862606 0.181494 0.472182
1.558499 -0.217026 3.905489 0.867702 0.161901 0.469924
-1.581125 -0.260333 3.885104 -0.912564 0.075991 0.401776
-1.591983 -0.259933 3.857872 -0.934172 0.061403 0.351451
-1.590849 -0.271562 3.862856 -0.934233 0.055483 0.352275
-1.580726 -0.273113 3.888245 -0.912107 0.068331 0.404157
-1.589325 -0.282896 3.868708 -0.929655 0.058046 0.363781
-1.580149 -0.285728 3.891578 -0.908444 0.066561 0.412610
-1.601199 -0.259454 3.831751 -0.940947 0.055666 0.333903
-1.599119 -0.269647 3.839139 -0.941740 0.049104 0.332682
-1.595297 -0.277798 3.851090 -0.942106 0.045045 0.332224
-1.566898 -0.273938 3.916978 -0.879727 0.076205 0.469314
-1.566985 -0.260577 3.914558 -0.879208 0.088900 0.468001
-1.548048 -0.274435 3.949311 -0.839198 0.085452 0.537034
-1.548053 -0.260776 3.946990 -0.837672 0.102084 0.536515
-1.566710 -0.287082 3.919285 -0.877377 0.072237 0.474258
-1.547954 -0.287745 3.951413 -0.837519 0.080020 0.540483
-1.566871 -0.246783 3.911912 -0.876980 0.109348 0.467879
-1.581168 -0.247223 3.882349 -0.911008 0.090670 0.402264
-1.566458 -0.232338 3.908927 -0.872860 0.136082 0.468551
-1.580810 -0.233809 3.879818 -0.907407 0.112857 0.404767
-1.547883 -0.246418 3.944234 -0.834651 0.127171 0.535844
-1.547450 -0.231011 3.940822 -0.830195 0.157537 0.534715
-1.592337 -0.247715 3.854625 -0.932524 0.072756 0.353618
-1.601942 -0.248231 3.827821 -0.939360 0.065371 0.336558
-1.592058 -0.235376 3.852567 -0.929350 0.090365 0.357921
-1.601755 -0.236991 3.826246 -0.936613 0.079836 0.341075
-1.358406 -0.262946 4.135348 -0.491409 0.124699 0.861934
-1.358443 -0.278222 4.137302 -0.486190 0.103366 0.867702
-1.325205 -0.278564 4.154375 -0.435286 0.087100 0.896054
-1.325169 -0.263175 4.152756 -0.441725 0.109012 0.890469
-1.292312 -0.278569 4.169493 -0.413953 0.069185 0.907651
-1.292278 -0.263178 4.168206 -0.420118 0.092105 0.902768
-1.358443 -0.292794 4.138917 -0.482070 0.095309 0.870907
-1.325205 -0.293251 4.155668 -0.431440 0.078890 0.898648
-1.292312 -0.293257 4.170464 -0.410718 0.060762 0.909726
-1.325060 -0.246380 4.150489 -0.447859 0.139653 0.883114
-1.358297 -0.246262 4.132711 -0.496414 0.154485 0.854213
-1.324842 -0.227476 4.147248 -0.454024 0.173193 0.873959
-1.358078 -0.227466 4.129053 -0.501694 0.186956 0.844569
-1.292177 -0.246382 4.166286 -0.425550 0.124149 0.896359
-1.291975 -0.227477 4.163415 -0.430280 0.159368 0.888485
-1.391869 -0.246100 4.111542 -0.563250 0.164373 0.809748
-1.391979 -0.262574 4.114500 -0.560686 0.135136 0.816889
-1.425756 -0.245964 4.085567 -0.638569 0.166082 0.751396
-1.425875 -0.262144 4.088732 -0.638874 0.137211 0.756951
-1.391649 -0.227533 4.107511 -0.566118 0.196142 0.800623
-1.425518 -0.227762 4.081300 -0.638356 0.197607 0.743919
-1.392016 -0.277654 4.116744 -0.557817 0.114200 0.822047
-1.392016 -0.292037 4.118630 -0.553850 0.106388 0.825770
-1.425915 -0.276974 4.091163 -0.638630 0.116581 0.760613
-1.425915 -0.291130 4.093227 -0.635304 0.109165 0.764489
-1.140914 -0.249496 4.233463 -0.355358 0.067171 0.932310
-1.156235 -0.253855 4.227761 -0.370556 0.060671 0.926817
-1.156360 -0.265008 4.228150 -0.362041 0.020905 0.931913
-1.141302 -0.258533 4.233706 -0.343120 0.020417 0.939055
-1.156485 -0.275175 4.228162 -0.360332 0.006775 0.932768
-1.141490 -0.266508 4.233657 -0.340190 0.003082 0.940336
-1.175817 -0.257747 4.219964 -0.386059 0.058473 0.920591
-1.175879 -0.270669 4.220452 -0.380078 0.024110 0.924619
-1.175941 -0.282724 4.220566 -0.378430 0.012238 0.925535
-1.130171 -0.252248 4.237530 -0.326548 0.021851 0.944914
-1.129149 -0.245452 4.237561 -0.343181 0.076357 0.936155
-1.122431 -0.247156 4.240027 -0.320719 0.025300 0.946806
-1.120765 -0.242482 4.240350 -0.338603 0.088321 0.936766
-1.130396 -0.258029 4.237453 -0.320017 0.000580 0.947386
-1.122644 -0.251041 4.239955 -0.306711 -0.000763 0.951781
-1.126532 -0.236629 4.237503 -0.341655 0.133274 0.930296
-1.140124 -0.238337 4.232633 -0.356273 0.120090 0.926603
-1.123659 -0.223731 4.236373 -0.330393 0.171484 0.928129
-1.139266 -0.223737 4.230688 -0.348888 0.163152 0.922849
-1.116192 -0.236231 4.241174 -0.331462 0.146184 0.932035
-1.105327 -0.225977 4.243126 -0.315378 0.173650 0.932920
-1.156110 -0.240731 4.226615 -0.372784 0.109531 0.921415
-1.175754 -0.243090 4.218725 -0.388379 0.103427 0.915647
-1.155986 -0.224651 4.224335 -0.368908 0.154912 0.916440
-1.175692 -0.225831 4.216361 -0.386364 0.148686 0.910245
-1.049201 -0.238051 4.263209 -0.303659 0.101199 0.947386
-1.073978 -0.238289 4.255300 -0.303659 0.102359 0.947233
-1.073277 -0.241765 4.255798 -0.304514 0.037355 0.951750
-1.049272 -0.241715 4.263476 -0.304544 0.036866 0.951781
-1.073164 -0.244052 4.255836 -0.304666 0.000793 0.952452
-1.049253 -0.244052 4.263483 -0.304605 0.000214 0.952452
-1.094544 -0.238988 4.248781 -0.304575 0.099063 0.947295
-1.093385 -0.241914 4.249364 -0.304697 0.034974 0.951781
-1.093228 -0.244052 4.249417 -0.304910 0.001099 0.952361
-1.025274 -0.241765 4.271152 -0.304666 0.034089 0.951842
-1.024297 -0.238300 4.271215 -0.303812 0.095614 0.947905
-1.005189 -0.241914 4.277579 -0.304819 0.029725 0.951933
-1.003517 -0.239021 4.277938 -0.303262 0.087344 0.948882
-1.025351 -0.244052 4.271127 -0.304666 -0.000397 0.952452
-1.005317 -0.244052 4.277535 -0.304849 -0.000793 0.952391
-1.021523 -0.232479 4.271351 -0.302805 0.137150 0.943114
-1.048950 -0.231731 4.262420 -0.303262 0.144108 0.941923
-1.018796 -0.221874 4.270518 -0.303995 0.157109 0.939604
-1.048589 -0.220815 4.260684 -0.304971 0.166387 0.937681
-0.998759 -0.234616 4.278928 -0.299356 0.128758 0.945402
-0.987227 -0.226262 4.281362 -0.297769 0.139470 0.944365
-1.075858 -0.232435 4.253881 -0.303903 0.148076 0.941099
-1.097708 -0.234484 4.247138 -0.307627 0.148473 0.939848
-1.077392 -0.221809 4.251507 -0.306467 0.173528 0.935911
-1.138244 -0.078899 4.171904 -0.301798 0.529771 0.792627
-1.155752 -0.078899 4.165128 -0.310862 0.527268 0.790765
-1.155675 -0.104833 4.181676 -0.322947 0.480361 0.815424
-1.138086 -0.104833 4.188511 -0.311533 0.482650 0.818506
-1.155644 -0.130768 4.195804 -0.337168 0.407727 0.848537
-1.138023 -0.130768 4.202649 -0.323099 0.409253 0.853267
-1.175575 -0.078899 4.157207 -0.319163 0.523545 0.789941
-1.175537 -0.104833 4.173649 -0.333201 0.476699 0.813440
-1.175521 -0.130768 4.187707 -0.349773 0.404523 0.844966
-1.120431 -0.104833 4.195106 -0.302622 0.483200 0.821528
-1.120674 -0.078899 4.178492 -0.294809 0.530747 0.794580
-1.100372 -0.104833 4.202410 -0.298532 0.481887 0.823786
-1.100668 -0.078899 4.185847 -0.291757 0.530076 0.796136
-1.120334 -0.130768 4.209198 -0.312082 0.408734 0.857601
-1.100254 -0.130768 4.216406 -0.307077 0.406079 0.860653
-1.121013 -0.052964 4.160197 -0.289895 0.557085 0.778191
-1.138464 -0.052964 4.153650 -0.294961 0.556047 0.777001
-1.121401 -0.027030 4.141062 -0.288369 0.565477 0.772668
-1.138717 -0.027030 4.134573 -0.292703 0.564409 0.771813
-1.101082 -0.052964 4.167572 -0.287942 0.556627 0.779229
-1.101556 -0.027030 4.148442 -0.286843 0.565142 0.773492
-1.155861 -0.052964 4.146966 -0.301920 0.553636 0.776055
-1.175630 -0.052964 4.139178 -0.308542 0.550066 0.775994
-1.155985 -0.027030 4.127997 -0.298715 0.562029 0.771264
-1.175692 -0.027030 4.120354 -0.304483 0.558458 0.771599
-1.111979 -0.241445 4.243350 -0.314707 0.076296 0.946104
-1.115589 -0.241342 4.242125 -0.329936 0.092288 0.939451
-1.117548 -0.244259 4.241606 -0.321024 0.028840 0.946623
-1.112855 -0.242836 4.243121 -0.311869 0.024415 0.949797
-1.117672 -0.246848 4.241564 -0.307169 -0.000702 0.951628
-1.112861 -0.244751 4.243119 -0.306650 -0.000061 0.951811
-1.105689 -0.242163 4.245422 -0.305643 0.029420 0.951659
-1.106809 -0.240120 4.244948 -0.308481 0.090426 0.946898
-1.105587 -0.244052 4.245457 -0.305521 0.000763 0.952178
-1.109964 -0.237768 4.243593 -0.318644 0.138127 0.937742
-0.930944 -0.253402 4.300909 -0.291055 0.037904 0.955931
-0.952611 -0.248231 4.294113 -0.289682 0.046785 0.955962
-0.951478 -0.256298 4.294694 -0.296793 0.013337 0.954833
-0.930560 -0.264217 4.301271 -0.295419 0.010590 0.955290
-0.951275 -0.263429 4.294763 -0.300485 0.000549 0.953764
-0.930403 -0.274087 4.301325 -0.297372 0.000458 0.954741
-0.969605 -0.243865 4.288769 -0.287118 0.057985 0.956114
-0.967752 -0.249181 4.289532 -0.296457 0.016846 0.954894
-0.967561 -0.253741 4.289597 -0.302164 0.000702 0.953246
-0.906652 -0.270731 4.308685 -0.292276 0.008637 0.956267
-0.906715 -0.257790 4.308429 -0.290506 0.031495 0.956328
-0.881403 -0.273638 4.316359 -0.286966 0.007477 0.957884
-0.881351 -0.259788 4.316156 -0.287637 0.027589 0.957335
-0.906584 -0.282807 4.308711 -0.292917 0.000427 0.956114
-0.881459 -0.286682 4.316348 -0.286874 0.000427 0.957945
-0.906770 -0.243116 4.307712 -0.291177 0.061708 0.954650
-0.931779 -0.240699 4.299928 -0.290780 0.072512 0.954009
-0.906812 -0.225844 4.306304 -0.295358 0.092227 0.950896
-0.932600 -0.224912 4.298191 -0.295969 0.105045 0.949370
-0.881306 -0.244327 4.315526 -0.289468 0.054720 0.955596
-0.881271 -0.226449 4.314255 -0.293130 0.082858 0.952452
-0.955608 -0.238292 4.292506 -0.288980 0.087405 0.953307
-0.974784 -0.237038 4.286610 -0.287118 0.104556 0.952147
-0.958622 -0.224538 4.290043 -0.296060 0.121433 0.947386
-1.356417 -0.079492 4.074430 -0.464125 0.415265 0.782373
-1.356420 -0.105327 4.087657 -0.484268 0.383343 0.786431
-1.323425 -0.104833 4.106154 -0.427747 0.412366 0.804346
-1.323575 -0.078899 4.091931 -0.404096 0.451155 0.795679
-1.290801 -0.104833 4.122505 -0.392865 0.434706 0.810327
-1.291031 -0.078899 4.107442 -0.369732 0.478103 0.796655
-1.356557 -0.131163 4.099461 -0.500076 0.339824 0.796472
-1.323443 -0.130768 4.118593 -0.447371 0.357921 0.819575
-1.290748 -0.130768 4.135486 -0.413831 0.371899 0.830897
-1.323838 -0.052964 4.076518 -0.378674 0.475997 0.793725
-1.356503 -0.053656 4.060257 -0.441511 0.436476 0.783898
-1.324157 -0.027030 4.060509 -0.368999 0.482528 0.794305
-1.356634 -0.027820 4.045609 -0.434675 0.441542 0.784875
-1.291380 -0.052964 4.090991 -0.346446 0.504807 0.790613
-1.291788 -0.027030 4.073845 -0.335582 0.512650 0.790277
-1.389304 -0.055732 4.041023 -0.524735 0.391278 0.755974
-1.389454 -0.081271 4.053888 -0.540849 0.375011 0.752861
-1.422169 -0.059882 4.017633 -0.615528 0.346751 0.707694
-1.422586 -0.084829 4.029252 -0.623737 0.335704 0.705832
-1.389183 -0.030192 4.027808 -0.521195 0.394971 0.756523
-1.421767 -0.034936 4.005770 -0.614765 0.349223 0.707144
-1.389663 -0.106810 4.066051 -0.554888 0.351024 0.754204
-1.389959 -0.132349 4.077163 -0.565569 0.318979 0.760491
-1.423031 -0.109775 4.040379 -0.630940 0.319224 0.707083
-1.423521 -0.134721 4.050770 -0.636402 0.297098 0.711814
-0.712203 -0.237968 4.362371 -0.244697 0.034303 0.968963
-0.738396 -0.238300 4.355773 -0.245155 0.040590 0.968627
-0.737134 -0.241765 4.356198 -0.244057 0.014435 0.969634
-0.711910 -0.241715 4.362540 -0.243995 0.011322 0.969695
-0.736975 -0.244052 4.356237 -0.243812 -0.000366 0.969817
-0.711941 -0.244052 4.362527 -0.243812 -0.002075 0.969787
-0.760220 -0.239021 4.350284 -0.246467 0.047823 0.967956
-0.758328 -0.241914 4.350866 -0.244484 0.017243 0.969481
-0.758069 -0.244052 4.350934 -0.244148 0.000763 0.969726
-0.686674 -0.241765 4.368888 -0.244118 0.008637 0.969695
-0.685911 -0.237956 4.368999 -0.244606 0.029237 0.969176
-0.665444 -0.241914 4.374234 -0.244758 0.006684 0.969543
-0.664064 -0.238439 4.374522 -0.245125 0.024903 0.969146
-0.686890 -0.244052 4.368824 -0.243995 -0.003540 0.969756
-0.665747 -0.244052 4.374148 -0.244667 -0.003937 0.969573
-0.684050 -0.231105 4.369207 -0.245857 0.041597 0.968383
-0.713141 -0.231399 4.361839 -0.246467 0.048555 0.967925
-0.683917 -0.219813 4.368706 -0.248115 0.047578 0.967528
-0.715203 -0.220316 4.360707 -0.249519 0.055208 0.966765
-0.660529 -0.232288 4.375212 -0.246162 0.036805 0.968505
-0.649884 -0.219788 4.377408 -0.247719 0.042299 0.967895
-0.741862 -0.232479 4.354578 -0.248207 0.057955 0.966948
-0.765377 -0.234616 4.348673 -0.252693 0.068300 0.965117
-0.745885 -0.221874 4.352864 -0.253212 0.064943 0.965209
-0.777407 -0.226262 4.344839 -0.264412 0.073550 0.961577
-0.646399 -0.240576 4.379050 -0.248451 0.016114 0.968505
-0.645120 -0.242213 4.379388 -0.249580 0.004486 0.968322
-0.642162 -0.241765 4.380157 -0.260109 0.005280 0.965545
-0.643800 -0.239388 4.379699 -0.253273 0.018983 0.967193
-0.641283 -0.241069 4.380404 -0.263833 0.009735 0.964507
-0.642309 -0.237658 4.380057 -0.254799 0.024506 0.966674
-0.645146 -0.243903 4.379380 -0.249550 -0.000824 0.968352
-0.642064 -0.243456 4.380184 -0.257668 0.000122 0.966216
-0.641380 -0.242561 4.380376 -0.270058 0.000000 0.962828
-0.648517 -0.235639 4.378380 -0.248360 0.031251 0.968139
-0.651207 -0.239587 4.377804 -0.246742 0.020447 0.968841
-0.644997 -0.231005 4.379128 -0.248787 0.035249 0.967895
-0.652237 -0.242163 4.377574 -0.246315 0.005127 0.969146
-0.652436 -0.244052 4.377518 -0.246193 -0.002777 0.969207
-0.832678 -0.253402 4.330400 -0.281259 0.028291 0.959197
-0.833226 -0.264217 4.330420 -0.277413 0.008118 0.960692
-0.813065 -0.256298 4.336143 -0.275063 0.009674 0.961364
-0.811735 -0.248231 4.336366 -0.279946 0.032991 0.959441
-0.797369 -0.249181 4.340550 -0.274545 0.012574 0.961486
-0.795304 -0.243865 4.341005 -0.279794 0.041932 0.959136
-0.833556 -0.274087 4.330332 -0.275979 0.000580 0.961150
-0.813468 -0.263429 4.336035 -0.272561 0.000702 0.962127
-0.797749 -0.253741 4.340448 -0.270577 0.000855 0.962676
-0.808552 -0.238292 4.336817 -0.279824 0.058382 0.958251
-0.831696 -0.240699 4.330162 -0.283090 0.052705 0.957610
-0.805505 -0.224538 4.336749 -0.277169 0.074007 0.957945
-0.830791 -0.224912 4.329382 -0.283975 0.073946 0.955962
-0.789873 -0.237038 4.342165 -0.275246 0.068484 0.958922
-0.856114 -0.243116 4.323037 -0.286386 0.051820 0.956694
-0.856278 -0.257790 4.323571 -0.283944 0.026643 0.958434
-0.855988 -0.225844 4.321916 -0.289193 0.076998 0.954131
-0.856467 -0.270732 4.323714 -0.281320 0.007447 0.959563
-0.856668 -0.282807 4.323662 -0.280709 0.000488 0.959777
-1.492950 -0.261367 4.020527 -0.753777 0.124271 0.645222
-1.522824 -0.261043 3.983158 -0.795221 0.114261 0.595416
-1.522861 -0.275006 3.985498 -0.797204 0.095340 0.596088
-1.493001 -0.275632 4.022938 -0.755852 0.104221 0.646352
-1.522823 -0.288506 3.987546 -0.796167 0.088931 0.598498
-1.492991 -0.289340 4.025010 -0.754784 0.097324 0.648671
-1.460131 -0.276294 4.059027 -0.706870 0.111911 0.698386
-1.460083 -0.261738 4.056563 -0.705405 0.132328 0.696310
-1.460131 -0.290223 4.061129 -0.705161 0.104740 0.701224
-1.459939 -0.245928 4.053374 -0.703085 0.161107 0.692587
-1.492779 -0.245991 4.017439 -0.750664 0.152928 0.642720
-1.459650 -0.228238 4.049099 -0.700552 0.192969 0.686972
-1.492428 -0.228947 4.013335 -0.746879 0.185308 0.638569
-1.522640 -0.246154 3.980234 -0.791894 0.141881 0.593890
-1.522234 -0.229876 3.976434 -0.787561 0.174047 0.591113
-1.228724 -0.262021 4.197146 -0.407178 0.067354 0.910825
-1.228746 -0.276886 4.197941 -0.402509 0.040254 0.914518
-1.200395 -0.274515 4.210205 -0.393811 0.030641 0.918668
-1.200363 -0.260391 4.209583 -0.398541 0.060945 0.915098
-1.228752 -0.291012 4.198395 -0.400037 0.030671 0.915952
-1.200420 -0.287851 4.210466 -0.391614 0.020051 0.919889
-1.200320 -0.244693 4.208241 -0.400739 0.102054 0.910459
-1.228670 -0.245681 4.195668 -0.409986 0.104831 0.906034
-1.200258 -0.226632 4.205815 -0.399701 0.145390 0.905026
-1.228569 -0.227126 4.193165 -0.410413 0.145360 0.900204
-1.259668 -0.246196 4.181514 -0.417920 0.112033 0.901517
-1.259746 -0.262872 4.183178 -0.414014 0.077670 0.906919
-1.259513 -0.227384 4.178876 -0.420270 0.149632 0.894955
-1.259772 -0.278123 4.184193 -0.408826 0.053072 0.911039
-1.259772 -0.292663 4.184883 -0.405988 0.044221 0.912778
-0.779659 -0.241689 4.345387 -0.261208 0.047212 0.964110
-0.785240 -0.241893 4.343856 -0.273568 0.050295 0.960509
-0.787521 -0.245069 4.343310 -0.271310 0.015992 0.962340
-0.780047 -0.243039 4.345339 -0.259255 0.017121 0.965636
-0.787745 -0.247928 4.343250 -0.267312 0.000671 0.963591
-0.780059 -0.245021 4.345335 -0.256783 0.000153 0.966460
-0.771474 -0.242163 4.347552 -0.247536 0.018586 0.968688
-0.773405 -0.240198 4.346984 -0.252480 0.052004 0.966186
-0.771299 -0.244052 4.347599 -0.247169 0.000641 0.968963
-0.778848 -0.238082 4.345371 -0.263497 0.069735 0.962127
-0.985220 -0.241689 4.283930 -0.295267 0.061281 0.953429
-0.984946 -0.243039 4.284061 -0.300790 0.018677 0.953490
-0.977732 -0.245069 4.286362 -0.296518 0.019349 0.954802
-0.979815 -0.241893 4.285603 -0.288156 0.065706 0.955290
-0.984940 -0.245021 4.284063 -0.304331 0.000061 0.952544
-0.977620 -0.247928 4.286400 -0.302927 0.000671 0.953001
-0.985840 -0.238082 4.283401 -0.290719 0.109958 0.950438
-0.991108 -0.240198 4.281996 -0.300119 0.076296 0.950835
-0.992922 -0.242163 4.281507 -0.304544 0.024567 0.952147
-0.993010 -0.244052 4.281478 -0.305032 -0.000671 0.952330
-1.047805 -0.078899 4.205176 -0.292367 0.525132 0.799188
-1.075852 -0.078899 4.194924 -0.291482 0.528092 0.797571
-1.075570 -0.104833 4.211374 -0.297769 0.479080 0.825678
-1.047582 -0.104833 4.221465 -0.298227 0.475326 0.827693
-1.075458 -0.130768 4.225229 -0.306070 0.401868 0.863002
-1.047493 -0.130768 4.235141 -0.306192 0.396649 0.865352
-1.017964 -0.104833 4.232147 -0.299539 0.470687 0.829890
-1.018109 -0.078899 4.216058 -0.294198 0.521287 0.801019
-0.988272 -0.104833 4.242886 -0.301675 0.465285 0.832148
-0.988345 -0.078899 4.227023 -0.297067 0.516617 0.803003
-1.017905 -0.130768 4.245615 -0.307047 0.390698 0.867763
-0.988243 -0.130768 4.256125 -0.308603 0.384075 0.870174
-1.018313 -0.052964 4.198224 -0.292154 0.548936 0.783105
-1.048118 -0.052964 4.187146 -0.289712 0.552385 0.781579
-1.018546 -0.027030 4.179515 -0.291818 0.557878 0.776910
-1.048475 -0.027030 4.168246 -0.289132 0.561205 0.775506
-0.988446 -0.052964 4.209413 -0.295816 0.544542 0.784783
-0.988563 -0.027030 4.190928 -0.295785 0.553636 0.778436
-1.076246 -0.052964 4.176743 -0.288278 0.554979 0.780297
-1.076696 -0.027030 4.157696 -0.287454 0.563616 0.774377
-0.933034 -0.078899 4.247644 -0.302622 0.505295 0.808100
-0.960092 -0.078899 4.237525 -0.300180 0.511216 0.805292
-0.960063 -0.104833 4.253147 -0.303934 0.459273 0.834651
-0.933026 -0.104833 4.263010 -0.305368 0.452742 0.837672
-0.960051 -0.130768 4.266146 -0.310007 0.377026 0.872768
-0.933024 -0.130768 4.275750 -0.310465 0.369549 0.875790
-0.906854 -0.104833 4.272551 -0.305918 0.445692 0.841273
-0.906854 -0.078899 4.257464 -0.304209 0.498825 0.811518
-0.881236 -0.104833 4.281849 -0.305490 0.438002 0.845454
-0.881236 -0.078899 4.267065 -0.304880 0.491775 0.815577
-0.906854 -0.130768 4.285013 -0.309885 0.361553 0.879330
-0.881236 -0.130768 4.294008 -0.308206 0.352886 0.883419
-0.906854 -0.052964 4.240627 -0.305948 0.527512 0.792505
-0.933044 -0.052964 4.230529 -0.303323 0.533738 0.789331
-0.906854 -0.027030 4.222915 -0.307566 0.536851 0.785577
-0.933056 -0.027030 4.212540 -0.304392 0.543016 0.782586
-0.881236 -0.052964 4.250531 -0.307596 0.520768 0.796319
-0.881236 -0.027030 4.233122 -0.309763 0.530198 0.789239
-0.960132 -0.052964 4.220153 -0.299905 0.539445 0.786767
-0.960179 -0.027030 4.201906 -0.300394 0.548601 0.780206
-0.747518 -0.079101 4.314931 -0.278115 0.441908 0.852840
-0.765857 -0.078899 4.308769 -0.284585 0.450026 0.846431
-0.762191 -0.104833 4.322925 -0.277657 0.393841 0.876217
-0.741476 -0.104833 4.329361 -0.270791 0.385632 0.881985
-0.758526 -0.130768 4.334455 -0.274483 0.304086 0.912198
-0.735427 -0.130768 4.341276 -0.267434 0.295938 0.916990
-0.785730 -0.078899 4.301977 -0.292459 0.458357 0.839229
-0.783898 -0.104833 4.315923 -0.286691 0.402356 0.869411
-0.782065 -0.130768 4.327243 -0.284005 0.313120 0.906247
-0.721420 -0.104833 4.335421 -0.266823 0.377117 0.886868
-0.730192 -0.079709 4.320819 -0.274789 0.432569 0.858669
-0.701694 -0.104833 4.341292 -0.264565 0.361644 0.893948
-0.713374 -0.080520 4.326570 -0.271920 0.419385 0.866085
-0.712622 -0.130768 4.347836 -0.263253 0.288156 0.920652
-0.689963 -0.130768 4.354266 -0.261696 0.267251 0.927396
-0.738915 -0.056206 4.305344 -0.283944 0.464248 0.838923
-0.753548 -0.053775 4.298970 -0.289804 0.471297 0.832972
-0.747613 -0.033513 4.289433 -0.291452 0.475356 0.830073
-0.759571 -0.028651 4.282244 -0.298807 0.480728 0.824366
-0.724954 -0.059448 4.311851 -0.280679 0.453047 0.846126
-0.736384 -0.043239 4.298888 -0.286111 0.471206 0.834284
-0.769523 -0.052964 4.292864 -0.297098 0.478835 0.826075
-0.787563 -0.052964 4.286281 -0.303140 0.487503 0.818781
-0.773189 -0.027030 4.276083 -0.305582 0.487899 0.817621
-0.789396 -0.027030 4.269711 -0.309946 0.496872 0.810572
-0.831185 -0.078899 4.285645 -0.302591 0.475875 0.825800
-0.831002 -0.104833 4.299805 -0.300424 0.420759 0.855953
-0.806924 -0.104833 4.308167 -0.294931 0.411420 0.862362
-0.807657 -0.078899 4.294198 -0.298898 0.467116 0.832118
-0.830819 -0.130768 4.311339 -0.300272 0.333415 0.893643
-0.806191 -0.130768 4.319511 -0.293344 0.323069 0.899747
-0.808390 -0.052964 4.278479 -0.306742 0.496658 0.811914
-0.831368 -0.052964 4.269734 -0.308176 0.505387 0.805933
-0.809124 -0.027030 4.261885 -0.311686 0.506241 0.804071
-0.831552 -0.027030 4.252950 -0.311838 0.515000 0.798425
-0.855862 -0.052964 4.260326 -0.308359 0.513413 0.800775
-0.855862 -0.078899 4.276530 -0.304422 0.484115 0.820307
-0.855862 -0.027030 4.243248 -0.311136 0.522965 0.793512
-0.855862 -0.104833 4.290983 -0.303812 0.429670 0.850307
-0.855862 -0.130768 4.302811 -0.305155 0.343486 0.888180
-1.487367 -0.098892 3.967237 -0.737571 0.285653 0.611835
-1.516102 -0.109060 3.935254 -0.773644 0.269692 0.573290
-1.517247 -0.129968 3.943463 -0.774895 0.262459 0.574969
-1.488300 -0.121494 3.976517 -0.738548 0.277291 0.614490
-1.518392 -0.150875 3.951328 -0.776330 0.252327 0.577593
-1.489237 -0.144096 3.985385 -0.739586 0.265511 0.618427
-1.540455 -0.121095 3.906218 -0.807550 0.250435 0.533952
-1.541768 -0.139997 3.913082 -0.810755 0.243324 0.532365
-1.543080 -0.158899 3.919652 -0.813929 0.233863 0.531785
-1.456403 -0.114716 4.009678 -0.694174 0.294137 0.656941
-1.455709 -0.090758 3.999468 -0.691610 0.305246 0.654561
-1.457113 -0.138674 4.019354 -0.696249 0.278787 0.661397
-1.455028 -0.066801 3.988902 -0.688803 0.312296 0.654195
-1.486437 -0.076289 3.957680 -0.736656 0.290719 0.610523
-1.454352 -0.042843 3.978158 -0.688528 0.314280 0.653554
-1.485509 -0.053687 3.947986 -0.736106 0.292489 0.610370
-1.514956 -0.088152 3.926816 -0.772546 0.274117 0.572710
-1.539143 -0.102193 3.899159 -0.804224 0.255226 0.536699
-1.513811 -0.067245 3.918263 -0.770898 0.276193 0.573901
-1.537831 -0.083291 3.892002 -0.800012 0.258889 0.541185
-1.228215 -0.078899 4.135361 -0.338298 0.509445 0.791192
-1.228064 -0.104833 4.151406 -0.356365 0.462752 0.811670
-1.200009 -0.104833 4.163479 -0.343394 0.471145 0.812433
-1.200087 -0.078899 4.147188 -0.327555 0.518021 0.790155
-1.228007 -0.130768 4.165114 -0.375988 0.392132 0.839534
-1.199978 -0.130768 4.177402 -0.361705 0.399426 0.842372
-1.200195 -0.052964 4.129319 -0.315073 0.544786 0.777093
-1.228429 -0.052964 4.117758 -0.323008 0.536515 0.779595
-1.200320 -0.027030 4.110662 -0.310038 0.553209 0.773156
-1.228675 -0.027030 4.099376 -0.316538 0.544908 0.776421
-1.259201 -0.052964 4.104859 -0.333201 0.523759 0.783959
-1.258887 -0.078899 4.122015 -0.352062 0.496567 0.793359
-1.259562 -0.027030 4.086952 -0.324778 0.531999 0.781945
-1.258671 -0.104833 4.137669 -0.372570 0.450850 0.811090
-1.258600 -0.130768 4.151068 -0.393139 0.382885 0.835932
-1.573042 -0.149733 3.863738 -0.870388 0.190741 0.453871
-1.584066 -0.165285 3.847603 -0.887417 0.154027 0.434400
-1.585815 -0.177159 3.848144 -0.896817 0.144261 0.418165
-1.574576 -0.163946 3.866733 -0.878262 0.183599 0.441450
-1.587306 -0.188629 3.848870 -0.905850 0.138249 0.400342
-1.576045 -0.178058 3.869636 -0.885281 0.176031 0.430372
-1.593565 -0.181161 3.832946 -0.895260 0.128941 0.426466
-1.595578 -0.190726 3.830865 -0.905148 0.119724 0.407849
-1.597075 -0.199482 3.829316 -0.914640 0.117985 0.386578
-1.560385 -0.151441 3.887942 -0.847133 0.216437 0.485244
-1.558970 -0.134828 3.882828 -0.841243 0.223548 0.492233
-1.561800 -0.168054 3.892826 -0.852504 0.207648 0.479659
-1.557556 -0.118215 3.877560 -0.834498 0.228919 0.501175
-1.571380 -0.135318 3.860770 -0.860530 0.195898 0.470138
-1.556141 -0.101602 3.872215 -0.826807 0.236000 0.510544
-1.569653 -0.120801 3.857816 -0.850276 0.207038 0.483840
-1.581801 -0.152602 3.847542 -0.877529 0.162542 0.451125
-1.590522 -0.169976 3.836094 -0.886044 0.141026 0.441603
-1.579279 -0.139514 3.847720 -0.867550 0.176183 0.465072
-1.585931 -0.156364 3.840841 -0.876980 0.149388 0.456679
-1.138296 -0.181588 4.221495 -0.336833 0.260079 0.904904
-1.155753 -0.181651 4.214808 -0.356883 0.258370 0.897671
-1.155861 -0.204630 4.220542 -0.363140 0.201453 0.909665
-1.138673 -0.204377 4.227101 -0.341746 0.205573 0.916990
-1.175575 -0.181769 4.206711 -0.374371 0.254921 0.891537
-1.175630 -0.205101 4.212496 -0.381542 0.196844 0.903134
-1.121871 -0.204714 4.233189 -0.323679 0.207343 0.923154
-1.120888 -0.181672 4.227767 -0.320963 0.259041 0.910947
-1.102365 -0.204855 4.239853 -0.313639 0.206000 0.926908
-1.100989 -0.181708 4.234629 -0.313944 0.255409 0.914426
-1.120431 -0.156702 4.219928 -0.318522 0.326212 0.889981
-1.138086 -0.156702 4.213494 -0.331889 0.327677 0.884548
-1.100372 -0.156702 4.226979 -0.312723 0.322398 0.893429
-1.155675 -0.156702 4.206705 -0.349010 0.326731 0.878292
-1.175536 -0.156702 4.198588 -0.364238 0.323832 0.873165
-1.357285 -0.182131 4.117516 -0.510239 0.254738 0.821406
-1.357714 -0.205854 4.124032 -0.506943 0.219855 0.833430
-1.324479 -0.205759 4.142708 -0.459548 0.209326 0.863124
-1.324063 -0.181934 4.136599 -0.462203 0.251045 0.850459
-1.291638 -0.205760 4.159277 -0.433668 0.198798 0.878842
-1.291260 -0.181934 4.153494 -0.433699 0.246712 0.866604
-1.323687 -0.156702 4.128651 -0.459151 0.299875 0.836177
-1.356872 -0.156999 4.109369 -0.508866 0.293893 0.809076
-1.290932 -0.156702 4.145689 -0.427961 0.303903 0.851131
-1.390371 -0.157888 4.086871 -0.571184 0.285043 0.769707
-1.390834 -0.182730 4.095169 -0.571734 0.255043 0.779748
-1.424068 -0.159667 4.060179 -0.639271 0.273049 0.718833
-1.424620 -0.183939 4.068485 -0.639607 0.250160 0.726798
-1.391282 -0.206178 4.102052 -0.569353 0.226356 0.790277
-1.425121 -0.206862 4.075565 -0.638844 0.226081 0.735343
-1.047822 -0.181334 4.252621 -0.310984 0.242561 0.918912
-1.076055 -0.181498 4.243084 -0.312113 0.250008 0.916532
-1.077060 -0.204015 4.248144 -0.309854 0.201361 0.929197
-1.048185 -0.203360 4.257578 -0.308237 0.193457 0.931394
-1.017965 -0.204058 4.267672 -0.307413 0.182897 0.933805
-1.018022 -0.181509 4.262725 -0.310678 0.233070 0.921476
-0.987980 -0.204987 4.277689 -0.306223 0.170904 0.936491
-0.988228 -0.181741 4.272821 -0.311106 0.222724 0.923887
-1.017964 -0.156702 4.255590 -0.311502 0.302683 0.900723
-1.047582 -0.156702 4.245334 -0.311167 0.310404 0.898221
-0.988272 -0.156702 4.265869 -0.312510 0.294290 0.903134
-1.075570 -0.156702 4.235622 -0.311502 0.316996 0.895779
-0.933007 -0.181705 4.291378 -0.309854 0.201727 0.929106
-0.960011 -0.181751 4.282331 -0.311106 0.212317 0.926328
-0.959811 -0.205027 4.286891 -0.304788 0.157720 0.939238
-0.932937 -0.204844 4.295559 -0.303568 0.144139 0.941832
-0.906837 -0.205107 4.303975 -0.301645 0.131840 0.944243
-0.906850 -0.181771 4.300080 -0.307566 0.190954 0.932127
-0.881250 -0.205349 4.312129 -0.298532 0.121372 0.946623
-0.881239 -0.181831 4.308487 -0.304209 0.180578 0.935301
-0.906854 -0.156702 4.293974 -0.311106 0.267739 0.911863
-0.933027 -0.156702 4.284990 -0.312754 0.276955 0.908536
-0.881236 -0.156702 4.302667 -0.308267 0.258065 0.915616
-0.960063 -0.156702 4.275645 -0.313242 0.285745 0.905637
-0.723726 -0.181251 4.355284 -0.259316 0.126286 0.957488
-0.751515 -0.181509 4.347724 -0.265328 0.133793 0.954802
-0.748813 -0.204058 4.350882 -0.259041 0.084658 0.962127
-0.718866 -0.203028 4.358739 -0.254036 0.076510 0.964141
-0.778653 -0.181741 4.340110 -0.274117 0.142033 0.951140
-0.777582 -0.204987 4.343109 -0.268197 0.092227 0.958922
-0.688334 -0.202684 4.366690 -0.251595 0.069033 0.965361
-0.695552 -0.181165 4.362818 -0.255928 0.118992 0.959319
-0.657509 -0.202684 4.374686 -0.250374 0.060060 0.966247
-0.667187 -0.181165 4.370338 -0.254250 0.106479 0.961241
-0.703824 -0.156702 4.356751 -0.260292 0.191443 0.946348
-0.729378 -0.156702 4.349689 -0.264168 0.199042 0.943693
-0.678233 -0.156702 4.363740 -0.258492 0.175115 0.949980
-0.754860 -0.156702 4.342484 -0.270821 0.207068 0.940062
-0.780232 -0.156702 4.335063 -0.280068 0.216163 0.935301
-0.830503 -0.181705 4.324607 -0.292276 0.161077 0.942656
-0.830474 -0.204844 4.327737 -0.286996 0.105686 0.952055
-0.804584 -0.205027 4.335415 -0.278664 0.098941 0.955260
-0.804873 -0.181751 4.332416 -0.283761 0.151280 0.946867
-0.805458 -0.156702 4.327354 -0.289773 0.226447 0.929899
-0.830635 -0.156702 4.319374 -0.297769 0.237312 0.924650
-0.855862 -0.156702 4.311139 -0.303964 0.247932 0.919828
-0.855875 -0.181771 4.316647 -0.299234 0.170782 0.938749
-0.855912 -0.205107 4.320012 -0.293649 0.112949 0.949187
-1.491067 -0.188745 4.001266 -0.741783 0.234504 0.628254
-1.520609 -0.192228 3.965507 -0.780297 0.223426 0.584094
-1.521532 -0.211746 3.971466 -0.783380 0.202612 0.587573
-1.491837 -0.209680 4.007877 -0.743706 0.213630 0.633412
-1.545616 -0.196353 3.931501 -0.821009 0.205969 0.532426
-1.546665 -0.214206 3.936538 -0.825282 0.185369 0.533372
-1.459170 -0.208041 4.043375 -0.698782 0.220954 0.680319
-1.458551 -0.185963 4.036387 -0.698080 0.242592 0.673635
-1.457847 -0.162632 4.028319 -0.697501 0.261177 0.667257
-1.490180 -0.166699 3.993701 -0.740593 0.251167 0.623188
-1.519537 -0.171783 3.958735 -0.778069 0.239448 0.580706
-1.544392 -0.177800 3.925833 -0.817286 0.221656 0.531846
-1.228225 -0.181899 4.183622 -0.402478 0.246895 0.881497
-1.228405 -0.205619 4.189295 -0.408185 0.190893 0.892697
-1.200171 -0.205422 4.201947 -0.395734 0.192969 0.897824
-1.200081 -0.181849 4.196208 -0.388592 0.250740 0.886624
-1.200009 -0.156702 4.188169 -0.377636 0.319315 0.869137
-1.228077 -0.156702 4.175707 -0.392224 0.313730 0.864681
-1.258723 -0.156702 4.161461 -0.408765 0.308237 0.858974
-1.258966 -0.181925 4.169276 -0.417249 0.245033 0.875118
-1.259254 -0.205723 4.174939 -0.420515 0.192328 0.886624
-1.578872 -0.206212 3.874876 -0.897183 0.153569 0.414014
-1.590167 -0.211654 3.850186 -0.919706 0.123692 0.372600
-1.591295 -0.223384 3.851150 -0.924924 0.109256 0.364086
-1.580008 -0.220115 3.877350 -0.902493 0.135807 0.408673
-1.599939 -0.217242 3.826531 -0.927946 0.107395 0.356853
-1.601043 -0.226744 3.825920 -0.932707 0.095462 0.347728
-1.565644 -0.217026 3.905489 -0.867702 0.161901 0.469924
-1.564529 -0.201063 3.901636 -0.862575 0.181494 0.472182
-1.563215 -0.184667 3.897403 -0.857570 0.196417 0.475326
-1.577514 -0.192170 3.872327 -0.891568 0.166784 0.421033
-1.588797 -0.200098 3.849488 -0.913572 0.133305 0.384167
-1.598573 -0.208238 3.827767 -0.922178 0.114994 0.369213
4 0 1 2 3
4 3 2 4 5
4 1 6 7 2
4 2 7 8 4
4 0 3 9 10
4 10 9 11 12
4 3 5 13 9
4 9 13 14 11
4 0 10 15 16
4 16 15 17 18
4 10 12 19 15
4 15 19 20 17
4 0 16 21 1
4 1 21 22 6
4 16 18 23 21
4 21 23 24 22
4 25 26 27 28
4 28 27 29 30
4 26 31 32 27
4 27 32 33 29
4 25 28 34 35
4 35 34 36 37
4 28 30 38 34
4 34 38 39 36
4 25 35 40 41
4 41 40 42 43
4 35 37 44 40
4 40 44 45 42
4 25 41 46 26
4 26 46 47 31
4 41 43 48 46
4 46 48 49 47
4 50 51 52 53
4 53 52 54 55
4 51 56 57 52
4 52 57 58 54
4 50 53 59 60
4 60 59 61 62
4 53 55 63 59
4 59 63 64 61
4 50 60 65 66
4 66 65 67 68
4 60 62 69 65
4 65 69 70 67
4 50 66 71 51
4 51 71 72 56
4 66 68 73 71
4 71 73 74 72
4 75 76 77 78
4 78 77 79 80
4 76 81 82 77
4 77 82 83 79
4 75 78 84 85
4 85 84 86 87
4 78 80 88 84
4 84 88 70 86
4 75 85 89 90
4 90 89 91 92
4 85 87 93 89
4 89 93 94 91
4 75 90 95 76
4 76 95 96 81
4 90 92 97 95
4 95 97 98 96
4 99 100 101 102
4 102 101 103 104
4 100 105 106 101
4 101 106 107 103
4 99 102 108 109
4 109 108 110 111
4 102 104 112 108
4 108 112 113 110
4 99 109 114 115
4 115 114 116 117
4 109 111 118 114
4 114 118 119 116
4 99 115 120 100
4 100 120 121 105
4 115 117 122 120
4 120 122 123 121
4 124 125 126 127
4 127 126 73 68
4 125 128 129 126
4 126 129 74 73
4 124 127 130 131
4 131 130 88 80
4 127 68 67 130
4 130 67 70 88
4 124 131 132 125
4 125 132 133 128
4 131 80 79 132
4 132 79 83 133
4 134 135 136 137
4 137 136 138 139
4 135 140 141 136
4 136 141 142 138
4 134 137 143 144
4 144 143 145 146
4 137 139 147 143
4 143 147 94 145
4 134 144 148 149
4 149 148 150 151
4 144 146 152 148
4 148 152 153 150
4 134 149 154 135
4 135 154 155 140
4 149 151 156 154
4 154 156 157 155
4 158 159 160 161
4 161 160 162 163
4 159 164 165 160
4 160 165 166 162
4 158 161 167 168
4 168 167 169 170
4 161 163 171 167
4 167 171 172 169
4 158 168 173 174
4 174 173 175 176
4 168 170 177 173
4 173 177 178 175
4 158 174 179 159
4 159 179 180 164
4 174 176 181 179
4 179 181 182 180
4 183 184 185 186
4 186 185 187 188
4 184 189 190 185
4 185 190 191 187
4 183 186 192 193
4 193 192 194 195
4 186 188 196 192
4 192 196 197 194
4 183 193 198 199
4 199 198 200 201
4 193 195 202 198
4 198 202 203 200
4 183 199 204 184
4 184 204 205 189
4 199 201 206 204
4 204 206 207 205
4 208 209 210 211
4 211 210 212 213
4 209 214 215 210
4 210 215 216 212
4 208 211 217 218
4 218 217 206 201
4 211 213 219 217
4 217 219 207 206
4 208 218 220 209
4 209 220 221 214
4 218 201 200 220
4 220 200 203 221
4 222 223 224 225
4 225 224 226 227
4 223 228 229 224
4 224 229 230 226
4 222 225 231 232
4 232 231 156 151
4 225 227 233 231
4 231 233 157 156
4 222 232 234 235
4 235 234 236 237
4 232 151 150 234
4 234 150 153 236
4 222 235 238 223
4 223 238 239 228
4 235 237 240 238
4 238 240 197 239
4 241 242 243 244
4 244 243 23 18
4 242 245 246 243
4 243 246 24 23
4 241 244 247 248
4 248 247 249 250
4 244 18 17 247
4 247 17 20 249
4 241 248 251 252
4 252 251 44 37
4 248 250 253 251
4 251 253 45 44
4 241 252 254 242
4 242 254 255 245
4 252 37 36 254
4 254 36 39 255
4 256 257 258 259
4 259 258 260 261
4 257 55 54 258
4 258 54 58 260
4 256 259 262 263
4 263 262 32 31
4 259 261 264 262
4 262 264 33 32
4 256 263 265 266
4 266 265 267 268
4 263 31 47 265
4 265 47 49 267
4 256 266 269 257
4 257 269 63 55
4 266 268 270 269
4 269 270 64 63
4 271 272 273 274
4 274 273 229 228
4 272 275 276 273
4 273 276 230 229
4 271 274 277 278
4 278 277 196 188
4 274 228 239 277
4 277 239 197 196
4 271 278 279 272
4 272 279 280 275
4 278 188 187 279
4 279 187 191 280
4 281 282 283 284
4 284 283 285 286
4 282 139 138 283
4 283 138 142 285
4 281 284 287 288
4 288 287 97 92
4 284 286 289 287
4 287 289 98 97
4 281 288 290 282
4 282 290 147 139
4 288 92 91 290
4 290 91 94 147
4 291 292 293 294
4 294 293 122 117
4 292 295 296 293
4 293 296 123 122
4 291 294 297 298
4 298 297 299 300
4 294 117 116 297
4 297 116 119 299
4 291 298 301 302
4 302 301 303 304
4 298 300 305 301
4 301 305 306 303
4 291 302 307 292
4 292 307 308 295
4 302 304 309 307
4 307 309 310 308
4 311 312 313 314
4 314 313 309 304
4 312 315 316 313
4 313 316 310 309
4 311 314 317 318
4 318 317 319 320
4 314 304 303 317
4 317 303 306 319
4 311 318 321 322
4 322 321 323 324
4 318 320 325 321
4 321 325 326 323
4 311 322 327 312
4 312 327 328 315
4 322 324 329 327
4 327 329 330 328
4 331 332 333 334
4 334 333 335 336
4 332 337 338 333
4 333 338 339 335
4 331 334 340 341
4 341 340 342 343
4 334 336 344 340
4 340 344 345 342
4 331 341 346 347
4 347 346 348 349
4 341 343 350 346
4 346 350 351 348
4 331 347 352 332
4 332 352 353 337
4 347 349 354 352
4 352 354 355 353
4 356 357 358 359
4 359 358 360 361
4 357 336 335 358
4 358 335 339 360
4 356 359 362 363
4 363 362 329 324
4 359 361 364 362
4 362 364 330 329
4 356 363 365 366
4 366 365 367 368
4 363 324 323 365
4 365 323 326 367
4 356 366 369 357
4 357 369 344 336
4 366 368 370 369
4 369 370 345 344
4 371 372 373 374
4 374 373 375 376
4 372 377 378 373
4 373 378 379 375
4 371 374 380 381
4 381 380 382 383
4 374 376 384 380
4 380 384 385 382
4 371 381 386 387
4 387 386 177 170
4 381 383 388 386
4 386 388 178 177
4 371 387 389 372
4 372 389 390 377
4 387 170 169 389
4 389 169 172 390
4 391 392 393 394
4 394 393 395 396
4 392 104 103 393
4 393 103 107 395
4 391 394 397 398
4 398 397 165 164
4 394 396 399 397
4 397 399 166 165
4 391 398 400 401
4 401 400 402 403
4 398 164 180 400
4 400 180 182 402
4 391 401 404 392
4 392 404 112 104
4 401 403 405 404
4 404 405 113 112
4 406 407 408 409
4 409 408 410 411
4 407 412 413 408
4 408 413 414 410
4 406 409 415 416
4 416 415 417 418
4 409 411 419 415
4 415 419 420 417
4 406 416 421 422
4 422 421 384 376
4 416 418 423 421
4 421 423 385 384
4 406 422 424 407
4 407 424 425 412
4 422 376 375 424
4 424 375 379 425
4 426 427 428 429
4 429 428 430 431
4 427 62 61 428
4 428 61 64 430
4 426 429 432 433
4 433 432 106 105
4 429 431 434 432
4 432 434 107 106
4 426 433 435 436
4 436 435 437 438
4 433 105 121 435
4 435 121 123 437
4 426 436 439 427
4 427 439 69 62
4 436 438 440 439
4 439 440 70 69
4 441 442 443 444
4 444 443 48 43
4 442 445 446 443
4 443 446 49 48
4 441 444 447 448
4 448 447 449 450
4 444 43 42 447
4 447 42 45 449
4 441 448 451 452
4 452 451 171 163
4 448 450 453 451
4 451 453 172 171
4 441 452 454 442
4 442 454 455 445
4 452 163 162 454
4 454 162 166 455
4 456 457 458 459
4 459 458 440 438
4 457 87 86 458
4 458 86 70 440
4 456 459 460 461
4 461 460 296 295
4 459 438 437 460
4 460 437 123 296
4 456 461 462 463
4 463 462 464 465
4 461 295 308 462
4 462 308 310 464
4 456 463 466 457
4 457 466 93 87
4 463 465 467 466
4 466 467 94 93
4 468 469 470 471
4 471 470 467 465
4 469 146 145 470
4 470 145 94 467
4 468 471 472 473
4 473 472 316 315
4 471 465 464 472
4 472 464 310 316
4 468 473 474 475
4 475 474 476 477
4 473 315 328 474
4 474 328 330 476
4 468 475 478 469
4 469 478 152 146
4 475 477 479 478
4 478 479 153 152
4 480 481 482 483
4 483 482 484 485
4 481 195 194 482
4 482 194 197 484
4 480 483 486 487
4 487 486 338 337
4 483 485 488 486
4 486 488 339 338
4 480 487 489 490
4 490 489 491 492
4 487 337 353 489
4 489 353 355 491
4 480 490 493 481
4 481 493 202 195
4 490 492 494 493
4 493 494 203 202
4 495 496 497 498
4 498 497 240 237
4 496 485 484 497
4 497 484 197 240
4 495 498 499 500
4 500 499 479 477
4 498 237 236 499
4 499 236 153 479
4 495 500 501 502
4 502 501 364 361
4 500 477 476 501
4 501 476 330 364
4 495 502 503 496
4 496 503 488 485
4 502 361 360 503
4 503 360 339 488
4 504 505 506 507
4 507 506 508 509
4 505 250 249 506
4 506 249 20 508
4 504 507 510 511
4 511 510 378 377
4 507 509 512 510
4 510 512 379 378
4 504 511 513 514
4 514 513 453 450
4 511 377 390 513
4 513 390 172 453
4 504 514 515 505
4 505 515 253 250
4 514 450 449 515
4 515 449 45 253
4 516 517 518 519
4 519 518 270 268
4 517 431 430 518
4 518 430 64 270
4 516 519 520 521
4 521 520 446 445
4 519 268 267 520
4 520 267 49 446
4 516 521 522 523
4 523 522 399 396
4 521 445 455 522
4 522 455 166 399
4 516 523 524 517
4 517 524 434 431
4 523 396 395 524
4 524 395 107 434
4 525 526 527 528
4 528 527 529 530
4 526 12 11 527
4 527 11 14 529
4 525 528 531 532
4 532 531 413 412
4 528 530 533 531
4 531 533 414 413
4 525 532 534 535
4 535 534 512 509
4 532 412 425 534
4 534 425 379 512
4 525 535 536 526
4 526 536 19 12
4 535 509 508 536
4 536 508 20 19
4 537 538 539 540
4 540 539 541 542
4 538 543 544 539
4 539 544 545 541
4 537 540 546 547
4 547 546 548 549
4 540 542 550 546
4 546 550 551 548
4 537 547 552 553
4 553 552 554 555
4 547 549 556 552
4 552 556 557 554
4 537 553 558 538
4 538 558 559 543
4 553 555 560 558
4 558 560 561 559
4 562 563 564 565
4 565 564 566 567
4 563 568 569 564
4 564 569 570 566
4 562 565 571 572
4 572 571 573 574
4 565 567 575 571
4 571 575 576 573
4 562 572 577 578
4 578 577 579 580
4 572 574 581 577
4 577 581 582 579
4 562 578 583 563
4 563 583 584 568
4 578 580 585 583
4 583 585 586 584
4 587 588 589 590
4 590 589 591 592
4 588 593 594 589
4 589 594 595 591
4 587 590 596 597
4 597 596 598 599
4 590 592 600 596
4 596 600 601 598
4 587 597 602 603
4 603 602 604 605
4 597 599 606 602
4 602 606 607 604
4 587 603 608 588
4 588 608 609 593
4 603 605 610 608
4 608 610 611 609
4 612 613 614 615
4 615 614 616 617
4 613 618 619 614
4 614 619 620 616
4 612 615 621 622
4 622 621 623 624
4 615 617 625 621
4 621 625 626 623
4 612 622 627 628
4 628 627 629 630
4 622 624 631 627
4 627 631 632 629
4 612 628 633 613
4 613 633 634 618
4 628 630 635 633
4 633 635 607 634
4 636 637 638 639
4 639 638 640 641
4 637 642 643 638
4 638 643 644 640
4 636 639 645 646
4 646 645 647 648
4 639 641 649 645
4 645 649 650 647
4 636 646 651 652
4 652 651 653 654
4 646 648 655 651
4 651 655 656 653
4 636 652 657 637
4 637 657 658 642
4 652 654 659 657
4 657 659 660 658
4 661 662 663 664
4 664 663 665 666
4 662 599 598 663
4 663 598 601 665
4 661 664 667 668
4 668 667 619 618
4 664 666 669 667
4 667 669 620 619
4 661 668 670 662
4 662 670 606 599
4 668 618 634 670
4 670 634 607 606
4 671 672 673 674
4 674 673 675 676
4 672 677 678 673
4 673 678 679 675
4 671 674 680 681
4 681 680 682 683
4 674 676 684 680
4 680 684 685 682
4 671 681 686 687
4 687 686 688 689
4 681 683 690 686
4 686 690 691 688
4 671 687 692 672
4 672 692 693 677
4 687 689 694 692
4 692 694 632 693
4 695 696 697 698
4 698 697 699 700
4 696 701 702 697
4 697 702 703 699
4 695 698 704 705
4 705 704 706 707
4 698 700 708 704
4 704 708 709 706
4 695 705 710 711
4 711 710 712 713
4 705 707 714 710
4 710 714 715 712
4 695 711 716 696
4 696 716 717 701
4 711 713 718 716
4 716 718 719 717
4 720 721 722 723
4 723 722 724 725
4 721 726 727 722
4 722 727 728 724
4 720 723 729 730
4 730 729 731 732
4 723 725 733 729
4 729 733 734 731
4 720 730 735 736
4 736 735 737 738
4 730 732 739 735
4 735 739 740 737
4 720 736 741 721
4 721 741 742 726
4 736 738 743 741
4 741 743 744 742
4 745 746 747 748
4 748 747 749 750
4 746 751 752 747
4 747 752 753 749
4 745 748 754 755
4 755 754 739 732
4 748 750 756 754
4 754 756 740 739
4 745 755 757 746
4 746 757 758 751
4 755 732 731 757
4 757 731 734 758
4 759 760 761 762
4 762 761 763 764
4 760 765 766 761
4 761 766 767 763
4 759 762 768 769
4 769 768 770 771
4 762 764 772 768
4 768 772 744 770
4 759 769 773 774
4 774 773 690 683
4 769 771 775 773
4 773 775 691 690
4 759 774 776 760
4 760 776 777 765
4 774 683 682 776
4 776 682 685 777
4 778 779 780 781
4 781 780 782 783
4 779 549 548 780
4 780 548 551 782
4 778 781 784 785
4 785 784 585 580
4 781 783 786 784
4 784 786 586 585
4 778 785 787 788
4 788 787 789 790
4 785 580 579 787
4 787 579 582 789
4 778 788 791 779
4 779 791 556 549
4 788 790 792 791
4 791 792 557 556
4 793 794 795 796
4 796 795 594 593
4 794 797 798 795
4 795 798 595 594
4 793 796 799 800
4 800 799 801 802
4 796 593 609 799
4 799 609 611 801
4 793 800 803 804
4 804 803 575 567
4 800 802 805 803
4 803 805 576 575
4 793 804 806 794
4 794 806 807 797
4 804 567 566 806
4 806 566 570 807
4 808 809 810 811
4 811 810 812 813
4 809 764 763 810
4 810 763 767 812
4 808 811 814 815
4 815 814 727 726
4 811 813 816 814
4 814 816 728 727
4 808 815 817 809
4 809 817 772 764
4 815 726 742 817
4 817 742 744 772
4 818 819 820 821
4 821 820 678 677
4 819 822 823 820
4 820 823 679 678
4 818 821 824 825
4 825 824 631 624
4 821 677 693 824
4 824 693 632 631
4 818 825 826 819
4 819 826 827 822
4 825 624 623 826
4 826 623 626 827
4 828 829 830 831
4 831 830 832 833
4 829 648 647 830
4 830 647 650 832
4 828 831 834 835
4 835 834 836 837
4 831 833 838 834
4 834 838 839 836
4 828 835 840 841
4 841 840 842 843
4 835 837 844 840
4 840 844 845 842
4 828 841 846 829
4 829 846 655 648
4 841 843 847 846
4 846 847 656 655
4 848 849 850 851
4 851 850 852 853
4 849 837 836 850
4 850 836 839 852
4 848 851 854 855
4 855 854 856 857
4 851 853 858 854
4 854 858 859 856
4 848 855 860 861
4 861 860 862 863
4 855 857 864 860
4 860 864 865 862
4 848 861 866 849
4 849 866 844 837
4 861 863 867 866
4 866 867 845 844
4 868 869 870 871
4 871 870 872 873
4 869 874 875 870
4 870 875 876 872
4 868 871 877 878
4 878 877 879 880
4 871 873 881 877
4 877 881 882 879
4 868 878 883 884
4 884 883 885 886
4 878 880 887 883
4 883 887 888 885
4 868 884 889 869
4 869 889 890 874
4 884 886 891 889
4 889 891 892 890
4 893 894 895 896
4 896 895 875 874
4 894 897 898 895
4 895 898 876 875
4 893 896 899 900
4 900 899 901 902
4 896 874 890 899
4 899 890 892 901
4 893 900 903 904
4 904 903 864 857
4 900 902 905 903
4 903 905 865 864
4 893 904 906 894
4 894 906 907 897
4 904 857 856 906
4 906 856 859 907
4 908 909 910 911
4 911 910 912 913
4 909 914 915 910
4 910 915 916 912
4 908 911 917 918
4 918 917 718 713
4 911 913 919 917
4 917 919 719 718
4 908 918 920 921
4 921 920 922 923
4 918 713 712 920
4 920 712 715 922
4 908 921 924 909
4 909 924 925 914
4 921 923 926 924
4 924 926 927 925
4 928 929 930 931
4 931 930 643 642
4 929 932 933 930
4 930 933 644 643
4 928 931 934 935
4 935 934 936 937
4 931 642 658 934
4 934 658 660 936
4 928 935 938 939
4 939 938 708 700
4 935 937 940 938
4 938 940 709 708
4 928 939 941 929
4 929 941 942 932
4 939 700 699 941
4 941 699 703 942
4 943 944 945 946
4 946 945 947 948
4 944 949 950 945
4 945 950 951 947
4 943 946 952 953
4 953 952 915 914
4 946 948 954 952
4 952 954 916 915
4 943 953 955 956
4 956 955 957 958
4 953 914 925 955
4 955 925 927 957
4 943 956 959 944
4 944 959 960 949
4 956 958 961 959
4 959 961 962 960
4 963 964 965 966
4 966 965 610 605
4 964 967 968 965
4 965 968 611 610
4 963 966 969 970
4 970 969 971 972
4 966 605 604 969
4 969 604 607 971
4 963 970 973 974
4 974 973 649 641
4 970 972 975 973
4 973 975 650 649
4 963 974 976 964
4 964 976 977 967
4 974 641 640 976
4 976 640 644 977
4 978 979 980 981
4 981 980 982 983
4 979 574 573 980
4 980 573 576 982
4 978 981 984 985
4 985 984 702 701
4 981 983 986 984
4 984 986 703 702
4 978 985 987 988
4 988 987 989 990
4 985 701 717 987
4 987 717 719 989
4 978 988 991 979
4 979 991 581 574
4 988 990 992 991
4 991 992 582 581
4 993 994 995 996
4 996 995 635 630
4 994 972 971 995
4 995 971 607 635
4 993 996 997 998
4 998 997 999 1000
4 996 630 629 997
4 997 629 632 999
4 993 998 1001 1002
4 1002 1001 838 833
4 998 1000 1003 1001
4 1001 1003 839 838
4 993 1002 1004 994
4 994 1004 975 972
4 1002 833 832 1004
4 1004 832 650 975
4 1005 1006 1007 1008
4 1008 1007 694 689
4 1006 1000 999 1007
4 1007 999 632 694
4 1005 1008 1009 1010
4 1010 1009 1011 1012
4 1008 689 688 1009
4 1009 688 691 1011
4 1005 1010 1013 1014
4 1014 1013 858 853
4 1010 1012 1015 1013
4 1013 1015 859 858
4 1005 1014 1016 1006
4 1006 1016 1003 1000
4 1014 853 852 1016
4 1016 852 839 1003
4 1017 1018 1019 1020
4 1020 1019 743 738
4 1018 1021 1022 1019
4 1019 1022 744 743
4 1017 1020 1023 1024
4 1024 1023 1025 1026
4 1020 738 737 1023
4 1023 737 740 1025
4 1017 1024 1027 1028
4 1028 1027 881 873
4 1024 1026 1029 1027
4 1027 1029 882 881
4 1017 1028 1030 1018
4 1018 1030 1031 1021
4 1028 873 872 1030
4 1030 872 876 1031
4 1032 1033 1034 1035
4 1035 1034 1022 1021
4 1033 771 770 1034
4 1034 770 744 1022
4 1032 1035 1036 1037
4 1037 1036 898 897
4 1035 1021 1031 1036
4 1036 1031 876 898
4 1032 1037 1038 1039
4 1039 1038 1015 1012
4 1037 897 907 1038
4 1038 907 859 1015
4 1032 1039 1040 1033
4 1033 1040 775 771
4 1039 1012 1011 1040
4 1040 1011 691 775
4 1041 1042 1043 1044
4 1044 1043 792 790
4 1042 1045 1046 1043
4 1043 1046 557 792
4 1041 1044 1047 1048
4 1048 1047 992 990
4 1044 790 789 1047
4 1047 789 582 992
4 1041 1048 1049 1050
4 1050 1049 919 913
4 1048 990 989 1049
4 1049 989 719 919
4 1041 1050 1051 1042
4 1042 1051 1052 1045
4 1050 913 912 1051
4 1051 912 916 1052
4 1053 1054 1055 1056
4 1056 1055 968 967
4 1054 802 801 1055
4 1055 801 611 968
4 1053 1056 1057 1058
4 1058 1057 933 932
4 1056 967 977 1057
4 1057 977 644 933
4 1053 1058 1059 1060
4 1060 1059 986 983
4 1058 932 942 1059
4 1059 942 703 986
4 1053 1060 1061 1054
4 1054 1061 805 802
4 1060 983 982 1061
4 1061 982 576 805
4 1062 1063 1064 1065
4 1065 1064 560 555
4 1063 1066 1067 1064
4 1064 1067 561 560
4 1062 1065 1068 1069
4 1069 1068 1046 1045
4 1065 555 554 1068
4 1068 554 557 1046
4 1062 1069 1070 1071
4 1071 1070 954 948
4 1069 1045 1052 1070
4 1070 1052 916 954
4 1062 1071 1072 1063
4 1063 1072 1073 1066
4 1071 948 947 1072
4 1072 947 951 1073
