ply
format ascii 1.0
comment Created by Blender 2.79 (sub 0) - www.blender.org, source file: 'm3_v2.blend'
element vertex 960
property float x
property float y
property float z
property float nx
property float ny
property float nz
element face 256
property list uchar uint vertex_indices
end_header
0.860664 -0.158855 4.102110 -0.962639 0.191480 -0.191472
0.861869 -0.152798 4.102110 -0.962639 0.191480 -0.191472
0.862982 -0.152798 4.096514 -0.962639 0.191480 -0.191472
0.861869 -0.158855 4.096053 -0.962639 0.191480 -0.191472
0.870435 -0.173477 4.102110 -0.552207 -0.826440 -0.109839
0.865300 -0.170046 4.102110 -0.552207 -0.826440 -0.109839
0.866152 -0.170046 4.097827 -0.552207 -0.826440 -0.109839
0.870896 -0.173477 4.099792 -0.552207 -0.826440 -0.109839
0.861869 -0.152798 4.102110 -0.820329 0.548122 -0.163166
0.865300 -0.147663 4.102110 -0.820329 0.548122 -0.163166
0.866152 -0.147663 4.097827 -0.820329 0.548122 -0.163166
0.862982 -0.152798 4.096514 -0.820329 0.548122 -0.163166
0.865300 -0.170046 4.102110 -0.820329 -0.548122 -0.163166
0.861869 -0.164912 4.102110 -0.820329 -0.548122 -0.163166
0.862982 -0.164912 4.096514 -0.820329 -0.548122 -0.163166
0.866152 -0.170046 4.097827 -0.820329 -0.548122 -0.163166
0.865300 -0.147663 4.102110 -0.552207 0.826440 -0.109839
0.870435 -0.144232 4.102110 -0.552207 0.826440 -0.109839
0.870896 -0.144232 4.099792 -0.552207 0.826440 -0.109839
0.866152 -0.147663 4.097827 -0.552207 0.826440 -0.109839
0.861869 -0.164912 4.102110 -0.962639 -0.191480 -0.191472
0.860664 -0.158855 4.102110 -0.962639 -0.191480 -0.191472
0.861869 -0.158855 4.096053 -0.962639 -0.191480 -0.191472
0.862982 -0.164912 4.096514 -0.962639 -0.191480 -0.191472
0.870896 -0.173477 4.099792 -0.468142 -0.826440 -0.312793
0.866152 -0.170046 4.097827 -0.468142 -0.826440 -0.312793
0.868578 -0.170046 4.094196 -0.468142 -0.826440 -0.312793
0.872209 -0.173477 4.097827 -0.468142 -0.826440 -0.312793
0.862982 -0.152798 4.096514 -0.695439 0.548133 -0.464667
0.866152 -0.147663 4.097827 -0.695439 0.548133 -0.464667
0.868578 -0.147663 4.094196 -0.695439 0.548133 -0.464667
0.866152 -0.152798 4.091770 -0.695439 0.548133 -0.464667
0.866152 -0.170046 4.097827 -0.695439 -0.548133 -0.464667
0.862982 -0.164912 4.096514 -0.695439 -0.548133 -0.464667
0.866152 -0.164912 4.091770 -0.695439 -0.548133 -0.464667
0.868578 -0.170046 4.094196 -0.695439 -0.548133 -0.464667
0.866152 -0.147663 4.097827 -0.468142 0.826440 -0.312793
0.870896 -0.144232 4.099792 -0.468142 0.826440 -0.312793
0.872209 -0.144232 4.097827 -0.468142 0.826440 -0.312793
0.868578 -0.147663 4.094196 -0.468142 0.826440 -0.312793
0.862982 -0.164912 4.096514 -0.816083 -0.191465 -0.545298
0.861869 -0.158855 4.096053 -0.816083 -0.191465 -0.545298
0.865300 -0.158855 4.090918 -0.816083 -0.191465 -0.545298
0.866152 -0.164912 4.091770 -0.816083 -0.191465 -0.545298
0.861869 -0.158855 4.096053 -0.816083 0.191465 -0.545298
0.862982 -0.152798 4.096514 -0.816083 0.191465 -0.545298
0.866152 -0.152798 4.091770 -0.816083 0.191465 -0.545298
0.865300 -0.158855 4.090918 -0.816083 0.191465 -0.545298
0.872209 -0.173477 4.097827 -0.312814 -0.826442 -0.468125
0.868578 -0.170046 4.094196 -0.312814 -0.826442 -0.468125
0.872209 -0.170046 4.091770 -0.312814 -0.826442 -0.468125
0.874174 -0.173477 4.096514 -0.312814 -0.826442 -0.468125
0.866152 -0.152798 4.091770 -0.464667 0.548112 -0.695456
0.868578 -0.147663 4.094196 -0.464667 0.548112 -0.695456
0.872209 -0.147663 4.091770 -0.464667 0.548112 -0.695456
0.870896 -0.152798 4.088600 -0.464667 0.548112 -0.695456
0.868578 -0.170046 4.094196 -0.464667 -0.548112 -0.695456
0.866152 -0.164912 4.091770 -0.464667 -0.548112 -0.695456
0.870896 -0.164912 4.088600 -0.464667 -0.548112 -0.695456
0.872209 -0.170046 4.091770 -0.464667 -0.548112 -0.695456
0.868578 -0.147663 4.094196 -0.312814 0.826442 -0.468125
0.872209 -0.144232 4.097827 -0.312814 0.826442 -0.468125
0.874174 -0.144232 4.096514 -0.312814 0.826442 -0.468125
0.872209 -0.147663 4.091770 -0.312814 0.826442 -0.468125
0.866152 -0.164912 4.091770 -0.545286 -0.191480 -0.816087
0.865300 -0.158855 4.090918 -0.545286 -0.191480 -0.816087
0.870435 -0.158855 4.087487 -0.545286 -0.191480 -0.816087
0.870896 -0.164912 4.088600 -0.545286 -0.191480 -0.816087
0.865300 -0.158855 4.090918 -0.545286 0.191480 -0.816087
0.866152 -0.152798 4.091770 -0.545286 0.191480 -0.816087
0.870896 -0.152798 4.088600 -0.545286 0.191480 -0.816087
0.870435 -0.158855 4.087487 -0.545286 0.191480 -0.816087
0.874174 -0.173477 4.096514 -0.109779 -0.826443 -0.552215
0.872209 -0.170046 4.091770 -0.109779 -0.826443 -0.552215
0.876492 -0.170046 4.090918 -0.109779 -0.826443 -0.552215
0.876492 -0.173477 4.096053 -0.109779 -0.826443 -0.552215
0.870896 -0.152798 4.088600 -0.163173 0.548122 -0.820327
0.872209 -0.147663 4.091770 -0.163173 0.548122 -0.820327
0.876492 -0.147663 4.090918 -0.163173 0.548122 -0.820327
0.876492 -0.152798 4.087487 -0.163173 0.548122 -0.820327
0.872209 -0.170046 4.091770 -0.163173 -0.548122 -0.820327
0.870896 -0.164912 4.088600 -0.163173 -0.548122 -0.820327
0.876492 -0.164912 4.087487 -0.163173 -0.548122 -0.820327
0.876492 -0.170046 4.090918 -0.163173 -0.548122 -0.820327
0.872209 -0.147663 4.091770 -0.109779 0.826443 -0.552215
0.874174 -0.144232 4.096514 -0.109779 0.826443 -0.552215
0.876492 -0.144232 4.096053 -0.109779 0.826443 -0.552215
0.876492 -0.147663 4.090918 -0.109779 0.826443 -0.552215
0.870896 -0.164912 4.088600 -0.191479 -0.191479 -0.962638
0.870435 -0.158855 4.087487 -0.191479 -0.191479 -0.962638
0.876492 -0.158855 4.086282 -0.191479 -0.191479 -0.962638
0.876492 -0.164912 4.087487 -0.191479 -0.191479 -0.962638
0.870435 -0.158855 4.087487 -0.191479 0.191479 -0.962638
0.870896 -0.152798 4.088600 -0.191479 0.191479 -0.962638
0.876492 -0.152798 4.087487 -0.191479 0.191479 -0.962638
0.876492 -0.158855 4.086282 -0.191479 0.191479 -0.962638
0.876492 -0.173477 4.096053 0.109781 -0.826443 -0.552214
0.876492 -0.170046 4.090918 0.109781 -0.826443 -0.552214
0.880775 -0.170046 4.091770 0.109781 -0.826443 -0.552214
0.878810 -0.173477 4.096514 0.109781 -0.826443 -0.552214
0.876492 -0.152798 4.087487 0.163174 0.548122 -0.820327
0.876492 -0.147663 4.090918 0.163174 0.548122 -0.820327
0.880775 -0.147663 4.091770 0.163174 0.548122 -0.820327
0.882088 -0.152798 4.088600 0.163174 0.548122 -0.820327
0.876492 -0.170046 4.090918 0.163174 -0.548122 -0.820327
0.876492 -0.164912 4.087487 0.163174 -0.548122 -0.820327
0.882088 -0.164912 4.088600 0.163174 -0.548122 -0.820327
0.880775 -0.170046 4.091770 0.163174 -0.548122 -0.820327
0.876492 -0.147663 4.090918 0.109781 0.826443 -0.552214
0.876492 -0.144232 4.096053 0.109781 0.826443 -0.552214
0.878810 -0.144232 4.096514 0.109781 0.826443 -0.552214
0.880775 -0.147663 4.091770 0.109781 0.826443 -0.552214
0.876492 -0.164912 4.087487 0.191481 -0.191479 -0.962638
0.876492 -0.158855 4.086282 0.191481 -0.191479 -0.962638
0.882549 -0.158855 4.087487 0.191481 -0.191479 -0.962638
0.882088 -0.164912 4.088600 0.191481 -0.191479 -0.962638
0.876492 -0.158855 4.086282 0.191481 0.191479 -0.962638
0.876492 -0.152798 4.087487 0.191481 0.191479 -0.962638
0.882088 -0.152798 4.088600 0.191481 0.191479 -0.962638
0.882549 -0.158855 4.087487 0.191481 0.191479 -0.962638
0.878810 -0.173477 4.096514 0.312814 -0.826442 -0.468125
0.880775 -0.170046 4.091770 0.312814 -0.826442 -0.468125
0.884406 -0.170046 4.094196 0.312814 -0.826442 -0.468125
0.880775 -0.173477 4.097827 0.312814 -0.826442 -0.468125
0.882088 -0.152798 4.088600 0.464667 0.548112 -0.695456
0.880775 -0.147663 4.091770 0.464667 0.548112 -0.695456
0.884406 -0.147663 4.094196 0.464667 0.548112 -0.695456
0.886832 -0.152798 4.091770 0.464667 0.548112 -0.695456
0.880775 -0.170046 4.091770 0.464667 -0.548112 -0.695456
0.882088 -0.164912 4.088600 0.464667 -0.548112 -0.695456
0.886832 -0.164912 4.091770 0.464667 -0.548112 -0.695456
0.884406 -0.170046 4.094196 0.464667 -0.548112 -0.695456
0.880775 -0.147663 4.091770 0.312814 0.826442 -0.468125
0.878810 -0.144232 4.096514 0.312814 0.826442 -0.468125
0.880775 -0.144232 4.097827 0.312814 0.826442 -0.468125
0.884406 -0.147663 4.094196 0.312814 0.826442 -0.468125
0.882088 -0.164912 4.088600 0.545286 -0.191480 -0.816087
0.882549 -0.158855 4.087487 0.545286 -0.191480 -0.816087
0.887684 -0.158855 4.090918 0.545286 -0.191480 -0.816087
0.886832 -0.164912 4.091770 0.545286 -0.191480 -0.816087
0.882549 -0.158855 4.087487 0.545286 0.191480 -0.816087
0.882088 -0.152798 4.088600 0.545286 0.191480 -0.816087
0.886832 -0.152798 4.091770 0.545286 0.191480 -0.816087
0.887684 -0.158855 4.090918 0.545286 0.191480 -0.816087
0.880775 -0.173477 4.097827 0.468142 -0.826440 -0.312793
0.884406 -0.170046 4.094196 0.468142 -0.826440 -0.312793
0.886832 -0.170046 4.097827 0.468142 -0.826440 -0.312793
0.882088 -0.173477 4.099792 0.468142 -0.826440 -0.312793
0.886832 -0.152798 4.091770 0.695439 0.548133 -0.464667
0.884406 -0.147663 4.094196 0.695439 0.548133 -0.464667
0.886832 -0.147663 4.097827 0.695439 0.548133 -0.464667
0.890002 -0.152798 4.096514 0.695439 0.548133 -0.464667
0.884406 -0.170046 4.094196 0.695439 -0.548133 -0.464667
0.886832 -0.164912 4.091770 0.695439 -0.548133 -0.464667
0.890002 -0.164912 4.096514 0.695439 -0.548133 -0.464667
0.886832 -0.170046 4.097827 0.695439 -0.548133 -0.464667
0.884406 -0.147663 4.094196 0.468142 0.826440 -0.312793
0.880775 -0.144232 4.097827 0.468142 0.826440 -0.312793
0.882088 -0.144232 4.099792 0.468142 0.826440 -0.312793
0.886832 -0.147663 4.097827 0.468142 0.826440 -0.312793
0.886832 -0.164912 4.091770 0.816098 -0.191445 -0.545282
0.887684 -0.158855 4.090918 0.816098 -0.191445 -0.545282
0.891115 -0.158855 4.096053 0.816098 -0.191445 -0.545282
0.890002 -0.164912 4.096514 0.816098 -0.191445 -0.545282
0.887684 -0.158855 4.090918 0.816098 0.191445 -0.545282
0.886832 -0.152798 4.091770 0.816098 0.191445 -0.545282
0.890002 -0.152798 4.096514 0.816098 0.191445 -0.545282
0.891115 -0.158855 4.096053 0.816098 0.191445 -0.545282
0.882088 -0.173477 4.099792 0.552207 -0.826440 -0.109839
0.886832 -0.170046 4.097827 0.552207 -0.826440 -0.109839
0.887684 -0.170046 4.102110 0.552207 -0.826440 -0.109839
0.882549 -0.173477 4.102110 0.552207 -0.826440 -0.109839
0.890002 -0.152798 4.096514 0.820329 0.548122 -0.163166
0.886832 -0.147663 4.097827 0.820329 0.548122 -0.163166
0.887684 -0.147663 4.102110 0.820329 0.548122 -0.163166
0.891115 -0.152798 4.102110 0.820329 0.548122 -0.163166
0.886832 -0.170046 4.097827 0.820329 -0.548122 -0.163166
0.890002 -0.164912 4.096514 0.820329 -0.548122 -0.163166
0.891115 -0.164912 4.102110 0.820329 -0.548122 -0.163166
0.887684 -0.170046 4.102110 0.820329 -0.548122 -0.163166
0.886832 -0.147663 4.097827 0.552207 0.826440 -0.109839
0.882088 -0.144232 4.099792 0.552207 0.826440 -0.109839
0.882549 -0.144232 4.102110 0.552207 0.826440 -0.109839
0.887684 -0.147663 4.102110 0.552207 0.826440 -0.109839
0.890002 -0.164912 4.096514 0.962639 -0.191472 -0.191480
0.891115 -0.158855 4.096053 0.962639 -0.191472 -0.191480
0.892320 -0.158855 4.102110 0.962639 -0.191472 -0.191480
0.891115 -0.164912 4.102110 0.962639 -0.191472 -0.191480
0.891115 -0.158855 4.096053 0.962639 0.191472 -0.191480
0.890002 -0.152798 4.096514 0.962639 0.191472 -0.191480
0.891115 -0.152798 4.102110 0.962639 0.191472 -0.191480
0.892320 -0.158855 4.102110 0.962639 0.191472 -0.191480
0.882549 -0.173477 4.102110 0.552207 -0.826440 0.109839
0.887684 -0.170046 4.102110 0.552207 -0.826440 0.109839
0.886832 -0.170046 4.106393 0.552207 -0.826440 0.109839
0.882088 -0.173477 4.104428 0.552207 -0.826440 0.109839
0.891115 -0.152798 4.102110 0.820329 0.548122 0.163166
0.887684 -0.147663 4.102110 0.820329 0.548122 0.163166
0.886832 -0.147663 4.106393 0.820329 0.548122 0.163166
0.890002 -0.152798 4.107706 0.820329 0.548122 0.163166
0.887684 -0.170046 4.102110 0.820329 -0.548122 0.163166
0.891115 -0.164912 4.102110 0.820329 -0.548122 0.163166
0.890002 -0.164912 4.107706 0.820329 -0.548122 0.163166
0.886832 -0.170046 4.106393 0.820329 -0.548122 0.163166
0.887684 -0.147663 4.102110 0.552207 0.826440 0.109839
0.882549 -0.144232 4.102110 0.552207 0.826440 0.109839
0.882088 -0.144232 4.104428 0.552207 0.826440 0.109839
0.886832 -0.147663 4.106393 0.552207 0.826440 0.109839
0.891115 -0.164912 4.102110 0.962639 -0.191472 0.191480
0.892320 -0.158855 4.102110 0.962639 -0.191472 0.191480
0.891115 -0.158855 4.108167 0.962639 -0.191472 0.191480
0.890002 -0.164912 4.107706 0.962639 -0.191472 0.191480
0.892320 -0.158855 4.102110 0.962639 0.191472 0.191480
0.891115 -0.152798 4.102110 0.962639 0.191472 0.191480
0.890002 -0.152798 4.107706 0.962639 0.191472 0.191480
0.891115 -0.158855 4.108167 0.962639 0.191472 0.191480
0.882088 -0.173477 4.104428 0.468142 -0.826440 0.312793
0.886832 -0.170046 4.106393 0.468142 -0.826440 0.312793
0.884406 -0.170046 4.110024 0.468142 -0.826440 0.312793
0.880775 -0.173477 4.106393 0.468142 -0.826440 0.312793
0.890002 -0.152798 4.107706 0.695439 0.548133 0.464667
0.886832 -0.147663 4.106393 0.695439 0.548133 0.464667
0.884406 -0.147663 4.110024 0.695439 0.548133 0.464667
0.886832 -0.152798 4.112450 0.695439 0.548133 0.464667
0.886832 -0.170046 4.106393 0.695439 -0.548133 0.464667
0.890002 -0.164912 4.107706 0.695439 -0.548133 0.464667
0.886832 -0.164912 4.112450 0.695439 -0.548133 0.464667
0.884406 -0.170046 4.110024 0.695439 -0.548133 0.464667
0.886832 -0.147663 4.106393 0.468142 0.826440 0.312793
0.882088 -0.144232 4.104428 0.468142 0.826440 0.312793
0.880775 -0.144232 4.106393 0.468142 0.826440 0.312793
0.884406 -0.147663 4.110024 0.468142 0.826440 0.312793
0.890002 -0.164912 4.107706 0.816098 -0.191445 0.545282
0.891115 -0.158855 4.108167 0.816098 -0.191445 0.545282
0.887684 -0.158855 4.113302 0.816098 -0.191445 0.545282
0.886832 -0.164912 4.112450 0.816098 -0.191445 0.545282
0.891115 -0.158855 4.108167 0.816098 0.191445 0.545282
0.890002 -0.152798 4.107706 0.816098 0.191445 0.545282
0.886832 -0.152798 4.112450 0.816098 0.191445 0.545282
0.887684 -0.158855 4.113302 0.816098 0.191445 0.545282
0.880775 -0.173477 4.106393 0.312814 -0.826442 0.468125
0.884406 -0.170046 4.110024 0.312814 -0.826442 0.468125
0.880775 -0.170046 4.112450 0.312814 -0.826442 0.468125
0.878810 -0.173477 4.107706 0.312814 -0.826442 0.468125
0.886832 -0.152798 4.112450 0.464667 0.548112 0.695456
0.884406 -0.147663 4.110024 0.464667 0.548112 0.695456
0.880775 -0.147663 4.112450 0.464667 0.548112 0.695456
0.882088 -0.152798 4.115620 0.464667 0.548112 0.695456
0.884406 -0.170046 4.110024 0.464667 -0.548112 0.695456
0.886832 -0.164912 4.112450 0.464667 -0.548112 0.695456
0.882088 -0.164912 4.115620 0.464667 -0.548112 0.695456
0.880775 -0.170046 4.112450 0.464667 -0.548112 0.695456
0.884406 -0.147663 4.110024 0.312814 0.826442 0.468125
0.880775 -0.144232 4.106393 0.312814 0.826442 0.468125
0.878810 -0.144232 4.107706 0.312814 0.826442 0.468125
0.880775 -0.147663 4.112450 0.312814 0.826442 0.468125
0.886832 -0.164912 4.112450 0.545286 -0.191480 0.816087
0.887684 -0.158855 4.113302 0.545286 -0.191480 0.816087
0.882549 -0.158855 4.116733 0.545286 -0.191480 0.816087
0.882088 -0.164912 4.115620 0.545286 -0.191480 0.816087
0.887684 -0.158855 4.113302 0.545286 0.191480 0.816087
0.886832 -0.152798 4.112450 0.545286 0.191480 0.816087
0.882088 -0.152798 4.115620 0.545286 0.191480 0.816087
0.882549 -0.158855 4.116733 0.545286 0.191480 0.816087
0.878810 -0.173477 4.107706 0.109781 -0.826443 0.552214
0.880775 -0.170046 4.112450 0.109781 -0.826443 0.552214
0.876492 -0.170046 4.113302 0.109781 -0.826443 0.552214
0.876492 -0.173477 4.108167 0.109781 -0.826443 0.552214
0.882088 -0.152798 4.115620 0.163174 0.548122 0.820327
0.880775 -0.147663 4.112450 0.163174 0.548122 0.820327
0.876492 -0.147663 4.113302 0.163174 0.548122 0.820327
0.876492 -0.152798 4.116733 0.163174 0.548122 0.820327
0.880775 -0.170046 4.112450 0.163174 -0.548122 0.820327
0.882088 -0.164912 4.115620 0.163174 -0.548122 0.820327
0.876492 -0.164912 4.116733 0.163174 -0.548122 0.820327
0.876492 -0.170046 4.113302 0.163174 -0.548122 0.820327
0.880775 -0.147663 4.112450 0.109781 0.826443 0.552214
0.878810 -0.144232 4.107706 0.109781 0.826443 0.552214
0.876492 -0.144232 4.108167 0.109781 0.826443 0.552214
0.876492 -0.147663 4.113302 0.109781 0.826443 0.552214
0.882088 -0.164912 4.115620 0.191481 -0.191479 0.962638
0.882549 -0.158855 4.116733 0.191481 -0.191479 0.962638
0.876492 -0.158855 4.117938 0.191481 -0.191479 0.962638
0.876492 -0.164912 4.116733 0.191481 -0.191479 0.962638
0.882549 -0.158855 4.116733 0.191481 0.191479 0.962638
0.882088 -0.152798 4.115620 0.191481 0.191479 0.962638
0.876492 -0.152798 4.116733 0.191481 0.191479 0.962638
0.876492 -0.158855 4.117938 0.191481 0.191479 0.962638
0.876492 -0.173477 4.108167 -0.109779 -0.826443 0.552215
0.876492 -0.170046 4.113302 -0.109779 -0.826443 0.552215
0.872209 -0.170046 4.112450 -0.109779 -0.826443 0.552215
0.874174 -0.173477 4.107706 -0.109779 -0.826443 0.552215
0.876492 -0.152798 4.116733 -0.163173 0.548122 0.820327
0.876492 -0.147663 4.113302 -0.163173 0.548122 0.820327
0.872209 -0.147663 4.112450 -0.163173 0.548122 0.820327
0.870896 -0.152798 4.115620 -0.163173 0.548122 0.820327
0.876492 -0.170046 4.113302 -0.163173 -0.548122 0.820327
0.876492 -0.164912 4.116733 -0.163173 -0.548122 0.820327
0.870896 -0.164912 4.115620 -0.163173 -0.548122 0.820327
0.872209 -0.170046 4.112450 -0.163173 -0.548122 0.820327
0.876492 -0.147663 4.113302 -0.109779 0.826443 0.552215
0.876492 -0.144232 4.108167 -0.109779 0.826443 0.552215
0.874174 -0.144232 4.107706 -0.109779 0.826443 0.552215
0.872209 -0.147663 4.112450 -0.109779 0.826443 0.552215
0.876492 -0.164912 4.116733 -0.191479 -0.191479 0.962638
0.876492 -0.158855 4.117938 -0.191479 -0.191479 0.962638
0.870435 -0.158855 4.116733 -0.191479 -0.191479 0.962638
0.870896 -0.164912 4.115620 -0.191479 -0.191479 0.962638
0.876492 -0.158855 4.117938 -0.191479 0.191479 0.962638
0.876492 -0.152798 4.116733 -0.191479 0.191479 0.962638
0.870896 -0.152798 4.115620 -0.191479 0.191479 0.962638
0.870435 -0.158855 4.116733 -0.191479 0.191479 0.962638
0.874174 -0.173477 4.107706 -0.312814 -0.826442 0.468125
0.872209 -0.170046 4.112450 -0.312814 -0.826442 0.468125
0.868578 -0.170046 4.110024 -0.312814 -0.826442 0.468125
0.872209 -0.173477 4.106393 -0.312814 -0.826442 0.468125
0.870896 -0.152798 4.115620 -0.464667 0.548112 0.695456
0.872209 -0.147663 4.112450 -0.464667 0.548112 0.695456
0.868578 -0.147663 4.110024 -0.464667 0.548112 0.695456
0.866152 -0.152798 4.112450 -0.464667 0.548112 0.695456
0.872209 -0.170046 4.112450 -0.464667 -0.548112 0.695456
0.870896 -0.164912 4.115620 -0.464667 -0.548112 0.695456
0.866152 -0.164912 4.112450 -0.464667 -0.548112 0.695456
0.868578 -0.170046 4.110024 -0.464667 -0.548112 0.695456
0.872209 -0.147663 4.112450 -0.312814 0.826442 0.468125
0.874174 -0.144232 4.107706 -0.312814 0.826442 0.468125
0.872209 -0.144232 4.106393 -0.312814 0.826442 0.468125
0.868578 -0.147663 4.110024 -0.312814 0.826442 0.468125
0.870896 -0.164912 4.115620 -0.545286 -0.191480 0.816087
0.870435 -0.158855 4.116733 -0.545286 -0.191480 0.816087
0.865300 -0.158855 4.113302 -0.545286 -0.191480 0.816087
0.866152 -0.164912 4.112450 -0.545286 -0.191480 0.816087
0.870435 -0.158855 4.116733 -0.545286 0.191480 0.816087
0.870896 -0.152798 4.115620 -0.545286 0.191480 0.816087
0.866152 -0.152798 4.112450 -0.545286 0.191480 0.816087
0.865300 -0.158855 4.113302 -0.545286 0.191480 0.816087
0.872209 -0.173477 4.106393 -0.468142 -0.826440 0.312793
0.868578 -0.170046 4.110024 -0.468142 -0.826440 0.312793
0.866152 -0.170046 4.106393 -0.468142 -0.826440 0.312793
0.870896 -0.173477 4.104428 -0.468142 -0.826440 0.312793
0.866152 -0.152798 4.112450 -0.695439 0.548133 0.464667
0.868578 -0.147663 4.110024 -0.695439 0.548133 0.464667
0.866152 -0.147663 4.106393 -0.695439 0.548133 0.464667
0.862982 -0.152798 4.107706 -0.695439 0.548133 0.464667
0.868578 -0.170046 4.110024 -0.695439 -0.548133 0.464667
0.866152 -0.164912 4.112450 -0.695439 -0.548133 0.464667
0.862982 -0.164912 4.107706 -0.695439 -0.548133 0.464667
0.866152 -0.170046 4.106393 -0.695439 -0.548133 0.464667
0.868578 -0.147663 4.110024 -0.468142 0.826440 0.312793
0.872209 -0.144232 4.106393 -0.468142 0.826440 0.312793
0.870896 -0.144232 4.104428 -0.468142 0.826440 0.312793
0.866152 -0.147663 4.106393 -0.468142 0.826440 0.312793
0.866152 -0.164912 4.112450 -0.816098 -0.191445 0.545282
0.865300 -0.158855 4.113302 -0.816098 -0.191445 0.545282
0.861869 -0.158855 4.108167 -0.816098 -0.191445 0.545282
0.862982 -0.164912 4.107706 -0.816098 -0.191445 0.545282
0.865300 -0.158855 4.113302 -0.816098 0.191445 0.545282
0.866152 -0.152798 4.112450 -0.816098 0.191445 0.545282
0.862982 -0.152798 4.107706 -0.816098 0.191445 0.545282
0.861869 -0.158855 4.108167 -0.816098 0.191445 0.545282
0.876492 -0.174682 4.102110 -0.194944 -0.980048 -0.038775
0.870435 -0.173477 4.102110 -0.194944 -0.980048 -0.038775
0.870896 -0.173477 4.099792 -0.194944 -0.980048 -0.038775
0.870435 -0.144232 4.102110 -0.194944 0.980048 -0.038775
0.876492 -0.143027 4.102110 -0.194944 0.980048 -0.038775
0.870896 -0.144232 4.099792 -0.194944 0.980048 -0.038775
0.876492 -0.174682 4.102110 -0.165266 -0.980048 -0.110425
0.870896 -0.173477 4.099792 -0.165266 -0.980048 -0.110425
0.872209 -0.173477 4.097827 -0.165266 -0.980048 -0.110425
0.870896 -0.144232 4.099792 -0.165266 0.980048 -0.110425
0.876492 -0.143027 4.102110 -0.165266 0.980048 -0.110425
0.872209 -0.144232 4.097827 -0.165266 0.980048 -0.110425
0.876492 -0.174682 4.102110 -0.110437 -0.980048 -0.165255
0.872209 -0.173477 4.097827 -0.110437 -0.980048 -0.165255
0.874174 -0.173477 4.096514 -0.110437 -0.980048 -0.165255
0.872209 -0.144232 4.097827 -0.110437 0.980048 -0.165255
0.876492 -0.143027 4.102110 -0.110437 0.980048 -0.165255
0.874174 -0.144232 4.096514 -0.110437 0.980048 -0.165255
0.876492 -0.174682 4.102110 -0.038741 -0.980047 -0.194951
0.874174 -0.173477 4.096514 -0.038741 -0.980047 -0.194951
0.876492 -0.173477 4.096053 -0.038741 -0.980047 -0.194951
0.874174 -0.144232 4.096514 -0.038741 0.980047 -0.194951
0.876492 -0.143027 4.102110 -0.038741 0.980047 -0.194951
0.876492 -0.144232 4.096053 -0.038741 0.980047 -0.194951
0.876492 -0.174682 4.102110 0.038742 -0.980047 -0.194951
0.876492 -0.173477 4.096053 0.038742 -0.980047 -0.194951
0.878810 -0.173477 4.096514 0.038742 -0.980047 -0.194951
0.876492 -0.144232 4.096053 0.038742 0.980047 -0.194951
0.876492 -0.143027 4.102110 0.038742 0.980047 -0.194951
0.878810 -0.144232 4.096514 0.038742 0.980047 -0.194951
0.876492 -0.174682 4.102110 0.110438 -0.980048 -0.165255
0.878810 -0.173477 4.096514 0.110438 -0.980048 -0.165255
0.880775 -0.173477 4.097827 0.110438 -0.980048 -0.165255
0.878810 -0.144232 4.096514 0.110438 0.980048 -0.165255
0.876492 -0.143027 4.102110 0.110438 0.980048 -0.165255
0.880775 -0.144232 4.097827 0.110438 0.980048 -0.165255
0.876492 -0.174682 4.102110 0.165267 -0.980047 -0.110426
0.880775 -0.173477 4.097827 0.165267 -0.980047 -0.110426
0.882088 -0.173477 4.099792 0.165267 -0.980047 -0.110426
0.880775 -0.144232 4.097827 0.165267 0.980047 -0.110426
0.876492 -0.143027 4.102110 0.165267 0.980047 -0.110426
0.882088 -0.144232 4.099792 0.165267 0.980047 -0.110426
0.876492 -0.174682 4.102110 0.194946 -0.980047 -0.038776
0.882088 -0.173477 4.099792 0.194946 -0.980047 -0.038776
0.882549 -0.173477 4.102110 0.194946 -0.980047 -0.038776
0.882088 -0.144232 4.099792 0.194946 0.980047 -0.038776
0.876492 -0.143027 4.102110 0.194946 0.980047 -0.038776
0.882549 -0.144232 4.102110 0.194946 0.980047 -0.038776
0.876492 -0.174682 4.102110 0.194946 -0.980047 0.038776
0.882549 -0.173477 4.102110 0.194946 -0.980047 0.038776
0.882088 -0.173477 4.104428 0.194946 -0.980047 0.038776
0.882549 -0.144232 4.102110 0.194946 0.980047 0.038776
0.876492 -0.143027 4.102110 0.194946 0.980047 0.038776
0.882088 -0.144232 4.104428 0.194946 0.980047 0.038776
0.876492 -0.174682 4.102110 0.165267 -0.980047 0.110426
0.882088 -0.173477 4.104428 0.165267 -0.980047 0.110426
0.880775 -0.173477 4.106393 0.165267 -0.980047 0.110426
0.882088 -0.144232 4.104428 0.165267 0.980047 0.110426
0.876492 -0.143027 4.102110 0.165267 0.980047 0.110426
0.880775 -0.144232 4.106393 0.165267 0.980047 0.110426
0.876492 -0.174682 4.102110 0.110438 -0.980048 0.165255
0.880775 -0.173477 4.106393 0.110438 -0.980048 0.165255
0.878810 -0.173477 4.107706 0.110438 -0.980048 0.165255
0.880775 -0.144232 4.106393 0.110438 0.980048 0.165255
0.876492 -0.143027 4.102110 0.110438 0.980048 0.165255
0.878810 -0.144232 4.107706 0.110438 0.980048 0.165255
0.876492 -0.174682 4.102110 0.038742 -0.980047 0.194951
0.878810 -0.173477 4.107706 0.038742 -0.980047 0.194951
0.876492 -0.173477 4.108167 0.038742 -0.980047 0.194951
0.878810 -0.144232 4.107706 0.038742 0.980047 0.194951
0.876492 -0.143027 4.102110 0.038742 0.980047 0.194951
0.876492 -0.144232 4.108167 0.038742 0.980047 0.194951
0.876492 -0.174682 4.102110 -0.038741 -0.980047 0.194951
0.876492 -0.173477 4.108167 -0.038741 -0.980047 0.194951
0.874174 -0.173477 4.107706 -0.038741 -0.980047 0.194951
0.876492 -0.144232 4.108167 -0.038741 0.980047 0.194951
0.876492 -0.143027 4.102110 -0.038741 0.980047 0.194951
0.874174 -0.144232 4.107706 -0.038741 0.980047 0.194951
0.876492 -0.174682 4.102110 -0.110437 -0.980048 0.165255
0.874174 -0.173477 4.107706 -0.110437 -0.980048 0.165255
0.872209 -0.173477 4.106393 -0.110437 -0.980048 0.165255
0.874174 -0.144232 4.107706 -0.110437 0.980048 0.165255
0.876492 -0.143027 4.102110 -0.110437 0.980048 0.165255
0.872209 -0.144232 4.106393 -0.110437 0.980048 0.165255
0.876492 -0.174682 4.102110 -0.165266 -0.980048 0.110425
0.872209 -0.173477 4.106393 -0.165266 -0.980048 0.110425
0.870896 -0.173477 4.104428 -0.165266 -0.980048 0.110425
0.872209 -0.144232 4.106393 -0.165266 0.980048 0.110425
0.876492 -0.143027 4.102110 -0.165266 0.980048 0.110425
0.870896 -0.144232 4.104428 -0.165266 0.980048 0.110425
0.870896 -0.173477 4.104428 -0.552207 -0.826440 0.109839
0.866152 -0.170046 4.106393 -0.552207 -0.826440 0.109839
0.865300 -0.170046 4.102110 -0.552207 -0.826440 0.109839
0.870435 -0.173477 4.102110 -0.552207 -0.826440 0.109839
0.862982 -0.152798 4.107706 -0.820329 0.548122 0.163166
0.866152 -0.147663 4.106393 -0.820329 0.548122 0.163166
0.865300 -0.147663 4.102110 -0.820329 0.548122 0.163166
0.861869 -0.152798 4.102110 -0.820329 0.548122 0.163166
0.866152 -0.170046 4.106393 -0.820329 -0.548122 0.163166
0.862982 -0.164912 4.107706 -0.820329 -0.548122 0.163166
0.861869 -0.164912 4.102110 -0.820329 -0.548122 0.163166
0.865300 -0.170046 4.102110 -0.820329 -0.548122 0.163166
0.870435 -0.144232 4.102110 -0.552207 0.826440 0.109839
0.865300 -0.147663 4.102110 -0.552207 0.826440 0.109839
0.866152 -0.147663 4.106393 -0.552207 0.826440 0.109839
0.870896 -0.144232 4.104428 -0.552207 0.826440 0.109839
0.862982 -0.164912 4.107706 -0.962639 -0.191472 0.191480
0.861869 -0.158855 4.108167 -0.962639 -0.191472 0.191480
0.860664 -0.158855 4.102110 -0.962639 -0.191472 0.191480
0.861869 -0.164912 4.102110 -0.962639 -0.191472 0.191480
0.876492 -0.174682 4.102110 -0.194944 -0.980048 0.038775
0.870896 -0.173477 4.104428 -0.194944 -0.980048 0.038775
0.870435 -0.173477 4.102110 -0.194944 -0.980048 0.038775
0.870896 -0.144232 4.104428 -0.194944 0.980048 0.038775
0.876492 -0.143027 4.102110 -0.194944 0.980048 0.038775
0.870435 -0.144232 4.102110 -0.194944 0.980048 0.038775
0.861869 -0.158855 4.108167 -0.962639 0.191472 0.191480
0.862982 -0.152798 4.107706 -0.962639 0.191472 0.191480
0.861869 -0.152798 4.102110 -0.962639 0.191472 0.191480
0.860664 -0.158855 4.102110 -0.962639 0.191472 0.191480
-0.860664 -0.158855 4.102110 0.962639 0.191480 -0.191472
-0.861869 -0.158855 4.096053 0.962639 0.191480 -0.191472
-0.862982 -0.152798 4.096514 0.962639 0.191480 -0.191472
-0.861869 -0.152798 4.102110 0.962639 0.191480 -0.191472
-0.870435 -0.173477 4.102110 0.552207 -0.826440 -0.109839
-0.870896 -0.173477 4.099792 0.552207 -0.826440 -0.109839
-0.866152 -0.170046 4.097827 0.552207 -0.826440 -0.109839
-0.865300 -0.170046 4.102110 0.552207 -0.826440 -0.109839
-0.861869 -0.152798 4.102110 0.820329 0.548122 -0.163166
-0.862982 -0.152798 4.096514 0.820329 0.548122 -0.163166
-0.866152 -0.147663 4.097827 0.820329 0.548122 -0.163166
-0.865300 -0.147663 4.102110 0.820329 0.548122 -0.163166
-0.865300 -0.170046 4.102110 0.820329 -0.548122 -0.163166
-0.866152 -0.170046 4.097827 0.820329 -0.548122 -0.163166
-0.862982 -0.164912 4.096514 0.820329 -0.548122 -0.163166
-0.861869 -0.164912 4.102110 0.820329 -0.548122 -0.163166
-0.865300 -0.147663 4.102110 0.552207 0.826440 -0.109839
-0.866152 -0.147663 4.097827 0.552207 0.826440 -0.109839
-0.870896 -0.144232 4.099792 0.552207 0.826440 -0.109839
-0.870435 -0.144232 4.102110 0.552207 0.826440 -0.109839
-0.861869 -0.164912 4.102110 0.962639 -0.191480 -0.191472
-0.862982 -0.164912 4.096514 0.962639 -0.191480 -0.191472
-0.861869 -0.158855 4.096053 0.962639 -0.191480 -0.191472
-0.860664 -0.158855 4.102110 0.962639 -0.191480 -0.191472
-0.870896 -0.173477 4.099792 0.468142 -0.826440 -0.312793
-0.872209 -0.173477 4.097827 0.468142 -0.826440 -0.312793
-0.868578 -0.170046 4.094196 0.468142 -0.826440 -0.312793
-0.866152 -0.170046 4.097827 0.468142 -0.826440 -0.312793
-0.862982 -0.152798 4.096514 0.695439 0.548133 -0.464667
-0.866152 -0.152798 4.091770 0.695439 0.548133 -0.464667
-0.868578 -0.147663 4.094196 0.695439 0.548133 -0.464667
-0.866152 -0.147663 4.097827 0.695439 0.548133 -0.464667
-0.866152 -0.170046 4.097827 0.695439 -0.548133 -0.464667
-0.868578 -0.170046 4.094196 0.695439 -0.548133 -0.464667
-0.866152 -0.164912 4.091770 0.695439 -0.548133 -0.464667
-0.862982 -0.164912 4.096514 0.695439 -0.548133 -0.464667
-0.866152 -0.147663 4.097827 0.468142 0.826440 -0.312793
-0.868578 -0.147663 4.094196 0.468142 0.826440 -0.312793
-0.872209 -0.144232 4.097827 0.468142 0.826440 -0.312793
-0.870896 -0.144232 4.099792 0.468142 0.826440 -0.312793
-0.862982 -0.164912 4.096514 0.816083 -0.191465 -0.545298
-0.866152 -0.164912 4.091770 0.816083 -0.191465 -0.545298
-0.865300 -0.158855 4.090918 0.816083 -0.191465 -0.545298
-0.861869 -0.158855 4.096053 0.816083 -0.191465 -0.545298
-0.861869 -0.158855 4.096053 0.816083 0.191465 -0.545298
-0.865300 -0.158855 4.090918 0.816083 0.191465 -0.545298
-0.866152 -0.152798 4.091770 0.816083 0.191465 -0.545298
-0.862982 -0.152798 4.096514 0.816083 0.191465 -0.545298
-0.872209 -0.173477 4.097827 0.312814 -0.826442 -0.468125
-0.874174 -0.173477 4.096514 0.312814 -0.826442 -0.468125
-0.872209 -0.170046 4.091770 0.312814 -0.826442 -0.468125
-0.868578 -0.170046 4.094196 0.312814 -0.826442 -0.468125
-0.866152 -0.152798 4.091770 0.464667 0.548112 -0.695456
-0.870896 -0.152798 4.088600 0.464667 0.548112 -0.695456
-0.872209 -0.147663 4.091770 0.464667 0.548112 -0.695456
-0.868578 -0.147663 4.094196 0.464667 0.548112 -0.695456
-0.868578 -0.170046 4.094196 0.464667 -0.548112 -0.695456
-0.872209 -0.170046 4.091770 0.464667 -0.548112 -0.695456
-0.870896 -0.164912 4.088600 0.464667 -0.548112 -0.695456
-0.866152 -0.164912 4.091770 0.464667 -0.548112 -0.695456
-0.868578 -0.147663 4.094196 0.312814 0.826442 -0.468125
-0.872209 -0.147663 4.091770 0.312814 0.826442 -0.468125
-0.874174 -0.144232 4.096514 0.312814 0.826442 -0.468125
-0.872209 -0.144232 4.097827 0.312814 0.826442 -0.468125
-0.866152 -0.164912 4.091770 0.545286 -0.191480 -0.816087
-0.870896 -0.164912 4.088600 0.545286 -0.191480 -0.816087
-0.870435 -0.158855 4.087487 0.545286 -0.191480 -0.816087
-0.865300 -0.158855 4.090918 0.545286 -0.191480 -0.816087
-0.865300 -0.158855 4.090918 0.545286 0.191480 -0.816087
-0.870435 -0.158855 4.087487 0.545286 0.191480 -0.816087
-0.870896 -0.152798 4.088600 0.545286 0.191480 -0.816087
-0.866152 -0.152798 4.091770 0.545286 0.191480 -0.816087
-0.874174 -0.173477 4.096514 0.109779 -0.826443 -0.552215
-0.876492 -0.173477 4.096053 0.109779 -0.826443 -0.552215
-0.876492 -0.170046 4.090918 0.109779 -0.826443 -0.552215
-0.872209 -0.170046 4.091770 0.109779 -0.826443 -0.552215
-0.870896 -0.152798 4.088600 0.163173 0.548122 -0.820327
-0.876492 -0.152798 4.087487 0.163173 0.548122 -0.820327
-0.876492 -0.147663 4.090918 0.163173 0.548122 -0.820327
-0.872209 -0.147663 4.091770 0.163173 0.548122 -0.820327
-0.872209 -0.170046 4.091770 0.163173 -0.548122 -0.820327
-0.876492 -0.170046 4.090918 0.163173 -0.548122 -0.820327
-0.876492 -0.164912 4.087487 0.163173 -0.548122 -0.820327
-0.870896 -0.164912 4.088600 0.163173 -0.548122 -0.820327
-0.872209 -0.147663 4.091770 0.109779 0.826443 -0.552215
-0.876492 -0.147663 4.090918 0.109779 0.826443 -0.552215
-0.876492 -0.144232 4.096053 0.109779 0.826443 -0.552215
-0.874174 -0.144232 4.096514 0.109779 0.826443 -0.552215
-0.870896 -0.164912 4.088600 0.191479 -0.191479 -0.962638
-0.876492 -0.164912 4.087487 0.191479 -0.191479 -0.962638
-0.876492 -0.158855 4.086282 0.191479 -0.191479 -0.962638
-0.870435 -0.158855 4.087487 0.191479 -0.191479 -0.962638
-0.870435 -0.158855 4.087487 0.191479 0.191479 -0.962638
-0.876492 -0.158855 4.086282 0.191479 0.191479 -0.962638
-0.876492 -0.152798 4.087487 0.191479 0.191479 -0.962638
-0.870896 -0.152798 4.088600 0.191479 0.191479 -0.962638
-0.876492 -0.173477 4.096053 -0.109781 -0.826443 -0.552214
-0.878810 -0.173477 4.096514 -0.109781 -0.826443 -0.552214
-0.880775 -0.170046 4.091770 -0.109781 -0.826443 -0.552214
-0.876492 -0.170046 4.090918 -0.109781 -0.826443 -0.552214
-0.876492 -0.152798 4.087487 -0.163174 0.548122 -0.820327
-0.882088 -0.152798 4.088600 -0.163174 0.548122 -0.820327
-0.880775 -0.147663 4.091770 -0.163174 0.548122 -0.820327
-0.876492 -0.147663 4.090918 -0.163174 0.548122 -0.820327
-0.876492 -0.170046 4.090918 -0.163174 -0.548122 -0.820327
-0.880775 -0.170046 4.091770 -0.163174 -0.548122 -0.820327
-0.882088 -0.164912 4.088600 -0.163174 -0.548122 -0.820327
-0.876492 -0.164912 4.087487 -0.163174 -0.548122 -0.820327
-0.876492 -0.147663 4.090918 -0.109781 0.826443 -0.552214
-0.880775 -0.147663 4.091770 -0.109781 0.826443 -0.552214
-0.878810 -0.144232 4.096514 -0.109781 0.826443 -0.552214
-0.876492 -0.144232 4.096053 -0.109781 0.826443 -0.552214
-0.876492 -0.164912 4.087487 -0.191481 -0.191479 -0.962638
-0.882088 -0.164912 4.088600 -0.191481 -0.191479 -0.962638
-0.882549 -0.158855 4.087487 -0.191481 -0.191479 -0.962638
-0.876492 -0.158855 4.086282 -0.191481 -0.191479 -0.962638
-0.876492 -0.158855 4.086282 -0.191481 0.191479 -0.962638
-0.882549 -0.158855 4.087487 -0.191481 0.191479 -0.962638
-0.882088 -0.152798 4.088600 -0.191481 0.191479 -0.962638
-0.876492 -0.152798 4.087487 -0.191481 0.191479 -0.962638
-0.878810 -0.173477 4.096514 -0.312814 -0.826442 -0.468125
-0.880775 -0.173477 4.097827 -0.312814 -0.826442 -0.468125
-0.884406 -0.170046 4.094196 -0.312814 -0.826442 -0.468125
-0.880775 -0.170046 4.091770 -0.312814 -0.826442 -0.468125
-0.882088 -0.152798 4.088600 -0.464667 0.548112 -0.695456
-0.886832 -0.152798 4.091770 -0.464667 0.548112 -0.695456
-0.884406 -0.147663 4.094196 -0.464667 0.548112 -0.695456
-0.880775 -0.147663 4.091770 -0.464667 0.548112 -0.695456
-0.880775 -0.170046 4.091770 -0.464667 -0.548112 -0.695456
-0.884406 -0.170046 4.094196 -0.464667 -0.548112 -0.695456
-0.886832 -0.164912 4.091770 -0.464667 -0.548112 -0.695456
-0.882088 -0.164912 4.088600 -0.464667 -0.548112 -0.695456
-0.880775 -0.147663 4.091770 -0.312814 0.826442 -0.468125
-0.884406 -0.147663 4.094196 -0.312814 0.826442 -0.468125
-0.880775 -0.144232 4.097827 -0.312814 0.826442 -0.468125
-0.878810 -0.144232 4.096514 -0.312814 0.826442 -0.468125
-0.882088 -0.164912 4.088600 -0.545286 -0.191480 -0.816087
-0.886832 -0.164912 4.091770 -0.545286 -0.191480 -0.816087
-0.887684 -0.158855 4.090918 -0.545286 -0.191480 -0.816087
-0.882549 -0.158855 4.087487 -0.545286 -0.191480 -0.816087
-0.882549 -0.158855 4.087487 -0.545286 0.191480 -0.816087
-0.887684 -0.158855 4.090918 -0.545286 0.191480 -0.816087
-0.886832 -0.152798 4.091770 -0.545286 0.191480 -0.816087
-0.882088 -0.152798 4.088600 -0.545286 0.191480 -0.816087
-0.880775 -0.173477 4.097827 -0.468142 -0.826440 -0.312793
-0.882088 -0.173477 4.099792 -0.468142 -0.826440 -0.312793
-0.886832 -0.170046 4.097827 -0.468142 -0.826440 -0.312793
-0.884406 -0.170046 4.094196 -0.468142 -0.826440 -0.312793
-0.886832 -0.152798 4.091770 -0.695439 0.548133 -0.464667
-0.890002 -0.152798 4.096514 -0.695439 0.548133 -0.464667
-0.886832 -0.147663 4.097827 -0.695439 0.548133 -0.464667
-0.884406 -0.147663 4.094196 -0.695439 0.548133 -0.464667
-0.884406 -0.170046 4.094196 -0.695439 -0.548133 -0.464667
-0.886832 -0.170046 4.097827 -0.695439 -0.548133 -0.464667
-0.890002 -0.164912 4.096514 -0.695439 -0.548133 -0.464667
-0.886832 -0.164912 4.091770 -0.695439 -0.548133 -0.464667
-0.884406 -0.147663 4.094196 -0.468142 0.826440 -0.312793
-0.886832 -0.147663 4.097827 -0.468142 0.826440 -0.312793
-0.882088 -0.144232 4.099792 -0.468142 0.826440 -0.312793
-0.880775 -0.144232 4.097827 -0.468142 0.826440 -0.312793
-0.886832 -0.164912 4.091770 -0.816098 -0.191445 -0.545282
-0.890002 -0.164912 4.096514 -0.816098 -0.191445 -0.545282
-0.891115 -0.158855 4.096053 -0.816098 -0.191445 -0.545282
-0.887684 -0.158855 4.090918 -0.816098 -0.191445 -0.545282
-0.887684 -0.158855 4.090918 -0.816098 0.191445 -0.545282
-0.891115 -0.158855 4.096053 -0.816098 0.191445 -0.545282
-0.890002 -0.152798 4.096514 -0.816098 0.191445 -0.545282
-0.886832 -0.152798 4.091770 -0.816098 0.191445 -0.545282
-0.882088 -0.173477 4.099792 -0.552207 -0.826440 -0.109839
-0.882549 -0.173477 4.102110 -0.552207 -0.826440 -0.109839
-0.887684 -0.170046 4.102110 -0.552207 -0.826440 -0.109839
-0.886832 -0.170046 4.097827 -0.552207 -0.826440 -0.109839
-0.890002 -0.152798 4.096514 -0.820329 0.548122 -0.163166
-0.891115 -0.152798 4.102110 -0.820329 0.548122 -0.163166
-0.887684 -0.147663 4.102110 -0.820329 0.548122 -0.163166
-0.886832 -0.147663 4.097827 -0.820329 0.548122 -0.163166
-0.886832 -0.170046 4.097827 -0.820329 -0.548122 -0.163166
-0.887684 -0.170046 4.102110 -0.820329 -0.548122 -0.163166
-0.891115 -0.164912 4.102110 -0.820329 -0.548122 -0.163166
-0.890002 -0.164912 4.096514 -0.820329 -0.548122 -0.163166
-0.886832 -0.147663 4.097827 -0.552207 0.826440 -0.109839
-0.887684 -0.147663 4.102110 -0.552207 0.826440 -0.109839
-0.882549 -0.144232 4.102110 -0.552207 0.826440 -0.109839
-0.882088 -0.144232 4.099792 -0.552207 0.826440 -0.109839
-0.890002 -0.164912 4.096514 -0.962639 -0.191472 -0.191480
-0.891115 -0.164912 4.102110 -0.962639 -0.191472 -0.191480
-0.892320 -0.158855 4.102110 -0.962639 -0.191472 -0.191480
-0.891115 -0.158855 4.096053 -0.962639 -0.191472 -0.191480
-0.891115 -0.158855 4.096053 -0.962639 0.191472 -0.191480
-0.892320 -0.158855 4.102110 -0.962639 0.191472 -0.191480
-0.891115 -0.152798 4.102110 -0.962639 0.191472 -0.191480
-0.890002 -0.152798 4.096514 -0.962639 0.191472 -0.191480
-0.882549 -0.173477 4.102110 -0.552207 -0.826440 0.109839
-0.882088 -0.173477 4.104428 -0.552207 -0.826440 0.109839
-0.886832 -0.170046 4.106393 -0.552207 -0.826440 0.109839
-0.887684 -0.170046 4.102110 -0.552207 -0.826440 0.109839
-0.891115 -0.152798 4.102110 -0.820329 0.548122 0.163166
-0.890002 -0.152798 4.107706 -0.820329 0.548122 0.163166
-0.886832 -0.147663 4.106393 -0.820329 0.548122 0.163166
-0.887684 -0.147663 4.102110 -0.820329 0.548122 0.163166
-0.887684 -0.170046 4.102110 -0.820329 -0.548122 0.163166
-0.886832 -0.170046 4.106393 -0.820329 -0.548122 0.163166
-0.890002 -0.164912 4.107706 -0.820329 -0.548122 0.163166
-0.891115 -0.164912 4.102110 -0.820329 -0.548122 0.163166
-0.887684 -0.147663 4.102110 -0.552207 0.826440 0.109839
-0.886832 -0.147663 4.106393 -0.552207 0.826440 0.109839
-0.882088 -0.144232 4.104428 -0.552207 0.826440 0.109839
-0.882549 -0.144232 4.102110 -0.552207 0.826440 0.109839
-0.891115 -0.164912 4.102110 -0.962639 -0.191472 0.191480
-0.890002 -0.164912 4.107706 -0.962639 -0.191472 0.191480
-0.891115 -0.158855 4.108167 -0.962639 -0.191472 0.191480
-0.892320 -0.158855 4.102110 -0.962639 -0.191472 0.191480
-0.892320 -0.158855 4.102110 -0.962639 0.191472 0.191480
-0.891115 -0.158855 4.108167 -0.962639 0.191472 0.191480
-0.890002 -0.152798 4.107706 -0.962639 0.191472 0.191480
-0.891115 -0.152798 4.102110 -0.962639 0.191472 0.191480
-0.882088 -0.173477 4.104428 -0.468142 -0.826440 0.312793
-0.880775 -0.173477 4.106393 -0.468142 -0.826440 0.312793
-0.884406 -0.170046 4.110024 -0.468142 -0.826440 0.312793
-0.886832 -0.170046 4.106393 -0.468142 -0.826440 0.312793
-0.890002 -0.152798 4.107706 -0.695439 0.548133 0.464667
-0.886832 -0.152798 4.112450 -0.695439 0.548133 0.464667
-0.884406 -0.147663 4.110024 -0.695439 0.548133 0.464667
-0.886832 -0.147663 4.106393 -0.695439 0.548133 0.464667
-0.886832 -0.170046 4.106393 -0.695439 -0.548133 0.464667
-0.884406 -0.170046 4.110024 -0.695439 -0.548133 0.464667
-0.886832 -0.164912 4.112450 -0.695439 -0.548133 0.464667
-0.890002 -0.164912 4.107706 -0.695439 -0.548133 0.464667
-0.886832 -0.147663 4.106393 -0.468142 0.826440 0.312793
-0.884406 -0.147663 4.110024 -0.468142 0.826440 0.312793
-0.880775 -0.144232 4.106393 -0.468142 0.826440 0.312793
-0.882088 -0.144232 4.104428 -0.468142 0.826440 0.312793
-0.890002 -0.164912 4.107706 -0.816098 -0.191445 0.545282
-0.886832 -0.164912 4.112450 -0.816098 -0.191445 0.545282
-0.887684 -0.158855 4.113302 -0.816098 -0.191445 0.545282
-0.891115 -0.158855 4.108167 -0.816098 -0.191445 0.545282
-0.891115 -0.158855 4.108167 -0.816098 0.191445 0.545282
-0.887684 -0.158855 4.113302 -0.816098 0.191445 0.545282
-0.886832 -0.152798 4.112450 -0.816098 0.191445 0.545282
-0.890002 -0.152798 4.107706 -0.816098 0.191445 0.545282
-0.880775 -0.173477 4.106393 -0.312814 -0.826442 0.468125
-0.878810 -0.173477 4.107706 -0.312814 -0.826442 0.468125
-0.880775 -0.170046 4.112450 -0.312814 -0.826442 0.468125
-0.884406 -0.170046 4.110024 -0.312814 -0.826442 0.468125
-0.886832 -0.152798 4.112450 -0.464667 0.548112 0.695456
-0.882088 -0.152798 4.115620 -0.464667 0.548112 0.695456
-0.880775 -0.147663 4.112450 -0.464667 0.548112 0.695456
-0.884406 -0.147663 4.110024 -0.464667 0.548112 0.695456
-0.884406 -0.170046 4.110024 -0.464667 -0.548112 0.695456
-0.880775 -0.170046 4.112450 -0.464667 -0.548112 0.695456
-0.882088 -0.164912 4.115620 -0.464667 -0.548112 0.695456
-0.886832 -0.164912 4.112450 -0.464667 -0.548112 0.695456
-0.884406 -0.147663 4.110024 -0.312814 0.826442 0.468125
-0.880775 -0.147663 4.112450 -0.312814 0.826442 0.468125
-0.878810 -0.144232 4.107706 -0.312814 0.826442 0.468125
-0.880775 -0.144232 4.106393 -0.312814 0.826442 0.468125
-0.886832 -0.164912 4.112450 -0.545286 -0.191480 0.816087
-0.882088 -0.164912 4.115620 -0.545286 -0.191480 0.816087
-0.882549 -0.158855 4.116733 -0.545286 -0.191480 0.816087
-0.887684 -0.158855 4.113302 -0.545286 -0.191480 0.816087
-0.887684 -0.158855 4.113302 -0.545286 0.191480 0.816087
-0.882549 -0.158855 4.116733 -0.545286 0.191480 0.816087
-0.882088 -0.152798 4.115620 -0.545286 0.191480 0.816087
-0.886832 -0.152798 4.112450 -0.545286 0.191480 0.816087
-0.878810 -0.173477 4.107706 -0.109781 -0.826443 0.552214
-0.876492 -0.173477 4.108167 -0.109781 -0.826443 0.552214
-0.876492 -0.170046 4.113302 -0.109781 -0.826443 0.552214
-0.880775 -0.170046 4.112450 -0.109781 -0.826443 0.552214
-0.882088 -0.152798 4.115620 -0.163174 0.548122 0.820327
-0.876492 -0.152798 4.116733 -0.163174 0.548122 0.820327
-0.876492 -0.147663 4.113302 -0.163174 0.548122 0.820327
-0.880775 -0.147663 4.112450 -0.163174 0.548122 0.820327
-0.880775 -0.170046 4.112450 -0.163174 -0.548122 0.820327
-0.876492 -0.170046 4.113302 -0.163174 -0.548122 0.820327
-0.876492 -0.164912 4.116733 -0.163174 -0.548122 0.820327
-0.882088 -0.164912 4.115620 -0.163174 -0.548122 0.820327
-0.880775 -0.147663 4.112450 -0.109781 0.826443 0.552214
-0.876492 -0.147663 4.113302 -0.109781 0.826443 0.552214
-0.876492 -0.144232 4.108167 -0.109781 0.826443 0.552214
-0.878810 -0.144232 4.107706 -0.109781 0.826443 0.552214
-0.882088 -0.164912 4.115620 -0.191481 -0.191479 0.962638
-0.876492 -0.164912 4.116733 -0.191481 -0.191479 0.962638
-0.876492 -0.158855 4.117938 -0.191481 -0.191479 0.962638
-0.882549 -0.158855 4.116733 -0.191481 -0.191479 0.962638
-0.882549 -0.158855 4.116733 -0.191481 0.191479 0.962638
-0.876492 -0.158855 4.117938 -0.191481 0.191479 0.962638
-0.876492 -0.152798 4.116733 -0.191481 0.191479 0.962638
-0.882088 -0.152798 4.115620 -0.191481 0.191479 0.962638
-0.876492 -0.173477 4.108167 0.109779 -0.826443 0.552215
-0.874174 -0.173477 4.107706 0.109779 -0.826443 0.552215
-0.872209 -0.170046 4.112450 0.109779 -0.826443 0.552215
-0.876492 -0.170046 4.113302 0.109779 -0.826443 0.552215
-0.876492 -0.152798 4.116733 0.163173 0.548122 0.820327
-0.870896 -0.152798 4.115620 0.163173 0.548122 0.820327
-0.872209 -0.147663 4.112450 0.163173 0.548122 0.820327
-0.876492 -0.147663 4.113302 0.163173 0.548122 0.820327
-0.876492 -0.170046 4.113302 0.163173 -0.548122 0.820327
-0.872209 -0.170046 4.112450 0.163173 -0.548122 0.820327
-0.870896 -0.164912 4.115620 0.163173 -0.548122 0.820327
-0.876492 -0.164912 4.116733 0.163173 -0.548122 0.820327
-0.876492 -0.147663 4.113302 0.109779 0.826443 0.552215
-0.872209 -0.147663 4.112450 0.109779 0.826443 0.552215
-0.874174 -0.144232 4.107706 0.109779 0.826443 0.552215
-0.876492 -0.144232 4.108167 0.109779 0.826443 0.552215
-0.876492 -0.164912 4.116733 0.191479 -0.191479 0.962638
-0.870896 -0.164912 4.115620 0.191479 -0.191479 0.962638
-0.870435 -0.158855 4.116733 0.191479 -0.191479 0.962638
-0.876492 -0.158855 4.117938 0.191479 -0.191479 0.962638
-0.876492 -0.158855 4.117938 0.191479 0.191479 0.962638
-0.870435 -0.158855 4.116733 0.191479 0.191479 0.962638
-0.870896 -0.152798 4.115620 0.191479 0.191479 0.962638
-0.876492 -0.152798 4.116733 0.191479 0.191479 0.962638
-0.874174 -0.173477 4.107706 0.312814 -0.826442 0.468125
-0.872209 -0.173477 4.106393 0.312814 -0.826442 0.468125
-0.868578 -0.170046 4.110024 0.312814 -0.826442 0.468125
-0.872209 -0.170046 4.112450 0.312814 -0.826442 0.468125
-0.870896 -0.152798 4.115620 0.464667 0.548112 0.695456
-0.866152 -0.152798 4.112450 0.464667 0.548112 0.695456
-0.868578 -0.147663 4.110024 0.464667 0.548112 0.695456
-0.872209 -0.147663 4.112450 0.464667 0.548112 0.695456
-0.872209 -0.170046 4.112450 0.464667 -0.548112 0.695456
-0.868578 -0.170046 4.110024 0.464667 -0.548112 0.695456
-0.866152 -0.164912 4.112450 0.464667 -0.548112 0.695456
-0.870896 -0.164912 4.115620 0.464667 -0.548112 0.695456
-0.872209 -0.147663 4.112450 0.312814 0.826442 0.468125
-0.868578 -0.147663 4.110024 0.312814 0.826442 0.468125
-0.872209 -0.144232 4.106393 0.312814 0.826442 0.468125
-0.874174 -0.144232 4.107706 0.312814 0.826442 0.468125
-0.870896 -0.164912 4.115620 0.545286 -0.191480 0.816087
-0.866152 -0.164912 4.112450 0.545286 -0.191480 0.816087
-0.865300 -0.158855 4.113302 0.545286 -0.191480 0.816087
-0.870435 -0.158855 4.116733 0.545286 -0.191480 0.816087
-0.870435 -0.158855 4.116733 0.545286 0.191480 0.816087
-0.865300 -0.158855 4.113302 0.545286 0.191480 0.816087
-0.866152 -0.152798 4.112450 0.545286 0.191480 0.816087
-0.870896 -0.152798 4.115620 0.545286 0.191480 0.816087
-0.872209 -0.173477 4.106393 0.468142 -0.826440 0.312793
-0.870896 -0.173477 4.104428 0.468142 -0.826440 0.312793
-0.866152 -0.170046 4.106393 0.468142 -0.826440 0.312793
-0.868578 -0.170046 4.110024 0.468142 -0.826440 0.312793
-0.866152 -0.152798 4.112450 0.695439 0.548133 0.464667
-0.862982 -0.152798 4.107706 0.695439 0.548133 0.464667
-0.866152 -0.147663 4.106393 0.695439 0.548133 0.464667
-0.868578 -0.147663 4.110024 0.695439 0.548133 0.464667
-0.868578 -0.170046 4.110024 0.695439 -0.548133 0.464667
-0.866152 -0.170046 4.106393 0.695439 -0.548133 0.464667
-0.862982 -0.164912 4.107706 0.695439 -0.548133 0.464667
-0.866152 -0.164912 4.112450 0.695439 -0.548133 0.464667
-0.868578 -0.147663 4.110024 0.468142 0.826440 0.312793
-0.866152 -0.147663 4.106393 0.468142 0.826440 0.312793
-0.870896 -0.144232 4.104428 0.468142 0.826440 0.312793
-0.872209 -0.144232 4.106393 0.468142 0.826440 0.312793
-0.866152 -0.164912 4.112450 0.816098 -0.191445 0.545282
-0.862982 -0.164912 4.107706 0.816098 -0.191445 0.545282
-0.861869 -0.158855 4.108167 0.816098 -0.191445 0.545282
-0.865300 -0.158855 4.113302 0.816098 -0.191445 0.545282
-0.865300 -0.158855 4.113302 0.816098 0.191445 0.545282
-0.861869 -0.158855 4.108167 0.816098 0.191445 0.545282
-0.862982 -0.152798 4.107706 0.816098 0.191445 0.545282
-0.866152 -0.152798 4.112450 0.816098 0.191445 0.545282
-0.876492 -0.174682 4.102110 0.194944 -0.980048 -0.038775
-0.870896 -0.173477 4.099792 0.194944 -0.980048 -0.038775
-0.870435 -0.173477 4.102110 0.194944 -0.980048 -0.038775
-0.870435 -0.144232 4.102110 0.194944 0.980048 -0.038775
-0.870896 -0.144232 4.099792 0.194944 0.980048 -0.038775
-0.876492 -0.143027 4.102110 0.194944 0.980048 -0.038775
-0.876492 -0.174682 4.102110 0.165266 -0.980048 -0.110425
-0.872209 -0.173477 4.097827 0.165266 -0.980048 -0.110425
-0.870896 -0.173477 4.099792 0.165266 -0.980048 -0.110425
-0.870896 -0.144232 4.099792 0.165266 0.980048 -0.110425
-0.872209 -0.144232 4.097827 0.165266 0.980048 -0.110425
-0.876492 -0.143027 4.102110 0.165266 0.980048 -0.110425
-0.876492 -0.174682 4.102110 0.110437 -0.980048 -0.165255
-0.874174 -0.173477 4.096514 0.110437 -0.980048 -0.165255
-0.872209 -0.173477 4.097827 0.110437 -0.980048 -0.165255
-0.872209 -0.144232 4.097827 0.110437 0.980048 -0.165255
-0.874174 -0.144232 4.096514 0.110437 0.980048 -0.165255
-0.876492 -0.143027 4.102110 0.110437 0.980048 -0.165255
-0.876492 -0.174682 4.102110 0.038741 -0.980047 -0.194951
-0.876492 -0.173477 4.096053 0.038741 -0.980047 -0.194951
-0.874174 -0.173477 4.096514 0.038741 -0.980047 -0.194951
-0.874174 -0.144232 4.096514 0.038741 0.980047 -0.194951
-0.876492 -0.144232 4.096053 0.038741 0.980047 -0.194951
-0.876492 -0.143027 4.102110 0.038741 0.980047 -0.194951
-0.876492 -0.174682 4.102110 -0.038742 -0.980047 -0.194951
-0.878810 -0.173477 4.096514 -0.038742 -0.980047 -0.194951
-0.876492 -0.173477 4.096053 -0.038742 -0.980047 -0.194951
-0.876492 -0.144232 4.096053 -0.038742 0.980047 -0.194951
-0.878810 -0.144232 4.096514 -0.038742 0.980047 -0.194951
-0.876492 -0.143027 4.102110 -0.038742 0.980047 -0.194951
-0.876492 -0.174682 4.102110 -0.110438 -0.980048 -0.165255
-0.880775 -0.173477 4.097827 -0.110438 -0.980048 -0.165255
-0.878810 -0.173477 4.096514 -0.110438 -0.980048 -0.165255
-0.878810 -0.144232 4.096514 -0.110438 0.980048 -0.165255
-0.880775 -0.144232 4.097827 -0.110438 0.980048 -0.165255
-0.876492 -0.143027 4.102110 -0.110438 0.980048 -0.165255
-0.876492 -0.174682 4.102110 -0.165267 -0.980047 -0.110426
-0.882088 -0.173477 4.099792 -0.165267 -0.980047 -0.110426
-0.880775 -0.173477 4.097827 -0.165267 -0.980047 -0.110426
-0.880775 -0.144232 4.097827 -0.165267 0.980047 -0.110426
-0.882088 -0.144232 4.099792 -0.165267 0.980047 -0.110426
-0.876492 -0.143027 4.102110 -0.165267 0.980047 -0.110426
-0.876492 -0.174682 4.102110 -0.194946 -0.980047 -0.038776
-0.882549 -0.173477 4.102110 -0.194946 -0.980047 -0.038776
-0.882088 -0.173477 4.099792 -0.194946 -0.980047 -0.038776
-0.882088 -0.144232 4.099792 -0.194946 0.980047 -0.038776
-0.882549 -0.144232 4.102110 -0.194946 0.980047 -0.038776
-0.876492 -0.143027 4.102110 -0.194946 0.980047 -0.038776
-0.876492 -0.174682 4.102110 -0.194946 -0.980047 0.038776
-0.882088 -0.173477 4.104428 -0.194946 -0.980047 0.038776
-0.882549 -0.173477 4.102110 -0.194946 -0.980047 0.038776
-0.882549 -0.144232 4.102110 -0.194946 0.980047 0.038776
-0.882088 -0.144232 4.104428 -0.194946 0.980047 0.038776
-0.876492 -0.143027 4.102110 -0.194946 0.980047 0.038776
-0.876492 -0.174682 4.102110 -0.165267 -0.980047 0.110426
-0.880775 -0.173477 4.106393 -0.165267 -0.980047 0.110426
-0.882088 -0.173477 4.104428 -0.165267 -0.980047 0.110426
-0.882088 -0.144232 4.104428 -0.165267 0.980047 0.110426
-0.880775 -0.144232 4.106393 -0.165267 0.980047 0.110426
-0.876492 -0.143027 4.102110 -0.165267 0.980047 0.110426
-0.876492 -0.174682 4.102110 -0.110438 -0.980048 0.165255
-0.878810 -0.173477 4.107706 -0.110438 -0.980048 0.165255
-0.880775 -0.173477 4.106393 -0.110438 -0.980048 0.165255
-0.880775 -0.144232 4.106393 -0.110438 0.980048 0.165255
-0.878810 -0.144232 4.107706 -0.110438 0.980048 0.165255
-0.876492 -0.143027 4.102110 -0.110438 0.980048 0.165255
-0.876492 -0.174682 4.102110 -0.038742 -0.980047 0.194951
-0.876492 -0.173477 4.108167 -0.038742 -0.980047 0.194951
-0.878810 -0.173477 4.107706 -0.038742 -0.980047 0.194951
-0.878810 -0.144232 4.107706 -0.038742 0.980047 0.194951
-0.876492 -0.144232 4.108167 -0.038742 0.980047 0.194951
-0.876492 -0.143027 4.102110 -0.038742 0.980047 0.194951
-0.876492 -0.174682 4.102110 0.038741 -0.980047 0.194951
-0.874174 -0.173477 4.107706 0.038741 -0.980047 0.194951
-0.876492 -0.173477 4.108167 0.038741 -0.980047 0.194951
-0.876492 -0.144232 4.108167 0.038741 0.980047 0.194951
-0.874174 -0.144232 4.107706 0.038741 0.980047 0.194951
-0.876492 -0.143027 4.102110 0.038741 0.980047 0.194951
-0.876492 -0.174682 4.102110 0.110437 -0.980048 0.165255
-0.872209 -0.173477 4.106393 0.110437 -0.980048 0.165255
-0.874174 -0.173477 4.107706 0.110437 -0.980048 0.165255
-0.874174 -0.144232 4.107706 0.110437 0.980048 0.165255
-0.872209 -0.144232 4.106393 0.110437 0.980048 0.165255
-0.876492 -0.143027 4.102110 0.110437 0.980048 0.165255
-0.876492 -0.174682 4.102110 0.165266 -0.980048 0.110425
-0.870896 -0.173477 4.104428 0.165266 -0.980048 0.110425
-0.872209 -0.173477 4.106393 0.165266 -0.980048 0.110425
-0.872209 -0.144232 4.106393 0.165266 0.980048 0.110425
-0.870896 -0.144232 4.104428 0.165266 0.980048 0.110425
-0.876492 -0.143027 4.102110 0.165266 0.980048 0.110425
-0.870896 -0.173477 4.104428 0.552207 -0.826440 0.109839
-0.870435 -0.173477 4.102110 0.552207 -0.826440 0.109839
-0.865300 -0.170046 4.102110 0.552207 -0.826440 0.109839
-0.866152 -0.170046 4.106393 0.552207 -0.826440 0.109839
-0.862982 -0.152798 4.107706 0.820329 0.548122 0.163166
-0.861869 -0.152798 4.102110 0.820329 0.548122 0.163166
-0.865300 -0.147663 4.102110 0.820329 0.548122 0.163166
-0.866152 -0.147663 4.106393 0.820329 0.548122 0.163166
-0.866152 -0.170046 4.106393 0.820329 -0.548122 0.163166
-0.865300 -0.170046 4.102110 0.820329 -0.548122 0.163166
-0.861869 -0.164912 4.102110 0.820329 -0.548122 0.163166
-0.862982 -0.164912 4.107706 0.820329 -0.548122 0.163166
-0.866152 -0.147663 4.106393 0.552207 0.826440 0.109839
-0.865300 -0.147663 4.102110 0.552207 0.826440 0.109839
-0.870435 -0.144232 4.102110 0.552207 0.826440 0.109839
-0.870896 -0.144232 4.104428 0.552207 0.826440 0.109839
-0.862982 -0.164912 4.107706 0.962639 -0.191472 0.191480
-0.861869 -0.164912 4.102110 0.962639 -0.191472 0.191480
-0.860664 -0.158855 4.102110 0.962639 -0.191472 0.191480
-0.861869 -0.158855 4.108167 0.962639 -0.191472 0.191480
-0.876492 -0.174682 4.102110 0.194944 -0.980048 0.038775
-0.870435 -0.173477 4.102110 0.194944 -0.980048 0.038775
-0.870896 -0.173477 4.104428 0.194944 -0.980048 0.038775
-0.870896 -0.144232 4.104428 0.194944 0.980048 0.038775
-0.870435 -0.144232 4.102110 0.194944 0.980048 0.038775
-0.876492 -0.143027 4.102110 0.194944 0.980048 0.038775
-0.861869 -0.158855 4.108167 0.962639 0.191472 0.191480
-0.860664 -0.158855 4.102110 0.962639 0.191472 0.191480
-0.861869 -0.152798 4.102110 0.962639 0.191472 0.191480
-0.862982 -0.152798 4.107706 0.962639 0.191472 0.191480
4 0 1 2 3
4 4 5 6 7
4 8 9 10 11
4 12 13 14 15
4 16 17 18 19
4 20 21 22 23
4 24 25 26 27
4 28 29 30 31
4 32 33 34 35
4 36 37 38 39
4 40 41 42 43
4 44 45 46 47
4 48 49 50 51
4 52 53 54 55
4 56 57 58 59
4 60 61 62 63
4 64 65 66 67
4 68 69 70 71
4 72 73 74 75
4 76 77 78 79
4 80 81 82 83
4 84 85 86 87
4 88 89 90 91
4 92 93 94 95
4 96 97 98 99
4 100 101 102 103
4 104 105 106 107
4 108 109 110 111
4 112 113 114 115
4 116 117 118 119
4 120 121 122 123
4 124 125 126 127
4 128 129 130 131
4 132 133 134 135
4 136 137 138 139
4 140 141 142 143
4 144 145 146 147
4 148 149 150 151
4 152 153 154 155
4 156 157 158 159
4 160 161 162 163
4 164 165 166 167
4 168 169 170 171
4 172 173 174 175
4 176 177 178 179
4 180 181 182 183
4 184 185 186 187
4 188 189 190 191
4 192 193 194 195
4 196 197 198 199
4 200 201 202 203
4 204 205 206 207
4 208 209 210 211
4 212 213 214 215
4 216 217 218 219
4 220 221 222 223
4 224 225 226 227
4 228 229 230 231
4 232 233 234 235
4 236 237 238 239
4 240 241 242 243
4 244 245 246 247
4 248 249 250 251
4 252 253 254 255
4 256 257 258 259
4 260 261 262 263
4 264 265 266 267
4 268 269 270 271
4 272 273 274 275
4 276 277 278 279
4 280 281 282 283
4 284 285 286 287
4 288 289 290 291
4 292 293 294 295
4 296 297 298 299
4 300 301 302 303
4 304 305 306 307
4 308 309 310 311
4 312 313 314 315
4 316 317 318 319
4 320 321 322 323
4 324 325 326 327
4 328 329 330 331
4 332 333 334 335
4 336 337 338 339
4 340 341 342 343
4 344 345 346 347
4 348 349 350 351
4 352 353 354 355
4 356 357 358 359
3 360 361 362
3 363 364 365
3 366 367 368
3 369 370 371
3 372 373 374
3 375 376 377
3 378 379 380
3 381 382 383
3 384 385 386
3 387 388 389
3 390 391 392
3 393 394 395
3 396 397 398
3 399 400 401
3 402 403 404
3 405 406 407
3 408 409 410
3 411 412 413
3 414 415 416
3 417 418 419
3 420 421 422
3 423 424 425
3 426 427 428
3 429 430 431
3 432 433 434
3 435 436 437
3 438 439 440
3 441 442 443
3 444 445 446
3 447 448 449
4 450 451 452 453
4 454 455 456 457
4 458 459 460 461
4 462 463 464 465
4 466 467 468 469
3 470 471 472
3 473 474 475
4 476 477 478 479
4 480 481 482 483
4 484 485 486 487
4 488 489 490 491
4 492 493 494 495
4 496 497 498 499
4 500 501 502 503
4 504 505 506 507
4 508 509 510 511
4 512 513 514 515
4 516 517 518 519
4 520 521 522 523
4 524 525 526 527
4 528 529 530 531
4 532 533 534 535
4 536 537 538 539
4 540 541 542 543
4 544 545 546 547
4 548 549 550 551
4 552 553 554 555
4 556 557 558 559
4 560 561 562 563
4 564 565 566 567
4 568 569 570 571
4 572 573 574 575
4 576 577 578 579
4 580 581 582 583
4 584 585 586 587
4 588 589 590 591
4 592 593 594 595
4 596 597 598 599
4 600 601 602 603
4 604 605 606 607
4 608 609 610 611
4 612 613 614 615
4 616 617 618 619
4 620 621 622 623
4 624 625 626 627
4 628 629 630 631
4 632 633 634 635
4 636 637 638 639
4 640 641 642 643
4 644 645 646 647
4 648 649 650 651
4 652 653 654 655
4 656 657 658 659
4 660 661 662 663
4 664 665 666 667
4 668 669 670 671
4 672 673 674 675
4 676 677 678 679
4 680 681 682 683
4 684 685 686 687
4 688 689 690 691
4 692 693 694 695
4 696 697 698 699
4 700 701 702 703
4 704 705 706 707
4 708 709 710 711
4 712 713 714 715
4 716 717 718 719
4 720 721 722 723
4 724 725 726 727
4 728 729 730 731
4 732 733 734 735
4 736 737 738 739
4 740 741 742 743
4 744 745 746 747
4 748 749 750 751
4 752 753 754 755
4 756 757 758 759
4 760 761 762 763
4 764 765 766 767
4 768 769 770 771
4 772 773 774 775
4 776 777 778 779
4 780 781 782 783
4 784 785 786 787
4 788 789 790 791
4 792 793 794 795
4 796 797 798 799
4 800 801 802 803
4 804 805 806 807
4 808 809 810 811
4 812 813 814 815
4 816 817 818 819
4 820 821 822 823
4 824 825 826 827
4 828 829 830 831
4 832 833 834 835
4 836 837 838 839
3 840 841 842
3 843 844 845
3 846 847 848
3 849 850 851
3 852 853 854
3 855 856 857
3 858 859 860
3 861 862 863
3 864 865 866
3 867 868 869
3 870 871 872
3 873 874 875
3 876 877 878
3 879 880 881
3 882 883 884
3 885 886 887
3 888 889 890
3 891 892 893
3 894 895 896
3 897 898 899
3 900 901 902
3 903 904 905
3 906 907 908
3 909 910 911
3 912 913 914
3 915 916 917
3 918 919 920
3 921 922 923
3 924 925 926
3 927 928 929
4 930 931 932 933
4 934 935 936 937
4 938 939 940 941
4 942 943 944 945
4 946 947 948 949
3 950 951 952
3 953 954 955
4 956 957 958 959
