# Blender v2.79 (sub 0) OBJ File: 'm3_v2.blend'
# www.blender.org
o LF_Axle_Mesh.009
v 1.639257 -0.853252 3.187184
v 1.639297 -0.872360 3.183278
v 1.639337 -0.890479 3.176982
v 1.639378 -0.907435 3.168472
v 1.639418 -0.923052 3.157922
v 1.639458 -0.937155 3.145508
v 1.639499 -0.949569 3.131404
v 1.639539 -0.960119 3.115787
v 1.639579 -0.968629 3.098831
v 1.639620 -0.974925 3.080712
v 1.639660 -0.978831 3.061605
v 1.639700 -0.980172 3.041684
v 1.639660 -0.978831 3.021764
v 1.639620 -0.974925 3.002656
v 1.639579 -0.968629 2.984537
v 1.639539 -0.960119 2.967582
v 1.639499 -0.949569 2.951964
v 1.639458 -0.937155 2.937861
v 1.639418 -0.923052 2.925447
v 1.639378 -0.907435 2.914897
v 1.639337 -0.890479 2.906387
v 1.639297 -0.872360 2.900091
v 1.639257 -0.853252 2.896185
v 1.639216 -0.833332 2.894844
v 1.639216 -0.813411 2.896185
v 1.639216 -0.794304 2.900091
v 1.639216 -0.776185 2.906387
v 1.639216 -0.759229 2.914897
v 1.639216 -0.743612 2.925447
v 1.639216 -0.729509 2.937861
v 1.639216 -0.717094 2.951964
v 1.639216 -0.706544 2.967582
v 1.639216 -0.698034 2.984537
v 1.639216 -0.691738 3.002656
v 1.639216 -0.687832 3.021764
v 1.639216 -0.686491 3.041684
v 1.639216 -0.687832 3.061605
v 1.639216 -0.691738 3.080712
v 1.639216 -0.698034 3.098831
v 1.639216 -0.706544 3.115787
v 1.639216 -0.717094 3.131404
v 1.639216 -0.729509 3.145508
v 1.639216 -0.743612 3.157922
v 1.639216 -0.759229 3.168472
v 1.639216 -0.776185 3.176982
v 1.639216 -0.794304 3.183278
v 1.639216 -0.813411 3.187184
v 1.639216 -0.833332 3.188525
v 1.639337 -0.833332 3.041684
v 1.427129 -0.853252 3.187184
v 1.427169 -0.872360 3.183278
v 1.427209 -0.890479 3.176982
v 1.427250 -0.907435 3.168472
v 1.427290 -0.923052 3.157922
v 1.427331 -0.937155 3.145508
v 1.427371 -0.949569 3.131404
v 1.427411 -0.960119 3.115787
v 1.427452 -0.968629 3.098831
v 1.427492 -0.974925 3.080712
v 1.427532 -0.978831 3.061605
v 1.427572 -0.980172 3.041684
v 1.427532 -0.978831 3.021764
v 1.427492 -0.974925 3.002656
v 1.427452 -0.968629 2.984537
v 1.427411 -0.960119 2.967582
v 1.427371 -0.949569 2.951964
v 1.427331 -0.937155 2.937861
v 1.427290 -0.923052 2.925447
v 1.427250 -0.907435 2.914897
v 1.427209 -0.890479 2.906387
v 1.427169 -0.872360 2.900091
v 1.427129 -0.853252 2.896185
v 1.427089 -0.833332 2.894844
v 1.427089 -0.813411 2.896185
v 1.427089 -0.794304 2.900091
v 1.427089 -0.776185 2.906387
v 1.427089 -0.759229 2.914897
v 1.427089 -0.743612 2.925447
v 1.427089 -0.729509 2.937861
v 1.427089 -0.717094 2.951964
v 1.427089 -0.706544 2.967582
v 1.427089 -0.698034 2.984537
v 1.427089 -0.691738 3.002656
v 1.427089 -0.687832 3.021764
v 1.427089 -0.686491 3.041684
v 1.427089 -0.687832 3.061605
v 1.427089 -0.691738 3.080712
v 1.427089 -0.698034 3.098831
v 1.427089 -0.706544 3.115787
v 1.427089 -0.717094 3.131404
v 1.427089 -0.729509 3.145508
v 1.427089 -0.743612 3.157922
v 1.427089 -0.759229 3.168472
v 1.427089 -0.776185 3.176982
v 1.427089 -0.794304 3.183278
v 1.427089 -0.813411 3.187184
v 1.427089 -0.833332 3.188525
v 1.290335 -0.841731 3.103032
v 1.290352 -0.849787 3.101385
v 1.290369 -0.857427 3.098730
v 1.290386 -0.864576 3.095142
v 1.290403 -0.871160 3.090694
v 1.290420 -0.877107 3.085459
v 1.290437 -0.882341 3.079513
v 1.290454 -0.886789 3.072928
v 1.290471 -0.890377 3.065779
v 1.290488 -0.893032 3.058140
v 1.290505 -0.894679 3.050083
v 1.290522 -0.895244 3.041684
v 1.290505 -0.894679 3.033285
v 1.290488 -0.893032 3.025229
v 1.290471 -0.890377 3.017589
v 1.290454 -0.886789 3.010440
v 1.290437 -0.882341 3.003856
v 1.290420 -0.877107 2.997909
v 1.290403 -0.871160 2.992675
v 1.290386 -0.864576 2.988227
v 1.290369 -0.857427 2.984639
v 1.290352 -0.849787 2.981984
v 1.290335 -0.841731 2.980337
v 1.290318 -0.833332 2.979772
v 1.290318 -0.824933 2.980337
v 1.290318 -0.816876 2.981984
v 1.290318 -0.809237 2.984639
v 1.290318 -0.802088 2.988227
v 1.290318 -0.795503 2.992675
v 1.290318 -0.789557 2.997909
v 1.290318 -0.784322 3.003856
v 1.290318 -0.779874 3.010440
v 1.290318 -0.776286 3.017589
v 1.290318 -0.773631 3.025229
v 1.290318 -0.771985 3.033285
v 1.290318 -0.771419 3.041684
v 1.290318 -0.771985 3.050083
v 1.290318 -0.773631 3.058140
v 1.290318 -0.776286 3.065779
v 1.290318 -0.779874 3.072928
v 1.290318 -0.784322 3.079513
v 1.290318 -0.789557 3.085459
v 1.290318 -0.795503 3.090694
v 1.290318 -0.802088 3.095142
v 1.290318 -0.809237 3.098730
v 1.290318 -0.816876 3.101385
v 1.290318 -0.824933 3.103032
v 1.290318 -0.833332 3.103597
v 1.138625 -0.841731 3.103032
v 1.138642 -0.849787 3.101385
v 1.138659 -0.857427 3.098730
v 1.138676 -0.864576 3.095142
v 1.138692 -0.871160 3.090694
v 1.138710 -0.877107 3.085459
v 1.138727 -0.882341 3.079513
v 1.138744 -0.886789 3.072928
v 1.138761 -0.890377 3.065779
v 1.138777 -0.893032 3.058140
v 1.138795 -0.894679 3.050083
v 1.138812 -0.895244 3.041684
v 1.138795 -0.894679 3.033285
v 1.138777 -0.893032 3.025229
v 1.138761 -0.890377 3.017589
v 1.138744 -0.886789 3.010440
v 1.138727 -0.882341 3.003856
v 1.138710 -0.877107 2.997909
v 1.138692 -0.871160 2.992675
v 1.138676 -0.864576 2.988227
v 1.138659 -0.857427 2.984639
v 1.138642 -0.849787 2.981984
v 1.138625 -0.841731 2.980337
v 1.138608 -0.833332 2.979772
v 1.138608 -0.824933 2.980337
v 1.138608 -0.816876 2.981984
v 1.138608 -0.809237 2.984639
v 1.138608 -0.802088 2.988227
v 1.138608 -0.795503 2.992675
v 1.138608 -0.789557 2.997909
v 1.138608 -0.784322 3.003856
v 1.138608 -0.779874 3.010440
v 1.138608 -0.776286 3.017589
v 1.138608 -0.773631 3.025229
v 1.138608 -0.771985 3.033285
v 1.138608 -0.771419 3.041684
v 1.138608 -0.771985 3.050083
v 1.138608 -0.773631 3.058140
v 1.138608 -0.776286 3.065779
v 1.138608 -0.779874 3.072928
v 1.138608 -0.784322 3.079513
v 1.138608 -0.789557 3.085459
v 1.138608 -0.795503 3.090694
v 1.138608 -0.802088 3.095142
v 1.138608 -0.809237 3.098730
v 1.138608 -0.816876 3.101385
v 1.138608 -0.824933 3.103032
v 1.138608 -0.833332 3.103597
v 1.138659 -0.833332 3.041684
vt 0.000000 0.000000
vt 0.000000 0.000000
vt 0.000000 0.000000
vt 0.000000 0.000000
vt 0.000000 0.000000
vt 0.000000 0.000000
vt 0.000000 0.000000
vt 0.000000 0.000000
vt 0.000000 0.000000
vt 0.000000 0.000000
vt 0.000000 0.000000
vt 0.000000 0.000000
vt 0.000000 0.000000
vt 0.000000 0.000000
vt 0.000000 0.000000
vt 0.000000 0.000000
vt 0.000000 0.000000
vt 0.000000 0.000000
vt 0.000000 0.000000
vt 0.000000 0.000000
vt 0.000000 0.000000
vt 0.000000 0.000000
vt 0.000000 0.000000
vt 0.000000 0.000000
vt 0.000000 0.000000
vt 0.000000 0.000000
vt 0.000000 0.000000
vt 0.000000 0.000000
vt 0.000000 0.000000
vt 0.000000 0.000000
vt 0.000000 0.000000
vt 0.000000 0.000000
vt 0.000000 0.000000
vt 0.000000 0.000000
vt 0.000000 0.000000
vt 0.000000 0.000000
vt 0.000000 0.000000
vt 0.000000 0.000000
vt 0.000000 0.000000
vt 0.000000 0.000000
vt 0.000000 0.000000
vt 0.000000 0.000000
vt 0.000000 0.000000
vt 0.000000 0.000000
vt 0.000000 0.000000
vt 0.000000 0.000000
vt 0.000000 0.000000
vt 0.000000 0.000000
vt 0.000000 0.000000
vt 0.000000 0.000000
vt 0.000000 0.000000
vt 0.000000 0.000000
vt 0.000000 0.000000
vt 0.000000 0.000000
vt 0.000000 0.000000
vt 0.000000 0.000000
vt 0.000000 0.000000
vt 0.000000 0.000000
vt 0.000000 0.000000
vt 0.000000 0.000000
vt 0.000000 0.000000
vt 0.000000 0.000000
vt 0.000000 0.000000
vt 0.000000 0.000000
vt 0.000000 0.000000
vt 0.000000 0.000000
vt 0.000000 0.000000
vt 0.000000 0.000000
vt 0.000000 0.000000
vt 0.000000 0.000000
vt 0.000000 0.000000
vt 0.000000 0.000000
vt 0.000000 0.000000
vt 0.000000 0.000000
vt 0.000000 0.000000
vt 0.000000 0.000000
vt 0.000000 0.000000
vt 0.000000 0.000000
vt 0.000000 0.000000
vt 0.000000 0.000000
vt 0.000000 0.000000
vt 0.000000 0.000000
vt 0.000000 0.000000
vt 0.000000 0.000000
vt 0.000000 0.000000
vt 0.000000 0.000000
vt 0.000000 0.000000
vt 0.000000 0.000000
vt 0.000000 0.000000
vt 0.000000 0.000000
vt 0.000000 0.000000
vt 0.000000 0.000000
vt 0.000000 0.000000
vt 0.000000 0.000000
vt 0.000000 0.000000
vt 0.000000 0.000000
vt 0.000000 0.000000
vt 0.000000 0.000000
vt 0.000000 0.000000
vt 0.000000 0.000000
vt 0.000000 0.000000
vt 0.000000 0.000000
vt 0.000000 0.000000
vt 0.000000 0.000000
vt 0.000000 0.000000
vt 0.000000 0.000000
vt 0.000000 0.000000
vt 0.000000 0.000000
vt 0.000000 0.000000
vt 0.000000 0.000000
vt 0.000000 0.000000
vt 0.000000 0.000000
vt 0.000000 0.000000
vt 0.000000 0.000000
vt 0.000000 0.000000
vt 0.000000 0.000000
vt 0.000000 0.000000
vt 0.000000 0.000000
vt 0.000000 0.000000
vt 0.000000 0.000000
vt 0.000000 0.000000
vt 0.000000 0.000000
vt 0.000000 0.000000
vt 0.000000 0.000000
vt 0.000000 0.000000
vt 0.000000 0.000000
vt 0.000000 0.000000
vt 0.000000 0.000000
vt 0.000000 0.000000
vt 0.000000 0.000000
vt 0.000000 0.000000
vt 0.000000 0.000000
vt 0.000000 0.000000
vt 0.000000 0.000000
vt 0.000000 0.000000
vt 0.000000 0.000000
vt 0.000000 0.000000
vt 0.000000 0.000000
vt 0.000000 0.000000
vt 0.000000 0.000000
vt 0.000000 0.000000
vt 0.000000 0.000000
vt 0.000000 0.000000
vt 0.000000 0.000000
vt 0.000000 0.000000
vt 0.000000 0.000000
vt 0.000000 0.000000
vt 0.000000 0.000000
vt 0.000000 0.000000
vt 0.000000 0.000000
vt 0.000000 0.000000
vt 0.000000 0.000000
vt 0.000000 0.000000
vt 0.000000 0.000000
vt 0.000000 0.000000
vt 0.000000 0.000000
vt 0.000000 0.000000
vt 0.000000 0.000000
vt 0.000000 0.000000
vt 0.000000 0.000000
vt 0.000000 0.000000
vt 0.000000 0.000000
vt 0.000000 0.000000
vt 0.000000 0.000000
vt 0.000000 0.000000
vt 0.000000 0.000000
vt 0.000000 0.000000
vt 0.000000 0.000000
vt 0.000000 0.000000
vt 0.000000 0.000000
vt 0.000000 0.000000
vt 0.000000 0.000000
vt 0.000000 0.000000
vt 0.000000 0.000000
vt 0.000000 0.000000
vt 0.000000 0.000000
vt 0.000000 0.000000
vt 0.000000 0.000000
vt 0.000000 0.000000
vt 0.000000 0.000000
vt 0.000000 0.000000
vt 0.000000 0.000000
vt 0.000000 0.000000
vt 0.000000 0.000000
vt 0.000000 0.000000
vt 0.000000 0.000000
vt 0.000000 0.000000
vt 0.000000 0.000000
vt 0.000000 0.000000
vt 0.000000 0.000000
vt 0.000000 0.000000
vt 0.000000 0.000000
vt 0.000000 0.000000
vt 0.000000 0.000000
vn -1.0000 -0.0021 0.0010
vn -1.0000 -0.0007 -0.0005
vn -1.0000 -0.0004 0.0007
vn -1.0000 -0.0024 -0.0016
vn -1.0000 -0.0022 -0.0011
vn -1.0000 -0.0008 0.0003
vn -1.0000 -0.0020 0.0009
vn -1.0000 -0.0003 -0.0008
vn -1.0000 -0.0020 -0.0008
vn -1.0000 -0.0008 0.0002
vn -1.0000 -0.0020 0.0008
vn -1.0000 -0.0025 -0.0019
vn -1.0000 -0.0007 -0.0004
vn -1.0000 -0.0001 0.0008
vn -1.0000 -0.0024 0.0014
vn -1.0000 -0.0007 0.0005
vn -1.0000 -0.0021 0.0009
vn -1.0000 -0.0008 -0.0001
vn -1.0000 -0.0001 -0.0008
vn -1.0000 -0.0019 -0.0008
vn -1.0000 -0.0005 -0.0007
vn -1.0000 -0.0002 0.0008
vn -1.0000 -0.0024 -0.0014
vn -1.0000 -0.0021 -0.0009
vn -1.0000 -0.0006 0.0005
vn -1.0000 -0.0004 -0.0007
vn -1.0000 -0.0020 -0.0009
vn -1.0000 -0.0008 0.0001
vn -1.0000 -0.0025 0.0019
vn -1.0000 -0.0008 -0.0003
vn -1.0000 -0.0003 0.0008
vn -1.0000 -0.0024 0.0016
vn -1.0000 -0.0002 -0.0008
vn -1.0000 -0.0022 0.0011
vn -1.0000 -0.0006 -0.0005
vn -1.0000 -0.0006 -0.0006
vn -1.0000 -0.0019 0.0008
vn -1.0000 -0.0023 -0.0012
vn 1.0000 0.0020 0.0008
vn -1.0000 -0.0006 0.0006
vn -1.0000 -0.0021 -0.0010
vn -1.0000 -0.0007 0.0004
vn -1.0000 -0.0023 0.0012
vn -1.0000 -0.0008 -0.0002
vn -1.0000 -0.0005 0.0007
vn 0.5266 0.2801 0.8026
vn 0.5267 -0.8482 0.0571
vn 0.5265 0.4769 -0.7039
vn 0.5268 -0.3813 -0.7597
vn 0.5266 0.3824 0.7593
vn 0.5267 -0.6381 0.5616
vn 0.5263 0.5626 -0.6375
vn 0.5262 0.8036 -0.2781
vn 0.5267 -0.1703 0.8328
vn 0.5268 -0.4758 -0.7044
vn 0.5267 0.1713 -0.8326
vn 0.5267 -0.0571 -0.8482
vn 0.5266 -0.8482 -0.0571
vn 0.5264 0.5626 0.6375
vn 0.5267 -0.7044 0.4758
vn 0.5262 0.8036 0.2781
vn 0.5267 -0.0571 0.8482
vn 0.5268 -0.7597 -0.3813
vn 0.5259 0.8487 -0.0560
vn 0.5266 0.0582 0.8481
vn 0.5267 -0.8328 0.1702
vn 0.5266 0.3824 -0.7593
vn 0.5268 -0.2790 -0.8029
vn 0.5265 0.4769 0.7039
vn 0.5268 -0.8029 0.2790
vn 0.5263 0.7052 -0.4751
vn 0.5261 0.8334 -0.1693
vn 0.5268 -0.3813 0.7597
vn 0.5267 -0.7044 -0.4758
vn 0.5263 0.6390 0.5610
vn 0.5268 -0.4758 0.7044
vn 0.5267 -0.8328 -0.1702
vn 0.5262 0.7605 0.3804
vn 0.5268 -0.7597 0.3813
vn 0.5263 0.6390 -0.5610
vn 0.5267 -0.5616 0.6381
vn -0.5266 -0.0582 0.8481
vn 0.5262 0.7605 -0.3805
vn 0.5266 0.1713 0.8326
vn 0.5267 -0.5616 -0.6381
vn 0.5266 0.2801 -0.8026
vn 0.5267 -0.6381 -0.5616
vn 0.5263 0.7052 0.4751
vn 0.5267 -0.1702 -0.8328
vn 0.5261 0.8334 0.1693
vn 0.5268 -0.2790 0.8029
vn 0.5268 -0.8029 -0.2790
vn 0.5259 0.8487 0.0561
vn 0.0000 0.9977 -0.0672
vn 0.0000 -0.8937 -0.4486
vn 0.0000 -0.0672 0.9977
vn -0.0000 0.9446 0.3282
vn 0.0000 -0.8286 0.5598
vn -0.0000 0.6607 0.7506
vn 0.0000 -0.9977 -0.0672
vn 0.0000 -0.0672 -0.9977
vn 0.0000 0.2003 -0.9797
vn 0.0000 -0.5598 -0.8286
vn 0.0000 -0.2003 0.9797
vn 0.0000 0.9446 -0.3282
vn 0.0000 0.6607 -0.7506
vn 0.0000 -0.7506 0.6607
vn 0.0000 0.4486 0.8937
vn 0.0000 -0.4486 -0.8937
vn 0.0000 0.5598 -0.8286
vn 0.0000 -0.9977 0.0672
vn 0.0000 0.3282 0.9446
vn 0.0000 0.9977 0.0672
vn 0.0000 -0.9446 -0.3282
vn 0.0000 -0.3282 0.9446
vn 0.0000 0.9797 0.2003
vn 0.0000 -0.2003 -0.9797
vn 0.0000 0.8286 0.5598
vn 0.0000 -0.7506 -0.6607
vn 0.0000 0.3282 -0.9446
vn 0.0000 -0.6607 -0.7506
vn 0.0000 0.2003 0.9797
vn 0.0000 0.8937 -0.4486
vn 0.0000 -0.6607 0.7506
vn 0.0000 0.7506 -0.6607
vn 0.0000 -0.8937 0.4486
vn 0.0000 0.8937 0.4486
vn 0.0000 -0.9797 -0.2003
vn 0.0000 -0.5598 0.8286
vn 0.0000 0.7506 0.6607
vn 0.0000 -0.8286 -0.5598
vn 0.0000 -0.4486 0.8937
vn 0.0000 0.9797 -0.2003
vn 0.0000 0.8286 -0.5598
vn 0.0000 -0.9446 0.3282
vn 0.0000 0.5598 0.8286
vn 0.0000 -0.3282 -0.9446
vn 0.0000 0.4486 -0.8937
vn 0.0000 -0.9797 0.2003
vn 0.0000 0.0672 0.9977
vn 1.0000 0.0022 -0.0010
vn 1.0000 0.0007 0.0005
vn 1.0000 0.0004 -0.0007
vn 1.0000 0.0024 0.0016
vn 1.0000 0.0022 0.0011
vn 1.0000 0.0008 -0.0003
vn 1.0000 0.0020 -0.0008
vn 1.0000 0.0003 0.0008
vn 1.0000 0.0008 -0.0002
vn 1.0000 0.0025 0.0019
vn 1.0000 0.0007 0.0004
vn 1.0000 0.0001 -0.0008
vn 1.0000 0.0024 -0.0014
vn 1.0000 0.0007 -0.0005
vn 1.0000 0.0021 -0.0009
vn 1.0000 0.0008 0.0001
vn 1.0000 0.0001 0.0008
vn 1.0000 0.0005 0.0007
vn 1.0000 0.0002 -0.0008
vn 1.0000 0.0024 0.0014
vn 1.0000 0.0021 0.0009
vn 1.0000 0.0006 -0.0005
vn 1.0000 0.0004 0.0007
vn 1.0000 0.0008 -0.0001
vn 1.0000 0.0019 -0.0008
vn 1.0000 0.0025 -0.0019
vn 1.0000 0.0008 0.0003
vn 1.0000 0.0003 -0.0008
vn 1.0000 0.0024 -0.0016
vn 1.0000 0.0002 0.0008
vn 1.0000 0.0022 -0.0011
vn 1.0000 0.0006 0.0005
vn 1.0000 0.0019 0.0008
vn 1.0000 0.0005 0.0006
vn 1.0000 0.0023 0.0012
vn 1.0000 0.0005 -0.0006
vn 1.0000 0.0022 0.0010
vn 1.0000 0.0007 -0.0004
vn 1.0000 0.0023 -0.0012
vn 1.0000 0.0008 0.0002
vn 1.0000 0.0005 -0.0007
vn 0.5267 -0.8481 0.0571
vn 0.5264 0.5626 -0.6375
vn 0.5267 -0.1702 0.8328
vn 0.5266 0.1713 -0.8326
vn 0.5267 -0.8481 -0.0571
vn 0.5259 0.8487 -0.0561
vn 0.5266 0.0581 0.8481
vn 0.5268 -0.7044 -0.4758
vn 0.5268 -0.8328 -0.1702
vn 0.5263 0.7605 0.3805
vn -0.5266 -0.0581 0.8481
vn 0.5262 0.7605 -0.3804
vn 0.5267 0.1713 0.8326
vn 0.5267 -0.1703 -0.8328
vn 0.5259 0.8487 0.0560
s off
f 17/1/1 49/2/1 18/3/1
f 40/4/2 49/2/2 41/5/2
f 27/6/3 49/2/3 28/7/3
f 10/8/4 49/2/4 11/9/4
f 7/10/5 49/2/5 8/11/5
f 33/12/6 49/2/6 34/13/6
f 19/14/7 49/2/7 20/15/7
f 45/16/8 49/2/8 46/17/8
f 3/18/9 49/2/9 4/19/9
f 34/13/10 49/2/10 35/20/10
f 23/21/11 49/2/11 24/22/11
f 11/9/12 49/2/12 12/23/12
f 39/24/13 49/2/13 40/4/13
f 24/22/14 49/2/14 25/25/14
f 14/26/15 49/2/15 15/27/15
f 31/28/16 49/2/16 32/29/16
f 18/3/17 49/2/17 19/14/17
f 36/30/18 49/2/18 37/31/18
f 47/32/19 49/2/19 48/33/19
f 1/34/20 49/2/20 2/35/20
f 43/36/21 49/2/21 44/37/21
f 25/25/22 49/2/22 26/38/22
f 9/39/23 49/2/23 10/8/23
f 5/40/24 49/2/24 6/41/24
f 30/42/25 49/2/25 31/28/25
f 20/15/11 49/2/11 21/43/11
f 44/37/26 49/2/26 45/16/26
f 4/19/27 49/2/27 5/40/27
f 35/20/28 49/2/28 36/30/28
f 21/43/11 49/2/11 22/44/11
f 12/23/29 49/2/29 13/45/29
f 38/46/30 49/2/30 39/24/30
f 26/38/31 49/2/31 27/6/31
f 13/45/32 49/2/32 14/26/32
f 46/17/33 49/2/33 47/32/33
f 16/47/34 49/2/34 17/1/34
f 41/5/35 49/2/35 42/48/35
f 2/35/9 49/2/9 3/18/9
f 42/48/36 49/2/36 43/36/36
f 22/44/37 49/2/37 23/21/37
f 8/11/38 49/2/38 9/39/38
f 1/34/39 49/2/39 48/33/39
f 29/49/40 49/2/40 30/42/40
f 6/41/41 49/2/41 7/10/41
f 32/29/42 49/2/42 33/12/42
f 15/27/43 49/2/43 16/47/43
f 37/31/44 49/2/44 38/46/44
f 28/7/45 49/2/45 29/49/45
f 71/50/46 118/51/46 70/52/46
f 85/53/47 132/54/47 84/55/47
f 53/56/48 102/57/48 101/58/48
f 93/59/49 142/60/49 141/61/49
f 70/52/50 117/62/50 69/63/50
f 79/64/51 128/65/51 127/66/51
f 54/67/52 103/68/52 102/57/52
f 58/69/53 107/70/53 106/71/53
f 74/72/54 123/73/54 122/74/54
f 92/75/55 141/61/55 140/76/55
f 50/77/56 99/78/56 98/79/56
f 97/80/57 144/81/57 96/82/57
f 85/53/58 134/83/58 133/84/58
f 68/85/59 115/86/59 67/87/59
f 80/88/60 129/89/60 128/65/60
f 64/90/61 111/91/61 63/92/61
f 73/93/62 122/74/62 121/94/62
f 89/95/63 136/96/63 88/97/63
f 60/98/64 109/99/64 108/100/64
f 73/93/65 120/101/65 72/102/65
f 84/55/66 131/103/66 83/104/66
f 52/105/67 101/58/67 100/106/67
f 94/107/68 143/108/68 142/60/68
f 69/63/69 116/109/69 68/85/69
f 82/110/70 131/103/70 130/111/70
f 56/112/71 105/113/71 104/114/71
f 59/115/72 108/100/72 107/70/72
f 77/116/73 124/117/73 76/118/73
f 90/119/74 137/120/74 89/95/74
f 67/87/75 114/121/75 66/122/75
f 78/123/76 125/124/76 77/116/76
f 86/125/77 135/126/77 134/83/77
f 65/127/78 112/128/78 64/90/78
f 81/129/79 130/111/79 129/89/79
f 55/130/80 104/114/80 103/68/80
f 79/64/81 126/131/81 78/123/81
f 97/80/82 98/79/82 50/77/82
f 57/132/83 106/71/83 105/113/83
f 72/102/84 119/133/84 71/50/84
f 91/134/85 140/76/85 139/135/85
f 51/136/86 100/106/86 99/78/86
f 91/134/87 138/137/87 90/119/87
f 66/122/88 113/138/88 65/127/88
f 96/82/89 143/108/89 95/139/89
f 63/92/90 110/140/90 62/141/90
f 76/118/91 123/73/91 75/142/91
f 88/97/92 135/126/92 87/143/92
f 62/141/93 109/99/93 61/144/93
f 11/9/94 61/144/94 60/98/94
f 40/4/95 88/97/95 39/24/95
f 25/25/96 73/93/96 24/22/96
f 15/27/97 63/92/97 14/26/97
f 32/29/98 80/88/98 31/28/98
f 19/14/99 67/87/99 18/3/99
f 37/31/100 85/53/100 36/30/100
f 48/33/101 96/82/101 47/32/101
f 1/34/102 51/136/102 50/77/102
f 44/37/103 92/75/103 43/36/103
f 26/38/104 74/72/104 25/25/104
f 9/39/105 59/115/105 58/69/105
f 5/40/106 55/130/106 54/67/106
f 31/28/107 79/64/107 30/42/107
f 21/43/108 69/63/108 20/15/108
f 45/16/109 93/59/109 44/37/109
f 4/19/110 54/67/110 53/56/110
f 36/30/111 84/55/111 35/20/111
f 22/44/112 70/52/112 21/43/112
f 13/45/113 61/144/113 12/23/113
f 39/24/114 87/143/114 38/46/114
f 27/6/115 75/142/115 26/38/115
f 14/26/116 62/141/116 13/45/116
f 47/32/117 95/139/117 46/17/117
f 17/1/118 65/127/118 16/47/118
f 42/48/119 90/119/119 41/5/119
f 2/35/120 52/105/120 51/136/120
f 43/36/121 91/134/121 42/48/121
f 23/21/122 71/50/122 22/44/122
f 8/11/123 58/69/123 57/132/123
f 48/33/96 50/77/96 1/34/96
f 30/42/124 78/123/124 29/49/124
f 6/41/125 56/112/125 55/130/125
f 33/12/126 81/129/126 32/29/126
f 16/47/127 64/90/127 15/27/127
f 38/46/128 86/125/128 37/31/128
f 29/49/129 77/116/129 28/7/129
f 18/3/130 66/122/130 17/1/130
f 41/5/131 89/95/131 40/4/131
f 28/7/132 76/118/132 27/6/132
f 10/8/133 60/98/133 59/115/133
f 7/10/134 57/132/134 56/112/134
f 34/13/135 82/110/135 33/12/135
f 20/15/136 68/85/136 19/14/136
f 46/17/137 94/107/137 45/16/137
f 3/18/138 53/56/138 52/105/138
f 35/20/139 83/104/139 34/13/139
f 24/22/140 72/102/140 23/21/140
f 124/117/115 171/145/115 123/73/115
f 136/96/114 183/146/114 135/126/114
f 110/140/113 157/147/113 109/99/113
f 119/133/112 166/148/112 118/51/112
f 133/84/111 180/149/111 132/54/111
f 101/58/110 150/150/110 149/151/110
f 141/61/109 190/152/109 189/153/109
f 118/51/108 165/154/108 117/62/108
f 128/65/107 175/155/107 127/66/107
f 102/57/106 151/156/106 150/150/106
f 106/71/105 155/157/105 154/158/105
f 123/73/104 170/159/104 122/74/104
f 141/61/103 188/160/103 140/76/103
f 98/79/102 147/161/102 146/162/102
f 144/81/101 193/163/101 192/164/101
f 134/83/100 181/165/100 133/84/100
f 116/109/99 163/166/99 115/86/99
f 129/89/98 176/167/98 128/65/98
f 112/128/97 159/168/97 111/91/97
f 122/74/96 169/169/96 121/94/96
f 136/96/95 185/170/95 184/171/95
f 108/100/94 157/147/94 156/172/94
f 121/94/140 168/173/140 120/101/140
f 132/54/139 179/174/139 131/103/139
f 100/106/138 149/151/138 148/175/138
f 142/60/137 191/176/137 190/152/137
f 117/62/136 164/177/136 116/109/136
f 131/103/135 178/178/135 130/111/135
f 104/114/134 153/179/134 152/180/134
f 107/70/133 156/172/133 155/157/133
f 125/124/132 172/181/132 124/117/132
f 138/137/131 185/170/131 137/120/131
f 115/86/130 162/182/130 114/121/130
f 126/131/129 173/183/129 125/124/129
f 135/126/128 182/184/128 134/83/128
f 113/138/127 160/185/127 112/128/127
f 130/111/126 177/186/126 129/89/126
f 103/68/125 152/180/125 151/156/125
f 127/66/124 174/187/124 126/131/124
f 145/188/96 146/162/96 98/79/96
f 105/113/123 154/158/123 153/179/123
f 120/101/122 167/189/122 119/133/122
f 140/76/121 187/190/121 139/135/121
f 99/78/120 148/175/120 147/161/120
f 139/135/119 186/191/119 138/137/119
f 114/121/118 161/192/118 113/138/118
f 144/81/117 191/176/117 143/108/117
f 111/91/116 158/193/116 110/140/116
f 162/182/141 163/166/141 194/194/141
f 185/170/142 186/191/142 194/194/142
f 172/181/143 173/183/143 194/194/143
f 155/157/144 156/172/144 194/194/144
f 152/180/145 153/179/145 194/194/145
f 178/178/146 179/174/146 194/194/146
f 164/177/147 165/154/147 194/194/147
f 190/152/148 191/176/148 194/194/148
f 148/175/39 149/151/39 194/194/39
f 179/174/149 180/149/149 194/194/149
f 168/173/147 169/169/147 194/194/147
f 156/172/150 157/147/150 194/194/150
f 184/171/151 185/170/151 194/194/151
f 169/169/152 170/159/152 194/194/152
f 159/168/153 160/185/153 194/194/153
f 176/167/154 177/186/154 194/194/154
f 163/166/155 164/177/155 194/194/155
f 181/165/156 182/184/156 194/194/156
f 192/164/157 193/163/157 194/194/157
f 146/162/39 147/161/39 194/194/39
f 188/160/158 189/153/158 194/194/158
f 170/159/159 171/145/159 194/194/159
f 154/158/160 155/157/160 194/194/160
f 150/150/161 151/156/161 194/194/161
f 175/155/162 176/167/162 194/194/162
f 165/154/147 166/148/147 194/194/147
f 189/153/163 190/152/163 194/194/163
f 149/151/39 150/150/39 194/194/39
f 180/149/164 181/165/164 194/194/164
f 166/148/165 167/189/165 194/194/165
f 157/147/166 158/193/166 194/194/166
f 183/146/167 184/171/167 194/194/167
f 171/145/168 172/181/168 194/194/168
f 158/193/169 159/168/169 194/194/169
f 191/176/170 192/164/170 194/194/170
f 161/192/171 162/182/171 194/194/171
f 186/191/172 187/190/172 194/194/172
f 147/161/173 148/175/173 194/194/173
f 187/190/174 188/160/174 194/194/174
f 167/189/147 168/173/147 194/194/147
f 153/179/175 154/158/175 194/194/175
f 146/162/9 193/163/9 194/194/9
f 174/187/176 175/155/176 194/194/176
f 151/156/177 152/180/177 194/194/177
f 177/186/178 178/178/178 194/194/178
f 160/185/179 161/192/179 194/194/179
f 182/184/180 183/146/180 194/194/180
f 173/183/181 174/187/181 194/194/181
f 71/50/46 119/133/46 118/51/46
f 85/53/182 133/84/182 132/54/182
f 53/56/48 54/67/48 102/57/48
f 93/59/49 94/107/49 142/60/49
f 70/52/50 118/51/50 117/62/50
f 79/64/51 80/88/51 128/65/51
f 54/67/183 55/130/183 103/68/183
f 58/69/53 59/115/53 107/70/53
f 74/72/184 75/142/184 123/73/184
f 92/75/55 93/59/55 141/61/55
f 50/77/185 51/136/185 99/78/185
f 97/80/57 145/188/57 144/81/57
f 85/53/186 86/125/186 134/83/186
f 68/85/59 116/109/59 115/86/59
f 80/88/60 81/129/60 129/89/60
f 64/90/61 112/128/61 111/91/61
f 73/93/62 74/72/62 122/74/62
f 89/95/63 137/120/63 136/96/63
f 60/98/187 61/144/187 109/99/187
f 73/93/188 121/94/188 120/101/188
f 84/55/66 132/54/66 131/103/66
f 52/105/67 53/56/67 101/58/67
f 94/107/68 95/139/68 143/108/68
f 69/63/69 117/62/69 116/109/69
f 82/110/70 83/104/70 131/103/70
f 56/112/71 57/132/71 105/113/71
f 59/115/72 60/98/72 108/100/72
f 77/116/73 125/124/73 124/117/73
f 90/119/189 138/137/189 137/120/189
f 67/87/75 115/86/75 114/121/75
f 78/123/76 126/131/76 125/124/76
f 86/125/190 87/143/190 135/126/190
f 65/127/191 113/138/191 112/128/191
f 81/129/79 82/110/79 130/111/79
f 55/130/80 56/112/80 104/114/80
f 79/64/81 127/66/81 126/131/81
f 97/80/192 145/188/192 98/79/192
f 57/132/193 58/69/193 106/71/193
f 72/102/194 120/101/194 119/133/194
f 91/134/85 92/75/85 140/76/85
f 51/136/86 52/105/86 100/106/86
f 91/134/87 139/135/87 138/137/87
f 66/122/88 114/121/88 113/138/88
f 96/82/195 144/81/195 143/108/195
f 63/92/90 111/91/90 110/140/90
f 76/118/91 124/117/91 123/73/91
f 88/97/92 136/96/92 135/126/92
f 62/141/196 110/140/196 109/99/196
f 11/9/94 12/23/94 61/144/94
f 40/4/95 89/95/95 88/97/95
f 25/25/96 74/72/96 73/93/96
f 15/27/97 64/90/97 63/92/97
f 32/29/98 81/129/98 80/88/98
f 19/14/99 68/85/99 67/87/99
f 37/31/100 86/125/100 85/53/100
f 48/33/101 97/80/101 96/82/101
f 1/34/102 2/35/102 51/136/102
f 44/37/103 93/59/103 92/75/103
f 26/38/104 75/142/104 74/72/104
f 9/39/105 10/8/105 59/115/105
f 5/40/106 6/41/106 55/130/106
f 31/28/107 80/88/107 79/64/107
f 21/43/108 70/52/108 69/63/108
f 45/16/109 94/107/109 93/59/109
f 4/19/110 5/40/110 54/67/110
f 36/30/111 85/53/111 84/55/111
f 22/44/112 71/50/112 70/52/112
f 13/45/113 62/141/113 61/144/113
f 39/24/114 88/97/114 87/143/114
f 27/6/115 76/118/115 75/142/115
f 14/26/116 63/92/116 62/141/116
f 47/32/117 96/82/117 95/139/117
f 17/1/118 66/122/118 65/127/118
f 42/48/119 91/134/119 90/119/119
f 2/35/120 3/18/120 52/105/120
f 43/36/121 92/75/121 91/134/121
f 23/21/122 72/102/122 71/50/122
f 8/11/123 9/39/123 58/69/123
f 48/33/96 97/80/96 50/77/96
f 30/42/124 79/64/124 78/123/124
f 6/41/125 7/10/125 56/112/125
f 33/12/126 82/110/126 81/129/126
f 16/47/127 65/127/127 64/90/127
f 38/46/128 87/143/128 86/125/128
f 29/49/129 78/123/129 77/116/129
f 18/3/130 67/87/130 66/122/130
f 41/5/131 90/119/131 89/95/131
f 28/7/132 77/116/132 76/118/132
f 10/8/133 11/9/133 60/98/133
f 7/10/134 8/11/134 57/132/134
f 34/13/135 83/104/135 82/110/135
f 20/15/136 69/63/136 68/85/136
f 46/17/137 95/139/137 94/107/137
f 3/18/138 4/19/138 53/56/138
f 35/20/139 84/55/139 83/104/139
f 24/22/140 73/93/140 72/102/140
f 124/117/115 172/181/115 171/145/115
f 136/96/114 184/171/114 183/146/114
f 110/140/113 158/193/113 157/147/113
f 119/133/112 167/189/112 166/148/112
f 133/84/111 181/165/111 180/149/111
f 101/58/110 102/57/110 150/150/110
f 141/61/109 142/60/109 190/152/109
f 118/51/108 166/148/108 165/154/108
f 128/65/107 176/167/107 175/155/107
f 102/57/106 103/68/106 151/156/106
f 106/71/105 107/70/105 155/157/105
f 123/73/104 171/145/104 170/159/104
f 141/61/103 189/153/103 188/160/103
f 98/79/102 99/78/102 147/161/102
f 144/81/101 145/188/101 193/163/101
f 134/83/100 182/184/100 181/165/100
f 116/109/99 164/177/99 163/166/99
f 129/89/98 177/186/98 176/167/98
f 112/128/97 160/185/97 159/168/97
f 122/74/96 170/159/96 169/169/96
f 136/96/95 137/120/95 185/170/95
f 108/100/94 109/99/94 157/147/94
f 121/94/140 169/169/140 168/173/140
f 132/54/139 180/149/139 179/174/139
f 100/106/138 101/58/138 149/151/138
f 142/60/137 143/108/137 191/176/137
f 117/62/136 165/154/136 164/177/136
f 131/103/135 179/174/135 178/178/135
f 104/114/134 105/113/134 153/179/134
f 107/70/133 108/100/133 156/172/133
f 125/124/132 173/183/132 172/181/132
f 138/137/131 186/191/131 185/170/131
f 115/86/130 163/166/130 162/182/130
f 126/131/129 174/187/129 173/183/129
f 135/126/128 183/146/128 182/184/128
f 113/138/127 161/192/127 160/185/127
f 130/111/126 178/178/126 177/186/126
f 103/68/125 104/114/125 152/180/125
f 127/66/124 175/155/124 174/187/124
f 145/188/96 193/163/96 146/162/96
f 105/113/123 106/71/123 154/158/123
f 120/101/122 168/173/122 167/189/122
f 140/76/121 188/160/121 187/190/121
f 99/78/120 100/106/120 148/175/120
f 139/135/119 187/190/119 186/191/119
f 114/121/118 162/182/118 161/192/118
f 144/81/117 192/164/117 191/176/117
f 111/91/116 159/168/116 158/193/116
