ply
format ascii 1.0
comment Created by Blender 2.79 (sub 0) - www.blender.org, source file: 'm3_v2.blend'
element vertex 864
property float x
property float y
property float z
property float nx
property float ny
property float nz
property float s
property float t
element face 240
property list uchar uint vertex_indices
end_header
1.639499 -0.949569 2.951964 -0.999997 -0.002139 0.000974 0.000000 0.000000
1.639337 -0.833332 3.041684 -0.999997 -0.002139 0.000974 0.000000 0.000000
1.639458 -0.937155 2.937861 -0.999997 -0.002139 0.000974 0.000000 0.000000
1.639216 -0.706544 3.115787 -1.000000 -0.000685 -0.000463 0.000000 0.000000
1.639337 -0.833332 3.041684 -1.000000 -0.000685 -0.000463 0.000000 0.000000
1.639216 -0.717094 3.131404 -1.000000 -0.000685 -0.000463 0.000000 0.000000
1.639216 -0.776185 2.906387 -1.000000 -0.000371 0.000739 0.000000 0.000000
1.639337 -0.833332 3.041684 -1.000000 -0.000371 0.000739 0.000000 0.000000
1.639216 -0.759229 2.914897 -1.000000 -0.000371 0.000739 0.000000 0.000000
1.639620 -0.974925 3.080712 -0.999996 -0.002438 -0.001610 0.000000 0.000000
1.639337 -0.833332 3.041684 -0.999996 -0.002438 -0.001610 0.000000 0.000000
1.639660 -0.978831 3.061605 -0.999996 -0.002438 -0.001610 0.000000 0.000000
1.639499 -0.949569 3.131404 -0.999997 -0.002221 -0.001080 0.000000 0.000000
1.639337 -0.833332 3.041684 -0.999997 -0.002221 -0.001080 0.000000 0.000000
1.639539 -0.960119 3.115787 -0.999997 -0.002221 -0.001080 0.000000 0.000000
1.639216 -0.698034 2.984537 -1.000000 -0.000781 0.000271 0.000000 0.000000
1.639337 -0.833332 3.041684 -1.000000 -0.000781 0.000271 0.000000 0.000000
1.639216 -0.691738 3.002656 -1.000000 -0.000781 0.000271 0.000000 0.000000
1.639418 -0.923052 2.925447 -0.999998 -0.002004 0.000853 0.000000 0.000000
1.639337 -0.833332 3.041684 -0.999998 -0.002004 0.000853 0.000000 0.000000
1.639378 -0.907435 2.914897 -0.999998 -0.002004 0.000853 0.000000 0.000000
1.639216 -0.776185 3.176982 -1.000000 -0.000271 -0.000781 0.000000 0.000000
1.639337 -0.833332 3.041684 -1.000000 -0.000271 -0.000781 0.000000 0.000000
1.639216 -0.794304 3.183278 -1.000000 -0.000271 -0.000781 0.000000 0.000000
1.639337 -0.890479 3.176982 -0.999998 -0.001966 -0.000831 0.000000 0.000000
1.639337 -0.833332 3.041684 -0.999998 -0.001966 -0.000831 0.000000 0.000000
1.639378 -0.907435 3.168472 -0.999998 -0.001966 -0.000831 0.000000 0.000000
1.639216 -0.691738 3.002656 -1.000000 -0.000810 0.000166 0.000000 0.000000
1.639337 -0.833332 3.041684 -1.000000 -0.000810 0.000166 0.000000 0.000000
1.639216 -0.687832 3.021764 -1.000000 -0.000810 0.000166 0.000000 0.000000
1.639257 -0.853252 2.896185 -0.999998 -0.001973 0.000825 0.000000 0.000000
1.639337 -0.833332 3.041684 -0.999998 -0.001973 0.000825 0.000000 0.000000
1.639216 -0.833332 2.894844 -0.999998 -0.001973 0.000825 0.000000 0.000000
1.639660 -0.978831 3.061605 -0.999995 -0.002471 -0.001856 0.000000 0.000000
1.639337 -0.833332 3.041684 -0.999995 -0.002471 -0.001856 0.000000 0.000000
1.639700 -0.980172 3.041684 -0.999995 -0.002471 -0.001856 0.000000 0.000000
1.639216 -0.698034 3.098831 -1.000000 -0.000739 -0.000371 0.000000 0.000000
1.639337 -0.833332 3.041684 -1.000000 -0.000739 -0.000371 0.000000 0.000000
1.639216 -0.706544 3.115787 -1.000000 -0.000739 -0.000371 0.000000 0.000000
1.639216 -0.833332 2.894844 -1.000000 -0.000056 0.000825 0.000000 0.000000
1.639337 -0.833332 3.041684 -1.000000 -0.000056 0.000825 0.000000 0.000000
1.639216 -0.813411 2.896185 -1.000000 -0.000056 0.000825 0.000000 0.000000
1.639620 -0.974925 3.002656 -0.999996 -0.002380 0.001403 0.000000 0.000000
1.639337 -0.833332 3.041684 -0.999996 -0.002380 0.001403 0.000000 0.000000
1.639579 -0.968629 2.984537 -0.999996 -0.002380 0.001403 0.000000 0.000000
1.639216 -0.717094 2.951964 -1.000000 -0.000685 0.000463 0.000000 0.000000
1.639337 -0.833332 3.041684 -1.000000 -0.000685 0.000463 0.000000 0.000000
1.639216 -0.706544 2.967582 -1.000000 -0.000685 0.000463 0.000000 0.000000
1.639458 -0.937155 2.937861 -0.999997 -0.002065 0.000900 0.000000 0.000000
1.639337 -0.833332 3.041684 -0.999997 -0.002065 0.000900 0.000000 0.000000
1.639418 -0.923052 2.925447 -0.999997 -0.002065 0.000900 0.000000 0.000000
1.639216 -0.686491 3.041684 -1.000000 -0.000825 -0.000056 0.000000 0.000000
1.639337 -0.833332 3.041684 -1.000000 -0.000825 -0.000056 0.000000 0.000000
1.639216 -0.687832 3.061605 -1.000000 -0.000825 -0.000056 0.000000 0.000000
1.639216 -0.813411 3.187184 -1.000000 -0.000056 -0.000825 0.000000 0.000000
1.639337 -0.833332 3.041684 -1.000000 -0.000056 -0.000825 0.000000 0.000000
1.639216 -0.833332 3.188525 -1.000000 -0.000056 -0.000825 0.000000 0.000000
1.639257 -0.853252 3.187184 -0.999998 -0.001941 -0.000820 0.000000 0.000000
1.639337 -0.833332 3.041684 -0.999998 -0.001941 -0.000820 0.000000 0.000000
1.639297 -0.872360 3.183278 -0.999998 -0.001941 -0.000820 0.000000 0.000000
1.639216 -0.743612 3.157922 -1.000000 -0.000463 -0.000685 0.000000 0.000000
1.639337 -0.833332 3.041684 -1.000000 -0.000463 -0.000685 0.000000 0.000000
1.639216 -0.759229 3.168472 -1.000000 -0.000463 -0.000685 0.000000 0.000000
1.639216 -0.813411 2.896185 -1.000000 -0.000166 0.000810 0.000000 0.000000
1.639337 -0.833332 3.041684 -1.000000 -0.000166 0.000810 0.000000 0.000000
1.639216 -0.794304 2.900091 -1.000000 -0.000166 0.000810 0.000000 0.000000
1.639579 -0.968629 3.098831 -0.999996 -0.002380 -0.001403 0.000000 0.000000
1.639337 -0.833332 3.041684 -0.999996 -0.002380 -0.001403 0.000000 0.000000
1.639620 -0.974925 3.080712 -0.999996 -0.002380 -0.001403 0.000000 0.000000
1.639418 -0.923052 3.157922 -0.999997 -0.002065 -0.000900 0.000000 0.000000
1.639337 -0.833332 3.041684 -0.999997 -0.002065 -0.000900 0.000000 0.000000
1.639458 -0.937155 3.145508 -0.999997 -0.002065 -0.000900 0.000000 0.000000
1.639216 -0.729509 2.937861 -1.000000 -0.000620 0.000546 0.000000 0.000000
1.639337 -0.833332 3.041684 -1.000000 -0.000620 0.000546 0.000000 0.000000
1.639216 -0.717094 2.951964 -1.000000 -0.000620 0.000546 0.000000 0.000000
1.639378 -0.907435 2.914897 -0.999998 -0.001966 0.000831 0.000000 0.000000
1.639337 -0.833332 3.041684 -0.999998 -0.001966 0.000831 0.000000 0.000000
1.639337 -0.890479 2.906387 -0.999998 -0.001966 0.000831 0.000000 0.000000
1.639216 -0.759229 3.168472 -1.000000 -0.000371 -0.000739 0.000000 0.000000
1.639337 -0.833332 3.041684 -1.000000 -0.000371 -0.000739 0.000000 0.000000
1.639216 -0.776185 3.176982 -1.000000 -0.000371 -0.000739 0.000000 0.000000
1.639378 -0.907435 3.168472 -0.999998 -0.002004 -0.000853 0.000000 0.000000
1.639337 -0.833332 3.041684 -0.999998 -0.002004 -0.000853 0.000000 0.000000
1.639418 -0.923052 3.157922 -0.999998 -0.002004 -0.000853 0.000000 0.000000
1.639216 -0.687832 3.021764 -1.000000 -0.000825 0.000056 0.000000 0.000000
1.639337 -0.833332 3.041684 -1.000000 -0.000825 0.000056 0.000000 0.000000
1.639216 -0.686491 3.041684 -1.000000 -0.000825 0.000056 0.000000 0.000000
1.639337 -0.890479 2.906387 -0.999998 -0.001945 0.000821 0.000000 0.000000
1.639337 -0.833332 3.041684 -0.999998 -0.001945 0.000821 0.000000 0.000000
1.639297 -0.872360 2.900091 -0.999998 -0.001945 0.000821 0.000000 0.000000
1.639700 -0.980172 3.041684 -0.999995 -0.002471 0.001856 0.000000 0.000000
1.639337 -0.833332 3.041684 -0.999995 -0.002471 0.001856 0.000000 0.000000
1.639660 -0.978831 3.021764 -0.999995 -0.002471 0.001856 0.000000 0.000000
1.639216 -0.691738 3.080712 -1.000000 -0.000781 -0.000271 0.000000 0.000000
1.639337 -0.833332 3.041684 -1.000000 -0.000781 -0.000271 0.000000 0.000000
1.639216 -0.698034 3.098831 -1.000000 -0.000781 -0.000271 0.000000 0.000000
1.639216 -0.794304 2.900091 -1.000000 -0.000271 0.000781 0.000000 0.000000
1.639337 -0.833332 3.041684 -1.000000 -0.000271 0.000781 0.000000 0.000000
1.639216 -0.776185 2.906387 -1.000000 -0.000271 0.000781 0.000000 0.000000
1.639660 -0.978831 3.021764 -0.999996 -0.002438 0.001610 0.000000 0.000000
1.639337 -0.833332 3.041684 -0.999996 -0.002438 0.001610 0.000000 0.000000
1.639620 -0.974925 3.002656 -0.999996 -0.002438 0.001610 0.000000 0.000000
1.639216 -0.794304 3.183278 -1.000000 -0.000166 -0.000810 0.000000 0.000000
1.639337 -0.833332 3.041684 -1.000000 -0.000166 -0.000810 0.000000 0.000000
1.639216 -0.813411 3.187184 -1.000000 -0.000166 -0.000810 0.000000 0.000000
1.639539 -0.960119 2.967582 -0.999997 -0.002221 0.001080 0.000000 0.000000
1.639337 -0.833332 3.041684 -0.999997 -0.002221 0.001080 0.000000 0.000000
1.639499 -0.949569 2.951964 -0.999997 -0.002221 0.001080 0.000000 0.000000
1.639216 -0.717094 3.131404 -1.000000 -0.000620 -0.000546 0.000000 0.000000
1.639337 -0.833332 3.041684 -1.000000 -0.000620 -0.000546 0.000000 0.000000
1.639216 -0.729509 3.145508 -1.000000 -0.000620 -0.000546 0.000000 0.000000
1.639297 -0.872360 3.183278 -0.999998 -0.001945 -0.000821 0.000000 0.000000
1.639337 -0.833332 3.041684 -0.999998 -0.001945 -0.000821 0.000000 0.000000
1.639337 -0.890479 3.176982 -0.999998 -0.001945 -0.000821 0.000000 0.000000
1.639216 -0.729509 3.145508 -1.000000 -0.000546 -0.000620 0.000000 0.000000
1.639337 -0.833332 3.041684 -1.000000 -0.000546 -0.000620 0.000000 0.000000
1.639216 -0.743612 3.157922 -1.000000 -0.000546 -0.000620 0.000000 0.000000
1.639297 -0.872360 2.900091 -0.999998 -0.001941 0.000820 0.000000 0.000000
1.639337 -0.833332 3.041684 -0.999998 -0.001941 0.000820 0.000000 0.000000
1.639257 -0.853252 2.896185 -0.999998 -0.001941 0.000820 0.000000 0.000000
1.639539 -0.960119 3.115787 -0.999997 -0.002303 -0.001220 0.000000 0.000000
1.639337 -0.833332 3.041684 -0.999997 -0.002303 -0.001220 0.000000 0.000000
1.639579 -0.968629 3.098831 -0.999997 -0.002303 -0.001220 0.000000 0.000000
1.639257 -0.853252 3.187184 0.999998 0.001973 0.000825 0.000000 0.000000
1.639337 -0.833332 3.041684 0.999998 0.001973 0.000825 0.000000 0.000000
1.639216 -0.833332 3.188525 0.999998 0.001973 0.000825 0.000000 0.000000
1.639216 -0.743612 2.925447 -1.000000 -0.000546 0.000620 0.000000 0.000000
1.639337 -0.833332 3.041684 -1.000000 -0.000546 0.000620 0.000000 0.000000
1.639216 -0.729509 2.937861 -1.000000 -0.000546 0.000620 0.000000 0.000000
1.639458 -0.937155 3.145508 -0.999997 -0.002139 -0.000974 0.000000 0.000000
1.639337 -0.833332 3.041684 -0.999997 -0.002139 -0.000974 0.000000 0.000000
1.639499 -0.949569 3.131404 -0.999997 -0.002139 -0.000974 0.000000 0.000000
1.639216 -0.706544 2.967582 -1.000000 -0.000739 0.000371 0.000000 0.000000
1.639337 -0.833332 3.041684 -1.000000 -0.000739 0.000371 0.000000 0.000000
1.639216 -0.698034 2.984537 -1.000000 -0.000739 0.000371 0.000000 0.000000
1.639579 -0.968629 2.984537 -0.999997 -0.002303 0.001220 0.000000 0.000000
1.639337 -0.833332 3.041684 -0.999997 -0.002303 0.001220 0.000000 0.000000
1.639539 -0.960119 2.967582 -0.999997 -0.002303 0.001220 0.000000 0.000000
1.639216 -0.687832 3.061605 -1.000000 -0.000810 -0.000166 0.000000 0.000000
1.639337 -0.833332 3.041684 -1.000000 -0.000810 -0.000166 0.000000 0.000000
1.639216 -0.691738 3.080712 -1.000000 -0.000810 -0.000166 0.000000 0.000000
1.639216 -0.759229 2.914897 -1.000000 -0.000463 0.000685 0.000000 0.000000
1.639337 -0.833332 3.041684 -1.000000 -0.000463 0.000685 0.000000 0.000000
1.639216 -0.743612 2.925447 -1.000000 -0.000463 0.000685 0.000000 0.000000
1.427209 -0.890479 2.906387 0.526632 0.280065 0.802635 0.000000 0.000000
1.427169 -0.872360 2.900091 0.526632 0.280065 0.802635 0.000000 0.000000
1.290352 -0.849787 2.981984 0.526632 0.280065 0.802635 0.000000 0.000000
1.290369 -0.857427 2.984639 0.526632 0.280065 0.802635 0.000000 0.000000
1.427089 -0.687832 3.021764 0.526663 -0.848155 0.057095 0.000000 0.000000
1.427089 -0.686491 3.041684 0.526663 -0.848155 0.057095 0.000000 0.000000
1.290318 -0.771419 3.041684 0.526663 -0.848155 0.057095 0.000000 0.000000
1.290318 -0.771985 3.033285 0.526663 -0.848155 0.057095 0.000000 0.000000
1.427250 -0.907435 3.168472 0.526457 0.476859 -0.703881 0.000000 0.000000
1.427290 -0.923052 3.157922 0.526457 0.476859 -0.703881 0.000000 0.000000
1.290403 -0.871160 3.090694 0.526457 0.476859 -0.703881 0.000000 0.000000
1.290386 -0.864576 3.095142 0.526457 0.476859 -0.703881 0.000000 0.000000
1.427089 -0.759229 3.168472 0.526786 -0.381300 -0.759676 0.000000 0.000000
1.427089 -0.776185 3.176982 0.526786 -0.381300 -0.759676 0.000000 0.000000
1.290318 -0.809237 3.098730 0.526786 -0.381300 -0.759676 0.000000 0.000000
1.290318 -0.802088 3.095142 0.526786 -0.381300 -0.759676 0.000000 0.000000
1.427250 -0.907435 2.914897 0.526558 0.382362 0.759300 0.000000 0.000000
1.427209 -0.890479 2.906387 0.526558 0.382362 0.759300 0.000000 0.000000
1.290369 -0.857427 2.984639 0.526558 0.382362 0.759300 0.000000 0.000000
1.290386 -0.864576 2.988227 0.526558 0.382362 0.759300 0.000000 0.000000
1.427089 -0.729509 2.937861 0.526721 -0.638061 0.561644 0.000000 0.000000
1.427089 -0.717094 2.951964 0.526721 -0.638061 0.561644 0.000000 0.000000
1.290318 -0.784322 3.003856 0.526721 -0.638061 0.561644 0.000000 0.000000
1.290318 -0.789557 2.997909 0.526721 -0.638061 0.561644 0.000000 0.000000
1.427290 -0.923052 3.157922 0.526363 0.562638 -0.637480 0.000000 0.000000
1.427331 -0.937155 3.145508 0.526363 0.562638 -0.637480 0.000000 0.000000
1.290420 -0.877107 3.085459 0.526363 0.562638 -0.637480 0.000000 0.000000
1.290403 -0.871160 3.090694 0.526363 0.562638 -0.637480 0.000000 0.000000
1.427452 -0.968629 3.098831 0.526177 0.803628 -0.278064 0.000000 0.000000
1.427492 -0.974925 3.080712 0.526177 0.803628 -0.278064 0.000000 0.000000
1.290488 -0.893032 3.058140 0.526177 0.803628 -0.278064 0.000000 0.000000
1.290471 -0.890377 3.065779 0.526177 0.803628 -0.278064 0.000000 0.000000
1.427089 -0.813411 2.896185 0.526747 -0.170247 0.832799 0.000000 0.000000
1.427089 -0.794304 2.900091 0.526747 -0.170247 0.832799 0.000000 0.000000
1.290318 -0.816876 2.981984 0.526747 -0.170247 0.832799 0.000000 0.000000
1.290318 -0.824933 2.980337 0.526747 -0.170247 0.832799 0.000000 0.000000
1.427089 -0.743612 3.157922 0.526750 -0.475820 -0.704365 0.000000 0.000000
1.427089 -0.759229 3.168472 0.526750 -0.475820 -0.704365 0.000000 0.000000
1.290318 -0.802088 3.095142 0.526750 -0.475820 -0.704365 0.000000 0.000000
1.290318 -0.795503 3.090694 0.526750 -0.475820 -0.704365 0.000000 0.000000
1.427129 -0.853252 3.187184 0.526650 0.171323 -0.832639 0.000000 0.000000
1.427169 -0.872360 3.183278 0.526650 0.171323 -0.832639 0.000000 0.000000
1.290352 -0.849787 3.101385 0.526650 0.171323 -0.832639 0.000000 0.000000
1.290335 -0.841731 3.103032 0.526650 0.171323 -0.832639 0.000000 0.000000
1.427089 -0.813411 3.187184 0.526663 -0.057088 -0.848155 0.000000 0.000000
1.427089 -0.833332 3.188525 0.526663 -0.057088 -0.848155 0.000000 0.000000
1.290318 -0.833332 3.103597 0.526663 -0.057088 -0.848155 0.000000 0.000000
1.290318 -0.824933 3.103032 0.526663 -0.057088 -0.848155 0.000000 0.000000
1.427089 -0.686491 3.041684 0.526663 -0.848155 -0.057095 0.000000 0.000000
1.427089 -0.687832 3.061605 0.526663 -0.848155 -0.057095 0.000000 0.000000
1.290318 -0.771985 3.050083 0.526663 -0.848155 -0.057095 0.000000 0.000000
1.290318 -0.771419 3.041684 0.526663 -0.848155 -0.057095 0.000000 0.000000
1.427331 -0.937155 2.937861 0.526363 0.562638 0.637480 0.000000 0.000000
1.427290 -0.923052 2.925447 0.526363 0.562638 0.637480 0.000000 0.000000
1.290403 -0.871160 2.992675 0.526363 0.562638 0.637480 0.000000 0.000000
1.290420 -0.877107 2.997909 0.526363 0.562638 0.637480 0.000000 0.000000
1.427089 -0.717094 2.951964 0.526750 -0.704362 0.475823 0.000000 0.000000
1.427089 -0.706544 2.967582 0.526750 -0.704362 0.475823 0.000000 0.000000
1.290318 -0.779874 3.010440 0.526750 -0.704362 0.475823 0.000000 0.000000
1.290318 -0.784322 3.003856 0.526750 -0.704362 0.475823 0.000000 0.000000
1.427492 -0.974925 3.002656 0.526177 0.803628 0.278064 0.000000 0.000000
1.427452 -0.968629 2.984537 0.526177 0.803628 0.278064 0.000000 0.000000
1.290471 -0.890377 3.017589 0.526177 0.803628 0.278064 0.000000 0.000000
1.290488 -0.893032 3.025229 0.526177 0.803628 0.278064 0.000000 0.000000
1.427089 -0.833332 2.894844 0.526663 -0.057088 0.848155 0.000000 0.000000
1.427089 -0.813411 2.896185 0.526663 -0.057088 0.848155 0.000000 0.000000
1.290318 -0.824933 2.980337 0.526663 -0.057088 0.848155 0.000000 0.000000
1.290318 -0.833332 2.979772 0.526663 -0.057088 0.848155 0.000000 0.000000
1.427089 -0.698034 3.098831 0.526786 -0.759676 -0.381299 0.000000 0.000000
1.427089 -0.706544 3.115787 0.526786 -0.759676 -0.381299 0.000000 0.000000
1.290318 -0.779874 3.072928 0.526786 -0.759676 -0.381299 0.000000 0.000000
1.290318 -0.776286 3.065779 0.526786 -0.759676 -0.381299 0.000000 0.000000
1.427532 -0.978831 3.061605 0.525917 0.848686 -0.056066 0.000000 0.000000
1.427572 -0.980172 3.041684 0.525917 0.848686 -0.056066 0.000000 0.000000
1.290522 -0.895244 3.041684 0.525917 0.848686 -0.056066 0.000000 0.000000
1.290505 -0.894679 3.050083 0.525917 0.848686 -0.056066 0.000000 0.000000
1.427129 -0.853252 2.896185 0.526631 0.058151 0.848103 0.000000 0.000000
1.427089 -0.833332 2.894844 0.526631 0.058151 0.848103 0.000000 0.000000
1.290318 -0.833332 2.979772 0.526631 0.058151 0.848103 0.000000 0.000000
1.290335 -0.841731 2.980337 0.526631 0.058151 0.848103 0.000000 0.000000
1.427089 -0.691738 3.002656 0.526747 -0.832800 0.170241 0.000000 0.000000
1.427089 -0.687832 3.021764 0.526747 -0.832800 0.170241 0.000000 0.000000
1.290318 -0.771985 3.033285 0.526747 -0.832800 0.170241 0.000000 0.000000
1.290318 -0.773631 3.025229 0.526747 -0.832800 0.170241 0.000000 0.000000
1.427209 -0.890479 3.176982 0.526558 0.382362 -0.759300 0.000000 0.000000
1.427250 -0.907435 3.168472 0.526558 0.382362 -0.759300 0.000000 0.000000
1.290386 -0.864576 3.095142 0.526558 0.382362 -0.759300 0.000000 0.000000
1.290369 -0.857427 3.098730 0.526558 0.382362 -0.759300 0.000000 0.000000
1.427089 -0.776185 3.176982 0.526794 -0.278987 -0.802904 0.000000 0.000000
1.427089 -0.794304 3.183278 0.526794 -0.278987 -0.802904 0.000000 0.000000
1.290318 -0.816876 3.101385 0.526794 -0.278987 -0.802904 0.000000 0.000000
1.290318 -0.809237 3.098730 0.526794 -0.278987 -0.802904 0.000000 0.000000
1.427290 -0.923052 2.925447 0.526457 0.476859 0.703881 0.000000 0.000000
1.427250 -0.907435 2.914897 0.526457 0.476859 0.703881 0.000000 0.000000
1.290386 -0.864576 2.988227 0.526457 0.476859 0.703881 0.000000 0.000000
1.290403 -0.871160 2.992675 0.526457 0.476859 0.703881 0.000000 0.000000
1.427089 -0.698034 2.984537 0.526794 -0.802905 0.278984 0.000000 0.000000
1.427089 -0.691738 3.002656 0.526794 -0.802905 0.278984 0.000000 0.000000
1.290318 -0.773631 3.025229 0.526794 -0.802905 0.278984 0.000000 0.000000
1.290318 -0.776286 3.017589 0.526794 -0.802905 0.278984 0.000000 0.000000
1.427371 -0.949569 3.131404 0.526264 0.705242 -0.475058 0.000000 0.000000
1.427411 -0.960119 3.115787 0.526264 0.705242 -0.475058 0.000000 0.000000
1.290454 -0.886789 3.072928 0.526264 0.705242 -0.475058 0.000000 0.000000
1.290437 -0.882341 3.079513 0.526264 0.705242 -0.475058 0.000000 0.000000
1.427492 -0.974925 3.080712 0.526066 0.833430 -0.169262 0.000000 0.000000
1.427532 -0.978831 3.061605 0.526066 0.833430 -0.169262 0.000000 0.000000
1.290505 -0.894679 3.050083 0.526066 0.833430 -0.169262 0.000000 0.000000
1.290488 -0.893032 3.058140 0.526066 0.833430 -0.169262 0.000000 0.000000
1.427089 -0.776185 2.906387 0.526786 -0.381300 0.759676 0.000000 0.000000
1.427089 -0.759229 2.914897 0.526786 -0.381300 0.759676 0.000000 0.000000
1.290318 -0.802088 2.988227 0.526786 -0.381300 0.759676 0.000000 0.000000
1.290318 -0.809237 2.984639 0.526786 -0.381300 0.759676 0.000000 0.000000
1.427089 -0.706544 3.115787 0.526750 -0.704362 -0.475823 0.000000 0.000000
1.427089 -0.717094 3.131404 0.526750 -0.704362 -0.475823 0.000000 0.000000
1.290318 -0.784322 3.079513 0.526750 -0.704362 -0.475823 0.000000 0.000000
1.290318 -0.779874 3.072928 0.526750 -0.704362 -0.475823 0.000000 0.000000
1.427371 -0.949569 2.951964 0.526299 0.639003 0.560968 0.000000 0.000000
1.427331 -0.937155 2.937861 0.526299 0.639003 0.560968 0.000000 0.000000
1.290420 -0.877107 2.997909 0.526299 0.639003 0.560968 0.000000 0.000000
1.290437 -0.882341 3.003856 0.526299 0.639003 0.560968 0.000000 0.000000
1.427089 -0.759229 2.914897 0.526750 -0.475820 0.704365 0.000000 0.000000
1.427089 -0.743612 2.925447 0.526750 -0.475820 0.704365 0.000000 0.000000
1.290318 -0.795503 2.992675 0.526750 -0.475820 0.704365 0.000000 0.000000
1.290318 -0.802088 2.988227 0.526750 -0.475820 0.704365 0.000000 0.000000
1.427089 -0.687832 3.061605 0.526747 -0.832799 -0.170243 0.000000 0.000000
1.427089 -0.691738 3.080712 0.526747 -0.832799 -0.170243 0.000000 0.000000
1.290318 -0.773631 3.058140 0.526747 -0.832799 -0.170243 0.000000 0.000000
1.290318 -0.771985 3.050083 0.526747 -0.832799 -0.170243 0.000000 0.000000
1.427452 -0.968629 2.984537 0.526235 0.760482 0.380452 0.000000 0.000000
1.427411 -0.960119 2.967582 0.526235 0.760482 0.380452 0.000000 0.000000
1.290454 -0.886789 3.010440 0.526235 0.760482 0.380452 0.000000 0.000000
1.290471 -0.890377 3.017589 0.526235 0.760482 0.380452 0.000000 0.000000
1.427089 -0.706544 2.967582 0.526786 -0.759676 0.381299 0.000000 0.000000
1.427089 -0.698034 2.984537 0.526786 -0.759676 0.381299 0.000000 0.000000
1.290318 -0.776286 3.017589 0.526786 -0.759676 0.381299 0.000000 0.000000
1.290318 -0.779874 3.010440 0.526786 -0.759676 0.381299 0.000000 0.000000
1.427331 -0.937155 3.145508 0.526299 0.639003 -0.560968 0.000000 0.000000
1.427371 -0.949569 3.131404 0.526299 0.639003 -0.560968 0.000000 0.000000
1.290437 -0.882341 3.079513 0.526299 0.639003 -0.560968 0.000000 0.000000
1.290420 -0.877107 3.085459 0.526299 0.639003 -0.560968 0.000000 0.000000
1.427089 -0.743612 2.925447 0.526721 -0.561644 0.638061 0.000000 0.000000
1.427089 -0.729509 2.937861 0.526721 -0.561644 0.638061 0.000000 0.000000
1.290318 -0.789557 2.997909 0.526721 -0.561644 0.638061 0.000000 0.000000
1.290318 -0.795503 2.992675 0.526721 -0.561644 0.638061 0.000000 0.000000
1.427129 -0.853252 3.187184 -0.526631 -0.058151 0.848103 0.000000 0.000000
1.427089 -0.833332 3.188525 -0.526631 -0.058151 0.848103 0.000000 0.000000
1.290318 -0.833332 3.103597 -0.526631 -0.058151 0.848103 0.000000 0.000000
1.290335 -0.841731 3.103032 -0.526631 -0.058151 0.848103 0.000000 0.000000
1.427411 -0.960119 3.115787 0.526235 0.760482 -0.380452 0.000000 0.000000
1.427452 -0.968629 3.098831 0.526235 0.760482 -0.380452 0.000000 0.000000
1.290471 -0.890377 3.065779 0.526235 0.760482 -0.380452 0.000000 0.000000
1.290454 -0.886789 3.072928 0.526235 0.760482 -0.380452 0.000000 0.000000
1.427169 -0.872360 2.900091 0.526650 0.171324 0.832639 0.000000 0.000000
1.427129 -0.853252 2.896185 0.526650 0.171324 0.832639 0.000000 0.000000
1.290335 -0.841731 2.980337 0.526650 0.171324 0.832639 0.000000 0.000000
1.290352 -0.849787 2.981984 0.526650 0.171324 0.832639 0.000000 0.000000
1.427089 -0.729509 3.145508 0.526721 -0.561644 -0.638061 0.000000 0.000000
1.427089 -0.743612 3.157922 0.526721 -0.561644 -0.638061 0.000000 0.000000
1.290318 -0.795503 3.090694 0.526721 -0.561644 -0.638061 0.000000 0.000000
1.290318 -0.789557 3.085459 0.526721 -0.561644 -0.638061 0.000000 0.000000
1.427169 -0.872360 3.183278 0.526632 0.280066 -0.802635 0.000000 0.000000
1.427209 -0.890479 3.176982 0.526632 0.280066 -0.802635 0.000000 0.000000
1.290369 -0.857427 3.098730 0.526632 0.280066 -0.802635 0.000000 0.000000
1.290352 -0.849787 3.101385 0.526632 0.280066 -0.802635 0.000000 0.000000
1.427089 -0.717094 3.131404 0.526721 -0.638061 -0.561644 0.000000 0.000000
1.427089 -0.729509 3.145508 0.526721 -0.638061 -0.561644 0.000000 0.000000
1.290318 -0.789557 3.085459 0.526721 -0.638061 -0.561644 0.000000 0.000000
1.290318 -0.784322 3.079513 0.526721 -0.638061 -0.561644 0.000000 0.000000
1.427411 -0.960119 2.967582 0.526264 0.705242 0.475058 0.000000 0.000000
1.427371 -0.949569 2.951964 0.526264 0.705242 0.475058 0.000000 0.000000
1.290437 -0.882341 3.003856 0.526264 0.705242 0.475058 0.000000 0.000000
1.290454 -0.886789 3.010440 0.526264 0.705242 0.475058 0.000000 0.000000
1.427089 -0.794304 3.183278 0.526747 -0.170247 -0.832799 0.000000 0.000000
1.427089 -0.813411 3.187184 0.526747 -0.170247 -0.832799 0.000000 0.000000
1.290318 -0.824933 3.103032 0.526747 -0.170247 -0.832799 0.000000 0.000000
1.290318 -0.816876 3.101385 0.526747 -0.170247 -0.832799 0.000000 0.000000
1.427532 -0.978831 3.021764 0.526066 0.833430 0.169262 0.000000 0.000000
1.427492 -0.974925 3.002656 0.526066 0.833430 0.169262 0.000000 0.000000
1.290488 -0.893032 3.025229 0.526066 0.833430 0.169262 0.000000 0.000000
1.290505 -0.894679 3.033285 0.526066 0.833430 0.169262 0.000000 0.000000
1.427089 -0.794304 2.900091 0.526794 -0.278987 0.802904 0.000000 0.000000
1.427089 -0.776185 2.906387 0.526794 -0.278987 0.802904 0.000000 0.000000
1.290318 -0.809237 2.984639 0.526794 -0.278987 0.802904 0.000000 0.000000
1.290318 -0.816876 2.981984 0.526794 -0.278987 0.802904 0.000000 0.000000
1.427089 -0.691738 3.080712 0.526793 -0.802906 -0.278983 0.000000 0.000000
1.427089 -0.698034 3.098831 0.526793 -0.802906 -0.278983 0.000000 0.000000
1.290318 -0.776286 3.065779 0.526793 -0.802906 -0.278983 0.000000 0.000000
1.290318 -0.773631 3.058140 0.526793 -0.802906 -0.278983 0.000000 0.000000
1.427572 -0.980172 3.041684 0.525917 0.848686 0.056066 0.000000 0.000000
1.427532 -0.978831 3.021764 0.525917 0.848686 0.056066 0.000000 0.000000
1.290505 -0.894679 3.033285 0.525917 0.848686 0.056066 0.000000 0.000000
1.290522 -0.895244 3.041684 0.525917 0.848686 0.056066 0.000000 0.000000
1.639660 -0.978831 3.061605 0.000000 0.997742 -0.067165 0.000000 0.000000
1.639700 -0.980172 3.041684 0.000000 0.997742 -0.067165 0.000000 0.000000
1.427572 -0.980172 3.041684 0.000000 0.997742 -0.067165 0.000000 0.000000
1.427532 -0.978831 3.061605 0.000000 0.997742 -0.067165 0.000000 0.000000
1.639216 -0.698034 3.098831 0.000000 -0.893740 -0.448585 0.000000 0.000000
1.639216 -0.706544 3.115787 0.000000 -0.893740 -0.448585 0.000000 0.000000
1.427089 -0.706544 3.115787 0.000000 -0.893740 -0.448585 0.000000 0.000000
1.427089 -0.698034 3.098831 0.000000 -0.893740 -0.448585 0.000000 0.000000
1.639216 -0.833332 2.894844 0.000000 -0.067159 0.997742 0.000000 0.000000
1.639216 -0.813411 2.896185 0.000000 -0.067159 0.997742 0.000000 0.000000
1.427089 -0.813411 2.896185 0.000000 -0.067159 0.997742 0.000000 0.000000
1.427089 -0.833332 2.894844 0.000000 -0.067159 0.997742 0.000000 0.000000
1.639620 -0.974925 3.002656 -0.000000 0.944601 0.328220 0.000000 0.000000
1.639579 -0.968629 2.984537 -0.000000 0.944601 0.328220 0.000000 0.000000
1.427452 -0.968629 2.984537 -0.000000 0.944601 0.328220 0.000000 0.000000
1.427492 -0.974925 3.002656 -0.000000 0.944601 0.328220 0.000000 0.000000
1.639216 -0.717094 2.951964 0.000000 -0.828642 0.559779 0.000000 0.000000
1.639216 -0.706544 2.967582 0.000000 -0.828642 0.559779 0.000000 0.000000
1.427089 -0.706544 2.967582 0.000000 -0.828642 0.559779 0.000000 0.000000
1.427089 -0.717094 2.951964 0.000000 -0.828642 0.559779 0.000000 0.000000
1.639458 -0.937155 2.937861 -0.000000 0.660728 0.750625 0.000000 0.000000
1.639418 -0.923052 2.925447 -0.000000 0.660728 0.750625 0.000000 0.000000
1.427290 -0.923052 2.925447 -0.000000 0.660728 0.750625 0.000000 0.000000
1.427331 -0.937155 2.937861 -0.000000 0.660728 0.750625 0.000000 0.000000
1.639216 -0.686491 3.041684 0.000000 -0.997742 -0.067165 0.000000 0.000000
1.639216 -0.687832 3.061605 0.000000 -0.997742 -0.067165 0.000000 0.000000
1.427089 -0.687832 3.061605 0.000000 -0.997742 -0.067165 0.000000 0.000000
1.427089 -0.686491 3.041684 0.000000 -0.997742 -0.067165 0.000000 0.000000
1.639216 -0.813411 3.187184 0.000000 -0.067159 -0.997742 0.000000 0.000000
1.639216 -0.833332 3.188525 0.000000 -0.067159 -0.997742 0.000000 0.000000
1.427089 -0.833332 3.188525 0.000000 -0.067159 -0.997742 0.000000 0.000000
1.427089 -0.813411 3.187184 0.000000 -0.067159 -0.997742 0.000000 0.000000
1.639257 -0.853252 3.187184 0.000000 0.200281 -0.979738 0.000000 0.000000
1.639297 -0.872360 3.183278 0.000000 0.200281 -0.979738 0.000000 0.000000
1.427169 -0.872360 3.183278 0.000000 0.200281 -0.979738 0.000000 0.000000
1.427129 -0.853252 3.187184 0.000000 0.200281 -0.979738 0.000000 0.000000
1.639216 -0.743612 3.157922 0.000000 -0.559774 -0.828645 0.000000 0.000000
1.639216 -0.759229 3.168472 0.000000 -0.559774 -0.828645 0.000000 0.000000
1.427089 -0.759229 3.168472 0.000000 -0.559774 -0.828645 0.000000 0.000000
1.427089 -0.743612 3.157922 0.000000 -0.559774 -0.828645 0.000000 0.000000
1.639216 -0.813411 2.896185 0.000000 -0.200281 0.979738 0.000000 0.000000
1.639216 -0.794304 2.900091 0.000000 -0.200281 0.979738 0.000000 0.000000
1.427089 -0.794304 2.900091 0.000000 -0.200281 0.979738 0.000000 0.000000
1.427089 -0.813411 2.896185 0.000000 -0.200281 0.979738 0.000000 0.000000
1.639579 -0.968629 3.098831 0.000000 0.944601 -0.328221 0.000000 0.000000
1.639620 -0.974925 3.080712 0.000000 0.944601 -0.328221 0.000000 0.000000
1.427492 -0.974925 3.080712 0.000000 0.944601 -0.328221 0.000000 0.000000
1.427452 -0.968629 3.098831 0.000000 0.944601 -0.328221 0.000000 0.000000
1.639418 -0.923052 3.157922 -0.000000 0.660728 -0.750625 0.000000 0.000000
1.639458 -0.937155 3.145508 -0.000000 0.660728 -0.750625 0.000000 0.000000
1.427331 -0.937155 3.145508 -0.000000 0.660728 -0.750625 0.000000 0.000000
1.427290 -0.923052 3.157922 -0.000000 0.660728 -0.750625 0.000000 0.000000
1.639216 -0.729509 2.937861 0.000000 -0.750625 0.660729 0.000000 0.000000
1.639216 -0.717094 2.951964 0.000000 -0.750625 0.660729 0.000000 0.000000
1.427089 -0.717094 2.951964 0.000000 -0.750625 0.660729 0.000000 0.000000
1.427089 -0.729509 2.937861 0.000000 -0.750625 0.660729 0.000000 0.000000
1.639378 -0.907435 2.914897 0.000000 0.448593 0.893736 0.000000 0.000000
1.639337 -0.890479 2.906387 0.000000 0.448593 0.893736 0.000000 0.000000
1.427209 -0.890479 2.906387 0.000000 0.448593 0.893736 0.000000 0.000000
1.427250 -0.907435 2.914897 0.000000 0.448593 0.893736 0.000000 0.000000
1.639216 -0.759229 3.168472 0.000000 -0.448593 -0.893736 0.000000 0.000000
1.639216 -0.776185 3.176982 0.000000 -0.448593 -0.893736 0.000000 0.000000
1.427089 -0.776185 3.176982 0.000000 -0.448593 -0.893736 0.000000 0.000000
1.427089 -0.759229 3.168472 0.000000 -0.448593 -0.893736 0.000000 0.000000
1.639378 -0.907435 3.168472 0.000000 0.559774 -0.828645 0.000000 0.000000
1.639418 -0.923052 3.157922 0.000000 0.559774 -0.828645 0.000000 0.000000
1.427290 -0.923052 3.157922 0.000000 0.559774 -0.828645 0.000000 0.000000
1.427250 -0.907435 3.168472 0.000000 0.559774 -0.828645 0.000000 0.000000
1.639216 -0.687832 3.021764 0.000000 -0.997742 0.067165 0.000000 0.000000
1.639216 -0.686491 3.041684 0.000000 -0.997742 0.067165 0.000000 0.000000
1.427089 -0.686491 3.041684 0.000000 -0.997742 0.067165 0.000000 0.000000
1.427089 -0.687832 3.021764 0.000000 -0.997742 0.067165 0.000000 0.000000
1.639337 -0.890479 2.906387 0.000000 0.328222 0.944601 0.000000 0.000000
1.639297 -0.872360 2.900091 0.000000 0.328222 0.944601 0.000000 0.000000
1.427169 -0.872360 2.900091 0.000000 0.328222 0.944601 0.000000 0.000000
1.427209 -0.890479 2.906387 0.000000 0.328222 0.944601 0.000000 0.000000
1.639700 -0.980172 3.041684 0.000000 0.997742 0.067165 0.000000 0.000000
1.639660 -0.978831 3.021764 0.000000 0.997742 0.067165 0.000000 0.000000
1.427532 -0.978831 3.021764 0.000000 0.997742 0.067165 0.000000 0.000000
1.427572 -0.980172 3.041684 0.000000 0.997742 0.067165 0.000000 0.000000
1.639216 -0.691738 3.080712 0.000000 -0.944601 -0.328220 0.000000 0.000000
1.639216 -0.698034 3.098831 0.000000 -0.944601 -0.328220 0.000000 0.000000
1.427089 -0.698034 3.098831 0.000000 -0.944601 -0.328220 0.000000 0.000000
1.427089 -0.691738 3.080712 0.000000 -0.944601 -0.328220 0.000000 0.000000
1.639216 -0.794304 2.900091 0.000000 -0.328223 0.944600 0.000000 0.000000
1.639216 -0.776185 2.906387 0.000000 -0.328223 0.944600 0.000000 0.000000
1.427089 -0.776185 2.906387 0.000000 -0.328223 0.944600 0.000000 0.000000
1.427089 -0.794304 2.900091 0.000000 -0.328223 0.944600 0.000000 0.000000
1.639660 -0.978831 3.021764 -0.000000 0.979738 0.200281 0.000000 0.000000
1.639620 -0.974925 3.002656 -0.000000 0.979738 0.200281 0.000000 0.000000
1.427492 -0.974925 3.002656 -0.000000 0.979738 0.200281 0.000000 0.000000
1.427532 -0.978831 3.021764 -0.000000 0.979738 0.200281 0.000000 0.000000
1.639216 -0.794304 3.183278 0.000000 -0.200281 -0.979738 0.000000 0.000000
1.639216 -0.813411 3.187184 0.000000 -0.200281 -0.979738 0.000000 0.000000
1.427089 -0.813411 3.187184 0.000000 -0.200281 -0.979738 0.000000 0.000000
1.427089 -0.794304 3.183278 0.000000 -0.200281 -0.979738 0.000000 0.000000
1.639539 -0.960119 2.967582 0.000000 0.828642 0.559779 0.000000 0.000000
1.639499 -0.949569 2.951964 0.000000 0.828642 0.559779 0.000000 0.000000
1.427371 -0.949569 2.951964 0.000000 0.828642 0.559779 0.000000 0.000000
1.427411 -0.960119 2.967582 0.000000 0.828642 0.559779 0.000000 0.000000
1.639216 -0.717094 3.131404 0.000000 -0.750625 -0.660729 0.000000 0.000000
1.639216 -0.729509 3.145508 0.000000 -0.750625 -0.660729 0.000000 0.000000
1.427089 -0.729509 3.145508 0.000000 -0.750625 -0.660729 0.000000 0.000000
1.427089 -0.717094 3.131404 0.000000 -0.750625 -0.660729 0.000000 0.000000
1.639297 -0.872360 3.183278 0.000000 0.328223 -0.944600 0.000000 0.000000
1.639337 -0.890479 3.176982 0.000000 0.328223 -0.944600 0.000000 0.000000
1.427209 -0.890479 3.176982 0.000000 0.328223 -0.944600 0.000000 0.000000
1.427169 -0.872360 3.183278 0.000000 0.328223 -0.944600 0.000000 0.000000
1.639216 -0.729509 3.145508 0.000000 -0.660727 -0.750626 0.000000 0.000000
1.639216 -0.743612 3.157922 0.000000 -0.660727 -0.750626 0.000000 0.000000
1.427089 -0.743612 3.157922 0.000000 -0.660727 -0.750626 0.000000 0.000000
1.427089 -0.729509 3.145508 0.000000 -0.660727 -0.750626 0.000000 0.000000
1.639297 -0.872360 2.900091 0.000000 0.200282 0.979738 0.000000 0.000000
1.639257 -0.853252 2.896185 0.000000 0.200282 0.979738 0.000000 0.000000
1.427129 -0.853252 2.896185 0.000000 0.200282 0.979738 0.000000 0.000000
1.427169 -0.872360 2.900091 0.000000 0.200282 0.979738 0.000000 0.000000
1.639539 -0.960119 3.115787 0.000000 0.893740 -0.448585 0.000000 0.000000
1.639579 -0.968629 3.098831 0.000000 0.893740 -0.448585 0.000000 0.000000
1.427452 -0.968629 3.098831 0.000000 0.893740 -0.448585 0.000000 0.000000
1.427411 -0.960119 3.115787 0.000000 0.893740 -0.448585 0.000000 0.000000
1.639257 -0.853252 3.187184 0.000000 -0.067159 0.997742 0.000000 0.000000
1.639216 -0.833332 3.188525 0.000000 -0.067159 0.997742 0.000000 0.000000
1.427089 -0.833332 3.188525 0.000000 -0.067159 0.997742 0.000000 0.000000
1.427129 -0.853252 3.187184 0.000000 -0.067159 0.997742 0.000000 0.000000
1.639216 -0.743612 2.925447 0.000000 -0.660727 0.750626 0.000000 0.000000
1.639216 -0.729509 2.937861 0.000000 -0.660727 0.750626 0.000000 0.000000
1.427089 -0.729509 2.937861 0.000000 -0.660727 0.750626 0.000000 0.000000
1.427089 -0.743612 2.925447 0.000000 -0.660727 0.750626 0.000000 0.000000
1.639458 -0.937155 3.145508 -0.000000 0.750624 -0.660730 0.000000 0.000000
1.639499 -0.949569 3.131404 -0.000000 0.750624 -0.660730 0.000000 0.000000
1.427371 -0.949569 3.131404 -0.000000 0.750624 -0.660730 0.000000 0.000000
1.427331 -0.937155 3.145508 -0.000000 0.750624 -0.660730 0.000000 0.000000
1.639216 -0.706544 2.967582 0.000000 -0.893740 0.448585 0.000000 0.000000
1.639216 -0.698034 2.984537 0.000000 -0.893740 0.448585 0.000000 0.000000
1.427089 -0.698034 2.984537 0.000000 -0.893740 0.448585 0.000000 0.000000
1.427089 -0.706544 2.967582 0.000000 -0.893740 0.448585 0.000000 0.000000
1.639579 -0.968629 2.984537 0.000000 0.893740 0.448585 0.000000 0.000000
1.639539 -0.960119 2.967582 0.000000 0.893740 0.448585 0.000000 0.000000
1.427411 -0.960119 2.967582 0.000000 0.893740 0.448585 0.000000 0.000000
1.427452 -0.968629 2.984537 0.000000 0.893740 0.448585 0.000000 0.000000
1.639216 -0.687832 3.061605 0.000000 -0.979738 -0.200281 0.000000 0.000000
1.639216 -0.691738 3.080712 0.000000 -0.979738 -0.200281 0.000000 0.000000
1.427089 -0.691738 3.080712 0.000000 -0.979738 -0.200281 0.000000 0.000000
1.427089 -0.687832 3.061605 0.000000 -0.979738 -0.200281 0.000000 0.000000
1.639216 -0.759229 2.914897 0.000000 -0.559774 0.828645 0.000000 0.000000
1.639216 -0.743612 2.925447 0.000000 -0.559774 0.828645 0.000000 0.000000
1.427089 -0.743612 2.925447 0.000000 -0.559774 0.828645 0.000000 0.000000
1.427089 -0.759229 2.914897 0.000000 -0.559774 0.828645 0.000000 0.000000
1.639499 -0.949569 2.951964 -0.000000 0.750624 0.660730 0.000000 0.000000
1.639458 -0.937155 2.937861 -0.000000 0.750624 0.660730 0.000000 0.000000
1.427331 -0.937155 2.937861 -0.000000 0.750624 0.660730 0.000000 0.000000
1.427371 -0.949569 2.951964 -0.000000 0.750624 0.660730 0.000000 0.000000
1.639216 -0.706544 3.115787 0.000000 -0.828642 -0.559779 0.000000 0.000000
1.639216 -0.717094 3.131404 0.000000 -0.828642 -0.559779 0.000000 0.000000
1.427089 -0.717094 3.131404 0.000000 -0.828642 -0.559779 0.000000 0.000000
1.427089 -0.706544 3.115787 0.000000 -0.828642 -0.559779 0.000000 0.000000
1.639216 -0.776185 2.906387 0.000000 -0.448593 0.893736 0.000000 0.000000
1.639216 -0.759229 2.914897 0.000000 -0.448593 0.893736 0.000000 0.000000
1.427089 -0.759229 2.914897 0.000000 -0.448593 0.893736 0.000000 0.000000
1.427089 -0.776185 2.906387 0.000000 -0.448593 0.893736 0.000000 0.000000
1.639620 -0.974925 3.080712 0.000000 0.979739 -0.200280 0.000000 0.000000
1.639660 -0.978831 3.061605 0.000000 0.979739 -0.200280 0.000000 0.000000
1.427532 -0.978831 3.061605 0.000000 0.979739 -0.200280 0.000000 0.000000
1.427492 -0.974925 3.080712 0.000000 0.979739 -0.200280 0.000000 0.000000
1.639499 -0.949569 3.131404 0.000000 0.828642 -0.559779 0.000000 0.000000
1.639539 -0.960119 3.115787 0.000000 0.828642 -0.559779 0.000000 0.000000
1.427411 -0.960119 3.115787 0.000000 0.828642 -0.559779 0.000000 0.000000
1.427371 -0.949569 3.131404 0.000000 0.828642 -0.559779 0.000000 0.000000
1.639216 -0.698034 2.984537 0.000000 -0.944601 0.328221 0.000000 0.000000
1.639216 -0.691738 3.002656 0.000000 -0.944601 0.328221 0.000000 0.000000
1.427089 -0.691738 3.002656 0.000000 -0.944601 0.328221 0.000000 0.000000
1.427089 -0.698034 2.984537 0.000000 -0.944601 0.328221 0.000000 0.000000
1.639418 -0.923052 2.925447 0.000000 0.559774 0.828645 0.000000 0.000000
1.639378 -0.907435 2.914897 0.000000 0.559774 0.828645 0.000000 0.000000
1.427250 -0.907435 2.914897 0.000000 0.559774 0.828645 0.000000 0.000000
1.427290 -0.923052 2.925447 0.000000 0.559774 0.828645 0.000000 0.000000
1.639216 -0.776185 3.176982 0.000000 -0.328223 -0.944600 0.000000 0.000000
1.639216 -0.794304 3.183278 0.000000 -0.328223 -0.944600 0.000000 0.000000
1.427089 -0.794304 3.183278 0.000000 -0.328223 -0.944600 0.000000 0.000000
1.427089 -0.776185 3.176982 0.000000 -0.328223 -0.944600 0.000000 0.000000
1.639337 -0.890479 3.176982 0.000000 0.448593 -0.893736 0.000000 0.000000
1.639378 -0.907435 3.168472 0.000000 0.448593 -0.893736 0.000000 0.000000
1.427250 -0.907435 3.168472 0.000000 0.448593 -0.893736 0.000000 0.000000
1.427209 -0.890479 3.176982 0.000000 0.448593 -0.893736 0.000000 0.000000
1.639216 -0.691738 3.002656 0.000000 -0.979739 0.200280 0.000000 0.000000
1.639216 -0.687832 3.021764 0.000000 -0.979739 0.200280 0.000000 0.000000
1.427089 -0.687832 3.021764 0.000000 -0.979739 0.200280 0.000000 0.000000
1.427089 -0.691738 3.002656 0.000000 -0.979739 0.200280 0.000000 0.000000
1.639257 -0.853252 2.896185 0.000000 0.067159 0.997742 0.000000 0.000000
1.639216 -0.833332 2.894844 0.000000 0.067159 0.997742 0.000000 0.000000
1.427089 -0.833332 2.894844 0.000000 0.067159 0.997742 0.000000 0.000000
1.427129 -0.853252 2.896185 0.000000 0.067159 0.997742 0.000000 0.000000
1.290318 -0.816876 2.981984 0.000000 -0.328221 0.944601 0.000000 0.000000
1.290318 -0.809237 2.984639 0.000000 -0.328221 0.944601 0.000000 0.000000
1.138608 -0.809237 2.984639 0.000000 -0.328221 0.944601 0.000000 0.000000
1.138608 -0.816876 2.981984 0.000000 -0.328221 0.944601 0.000000 0.000000
1.290318 -0.773631 3.058140 0.000000 -0.944603 -0.328214 0.000000 0.000000
1.290318 -0.776286 3.065779 0.000000 -0.944603 -0.328214 0.000000 0.000000
1.138608 -0.776286 3.065779 0.000000 -0.944603 -0.328214 0.000000 0.000000
1.138608 -0.773631 3.058140 0.000000 -0.944603 -0.328214 0.000000 0.000000
1.290522 -0.895244 3.041684 0.000000 0.997742 0.067167 0.000000 0.000000
1.290505 -0.894679 3.033285 0.000000 0.997742 0.067167 0.000000 0.000000
1.138795 -0.894679 3.033285 0.000000 0.997742 0.067167 0.000000 0.000000
1.138812 -0.895244 3.041684 0.000000 0.997742 0.067167 0.000000 0.000000
1.290369 -0.857427 2.984639 0.000000 0.328221 0.944601 0.000000 0.000000
1.290352 -0.849787 2.981984 0.000000 0.328221 0.944601 0.000000 0.000000
1.138642 -0.849787 2.981984 0.000000 0.328221 0.944601 0.000000 0.000000
1.138659 -0.857427 2.984639 0.000000 0.328221 0.944601 0.000000 0.000000
1.290318 -0.771985 3.033285 0.000000 -0.997742 0.067167 0.000000 0.000000
1.290318 -0.771419 3.041684 0.000000 -0.997742 0.067167 0.000000 0.000000
1.138608 -0.771419 3.041684 0.000000 -0.997742 0.067167 0.000000 0.000000
1.138608 -0.771985 3.033285 0.000000 -0.997742 0.067167 0.000000 0.000000
1.290386 -0.864576 3.095142 0.000000 0.559779 -0.828642 0.000000 0.000000
1.290403 -0.871160 3.090694 0.000000 0.559779 -0.828642 0.000000 0.000000
1.138692 -0.871160 3.090694 0.000000 0.559779 -0.828642 0.000000 0.000000
1.138676 -0.864576 3.095142 0.000000 0.559779 -0.828642 0.000000 0.000000
1.290318 -0.802088 3.095142 0.000000 -0.448581 -0.893742 0.000000 0.000000
1.290318 -0.809237 3.098730 0.000000 -0.448581 -0.893742 0.000000 0.000000
1.138608 -0.809237 3.098730 0.000000 -0.448581 -0.893742 0.000000 0.000000
1.138608 -0.802088 3.095142 0.000000 -0.448581 -0.893742 0.000000 0.000000
1.290386 -0.864576 2.988227 0.000000 0.448581 0.893742 0.000000 0.000000
1.290369 -0.857427 2.984639 0.000000 0.448581 0.893742 0.000000 0.000000
1.138659 -0.857427 2.984639 0.000000 0.448581 0.893742 0.000000 0.000000
1.138676 -0.864576 2.988227 0.000000 0.448581 0.893742 0.000000 0.000000
1.290318 -0.789557 2.997909 0.000000 -0.750629 0.660724 0.000000 0.000000
1.290318 -0.784322 3.003856 0.000000 -0.750629 0.660724 0.000000 0.000000
1.138608 -0.784322 3.003856 0.000000 -0.750629 0.660724 0.000000 0.000000
1.138608 -0.789557 2.997909 0.000000 -0.750629 0.660724 0.000000 0.000000
1.290403 -0.871160 3.090694 0.000000 0.660728 -0.750625 0.000000 0.000000
1.290420 -0.877107 3.085459 0.000000 0.660728 -0.750625 0.000000 0.000000
1.138710 -0.877107 3.085459 0.000000 0.660728 -0.750625 0.000000 0.000000
1.138692 -0.871160 3.090694 0.000000 0.660728 -0.750625 0.000000 0.000000
1.290471 -0.890377 3.065779 0.000000 0.944603 -0.328214 0.000000 0.000000
1.290488 -0.893032 3.058140 0.000000 0.944603 -0.328214 0.000000 0.000000
1.138777 -0.893032 3.058140 0.000000 0.944603 -0.328214 0.000000 0.000000
1.138761 -0.890377 3.065779 0.000000 0.944603 -0.328214 0.000000 0.000000
1.290318 -0.824933 2.980337 0.000000 -0.200293 0.979736 0.000000 0.000000
1.290318 -0.816876 2.981984 0.000000 -0.200293 0.979736 0.000000 0.000000
1.138608 -0.816876 2.981984 0.000000 -0.200293 0.979736 0.000000 0.000000
1.138608 -0.824933 2.980337 0.000000 -0.200293 0.979736 0.000000 0.000000
1.290318 -0.795503 3.090694 0.000000 -0.559779 -0.828642 0.000000 0.000000
1.290318 -0.802088 3.095142 0.000000 -0.559779 -0.828642 0.000000 0.000000
1.138608 -0.802088 3.095142 0.000000 -0.559779 -0.828642 0.000000 0.000000
1.138608 -0.795503 3.090694 0.000000 -0.559779 -0.828642 0.000000 0.000000
1.290335 -0.841731 3.103032 0.000000 0.200293 -0.979736 0.000000 0.000000
1.290352 -0.849787 3.101385 0.000000 0.200293 -0.979736 0.000000 0.000000
1.138642 -0.849787 3.101385 0.000000 0.200293 -0.979736 0.000000 0.000000
1.138625 -0.841731 3.103032 0.000000 0.200293 -0.979736 0.000000 0.000000
1.290318 -0.824933 3.103032 0.000000 -0.067152 -0.997743 0.000000 0.000000
1.290318 -0.833332 3.103597 0.000000 -0.067152 -0.997743 0.000000 0.000000
1.138608 -0.833332 3.103597 0.000000 -0.067152 -0.997743 0.000000 0.000000
1.138608 -0.824933 3.103032 0.000000 -0.067152 -0.997743 0.000000 0.000000
1.290318 -0.771419 3.041684 0.000000 -0.997742 -0.067167 0.000000 0.000000
1.290318 -0.771985 3.050083 0.000000 -0.997742 -0.067167 0.000000 0.000000
1.138608 -0.771985 3.050083 0.000000 -0.997742 -0.067167 0.000000 0.000000
1.138608 -0.771419 3.041684 0.000000 -0.997742 -0.067167 0.000000 0.000000
1.290420 -0.877107 2.997909 0.000000 0.660728 0.750625 0.000000 0.000000
1.290403 -0.871160 2.992675 0.000000 0.660728 0.750625 0.000000 0.000000
1.138692 -0.871160 2.992675 0.000000 0.660728 0.750625 0.000000 0.000000
1.138710 -0.877107 2.997909 0.000000 0.660728 0.750625 0.000000 0.000000
1.290318 -0.784322 3.003856 0.000000 -0.828642 0.559779 0.000000 0.000000
1.290318 -0.779874 3.010440 0.000000 -0.828642 0.559779 0.000000 0.000000
1.138608 -0.779874 3.010440 0.000000 -0.828642 0.559779 0.000000 0.000000
1.138608 -0.784322 3.003856 0.000000 -0.828642 0.559779 0.000000 0.000000
1.290488 -0.893032 3.025229 0.000000 0.944603 0.328214 0.000000 0.000000
1.290471 -0.890377 3.017589 0.000000 0.944603 0.328214 0.000000 0.000000
1.138761 -0.890377 3.017589 0.000000 0.944603 0.328214 0.000000 0.000000
1.138777 -0.893032 3.025229 0.000000 0.944603 0.328214 0.000000 0.000000
1.290318 -0.833332 2.979772 0.000000 -0.067152 0.997743 0.000000 0.000000
1.290318 -0.824933 2.980337 0.000000 -0.067152 0.997743 0.000000 0.000000
1.138608 -0.824933 2.980337 0.000000 -0.067152 0.997743 0.000000 0.000000
1.138608 -0.833332 2.979772 0.000000 -0.067152 0.997743 0.000000 0.000000
1.290318 -0.776286 3.065779 0.000000 -0.893735 -0.448596 0.000000 0.000000
1.290318 -0.779874 3.072928 0.000000 -0.893735 -0.448596 0.000000 0.000000
1.138608 -0.779874 3.072928 0.000000 -0.893735 -0.448596 0.000000 0.000000
1.138608 -0.776286 3.065779 0.000000 -0.893735 -0.448596 0.000000 0.000000
1.290505 -0.894679 3.050083 0.000000 0.997742 -0.067167 0.000000 0.000000
1.290522 -0.895244 3.041684 0.000000 0.997742 -0.067167 0.000000 0.000000
1.138812 -0.895244 3.041684 0.000000 0.997742 -0.067167 0.000000 0.000000
1.138795 -0.894679 3.050083 0.000000 0.997742 -0.067167 0.000000 0.000000
1.290335 -0.841731 2.980337 0.000000 0.067152 0.997743 0.000000 0.000000
1.290318 -0.833332 2.979772 0.000000 0.067152 0.997743 0.000000 0.000000
1.138608 -0.833332 2.979772 0.000000 0.067152 0.997743 0.000000 0.000000
1.138625 -0.841731 2.980337 0.000000 0.067152 0.997743 0.000000 0.000000
1.290318 -0.773631 3.025229 0.000000 -0.979739 0.200277 0.000000 0.000000
1.290318 -0.771985 3.033285 0.000000 -0.979739 0.200277 0.000000 0.000000
1.138608 -0.771985 3.033285 0.000000 -0.979739 0.200277 0.000000 0.000000
1.138608 -0.773631 3.025229 0.000000 -0.979739 0.200277 0.000000 0.000000
1.290369 -0.857427 3.098730 0.000000 0.448581 -0.893742 0.000000 0.000000
1.290386 -0.864576 3.095142 0.000000 0.448581 -0.893742 0.000000 0.000000
1.138676 -0.864576 3.095142 0.000000 0.448581 -0.893742 0.000000 0.000000
1.138659 -0.857427 3.098730 0.000000 0.448581 -0.893742 0.000000 0.000000
1.290318 -0.809237 3.098730 0.000000 -0.328221 -0.944601 0.000000 0.000000
1.290318 -0.816876 3.101385 0.000000 -0.328221 -0.944601 0.000000 0.000000
1.138608 -0.816876 3.101385 0.000000 -0.328221 -0.944601 0.000000 0.000000
1.138608 -0.809237 3.098730 0.000000 -0.328221 -0.944601 0.000000 0.000000
1.290403 -0.871160 2.992675 0.000000 0.559779 0.828642 0.000000 0.000000
1.290386 -0.864576 2.988227 0.000000 0.559779 0.828642 0.000000 0.000000
1.138676 -0.864576 2.988227 0.000000 0.559779 0.828642 0.000000 0.000000
1.138692 -0.871160 2.992675 0.000000 0.559779 0.828642 0.000000 0.000000
1.290318 -0.776286 3.017589 0.000000 -0.944603 0.328214 0.000000 0.000000
1.290318 -0.773631 3.025229 0.000000 -0.944603 0.328214 0.000000 0.000000
1.138608 -0.773631 3.025229 0.000000 -0.944603 0.328214 0.000000 0.000000
1.138608 -0.776286 3.017589 0.000000 -0.944603 0.328214 0.000000 0.000000
1.290437 -0.882341 3.079513 0.000000 0.828642 -0.559779 0.000000 0.000000
1.290454 -0.886789 3.072928 0.000000 0.828642 -0.559779 0.000000 0.000000
1.138744 -0.886789 3.072928 0.000000 0.828642 -0.559779 0.000000 0.000000
1.138727 -0.882341 3.079513 0.000000 0.828642 -0.559779 0.000000 0.000000
1.290488 -0.893032 3.058140 0.000000 0.979739 -0.200277 0.000000 0.000000
1.290505 -0.894679 3.050083 0.000000 0.979739 -0.200277 0.000000 0.000000
1.138795 -0.894679 3.050083 0.000000 0.979739 -0.200277 0.000000 0.000000
1.138777 -0.893032 3.058140 0.000000 0.979739 -0.200277 0.000000 0.000000
1.290318 -0.809237 2.984639 0.000000 -0.448581 0.893742 0.000000 0.000000
1.290318 -0.802088 2.988227 0.000000 -0.448581 0.893742 0.000000 0.000000
1.138608 -0.802088 2.988227 0.000000 -0.448581 0.893742 0.000000 0.000000
1.138608 -0.809237 2.984639 0.000000 -0.448581 0.893742 0.000000 0.000000
1.290318 -0.779874 3.072928 0.000000 -0.828642 -0.559779 0.000000 0.000000
1.290318 -0.784322 3.079513 0.000000 -0.828642 -0.559779 0.000000 0.000000
1.138608 -0.784322 3.079513 0.000000 -0.828642 -0.559779 0.000000 0.000000
1.138608 -0.779874 3.072928 0.000000 -0.828642 -0.559779 0.000000 0.000000
1.290437 -0.882341 3.003856 0.000000 0.750629 0.660724 0.000000 0.000000
1.290420 -0.877107 2.997909 0.000000 0.750629 0.660724 0.000000 0.000000
1.138710 -0.877107 2.997909 0.000000 0.750629 0.660724 0.000000 0.000000
1.138727 -0.882341 3.003856 0.000000 0.750629 0.660724 0.000000 0.000000
1.290318 -0.802088 2.988227 0.000000 -0.559779 0.828642 0.000000 0.000000
1.290318 -0.795503 2.992675 0.000000 -0.559779 0.828642 0.000000 0.000000
1.138608 -0.795503 2.992675 0.000000 -0.559779 0.828642 0.000000 0.000000
1.138608 -0.802088 2.988227 0.000000 -0.559779 0.828642 0.000000 0.000000
1.290318 -0.771985 3.050083 0.000000 -0.979739 -0.200277 0.000000 0.000000
1.290318 -0.773631 3.058140 0.000000 -0.979739 -0.200277 0.000000 0.000000
1.138608 -0.773631 3.058140 0.000000 -0.979739 -0.200277 0.000000 0.000000
1.138608 -0.771985 3.050083 0.000000 -0.979739 -0.200277 0.000000 0.000000
1.290471 -0.890377 3.017589 0.000000 0.893735 0.448596 0.000000 0.000000
1.290454 -0.886789 3.010440 0.000000 0.893735 0.448596 0.000000 0.000000
1.138744 -0.886789 3.010440 0.000000 0.893735 0.448596 0.000000 0.000000
1.138761 -0.890377 3.017589 0.000000 0.893735 0.448596 0.000000 0.000000
1.290318 -0.779874 3.010440 0.000000 -0.893735 0.448596 0.000000 0.000000
1.290318 -0.776286 3.017589 0.000000 -0.893735 0.448596 0.000000 0.000000
1.138608 -0.776286 3.017589 0.000000 -0.893735 0.448596 0.000000 0.000000
1.138608 -0.779874 3.010440 0.000000 -0.893735 0.448596 0.000000 0.000000
1.290420 -0.877107 3.085459 0.000000 0.750629 -0.660724 0.000000 0.000000
1.290437 -0.882341 3.079513 0.000000 0.750629 -0.660724 0.000000 0.000000
1.138727 -0.882341 3.079513 0.000000 0.750629 -0.660724 0.000000 0.000000
1.138710 -0.877107 3.085459 0.000000 0.750629 -0.660724 0.000000 0.000000
1.290318 -0.795503 2.992675 0.000000 -0.660728 0.750625 0.000000 0.000000
1.290318 -0.789557 2.997909 0.000000 -0.660728 0.750625 0.000000 0.000000
1.138608 -0.789557 2.997909 0.000000 -0.660728 0.750625 0.000000 0.000000
1.138608 -0.795503 2.992675 0.000000 -0.660728 0.750625 0.000000 0.000000
1.290335 -0.841731 3.103032 0.000000 -0.067152 0.997743 0.000000 0.000000
1.290318 -0.833332 3.103597 0.000000 -0.067152 0.997743 0.000000 0.000000
1.138608 -0.833332 3.103597 0.000000 -0.067152 0.997743 0.000000 0.000000
1.138625 -0.841731 3.103032 0.000000 -0.067152 0.997743 0.000000 0.000000
1.290454 -0.886789 3.072928 0.000000 0.893735 -0.448596 0.000000 0.000000
1.290471 -0.890377 3.065779 0.000000 0.893735 -0.448596 0.000000 0.000000
1.138761 -0.890377 3.065779 0.000000 0.893735 -0.448596 0.000000 0.000000
1.138744 -0.886789 3.072928 0.000000 0.893735 -0.448596 0.000000 0.000000
1.290352 -0.849787 2.981984 0.000000 0.200293 0.979736 0.000000 0.000000
1.290335 -0.841731 2.980337 0.000000 0.200293 0.979736 0.000000 0.000000
1.138625 -0.841731 2.980337 0.000000 0.200293 0.979736 0.000000 0.000000
1.138642 -0.849787 2.981984 0.000000 0.200293 0.979736 0.000000 0.000000
1.290318 -0.789557 3.085459 0.000000 -0.660728 -0.750625 0.000000 0.000000
1.290318 -0.795503 3.090694 0.000000 -0.660728 -0.750625 0.000000 0.000000
1.138608 -0.795503 3.090694 0.000000 -0.660728 -0.750625 0.000000 0.000000
1.138608 -0.789557 3.085459 0.000000 -0.660728 -0.750625 0.000000 0.000000
1.290352 -0.849787 3.101385 0.000000 0.328221 -0.944601 0.000000 0.000000
1.290369 -0.857427 3.098730 0.000000 0.328221 -0.944601 0.000000 0.000000
1.138659 -0.857427 3.098730 0.000000 0.328221 -0.944601 0.000000 0.000000
1.138642 -0.849787 3.101385 0.000000 0.328221 -0.944601 0.000000 0.000000
1.290318 -0.784322 3.079513 0.000000 -0.750629 -0.660724 0.000000 0.000000
1.290318 -0.789557 3.085459 0.000000 -0.750629 -0.660724 0.000000 0.000000
1.138608 -0.789557 3.085459 0.000000 -0.750629 -0.660724 0.000000 0.000000
1.138608 -0.784322 3.079513 0.000000 -0.750629 -0.660724 0.000000 0.000000
1.290454 -0.886789 3.010440 0.000000 0.828642 0.559779 0.000000 0.000000
1.290437 -0.882341 3.003856 0.000000 0.828642 0.559779 0.000000 0.000000
1.138727 -0.882341 3.003856 0.000000 0.828642 0.559779 0.000000 0.000000
1.138744 -0.886789 3.010440 0.000000 0.828642 0.559779 0.000000 0.000000
1.290318 -0.816876 3.101385 0.000000 -0.200293 -0.979736 0.000000 0.000000
1.290318 -0.824933 3.103032 0.000000 -0.200293 -0.979736 0.000000 0.000000
1.138608 -0.824933 3.103032 0.000000 -0.200293 -0.979736 0.000000 0.000000
1.138608 -0.816876 3.101385 0.000000 -0.200293 -0.979736 0.000000 0.000000
1.290505 -0.894679 3.033285 0.000000 0.979739 0.200277 0.000000 0.000000
1.290488 -0.893032 3.025229 0.000000 0.979739 0.200277 0.000000 0.000000
1.138777 -0.893032 3.025229 0.000000 0.979739 0.200277 0.000000 0.000000
1.138795 -0.894679 3.033285 0.000000 0.979739 0.200277 0.000000 0.000000
1.138727 -0.882341 3.003856 0.999997 0.002145 -0.000979 0.000000 0.000000
1.138710 -0.877107 2.997909 0.999997 0.002145 -0.000979 0.000000 0.000000
1.138659 -0.833332 3.041684 0.999997 0.002145 -0.000979 0.000000 0.000000
1.138608 -0.779874 3.072928 1.000000 0.000683 0.000461 0.000000 0.000000
1.138608 -0.784322 3.079513 1.000000 0.000683 0.000461 0.000000 0.000000
1.138659 -0.833332 3.041684 1.000000 0.000683 0.000461 0.000000 0.000000
1.138608 -0.809237 2.984639 1.000000 0.000370 -0.000736 0.000000 0.000000
1.138608 -0.802088 2.988227 1.000000 0.000370 -0.000736 0.000000 0.000000
1.138659 -0.833332 3.041684 1.000000 0.000370 -0.000736 0.000000 0.000000
1.138777 -0.893032 3.058140 0.999996 0.002439 0.001617 0.000000 0.000000
1.138795 -0.894679 3.050083 0.999996 0.002439 0.001617 0.000000 0.000000
1.138659 -0.833332 3.041684 0.999996 0.002439 0.001617 0.000000 0.000000
1.138727 -0.882341 3.079513 0.999997 0.002217 0.001073 0.000000 0.000000
1.138744 -0.886789 3.072928 0.999997 0.002217 0.001073 0.000000 0.000000
1.138659 -0.833332 3.041684 0.999997 0.002217 0.001073 0.000000 0.000000
1.138608 -0.776286 3.017589 1.000000 0.000778 -0.000270 0.000000 0.000000
1.138608 -0.773631 3.025229 1.000000 0.000778 -0.000270 0.000000 0.000000
1.138659 -0.833332 3.041684 1.000000 0.000778 -0.000270 0.000000 0.000000
1.138692 -0.871160 2.992675 0.999998 0.001998 -0.000849 0.000000 0.000000
1.138676 -0.864576 2.988227 0.999998 0.001998 -0.000849 0.000000 0.000000
1.138659 -0.833332 3.041684 0.999998 0.001998 -0.000849 0.000000 0.000000
1.138608 -0.809237 3.098730 1.000000 0.000270 0.000778 0.000000 0.000000
1.138608 -0.816876 3.101385 1.000000 0.000270 0.000778 0.000000 0.000000
1.138659 -0.833332 3.041684 1.000000 0.000270 0.000778 0.000000 0.000000
1.138659 -0.857427 3.098730 0.999998 0.001967 0.000831 0.000000 0.000000
1.138676 -0.864576 3.095142 0.999998 0.001967 0.000831 0.000000 0.000000
1.138659 -0.833332 3.041684 0.999998 0.001967 0.000831 0.000000 0.000000
1.138608 -0.773631 3.025229 1.000000 0.000807 -0.000165 0.000000 0.000000
1.138608 -0.771985 3.033285 1.000000 0.000807 -0.000165 0.000000 0.000000
1.138659 -0.833332 3.041684 1.000000 0.000807 -0.000165 0.000000 0.000000
1.138625 -0.841731 2.980337 0.999998 0.001960 -0.000822 0.000000 0.000000
1.138608 -0.833332 2.979772 0.999998 0.001960 -0.000822 0.000000 0.000000
1.138659 -0.833332 3.041684 0.999998 0.001960 -0.000822 0.000000 0.000000
1.138795 -0.894679 3.050083 0.999995 0.002472 0.001863 0.000000 0.000000
1.138812 -0.895244 3.041684 0.999995 0.002472 0.001863 0.000000 0.000000
1.138659 -0.833332 3.041684 0.999995 0.002472 0.001863 0.000000 0.000000
1.138608 -0.776286 3.065779 1.000000 0.000736 0.000370 0.000000 0.000000
1.138608 -0.779874 3.072928 1.000000 0.000736 0.000370 0.000000 0.000000
1.138659 -0.833332 3.041684 1.000000 0.000736 0.000370 0.000000 0.000000
1.138608 -0.833332 2.979772 1.000000 0.000055 -0.000822 0.000000 0.000000
1.138608 -0.824933 2.980337 1.000000 0.000055 -0.000822 0.000000 0.000000
1.138659 -0.833332 3.041684 1.000000 0.000055 -0.000822 0.000000 0.000000
1.138777 -0.893032 3.025229 0.999996 0.002376 -0.001390 0.000000 0.000000
1.138761 -0.890377 3.017589 0.999996 0.002376 -0.001390 0.000000 0.000000
1.138659 -0.833332 3.041684 0.999996 0.002376 -0.001390 0.000000 0.000000
1.138608 -0.784322 3.003856 1.000000 0.000683 -0.000461 0.000000 0.000000
1.138608 -0.779874 3.010440 1.000000 0.000683 -0.000461 0.000000 0.000000
1.138659 -0.833332 3.041684 1.000000 0.000683 -0.000461 0.000000 0.000000
1.138710 -0.877107 2.997909 0.999997 0.002070 -0.000905 0.000000 0.000000
1.138692 -0.871160 2.992675 0.999997 0.002070 -0.000905 0.000000 0.000000
1.138659 -0.833332 3.041684 0.999997 0.002070 -0.000905 0.000000 0.000000
1.138608 -0.771419 3.041684 1.000000 0.000822 0.000055 0.000000 0.000000
1.138608 -0.771985 3.050083 1.000000 0.000822 0.000055 0.000000 0.000000
1.138659 -0.833332 3.041684 1.000000 0.000822 0.000055 0.000000 0.000000
1.138608 -0.824933 3.103032 1.000000 0.000055 0.000822 0.000000 0.000000
1.138608 -0.833332 3.103597 1.000000 0.000055 0.000822 0.000000 0.000000
1.138659 -0.833332 3.041684 1.000000 0.000055 0.000822 0.000000 0.000000
1.138625 -0.841731 3.103032 0.999998 0.001948 0.000821 0.000000 0.000000
1.138642 -0.849787 3.101385 0.999998 0.001948 0.000821 0.000000 0.000000
1.138659 -0.833332 3.041684 0.999998 0.001948 0.000821 0.000000 0.000000
1.138608 -0.795503 3.090694 1.000000 0.000461 0.000683 0.000000 0.000000
1.138608 -0.802088 3.095142 1.000000 0.000461 0.000683 0.000000 0.000000
1.138659 -0.833332 3.041684 1.000000 0.000461 0.000683 0.000000 0.000000
1.138608 -0.824933 2.980337 1.000000 0.000165 -0.000807 0.000000 0.000000
1.138608 -0.816876 2.981984 1.000000 0.000165 -0.000807 0.000000 0.000000
1.138659 -0.833332 3.041684 1.000000 0.000165 -0.000807 0.000000 0.000000
1.138761 -0.890377 3.065779 0.999996 0.002376 0.001390 0.000000 0.000000
1.138777 -0.893032 3.058140 0.999996 0.002376 0.001390 0.000000 0.000000
1.138659 -0.833332 3.041684 0.999996 0.002376 0.001390 0.000000 0.000000
1.138692 -0.871160 3.090694 0.999997 0.002070 0.000905 0.000000 0.000000
1.138710 -0.877107 3.085459 0.999997 0.002070 0.000905 0.000000 0.000000
1.138659 -0.833332 3.041684 0.999997 0.002070 0.000905 0.000000 0.000000
1.138608 -0.789557 2.997909 1.000000 0.000618 -0.000544 0.000000 0.000000
1.138608 -0.784322 3.003856 1.000000 0.000618 -0.000544 0.000000 0.000000
1.138659 -0.833332 3.041684 1.000000 0.000618 -0.000544 0.000000 0.000000
1.138676 -0.864576 2.988227 0.999998 0.001967 -0.000831 0.000000 0.000000
1.138659 -0.857427 2.984639 0.999998 0.001967 -0.000831 0.000000 0.000000
1.138659 -0.833332 3.041684 0.999998 0.001967 -0.000831 0.000000 0.000000
1.138608 -0.802088 3.095142 1.000000 0.000370 0.000736 0.000000 0.000000
1.138608 -0.809237 3.098730 1.000000 0.000370 0.000736 0.000000 0.000000
1.138659 -0.833332 3.041684 1.000000 0.000370 0.000736 0.000000 0.000000
1.138676 -0.864576 3.095142 0.999998 0.001998 0.000849 0.000000 0.000000
1.138692 -0.871160 3.090694 0.999998 0.001998 0.000849 0.000000 0.000000
1.138659 -0.833332 3.041684 0.999998 0.001998 0.000849 0.000000 0.000000
1.138608 -0.771985 3.033285 1.000000 0.000822 -0.000055 0.000000 0.000000
1.138608 -0.771419 3.041684 1.000000 0.000822 -0.000055 0.000000 0.000000
1.138659 -0.833332 3.041684 1.000000 0.000822 -0.000055 0.000000 0.000000
1.138659 -0.857427 2.984639 0.999998 0.001932 -0.000816 0.000000 0.000000
1.138642 -0.849787 2.981984 0.999998 0.001932 -0.000816 0.000000 0.000000
1.138659 -0.833332 3.041684 0.999998 0.001932 -0.000816 0.000000 0.000000
1.138812 -0.895244 3.041684 0.999995 0.002472 -0.001863 0.000000 0.000000
1.138795 -0.894679 3.033285 0.999995 0.002472 -0.001863 0.000000 0.000000
1.138659 -0.833332 3.041684 0.999995 0.002472 -0.001863 0.000000 0.000000
1.138608 -0.773631 3.058140 1.000000 0.000778 0.000270 0.000000 0.000000
1.138608 -0.776286 3.065779 1.000000 0.000778 0.000270 0.000000 0.000000
1.138659 -0.833332 3.041684 1.000000 0.000778 0.000270 0.000000 0.000000
1.138608 -0.816876 2.981984 1.000000 0.000270 -0.000778 0.000000 0.000000
1.138608 -0.809237 2.984639 1.000000 0.000270 -0.000778 0.000000 0.000000
1.138659 -0.833332 3.041684 1.000000 0.000270 -0.000778 0.000000 0.000000
1.138795 -0.894679 3.033285 0.999996 0.002439 -0.001617 0.000000 0.000000
1.138777 -0.893032 3.025229 0.999996 0.002439 -0.001617 0.000000 0.000000
1.138659 -0.833332 3.041684 0.999996 0.002439 -0.001617 0.000000 0.000000
1.138608 -0.816876 3.101385 1.000000 0.000165 0.000807 0.000000 0.000000
1.138608 -0.824933 3.103032 1.000000 0.000165 0.000807 0.000000 0.000000
1.138659 -0.833332 3.041684 1.000000 0.000165 0.000807 0.000000 0.000000
1.138744 -0.886789 3.010440 0.999997 0.002217 -0.001073 0.000000 0.000000
1.138727 -0.882341 3.003856 0.999997 0.002217 -0.001073 0.000000 0.000000
1.138659 -0.833332 3.041684 0.999997 0.002217 -0.001073 0.000000 0.000000
1.138608 -0.784322 3.079513 1.000000 0.000618 0.000544 0.000000 0.000000
1.138608 -0.789557 3.085459 1.000000 0.000618 0.000544 0.000000 0.000000
1.138659 -0.833332 3.041684 1.000000 0.000618 0.000544 0.000000 0.000000
1.138642 -0.849787 3.101385 0.999998 0.001932 0.000816 0.000000 0.000000
1.138659 -0.857427 3.098730 0.999998 0.001932 0.000816 0.000000 0.000000
1.138659 -0.833332 3.041684 0.999998 0.001932 0.000816 0.000000 0.000000
1.138608 -0.789557 3.085459 1.000000 0.000544 0.000618 0.000000 0.000000
1.138608 -0.795503 3.090694 1.000000 0.000544 0.000618 0.000000 0.000000
1.138659 -0.833332 3.041684 1.000000 0.000544 0.000618 0.000000 0.000000
1.138642 -0.849787 2.981984 0.999998 0.001948 -0.000821 0.000000 0.000000
1.138625 -0.841731 2.980337 0.999998 0.001948 -0.000821 0.000000 0.000000
1.138659 -0.833332 3.041684 0.999998 0.001948 -0.000821 0.000000 0.000000
1.138744 -0.886789 3.072928 0.999997 0.002307 0.001227 0.000000 0.000000
1.138761 -0.890377 3.065779 0.999997 0.002307 0.001227 0.000000 0.000000
1.138659 -0.833332 3.041684 0.999997 0.002307 0.001227 0.000000 0.000000
1.138625 -0.841731 3.103032 -0.999998 -0.001960 -0.000822 0.000000 0.000000
1.138608 -0.833332 3.103597 -0.999998 -0.001960 -0.000822 0.000000 0.000000
1.138659 -0.833332 3.041684 -0.999998 -0.001960 -0.000822 0.000000 0.000000
1.138608 -0.795503 2.992675 1.000000 0.000544 -0.000618 0.000000 0.000000
1.138608 -0.789557 2.997909 1.000000 0.000544 -0.000618 0.000000 0.000000
1.138659 -0.833332 3.041684 1.000000 0.000544 -0.000618 0.000000 0.000000
1.138710 -0.877107 3.085459 0.999997 0.002145 0.000979 0.000000 0.000000
1.138727 -0.882341 3.079513 0.999997 0.002145 0.000979 0.000000 0.000000
1.138659 -0.833332 3.041684 0.999997 0.002145 0.000979 0.000000 0.000000
1.138608 -0.779874 3.010440 1.000000 0.000736 -0.000370 0.000000 0.000000
1.138608 -0.776286 3.017589 1.000000 0.000736 -0.000370 0.000000 0.000000
1.138659 -0.833332 3.041684 1.000000 0.000736 -0.000370 0.000000 0.000000
1.138761 -0.890377 3.017589 0.999997 0.002307 -0.001227 0.000000 0.000000
1.138744 -0.886789 3.010440 0.999997 0.002307 -0.001227 0.000000 0.000000
1.138659 -0.833332 3.041684 0.999997 0.002307 -0.001227 0.000000 0.000000
1.138608 -0.771985 3.050083 1.000000 0.000807 0.000165 0.000000 0.000000
1.138608 -0.773631 3.058140 1.000000 0.000807 0.000165 0.000000 0.000000
1.138659 -0.833332 3.041684 1.000000 0.000807 0.000165 0.000000 0.000000
1.138608 -0.802088 2.988227 1.000000 0.000461 -0.000683 0.000000 0.000000
1.138608 -0.795503 2.992675 1.000000 0.000461 -0.000683 0.000000 0.000000
1.138659 -0.833332 3.041684 1.000000 0.000461 -0.000683 0.000000 0.000000
3 0 1 2
3 3 4 5
3 6 7 8
3 9 10 11
3 12 13 14
3 15 16 17
3 18 19 20
3 21 22 23
3 24 25 26
3 27 28 29
3 30 31 32
3 33 34 35
3 36 37 38
3 39 40 41
3 42 43 44
3 45 46 47
3 48 49 50
3 51 52 53
3 54 55 56
3 57 58 59
3 60 61 62
3 63 64 65
3 66 67 68
3 69 70 71
3 72 73 74
3 75 76 77
3 78 79 80
3 81 82 83
3 84 85 86
3 87 88 89
3 90 91 92
3 93 94 95
3 96 97 98
3 99 100 101
3 102 103 104
3 105 106 107
3 108 109 110
3 111 112 113
3 114 115 116
3 117 118 119
3 120 121 122
3 123 124 125
3 126 127 128
3 129 130 131
3 132 133 134
3 135 136 137
3 138 139 140
3 141 142 143
4 144 145 146 147
4 148 149 150 151
4 152 153 154 155
4 156 157 158 159
4 160 161 162 163
4 164 165 166 167
4 168 169 170 171
4 172 173 174 175
4 176 177 178 179
4 180 181 182 183
4 184 185 186 187
4 188 189 190 191
4 192 193 194 195
4 196 197 198 199
4 200 201 202 203
4 204 205 206 207
4 208 209 210 211
4 212 213 214 215
4 216 217 218 219
4 220 221 222 223
4 224 225 226 227
4 228 229 230 231
4 232 233 234 235
4 236 237 238 239
4 240 241 242 243
4 244 245 246 247
4 248 249 250 251
4 252 253 254 255
4 256 257 258 259
4 260 261 262 263
4 264 265 266 267
4 268 269 270 271
4 272 273 274 275
4 276 277 278 279
4 280 281 282 283
4 284 285 286 287
4 288 289 290 291
4 292 293 294 295
4 296 297 298 299
4 300 301 302 303
4 304 305 306 307
4 308 309 310 311
4 312 313 314 315
4 316 317 318 319
4 320 321 322 323
4 324 325 326 327
4 328 329 330 331
4 332 333 334 335
4 336 337 338 339
4 340 341 342 343
4 344 345 346 347
4 348 349 350 351
4 352 353 354 355
4 356 357 358 359
4 360 361 362 363
4 364 365 366 367
4 368 369 370 371
4 372 373 374 375
4 376 377 378 379
4 380 381 382 383
4 384 385 386 387
4 388 389 390 391
4 392 393 394 395
4 396 397 398 399
4 400 401 402 403
4 404 405 406 407
4 408 409 410 411
4 412 413 414 415
4 416 417 418 419
4 420 421 422 423
4 424 425 426 427
4 428 429 430 431
4 432 433 434 435
4 436 437 438 439
4 440 441 442 443
4 444 445 446 447
4 448 449 450 451
4 452 453 454 455
4 456 457 458 459
4 460 461 462 463
4 464 465 466 467
4 468 469 470 471
4 472 473 474 475
4 476 477 478 479
4 480 481 482 483
4 484 485 486 487
4 488 489 490 491
4 492 493 494 495
4 496 497 498 499
4 500 501 502 503
4 504 505 506 507
4 508 509 510 511
4 512 513 514 515
4 516 517 518 519
4 520 521 522 523
4 524 525 526 527
4 528 529 530 531
4 532 533 534 535
4 536 537 538 539
4 540 541 542 543
4 544 545 546 547
4 548 549 550 551
4 552 553 554 555
4 556 557 558 559
4 560 561 562 563
4 564 565 566 567
4 568 569 570 571
4 572 573 574 575
4 576 577 578 579
4 580 581 582 583
4 584 585 586 587
4 588 589 590 591
4 592 593 594 595
4 596 597 598 599
4 600 601 602 603
4 604 605 606 607
4 608 609 610 611
4 612 613 614 615
4 616 617 618 619
4 620 621 622 623
4 624 625 626 627
4 628 629 630 631
4 632 633 634 635
4 636 637 638 639
4 640 641 642 643
4 644 645 646 647
4 648 649 650 651
4 652 653 654 655
4 656 657 658 659
4 660 661 662 663
4 664 665 666 667
4 668 669 670 671
4 672 673 674 675
4 676 677 678 679
4 680 681 682 683
4 684 685 686 687
4 688 689 690 691
4 692 693 694 695
4 696 697 698 699
4 700 701 702 703
4 704 705 706 707
4 708 709 710 711
4 712 713 714 715
4 716 717 718 719
3 720 721 722
3 723 724 725
3 726 727 728
3 729 730 731
3 732 733 734
3 735 736 737
3 738 739 740
3 741 742 743
3 744 745 746
3 747 748 749
3 750 751 752
3 753 754 755
3 756 757 758
3 759 760 761
3 762 763 764
3 765 766 767
3 768 769 770
3 771 772 773
3 774 775 776
3 777 778 779
3 780 781 782
3 783 784 785
3 786 787 788
3 789 790 791
3 792 793 794
3 795 796 797
3 798 799 800
3 801 802 803
3 804 805 806
3 807 808 809
3 810 811 812
3 813 814 815
3 816 817 818
3 819 820 821
3 822 823 824
3 825 826 827
3 828 829 830
3 831 832 833
3 834 835 836
3 837 838 839
3 840 841 842
3 843 844 845
3 846 847 848
3 849 850 851
3 852 853 854
3 855 856 857
3 858 859 860
3 861 862 863
