ply
format ascii 1.0
comment Created by Blender 2.79 (sub 0) - www.blender.org, source file: 'm3_v2.blend'
element vertex 4
property float x
property float y
property float z
property float nx
property float ny
property float nz
element face 1
property list uchar uint vertex_indices
end_header
-15.220236 -1.479694 32.584816 0.000000 1.000000 -0.000000
5.329363 -1.479694 33.921158 0.000000 1.000000 -0.000000
8.758467 -1.479694 -18.809923 0.000000 1.000000 -0.000000
-11.791132 -1.479694 -20.146265 0.000000 1.000000 -0.000000
4 0 1 2 3
