# Blender v2.79 (sub 0) OBJ File: 'm3_v2.blend'
# www.blender.org
o Plane.001_Plane.330
v -15.220236 -1.479694 32.584816
v 5.329363 -1.479694 33.921158
v -11.791132 -1.479694 -20.146265
v 8.758467 -1.479694 -18.809923
vn 0.0000 1.0000 0.0000
s off
f 2//1 3//1 1//1
f 2//1 4//1 3//1
