# Blender v2.79 (sub 0) OBJ File: 'm3_v2.blend'
# www.blender.org
o RF_Axle_Mesh.010
v -1.639257 -0.853252 3.187184
v -1.639297 -0.872360 3.183278
v -1.639337 -0.890479 3.176982
v -1.639378 -0.907435 3.168472
v -1.639418 -0.923052 3.157922
v -1.639458 -0.937155 3.145508
v -1.639499 -0.949569 3.131404
v -1.639539 -0.960119 3.115787
v -1.639579 -0.968630 3.098831
v -1.639620 -0.974926 3.080712
v -1.639660 -0.978832 3.061605
v -1.639700 -0.980173 3.041684
v -1.639660 -0.978832 3.021764
v -1.639620 -0.974926 3.002656
v -1.639579 -0.968630 2.984537
v -1.639539 -0.960119 2.967582
v -1.639499 -0.949569 2.951964
v -1.639458 -0.937155 2.937861
v -1.639418 -0.923052 2.925447
v -1.639378 -0.907435 2.914897
v -1.639337 -0.890479 2.906387
v -1.639297 -0.872360 2.900091
v -1.639257 -0.853252 2.896185
v -1.639216 -0.833332 2.894844
v -1.639216 -0.813411 2.896185
v -1.639216 -0.794304 2.900091
v -1.639216 -0.776185 2.906387
v -1.639216 -0.759229 2.914897
v -1.639216 -0.743612 2.925447
v -1.639216 -0.729509 2.937861
v -1.639216 -0.717095 2.951964
v -1.639216 -0.706545 2.967582
v -1.639216 -0.698034 2.984537
v -1.639216 -0.691738 3.002656
v -1.639216 -0.687832 3.021764
v -1.639216 -0.686491 3.041684
v -1.639216 -0.687832 3.061605
v -1.639216 -0.691738 3.080712
v -1.639216 -0.698034 3.098831
v -1.639216 -0.706545 3.115787
v -1.639216 -0.717095 3.131404
v -1.639216 -0.729509 3.145508
v -1.639216 -0.743612 3.157922
v -1.639216 -0.759229 3.168472
v -1.639216 -0.776185 3.176982
v -1.639216 -0.794304 3.183278
v -1.639216 -0.813411 3.187184
v -1.639216 -0.833332 3.188525
v -1.639337 -0.833332 3.041684
v -1.427129 -0.853252 3.187184
v -1.427169 -0.872360 3.183278
v -1.427209 -0.890479 3.176982
v -1.427250 -0.907435 3.168472
v -1.427290 -0.923052 3.157922
v -1.427331 -0.937155 3.145508
v -1.427371 -0.949569 3.131404
v -1.427411 -0.960119 3.115787
v -1.427452 -0.968630 3.098831
v -1.427492 -0.974926 3.080712
v -1.427532 -0.978832 3.061605
v -1.427572 -0.980172 3.041684
v -1.427532 -0.978832 3.021764
v -1.427492 -0.974926 3.002656
v -1.427452 -0.968630 2.984537
v -1.427411 -0.960119 2.967582
v -1.427371 -0.949569 2.951964
v -1.427331 -0.937155 2.937861
v -1.427290 -0.923052 2.925447
v -1.427250 -0.907435 2.914897
v -1.427209 -0.890479 2.906387
v -1.427169 -0.872360 2.900091
v -1.427129 -0.853252 2.896185
v -1.427089 -0.833332 2.894844
v -1.427089 -0.813411 2.896185
v -1.427089 -0.794304 2.900091
v -1.427089 -0.776185 2.906387
v -1.427089 -0.759229 2.914897
v -1.427089 -0.743612 2.925447
v -1.427089 -0.729509 2.937861
v -1.427089 -0.717095 2.951964
v -1.427089 -0.706545 2.967582
v -1.427089 -0.698034 2.984537
v -1.427089 -0.691738 3.002656
v -1.427089 -0.687832 3.021764
v -1.427089 -0.686491 3.041684
v -1.427089 -0.687832 3.061605
v -1.427089 -0.691738 3.080712
v -1.427089 -0.698034 3.098831
v -1.427089 -0.706545 3.115787
v -1.427089 -0.717095 3.131404
v -1.427089 -0.729509 3.145508
v -1.427089 -0.743612 3.157922
v -1.427089 -0.759229 3.168472
v -1.427089 -0.776185 3.176982
v -1.427089 -0.794304 3.183278
v -1.427089 -0.813411 3.187184
v -1.427089 -0.833332 3.188525
v -1.290335 -0.841731 3.103032
v -1.290352 -0.849787 3.101385
v -1.290369 -0.857427 3.098730
v -1.290386 -0.864576 3.095142
v -1.290403 -0.871161 3.090694
v -1.290420 -0.877107 3.085459
v -1.290437 -0.882341 3.079513
v -1.290454 -0.886789 3.072928
v -1.290471 -0.890378 3.065779
v -1.290488 -0.893032 3.058140
v -1.290505 -0.894679 3.050083
v -1.290522 -0.895244 3.041684
v -1.290505 -0.894679 3.033285
v -1.290488 -0.893032 3.025229
v -1.290471 -0.890378 3.017589
v -1.290454 -0.886789 3.010440
v -1.290437 -0.882341 3.003856
v -1.290420 -0.877107 2.997909
v -1.290403 -0.871161 2.992675
v -1.290386 -0.864576 2.988227
v -1.290369 -0.857427 2.984639
v -1.290352 -0.849787 2.981984
v -1.290335 -0.841731 2.980337
v -1.290318 -0.833332 2.979772
v -1.290318 -0.824933 2.980337
v -1.290318 -0.816877 2.981984
v -1.290318 -0.809237 2.984639
v -1.290318 -0.802088 2.988227
v -1.290318 -0.795503 2.992675
v -1.290318 -0.789557 2.997909
v -1.290318 -0.784323 3.003856
v -1.290318 -0.779874 3.010440
v -1.290318 -0.776286 3.017589
v -1.290318 -0.773632 3.025229
v -1.290318 -0.771985 3.033285
v -1.290318 -0.771419 3.041684
v -1.290318 -0.771985 3.050083
v -1.290318 -0.773632 3.058140
v -1.290318 -0.776286 3.065779
v -1.290318 -0.779874 3.072928
v -1.290318 -0.784323 3.079513
v -1.290318 -0.789557 3.085459
v -1.290318 -0.795503 3.090694
v -1.290318 -0.802088 3.095142
v -1.290318 -0.809237 3.098730
v -1.290318 -0.816877 3.101385
v -1.290318 -0.824933 3.103032
v -1.290318 -0.833332 3.103597
v -1.138625 -0.841731 3.103032
v -1.138642 -0.849787 3.101385
v -1.138659 -0.857427 3.098730
v -1.138676 -0.864576 3.095142
v -1.138692 -0.871161 3.090694
v -1.138710 -0.877107 3.085459
v -1.138727 -0.882341 3.079513
v -1.138744 -0.886789 3.072928
v -1.138761 -0.890378 3.065779
v -1.138777 -0.893032 3.058140
v -1.138795 -0.894679 3.050083
v -1.138812 -0.895244 3.041684
v -1.138795 -0.894679 3.033285
v -1.138777 -0.893032 3.025229
v -1.138761 -0.890378 3.017589
v -1.138744 -0.886789 3.010440
v -1.138727 -0.882341 3.003856
v -1.138710 -0.877107 2.997909
v -1.138692 -0.871161 2.992675
v -1.138676 -0.864576 2.988227
v -1.138659 -0.857427 2.984639
v -1.138642 -0.849787 2.981984
v -1.138625 -0.841731 2.980337
v -1.138608 -0.833332 2.979772
v -1.138608 -0.824933 2.980337
v -1.138608 -0.816877 2.981984
v -1.138608 -0.809237 2.984639
v -1.138608 -0.802088 2.988227
v -1.138608 -0.795503 2.992675
v -1.138608 -0.789557 2.997909
v -1.138608 -0.784323 3.003856
v -1.138608 -0.779874 3.010440
v -1.138608 -0.776286 3.017589
v -1.138608 -0.773632 3.025229
v -1.138608 -0.771985 3.033285
v -1.138608 -0.771419 3.041684
v -1.138608 -0.771985 3.050083
v -1.138608 -0.773632 3.058140
v -1.138608 -0.776286 3.065779
v -1.138608 -0.779874 3.072928
v -1.138608 -0.784323 3.079513
v -1.138608 -0.789557 3.085459
v -1.138608 -0.795503 3.090694
v -1.138608 -0.802088 3.095142
v -1.138608 -0.809237 3.098730
v -1.138608 -0.816877 3.101385
v -1.138608 -0.824933 3.103032
v -1.138608 -0.833332 3.103597
v -1.138659 -0.833332 3.041684
vt 0.000000 0.000000
vt 0.000000 0.000000
vt 0.000000 0.000000
vt 0.000000 0.000000
vt 0.000000 0.000000
vt 0.000000 0.000000
vt 0.000000 0.000000
vt 0.000000 0.000000
vt 0.000000 0.000000
vt 0.000000 0.000000
vt 0.000000 0.000000
vt 0.000000 0.000000
vt 0.000000 0.000000
vt 0.000000 0.000000
vt 0.000000 0.000000
vt 0.000000 0.000000
vt 0.000000 0.000000
vt 0.000000 0.000000
vt 0.000000 0.000000
vt 0.000000 0.000000
vt 0.000000 0.000000
vt 0.000000 0.000000
vt 0.000000 0.000000
vt 0.000000 0.000000
vt 0.000000 0.000000
vt 0.000000 0.000000
vt 0.000000 0.000000
vt 0.000000 0.000000
vt 0.000000 0.000000
vt 0.000000 0.000000
vt 0.000000 0.000000
vt 0.000000 0.000000
vt 0.000000 0.000000
vt 0.000000 0.000000
vt 0.000000 0.000000
vt 0.000000 0.000000
vt 0.000000 0.000000
vt 0.000000 0.000000
vt 0.000000 0.000000
vt 0.000000 0.000000
vt 0.000000 0.000000
vt 0.000000 0.000000
vt 0.000000 0.000000
vt 0.000000 0.000000
vt 0.000000 0.000000
vt 0.000000 0.000000
vt 0.000000 0.000000
vt 0.000000 0.000000
vt 0.000000 0.000000
vt 0.000000 0.000000
vt 0.000000 0.000000
vt 0.000000 0.000000
vt 0.000000 0.000000
vt 0.000000 0.000000
vt 0.000000 0.000000
vt 0.000000 0.000000
vt 0.000000 0.000000
vt 0.000000 0.000000
vt 0.000000 0.000000
vt 0.000000 0.000000
vt 0.000000 0.000000
vt 0.000000 0.000000
vt 0.000000 0.000000
vt 0.000000 0.000000
vt 0.000000 0.000000
vt 0.000000 0.000000
vt 0.000000 0.000000
vt 0.000000 0.000000
vt 0.000000 0.000000
vt 0.000000 0.000000
vt 0.000000 0.000000
vt 0.000000 0.000000
vt 0.000000 0.000000
vt 0.000000 0.000000
vt 0.000000 0.000000
vt 0.000000 0.000000
vt 0.000000 0.000000
vt 0.000000 0.000000
vt 0.000000 0.000000
vt 0.000000 0.000000
vt 0.000000 0.000000
vt 0.000000 0.000000
vt 0.000000 0.000000
vt 0.000000 0.000000
vt 0.000000 0.000000
vt 0.000000 0.000000
vt 0.000000 0.000000
vt 0.000000 0.000000
vt 0.000000 0.000000
vt 0.000000 0.000000
vt 0.000000 0.000000
vt 0.000000 0.000000
vt 0.000000 0.000000
vt 0.000000 0.000000
vt 0.000000 0.000000
vt 0.000000 0.000000
vt 0.000000 0.000000
vt 0.000000 0.000000
vt 0.000000 0.000000
vt 0.000000 0.000000
vt 0.000000 0.000000
vt 0.000000 0.000000
vt 0.000000 0.000000
vt 0.000000 0.000000
vt 0.000000 0.000000
vt 0.000000 0.000000
vt 0.000000 0.000000
vt 0.000000 0.000000
vt 0.000000 0.000000
vt 0.000000 0.000000
vt 0.000000 0.000000
vt 0.000000 0.000000
vt 0.000000 0.000000
vt 0.000000 0.000000
vt 0.000000 0.000000
vt 0.000000 0.000000
vt 0.000000 0.000000
vt 0.000000 0.000000
vt 0.000000 0.000000
vt 0.000000 0.000000
vt 0.000000 0.000000
vt 0.000000 0.000000
vt 0.000000 0.000000
vt 0.000000 0.000000
vt 0.000000 0.000000
vt 0.000000 0.000000
vt 0.000000 0.000000
vt 0.000000 0.000000
vt 0.000000 0.000000
vt 0.000000 0.000000
vt 0.000000 0.000000
vt 0.000000 0.000000
vt 0.000000 0.000000
vt 0.000000 0.000000
vt 0.000000 0.000000
vt 0.000000 0.000000
vt 0.000000 0.000000
vt 0.000000 0.000000
vt 0.000000 0.000000
vt 0.000000 0.000000
vt 0.000000 0.000000
vt 0.000000 0.000000
vt 0.000000 0.000000
vt 0.000000 0.000000
vt 0.000000 0.000000
vt 0.000000 0.000000
vt 0.000000 0.000000
vt 0.000000 0.000000
vt 0.000000 0.000000
vt 0.000000 0.000000
vt 0.000000 0.000000
vt 0.000000 0.000000
vt 0.000000 0.000000
vt 0.000000 0.000000
vt 0.000000 0.000000
vt 0.000000 0.000000
vt 0.000000 0.000000
vt 0.000000 0.000000
vt 0.000000 0.000000
vt 0.000000 0.000000
vt 0.000000 0.000000
vt 0.000000 0.000000
vt 0.000000 0.000000
vt 0.000000 0.000000
vt 0.000000 0.000000
vt 0.000000 0.000000
vt 0.000000 0.000000
vt 0.000000 0.000000
vt 0.000000 0.000000
vt 0.000000 0.000000
vt 0.000000 0.000000
vt 0.000000 0.000000
vt 0.000000 0.000000
vt 0.000000 0.000000
vt 0.000000 0.000000
vt 0.000000 0.000000
vt 0.000000 0.000000
vt 0.000000 0.000000
vt 0.000000 0.000000
vt 0.000000 0.000000
vt 0.000000 0.000000
vt 0.000000 0.000000
vt 0.000000 0.000000
vt 0.000000 0.000000
vt 0.000000 0.000000
vt 0.000000 0.000000
vt 0.000000 0.000000
vt 0.000000 0.000000
vt 0.000000 0.000000
vt 0.000000 0.000000
vt 0.000000 0.000000
vt 0.000000 0.000000
vt 0.000000 0.000000
vt 0.000000 0.000000
vn 1.0000 -0.0021 0.0010
vn 1.0000 -0.0007 -0.0005
vn 1.0000 -0.0004 0.0007
vn 1.0000 -0.0024 -0.0016
vn 1.0000 -0.0022 -0.0011
vn 1.0000 -0.0008 0.0003
vn 1.0000 -0.0020 0.0009
vn 1.0000 -0.0003 -0.0008
vn 1.0000 -0.0020 -0.0008
vn 1.0000 -0.0008 0.0002
vn 1.0000 -0.0020 0.0008
vn 1.0000 -0.0025 -0.0019
vn 1.0000 -0.0007 -0.0004
vn 1.0000 -0.0001 0.0008
vn 1.0000 -0.0024 0.0014
vn 1.0000 -0.0007 0.0005
vn 1.0000 -0.0021 0.0009
vn 1.0000 -0.0008 -0.0001
vn 1.0000 -0.0001 -0.0008
vn 1.0000 -0.0019 -0.0008
vn 1.0000 -0.0005 -0.0007
vn 1.0000 -0.0002 0.0008
vn 1.0000 -0.0024 -0.0014
vn 1.0000 -0.0021 -0.0009
vn 1.0000 -0.0006 0.0005
vn 1.0000 -0.0004 -0.0007
vn 1.0000 -0.0020 -0.0009
vn 1.0000 -0.0008 0.0001
vn 1.0000 -0.0025 0.0019
vn 1.0000 -0.0008 -0.0003
vn 1.0000 -0.0003 0.0008
vn 1.0000 -0.0024 0.0016
vn 1.0000 -0.0002 -0.0008
vn 1.0000 -0.0022 0.0011
vn 1.0000 -0.0006 -0.0005
vn 1.0000 -0.0006 -0.0006
vn 1.0000 -0.0019 0.0008
vn 1.0000 -0.0023 -0.0012
vn -1.0000 0.0020 0.0008
vn 1.0000 -0.0006 0.0006
vn 1.0000 -0.0021 -0.0010
vn 1.0000 -0.0007 0.0004
vn 1.0000 -0.0023 0.0012
vn 1.0000 -0.0008 -0.0002
vn 1.0000 -0.0005 0.0007
vn -0.5266 0.2801 0.8026
vn -0.5267 -0.8482 0.0571
vn -0.5265 0.4769 -0.7039
vn -0.5268 -0.3813 -0.7597
vn -0.5266 0.3824 0.7593
vn -0.5267 -0.6381 0.5617
vn -0.5264 0.5626 -0.6375
vn -0.5262 0.8036 -0.2781
vn -0.5267 -0.1702 0.8328
vn -0.5267 -0.4758 -0.7044
vn -0.5266 0.1713 -0.8326
vn -0.5267 -0.0571 -0.8482
vn -0.5267 -0.8481 -0.0571
vn -0.5264 0.5626 0.6375
vn -0.5267 -0.7044 0.4758
vn -0.5262 0.8036 0.2781
vn -0.5267 -0.0571 0.8482
vn -0.5268 -0.7597 -0.3813
vn -0.5259 0.8487 -0.0561
vn -0.5266 0.0582 0.8481
vn -0.5267 -0.8328 0.1702
vn -0.5266 0.3824 -0.7593
vn -0.5268 -0.2790 -0.8029
vn -0.5265 0.4769 0.7039
vn -0.5268 -0.8029 0.2790
vn -0.5263 0.7052 -0.4750
vn -0.5261 0.8334 -0.1693
vn -0.5268 -0.3813 0.7597
vn -0.5267 -0.7044 -0.4758
vn -0.5263 0.6390 0.5610
vn -0.5267 -0.4758 0.7044
vn -0.5268 -0.8328 -0.1702
vn -0.5262 0.7605 0.3805
vn -0.5268 -0.7597 0.3813
vn -0.5263 0.6390 -0.5610
vn -0.5267 -0.5616 0.6381
vn 0.5266 -0.0582 0.8481
vn -0.5262 0.7605 -0.3805
vn -0.5266 0.1713 0.8326
vn -0.5267 -0.5616 -0.6381
vn -0.5266 0.2801 -0.8026
vn -0.5267 -0.6381 -0.5617
vn -0.5263 0.7052 0.4751
vn -0.5267 -0.1702 -0.8328
vn -0.5261 0.8334 0.1693
vn -0.5268 -0.2790 0.8029
vn -0.5268 -0.8029 -0.2790
vn -0.5259 0.8487 0.0561
vn -0.0000 0.9977 -0.0672
vn 0.0000 -0.8937 -0.4486
vn 0.0000 -0.0672 0.9977
vn 0.0000 0.9446 0.3282
vn 0.0000 -0.8286 0.5598
vn 0.0000 0.6607 0.7506
vn 0.0000 -0.9977 -0.0672
vn 0.0000 -0.0672 -0.9977
vn -0.0000 0.2003 -0.9797
vn -0.0000 -0.5598 -0.8286
vn 0.0000 -0.2003 0.9797
vn -0.0000 0.9446 -0.3282
vn -0.0000 0.6607 -0.7506
vn 0.0000 -0.7506 0.6607
vn 0.0000 0.4486 0.8937
vn 0.0000 -0.4486 -0.8937
vn 0.0000 0.5598 -0.8286
vn 0.0000 -0.9977 0.0672
vn 0.0000 0.3282 0.9446
vn -0.0000 0.9977 0.0672
vn 0.0000 -0.9446 -0.3282
vn 0.0000 -0.3282 0.9446
vn 0.0000 0.9797 0.2003
vn 0.0000 -0.2003 -0.9797
vn 0.0000 0.8286 0.5598
vn 0.0000 -0.7506 -0.6607
vn 0.0000 0.3282 -0.9446
vn 0.0000 -0.6607 -0.7506
vn 0.0000 0.2003 0.9797
vn 0.0000 0.8937 -0.4486
vn 0.0000 -0.6607 0.7506
vn 0.0000 0.7506 -0.6607
vn 0.0000 -0.8937 0.4486
vn 0.0000 0.8937 0.4486
vn 0.0000 -0.9797 -0.2003
vn 0.0000 -0.5598 0.8286
vn 0.0000 0.7506 0.6607
vn 0.0000 -0.8286 -0.5598
vn 0.0000 -0.4486 0.8937
vn 0.0000 0.9797 -0.2003
vn -0.0000 0.8286 -0.5598
vn 0.0000 -0.9446 0.3282
vn 0.0000 0.5598 0.8286
vn 0.0000 -0.3282 -0.9446
vn -0.0000 0.4486 -0.8937
vn 0.0000 -0.9797 0.2003
vn 0.0000 0.0672 0.9977
vn -1.0000 0.0022 -0.0010
vn -1.0000 0.0007 0.0005
vn -1.0000 0.0004 -0.0007
vn -1.0000 0.0024 0.0016
vn -1.0000 0.0022 0.0011
vn -1.0000 0.0008 -0.0003
vn -1.0000 0.0020 -0.0008
vn -1.0000 0.0003 0.0008
vn -1.0000 0.0008 -0.0002
vn -1.0000 0.0025 0.0019
vn -1.0000 0.0007 0.0004
vn -1.0000 0.0001 -0.0008
vn -1.0000 0.0024 -0.0014
vn -1.0000 0.0007 -0.0005
vn -1.0000 0.0021 -0.0009
vn -1.0000 0.0008 0.0001
vn -1.0000 0.0001 0.0008
vn -1.0000 0.0005 0.0007
vn -1.0000 0.0002 -0.0008
vn -1.0000 0.0024 0.0014
vn -1.0000 0.0021 0.0009
vn -1.0000 0.0006 -0.0005
vn -1.0000 0.0004 0.0007
vn -1.0000 0.0008 -0.0001
vn -1.0000 0.0019 -0.0008
vn -1.0000 0.0025 -0.0019
vn -1.0000 0.0008 0.0003
vn -1.0000 0.0003 -0.0008
vn -1.0000 0.0024 -0.0016
vn -1.0000 0.0002 0.0008
vn -1.0000 0.0022 -0.0011
vn -1.0000 0.0006 0.0005
vn -1.0000 0.0019 0.0008
vn -1.0000 0.0005 0.0006
vn -1.0000 0.0023 0.0012
vn -1.0000 0.0005 -0.0006
vn -1.0000 0.0022 0.0010
vn -1.0000 0.0007 -0.0004
vn -1.0000 0.0023 -0.0012
vn -1.0000 0.0008 0.0002
vn -1.0000 0.0005 -0.0007
vn -0.5267 -0.8481 0.0571
vn -0.5265 0.3824 0.7593
vn -0.5267 -0.6381 0.5616
vn -0.5263 0.5626 -0.6375
vn -0.5267 -0.1703 0.8328
vn -0.5268 -0.4758 -0.7044
vn -0.5267 0.1713 -0.8326
vn -0.5266 -0.8482 -0.0571
vn -0.5259 0.8487 -0.0560
vn -0.5266 0.0581 0.8481
vn -0.5268 -0.8328 0.1702
vn -0.5263 0.7052 -0.4751
vn -0.5268 -0.7044 -0.4758
vn -0.5268 -0.4758 0.7044
vn -0.5267 -0.8328 -0.1702
vn -0.5263 0.7605 0.3804
vn -0.5267 -0.5617 0.6381
vn 0.5266 -0.0581 0.8481
vn -0.5262 0.7605 -0.3804
vn -0.5267 0.1713 0.8326
vn -0.5267 -0.6381 -0.5616
vn -0.5267 -0.1703 -0.8328
s off
f 17/1/1 18/2/1 49/3/1
f 40/4/2 41/5/2 49/3/2
f 27/6/3 28/7/3 49/3/3
f 10/8/4 11/9/4 49/3/4
f 7/10/5 8/11/5 49/3/5
f 33/12/6 34/13/6 49/3/6
f 19/14/7 20/15/7 49/3/7
f 45/16/8 46/17/8 49/3/8
f 3/18/9 4/19/9 49/3/9
f 34/13/10 35/20/10 49/3/10
f 23/21/11 24/22/11 49/3/11
f 11/9/12 12/23/12 49/3/12
f 39/24/13 40/4/13 49/3/13
f 24/22/14 25/25/14 49/3/14
f 14/26/15 15/27/15 49/3/15
f 31/28/16 32/29/16 49/3/16
f 18/2/17 19/14/17 49/3/17
f 36/30/18 37/31/18 49/3/18
f 47/32/19 48/33/19 49/3/19
f 1/34/20 2/35/20 49/3/20
f 43/36/21 44/37/21 49/3/21
f 25/25/22 26/38/22 49/3/22
f 9/39/23 10/8/23 49/3/23
f 5/40/24 6/41/24 49/3/24
f 30/42/25 31/28/25 49/3/25
f 20/15/11 21/43/11 49/3/11
f 44/37/26 45/16/26 49/3/26
f 4/19/27 5/40/27 49/3/27
f 35/20/28 36/30/28 49/3/28
f 21/43/11 22/44/11 49/3/11
f 12/23/29 13/45/29 49/3/29
f 38/46/30 39/24/30 49/3/30
f 26/38/31 27/6/31 49/3/31
f 13/45/32 14/26/32 49/3/32
f 46/17/33 47/32/33 49/3/33
f 16/47/34 17/1/34 49/3/34
f 41/5/35 42/48/35 49/3/35
f 2/35/9 3/18/9 49/3/9
f 42/48/36 43/36/36 49/3/36
f 22/44/37 23/21/37 49/3/37
f 8/11/38 9/39/38 49/3/38
f 1/34/39 48/33/39 49/3/39
f 29/49/40 30/42/40 49/3/40
f 6/41/41 7/10/41 49/3/41
f 32/29/42 33/12/42 49/3/42
f 15/27/43 16/47/43 49/3/43
f 37/31/44 38/46/44 49/3/44
f 28/7/45 29/49/45 49/3/45
f 118/50/46 71/51/46 70/52/46
f 132/53/47 85/54/47 84/55/47
f 53/56/48 102/57/48 54/58/48
f 93/59/49 142/60/49 94/61/49
f 117/62/50 70/52/50 69/63/50
f 79/64/51 128/65/51 80/66/51
f 54/58/52 103/67/52 55/68/52
f 58/69/53 107/70/53 59/71/53
f 74/72/54 123/73/54 75/74/54
f 92/75/55 141/76/55 93/59/55
f 50/77/56 99/78/56 51/79/56
f 144/80/57 97/81/57 96/82/57
f 85/54/58 134/83/58 86/84/58
f 115/85/59 68/86/59 67/87/59
f 80/66/60 129/88/60 81/89/60
f 111/90/61 64/91/61 63/92/61
f 73/93/62 122/94/62 74/72/62
f 136/95/63 89/96/63 88/97/63
f 60/98/64 109/99/64 61/100/64
f 120/101/65 73/93/65 72/102/65
f 131/103/66 84/55/66 83/104/66
f 52/105/67 101/106/67 53/56/67
f 94/61/68 143/107/68 95/108/68
f 116/109/69 69/63/69 68/86/69
f 82/110/70 131/103/70 83/104/70
f 56/111/71 105/112/71 57/113/71
f 59/71/72 108/114/72 60/98/72
f 124/115/73 77/116/73 76/117/73
f 137/118/74 90/119/74 89/96/74
f 114/120/75 67/87/75 66/121/75
f 125/122/76 78/123/76 77/116/76
f 86/84/77 135/124/77 87/125/77
f 112/126/78 65/127/78 64/91/78
f 81/89/79 130/128/79 82/110/79
f 55/68/80 104/129/80 56/111/80
f 126/130/81 79/64/81 78/123/81
f 98/131/82 97/81/82 50/77/82
f 57/113/83 106/132/83 58/69/83
f 119/133/84 72/102/84 71/51/84
f 91/134/85 140/135/85 92/75/85
f 51/79/86 100/136/86 52/105/86
f 138/137/87 91/134/87 90/119/87
f 113/138/88 66/121/88 65/127/88
f 143/107/89 96/82/89 95/108/89
f 110/139/90 63/92/90 62/140/90
f 123/73/91 76/117/91 75/74/91
f 135/124/92 88/97/92 87/125/92
f 109/99/93 62/140/93 61/100/93
f 11/9/94 61/100/94 12/23/94
f 88/97/95 40/4/95 39/24/95
f 73/93/96 25/25/96 24/22/96
f 63/92/97 15/27/97 14/26/97
f 80/66/98 32/29/98 31/28/98
f 67/87/99 19/14/99 18/2/99
f 85/54/100 37/31/100 36/30/100
f 47/32/101 97/81/101 48/33/101
f 1/34/102 51/79/102 2/35/102
f 92/75/103 44/37/103 43/36/103
f 74/72/104 26/38/104 25/25/104
f 9/39/105 59/71/105 10/8/105
f 5/40/106 55/68/106 6/41/106
f 79/64/107 31/28/107 30/42/107
f 69/63/108 21/43/108 20/15/108
f 93/59/109 45/16/109 44/37/109
f 4/19/110 54/58/110 5/40/110
f 84/55/111 36/30/111 35/20/111
f 70/52/112 22/44/112 21/43/112
f 61/100/113 13/45/113 12/23/113
f 87/125/114 39/24/114 38/46/114
f 75/74/115 27/6/115 26/38/115
f 62/140/116 14/26/116 13/45/116
f 95/108/117 47/32/117 46/17/117
f 65/127/118 17/1/118 16/47/118
f 90/119/119 42/48/119 41/5/119
f 2/35/120 52/105/120 3/18/120
f 91/134/121 43/36/121 42/48/121
f 71/51/122 23/21/122 22/44/122
f 8/11/123 58/69/123 9/39/123
f 50/77/96 48/33/96 1/34/96
f 78/123/124 30/42/124 29/49/124
f 6/41/125 56/111/125 7/10/125
f 81/89/126 33/12/126 32/29/126
f 64/91/127 16/47/127 15/27/127
f 86/84/128 38/46/128 37/31/128
f 77/116/129 29/49/129 28/7/129
f 66/121/130 18/2/130 17/1/130
f 89/96/131 41/5/131 40/4/131
f 76/117/132 28/7/132 27/6/132
f 10/8/133 60/98/133 11/9/133
f 7/10/134 57/113/134 8/11/134
f 82/110/135 34/13/135 33/12/135
f 68/86/136 20/15/136 19/14/136
f 94/61/137 46/17/137 45/16/137
f 3/18/138 53/56/138 4/19/138
f 83/104/139 35/20/139 34/13/139
f 72/102/140 24/22/140 23/21/140
f 171/141/115 124/115/115 123/73/115
f 183/142/114 136/95/114 135/124/114
f 157/143/113 110/139/113 109/99/113
f 166/144/112 119/133/112 118/50/112
f 180/145/111 133/146/111 132/53/111
f 101/106/110 150/147/110 102/57/110
f 189/148/109 142/60/109 141/76/109
f 165/149/108 118/50/108 117/62/108
f 175/150/107 128/65/107 127/151/107
f 102/57/106 151/152/106 103/67/106
f 106/132/105 155/153/105 107/70/105
f 122/94/104 171/141/104 123/73/104
f 188/154/103 141/76/103 140/135/103
f 98/131/102 147/155/102 99/78/102
f 192/156/101 145/157/101 144/80/101
f 181/158/100 134/83/100 133/146/100
f 163/159/99 116/109/99 115/85/99
f 176/160/98 129/88/98 128/65/98
f 159/161/97 112/126/97 111/90/97
f 121/162/96 170/163/96 122/94/96
f 184/164/95 137/118/95 136/95/95
f 108/114/94 157/143/94 109/99/94
f 168/165/140 121/162/140 120/101/140
f 179/166/139 132/53/139 131/103/139
f 100/136/138 149/167/138 101/106/138
f 190/168/137 143/107/137 142/60/137
f 164/169/136 117/62/136 116/109/136
f 178/170/135 131/103/135 130/128/135
f 104/129/134 153/171/134 105/112/134
f 107/70/133 156/172/133 108/114/133
f 172/173/132 125/122/132 124/115/132
f 185/174/131 138/137/131 137/118/131
f 162/175/130 115/85/130 114/120/130
f 173/176/129 126/130/129 125/122/129
f 182/177/128 135/124/128 134/83/128
f 160/178/127 113/138/127 112/126/127
f 177/179/126 130/128/126 129/88/126
f 103/67/125 152/180/125 104/129/125
f 174/181/124 127/151/124 126/130/124
f 146/182/96 145/157/96 98/131/96
f 105/112/123 154/183/123 106/132/123
f 167/184/122 120/101/122 119/133/122
f 187/185/121 140/135/121 139/186/121
f 99/78/120 148/187/120 100/136/120
f 186/188/119 139/186/119 138/137/119
f 161/189/118 114/120/118 113/138/118
f 191/190/117 144/80/117 143/107/117
f 158/191/116 111/90/116 110/139/116
f 162/175/141 194/192/141 163/159/141
f 185/174/142 194/192/142 186/188/142
f 172/173/143 194/192/143 173/176/143
f 155/153/144 194/192/144 156/172/144
f 152/180/145 194/192/145 153/171/145
f 178/170/146 194/192/146 179/166/146
f 164/169/147 194/192/147 165/149/147
f 190/168/148 194/192/148 191/190/148
f 148/187/39 194/192/39 149/167/39
f 179/166/149 194/192/149 180/145/149
f 168/165/147 194/192/147 169/193/147
f 156/172/150 194/192/150 157/143/150
f 184/164/151 194/192/151 185/174/151
f 169/193/152 194/192/152 170/163/152
f 159/161/153 194/192/153 160/178/153
f 176/160/154 194/192/154 177/179/154
f 163/159/155 194/192/155 164/169/155
f 181/158/156 194/192/156 182/177/156
f 192/156/157 194/192/157 193/194/157
f 146/182/39 194/192/39 147/155/39
f 188/154/158 194/192/158 189/148/158
f 170/163/159 194/192/159 171/141/159
f 154/183/160 194/192/160 155/153/160
f 150/147/161 194/192/161 151/152/161
f 175/150/162 194/192/162 176/160/162
f 165/149/147 194/192/147 166/144/147
f 189/148/163 194/192/163 190/168/163
f 149/167/39 194/192/39 150/147/39
f 180/145/164 194/192/164 181/158/164
f 166/144/165 194/192/165 167/184/165
f 157/143/166 194/192/166 158/191/166
f 183/142/167 194/192/167 184/164/167
f 171/141/168 194/192/168 172/173/168
f 158/191/169 194/192/169 159/161/169
f 191/190/170 194/192/170 192/156/170
f 161/189/171 194/192/171 162/175/171
f 186/188/172 194/192/172 187/185/172
f 147/155/173 194/192/173 148/187/173
f 187/185/174 194/192/174 188/154/174
f 167/184/147 194/192/147 168/165/147
f 153/171/175 194/192/175 154/183/175
f 146/182/9 194/192/9 193/194/9
f 174/181/176 194/192/176 175/150/176
f 151/152/177 194/192/177 152/180/177
f 177/179/178 194/192/178 178/170/178
f 160/178/179 194/192/179 161/189/179
f 182/177/180 194/192/180 183/142/180
f 173/176/181 194/192/181 174/181/181
f 118/50/46 119/133/46 71/51/46
f 132/53/182 133/146/182 85/54/182
f 53/56/48 101/106/48 102/57/48
f 93/59/49 141/76/49 142/60/49
f 117/62/183 118/50/183 70/52/183
f 79/64/184 127/151/184 128/65/184
f 54/58/185 102/57/185 103/67/185
f 58/69/53 106/132/53 107/70/53
f 74/72/186 122/94/186 123/73/186
f 92/75/187 140/135/187 141/76/187
f 50/77/188 98/131/188 99/78/188
f 144/80/57 145/157/57 97/81/57
f 85/54/189 133/146/189 134/83/189
f 115/85/59 116/109/59 68/86/59
f 80/66/60 128/65/60 129/88/60
f 111/90/61 112/126/61 64/91/61
f 73/93/62 121/162/62 122/94/62
f 136/95/63 137/118/63 89/96/63
f 60/98/190 108/114/190 109/99/190
f 120/101/191 121/162/191 73/93/191
f 131/103/192 132/53/192 84/55/192
f 52/105/67 100/136/67 101/106/67
f 94/61/68 142/60/68 143/107/68
f 116/109/69 117/62/69 69/63/69
f 82/110/70 130/128/70 131/103/70
f 56/111/193 104/129/193 105/112/193
f 59/71/72 107/70/72 108/114/72
f 124/115/73 125/122/73 77/116/73
f 137/118/194 138/137/194 90/119/194
f 114/120/75 115/85/75 67/87/75
f 125/122/195 126/130/195 78/123/195
f 86/84/196 134/83/196 135/124/196
f 112/126/197 113/138/197 65/127/197
f 81/89/79 129/88/79 130/128/79
f 55/68/80 103/67/80 104/129/80
f 126/130/198 127/151/198 79/64/198
f 98/131/199 145/157/199 97/81/199
f 57/113/200 105/112/200 106/132/200
f 119/133/201 120/101/201 72/102/201
f 91/134/85 139/186/85 140/135/85
f 51/79/86 99/78/86 100/136/86
f 138/137/202 139/186/202 91/134/202
f 113/138/88 114/120/88 66/121/88
f 143/107/203 144/80/203 96/82/203
f 110/139/90 111/90/90 63/92/90
f 123/73/91 124/115/91 76/117/91
f 135/124/92 136/95/92 88/97/92
f 109/99/93 110/139/93 62/140/93
f 11/9/94 60/98/94 61/100/94
f 88/97/95 89/96/95 40/4/95
f 73/93/96 74/72/96 25/25/96
f 63/92/97 64/91/97 15/27/97
f 80/66/98 81/89/98 32/29/98
f 67/87/99 68/86/99 19/14/99
f 85/54/100 86/84/100 37/31/100
f 47/32/101 96/82/101 97/81/101
f 1/34/102 50/77/102 51/79/102
f 92/75/103 93/59/103 44/37/103
f 74/72/104 75/74/104 26/38/104
f 9/39/105 58/69/105 59/71/105
f 5/40/106 54/58/106 55/68/106
f 79/64/107 80/66/107 31/28/107
f 69/63/108 70/52/108 21/43/108
f 93/59/109 94/61/109 45/16/109
f 4/19/110 53/56/110 54/58/110
f 84/55/111 85/54/111 36/30/111
f 70/52/112 71/51/112 22/44/112
f 61/100/113 62/140/113 13/45/113
f 87/125/114 88/97/114 39/24/114
f 75/74/115 76/117/115 27/6/115
f 62/140/116 63/92/116 14/26/116
f 95/108/117 96/82/117 47/32/117
f 65/127/118 66/121/118 17/1/118
f 90/119/119 91/134/119 42/48/119
f 2/35/120 51/79/120 52/105/120
f 91/134/121 92/75/121 43/36/121
f 71/51/122 72/102/122 23/21/122
f 8/11/123 57/113/123 58/69/123
f 50/77/96 97/81/96 48/33/96
f 78/123/124 79/64/124 30/42/124
f 6/41/125 55/68/125 56/111/125
f 81/89/126 82/110/126 33/12/126
f 64/91/127 65/127/127 16/47/127
f 86/84/128 87/125/128 38/46/128
f 77/116/129 78/123/129 29/49/129
f 66/121/130 67/87/130 18/2/130
f 89/96/131 90/119/131 41/5/131
f 76/117/132 77/116/132 28/7/132
f 10/8/133 59/71/133 60/98/133
f 7/10/134 56/111/134 57/113/134
f 82/110/135 83/104/135 34/13/135
f 68/86/136 69/63/136 20/15/136
f 94/61/137 95/108/137 46/17/137
f 3/18/138 52/105/138 53/56/138
f 83/104/139 84/55/139 35/20/139
f 72/102/140 73/93/140 24/22/140
f 171/141/115 172/173/115 124/115/115
f 183/142/114 184/164/114 136/95/114
f 157/143/113 158/191/113 110/139/113
f 166/144/112 167/184/112 119/133/112
f 180/145/111 181/158/111 133/146/111
f 101/106/110 149/167/110 150/147/110
f 189/148/109 190/168/109 142/60/109
f 165/149/108 166/144/108 118/50/108
f 175/150/107 176/160/107 128/65/107
f 102/57/106 150/147/106 151/152/106
f 106/132/105 154/183/105 155/153/105
f 122/94/104 170/163/104 171/141/104
f 188/154/103 189/148/103 141/76/103
f 98/131/102 146/182/102 147/155/102
f 192/156/101 193/194/101 145/157/101
f 181/158/100 182/177/100 134/83/100
f 163/159/99 164/169/99 116/109/99
f 176/160/98 177/179/98 129/88/98
f 159/161/97 160/178/97 112/126/97
f 121/162/96 169/193/96 170/163/96
f 184/164/95 185/174/95 137/118/95
f 108/114/94 156/172/94 157/143/94
f 168/165/140 169/193/140 121/162/140
f 179/166/139 180/145/139 132/53/139
f 100/136/138 148/187/138 149/167/138
f 190/168/137 191/190/137 143/107/137
f 164/169/136 165/149/136 117/62/136
f 178/170/135 179/166/135 131/103/135
f 104/129/134 152/180/134 153/171/134
f 107/70/133 155/153/133 156/172/133
f 172/173/132 173/176/132 125/122/132
f 185/174/131 186/188/131 138/137/131
f 162/175/130 163/159/130 115/85/130
f 173/176/129 174/181/129 126/130/129
f 182/177/128 183/142/128 135/124/128
f 160/178/127 161/189/127 113/138/127
f 177/179/126 178/170/126 130/128/126
f 103/67/125 151/152/125 152/180/125
f 174/181/124 175/150/124 127/151/124
f 146/182/96 193/194/96 145/157/96
f 105/112/123 153/171/123 154/183/123
f 167/184/122 168/165/122 120/101/122
f 187/185/121 188/154/121 140/135/121
f 99/78/120 147/155/120 148/187/120
f 186/188/119 187/185/119 139/186/119
f 161/189/118 162/175/118 114/120/118
f 191/190/117 192/156/117 144/80/117
f 158/191/116 159/161/116 111/90/116
