ply
format ascii 1.0
comment Created by Blender 2.79 (sub 0) - www.blender.org, source file: 'm3_v2.blend'
element vertex 774
property float x
property float y
property float z
property float nx
property float ny
property float nz
property float s
property float t
element face 216
property list uchar uint vertex_indices
end_header
-1.252521 -0.767409 3.013840 -1.000000 0.000482 -0.000079 0.000000 0.000000
-1.252521 -0.764341 3.022668 -1.000000 0.000482 -0.000079 0.000000 0.000000
-1.252514 -0.751272 3.020328 -1.000000 0.000482 -0.000079 0.000000 0.000000
-1.252514 -0.751272 3.010413 -1.000000 0.000482 -0.000079 0.000000 0.000000
-1.252619 -0.877048 2.985048 -0.999994 0.000669 -0.003368 0.000000 0.000000
-1.252600 -0.869438 2.979908 -0.999994 0.000669 -0.003368 0.000000 0.000000
-1.252602 -0.915392 2.972304 -0.999994 0.000669 -0.003368 0.000000 0.000000
-1.252624 -0.915392 2.978077 -0.999994 0.000669 -0.003368 0.000000 0.000000
-1.252521 -0.805487 3.107608 -1.000000 0.000104 0.000141 0.000000 0.000000
-1.252521 -0.814316 3.110675 -1.000000 0.000104 0.000141 0.000000 0.000000
-1.252514 -0.751272 3.119167 -1.000000 0.000104 0.000141 0.000000 0.000000
-1.252514 -0.751272 3.115721 -1.000000 0.000104 0.000141 0.000000 0.000000
-1.252580 -0.861177 3.107608 -0.999991 0.000669 0.004112 0.000000 0.000000
-1.252600 -0.869438 3.103461 -0.999991 0.000669 0.004112 0.000000 0.000000
-1.252602 -0.915392 3.111064 -0.999991 0.000669 0.004112 0.000000 0.000000
-1.252580 -0.915392 3.115721 -0.999991 0.000669 0.004112 0.000000 0.000000
-1.252521 -0.764341 3.022668 -1.000000 0.000592 -0.000057 0.000000 0.000000
-1.252521 -0.762438 3.031978 -1.000000 0.000592 -0.000057 0.000000 0.000000
-1.252514 -0.751272 3.030784 -1.000000 0.000592 -0.000057 0.000000 0.000000
-1.252514 -0.751272 3.020328 -1.000000 0.000592 -0.000057 0.000000 0.000000
-1.252541 -0.843038 2.970790 -0.983070 -0.003595 -0.183194 0.000000 0.000000
-1.252521 -0.833332 2.970137 -0.983070 -0.003595 -0.183194 0.000000 0.000000
-1.238642 -0.833332 2.896017 -0.983070 -0.003595 -0.183194 0.000000 0.000000
-1.238657 -0.915392 2.897347 -0.983070 -0.003595 -0.183194 0.000000 0.000000
-1.252737 -0.904226 3.051391 -0.999996 0.002011 0.001961 0.000000 0.000000
-1.252757 -0.904879 3.041684 -0.999996 0.002011 0.001961 0.000000 0.000000
-1.252779 -0.915392 3.041684 -0.999996 0.002011 0.001961 0.000000 0.000000
-1.252756 -0.915392 3.052585 -0.999996 0.002011 0.001961 0.000000 0.000000
-1.252521 -0.767409 3.069529 -1.000000 0.000380 0.000090 0.000000 0.000000
-1.252521 -0.771555 3.077791 -1.000000 0.000380 0.000090 0.000000 0.000000
-1.252514 -0.751272 3.082235 -1.000000 0.000380 0.000090 0.000000 0.000000
-1.252514 -0.751272 3.072956 -1.000000 0.000380 0.000090 0.000000 0.000000
-1.252521 -0.833332 2.970137 -0.983107 0.003956 -0.182989 0.000000 0.000000
-1.252521 -0.823626 2.970790 -0.983107 0.003956 -0.182989 0.000000 0.000000
-1.238642 -0.751272 2.897347 -0.983107 0.003956 -0.182989 0.000000 0.000000
-1.238642 -0.833332 2.896017 -0.983107 0.003956 -0.182989 0.000000 0.000000
-1.252717 -0.902323 3.022668 -0.999997 0.001464 -0.001980 0.000000 0.000000
-1.252698 -0.899255 3.013840 -0.999997 0.001464 -0.001980 0.000000 0.000000
-1.252712 -0.915392 3.010413 -0.999997 0.001464 -0.001980 0.000000 0.000000
-1.252734 -0.915392 3.020328 -0.999997 0.001464 -0.001980 0.000000 0.000000
-1.252521 -0.776696 2.997969 -1.000000 0.000298 -0.000095 0.000000 0.000000
-1.252521 -0.771555 3.005578 -1.000000 0.000298 -0.000095 0.000000 0.000000
-1.252514 -0.751272 3.001134 -1.000000 0.000298 -0.000095 0.000000 0.000000
-1.252514 -0.751272 2.992588 -1.000000 0.000298 -0.000095 0.000000 0.000000
-1.252639 -0.883919 2.991097 -0.999996 0.000713 -0.002849 0.000000 0.000000
-1.252619 -0.877048 2.985048 -0.999996 0.000713 -0.002849 0.000000 0.000000
-1.252624 -0.915392 2.978077 -0.999996 0.000713 -0.002849 0.000000 0.000000
-1.252646 -0.915392 2.984871 -0.999996 0.000713 -0.002849 0.000000 0.000000
-1.252521 -0.761784 3.041684 -1.000000 0.000670 0.000021 0.000000 0.000000
-1.252521 -0.762438 3.051391 -1.000000 0.000670 0.000021 0.000000 0.000000
-1.252514 -0.751272 3.052585 -1.000000 0.000670 0.000021 0.000000 0.000000
-1.252514 -0.751272 3.041684 -1.000000 0.000670 0.000021 0.000000 0.000000
-1.252521 -0.823626 3.112578 -0.983107 0.003956 0.182989 0.000000 0.000000
-1.252521 -0.833332 3.113232 -0.983107 0.003956 0.182989 0.000000 0.000000
-1.238642 -0.833332 3.187352 -0.983107 0.003956 0.182989 0.000000 0.000000
-1.238642 -0.751272 3.186022 -0.983107 0.003956 0.182989 0.000000 0.000000
-1.252541 -0.843038 3.112578 -0.980427 0.018084 0.196049 0.000000 0.000000
-1.252560 -0.852348 3.110675 -0.980427 0.018084 0.196049 0.000000 0.000000
-1.252558 -0.915392 3.119167 -0.980427 0.018084 0.196049 0.000000 0.000000
-1.238657 -0.915392 3.186022 -0.980427 0.018084 0.196049 0.000000 0.000000
-1.252521 -0.789616 3.098320 -1.000000 0.000154 0.000107 0.000000 0.000000
-1.252521 -0.797226 3.103461 -1.000000 0.000154 0.000107 0.000000 0.000000
-1.252514 -0.751272 3.111064 -1.000000 0.000154 0.000107 0.000000 0.000000
-1.252514 -0.751272 3.105291 -1.000000 0.000154 0.000107 0.000000 0.000000
-1.252521 -0.823626 2.970790 -0.980559 -0.017696 -0.195426 0.000000 0.000000
-1.252521 -0.814316 2.972693 -0.980559 -0.017696 -0.195426 0.000000 0.000000
-1.252514 -0.751272 2.964202 -0.980559 -0.017696 -0.195426 0.000000 0.000000
-1.238642 -0.751272 2.897347 -0.980559 -0.017696 -0.195426 0.000000 0.000000
-1.252698 -0.899255 3.069529 -0.999997 0.001464 0.001980 0.000000 0.000000
-1.252717 -0.902323 3.060701 -0.999997 0.001464 0.001980 0.000000 0.000000
-1.252734 -0.915392 3.063041 -0.999997 0.001464 0.001980 0.000000 0.000000
-1.252712 -0.915392 3.072956 -0.999997 0.001464 0.001980 0.000000 0.000000
-1.252619 -0.877048 3.098320 -0.999996 0.000713 0.002849 0.000000 0.000000
-1.252639 -0.883919 3.092272 -0.999996 0.000713 0.002849 0.000000 0.000000
-1.252646 -0.915392 3.098498 -0.999996 0.000713 0.002849 0.000000 0.000000
-1.252624 -0.915392 3.105291 -0.999996 0.000713 0.002849 0.000000 0.000000
-1.252521 -0.782745 2.991097 -1.000000 0.000236 -0.000098 0.000000 0.000000
-1.252521 -0.776696 2.997969 -1.000000 0.000236 -0.000098 0.000000 0.000000
-1.252514 -0.751272 2.992588 -1.000000 0.000236 -0.000098 0.000000 0.000000
-1.252514 -0.751272 2.984871 -1.000000 0.000236 -0.000098 0.000000 0.000000
-1.252600 -0.869438 2.979908 -0.999991 0.000669 -0.004112 0.000000 0.000000
-1.252580 -0.861177 2.975761 -0.999991 0.000669 -0.004112 0.000000 0.000000
-1.252580 -0.915392 2.967647 -0.999991 0.000669 -0.004112 0.000000 0.000000
-1.252602 -0.915392 2.972304 -0.999991 0.000669 -0.004112 0.000000 0.000000
-1.252521 -0.797226 3.103461 -1.000000 0.000127 0.000119 0.000000 0.000000
-1.252521 -0.805487 3.107608 -1.000000 0.000127 0.000119 0.000000 0.000000
-1.252514 -0.751272 3.115721 -1.000000 0.000127 0.000119 0.000000 0.000000
-1.252514 -0.751272 3.111064 -1.000000 0.000127 0.000119 0.000000 0.000000
-1.252600 -0.869438 3.103461 -0.999994 0.000669 0.003368 0.000000 0.000000
-1.252619 -0.877048 3.098320 -0.999994 0.000669 0.003368 0.000000 0.000000
-1.252624 -0.915392 3.105291 -0.999994 0.000669 0.003368 0.000000 0.000000
-1.252602 -0.915392 3.111064 -0.999994 0.000669 0.003368 0.000000 0.000000
-1.252521 -0.762438 3.031978 -1.000000 0.000670 -0.000021 0.000000 0.000000
-1.252521 -0.761784 3.041684 -1.000000 0.000670 -0.000021 0.000000 0.000000
-1.252514 -0.751272 3.041684 -1.000000 0.000670 -0.000021 0.000000 0.000000
-1.252514 -0.751272 3.030784 -1.000000 0.000670 -0.000021 0.000000 0.000000
-1.252580 -0.861177 2.975761 -0.999985 0.000744 -0.005398 0.000000 0.000000
-1.252560 -0.852348 2.972693 -0.999985 0.000744 -0.005398 0.000000 0.000000
-1.252558 -0.915392 2.964202 -0.999985 0.000744 -0.005398 0.000000 0.000000
-1.252580 -0.915392 2.967647 -0.999985 0.000744 -0.005398 0.000000 0.000000
-1.252757 -0.904879 3.041684 -0.999996 0.002011 -0.001961 0.000000 0.000000
-1.252737 -0.904226 3.031978 -0.999996 0.002011 -0.001961 0.000000 0.000000
-1.252756 -0.915392 3.030784 -0.999996 0.002011 -0.001961 0.000000 0.000000
-1.252779 -0.915392 3.041684 -0.999996 0.002011 -0.001961 0.000000 0.000000
-1.252521 -0.764341 3.060701 -1.000000 0.000482 0.000079 0.000000 0.000000
-1.252521 -0.767409 3.069529 -1.000000 0.000482 0.000079 0.000000 0.000000
-1.252514 -0.751272 3.072956 -1.000000 0.000482 0.000079 0.000000 0.000000
-1.252514 -0.751272 3.063041 -1.000000 0.000482 0.000079 0.000000 0.000000
-1.252521 -0.814316 2.972693 -1.000000 0.000104 -0.000141 0.000000 0.000000
-1.252521 -0.805487 2.975761 -1.000000 0.000104 -0.000141 0.000000 0.000000
-1.252514 -0.751272 2.967647 -1.000000 0.000104 -0.000141 0.000000 0.000000
-1.252514 -0.751272 2.964202 -1.000000 0.000104 -0.000141 0.000000 0.000000
-1.252737 -0.904226 3.031978 -0.999997 0.001778 -0.001940 0.000000 0.000000
-1.252717 -0.902323 3.022668 -0.999997 0.001778 -0.001940 0.000000 0.000000
-1.252734 -0.915392 3.020328 -0.999997 0.001778 -0.001940 0.000000 0.000000
-1.252756 -0.915392 3.030784 -0.999997 0.001778 -0.001940 0.000000 0.000000
-1.252521 -0.814316 3.110675 -0.980559 -0.017696 0.195426 0.000000 0.000000
-1.252521 -0.823626 3.112578 -0.980559 -0.017696 0.195426 0.000000 0.000000
-1.238642 -0.751272 3.186022 -0.980559 -0.017696 0.195426 0.000000 0.000000
-1.252514 -0.751272 3.119167 -0.980559 -0.017696 0.195426 0.000000 0.000000
-1.252678 -0.895108 3.005578 -0.999997 0.000968 -0.002282 0.000000 0.000000
-1.252658 -0.889968 2.997969 -0.999997 0.000968 -0.002282 0.000000 0.000000
-1.252668 -0.915392 2.992588 -0.999997 0.000968 -0.002282 0.000000 0.000000
-1.252690 -0.915392 3.001134 -0.999997 0.000968 -0.002282 0.000000 0.000000
-1.252521 -0.776696 3.085400 -1.000000 0.000236 0.000098 0.000000 0.000000
-1.252521 -0.782745 3.092272 -1.000000 0.000236 0.000098 0.000000 0.000000
-1.252514 -0.751272 3.098498 -1.000000 0.000236 0.000098 0.000000 0.000000
-1.252514 -0.751272 3.090780 -1.000000 0.000236 0.000098 0.000000 0.000000
-1.252560 -0.852348 3.110675 -0.999985 0.000744 0.005398 0.000000 0.000000
-1.252580 -0.861177 3.107608 -0.999985 0.000744 0.005398 0.000000 0.000000
-1.252580 -0.915392 3.115721 -0.999985 0.000744 0.005398 0.000000 0.000000
-1.252558 -0.915392 3.119167 -0.999985 0.000744 0.005398 0.000000 0.000000
-1.252521 -0.782745 3.092272 -1.000000 0.000189 0.000101 0.000000 0.000000
-1.252521 -0.789616 3.098320 -1.000000 0.000189 0.000101 0.000000 0.000000
-1.252514 -0.751272 3.105291 -1.000000 0.000189 0.000101 0.000000 0.000000
-1.252514 -0.751272 3.098498 -1.000000 0.000189 0.000101 0.000000 0.000000
-1.252560 -0.852348 2.972693 -0.980427 0.018084 -0.196049 0.000000 0.000000
-1.252541 -0.843038 2.970790 -0.980427 0.018084 -0.196049 0.000000 0.000000
-1.238657 -0.915392 2.897347 -0.980427 0.018084 -0.196049 0.000000 0.000000
-1.252558 -0.915392 2.964202 -0.980427 0.018084 -0.196049 0.000000 0.000000
-1.252678 -0.895108 3.077791 -0.999997 0.001187 0.002098 0.000000 0.000000
-1.252698 -0.899255 3.069529 -0.999997 0.001187 0.002098 0.000000 0.000000
-1.252712 -0.915392 3.072956 -0.999997 0.001187 0.002098 0.000000 0.000000
-1.252690 -0.915392 3.082235 -0.999997 0.001187 0.002098 0.000000 0.000000
-1.252541 -0.843038 3.112578 0.983070 0.003595 -0.183194 0.000000 0.000000
-1.252521 -0.833332 3.113232 0.983070 0.003595 -0.183194 0.000000 0.000000
-1.238642 -0.833332 3.187352 0.983070 0.003595 -0.183194 0.000000 0.000000
-1.238657 -0.915392 3.186022 0.983070 0.003595 -0.183194 0.000000 0.000000
-1.252521 -0.789616 2.985048 -1.000000 0.000189 -0.000101 0.000000 0.000000
-1.252521 -0.782745 2.991097 -1.000000 0.000189 -0.000101 0.000000 0.000000
-1.252514 -0.751272 2.984871 -1.000000 0.000189 -0.000101 0.000000 0.000000
-1.252514 -0.751272 2.978077 -1.000000 0.000189 -0.000101 0.000000 0.000000
-1.252639 -0.883919 3.092272 -0.999997 0.000812 0.002523 0.000000 0.000000
-1.252658 -0.889968 3.085400 -0.999997 0.000812 0.002523 0.000000 0.000000
-1.252668 -0.915392 3.090780 -0.999997 0.000812 0.002523 0.000000 0.000000
-1.252646 -0.915392 3.098498 -0.999997 0.000812 0.002523 0.000000 0.000000
-1.252521 -0.771555 3.005578 -1.000000 0.000380 -0.000090 0.000000 0.000000
-1.252521 -0.767409 3.013840 -1.000000 0.000380 -0.000090 0.000000 0.000000
-1.252514 -0.751272 3.010413 -1.000000 0.000380 -0.000090 0.000000 0.000000
-1.252514 -0.751272 3.001134 -1.000000 0.000380 -0.000090 0.000000 0.000000
-1.252698 -0.899255 3.013840 -0.999997 0.001187 -0.002098 0.000000 0.000000
-1.252678 -0.895108 3.005578 -0.999997 0.001187 -0.002098 0.000000 0.000000
-1.252690 -0.915392 3.001134 -0.999997 0.001187 -0.002098 0.000000 0.000000
-1.252712 -0.915392 3.010413 -0.999997 0.001187 -0.002098 0.000000 0.000000
-1.252521 -0.762438 3.051391 -1.000000 0.000592 0.000057 0.000000 0.000000
-1.252521 -0.764341 3.060701 -1.000000 0.000592 0.000057 0.000000 0.000000
-1.252514 -0.751272 3.063041 -1.000000 0.000592 0.000057 0.000000 0.000000
-1.252514 -0.751272 3.052585 -1.000000 0.000592 0.000057 0.000000 0.000000
-1.252521 -0.797226 2.979908 -1.000000 0.000154 -0.000107 0.000000 0.000000
-1.252521 -0.789616 2.985048 -1.000000 0.000154 -0.000107 0.000000 0.000000
-1.252514 -0.751272 2.978077 -1.000000 0.000154 -0.000107 0.000000 0.000000
-1.252514 -0.751272 2.972304 -1.000000 0.000154 -0.000107 0.000000 0.000000
-1.252658 -0.889968 2.997969 -0.999997 0.000812 -0.002523 0.000000 0.000000
-1.252639 -0.883919 2.991097 -0.999997 0.000812 -0.002523 0.000000 0.000000
-1.252646 -0.915392 2.984871 -0.999997 0.000812 -0.002523 0.000000 0.000000
-1.252668 -0.915392 2.992588 -0.999997 0.000812 -0.002523 0.000000 0.000000
-1.252521 -0.771555 3.077791 -1.000000 0.000298 0.000095 0.000000 0.000000
-1.252521 -0.776696 3.085400 -1.000000 0.000298 0.000095 0.000000 0.000000
-1.252514 -0.751272 3.090780 -1.000000 0.000298 0.000095 0.000000 0.000000
-1.252514 -0.751272 3.082235 -1.000000 0.000298 0.000095 0.000000 0.000000
-1.252521 -0.805487 2.975761 -1.000000 0.000127 -0.000119 0.000000 0.000000
-1.252521 -0.797226 2.979908 -1.000000 0.000127 -0.000119 0.000000 0.000000
-1.252514 -0.751272 2.972304 -1.000000 0.000127 -0.000119 0.000000 0.000000
-1.252514 -0.751272 2.967647 -1.000000 0.000127 -0.000119 0.000000 0.000000
-1.252717 -0.902323 3.060701 -0.999997 0.001778 0.001940 0.000000 0.000000
-1.252737 -0.904226 3.051391 -0.999997 0.001778 0.001940 0.000000 0.000000
-1.252756 -0.915392 3.052585 -0.999997 0.001778 0.001940 0.000000 0.000000
-1.252734 -0.915392 3.063041 -0.999997 0.001778 0.001940 0.000000 0.000000
-1.252658 -0.889968 3.085400 -0.999997 0.000968 0.002282 0.000000 0.000000
-1.252678 -0.895108 3.077791 -0.999997 0.000968 0.002282 0.000000 0.000000
-1.252690 -0.915392 3.082235 -0.999997 0.000968 0.002282 0.000000 0.000000
-1.252668 -0.915392 3.090780 -0.999997 0.000968 0.002282 0.000000 0.000000
-1.170971 -0.767409 3.013840 1.000000 -0.000482 0.000079 0.000000 0.000000
-1.170964 -0.751272 3.010413 1.000000 -0.000482 0.000079 0.000000 0.000000
-1.170964 -0.751272 3.020328 1.000000 -0.000482 0.000079 0.000000 0.000000
-1.170971 -0.764341 3.022668 1.000000 -0.000482 0.000079 0.000000 0.000000
-1.171069 -0.877048 2.985048 0.999994 -0.000666 0.003359 0.000000 0.000000
-1.171074 -0.915392 2.978077 0.999994 -0.000666 0.003359 0.000000 0.000000
-1.171052 -0.915392 2.972304 0.999994 -0.000666 0.003359 0.000000 0.000000
-1.171050 -0.869438 2.979908 0.999994 -0.000666 0.003359 0.000000 0.000000
-1.170971 -0.805487 3.107608 1.000000 -0.000104 -0.000141 0.000000 0.000000
-1.170964 -0.751272 3.115721 1.000000 -0.000104 -0.000141 0.000000 0.000000
-1.170964 -0.751272 3.119167 1.000000 -0.000104 -0.000141 0.000000 0.000000
-1.170971 -0.814316 3.110675 1.000000 -0.000104 -0.000141 0.000000 0.000000
-1.171030 -0.861177 3.107608 0.999991 -0.000669 -0.004112 0.000000 0.000000
-1.171030 -0.915392 3.115721 0.999991 -0.000669 -0.004112 0.000000 0.000000
-1.171052 -0.915392 3.111064 0.999991 -0.000669 -0.004112 0.000000 0.000000
-1.171050 -0.869438 3.103461 0.999991 -0.000669 -0.004112 0.000000 0.000000
-1.170971 -0.764341 3.022668 1.000000 -0.000592 0.000057 0.000000 0.000000
-1.170964 -0.751272 3.020328 1.000000 -0.000592 0.000057 0.000000 0.000000
-1.170964 -0.751272 3.030784 1.000000 -0.000592 0.000057 0.000000 0.000000
-1.170971 -0.762438 3.031978 1.000000 -0.000592 0.000057 0.000000 0.000000
-1.170991 -0.843038 2.970790 0.983166 -0.004318 -0.182663 0.000000 0.000000
-1.184855 -0.915392 2.897347 0.983166 -0.004318 -0.182663 0.000000 0.000000
-1.184840 -0.833332 2.896017 0.983166 -0.004318 -0.182663 0.000000 0.000000
-1.170971 -0.833332 2.970137 0.983166 -0.004318 -0.182663 0.000000 0.000000
-1.171187 -0.904226 3.051391 0.999996 -0.002000 -0.001961 0.000000 0.000000
-1.171207 -0.915392 3.052585 0.999996 -0.002000 -0.001961 0.000000 0.000000
-1.171229 -0.915392 3.041684 0.999996 -0.002000 -0.001961 0.000000 0.000000
-1.171207 -0.904879 3.041684 0.999996 -0.002000 -0.001961 0.000000 0.000000
-1.170971 -0.767409 3.069529 1.000000 -0.000380 -0.000090 0.000000 0.000000
-1.170964 -0.751272 3.072956 1.000000 -0.000380 -0.000090 0.000000 0.000000
-1.170964 -0.751272 3.082235 1.000000 -0.000380 -0.000090 0.000000 0.000000
-1.170971 -0.771555 3.077791 1.000000 -0.000380 -0.000090 0.000000 0.000000
-1.170971 -0.833332 2.970137 0.983129 0.003953 -0.182869 0.000000 0.000000
-1.184840 -0.833332 2.896017 0.983129 0.003953 -0.182869 0.000000 0.000000
-1.184840 -0.751272 2.897347 0.983129 0.003953 -0.182869 0.000000 0.000000
-1.170971 -0.823626 2.970790 0.983129 0.003953 -0.182869 0.000000 0.000000
-1.171168 -0.902323 3.022668 0.999997 -0.001470 0.001985 0.000000 0.000000
-1.171185 -0.915392 3.020328 0.999997 -0.001470 0.001985 0.000000 0.000000
-1.171162 -0.915392 3.010413 0.999997 -0.001470 0.001985 0.000000 0.000000
-1.171148 -0.899255 3.013840 0.999997 -0.001470 0.001985 0.000000 0.000000
-1.170971 -0.776696 2.997969 1.000000 -0.000298 0.000095 0.000000 0.000000
-1.170964 -0.751272 2.992588 1.000000 -0.000298 0.000095 0.000000 0.000000
-1.170964 -0.751272 3.001134 1.000000 -0.000298 0.000095 0.000000 0.000000
-1.170971 -0.771555 3.005578 1.000000 -0.000298 0.000095 0.000000 0.000000
-1.171089 -0.883919 2.991097 0.999996 -0.000713 0.002868 0.000000 0.000000
-1.171096 -0.915392 2.984871 0.999996 -0.000713 0.002868 0.000000 0.000000
-1.171074 -0.915392 2.978077 0.999996 -0.000713 0.002868 0.000000 0.000000
-1.171069 -0.877048 2.985048 0.999996 -0.000713 0.002868 0.000000 0.000000
-1.170971 -0.761784 3.041684 1.000000 -0.000670 -0.000021 0.000000 0.000000
-1.170964 -0.751272 3.041684 1.000000 -0.000670 -0.000021 0.000000 0.000000
-1.170964 -0.751272 3.052585 1.000000 -0.000670 -0.000021 0.000000 0.000000
-1.170971 -0.762438 3.051391 1.000000 -0.000670 -0.000021 0.000000 0.000000
-1.170971 -0.823626 3.112578 0.983129 0.003953 0.182869 0.000000 0.000000
-1.184840 -0.751272 3.186022 0.983129 0.003953 0.182869 0.000000 0.000000
-1.184840 -0.833332 3.187352 0.983129 0.003953 0.182869 0.000000 0.000000
-1.170971 -0.833332 3.113232 0.983129 0.003953 0.182869 0.000000 0.000000
-1.170991 -0.843038 3.112578 0.980678 0.017509 0.194846 0.000000 0.000000
-1.184855 -0.915392 3.186022 0.980678 0.017509 0.194846 0.000000 0.000000
-1.171008 -0.915392 3.119167 0.980678 0.017509 0.194846 0.000000 0.000000
-1.171010 -0.852348 3.110675 0.980678 0.017509 0.194846 0.000000 0.000000
-1.170971 -0.789616 3.098320 1.000000 -0.000154 -0.000107 0.000000 0.000000
-1.170964 -0.751272 3.105291 1.000000 -0.000154 -0.000107 0.000000 0.000000
-1.170964 -0.751272 3.111064 1.000000 -0.000154 -0.000107 0.000000 0.000000
-1.170971 -0.797226 3.103461 1.000000 -0.000154 -0.000107 0.000000 0.000000
-1.170971 -0.823626 2.970790 0.980547 -0.017897 -0.195469 0.000000 0.000000
-1.184840 -0.751272 2.897347 0.980547 -0.017897 -0.195469 0.000000 0.000000
-1.170964 -0.751272 2.964202 0.980547 -0.017897 -0.195469 0.000000 0.000000
-1.170971 -0.814316 2.972693 0.980547 -0.017897 -0.195469 0.000000 0.000000
-1.171148 -0.899255 3.069529 0.999997 -0.001470 -0.001985 0.000000 0.000000
-1.171162 -0.915392 3.072956 0.999997 -0.001470 -0.001985 0.000000 0.000000
-1.171185 -0.915392 3.063041 0.999997 -0.001470 -0.001985 0.000000 0.000000
-1.171168 -0.902323 3.060701 0.999997 -0.001470 -0.001985 0.000000 0.000000
-1.171069 -0.877048 3.098320 0.999996 -0.000713 -0.002868 0.000000 0.000000
-1.171074 -0.915392 3.105291 0.999996 -0.000713 -0.002868 0.000000 0.000000
-1.171096 -0.915392 3.098498 0.999996 -0.000713 -0.002868 0.000000 0.000000
-1.171089 -0.883919 3.092272 0.999996 -0.000713 -0.002868 0.000000 0.000000
-1.170971 -0.782744 2.991097 1.000000 -0.000236 0.000098 0.000000 0.000000
-1.170964 -0.751272 2.984871 1.000000 -0.000236 0.000098 0.000000 0.000000
-1.170964 -0.751272 2.992588 1.000000 -0.000236 0.000098 0.000000 0.000000
-1.170971 -0.776696 2.997969 1.000000 -0.000236 0.000098 0.000000 0.000000
-1.171050 -0.869438 2.979908 0.999991 -0.000669 0.004112 0.000000 0.000000
-1.171052 -0.915392 2.972304 0.999991 -0.000669 0.004112 0.000000 0.000000
-1.171030 -0.915392 2.967647 0.999991 -0.000669 0.004112 0.000000 0.000000
-1.171030 -0.861177 2.975761 0.999991 -0.000669 0.004112 0.000000 0.000000
-1.170971 -0.797226 3.103461 1.000000 -0.000127 -0.000119 0.000000 0.000000
-1.170964 -0.751272 3.111064 1.000000 -0.000127 -0.000119 0.000000 0.000000
-1.170964 -0.751272 3.115721 1.000000 -0.000127 -0.000119 0.000000 0.000000
-1.170971 -0.805487 3.107608 1.000000 -0.000127 -0.000119 0.000000 0.000000
-1.171050 -0.869438 3.103461 0.999994 -0.000666 -0.003359 0.000000 0.000000
-1.171052 -0.915392 3.111064 0.999994 -0.000666 -0.003359 0.000000 0.000000
-1.171074 -0.915392 3.105291 0.999994 -0.000666 -0.003359 0.000000 0.000000
-1.171069 -0.877048 3.098320 0.999994 -0.000666 -0.003359 0.000000 0.000000
-1.170971 -0.762438 3.031978 1.000000 -0.000670 0.000021 0.000000 0.000000
-1.170964 -0.751272 3.030784 1.000000 -0.000670 0.000021 0.000000 0.000000
-1.170964 -0.751272 3.041684 1.000000 -0.000670 0.000021 0.000000 0.000000
-1.170971 -0.761784 3.041684 1.000000 -0.000670 0.000021 0.000000 0.000000
-1.171030 -0.861177 2.975761 0.999985 -0.000741 0.005383 0.000000 0.000000
-1.171030 -0.915392 2.967647 0.999985 -0.000741 0.005383 0.000000 0.000000
-1.171008 -0.915392 2.964202 0.999985 -0.000741 0.005383 0.000000 0.000000
-1.171010 -0.852348 2.972693 0.999985 -0.000741 0.005383 0.000000 0.000000
-1.171207 -0.904879 3.041684 0.999996 -0.002000 0.001961 0.000000 0.000000
-1.171229 -0.915392 3.041684 0.999996 -0.002000 0.001961 0.000000 0.000000
-1.171207 -0.915392 3.030784 0.999996 -0.002000 0.001961 0.000000 0.000000
-1.171187 -0.904226 3.031978 0.999996 -0.002000 0.001961 0.000000 0.000000
-1.170971 -0.764341 3.060701 1.000000 -0.000482 -0.000079 0.000000 0.000000
-1.170964 -0.751272 3.063041 1.000000 -0.000482 -0.000079 0.000000 0.000000
-1.170964 -0.751272 3.072956 1.000000 -0.000482 -0.000079 0.000000 0.000000
-1.170971 -0.767409 3.069529 1.000000 -0.000482 -0.000079 0.000000 0.000000
-1.170971 -0.814316 2.972693 1.000000 -0.000104 0.000141 0.000000 0.000000
-1.170964 -0.751272 2.964202 1.000000 -0.000104 0.000141 0.000000 0.000000
-1.170964 -0.751272 2.967647 1.000000 -0.000104 0.000141 0.000000 0.000000
-1.170971 -0.805487 2.975761 1.000000 -0.000104 0.000141 0.000000 0.000000
-1.171187 -0.904226 3.031978 0.999997 -0.001778 0.001940 0.000000 0.000000
-1.171207 -0.915392 3.030784 0.999997 -0.001778 0.001940 0.000000 0.000000
-1.171185 -0.915392 3.020328 0.999997 -0.001778 0.001940 0.000000 0.000000
-1.171168 -0.902323 3.022668 0.999997 -0.001778 0.001940 0.000000 0.000000
-1.170971 -0.814316 3.110675 0.980547 -0.017897 0.195469 0.000000 0.000000
-1.170964 -0.751272 3.119167 0.980547 -0.017897 0.195469 0.000000 0.000000
-1.184840 -0.751272 3.186022 0.980547 -0.017897 0.195469 0.000000 0.000000
-1.170971 -0.823626 3.112578 0.980547 -0.017897 0.195469 0.000000 0.000000
-1.171128 -0.895108 3.005578 0.999997 -0.000961 0.002262 0.000000 0.000000
-1.171140 -0.915392 3.001134 0.999997 -0.000961 0.002262 0.000000 0.000000
-1.171118 -0.915392 2.992588 0.999997 -0.000961 0.002262 0.000000 0.000000
-1.171109 -0.889968 2.997969 0.999997 -0.000961 0.002262 0.000000 0.000000
-1.170971 -0.776696 3.085400 1.000000 -0.000236 -0.000098 0.000000 0.000000
-1.170964 -0.751272 3.090780 1.000000 -0.000236 -0.000098 0.000000 0.000000
-1.170964 -0.751272 3.098498 1.000000 -0.000236 -0.000098 0.000000 0.000000
-1.170971 -0.782744 3.092272 1.000000 -0.000236 -0.000098 0.000000 0.000000
-1.171010 -0.852348 3.110675 0.999985 -0.000741 -0.005383 0.000000 0.000000
-1.171008 -0.915392 3.119167 0.999985 -0.000741 -0.005383 0.000000 0.000000
-1.171030 -0.915392 3.115721 0.999985 -0.000741 -0.005383 0.000000 0.000000
-1.171030 -0.861177 3.107608 0.999985 -0.000741 -0.005383 0.000000 0.000000
-1.170971 -0.782744 3.092272 1.000000 -0.000189 -0.000101 0.000000 0.000000
-1.170964 -0.751272 3.098498 1.000000 -0.000189 -0.000101 0.000000 0.000000
-1.170964 -0.751272 3.105291 1.000000 -0.000189 -0.000101 0.000000 0.000000
-1.170971 -0.789616 3.098320 1.000000 -0.000189 -0.000101 0.000000 0.000000
-1.171010 -0.852348 2.972693 0.980678 0.017509 -0.194846 0.000000 0.000000
-1.171008 -0.915392 2.964202 0.980678 0.017509 -0.194846 0.000000 0.000000
-1.184855 -0.915392 2.897347 0.980678 0.017509 -0.194846 0.000000 0.000000
-1.170991 -0.843038 2.970790 0.980678 0.017509 -0.194846 0.000000 0.000000
-1.171128 -0.895108 3.077791 0.999997 -0.001185 -0.002105 0.000000 0.000000
-1.171140 -0.915392 3.082235 0.999997 -0.001185 -0.002105 0.000000 0.000000
-1.171162 -0.915392 3.072956 0.999997 -0.001185 -0.002105 0.000000 0.000000
-1.171148 -0.899255 3.069529 0.999997 -0.001185 -0.002105 0.000000 0.000000
-1.170991 -0.843038 3.112578 -0.983166 0.004318 -0.182663 0.000000 0.000000
-1.184855 -0.915392 3.186022 -0.983166 0.004318 -0.182663 0.000000 0.000000
-1.184840 -0.833332 3.187352 -0.983166 0.004318 -0.182663 0.000000 0.000000
-1.170971 -0.833332 3.113232 -0.983166 0.004318 -0.182663 0.000000 0.000000
-1.170971 -0.789616 2.985048 1.000000 -0.000189 0.000101 0.000000 0.000000
-1.170964 -0.751272 2.978077 1.000000 -0.000189 0.000101 0.000000 0.000000
-1.170964 -0.751272 2.984871 1.000000 -0.000189 0.000101 0.000000 0.000000
-1.170971 -0.782744 2.991097 1.000000 -0.000189 0.000101 0.000000 0.000000
-1.171089 -0.883919 3.092272 0.999997 -0.000812 -0.002531 0.000000 0.000000
-1.171096 -0.915392 3.098498 0.999997 -0.000812 -0.002531 0.000000 0.000000
-1.171118 -0.915392 3.090780 0.999997 -0.000812 -0.002531 0.000000 0.000000
-1.171109 -0.889968 3.085400 0.999997 -0.000812 -0.002531 0.000000 0.000000
-1.170971 -0.771555 3.005578 1.000000 -0.000380 0.000090 0.000000 0.000000
-1.170964 -0.751272 3.001134 1.000000 -0.000380 0.000090 0.000000 0.000000
-1.170964 -0.751272 3.010413 1.000000 -0.000380 0.000090 0.000000 0.000000
-1.170971 -0.767409 3.013840 1.000000 -0.000380 0.000090 0.000000 0.000000
-1.171148 -0.899255 3.013840 0.999997 -0.001185 0.002105 0.000000 0.000000
-1.171162 -0.915392 3.010413 0.999997 -0.001185 0.002105 0.000000 0.000000
-1.171140 -0.915392 3.001134 0.999997 -0.001185 0.002105 0.000000 0.000000
-1.171128 -0.895108 3.005578 0.999997 -0.001185 0.002105 0.000000 0.000000
-1.170971 -0.762438 3.051391 1.000000 -0.000592 -0.000057 0.000000 0.000000
-1.170964 -0.751272 3.052585 1.000000 -0.000592 -0.000057 0.000000 0.000000
-1.170964 -0.751272 3.063041 1.000000 -0.000592 -0.000057 0.000000 0.000000
-1.170971 -0.764341 3.060701 1.000000 -0.000592 -0.000057 0.000000 0.000000
-1.170971 -0.797226 2.979908 1.000000 -0.000154 0.000107 0.000000 0.000000
-1.170964 -0.751272 2.972304 1.000000 -0.000154 0.000107 0.000000 0.000000
-1.170964 -0.751272 2.978077 1.000000 -0.000154 0.000107 0.000000 0.000000
-1.170971 -0.789616 2.985048 1.000000 -0.000154 0.000107 0.000000 0.000000
-1.171109 -0.889968 2.997969 0.999997 -0.000812 0.002531 0.000000 0.000000
-1.171118 -0.915392 2.992588 0.999997 -0.000812 0.002531 0.000000 0.000000
-1.171096 -0.915392 2.984871 0.999997 -0.000812 0.002531 0.000000 0.000000
-1.171089 -0.883919 2.991097 0.999997 -0.000812 0.002531 0.000000 0.000000
-1.170971 -0.771555 3.077791 1.000000 -0.000298 -0.000095 0.000000 0.000000
-1.170964 -0.751272 3.082235 1.000000 -0.000298 -0.000095 0.000000 0.000000
-1.170964 -0.751272 3.090780 1.000000 -0.000298 -0.000095 0.000000 0.000000
-1.170971 -0.776696 3.085400 1.000000 -0.000298 -0.000095 0.000000 0.000000
-1.170971 -0.805487 2.975761 1.000000 -0.000127 0.000119 0.000000 0.000000
-1.170964 -0.751272 2.967647 1.000000 -0.000127 0.000119 0.000000 0.000000
-1.170964 -0.751272 2.972304 1.000000 -0.000127 0.000119 0.000000 0.000000
-1.170971 -0.797226 2.979908 1.000000 -0.000127 0.000119 0.000000 0.000000
-1.171168 -0.902323 3.060701 0.999997 -0.001778 -0.001940 0.000000 0.000000
-1.171185 -0.915392 3.063041 0.999997 -0.001778 -0.001940 0.000000 0.000000
-1.171207 -0.915392 3.052585 0.999997 -0.001778 -0.001940 0.000000 0.000000
-1.171187 -0.904226 3.051391 0.999997 -0.001778 -0.001940 0.000000 0.000000
-1.171109 -0.889968 3.085400 0.999997 -0.000961 -0.002262 0.000000 0.000000
-1.171118 -0.915392 3.090780 0.999997 -0.000961 -0.002262 0.000000 0.000000
-1.171140 -0.915392 3.082235 0.999997 -0.000961 -0.002262 0.000000 0.000000
-1.171128 -0.895108 3.077791 0.999997 -0.000961 -0.002262 0.000000 0.000000
-1.252757 -0.904879 3.041684 0.000000 0.997742 0.067164 0.000000 0.000000
-1.171207 -0.904879 3.041684 0.000000 0.997742 0.067164 0.000000 0.000000
-1.171187 -0.904226 3.031978 0.000000 0.997742 0.067164 0.000000 0.000000
-1.252737 -0.904226 3.031978 0.000000 0.997742 0.067164 0.000000 0.000000
-1.252580 -0.915392 3.115721 0.000000 -1.000000 -0.000000 0.000000 0.000000
-1.171030 -0.915392 3.115721 0.000000 -1.000000 -0.000000 0.000000 0.000000
-1.171008 -0.915392 3.119167 0.000000 -1.000000 -0.000000 0.000000 0.000000
-1.252558 -0.915392 3.119167 0.000000 -1.000000 -0.000000 0.000000 0.000000
-1.252541 -0.843038 3.112578 0.000000 -0.067177 0.997741 0.000000 0.000000
-1.170991 -0.843038 3.112578 0.000000 -0.067177 0.997741 0.000000 0.000000
-1.170971 -0.833332 3.113232 0.000000 -0.067177 0.997741 0.000000 0.000000
-1.252521 -0.833332 3.113232 0.000000 -0.067177 0.997741 0.000000 0.000000
-1.252514 -0.751272 3.090780 0.000000 1.000000 -0.000000 0.000000 0.000000
-1.170964 -0.751272 3.090780 0.000000 1.000000 -0.000000 0.000000 0.000000
-1.170964 -0.751272 3.082235 0.000000 1.000000 -0.000000 0.000000 0.000000
-1.252514 -0.751272 3.082235 0.000000 1.000000 -0.000000 0.000000 0.000000
-1.252521 -0.767409 3.013840 0.000000 -0.944601 0.328221 0.000000 0.000000
-1.170971 -0.767409 3.013840 0.000000 -0.944601 0.328221 0.000000 0.000000
-1.170971 -0.764341 3.022668 0.000000 -0.944601 0.328221 0.000000 0.000000
-1.252521 -0.764341 3.022668 0.000000 -0.944601 0.328221 0.000000 0.000000
-1.238642 -0.833332 3.187352 1.000000 -0.000176 0.000000 0.000000 0.000000
-1.238642 -0.833332 3.273368 1.000000 -0.000176 0.000000 0.000000 0.000000
-1.238657 -0.915392 3.271252 1.000000 -0.000176 0.000000 0.000000 0.000000
-1.238657 -0.915392 3.186022 1.000000 -0.000176 0.000000 0.000000 0.000000
-1.252560 -0.852348 3.110675 0.000000 0.328231 -0.944598 0.000000 0.000000
-1.171010 -0.852348 3.110675 0.000000 0.328231 -0.944598 0.000000 0.000000
-1.171030 -0.861177 3.107608 0.000000 0.328231 -0.944598 0.000000 0.000000
-1.252580 -0.861177 3.107608 0.000000 0.328231 -0.944598 0.000000 0.000000
-1.252690 -0.915392 3.001134 0.000000 -1.000000 -0.000000 0.000000 0.000000
-1.171140 -0.915392 3.001134 0.000000 -1.000000 -0.000000 0.000000 0.000000
-1.171162 -0.915392 3.010413 0.000000 -1.000000 -0.000000 0.000000 0.000000
-1.252712 -0.915392 3.010413 0.000000 -1.000000 -0.000000 0.000000 0.000000
-1.252521 -0.771555 3.077791 0.000000 -0.828642 -0.559780 0.000000 0.000000
-1.170971 -0.771555 3.077791 0.000000 -0.828642 -0.559780 0.000000 0.000000
-1.170971 -0.776696 3.085400 0.000000 -0.828642 -0.559780 0.000000 0.000000
-1.252521 -0.776696 3.085400 0.000000 -0.828642 -0.559780 0.000000 0.000000
-1.252514 -0.751272 3.030784 0.000000 1.000000 -0.000000 0.000000 0.000000
-1.170964 -0.751272 3.030784 0.000000 1.000000 -0.000000 0.000000 0.000000
-1.170964 -0.751272 3.020328 0.000000 1.000000 -0.000000 0.000000 0.000000
-1.252514 -0.751272 3.020328 0.000000 1.000000 -0.000000 0.000000 0.000000
-1.252521 -0.833332 2.970137 0.000000 -0.067177 0.997741 0.000000 0.000000
-1.170971 -0.833332 2.970137 0.000000 -0.067177 0.997741 0.000000 0.000000
-1.170971 -0.823626 2.970790 0.000000 -0.067177 0.997741 0.000000 0.000000
-1.252521 -0.823626 2.970790 0.000000 -0.067177 0.997741 0.000000 0.000000
-1.252514 -0.751272 2.964202 0.000000 1.000000 -0.000000 0.000000 0.000000
-1.170964 -0.751272 2.964202 0.000000 1.000000 -0.000000 0.000000 0.000000
-1.184840 -0.751272 2.897347 0.000000 1.000000 -0.000000 0.000000 0.000000
-1.238642 -0.751272 2.897347 0.000000 1.000000 -0.000000 0.000000 0.000000
-1.252698 -0.899255 3.013840 0.000000 0.893740 0.448585 0.000000 0.000000
-1.171148 -0.899255 3.013840 0.000000 0.893740 0.448585 0.000000 0.000000
-1.171128 -0.895108 3.005578 0.000000 0.893740 0.448585 0.000000 0.000000
-1.252678 -0.895108 3.005578 0.000000 0.893740 0.448585 0.000000 0.000000
-1.252602 -0.915392 2.972304 0.000000 -1.000000 -0.000000 0.000000 0.000000
-1.171052 -0.915392 2.972304 0.000000 -1.000000 -0.000000 0.000000 0.000000
-1.171074 -0.915392 2.978077 0.000000 -1.000000 -0.000000 0.000000 0.000000
-1.252624 -0.915392 2.978077 0.000000 -1.000000 -0.000000 0.000000 0.000000
-1.252521 -0.764341 3.022668 0.000000 -0.979739 0.200281 0.000000 0.000000
-1.170971 -0.764341 3.022668 0.000000 -0.979739 0.200281 0.000000 0.000000
-1.170971 -0.762438 3.031978 0.000000 -0.979739 0.200281 0.000000 0.000000
-1.252521 -0.762438 3.031978 0.000000 -0.979739 0.200281 0.000000 0.000000
-1.252514 -0.751272 3.052585 0.000000 1.000000 -0.000000 0.000000 0.000000
-1.170964 -0.751272 3.052585 0.000000 1.000000 -0.000000 0.000000 0.000000
-1.170964 -0.751272 3.041684 0.000000 1.000000 -0.000000 0.000000 0.000000
-1.252514 -0.751272 3.041684 0.000000 1.000000 -0.000000 0.000000 0.000000
-1.252521 -0.823626 2.970790 0.000000 -0.200269 0.979741 0.000000 0.000000
-1.170971 -0.823626 2.970790 0.000000 -0.200269 0.979741 0.000000 0.000000
-1.170971 -0.814316 2.972693 0.000000 -0.200269 0.979741 0.000000 0.000000
-1.252521 -0.814316 2.972693 0.000000 -0.200269 0.979741 0.000000 0.000000
-1.252558 -0.915392 2.964202 0.000000 -1.000000 -0.000000 0.000000 0.000000
-1.171008 -0.915392 2.964202 0.000000 -1.000000 -0.000000 0.000000 0.000000
-1.171030 -0.915392 2.967647 0.000000 -1.000000 -0.000000 0.000000 0.000000
-1.252580 -0.915392 2.967647 0.000000 -1.000000 -0.000000 0.000000 0.000000
-1.252756 -0.915392 3.052585 0.000000 -1.000000 -0.000000 0.000000 0.000000
-1.171207 -0.915392 3.052585 0.000000 -1.000000 -0.000000 0.000000 0.000000
-1.171185 -0.915392 3.063041 0.000000 -1.000000 -0.000000 0.000000 0.000000
-1.252734 -0.915392 3.063041 0.000000 -1.000000 -0.000000 0.000000 0.000000
-1.252619 -0.877048 2.985048 0.000000 0.559789 0.828636 0.000000 0.000000
-1.171069 -0.877048 2.985048 0.000000 0.559789 0.828636 0.000000 0.000000
-1.171050 -0.869438 2.979908 0.000000 0.559789 0.828636 0.000000 0.000000
-1.252600 -0.869438 2.979908 0.000000 0.559789 0.828636 0.000000 0.000000
-1.171185 -0.915392 3.020328 0.000000 -1.000000 -0.000000 0.000000 0.000000
-1.252734 -0.915392 3.020328 0.000000 -1.000000 -0.000000 0.000000 0.000000
-1.252521 -0.761784 3.041684 0.000000 -0.997742 -0.067164 0.000000 0.000000
-1.170971 -0.761784 3.041684 0.000000 -0.997742 -0.067164 0.000000 0.000000
-1.170971 -0.762438 3.051391 0.000000 -0.997742 -0.067164 0.000000 0.000000
-1.252521 -0.762438 3.051391 0.000000 -0.997742 -0.067164 0.000000 0.000000
-1.252514 -0.751272 3.115721 0.000000 1.000000 -0.000000 0.000000 0.000000
-1.170964 -0.751272 3.115721 0.000000 1.000000 -0.000000 0.000000 0.000000
-1.170964 -0.751272 3.111064 0.000000 1.000000 -0.000000 0.000000 0.000000
-1.252514 -0.751272 3.111064 0.000000 1.000000 -0.000000 0.000000 0.000000
-1.252580 -0.861177 2.975761 -0.000000 0.328230 0.944598 0.000000 0.000000
-1.171030 -0.861177 2.975761 -0.000000 0.328230 0.944598 0.000000 0.000000
-1.171010 -0.852348 2.972693 -0.000000 0.328230 0.944598 0.000000 0.000000
-1.252560 -0.852348 2.972693 -0.000000 0.328230 0.944598 0.000000 0.000000
-1.252717 -0.902323 3.060701 0.000000 0.979739 -0.200281 0.000000 0.000000
-1.171168 -0.902323 3.060701 0.000000 0.979739 -0.200281 0.000000 0.000000
-1.171187 -0.904226 3.051391 0.000000 0.979739 -0.200281 0.000000 0.000000
-1.252737 -0.904226 3.051391 0.000000 0.979739 -0.200281 0.000000 0.000000
-1.252779 -0.915392 3.041684 0.000000 -1.000000 -0.000000 0.000000 0.000000
-1.171229 -0.915392 3.041684 0.000000 -1.000000 -0.000000 0.000000 0.000000
-1.252717 -0.902323 3.022668 0.000000 0.944601 0.328221 0.000000 0.000000
-1.171168 -0.902323 3.022668 0.000000 0.944601 0.328221 0.000000 0.000000
-1.171148 -0.899255 3.013840 0.000000 0.944601 0.328221 0.000000 0.000000
-1.252698 -0.899255 3.013840 0.000000 0.944601 0.328221 0.000000 0.000000
-1.252646 -0.915392 3.098498 0.000000 -1.000000 -0.000000 0.000000 0.000000
-1.171096 -0.915392 3.098498 0.000000 -1.000000 -0.000000 0.000000 0.000000
-1.171074 -0.915392 3.105291 0.000000 -1.000000 -0.000000 0.000000 0.000000
-1.252624 -0.915392 3.105291 0.000000 -1.000000 -0.000000 0.000000 0.000000
-1.252521 -0.797226 3.103461 0.000000 -0.448577 -0.893744 0.000000 0.000000
-1.170971 -0.797226 3.103461 0.000000 -0.448577 -0.893744 0.000000 0.000000
-1.170971 -0.805487 3.107608 0.000000 -0.448577 -0.893744 0.000000 0.000000
-1.252521 -0.805487 3.107608 0.000000 -0.448577 -0.893744 0.000000 0.000000
-1.238642 -0.751272 3.186022 0.000000 1.000000 -0.000000 0.000000 0.000000
-1.184840 -0.751272 3.186022 0.000000 1.000000 -0.000000 0.000000 0.000000
-1.170964 -0.751272 3.119167 0.000000 1.000000 -0.000000 0.000000 0.000000
-1.252514 -0.751272 3.119167 0.000000 1.000000 -0.000000 0.000000 0.000000
-1.252737 -0.904226 3.051391 0.000000 0.997742 -0.067164 0.000000 0.000000
-1.171187 -0.904226 3.051391 0.000000 0.997742 -0.067164 0.000000 0.000000
-1.171207 -0.904879 3.041684 0.000000 0.997742 -0.067164 0.000000 0.000000
-1.252757 -0.904879 3.041684 0.000000 0.997742 -0.067164 0.000000 0.000000
-1.184855 -0.915392 3.186022 0.000000 -1.000000 -0.000000 0.000000 0.000000
-1.238657 -0.915392 3.186022 0.000000 -1.000000 -0.000000 0.000000 0.000000
-1.252619 -0.877048 3.098320 0.000000 0.660722 -0.750631 0.000000 0.000000
-1.171069 -0.877048 3.098320 0.000000 0.660722 -0.750631 0.000000 0.000000
-1.171089 -0.883919 3.092272 0.000000 0.660722 -0.750631 0.000000 0.000000
-1.252639 -0.883919 3.092272 0.000000 0.660722 -0.750631 0.000000 0.000000
-1.252514 -0.751272 3.072956 0.000000 1.000000 -0.000000 0.000000 0.000000
-1.170964 -0.751272 3.072956 0.000000 1.000000 -0.000000 0.000000 0.000000
-1.170964 -0.751272 3.063041 0.000000 1.000000 -0.000000 0.000000 0.000000
-1.252514 -0.751272 3.063041 0.000000 1.000000 -0.000000 0.000000 0.000000
-1.252521 -0.814316 3.110675 0.000000 -0.200268 -0.979741 0.000000 0.000000
-1.170971 -0.814316 3.110675 0.000000 -0.200268 -0.979741 0.000000 0.000000
-1.170971 -0.823626 3.112578 0.000000 -0.200268 -0.979741 0.000000 0.000000
-1.252521 -0.823626 3.112578 0.000000 -0.200268 -0.979741 0.000000 0.000000
-1.252514 -0.751272 2.984871 0.000000 1.000000 -0.000000 0.000000 0.000000
-1.170964 -0.751272 2.984871 0.000000 1.000000 -0.000000 0.000000 0.000000
-1.170964 -0.751272 2.978077 0.000000 1.000000 -0.000000 0.000000 0.000000
-1.252514 -0.751272 2.978077 0.000000 1.000000 -0.000000 0.000000 0.000000
-1.252541 -0.843038 3.112578 -0.000000 0.200268 -0.979741 0.000000 0.000000
-1.170991 -0.843038 3.112578 -0.000000 0.200268 -0.979741 0.000000 0.000000
-1.171010 -0.852348 3.110675 -0.000000 0.200268 -0.979741 0.000000 0.000000
-1.252560 -0.852348 3.110675 -0.000000 0.200268 -0.979741 0.000000 0.000000
-1.171052 -0.915392 3.111064 0.000000 -1.000000 -0.000000 0.000000 0.000000
-1.252602 -0.915392 3.111064 0.000000 -1.000000 -0.000000 0.000000 0.000000
-1.252521 -0.764341 3.060701 0.000000 -0.944601 -0.328221 0.000000 0.000000
-1.170971 -0.764341 3.060701 0.000000 -0.944601 -0.328221 0.000000 0.000000
-1.170971 -0.767409 3.069529 0.000000 -0.944601 -0.328221 0.000000 0.000000
-1.252521 -0.767409 3.069529 0.000000 -0.944601 -0.328221 0.000000 0.000000
-1.252514 -0.751272 3.105291 0.000000 1.000000 -0.000000 0.000000 0.000000
-1.170964 -0.751272 3.105291 0.000000 1.000000 -0.000000 0.000000 0.000000
-1.170964 -0.751272 3.098498 0.000000 1.000000 -0.000000 0.000000 0.000000
-1.252514 -0.751272 3.098498 0.000000 1.000000 -0.000000 0.000000 0.000000
-1.252521 -0.789616 2.985048 0.000000 -0.660724 0.750629 0.000000 0.000000
-1.170971 -0.789616 2.985048 0.000000 -0.660724 0.750629 0.000000 0.000000
-1.170971 -0.782744 2.991097 0.000000 -0.660724 0.750629 0.000000 0.000000
-1.252521 -0.782745 2.991097 0.000000 -0.660724 0.750629 0.000000 0.000000
-1.252514 -0.751272 2.972304 0.000000 1.000000 -0.000000 0.000000 0.000000
-1.170964 -0.751272 2.972304 0.000000 1.000000 -0.000000 0.000000 0.000000
-1.170964 -0.751272 2.967647 0.000000 1.000000 -0.000000 0.000000 0.000000
-1.252514 -0.751272 2.967647 0.000000 1.000000 -0.000000 0.000000 0.000000
-1.252600 -0.869438 3.103461 0.000000 0.559789 -0.828636 0.000000 0.000000
-1.171050 -0.869438 3.103461 0.000000 0.559789 -0.828636 0.000000 0.000000
-1.171069 -0.877048 3.098320 0.000000 0.559789 -0.828636 0.000000 0.000000
-1.252619 -0.877048 3.098320 0.000000 0.559789 -0.828636 0.000000 0.000000
-1.252668 -0.915392 2.992588 0.000000 -1.000000 -0.000000 0.000000 0.000000
-1.171118 -0.915392 2.992588 0.000000 -1.000000 -0.000000 0.000000 0.000000
-1.252521 -0.782745 3.092272 0.000000 -0.660724 -0.750629 0.000000 0.000000
-1.170971 -0.782744 3.092272 0.000000 -0.660724 -0.750629 0.000000 0.000000
-1.170971 -0.789616 3.098320 0.000000 -0.660724 -0.750629 0.000000 0.000000
-1.252521 -0.789616 3.098320 0.000000 -0.660724 -0.750629 0.000000 0.000000
-1.252521 -0.805487 2.975761 0.000000 -0.448577 0.893744 0.000000 0.000000
-1.170971 -0.805487 2.975761 0.000000 -0.448577 0.893744 0.000000 0.000000
-1.170971 -0.797226 2.979908 0.000000 -0.448577 0.893744 0.000000 0.000000
-1.252521 -0.797226 2.979908 0.000000 -0.448577 0.893744 0.000000 0.000000
-1.184840 -0.751272 3.271252 0.078749 0.996895 0.000000 0.000000 0.000000
-0.776960 -0.783492 3.271252 0.078749 0.996895 0.000000 0.000000 0.000000
-0.776960 -0.783492 3.186022 0.078749 0.996895 0.000000 0.000000 0.000000
-1.184840 -0.751272 3.186022 0.078749 0.996895 0.000000 0.000000 0.000000
-1.252678 -0.895108 3.005578 0.000000 0.828642 0.559780 0.000000 0.000000
-1.171128 -0.895108 3.005578 0.000000 0.828642 0.559780 0.000000 0.000000
-1.171109 -0.889968 2.997969 0.000000 0.828642 0.559780 0.000000 0.000000
-1.252658 -0.889968 2.997969 0.000000 0.828642 0.559780 0.000000 0.000000
-1.252668 -0.915392 3.090780 0.000000 -1.000000 -0.000000 0.000000 0.000000
-1.171118 -0.915392 3.090780 0.000000 -1.000000 -0.000000 0.000000 0.000000
-1.252521 -0.762438 3.051391 0.000000 -0.979739 -0.200281 0.000000 0.000000
-1.170971 -0.762438 3.051391 0.000000 -0.979739 -0.200281 0.000000 0.000000
-1.170971 -0.764341 3.060701 0.000000 -0.979739 -0.200281 0.000000 0.000000
-1.252521 -0.764341 3.060701 0.000000 -0.979739 -0.200281 0.000000 0.000000
-1.252541 -0.843038 2.970790 -0.000000 0.067177 0.997741 0.000000 0.000000
-1.170991 -0.843038 2.970790 -0.000000 0.067177 0.997741 0.000000 0.000000
-1.170971 -0.833332 2.970137 -0.000000 0.067177 0.997741 0.000000 0.000000
-1.252521 -0.833332 2.970137 -0.000000 0.067177 0.997741 0.000000 0.000000
-1.238642 -0.751272 2.897347 -1.000000 0.000000 0.000000 0.000000 0.000000
-1.238642 -0.751272 2.812116 -1.000000 0.000000 0.000000 0.000000 0.000000
-1.238642 -0.833332 2.810001 -1.000000 0.000000 0.000000 0.000000 0.000000
-1.238642 -0.833332 2.896017 -1.000000 0.000000 0.000000 0.000000 0.000000
-1.252712 -0.915392 3.072956 0.000000 -1.000000 -0.000000 0.000000 0.000000
-1.171162 -0.915392 3.072956 0.000000 -1.000000 -0.000000 0.000000 0.000000
-1.171140 -0.915392 3.082235 0.000000 -1.000000 -0.000000 0.000000 0.000000
-1.252690 -0.915392 3.082235 0.000000 -1.000000 -0.000000 0.000000 0.000000
-1.252639 -0.883919 3.092272 0.000000 0.750624 -0.660729 0.000000 0.000000
-1.171089 -0.883919 3.092272 0.000000 0.750624 -0.660729 0.000000 0.000000
-1.171109 -0.889968 3.085400 0.000000 0.750624 -0.660729 0.000000 0.000000
-1.252658 -0.889968 3.085400 0.000000 0.750624 -0.660729 0.000000 0.000000
-1.252521 -0.805487 3.107608 0.000000 -0.328230 -0.944598 0.000000 0.000000
-1.170971 -0.805487 3.107608 0.000000 -0.328230 -0.944598 0.000000 0.000000
-1.170971 -0.814316 3.110675 0.000000 -0.328230 -0.944598 0.000000 0.000000
-1.252521 -0.814316 3.110675 0.000000 -0.328230 -0.944598 0.000000 0.000000
-1.252514 -0.751272 3.001134 0.000000 1.000000 -0.000000 0.000000 0.000000
-1.170964 -0.751272 3.001134 0.000000 1.000000 -0.000000 0.000000 0.000000
-1.170964 -0.751272 2.992588 0.000000 1.000000 -0.000000 0.000000 0.000000
-1.252514 -0.751272 2.992588 0.000000 1.000000 -0.000000 0.000000 0.000000
-1.252521 -0.823626 3.112578 0.000000 -0.067177 -0.997741 0.000000 0.000000
-1.170971 -0.823626 3.112578 0.000000 -0.067177 -0.997741 0.000000 0.000000
-1.170971 -0.833332 3.113232 0.000000 -0.067177 -0.997741 0.000000 0.000000
-1.252521 -0.833332 3.113232 0.000000 -0.067177 -0.997741 0.000000 0.000000
-1.252678 -0.895108 3.077791 0.000000 0.893740 -0.448585 0.000000 0.000000
-1.171128 -0.895108 3.077791 0.000000 0.893740 -0.448585 0.000000 0.000000
-1.171148 -0.899255 3.069529 0.000000 0.893740 -0.448585 0.000000 0.000000
-1.252698 -0.899255 3.069529 0.000000 0.893740 -0.448585 0.000000 0.000000
-1.252646 -0.915392 2.984871 0.000000 -1.000000 -0.000000 0.000000 0.000000
-1.171096 -0.915392 2.984871 0.000000 -1.000000 -0.000000 0.000000 0.000000
-1.252658 -0.889968 3.085400 0.000000 0.828642 -0.559780 0.000000 0.000000
-1.171109 -0.889968 3.085400 0.000000 0.828642 -0.559780 0.000000 0.000000
-1.171128 -0.895108 3.077791 0.000000 0.828642 -0.559780 0.000000 0.000000
-1.252678 -0.895108 3.077791 0.000000 0.828642 -0.559780 0.000000 0.000000
-1.252521 -0.776696 2.997969 0.000000 -0.828642 0.559780 0.000000 0.000000
-1.170971 -0.776696 2.997969 0.000000 -0.828642 0.559780 0.000000 0.000000
-1.170971 -0.771555 3.005578 0.000000 -0.828642 0.559780 0.000000 0.000000
-1.252521 -0.771555 3.005578 0.000000 -0.828642 0.559780 0.000000 0.000000
-1.252658 -0.889968 2.997969 0.000000 0.750624 0.660729 0.000000 0.000000
-1.171109 -0.889968 2.997969 0.000000 0.750624 0.660729 0.000000 0.000000
-1.171089 -0.883919 2.991097 0.000000 0.750624 0.660729 0.000000 0.000000
-1.252639 -0.883919 2.991097 0.000000 0.750624 0.660729 0.000000 0.000000
-1.252521 -0.767409 3.069529 0.000000 -0.893740 -0.448585 0.000000 0.000000
-1.170971 -0.767409 3.069529 0.000000 -0.893740 -0.448585 0.000000 0.000000
-1.170971 -0.771555 3.077791 0.000000 -0.893740 -0.448585 0.000000 0.000000
-1.252521 -0.771555 3.077791 0.000000 -0.893740 -0.448585 0.000000 0.000000
-1.252521 -0.782745 2.991097 0.000000 -0.750623 0.660731 0.000000 0.000000
-1.170971 -0.782744 2.991097 0.000000 -0.750623 0.660731 0.000000 0.000000
-1.170971 -0.776696 2.997969 0.000000 -0.750623 0.660731 0.000000 0.000000
-1.252521 -0.776696 2.997969 0.000000 -0.750623 0.660731 0.000000 0.000000
-1.252580 -0.861177 3.107608 0.000000 0.448577 -0.893744 0.000000 0.000000
-1.171030 -0.861177 3.107608 0.000000 0.448577 -0.893744 0.000000 0.000000
-1.171050 -0.869438 3.103461 0.000000 0.448577 -0.893744 0.000000 0.000000
-1.252600 -0.869438 3.103461 0.000000 0.448577 -0.893744 0.000000 0.000000
-1.252521 -0.789616 3.098320 0.000000 -0.559789 -0.828635 0.000000 0.000000
-1.170971 -0.789616 3.098320 0.000000 -0.559789 -0.828635 0.000000 0.000000
-1.170971 -0.797226 3.103461 0.000000 -0.559789 -0.828635 0.000000 0.000000
-1.252521 -0.797226 3.103461 0.000000 -0.559789 -0.828635 0.000000 0.000000
-1.252521 -0.814316 2.972693 0.000000 -0.328230 0.944598 0.000000 0.000000
-1.170971 -0.814316 2.972693 0.000000 -0.328230 0.944598 0.000000 0.000000
-1.170971 -0.805487 2.975761 0.000000 -0.328230 0.944598 0.000000 0.000000
-1.252521 -0.805487 2.975761 0.000000 -0.328230 0.944598 0.000000 0.000000
-1.238657 -0.915392 2.897347 0.000000 -1.000000 -0.000000 0.000000 0.000000
-1.184855 -0.915392 2.897347 0.000000 -1.000000 -0.000000 0.000000 0.000000
-1.252639 -0.883919 2.991097 0.000000 0.660722 0.750631 0.000000 0.000000
-1.171089 -0.883919 2.991097 0.000000 0.660722 0.750631 0.000000 0.000000
-1.171069 -0.877048 2.985048 0.000000 0.660722 0.750631 0.000000 0.000000
-1.252619 -0.877048 2.985048 0.000000 0.660722 0.750631 0.000000 0.000000
-1.252521 -0.762438 3.031978 0.000000 -0.997742 0.067164 0.000000 0.000000
-1.170971 -0.762438 3.031978 0.000000 -0.997742 0.067164 0.000000 0.000000
-1.170971 -0.761784 3.041684 0.000000 -0.997742 0.067164 0.000000 0.000000
-1.252521 -0.761784 3.041684 0.000000 -0.997742 0.067164 0.000000 0.000000
-1.252560 -0.852348 2.972693 -0.000000 0.200269 0.979741 0.000000 0.000000
-1.171010 -0.852348 2.972693 -0.000000 0.200269 0.979741 0.000000 0.000000
-1.170991 -0.843038 2.970790 -0.000000 0.200269 0.979741 0.000000 0.000000
-1.252541 -0.843038 2.970790 -0.000000 0.200269 0.979741 0.000000 0.000000
-1.252600 -0.869438 2.979908 0.000000 0.448577 0.893744 0.000000 0.000000
-1.171050 -0.869438 2.979908 0.000000 0.448577 0.893744 0.000000 0.000000
-1.171030 -0.861177 2.975761 0.000000 0.448577 0.893744 0.000000 0.000000
-1.252580 -0.861177 2.975761 0.000000 0.448577 0.893744 0.000000 0.000000
-1.171207 -0.915392 3.030784 0.000000 -1.000000 -0.000000 0.000000 0.000000
-1.252756 -0.915392 3.030784 0.000000 -1.000000 -0.000000 0.000000 0.000000
-1.252521 -0.776696 3.085400 0.000000 -0.750623 -0.660731 0.000000 0.000000
-1.170971 -0.776696 3.085400 0.000000 -0.750623 -0.660731 0.000000 0.000000
-1.170971 -0.782744 3.092272 0.000000 -0.750623 -0.660731 0.000000 0.000000
-1.252521 -0.782745 3.092272 0.000000 -0.750623 -0.660731 0.000000 0.000000
-1.252514 -0.751272 3.010413 0.000000 1.000000 -0.000000 0.000000 0.000000
-1.170964 -0.751272 3.010413 0.000000 1.000000 -0.000000 0.000000 0.000000
-1.252521 -0.797226 2.979908 0.000000 -0.559789 0.828635 0.000000 0.000000
-1.170971 -0.797226 2.979908 0.000000 -0.559789 0.828635 0.000000 0.000000
-1.170971 -0.789616 2.985048 0.000000 -0.559789 0.828635 0.000000 0.000000
-1.252521 -0.789616 2.985048 0.000000 -0.559789 0.828635 0.000000 0.000000
-1.252698 -0.899255 3.069529 0.000000 0.944601 -0.328221 0.000000 0.000000
-1.171148 -0.899255 3.069529 0.000000 0.944601 -0.328221 0.000000 0.000000
-1.171168 -0.902323 3.060701 0.000000 0.944601 -0.328221 0.000000 0.000000
-1.252717 -0.902323 3.060701 0.000000 0.944601 -0.328221 0.000000 0.000000
-1.252737 -0.904226 3.031978 0.000000 0.979739 0.200281 0.000000 0.000000
-1.171187 -0.904226 3.031978 0.000000 0.979739 0.200281 0.000000 0.000000
-1.171168 -0.902323 3.022668 0.000000 0.979739 0.200281 0.000000 0.000000
-1.252717 -0.902323 3.022668 0.000000 0.979739 0.200281 0.000000 0.000000
-1.238642 -0.833332 3.187352 -1.000000 -0.000000 0.000000 0.000000 0.000000
-1.238642 -0.833332 3.273368 -1.000000 -0.000000 0.000000 0.000000 0.000000
-1.238642 -0.751272 3.271252 -1.000000 -0.000000 0.000000 0.000000 0.000000
-1.238642 -0.751272 3.186022 -1.000000 -0.000000 0.000000 0.000000 0.000000
-1.252521 -0.771555 3.005578 0.000000 -0.893740 0.448585 0.000000 0.000000
-1.170971 -0.771555 3.005578 0.000000 -0.893740 0.448585 0.000000 0.000000
-1.170971 -0.767409 3.013840 0.000000 -0.893740 0.448585 0.000000 0.000000
-1.252521 -0.767409 3.013840 0.000000 -0.893740 0.448585 0.000000 0.000000
-1.238642 -0.751272 2.812116 0.000000 0.025774 -0.999668 0.000000 0.000000
-1.184840 -0.751272 2.812116 0.000000 0.025774 -0.999668 0.000000 0.000000
-1.184840 -0.833332 2.810001 0.000000 0.025774 -0.999668 0.000000 0.000000
-1.238642 -0.833332 2.810001 0.000000 0.025774 -0.999668 0.000000 0.000000
-1.238642 -0.833332 2.810001 0.000000 -0.025774 -0.999668 0.000000 0.000000
-1.184840 -0.833332 2.810001 0.000000 -0.025774 -0.999668 0.000000 0.000000
-1.184855 -0.915392 2.812116 0.000000 -0.025774 -0.999668 0.000000 0.000000
-1.238657 -0.915392 2.812116 0.000000 -0.025774 -0.999668 0.000000 0.000000
-1.238642 -0.833332 3.273368 0.000000 0.025774 0.999668 0.000000 0.000000
-1.184840 -0.833332 3.273368 0.000000 0.025774 0.999668 0.000000 0.000000
-1.184840 -0.751272 3.271252 0.000000 0.025774 0.999668 0.000000 0.000000
-1.238642 -0.751272 3.271252 0.000000 0.025774 0.999668 0.000000 0.000000
-1.238642 -0.833332 3.273368 0.000000 0.025774 -0.999668 0.000000 0.000000
-1.184840 -0.833332 3.273368 0.000000 0.025774 -0.999668 0.000000 0.000000
-1.184855 -0.915392 3.271252 0.000000 0.025774 -0.999668 0.000000 0.000000
-1.238657 -0.915392 3.271252 0.000000 0.025774 -0.999668 0.000000 0.000000
-1.238642 -0.833332 2.896017 -1.000000 0.000176 0.000000 0.000000 0.000000
-1.238642 -0.833332 2.810001 -1.000000 0.000176 0.000000 0.000000 0.000000
-1.238657 -0.915392 2.812116 -1.000000 0.000176 0.000000 0.000000 0.000000
-1.238657 -0.915392 2.897347 -1.000000 0.000176 0.000000 0.000000 0.000000
-1.238642 -0.751272 3.271252 0.000000 1.000000 0.000000 0.000000 0.000000
-1.184840 -0.751272 3.271252 0.000000 1.000000 0.000000 0.000000 0.000000
-1.238657 -0.915392 2.812116 -0.000000 -1.000000 0.000000 0.000000 0.000000
-1.184855 -0.915392 2.812116 -0.000000 -1.000000 0.000000 0.000000 0.000000
-1.184855 -0.915392 3.271252 -0.078749 0.996894 0.000000 0.000000 0.000000
-0.776974 -0.883172 3.271252 -0.078749 0.996894 0.000000 0.000000 0.000000
-0.776974 -0.883172 3.186022 -0.078749 0.996894 0.000000 0.000000 0.000000
-1.184855 -0.915392 3.186022 -0.078749 0.996894 0.000000 0.000000 0.000000
-1.238657 -0.915392 3.186022 0.000000 1.000000 0.000000 0.000000 0.000000
-1.238657 -0.915392 3.271252 0.000000 1.000000 0.000000 0.000000 0.000000
-1.184855 -0.915392 3.271252 0.000000 1.000000 0.000000 0.000000 0.000000
-1.184855 -0.915392 3.186022 0.000000 1.000000 0.000000 0.000000 0.000000
-1.184840 -0.751272 2.812116 -0.000000 1.000000 0.000000 0.000000 0.000000
-1.238642 -0.751272 2.812116 -0.000000 1.000000 0.000000 0.000000 0.000000
-1.184840 -0.833332 3.273368 0.001266 0.032064 0.999485 0.000000 0.000000
-0.776960 -0.833332 3.273368 0.001266 0.032064 0.999485 0.000000 0.000000
-0.776960 -0.783492 3.271252 0.001266 0.032064 0.999485 0.000000 0.000000
-1.184840 -0.751272 3.271252 0.001266 0.032064 0.999485 0.000000 0.000000
-1.184840 -0.751272 2.897347 0.078749 0.996895 0.000000 0.000000 0.000000
-0.776960 -0.783492 2.897347 0.078749 0.996895 0.000000 0.000000 0.000000
-0.776960 -0.783492 2.812116 0.078749 0.996895 0.000000 0.000000 0.000000
-1.184840 -0.751272 2.812116 0.078749 0.996895 0.000000 0.000000 0.000000
-0.776960 -0.783492 3.186022 1.000000 -0.000000 0.000000 0.000000 0.000000
-0.776960 -0.783492 3.271252 1.000000 -0.000000 0.000000 0.000000 0.000000
-0.776960 -0.833332 3.273368 1.000000 -0.000000 0.000000 0.000000 0.000000
-0.776960 -0.833332 3.187352 1.000000 -0.000000 0.000000 0.000000 0.000000
-0.776960 -0.833332 2.896017 1.000000 0.000000 0.000000 0.000000 0.000000
-0.776960 -0.833332 2.810001 1.000000 0.000000 0.000000 0.000000 0.000000
-0.776960 -0.783492 2.812116 1.000000 0.000000 0.000000 0.000000 0.000000
-0.776960 -0.783492 2.897347 1.000000 0.000000 0.000000 0.000000 0.000000
-0.776974 -0.883172 3.186022 -1.000000 0.000292 0.000000 0.000000 0.000000
-0.776974 -0.883172 3.271252 -1.000000 0.000292 0.000000 0.000000 0.000000
-0.776960 -0.833332 3.273368 -1.000000 0.000292 0.000000 0.000000 0.000000
-0.776960 -0.833332 3.187352 -1.000000 0.000292 0.000000 0.000000 0.000000
-0.776974 -0.883172 2.897347 1.000000 -0.000292 0.000000 0.000000 0.000000
-0.776974 -0.883172 2.812116 1.000000 -0.000292 0.000000 0.000000 0.000000
-0.776960 -0.833332 2.810001 1.000000 -0.000292 0.000000 0.000000 0.000000
-0.776960 -0.833332 2.896017 1.000000 -0.000292 0.000000 0.000000 0.000000
-1.184840 -0.833332 2.810001 0.001266 -0.032065 -0.999485 0.000000 0.000000
-0.776960 -0.833332 2.810001 0.001266 -0.032065 -0.999485 0.000000 0.000000
-0.776974 -0.883172 2.812116 0.001266 -0.032065 -0.999485 0.000000 0.000000
-1.184855 -0.915392 2.812116 0.001266 -0.032065 -0.999485 0.000000 0.000000
-1.184840 -0.751272 3.186022 -0.000797 -0.020168 -0.999796 0.000000 0.000000
-0.776960 -0.783492 3.186022 -0.000797 -0.020168 -0.999796 0.000000 0.000000
-0.776960 -0.833332 3.187352 -0.000797 -0.020168 -0.999796 0.000000 0.000000
-1.184840 -0.833332 3.187352 -0.000797 -0.020168 -0.999796 0.000000 0.000000
-1.184840 -0.751272 2.812116 0.001266 0.032064 -0.999485 0.000000 0.000000
-0.776960 -0.783492 2.812116 0.001266 0.032064 -0.999485 0.000000 0.000000
-0.776960 -0.833332 2.810001 0.001266 0.032064 -0.999485 0.000000 0.000000
-1.184840 -0.833332 2.810001 0.001266 0.032064 -0.999485 0.000000 0.000000
-1.184840 -0.833332 3.273368 -0.001266 0.032065 -0.999485 0.000000 0.000000
-0.776960 -0.833332 3.273368 -0.001266 0.032065 -0.999485 0.000000 0.000000
-0.776974 -0.883172 3.271252 -0.001266 0.032065 -0.999485 0.000000 0.000000
-1.184855 -0.915392 3.271252 -0.001266 0.032065 -0.999485 0.000000 0.000000
-1.184840 -0.833332 2.896017 -0.000797 -0.020168 0.999796 0.000000 0.000000
-0.776960 -0.833332 2.896017 -0.000797 -0.020168 0.999796 0.000000 0.000000
-0.776960 -0.783492 2.897347 -0.000797 -0.020168 0.999796 0.000000 0.000000
-1.184840 -0.751272 2.897347 -0.000797 -0.020168 0.999796 0.000000 0.000000
-1.184855 -0.915392 2.812116 0.078749 -0.996894 0.000000 0.000000 0.000000
-0.776974 -0.883172 2.812116 0.078749 -0.996894 0.000000 0.000000 0.000000
-0.776974 -0.883172 2.897347 0.078749 -0.996894 0.000000 0.000000 0.000000
-1.184855 -0.915392 2.897347 0.078749 -0.996894 0.000000 0.000000 0.000000
-1.184855 -0.915392 3.186022 0.000797 -0.020169 0.999796 0.000000 0.000000
-0.776974 -0.883172 3.186022 0.000797 -0.020169 0.999796 0.000000 0.000000
-0.776960 -0.833332 3.187352 0.000797 -0.020169 0.999796 0.000000 0.000000
-1.184840 -0.833332 3.187352 0.000797 -0.020169 0.999796 0.000000 0.000000
-1.184855 -0.915392 2.897347 -0.000797 0.020169 0.999796 0.000000 0.000000
-0.776974 -0.883172 2.897347 -0.000797 0.020169 0.999796 0.000000 0.000000
-0.776960 -0.833332 2.896017 -0.000797 0.020169 0.999796 0.000000 0.000000
-1.184840 -0.833332 2.896017 -0.000797 0.020169 0.999796 0.000000 0.000000
4 0 1 2 3
4 4 5 6 7
4 8 9 10 11
4 12 13 14 15
4 16 17 18 19
4 20 21 22 23
4 24 25 26 27
4 28 29 30 31
4 32 33 34 35
4 36 37 38 39
4 40 41 42 43
4 44 45 46 47
4 48 49 50 51
4 52 53 54 55
4 56 57 58 59
4 60 61 62 63
4 64 65 66 67
4 68 69 70 71
4 72 73 74 75
4 76 77 78 79
4 80 81 82 83
4 84 85 86 87
4 88 89 90 91
4 92 93 94 95
4 96 97 98 99
4 100 101 102 103
4 104 105 106 107
4 108 109 110 111
4 112 113 114 115
4 116 117 118 119
4 120 121 122 123
4 124 125 126 127
4 128 129 130 131
4 132 133 134 135
4 136 137 138 139
4 140 141 142 143
4 144 145 146 147
4 148 149 150 151
4 152 153 154 155
4 156 157 158 159
4 160 161 162 163
4 164 165 166 167
4 168 169 170 171
4 172 173 174 175
4 176 177 178 179
4 180 181 182 183
4 184 185 186 187
4 188 189 190 191
4 192 193 194 195
4 196 197 198 199
4 200 201 202 203
4 204 205 206 207
4 208 209 210 211
4 212 213 214 215
4 216 217 218 219
4 220 221 222 223
4 224 225 226 227
4 228 229 230 231
4 232 233 234 235
4 236 237 238 239
4 240 241 242 243
4 244 245 246 247
4 248 249 250 251
4 252 253 254 255
4 256 257 258 259
4 260 261 262 263
4 264 265 266 267
4 268 269 270 271
4 272 273 274 275
4 276 277 278 279
4 280 281 282 283
4 284 285 286 287
4 288 289 290 291
4 292 293 294 295
4 296 297 298 299
4 300 301 302 303
4 304 305 306 307
4 308 309 310 311
4 312 313 314 315
4 316 317 318 319
4 320 321 322 323
4 324 325 326 327
4 328 329 330 331
4 332 333 334 335
4 336 337 338 339
4 340 341 342 343
4 344 345 346 347
4 348 349 350 351
4 352 353 354 355
4 356 357 358 359
4 360 361 362 363
4 364 365 366 367
4 368 369 370 371
4 372 373 374 375
4 376 377 378 379
4 380 381 382 383
4 384 385 386 387
4 388 389 390 391
4 392 393 394 395
4 396 397 398 399
4 400 401 402 403
4 404 405 406 407
4 408 409 410 411
4 412 413 414 415
4 416 417 418 419
4 420 421 422 423
4 424 425 426 427
4 428 429 430 431
4 432 433 434 435
4 436 437 438 439
4 440 441 442 443
4 444 445 446 447
4 448 449 450 451
4 452 453 454 455
4 456 457 458 459
4 460 461 462 463
4 415 414 464 465
4 466 467 468 469
4 470 471 472 473
4 474 475 476 477
4 478 479 480 481
4 482 483 457 456
4 484 485 486 487
4 488 489 490 491
4 492 493 494 495
4 496 497 498 499
4 500 501 502 503
4 391 390 504 505
4 506 507 508 509
4 510 511 512 513
4 514 515 516 517
4 518 519 520 521
4 522 523 524 525
4 491 490 526 527
4 528 529 530 531
4 532 533 534 535
4 536 537 538 539
4 540 541 542 543
4 544 545 546 547
4 548 549 413 412
4 550 551 552 553
4 513 512 445 444
4 554 555 556 557
4 558 559 560 561
4 562 563 564 565
4 566 567 489 488
4 568 569 570 571
4 499 498 471 470
4 572 573 574 575
4 576 577 578 579
4 580 581 582 583
4 584 585 586 587
4 583 582 567 566
4 588 589 590 591
4 592 593 594 595
4 596 597 598 599
4 600 601 602 603
4 604 605 549 548
4 606 607 608 609
4 399 398 511 510
4 610 611 612 613
4 595 594 519 518
4 614 615 616 617
4 527 526 389 388
4 618 619 620 621
4 473 472 533 532
4 622 623 624 625
4 543 542 429 428
4 626 627 628 629
4 439 438 605 604
4 630 631 632 633
4 447 446 421 420
4 634 635 636 637
4 638 639 453 452
4 640 641 642 643
4 455 454 437 436
4 644 645 646 647
4 535 534 397 396
4 648 649 650 651
4 521 520 541 540
4 459 458 581 580
4 652 653 654 655
4 465 464 656 657
4 658 659 660 661
4 662 663 593 592
4 664 665 666 667
4 668 669 670 671
4 657 656 483 482
4 672 673 674 675
4 676 677 678 679
4 680 681 682 683
4 423 422 663 662
4 684 685 686 687
4 688 689 690 691
4 692 693 694 695
4 696 697 698 699
4 700 701 702 703
4 496 704 705 497
4 638 706 707 639
4 708 709 710 711
4 712 713 714 715
4 430 716 717 431
4 718 719 720 721
4 722 723 724 725
4 726 727 728 729
4 730 731 732 733
4 734 735 736 737
4 738 739 740 741
4 742 743 744 745
4 746 747 748 749
4 750 751 752 753
4 754 755 756 757
4 758 759 760 761
4 762 763 764 765
4 766 767 768 769
4 770 771 772 773
