# Blender v2.79 (sub 0) OBJ File: 'm3_v2.blend'
# www.blender.org
o RF_Suspension_Mesh.007
v -1.252541 -0.843038 3.112578
v -1.252560 -0.852348 3.110675
v -1.252580 -0.861177 3.107608
v -1.252600 -0.869438 3.103461
v -1.252619 -0.877048 3.098320
v -1.252639 -0.883919 3.092272
v -1.252658 -0.889968 3.085400
v -1.252678 -0.895108 3.077791
v -1.252698 -0.899255 3.069529
v -1.252717 -0.902323 3.060701
v -1.252737 -0.904226 3.051391
v -1.252757 -0.904879 3.041684
v -1.252737 -0.904226 3.031978
v -1.252717 -0.902323 3.022668
v -1.252698 -0.899255 3.013840
v -1.252678 -0.895108 3.005578
v -1.252658 -0.889968 2.997969
v -1.252639 -0.883919 2.991097
v -1.252619 -0.877048 2.985048
v -1.252600 -0.869438 2.979908
v -1.252580 -0.861177 2.975761
v -1.252560 -0.852348 2.972693
v -1.252541 -0.843038 2.970790
v -1.252521 -0.833332 2.970137
v -1.252521 -0.823626 2.970790
v -1.252521 -0.814316 2.972693
v -1.252521 -0.805487 2.975761
v -1.252521 -0.797226 2.979908
v -1.252521 -0.789616 2.985048
v -1.252521 -0.782745 2.991097
v -1.252521 -0.776696 2.997969
v -1.252521 -0.771555 3.005578
v -1.252521 -0.767409 3.013840
v -1.252521 -0.764341 3.022668
v -1.252521 -0.762438 3.031978
v -1.252521 -0.761784 3.041684
v -1.252521 -0.762438 3.051391
v -1.252521 -0.764341 3.060701
v -1.252521 -0.767409 3.069529
v -1.252521 -0.771555 3.077791
v -1.252521 -0.776696 3.085400
v -1.252521 -0.782745 3.092272
v -1.252521 -0.789616 3.098320
v -1.252521 -0.797226 3.103461
v -1.252521 -0.805487 3.107608
v -1.252521 -0.814316 3.110675
v -1.252521 -0.823626 3.112578
v -1.252521 -0.833332 3.113232
v -1.238657 -0.915392 3.186022
v -1.252558 -0.915392 3.119167
v -1.252580 -0.915392 3.115721
v -1.252602 -0.915392 3.111064
v -1.252624 -0.915392 3.105291
v -1.252646 -0.915392 3.098498
v -1.252668 -0.915392 3.090780
v -1.252690 -0.915392 3.082235
v -1.252712 -0.915392 3.072956
v -1.252734 -0.915392 3.063041
v -1.252756 -0.915392 3.052585
v -1.252779 -0.915392 3.041684
v -1.252756 -0.915392 3.030784
v -1.252734 -0.915392 3.020328
v -1.252712 -0.915392 3.010413
v -1.252690 -0.915392 3.001134
v -1.252668 -0.915392 2.992588
v -1.252646 -0.915392 2.984871
v -1.252624 -0.915392 2.978077
v -1.252602 -0.915392 2.972304
v -1.252580 -0.915392 2.967647
v -1.252558 -0.915392 2.964202
v -1.238657 -0.915392 2.897347
v -1.238642 -0.833332 2.896017
v -1.238642 -0.751272 2.897347
v -1.252514 -0.751272 2.964202
v -1.252514 -0.751272 2.967647
v -1.252514 -0.751272 2.972304
v -1.252514 -0.751272 2.978077
v -1.252514 -0.751272 2.984871
v -1.252514 -0.751272 2.992588
v -1.252514 -0.751272 3.001134
v -1.252514 -0.751272 3.010413
v -1.252514 -0.751272 3.020328
v -1.252514 -0.751272 3.030784
v -1.252514 -0.751272 3.041684
v -1.252514 -0.751272 3.052585
v -1.252514 -0.751272 3.063041
v -1.252514 -0.751272 3.072956
v -1.252514 -0.751272 3.082235
v -1.252514 -0.751272 3.090780
v -1.252514 -0.751272 3.098498
v -1.252514 -0.751272 3.105291
v -1.252514 -0.751272 3.111064
v -1.252514 -0.751272 3.115721
v -1.252514 -0.751272 3.119167
v -1.238642 -0.751272 3.186022
v -1.238642 -0.833332 3.187352
v -1.170991 -0.843038 3.112578
v -1.171010 -0.852348 3.110675
v -1.171030 -0.861177 3.107608
v -1.171050 -0.869438 3.103461
v -1.171069 -0.877048 3.098320
v -1.171089 -0.883919 3.092272
v -1.171109 -0.889968 3.085400
v -1.171128 -0.895108 3.077791
v -1.171148 -0.899255 3.069529
v -1.171168 -0.902323 3.060701
v -1.171187 -0.904226 3.051391
v -1.171207 -0.904879 3.041684
v -1.171187 -0.904226 3.031978
v -1.171168 -0.902323 3.022668
v -1.171148 -0.899255 3.013840
v -1.171128 -0.895108 3.005578
v -1.171109 -0.889968 2.997969
v -1.171089 -0.883919 2.991097
v -1.171069 -0.877048 2.985048
v -1.171050 -0.869438 2.979908
v -1.171030 -0.861177 2.975761
v -1.171010 -0.852348 2.972693
v -1.170991 -0.843038 2.970790
v -1.170971 -0.833332 2.970137
v -1.170971 -0.823626 2.970790
v -1.170971 -0.814316 2.972693
v -1.170971 -0.805487 2.975761
v -1.170971 -0.797226 2.979908
v -1.170971 -0.789616 2.985048
v -1.170971 -0.782744 2.991097
v -1.170971 -0.776696 2.997969
v -1.170971 -0.771555 3.005578
v -1.170971 -0.767409 3.013840
v -1.170971 -0.764341 3.022668
v -1.170971 -0.762438 3.031978
v -1.170971 -0.761784 3.041684
v -1.170971 -0.762438 3.051391
v -1.170971 -0.764341 3.060701
v -1.170971 -0.767409 3.069529
v -1.170971 -0.771555 3.077791
v -1.170971 -0.776696 3.085400
v -1.170971 -0.782744 3.092272
v -1.170971 -0.789616 3.098320
v -1.170971 -0.797226 3.103461
v -1.170971 -0.805487 3.107608
v -1.170971 -0.814316 3.110675
v -1.170971 -0.823626 3.112578
v -1.170971 -0.833332 3.113232
v -1.184855 -0.915392 3.186022
v -1.171008 -0.915392 3.119167
v -1.171030 -0.915392 3.115721
v -1.171052 -0.915392 3.111064
v -1.171074 -0.915392 3.105291
v -1.171096 -0.915392 3.098498
v -1.171118 -0.915392 3.090780
v -1.171140 -0.915392 3.082235
v -1.171162 -0.915392 3.072956
v -1.171185 -0.915392 3.063041
v -1.171207 -0.915392 3.052585
v -1.171229 -0.915392 3.041684
v -1.171207 -0.915392 3.030784
v -1.171185 -0.915392 3.020328
v -1.171162 -0.915392 3.010413
v -1.171140 -0.915392 3.001134
v -1.171118 -0.915392 2.992588
v -1.171096 -0.915392 2.984871
v -1.171074 -0.915392 2.978077
v -1.171052 -0.915392 2.972304
v -1.171030 -0.915392 2.967647
v -1.171008 -0.915392 2.964202
v -1.184855 -0.915392 2.897347
v -1.184840 -0.833332 2.896017
v -1.184840 -0.751272 2.897347
v -1.170964 -0.751272 2.964202
v -1.170964 -0.751272 2.967647
v -1.170964 -0.751272 2.972304
v -1.170964 -0.751272 2.978077
v -1.170964 -0.751272 2.984871
v -1.170964 -0.751272 2.992588
v -1.170964 -0.751272 3.001134
v -1.170964 -0.751272 3.010413
v -1.170964 -0.751272 3.020328
v -1.170964 -0.751272 3.030784
v -1.170964 -0.751272 3.041684
v -1.170964 -0.751272 3.052585
v -1.170964 -0.751272 3.063041
v -1.170964 -0.751272 3.072956
v -1.170964 -0.751272 3.082235
v -1.170964 -0.751272 3.090780
v -1.170964 -0.751272 3.098498
v -1.170964 -0.751272 3.105291
v -1.170964 -0.751272 3.111064
v -1.170964 -0.751272 3.115721
v -1.170964 -0.751272 3.119167
v -1.184840 -0.751272 3.186022
v -1.184840 -0.833332 3.187352
v -1.238657 -0.915392 3.271252
v -1.238657 -0.915392 2.812116
v -1.238642 -0.833332 2.810001
v -1.238642 -0.751272 2.812116
v -1.238642 -0.751272 3.271252
v -1.238642 -0.833332 3.273368
v -1.184855 -0.915392 3.271252
v -1.184855 -0.915392 2.812116
v -1.184840 -0.833332 2.810001
v -1.184840 -0.751272 2.812116
v -1.184840 -0.751272 3.271252
v -1.184840 -0.833332 3.273368
v -0.776974 -0.883172 3.186022
v -0.776974 -0.883172 2.897347
v -0.776960 -0.833332 2.896017
v -0.776960 -0.783492 2.897347
v -0.776960 -0.783492 3.186022
v -0.776960 -0.833332 3.187352
v -0.776974 -0.883172 3.271252
v -0.776974 -0.883172 2.812116
v -0.776960 -0.833332 2.810001
v -0.776960 -0.783492 2.812116
v -0.776960 -0.783492 3.271252
v -0.776960 -0.833332 3.273368
vt 0.000000 0.000000
vt 0.000000 0.000000
vt 0.000000 0.000000
vt 0.000000 0.000000
vt 0.000000 0.000000
vt 0.000000 0.000000
vt 0.000000 0.000000
vt 0.000000 0.000000
vt 0.000000 0.000000
vt 0.000000 0.000000
vt 0.000000 0.000000
vt 0.000000 0.000000
vt 0.000000 0.000000
vt 0.000000 0.000000
vt 0.000000 0.000000
vt 0.000000 0.000000
vt 0.000000 0.000000
vt 0.000000 0.000000
vt 0.000000 0.000000
vt 0.000000 0.000000
vt 0.000000 0.000000
vt 0.000000 0.000000
vt 0.000000 0.000000
vt 0.000000 0.000000
vt 0.000000 0.000000
vt 0.000000 0.000000
vt 0.000000 0.000000
vt 0.000000 0.000000
vt 0.000000 0.000000
vt 0.000000 0.000000
vt 0.000000 0.000000
vt 0.000000 0.000000
vt 0.000000 0.000000
vt 0.000000 0.000000
vt 0.000000 0.000000
vt 0.000000 0.000000
vt 0.000000 0.000000
vt 0.000000 0.000000
vt 0.000000 0.000000
vt 0.000000 0.000000
vt 0.000000 0.000000
vt 0.000000 0.000000
vt 0.000000 0.000000
vt 0.000000 0.000000
vt 0.000000 0.000000
vt 0.000000 0.000000
vt 0.000000 0.000000
vt 0.000000 0.000000
vt 0.000000 0.000000
vt 0.000000 0.000000
vt 0.000000 0.000000
vt 0.000000 0.000000
vt 0.000000 0.000000
vt 0.000000 0.000000
vt 0.000000 0.000000
vt 0.000000 0.000000
vt 0.000000 0.000000
vt 0.000000 0.000000
vt 0.000000 0.000000
vt 0.000000 0.000000
vt 0.000000 0.000000
vt 0.000000 0.000000
vt 0.000000 0.000000
vt 0.000000 0.000000
vt 0.000000 0.000000
vt 0.000000 0.000000
vt 0.000000 0.000000
vt 0.000000 0.000000
vt 0.000000 0.000000
vt 0.000000 0.000000
vt 0.000000 0.000000
vt 0.000000 0.000000
vt 0.000000 0.000000
vt 0.000000 0.000000
vt 0.000000 0.000000
vt 0.000000 0.000000
vt 0.000000 0.000000
vt 0.000000 0.000000
vt 0.000000 0.000000
vt 0.000000 0.000000
vt 0.000000 0.000000
vt 0.000000 0.000000
vt 0.000000 0.000000
vt 0.000000 0.000000
vt 0.000000 0.000000
vt 0.000000 0.000000
vt 0.000000 0.000000
vt 0.000000 0.000000
vt 0.000000 0.000000
vt 0.000000 0.000000
vt 0.000000 0.000000
vt 0.000000 0.000000
vt 0.000000 0.000000
vt 0.000000 0.000000
vt 0.000000 0.000000
vt 0.000000 0.000000
vt 0.000000 0.000000
vt 0.000000 0.000000
vt 0.000000 0.000000
vt 0.000000 0.000000
vt 0.000000 0.000000
vt 0.000000 0.000000
vt 0.000000 0.000000
vt 0.000000 0.000000
vt 0.000000 0.000000
vt 0.000000 0.000000
vt 0.000000 0.000000
vt 0.000000 0.000000
vt 0.000000 0.000000
vt 0.000000 0.000000
vt 0.000000 0.000000
vt 0.000000 0.000000
vt 0.000000 0.000000
vt 0.000000 0.000000
vt 0.000000 0.000000
vt 0.000000 0.000000
vt 0.000000 0.000000
vt 0.000000 0.000000
vt 0.000000 0.000000
vt 0.000000 0.000000
vt 0.000000 0.000000
vt 0.000000 0.000000
vt 0.000000 0.000000
vt 0.000000 0.000000
vt 0.000000 0.000000
vt 0.000000 0.000000
vt 0.000000 0.000000
vt 0.000000 0.000000
vt 0.000000 0.000000
vt 0.000000 0.000000
vt 0.000000 0.000000
vt 0.000000 0.000000
vt 0.000000 0.000000
vt 0.000000 0.000000
vt 0.000000 0.000000
vt 0.000000 0.000000
vt 0.000000 0.000000
vt 0.000000 0.000000
vt 0.000000 0.000000
vt 0.000000 0.000000
vt 0.000000 0.000000
vt 0.000000 0.000000
vt 0.000000 0.000000
vt 0.000000 0.000000
vt 0.000000 0.000000
vt 0.000000 0.000000
vt 0.000000 0.000000
vt 0.000000 0.000000
vt 0.000000 0.000000
vt 0.000000 0.000000
vt 0.000000 0.000000
vt 0.000000 0.000000
vt 0.000000 0.000000
vt 0.000000 0.000000
vt 0.000000 0.000000
vt 0.000000 0.000000
vt 0.000000 0.000000
vt 0.000000 0.000000
vt 0.000000 0.000000
vt 0.000000 0.000000
vt 0.000000 0.000000
vt 0.000000 0.000000
vt 0.000000 0.000000
vt 0.000000 0.000000
vt 0.000000 0.000000
vt 0.000000 0.000000
vt 0.000000 0.000000
vt 0.000000 0.000000
vt 0.000000 0.000000
vt 0.000000 0.000000
vt 0.000000 0.000000
vt 0.000000 0.000000
vt 0.000000 0.000000
vt 0.000000 0.000000
vt 0.000000 0.000000
vt 0.000000 0.000000
vt 0.000000 0.000000
vt 0.000000 0.000000
vt 0.000000 0.000000
vt 0.000000 0.000000
vt 0.000000 0.000000
vt 0.000000 0.000000
vt 0.000000 0.000000
vt 0.000000 0.000000
vt 0.000000 0.000000
vt 0.000000 0.000000
vt 0.000000 0.000000
vt 0.000000 0.000000
vt 0.000000 0.000000
vt 0.000000 0.000000
vt 0.000000 0.000000
vt 0.000000 0.000000
vt 0.000000 0.000000
vt 0.000000 0.000000
vt 0.000000 0.000000
vt 0.000000 0.000000
vt 0.000000 0.000000
vt 0.000000 0.000000
vt 0.000000 0.000000
vt 0.000000 0.000000
vt 0.000000 0.000000
vt 0.000000 0.000000
vt 0.000000 0.000000
vt 0.000000 0.000000
vt 0.000000 0.000000
vt 0.000000 0.000000
vt 0.000000 0.000000
vt 0.000000 0.000000
vt 0.000000 0.000000
vt 0.000000 0.000000
vt 0.000000 0.000000
vt 0.000000 0.000000
vt 0.000000 0.000000
vt 0.000000 0.000000
vt 0.000000 0.000000
vt 0.000000 0.000000
vn -1.0000 0.0005 0.0000
vn -1.0000 0.0008 -0.0038
vn -1.0000 0.0001 0.0000
vn -1.0000 0.0005 0.0037
vn -1.0000 0.0006 0.0000
vn -0.9831 -0.0028 -0.1831
vn -1.0000 0.0020 0.0020
vn -1.0000 0.0004 0.0000
vn -0.9828 0.0124 -0.1840
vn -1.0000 0.0016 -0.0017
vn -1.0000 0.0003 -0.0002
vn -1.0000 0.0009 -0.0032
vn -1.0000 0.0007 0.0000
vn -0.9831 0.0030 0.1829
vn -0.9871 -0.0300 0.1570
vn -1.0000 0.0002 0.0000
vn -0.9874 0.0317 -0.1553
vn -1.0000 0.0014 0.0022
vn -1.0000 0.0006 0.0026
vn -1.0000 0.0002 -0.0002
vn -1.0000 0.0008 -0.0047
vn -1.0000 0.0006 0.0030
vn -1.0000 0.0010 -0.0064
vn -1.0000 0.0021 -0.0019
vn -1.0000 0.0005 0.0002
vn -1.0000 0.0001 -0.0002
vn -1.0000 0.0019 -0.0017
vn -0.9788 -0.0272 0.2031
vn -1.0000 0.0012 -0.0026
vn -1.0000 0.0003 0.0000
vn -1.0000 0.0006 0.0047
vn -0.9787 0.0274 -0.2035
vn -1.0000 0.0010 0.0019
vn 0.9831 0.0028 -0.1831
vn -1.0000 0.0007 0.0023
vn -1.0000 0.0014 -0.0024
vn -1.0000 0.0006 0.0001
vn -1.0000 0.0010 -0.0029
vn -1.0000 0.0016 0.0021
vn -1.0000 0.0008 0.0020
vn 1.0000 -0.0005 0.0002
vn 1.0000 -0.0006 0.0030
vn 1.0000 -0.0001 -0.0002
vn 1.0000 -0.0005 -0.0037
vn 1.0000 -0.0006 0.0001
vn 0.9828 -0.0144 -0.1839
vn 1.0000 -0.0020 -0.0019
vn 1.0000 -0.0003 -0.0002
vn 0.9829 0.0124 -0.1839
vn 1.0000 -0.0016 0.0017
vn 1.0000 -0.0003 0.0002
vn 1.0000 -0.0006 0.0026
vn 1.0000 -0.0007 -0.0000
vn 0.9829 0.0124 0.1839
vn 0.9876 -0.0335 0.1535
vn 0.9874 0.0317 -0.1552
vn 1.0000 -0.0016 -0.0017
vn 1.0000 -0.0006 -0.0026
vn 1.0000 -0.0002 0.0002
vn 1.0000 -0.0005 0.0037
vn 1.0000 -0.0006 -0.0030
vn 1.0000 -0.0006 0.0047
vn 1.0000 -0.0020 0.0019
vn 1.0000 -0.0005 -0.0002
vn 1.0000 -0.0001 0.0002
vn 1.0000 -0.0019 0.0017
vn 0.9874 0.0317 0.1552
vn 1.0000 -0.0008 0.0020
vn 1.0000 -0.0002 -0.0002
vn 1.0000 -0.0006 -0.0047
vn 0.9876 -0.0334 -0.1535
vn 1.0000 -0.0010 -0.0019
vn -0.9828 0.0144 -0.1839
vn 1.0000 -0.0007 -0.0023
vn 1.0000 -0.0010 0.0019
vn 1.0000 -0.0006 -0.0001
vn 1.0000 -0.0007 0.0023
vn 1.0000 -0.0019 -0.0017
vn 1.0000 -0.0008 -0.0020
vn 0.0000 0.9977 0.0672
vn 0.0000 -1.0000 -0.0000
vn -0.0000 -0.0672 0.9977
vn 0.0000 1.0000 0.0000
vn 0.0000 -0.9446 0.3282
vn 1.0000 -0.0002 0.0000
vn 0.0000 0.3282 -0.9446
vn 0.0000 -0.8286 -0.5598
vn 0.0000 0.8937 0.4486
vn 0.0000 -0.9797 0.2003
vn 0.0000 -0.2003 0.9797
vn 0.0000 -1.0000 0.0001
vn 0.0000 0.5598 0.8286
vn 0.0000 -0.9977 -0.0672
vn 0.0000 0.3282 0.9446
vn 0.0000 0.9797 -0.2003
vn 0.0000 0.9446 0.3282
vn 0.0000 -0.4486 -0.8937
vn 0.0000 0.9977 -0.0672
vn 0.0000 0.6607 -0.7506
vn 0.0000 -0.2003 -0.9797
vn 0.0000 0.2003 -0.9797
vn 0.0000 -0.9446 -0.3282
vn 0.0000 -0.6607 0.7506
vn 0.0000 0.5598 -0.8286
vn 0.0000 -0.6607 -0.7506
vn 0.0000 -0.4486 0.8937
vn 0.0787 0.9969 0.0000
vn 0.0000 0.8286 0.5598
vn 0.0000 -0.9797 -0.2003
vn 0.0000 0.0672 0.9977
vn -1.0000 -0.0000 0.0000
vn 0.0000 0.7506 -0.6607
vn 0.0000 -0.3282 -0.9446
vn 0.0000 -0.0672 -0.9977
vn 0.0000 0.8937 -0.4486
vn 0.0000 0.8286 -0.5598
vn 0.0000 -0.8286 0.5598
vn 0.0000 0.7506 0.6607
vn 0.0000 -0.8937 -0.4486
vn 0.0000 -0.7506 0.6607
vn 0.0000 0.4486 -0.8937
vn 0.0000 -0.5598 -0.8286
vn 0.0000 -0.3282 0.9446
vn 0.0000 0.6607 0.7506
vn 0.0000 -0.9977 0.0672
vn 0.0000 0.2003 0.9797
vn 0.0000 0.4486 0.8937
vn 0.0000 -0.7506 -0.6607
vn 0.0000 -0.5598 0.8286
vn 0.0000 0.9446 -0.3282
vn 0.0000 0.9797 0.2003
vn 0.0000 -0.8937 0.4486
vn 0.0000 0.0258 -0.9997
vn 0.0000 -0.0258 -0.9997
vn 0.0000 0.0258 0.9997
vn -0.0787 0.9969 0.0000
vn 0.0020 0.0258 0.9997
vn 1.0000 -0.0000 0.0000
vn 1.0000 -0.0003 0.0000
vn 0.0020 -0.0258 -0.9997
vn -0.0013 -0.0162 -0.9999
vn 0.0020 0.0258 -0.9997
vn -0.0020 0.0258 -0.9997
vn -0.0013 -0.0162 0.9999
vn 0.0787 -0.9969 0.0000
vn 0.0013 -0.0162 0.9999
vn -0.0013 0.0162 0.9999
vn -1.0000 0.0005 -0.0002
vn -1.0000 0.0006 -0.0030
vn -1.0000 0.0001 0.0002
vn -1.0000 0.0008 0.0047
vn -1.0000 0.0006 -0.0001
vn -0.9829 -0.0104 -0.1840
vn -1.0000 0.0021 0.0019
vn -1.0000 0.0003 0.0002
vn -0.9831 0.0030 -0.1829
vn -1.0000 0.0014 -0.0022
vn -1.0000 0.0006 -0.0026
vn -0.9828 0.0124 0.1840
vn -0.9787 0.0274 0.2035
vn -0.9788 -0.0272 -0.2031
vn -1.0000 0.0016 0.0017
vn -1.0000 0.0009 0.0032
vn -1.0000 0.0005 -0.0037
vn -1.0000 0.0008 0.0038
vn -1.0000 0.0006 -0.0047
vn -1.0000 0.0020 -0.0020
vn -1.0000 0.0016 -0.0021
vn -0.9874 0.0317 0.1553
vn -1.0000 0.0008 -0.0020
vn -1.0000 0.0002 0.0002
vn -1.0000 0.0010 0.0064
vn -0.9871 -0.0300 -0.1570
vn -1.0000 0.0014 0.0024
vn 0.9829 0.0104 -0.1840
vn -1.0000 0.0010 0.0029
vn -1.0000 0.0010 -0.0019
vn -1.0000 0.0007 -0.0023
vn -1.0000 0.0019 0.0017
vn -1.0000 0.0012 0.0026
vn 1.0000 -0.0004 0.0000
vn 1.0000 -0.0008 0.0038
vn 1.0000 -0.0001 0.0000
vn 1.0000 -0.0008 -0.0047
vn 1.0000 -0.0005 0.0000
vn 0.9832 -0.0031 -0.1825
vn 1.0000 -0.0020 -0.0020
vn 0.9832 0.0030 -0.1827
vn 1.0000 -0.0014 0.0022
vn 1.0000 -0.0009 0.0032
vn 1.0000 -0.0006 0.0000
vn 0.9832 0.0030 0.1827
vn 0.9789 0.0273 0.2027
vn 0.9788 -0.0275 -0.2032
vn 1.0000 -0.0014 -0.0022
vn 1.0000 -0.0009 -0.0032
vn 1.0000 -0.0008 0.0047
vn 1.0000 -0.0008 -0.0038
vn 1.0000 -0.0010 0.0064
vn 1.0000 -0.0020 0.0020
vn 1.0000 -0.0017 0.0021
vn 0.9788 -0.0275 0.2032
vn 1.0000 -0.0012 0.0026
vn 1.0000 -0.0010 -0.0064
vn 0.9789 0.0273 -0.2027
vn 1.0000 -0.0014 -0.0024
vn -0.9832 0.0031 -0.1825
vn 1.0000 -0.0010 -0.0029
vn 1.0000 -0.0014 0.0024
vn 1.0000 -0.0010 0.0029
vn 1.0000 -0.0016 -0.0021
vn 1.0000 -0.0012 -0.0026
vn 0.0000 0.0424 0.9991
vn 0.0000 -0.0424 -0.9991
vn -0.0000 -0.0267 -0.9996
vn 0.0000 0.0424 -0.9991
vn 0.0000 -0.0267 0.9996
vn 0.0000 0.0267 0.9996
s off
f 33/1/1 82/2/1 81/3/1
f 19/4/2 68/5/2 67/6/2
f 45/7/3 94/8/3 93/9/3
f 4/10/4 51/11/4 3/12/4
f 34/13/5 83/14/5 82/2/5
f 23/15/6 72/16/6 71/17/6
f 11/18/7 60/19/7 59/20/7
f 39/21/8 88/22/8 87/23/8
f 25/24/9 72/16/9 24/25/9
f 15/26/10 62/27/10 14/28/10
f 32/29/11 79/30/11 31/31/11
f 18/32/12 67/6/12 66/33/12
f 37/34/13 84/35/13 36/36/13
f 47/37/14 96/38/14 95/39/14
f 2/40/15 49/41/15 1/42/15
f 43/43/16 92/44/16 91/45/16
f 26/46/17 73/47/17 25/24/17
f 9/48/18 58/49/18 57/50/18
f 6/51/19 53/52/19 5/53/19
f 31/31/20 78/54/20 30/55/20
f 20/56/21 69/57/21 68/5/21
f 44/58/16 93/9/16 92/44/16
f 5/53/22 52/59/22 4/10/22
f 35/60/13 84/35/13 83/14/13
f 21/61/23 70/62/23 69/57/23
f 13/63/24 60/19/24 12/64/24
f 39/21/25 86/65/25 38/66/25
f 27/67/26 74/68/26 26/46/26
f 14/28/27 61/69/27 13/63/27
f 46/70/28 95/39/28 94/8/28
f 16/71/29 65/72/29 64/73/29
f 41/74/30 90/75/30 89/76/30
f 3/12/31 50/77/31 2/40/31
f 42/78/16 91/45/16 90/75/16
f 22/79/32 71/17/32 70/62/32
f 9/48/33 56/80/33 8/81/33
f 1/42/34 96/38/34 49/41/34
f 30/55/20 77/82/20 29/83/20
f 7/84/35 54/85/35 6/51/35
f 33/1/11 80/86/11 32/29/11
f 15/26/36 64/73/36 63/87/36
f 38/66/37 85/88/37 37/34/37
f 29/83/26 76/89/26 28/90/26
f 17/91/38 66/33/38 65/72/38
f 40/92/8 89/76/8 88/22/8
f 28/90/26 75/93/26 27/67/26
f 10/94/39 59/20/39 58/49/39
f 8/81/40 55/95/40 7/84/40
f 129/96/41 178/97/41 130/98/41
f 115/99/42 164/100/42 116/101/42
f 141/102/43 190/103/43 142/104/43
f 147/105/44 100/106/44 99/107/44
f 130/98/45 179/108/45 131/109/45
f 119/110/46 168/111/46 120/112/46
f 107/113/47 156/114/47 108/115/47
f 135/116/48 184/117/48 136/118/48
f 168/111/49 121/119/49 120/112/49
f 158/120/50 111/121/50 110/122/50
f 175/123/51 128/124/51 127/125/51
f 114/126/52 163/127/52 115/99/52
f 180/128/53 133/129/53 132/130/53
f 143/131/54 192/132/54 144/133/54
f 145/134/55 98/135/55 97/136/55
f 139/137/43 188/138/43 140/139/43
f 169/140/56 122/141/56 121/119/56
f 105/142/57 154/143/57 106/144/57
f 149/145/58 102/146/58 101/147/58
f 174/148/59 127/125/59 126/149/59
f 116/101/60 165/150/60 117/151/60
f 140/139/43 189/152/43 141/102/43
f 148/153/61 101/147/61 100/106/61
f 131/109/53 180/128/53 132/130/53
f 117/151/62 166/154/62 118/155/62
f 156/114/63 109/156/63 108/115/63
f 182/157/64 135/116/64 134/158/64
f 170/159/65 123/160/65 122/141/65
f 157/161/66 110/122/66 109/156/66
f 142/104/67 191/162/67 143/131/67
f 112/163/68 161/164/68 113/165/68
f 137/166/69 186/167/69 138/168/69
f 146/169/70 99/107/70 98/135/70
f 138/168/69 187/170/69 139/137/69
f 118/155/71 167/171/71 119/110/71
f 152/172/72 105/142/72 104/173/72
f 97/136/73 192/132/73 144/133/73
f 173/174/59 126/149/59 125/175/59
f 150/176/74 103/177/74 102/146/74
f 176/178/51 129/96/51 128/124/51
f 111/121/75 160/179/75 112/163/75
f 181/180/76 134/158/76 133/129/76
f 172/181/65 125/175/65 124/182/65
f 113/165/77 162/183/77 114/126/77
f 136/118/48 185/184/48 137/166/48
f 171/185/65 124/182/65 123/160/65
f 106/144/78 155/186/78 107/113/78
f 151/187/79 104/173/79 103/177/79
f 108/115/80 13/63/80 12/64/80
f 147/105/81 50/77/81 51/11/81
f 97/136/82 48/188/82 1/42/82
f 185/184/83 88/22/83 89/76/83
f 129/96/84 34/13/84 33/1/84
f 96/38/85 193/189/85 49/41/85
f 2/40/86 99/107/86 3/12/86
f 64/73/81 159/190/81 63/87/81
f 136/118/87 41/74/87 40/92/87
f 179/108/83 82/2/83 83/14/83
f 120/112/82 25/24/82 24/25/82
f 74/68/83 169/140/83 73/47/83
f 111/121/88 16/71/88 15/26/88
f 68/5/81 163/127/81 67/6/81
f 130/98/89 35/60/89 34/13/89
f 181/180/83 84/35/83 85/88/83
f 121/119/90 26/46/90 25/24/90
f 70/62/91 165/150/91 69/57/91
f 155/186/81 58/49/81 59/20/81
f 115/99/92 20/56/92 19/4/92
f 63/87/81 158/120/81 62/27/81
f 132/130/93 37/34/93 36/36/93
f 189/152/83 92/44/83 93/9/83
f 117/151/94 22/79/94 21/61/94
f 10/94/95 107/113/95 11/18/95
f 156/114/81 59/20/81 60/19/81
f 110/122/96 15/26/96 14/28/96
f 150/176/81 53/52/81 54/85/81
f 140/139/97 45/7/97 44/58/97
f 191/162/83 94/8/83 95/39/83
f 11/18/98 108/115/98 12/64/98
f 146/169/81 49/41/81 50/77/81
f 5/53/99 102/146/99 6/51/99
f 183/191/83 86/65/83 87/23/83
f 142/104/100 47/37/100 46/70/100
f 174/148/83 77/82/83 78/54/83
f 1/42/101 98/135/101 2/40/101
f 149/145/81 52/59/81 53/52/81
f 134/158/102 39/21/102 38/66/102
f 187/170/83 90/75/83 91/45/83
f 125/175/103 30/55/103 29/83/103
f 172/181/83 75/93/83 76/89/83
f 4/10/104 101/147/104 5/53/104
f 65/72/81 160/179/81 64/73/81
f 138/168/105 43/43/105 42/78/105
f 182/157/83 85/88/83 86/65/83
f 123/160/106 28/90/106 27/67/106
f 215/192/107 191/162/107 203/193/107
f 112/163/108 17/91/108 16/71/108
f 151/187/81 54/85/81 55/95/81
f 133/129/109 38/66/109 37/34/109
f 190/103/83 93/9/83 94/8/83
f 119/110/110 24/25/110 23/15/110
f 196/194/111 72/16/111 73/47/111
f 153/195/81 56/80/81 57/50/81
f 6/51/112 103/177/112 7/84/112
f 152/172/81 55/95/81 56/80/81
f 141/102/113 46/70/113 45/7/113
f 176/178/83 79/30/83 80/86/83
f 143/131/114 48/188/114 47/37/114
f 8/81/115 105/142/115 9/48/115
f 66/33/81 161/164/81 65/72/81
f 7/84/116 104/173/116 8/81/116
f 184/117/83 87/23/83 88/22/83
f 127/125/117 32/29/117 31/31/117
f 175/123/83 78/54/83 79/30/83
f 113/165/118 18/32/118 17/91/118
f 148/153/81 51/11/81 52/59/81
f 39/21/119 136/118/119 40/92/119
f 188/138/83 91/45/83 92/44/83
f 126/149/120 31/31/120 30/55/120
f 171/185/83 74/68/83 75/93/83
f 3/12/121 100/106/121 4/10/121
f 67/6/81 162/183/81 66/33/81
f 139/137/122 44/58/122 43/43/122
f 180/128/83 83/14/83 84/35/83
f 122/141/123 27/67/123 26/46/123
f 71/17/81 166/154/81 70/62/81
f 114/126/124 19/4/124 18/32/124
f 69/57/81 164/100/81 68/5/81
f 131/109/125 36/36/125 35/60/125
f 186/167/83 89/76/83 90/75/83
f 118/155/126 23/15/126 22/79/126
f 173/174/83 76/89/83 77/82/83
f 154/143/81 57/50/81 58/49/81
f 116/101/127 21/61/127 20/56/127
f 62/27/81 157/161/81 61/69/81
f 137/166/128 42/78/128 41/74/128
f 177/196/83 80/86/83 81/3/83
f 124/182/129 29/83/129 28/90/129
f 9/48/130 106/144/130 10/94/130
f 61/69/81 156/114/81 60/19/81
f 109/156/131 14/28/131 13/63/131
f 96/38/111 197/197/111 95/39/111
f 128/124/132 33/1/132 32/29/132
f 178/97/83 81/3/83 82/2/83
f 196/194/133 201/198/133 195/199/133
f 195/199/134 200/200/134 194/201/134
f 204/202/135 197/197/135 198/203/135
f 198/203/133 199/204/133 193/189/133
f 72/16/16 194/201/16 71/17/16
f 197/197/83 191/162/83 95/39/83
f 194/201/81 167/171/81 71/17/81
f 211/205/136 145/134/136 199/204/136
f 193/189/83 145/134/83 49/41/83
f 202/206/83 73/47/83 169/140/83
f 204/202/137 215/192/137 203/193/137
f 208/207/107 202/206/107 169/140/107
f 215/192/138 210/208/138 209/209/138
f 207/210/138 214/211/138 208/207/138
f 211/205/30 210/208/30 205/212/30
f 212/213/139 207/210/139 206/214/139
f 201/198/140 212/213/140 200/200/140
f 209/209/141 192/132/141 191/162/141
f 214/211/142 201/198/142 202/206/142
f 204/202/143 211/205/143 199/204/143
f 168/111/144 208/207/144 169/140/144
f 212/213/145 167/171/145 200/200/145
f 205/212/146 192/132/146 145/134/146
f 206/214/147 168/111/147 167/171/147
f 33/1/148 34/13/148 82/2/148
f 19/4/149 20/56/149 68/5/149
f 45/7/150 46/70/150 94/8/150
f 4/10/151 52/59/151 51/11/151
f 34/13/152 35/60/152 83/14/152
f 23/15/153 24/25/153 72/16/153
f 11/18/154 12/64/154 60/19/154
f 39/21/155 40/92/155 88/22/155
f 25/24/156 73/47/156 72/16/156
f 15/26/157 63/87/157 62/27/157
f 32/29/8 80/86/8 79/30/8
f 18/32/158 19/4/158 67/6/158
f 37/34/13 85/88/13 84/35/13
f 47/37/159 48/188/159 96/38/159
f 2/40/160 50/77/160 49/41/160
f 43/43/150 44/58/150 92/44/150
f 26/46/161 74/68/161 73/47/161
f 9/48/162 10/94/162 58/49/162
f 6/51/163 54/85/163 53/52/163
f 31/31/30 79/30/30 78/54/30
f 20/56/164 21/61/164 69/57/164
f 44/58/150 45/7/150 93/9/150
f 5/53/165 53/52/165 52/59/165
f 35/60/13 36/36/13 84/35/13
f 21/61/166 22/79/166 70/62/166
f 13/63/167 61/69/167 60/19/167
f 39/21/1 87/23/1 86/65/1
f 27/67/3 75/93/3 74/68/3
f 14/28/168 62/27/168 61/69/168
f 46/70/169 47/37/169 95/39/169
f 16/71/170 17/91/170 65/72/170
f 41/74/171 42/78/171 90/75/171
f 3/12/172 51/11/172 50/77/172
f 42/78/171 43/43/171 91/45/171
f 22/79/173 23/15/173 71/17/173
f 9/48/174 57/50/174 56/80/174
f 1/42/175 48/188/175 96/38/175
f 30/55/16 78/54/16 77/82/16
f 7/84/176 55/95/176 54/85/176
f 33/1/8 81/3/8 80/86/8
f 15/26/177 16/71/177 64/73/177
f 38/66/5 86/65/5 85/88/5
f 29/83/16 77/82/16 76/89/16
f 17/91/178 18/32/178 66/33/178
f 40/92/155 41/74/155 89/76/155
f 28/90/16 76/89/16 75/93/16
f 10/94/179 11/18/179 59/20/179
f 8/81/180 56/80/180 55/95/180
f 129/96/181 177/196/181 178/97/181
f 115/99/182 163/127/182 164/100/182
f 141/102/183 189/152/183 190/103/183
f 147/105/184 148/153/184 100/106/184
f 130/98/185 178/97/185 179/108/185
f 119/110/186 167/171/186 168/111/186
f 107/113/187 155/186/187 156/114/187
f 135/116/181 183/191/181 184/117/181
f 168/111/188 169/140/188 121/119/188
f 158/120/189 159/190/189 111/121/189
f 175/123/181 176/178/181 128/124/181
f 114/126/190 162/183/190 163/127/190
f 180/128/191 181/180/191 133/129/191
f 143/131/192 191/162/192 192/132/192
f 145/134/193 146/169/193 98/135/193
f 139/137/85 187/170/85 188/138/85
f 169/140/194 170/159/194 122/141/194
f 105/142/195 153/195/195 154/143/195
f 149/145/196 150/176/196 102/146/196
f 174/148/139 175/123/139 127/125/139
f 116/101/197 164/100/197 165/150/197
f 140/139/85 188/138/85 189/152/85
f 148/153/198 149/145/198 101/147/198
f 131/109/191 179/108/191 180/128/191
f 117/151/199 165/150/199 166/154/199
f 156/114/200 157/161/200 109/156/200
f 182/157/181 183/191/181 135/116/181
f 170/159/183 171/185/183 123/160/183
f 157/161/201 158/120/201 110/122/201
f 142/104/202 190/103/202 191/162/202
f 112/163/203 160/179/203 161/164/203
f 137/166/139 185/184/139 186/167/139
f 146/169/204 147/105/204 99/107/204
f 138/168/85 186/167/85 187/170/85
f 118/155/205 166/154/205 167/171/205
f 152/172/206 153/195/206 105/142/206
f 97/136/207 145/134/207 192/132/207
f 173/174/85 174/148/85 126/149/85
f 150/176/208 151/187/208 103/177/208
f 176/178/181 177/196/181 129/96/181
f 111/121/209 159/190/209 160/179/209
f 181/180/185 182/157/185 134/158/185
f 172/181/85 173/174/85 125/175/85
f 113/165/210 161/164/210 162/183/210
f 136/118/181 184/117/181 185/184/181
f 171/185/85 172/181/85 124/182/85
f 106/144/211 154/143/211 155/186/211
f 151/187/212 152/172/212 104/173/212
f 108/115/80 109/156/80 13/63/80
f 147/105/91 146/169/91 50/77/91
f 97/136/82 144/133/82 48/188/82
f 185/184/83 184/117/83 88/22/83
f 129/96/84 130/98/84 34/13/84
f 96/38/85 198/203/85 193/189/85
f 2/40/86 98/135/86 99/107/86
f 64/73/81 160/179/81 159/190/81
f 136/118/87 137/166/87 41/74/87
f 179/108/83 178/97/83 82/2/83
f 120/112/82 121/119/82 25/24/82
f 74/68/83 170/159/83 169/140/83
f 111/121/88 112/163/88 16/71/88
f 68/5/81 164/100/81 163/127/81
f 130/98/89 131/109/89 35/60/89
f 181/180/83 180/128/83 84/35/83
f 121/119/90 122/141/90 26/46/90
f 70/62/81 166/154/81 165/150/81
f 155/186/81 154/143/81 58/49/81
f 115/99/92 116/101/92 20/56/92
f 63/87/81 159/190/81 158/120/81
f 132/130/93 133/129/93 37/34/93
f 189/152/83 188/138/83 92/44/83
f 117/151/94 118/155/94 22/79/94
f 10/94/95 106/144/95 107/113/95
f 156/114/81 155/186/81 59/20/81
f 110/122/96 111/121/96 15/26/96
f 150/176/81 149/145/81 53/52/81
f 140/139/97 141/102/97 45/7/97
f 191/162/83 190/103/83 94/8/83
f 11/18/98 107/113/98 108/115/98
f 146/169/81 145/134/81 49/41/81
f 5/53/99 101/147/99 102/146/99
f 183/191/83 182/157/83 86/65/83
f 142/104/100 143/131/100 47/37/100
f 174/148/83 173/174/83 77/82/83
f 1/42/101 97/136/101 98/135/101
f 149/145/81 148/153/81 52/59/81
f 134/158/102 135/116/102 39/21/102
f 187/170/83 186/167/83 90/75/83
f 125/175/103 126/149/103 30/55/103
f 172/181/83 171/185/83 75/93/83
f 4/10/104 100/106/104 101/147/104
f 65/72/81 161/164/81 160/179/81
f 138/168/105 139/137/105 43/43/105
f 182/157/83 181/180/83 85/88/83
f 123/160/106 124/182/106 28/90/106
f 215/192/107 209/209/107 191/162/107
f 112/163/108 113/165/108 17/91/108
f 151/187/81 150/176/81 54/85/81
f 133/129/109 134/158/109 38/66/109
f 190/103/83 189/152/83 93/9/83
f 119/110/110 120/112/110 24/25/110
f 196/194/111 195/199/111 72/16/111
f 153/195/81 152/172/81 56/80/81
f 6/51/112 102/146/112 103/177/112
f 152/172/81 151/187/81 55/95/81
f 141/102/113 142/104/113 46/70/113
f 176/178/83 175/123/83 79/30/83
f 143/131/114 144/133/114 48/188/114
f 8/81/115 104/173/115 105/142/115
f 66/33/81 162/183/81 161/164/81
f 7/84/116 103/177/116 104/173/116
f 184/117/83 183/191/83 87/23/83
f 127/125/117 128/124/117 32/29/117
f 175/123/83 174/148/83 78/54/83
f 113/165/118 114/126/118 18/32/118
f 148/153/81 147/105/81 51/11/81
f 39/21/119 135/116/119 136/118/119
f 188/138/83 187/170/83 91/45/83
f 126/149/120 127/125/120 31/31/120
f 171/185/83 170/159/83 74/68/83
f 3/12/121 99/107/121 100/106/121
f 67/6/81 163/127/81 162/183/81
f 139/137/122 140/139/122 44/58/122
f 180/128/83 179/108/83 83/14/83
f 122/141/123 123/160/123 27/67/123
f 71/17/81 167/171/81 166/154/81
f 114/126/124 115/99/124 19/4/124
f 69/57/81 165/150/81 164/100/81
f 131/109/125 132/130/125 36/36/125
f 186/167/83 185/184/83 89/76/83
f 118/155/126 119/110/126 23/15/126
f 173/174/83 172/181/83 76/89/83
f 154/143/81 153/195/81 57/50/81
f 116/101/127 117/151/127 21/61/127
f 62/27/81 158/120/81 157/161/81
f 137/166/128 138/168/128 42/78/128
f 177/196/83 176/178/83 80/86/83
f 124/182/129 125/175/129 29/83/129
f 9/48/130 105/142/130 106/144/130
f 61/69/81 157/161/81 156/114/81
f 109/156/131 110/122/131 14/28/131
f 96/38/111 198/203/111 197/197/111
f 128/124/132 129/96/132 33/1/132
f 178/97/83 177/196/83 81/3/83
f 196/194/133 202/206/133 201/198/133
f 195/199/134 201/198/134 200/200/134
f 204/202/135 203/193/135 197/197/135
f 198/203/133 204/202/133 199/204/133
f 72/16/16 195/199/16 194/201/16
f 197/197/83 203/193/83 191/162/83
f 194/201/81 200/200/81 167/171/81
f 211/205/136 205/212/136 145/134/136
f 193/189/83 199/204/83 145/134/83
f 202/206/83 196/194/83 73/47/83
f 204/202/213 216/215/213 215/192/213
f 208/207/107 214/211/107 202/206/107
f 215/192/138 216/215/138 210/208/138
f 207/210/138 213/216/138 214/211/138
f 211/205/30 216/215/30 210/208/30
f 212/213/139 213/216/139 207/210/139
f 201/198/214 213/216/214 212/213/214
f 209/209/215 210/208/215 192/132/215
f 214/211/216 213/216/216 201/198/216
f 204/202/216 216/215/216 211/205/216
f 168/111/217 207/210/217 208/207/217
f 212/213/145 206/214/145 167/171/145
f 205/212/217 210/208/217 192/132/217
f 206/214/218 207/210/218 168/111/218
