ply
format ascii 1.0
comment Created by Blender 2.79 (sub 0) - www.blender.org, source file: 'm3_v2.blend'
element vertex 515
property float x
property float y
property float z
property float nx
property float ny
property float nz
property float s
property float t
element face 480
property list uchar uint vertex_indices
end_header
-1.703228 -0.854396 -2.586232 0.993683 0.098819 -0.052797 0.419582 0.355204
-1.703428 -0.850795 -2.585897 0.997009 0.063967 -0.042726 0.417250 0.380813
-1.701567 -0.863491 -2.577413 0.986145 0.137791 -0.092044 0.356619 0.290356
-1.701517 -0.865931 -2.580066 0.984588 0.154118 -0.082369 0.375439 0.273010
-1.701567 -0.866781 -2.583568 0.986145 0.153111 -0.063417 0.400313 0.266962
-1.703428 -0.852674 -2.589412 0.997009 0.071078 -0.029420 0.442203 0.367453
-1.704706 -0.833889 -2.597193 1.000000 0.000000 0.000000 0.497716 0.501017
-1.703228 -0.836168 -2.574052 0.993683 0.010956 -0.111515 0.333122 0.484685
-1.703428 -0.833889 -2.576861 0.997009 0.000000 -0.076937 0.353102 0.500888
-1.701567 -0.833889 -2.561590 0.986145 0.000000 -0.165716 0.244295 0.500612
-1.701517 -0.837450 -2.561036 0.984588 0.017121 -0.173894 0.240346 0.475323
-1.701567 -0.840835 -2.562274 0.986145 0.032319 -0.162542 0.249152 0.451298
-1.703428 -0.837856 -2.577251 0.997009 0.014985 -0.075442 0.355876 0.472725
-1.703228 -0.815915 -2.582442 0.993683 -0.086581 -0.071078 0.392677 0.628421
-1.703428 -0.816983 -2.585897 0.997009 -0.063967 -0.042726 0.417250 0.620852
-1.701567 -0.804287 -2.577413 0.986145 -0.137791 -0.092074 0.356619 0.710673
-1.701517 -0.805804 -2.574144 0.984588 -0.135044 -0.110843 0.333400 0.699911
-1.701567 -0.808714 -2.572018 0.986145 -0.117161 -0.117161 0.318319 0.679272
-1.703428 -0.819512 -2.582816 0.997009 -0.054415 -0.054384 0.395377 0.602920
-1.703228 -0.813382 -2.608154 0.993683 -0.098819 0.052797 0.575204 0.646243
-1.703428 -0.816983 -2.608489 0.997009 -0.063967 0.042726 0.577624 0.620713
-1.701567 -0.804287 -2.616972 0.986145 -0.137791 0.092074 0.637441 0.710430
-1.701517 -0.801847 -2.614320 0.984588 -0.154088 0.082369 0.618598 0.727757
-1.701567 -0.800997 -2.610817 0.986145 -0.153111 0.063417 0.593747 0.733825
-1.703428 -0.815105 -2.604974 0.997009 -0.071078 0.029420 0.552671 0.634074
-1.703228 -0.831610 -2.620333 0.993683 -0.010956 0.111515 0.661663 0.516762
-1.703428 -0.833889 -2.617525 0.997009 0.000000 0.076937 0.641771 0.500639
-1.701567 -0.833889 -2.632795 0.986145 0.000000 0.165716 0.749763 0.500176
-1.701517 -0.830328 -2.633350 0.984588 -0.017121 0.173894 0.753691 0.525444
-1.701567 -0.826943 -2.632111 0.986145 -0.032319 0.162542 0.744907 0.549489
-1.703428 -0.829922 -2.617134 0.997009 -0.014985 0.075442 0.638997 0.528802
-1.703228 -0.851863 -2.611944 0.993683 0.086581 0.071078 0.602110 0.373026
-1.703428 -0.850795 -2.608489 0.997009 0.063967 0.042726 0.577624 0.380675
-1.701567 -0.863491 -2.616972 0.986145 0.137791 0.092074 0.637441 0.290114
-1.701517 -0.861974 -2.620242 0.984588 0.135044 0.110843 0.660638 0.300856
-1.701567 -0.859064 -2.622367 0.986145 0.117161 0.117161 0.675741 0.321515
-1.703428 -0.848266 -2.611570 0.997009 0.054415 0.054384 0.599497 0.398607
-1.703228 -0.856140 -2.590443 0.993683 0.107212 -0.032502 0.449478 0.342795
-1.701517 -0.868657 -2.586646 0.984588 0.167211 -0.050722 0.422151 0.253620
-1.701567 -0.868807 -2.590247 0.986145 0.162511 -0.032319 0.447725 0.252538
-1.703428 -0.853831 -2.593226 0.997009 0.075442 -0.014985 0.469279 0.359216
-1.703228 -0.840639 -2.574941 0.993683 0.032502 -0.107212 0.339435 0.452940
-1.701517 -0.844436 -2.562425 0.984588 0.050722 -0.167211 0.250210 0.425722
-1.701567 -0.847513 -2.564301 0.986145 0.063417 -0.153111 0.263533 0.403870
-1.703428 -0.841670 -2.578408 0.997009 0.029450 -0.071078 0.364089 0.445640
-1.703228 -0.819138 -2.579218 0.993683 -0.071108 -0.086612 0.369796 0.605559
-1.701517 -0.810840 -2.569108 0.984588 -0.110874 -0.135075 0.297648 0.664188
-1.701567 -0.814110 -2.567590 0.986145 -0.092074 -0.137791 0.286889 0.640998
-1.703428 -0.822593 -2.580287 0.997009 -0.042726 -0.063967 0.377427 0.581062
-1.703228 -0.811638 -2.603943 0.993683 -0.107212 0.032502 0.545309 0.658653
-1.701517 -0.799121 -2.607739 0.984588 -0.167211 0.050722 0.571887 0.747148
-1.701567 -0.798971 -2.604138 0.986145 -0.162511 0.032319 0.546336 0.748250
-1.703428 -0.813948 -2.601159 0.997009 -0.075442 0.014985 0.525595 0.642312
-1.703228 -0.827139 -2.619444 0.993683 -0.032502 0.107212 0.655350 0.548507
-1.701517 -0.823342 -2.631960 0.984588 -0.050722 0.167211 0.743827 0.575045
-1.701567 -0.820265 -2.630085 0.986145 -0.063417 0.153111 0.730525 0.596917
-1.703428 -0.826108 -2.615977 0.997009 -0.029450 0.071078 0.630784 0.555887
-1.703228 -0.848640 -2.615167 0.993683 0.071108 0.086612 0.624991 0.395889
-1.701517 -0.856938 -2.625278 0.984588 0.110874 0.135075 0.696390 0.336579
-1.701567 -0.853669 -2.626795 0.986145 0.092074 0.137791 0.707171 0.359789
-1.703428 -0.845185 -2.614098 0.997009 0.042726 0.063967 0.617447 0.420466
-1.703228 -0.857030 -2.594914 0.993683 0.111484 -0.010956 0.481214 0.336454
-1.701517 -0.870046 -2.593632 0.984588 0.173894 -0.017121 0.471739 0.243712
-1.701567 -0.869491 -2.597193 0.986145 0.165716 0.000000 0.497030 0.247639
-1.703428 -0.854221 -2.597193 0.997009 0.076937 0.000000 0.497437 0.356418
-1.703228 -0.844850 -2.576686 0.993683 0.052767 -0.098819 0.351818 0.423032
-1.701517 -0.851016 -2.565151 0.984588 0.082339 -0.154118 0.269558 0.378990
-1.701567 -0.853669 -2.567590 0.986145 0.092044 -0.137791 0.286889 0.360152
-1.703428 -0.845185 -2.580287 0.997009 0.042756 -0.063967 0.377427 0.420673
-1.703228 -0.822928 -2.576686 0.993683 -0.052797 -0.098819 0.351818 0.578667
-1.701517 -0.816762 -2.565151 0.984588 -0.082369 -0.154118 0.269558 0.622170
-1.701567 -0.820265 -2.564301 0.986145 -0.063417 -0.153111 0.263533 0.597320
-1.703428 -0.826108 -2.578408 0.997009 -0.029420 -0.071078 0.364089 0.556117
-1.703228 -0.810749 -2.594914 0.993683 -0.111484 -0.010956 0.481214 0.665021
-1.703428 -0.813557 -2.597193 0.997009 -0.076937 0.000000 0.497437 0.645109
-1.701567 -0.798287 -2.597193 0.986145 -0.165716 0.000000 0.497030 0.753148
-1.701517 -0.797732 -2.593632 0.984588 -0.173894 -0.017121 0.471739 0.757099
-1.701567 -0.798971 -2.590247 0.986145 -0.162542 -0.032319 0.447725 0.748334
-1.703428 -0.813948 -2.593226 0.997009 -0.075442 -0.014985 0.469279 0.642360
-1.703228 -0.810749 -2.599472 0.993683 -0.111484 0.010956 0.513572 0.664994
-1.701517 -0.797732 -2.600754 0.984588 -0.173894 0.017121 0.522299 0.757056
-1.703228 -0.822928 -2.617700 0.993683 -0.052767 0.098819 0.642967 0.578416
-1.701517 -0.816762 -2.629235 0.984588 -0.082339 0.154118 0.724479 0.621778
-1.701567 -0.814109 -2.626795 0.986145 -0.092044 0.137791 0.707171 0.640636
-1.703428 -0.822593 -2.614098 0.997009 -0.042756 0.063967 0.617446 0.580855
-1.703228 -0.844850 -2.617700 0.993683 0.052797 0.098819 0.642967 0.422781
-1.701517 -0.851016 -2.629235 0.984588 0.082369 0.154118 0.724479 0.378598
-1.701567 -0.847513 -2.630085 0.986145 0.063417 0.153111 0.730525 0.403468
-1.703428 -0.841670 -2.615977 0.997009 0.029420 0.071078 0.630784 0.445410
-1.703228 -0.857030 -2.599472 0.993683 0.111515 0.010956 0.513572 0.336426
-1.701517 -0.870046 -2.600754 0.984588 0.173894 0.017121 0.522299 0.243669
-1.701567 -0.868807 -2.604138 0.986145 0.162542 0.032319 0.546336 0.252453
-1.703428 -0.853831 -2.601159 0.997009 0.075442 0.014985 0.525595 0.359167
-1.703228 -0.848640 -2.579218 0.993683 0.071108 -0.086612 0.369796 0.396109
-1.701517 -0.856938 -2.569108 0.984588 0.110874 -0.135075 0.297648 0.336923
-1.701567 -0.859064 -2.572018 0.986145 0.117161 -0.117191 0.318319 0.321823
-1.703428 -0.848266 -2.582816 0.997009 0.054415 -0.054384 0.395377 0.398784
-1.703228 -0.827139 -2.574941 0.993683 -0.032502 -0.107212 0.339435 0.548780
-1.701517 -0.823342 -2.562425 0.984588 -0.050722 -0.167211 0.250210 0.575471
-1.701567 -0.826943 -2.562274 0.986145 -0.032319 -0.162542 0.249152 0.549917
-1.703428 -0.829922 -2.577251 0.997009 -0.014985 -0.075442 0.355876 0.529046
-1.703228 -0.811638 -2.590443 0.993683 -0.107212 -0.032533 0.449478 0.658735
-1.701517 -0.799121 -2.586646 0.984588 -0.167211 -0.050722 0.422151 0.747277
-1.701567 -0.800997 -2.583568 0.986145 -0.153081 -0.063417 0.400313 0.733992
-1.703428 -0.815105 -2.589412 0.997009 -0.071078 -0.029420 0.442203 0.634169
-1.703228 -0.819138 -2.615167 0.993683 -0.071108 0.086612 0.624990 0.605339
-1.701517 -0.810840 -2.625278 0.984588 -0.110874 0.135075 0.696389 0.663844
-1.701567 -0.808714 -2.622367 0.986145 -0.117161 0.117161 0.675739 0.678964
-1.703428 -0.819512 -2.611570 0.997009 -0.054384 0.054384 0.599496 0.602743
-1.703228 -0.840639 -2.619444 0.993683 0.032502 0.107212 0.655350 0.452668
-1.701517 -0.844436 -2.631960 0.984588 0.050722 0.167211 0.743827 0.425296
-1.701567 -0.840835 -2.632111 0.986145 0.032319 0.162542 0.744907 0.450870
-1.703428 -0.837856 -2.617134 0.997009 0.014985 0.075442 0.638997 0.472481
-1.703228 -0.856140 -2.603943 0.993683 0.107212 0.032502 0.545309 0.342712
-1.701517 -0.868657 -2.607739 0.984588 0.167211 0.050722 0.571887 0.253490
-1.701567 -0.866781 -2.610817 0.986145 0.153111 0.063417 0.593747 0.266795
-1.703428 -0.852674 -2.604974 0.997009 0.071078 0.029420 0.552671 0.367358
-1.703228 -0.851864 -2.582442 0.993683 0.086581 -0.071078 0.392677 0.373206
-1.701517 -0.861974 -2.574144 0.984588 0.135044 -0.110843 0.333400 0.301138
-1.703228 -0.831610 -2.574052 0.993683 -0.010956 -0.111515 0.333122 0.517046
-1.701517 -0.830328 -2.561036 0.984588 -0.017121 -0.173894 0.240346 0.525887
-1.703228 -0.813382 -2.586232 0.993683 -0.098819 -0.052797 0.419582 0.646377
-1.701517 -0.801847 -2.580066 0.984588 -0.154118 -0.082369 0.375439 0.727967
-1.703228 -0.815915 -2.611944 0.993683 -0.086612 0.071078 0.602109 0.628240
-1.701517 -0.805804 -2.620242 0.984588 -0.135075 0.110843 0.660637 0.699629
-1.703228 -0.836168 -2.620333 0.993683 0.010956 0.111515 0.661663 0.484402
-1.701517 -0.837450 -2.633350 0.984588 0.017121 0.173894 0.753691 0.474880
-1.703228 -0.854396 -2.608154 0.993683 0.098819 0.052797 0.575204 0.355070
-1.701517 -0.865931 -2.614320 0.984588 0.154118 0.082369 0.618599 0.272800
-1.697987 -0.880030 -2.572530 0.969726 0.215278 -0.115055 0.321172 0.172264
-1.697987 -0.877391 -2.568126 0.969604 0.203406 -0.135899 0.289908 0.191026
-1.694258 -0.888266 -2.560859 0.926511 0.312845 -0.209021 0.237508 0.113121
-1.694258 -0.891565 -2.566365 0.926511 0.331828 -0.177343 0.276588 0.089668
-1.694258 -0.894309 -2.572166 0.926481 0.347606 -0.143986 0.317771 0.070147
-1.697987 -0.882225 -2.577171 0.969604 0.226020 -0.093600 0.354119 0.156647
-1.697987 -0.839017 -2.545126 0.969726 0.023927 -0.242897 0.126639 0.463595
-1.697987 -0.833889 -2.544874 0.969604 0.000000 -0.244636 0.124846 0.500003
-1.694258 -0.833889 -2.531794 0.926511 0.000000 -0.376232 0.031181 0.499342
-1.694258 -0.840299 -2.532110 0.926511 0.036866 -0.374432 0.033422 0.453832
-1.694258 -0.846648 -2.533051 0.926511 0.073397 -0.369030 0.040101 0.408755
-1.697987 -0.844096 -2.545879 0.969604 0.047731 -0.239937 0.131983 0.427534
-1.697987 -0.793447 -2.564003 0.969726 -0.188665 -0.154851 0.260636 0.787002
-1.697987 -0.790388 -2.568126 0.969604 -0.203406 -0.135899 0.289908 0.808694
-1.694258 -0.779512 -2.560859 0.926511 -0.312845 -0.209021 0.220158 0.910816
-1.694258 -0.783336 -2.555705 0.926511 -0.290811 -0.238685 0.181128 0.881893
-1.694258 -0.787645 -2.550949 0.926511 -0.266030 -0.266030 0.152764 0.858630
-1.697987 -0.796894 -2.560198 0.969604 -0.172979 -0.172979 0.233627 0.762550
-1.697987 -0.787749 -2.621855 0.969726 -0.215247 0.115055 0.671322 0.827100
-1.697987 -0.790388 -2.626259 0.969604 -0.203406 0.135899 0.702586 0.808337
-1.694258 -0.779512 -2.633526 0.926511 -0.312815 0.209021 0.770395 0.910341
-1.694258 -0.776213 -2.628021 0.926511 -0.331828 0.177343 0.728709 0.935358
-1.694258 -0.773469 -2.622220 0.926511 -0.347606 0.143986 0.684781 0.956181
-1.697987 -0.785553 -2.617214 0.969604 -0.226020 0.093600 0.638376 0.842718
-1.697987 -0.828761 -2.649259 0.969726 -0.023927 0.242897 0.865856 0.535770
-1.697987 -0.833889 -2.649512 0.969604 0.000000 0.244636 0.867648 0.499362
-1.694258 -0.833889 -2.662591 0.926511 0.000000 0.376232 0.990479 0.498373
-1.694258 -0.827479 -2.662276 0.926511 -0.036866 0.374432 0.988089 0.546917
-1.694258 -0.821130 -2.661335 0.926511 -0.073397 0.369030 0.980964 0.594998
-1.697987 -0.823682 -2.648506 0.969604 -0.047731 0.239937 0.860512 0.571830
-1.697987 -0.874331 -2.630383 0.969726 0.188665 0.154851 0.731859 0.212362
-1.697987 -0.877391 -2.626260 0.969604 0.203406 0.135899 0.702587 0.190670
-1.694258 -0.888266 -2.633526 0.926511 0.312815 0.209021 0.753356 0.112676
-1.694258 -0.884442 -2.638681 0.926511 0.290841 0.238685 0.789946 0.139790
-1.694258 -0.880133 -2.643436 0.926511 0.266030 0.266060 0.854774 0.155957
-1.697987 -0.870884 -2.634188 0.969604 0.172979 0.172979 0.758868 0.236814
-1.697987 -0.883954 -2.582006 0.969726 0.233589 -0.070833 0.388437 0.144342
-1.694258 -0.896471 -2.578209 0.926511 0.360027 -0.109195 0.360669 0.054765
-1.694258 -0.898031 -2.584434 0.926511 0.368999 -0.073397 0.404861 0.043651
-1.697987 -0.885203 -2.586986 0.969604 0.239937 -0.047731 0.423791 0.135450
-1.697987 -0.849076 -2.547127 0.969726 0.070833 -0.233589 0.140843 0.392169
-1.694258 -0.852873 -2.534611 0.926511 0.109195 -0.360027 0.051177 0.364549
-1.694258 -0.858916 -2.536772 0.926511 0.143956 -0.347606 0.066520 0.321635
-1.697987 -0.853911 -2.548856 0.969604 0.093600 -0.226020 0.153117 0.357837
-1.697987 -0.800699 -2.556750 0.969726 -0.154851 -0.188665 0.209153 0.735561
-1.694258 -0.792401 -2.546640 0.926511 -0.238685 -0.290841 0.136565 0.793789
-1.694258 -0.797556 -2.542816 0.926481 -0.209021 -0.312845 0.109421 0.757219
-1.697987 -0.804822 -2.553691 0.969604 -0.135899 -0.203406 0.187439 0.706305
-1.697987 -0.783824 -2.612380 0.969726 -0.233589 0.070833 0.604058 0.855023
-1.694258 -0.771307 -2.616177 0.926511 -0.360027 0.109195 0.639024 0.972588
-1.694258 -0.769747 -2.609951 0.926511 -0.369030 0.073397 0.591886 0.984443
-1.697987 -0.782576 -2.607399 0.969604 -0.239937 0.047700 0.568704 0.863914
-1.697987 -0.818702 -2.647258 0.969726 -0.070833 0.233589 0.851652 0.607195
-1.694258 -0.814905 -2.659774 0.926511 -0.109195 0.360027 0.969150 0.642151
-1.694258 -0.808862 -2.657613 0.926511 -0.143986 0.347606 0.952783 0.687926
-1.697987 -0.813868 -2.645529 0.969604 -0.093600 0.226020 0.839377 0.641527
-1.697987 -0.867079 -2.637635 0.969726 0.154851 0.188665 0.783341 0.263804
-1.694258 -0.875377 -2.647746 0.926511 0.238685 0.290841 0.878068 0.184295
-1.694258 -0.870222 -2.651570 0.926511 0.209021 0.312845 0.907022 0.223303
-1.697987 -0.862956 -2.640694 0.969604 0.135899 0.203406 0.805056 0.293060
-1.697987 -0.885955 -2.592065 0.969726 0.242927 -0.023927 0.459845 0.130075
-1.694258 -0.898972 -2.590783 0.926511 0.374432 -0.036866 0.449928 0.036932
-1.694258 -0.899287 -2.597193 0.926511 0.376232 0.000000 0.495432 0.034651
-1.697987 -0.886208 -2.597193 0.969604 0.244636 0.000000 0.496248 0.128251
-1.697987 -0.858552 -2.551052 0.969726 0.115055 -0.215278 0.168705 0.324875
-1.694258 -0.864717 -2.539517 0.926511 0.177343 -0.331828 0.086004 0.280432
-1.694258 -0.870222 -2.542816 0.926511 0.209021 -0.312845 0.109421 0.241329
-1.697987 -0.862956 -2.553691 0.969604 0.135899 -0.203406 0.187439 0.293593
-1.697987 -0.809226 -2.551052 0.969726 -0.115055 -0.215278 0.168704 0.675054
-1.694258 -0.803061 -2.539517 0.926511 -0.177343 -0.331828 0.086004 0.718156
-1.694258 -0.808862 -2.536772 0.926511 -0.143956 -0.347606 0.066520 0.676987
-1.697987 -0.813868 -2.548856 0.969604 -0.093631 -0.226020 0.153117 0.642119
-1.697987 -0.781823 -2.592065 0.969726 -0.242927 -0.023896 0.459845 0.869352
-1.697987 -0.781570 -2.597193 0.969604 -0.244636 0.000000 0.496248 0.871114
-1.694258 -0.768491 -2.597193 0.926511 -0.376263 0.000000 0.495277 0.994042
-1.694258 -0.768806 -2.590783 0.926511 -0.374432 -0.036866 0.446740 0.991694
-1.694258 -0.769747 -2.584434 0.926511 -0.368999 -0.073397 0.398668 0.984610
-1.697987 -0.782576 -2.586986 0.969604 -0.239937 -0.047700 0.423791 0.864039
-1.697987 -0.781823 -2.602321 0.969726 -0.242927 0.023927 0.532651 0.869290
-1.694258 -0.768806 -2.603603 0.926511 -0.374432 0.036866 0.543815 0.991610
-1.697987 -0.809226 -2.643333 0.969726 -0.115055 0.215278 0.823790 0.674489
-1.694258 -0.803061 -2.654868 0.926511 -0.177343 0.331828 0.932001 0.731876
-1.694258 -0.797556 -2.651570 0.926511 -0.209021 0.312845 0.907022 0.773586
-1.697987 -0.804822 -2.640694 0.969604 -0.135899 0.203406 0.805056 0.705772
-1.697987 -0.858552 -2.643333 0.969726 0.115055 0.215278 0.823790 0.324310
-1.694258 -0.864717 -2.654868 0.926511 0.177343 0.331828 0.932001 0.264971
-1.694258 -0.858916 -2.657613 0.926511 0.143986 0.347606 0.952783 0.308885
-1.697987 -0.853911 -2.645529 0.969604 0.093631 0.226020 0.839377 0.357246
-1.697987 -0.885955 -2.602321 0.969726 0.242927 0.023927 0.532651 0.130012
-1.694258 -0.898972 -2.603603 0.926511 0.374432 0.036866 0.540936 0.036853
-1.694258 -0.898031 -2.609951 0.926511 0.369030 0.073397 0.586003 0.043494
-1.697987 -0.885203 -2.607400 0.969604 0.239937 0.047700 0.568704 0.135325
-1.697987 -0.867079 -2.556750 0.969726 0.154851 -0.188665 0.209153 0.264299
-1.694258 -0.875377 -2.546640 0.926511 0.238685 -0.290841 0.136565 0.204712
-1.694258 -0.880133 -2.550949 0.926511 0.266030 -0.266030 0.167156 0.170923
-1.697987 -0.870884 -2.560198 0.969604 0.172979 -0.172979 0.233627 0.237267
-1.697987 -0.818702 -2.547127 0.969726 -0.070864 -0.233589 0.140843 0.607808
-1.694258 -0.814905 -2.534611 0.926511 -0.109195 -0.360027 0.051177 0.634098
-1.694258 -0.821130 -2.533051 0.926511 -0.073397 -0.369030 0.040101 0.589912
-1.697987 -0.823682 -2.545879 0.969604 -0.047731 -0.239937 0.131983 0.572459
-1.697987 -0.783824 -2.582006 0.969726 -0.233589 -0.070833 0.388437 0.855209
-1.694258 -0.771307 -2.578209 0.926511 -0.360027 -0.109195 0.351530 0.972836
-1.694258 -0.773469 -2.572166 0.926481 -0.347606 -0.143986 0.305772 0.956508
-1.697987 -0.785553 -2.577171 0.969604 -0.226020 -0.093600 0.354119 0.842963
-1.697987 -0.800699 -2.637635 0.969726 -0.154851 0.188665 0.783341 0.735065
-1.694258 -0.792401 -2.647746 0.926511 -0.238685 0.290841 0.878068 0.812644
-1.694258 -0.787645 -2.643436 0.926511 -0.266030 0.266030 0.845437 0.848686
-1.697987 -0.796894 -2.634188 0.969604 -0.172979 0.172979 0.758867 0.762097
-1.697987 -0.849076 -2.647258 0.969726 0.070833 0.233589 0.851652 0.391556
-1.694258 -0.852873 -2.659775 0.926511 0.109195 0.360027 0.969150 0.354632
-1.694258 -0.846648 -2.661335 0.926511 0.073366 0.369030 0.980964 0.401764
-1.697987 -0.844096 -2.648506 0.969604 0.047700 0.239937 0.860512 0.426906
-1.697987 -0.883954 -2.612380 0.969726 0.233558 0.070833 0.604058 0.144156
-1.694258 -0.896471 -2.616177 0.926511 0.360027 0.109195 0.630196 0.054532
-1.694258 -0.894309 -2.622220 0.926481 0.347606 0.143986 0.673094 0.069840
-1.697987 -0.882225 -2.617214 0.969604 0.226020 0.093600 0.638377 0.156402
-1.697987 -0.874332 -2.564003 0.969726 0.188665 -0.154851 0.260636 0.212769
-1.694258 -0.884442 -2.555705 0.926511 0.290841 -0.238685 0.200917 0.140299
-1.697987 -0.828761 -2.545126 0.969726 -0.023896 -0.242927 0.126639 0.536407
-1.694258 -0.827479 -2.532110 0.926511 -0.036866 -0.374432 0.033422 0.544847
-1.697987 -0.787749 -2.572530 0.969726 -0.215278 -0.115055 0.321172 0.827403
-1.694258 -0.776213 -2.566365 0.926511 -0.331828 -0.177343 0.261843 0.935761
-1.697987 -0.793447 -2.630383 0.969726 -0.188665 0.154851 0.731858 0.786595
-1.694258 -0.783336 -2.638680 0.926511 -0.290841 0.238685 0.809425 0.881351
-1.697987 -0.839017 -2.649259 0.969726 0.023896 0.242927 0.865856 0.462957
-1.694258 -0.840299 -2.662276 0.926511 0.036866 0.374432 0.988089 0.449834
-1.697987 -0.880029 -2.621855 0.969726 0.215278 0.115055 0.671323 0.171962
-1.694258 -0.891565 -2.628021 0.926511 0.331797 0.177343 0.714276 0.089290
-1.685711 -0.895410 -2.564309 0.000000 0.881893 -0.471389 0.260129 0.060685
-1.685711 -0.898337 -2.570498 0.000000 0.923856 -0.382672 0.304057 0.039862
-1.689585 -0.898337 -2.570498 0.000000 0.923856 -0.382672 0.304904 0.040632
-1.689585 -0.895410 -2.564309 0.000000 0.881893 -0.471389 0.260976 0.061454
-1.689585 -0.891891 -2.558437 0.000000 0.831446 -0.555559 0.219290 0.086471
-1.685711 -0.891891 -2.558437 0.000000 0.831446 -0.555559 0.218443 0.085701
-1.681080 -0.891891 -2.558437 0.000000 0.831446 -0.555559 0.217431 0.084781
-1.681080 -0.895410 -2.564309 0.000000 0.881924 -0.471389 0.259116 0.059764
-1.681080 -0.898337 -2.570498 0.000000 0.923856 -0.382672 0.303044 0.038942
-1.685711 -0.840726 -2.527771 0.000000 0.097995 -0.995178 0.000751 0.449126
-1.685711 -0.847498 -2.528775 0.000000 0.195074 -0.980773 0.007876 0.401044
-1.689585 -0.847498 -2.528775 0.000000 0.195074 -0.980773 0.008724 0.401814
-1.689585 -0.840726 -2.527771 0.000000 0.097995 -0.995178 0.001599 0.449896
-1.689585 -0.833889 -2.527434 0.000000 0.000000 -1.000000 -0.000792 0.498439
-1.685711 -0.833889 -2.527434 0.000000 0.000000 -0.999969 -0.001639 0.497669
-1.681080 -0.833889 -2.527434 0.000000 0.000000 -0.999969 -0.002652 0.496749
-1.681080 -0.840726 -2.527771 0.000000 0.097995 -0.995178 -0.000261 0.448205
-1.681080 -0.847498 -2.528775 0.000000 0.195074 -0.980773 0.006864 0.400124
-1.685711 -0.779966 -2.552939 0.000000 -0.773003 -0.634388 0.179413 0.880336
-1.685711 -0.784562 -2.547866 0.000000 -0.707114 -0.707083 0.141711 0.849424
-1.689585 -0.784562 -2.547866 0.000000 -0.707114 -0.707083 0.142559 0.850194
-1.689585 -0.779966 -2.552939 0.000000 -0.773003 -0.634358 0.180261 0.881105
-1.689585 -0.775887 -2.558437 0.000000 -0.831446 -0.555559 0.219290 0.910028
-1.685711 -0.775887 -2.558437 0.000000 -0.831446 -0.555559 0.218443 0.909258
-1.681080 -0.775887 -2.558437 0.000000 -0.831446 -0.555559 0.217431 0.908338
-1.681080 -0.779966 -2.552939 0.000000 -0.773003 -0.634388 0.178401 0.879416
-1.681080 -0.784562 -2.547866 0.000000 -0.707083 -0.707083 0.140699 0.848505
-1.685711 -0.772368 -2.630076 0.000000 -0.881924 0.471389 0.726995 0.933801
-1.685711 -0.769441 -2.623888 0.000000 -0.923856 0.382672 0.683067 0.954623
-1.689585 -0.769441 -2.623888 0.000000 -0.923856 0.382672 0.683914 0.955393
-1.689585 -0.772368 -2.630076 0.000000 -0.881893 0.471389 0.727842 0.934571
-1.689585 -0.775887 -2.635948 0.000000 -0.831446 0.555559 0.769527 0.909554
-1.685711 -0.775887 -2.635948 0.000000 -0.831446 0.555559 0.768680 0.908784
-1.681080 -0.775887 -2.635948 0.000000 -0.831446 0.555559 0.767668 0.907863
-1.681080 -0.772368 -2.630076 0.000000 -0.881924 0.471389 0.725982 0.932880
-1.681080 -0.769441 -2.623888 0.000000 -0.923856 0.382672 0.682054 0.953703
-1.685711 -0.827052 -2.666614 0.000000 -0.097995 0.995178 0.986374 0.545359
-1.685711 -0.820280 -2.665611 0.000000 -0.195074 0.980773 0.979249 0.593440
-1.689585 -0.820280 -2.665611 0.000000 -0.195074 0.980773 0.980096 0.594210
-1.689585 -0.827052 -2.666614 0.000000 -0.097995 0.995178 0.987221 0.546129
-1.689585 -0.833889 -2.666951 0.000000 0.000000 1.000000 0.989611 0.497585
-1.685711 -0.833889 -2.666951 0.000000 0.000000 0.999969 0.988764 0.496815
-1.681080 -0.833889 -2.666951 0.000000 0.000000 0.999969 0.987751 0.495895
-1.681080 -0.827052 -2.666614 0.000000 -0.097995 0.995178 0.985361 0.544439
-1.681080 -0.820280 -2.665611 0.000000 -0.195074 0.980773 0.978236 0.592520
-1.685711 -0.887812 -2.641447 0.000000 0.773003 0.634388 0.807711 0.114149
-1.685711 -0.883216 -2.646519 0.000000 0.707083 0.707083 0.845412 0.145060
-1.689585 -0.883216 -2.646519 0.000000 0.707083 0.707083 0.846259 0.145830
-1.689585 -0.887812 -2.641447 0.000000 0.773003 0.634358 0.808558 0.114919
-1.689585 -0.891891 -2.635948 0.000000 0.831446 0.555559 0.769529 0.085996
-1.685711 -0.891891 -2.635948 0.000000 0.831446 0.555559 0.768682 0.085226
-1.681080 -0.891891 -2.635948 0.000000 0.831446 0.555559 0.767669 0.084306
-1.681080 -0.887812 -2.641447 0.000000 0.773003 0.634388 0.806698 0.113228
-1.681080 -0.883216 -2.646519 0.000000 0.707083 0.707083 0.844399 0.144139
-1.685711 -0.900643 -2.576943 0.000000 0.956938 -0.290262 0.349815 0.023454
-1.685711 -0.902307 -2.583584 0.000000 0.980773 -0.195074 0.396954 0.011599
-1.689585 -0.902307 -2.583584 0.000000 0.980773 -0.195074 0.397801 0.012369
-1.689585 -0.900643 -2.576943 0.000000 0.956938 -0.290262 0.350662 0.024224
-1.681080 -0.900643 -2.576943 0.000000 0.956938 -0.290262 0.348802 0.022534
-1.681080 -0.902307 -2.583584 0.000000 0.980773 -0.195074 0.395941 0.010679
-1.685711 -0.854139 -2.530439 0.000000 0.290262 -0.956938 0.019690 0.353891
-1.685711 -0.860584 -2.532744 0.000000 0.382672 -0.923856 0.036057 0.308116
-1.689585 -0.860584 -2.532744 0.000000 0.382672 -0.923856 0.036904 0.308886
-1.689585 -0.854139 -2.530439 0.000000 0.290262 -0.956938 0.020538 0.354661
-1.681080 -0.854139 -2.530439 0.000000 0.290262 -0.956938 0.018678 0.352971
-1.681080 -0.860584 -2.532744 0.000000 0.382672 -0.923856 0.035044 0.307196
-1.685711 -0.789635 -2.543269 0.000000 -0.634388 -0.773003 0.110771 0.811747
-1.685711 -0.795133 -2.539191 0.000000 -0.555559 -0.831446 0.081818 0.772739
-1.689585 -0.795133 -2.539191 0.000000 -0.555559 -0.831446 0.082665 0.773509
-1.689585 -0.789635 -2.543269 0.000000 -0.634388 -0.773003 0.111618 0.812517
-1.681080 -0.789635 -2.543269 0.000000 -0.634388 -0.773003 0.109758 0.810827
-1.681080 -0.795133 -2.539191 0.000000 -0.555559 -0.831446 0.080805 0.771819
-1.685711 -0.767135 -2.617442 0.000000 -0.956938 0.290262 0.637309 0.971030
-1.685711 -0.765471 -2.610802 0.000000 -0.980773 0.195074 0.590171 0.982885
-1.689585 -0.765471 -2.610802 0.000000 -0.980773 0.195074 0.591019 0.983655
-1.689585 -0.767135 -2.617442 0.000000 -0.956938 0.290262 0.638157 0.971800
-1.681080 -0.767135 -2.617442 0.000000 -0.956938 0.290262 0.636297 0.970110
-1.681080 -0.765471 -2.610802 0.000000 -0.980773 0.195074 0.589159 0.981965
-1.685711 -0.813639 -2.663947 0.000000 -0.290262 0.956938 0.967435 0.640593
-1.685711 -0.807194 -2.661641 0.000000 -0.382672 0.923856 0.951068 0.686369
-1.689585 -0.807194 -2.661641 0.000000 -0.382672 0.923856 0.951916 0.687139
-1.689585 -0.813639 -2.663947 0.000000 -0.290262 0.956938 0.968282 0.641363
-1.681080 -0.813639 -2.663947 0.000000 -0.290262 0.956938 0.966422 0.639673
-1.681080 -0.807194 -2.661641 0.000000 -0.382672 0.923856 0.950056 0.685448
-1.685711 -0.878143 -2.651116 0.000000 0.634388 0.773003 0.876354 0.182738
-1.685711 -0.872645 -2.655195 0.000000 0.555559 0.831446 0.905307 0.221745
-1.689585 -0.872645 -2.655195 0.000000 0.555559 0.831446 0.906155 0.222515
-1.689585 -0.878143 -2.651116 0.000000 0.634388 0.773003 0.877201 0.183508
-1.681080 -0.878143 -2.651116 0.000000 0.634388 0.773003 0.875341 0.181817
-1.681080 -0.872645 -2.655195 0.000000 0.555559 0.831446 0.904295 0.220825
-1.685711 -0.903311 -2.590355 0.000000 0.995178 -0.097995 0.445025 0.004432
-1.685711 -0.903647 -2.597193 0.000000 1.000000 0.000000 0.493563 0.002000
-1.689585 -0.903647 -2.597193 0.000000 1.000000 0.000000 0.494410 0.002770
-1.689585 -0.903311 -2.590355 0.000000 0.995178 -0.097995 0.445872 0.005202
-1.681080 -0.903311 -2.590355 0.000000 0.995178 -0.097995 0.444012 0.003512
-1.681080 -0.903647 -2.597193 0.000000 0.999969 0.000000 0.492550 0.001080
-1.685711 -0.866773 -2.535672 0.000000 0.471389 -0.881893 0.056840 0.264166
-1.685711 -0.872645 -2.539191 0.000000 0.555559 -0.831446 0.081818 0.222456
-1.689585 -0.872645 -2.539191 0.000000 0.555559 -0.831446 0.082665 0.223226
-1.689585 -0.866773 -2.535672 0.000000 0.471389 -0.881893 0.057687 0.264936
-1.681080 -0.866773 -2.535672 0.000000 0.471389 -0.881893 0.055827 0.263246
-1.681080 -0.872645 -2.539191 0.000000 0.555559 -0.831446 0.080805 0.221536
-1.685711 -0.801006 -2.535672 0.000000 -0.471389 -0.881893 0.056840 0.731072
-1.685711 -0.807194 -2.532744 0.000000 -0.382672 -0.923856 0.036057 0.687158
-1.689585 -0.807194 -2.532744 0.000000 -0.382672 -0.923856 0.036904 0.687928
-1.689585 -0.801006 -2.535672 0.000000 -0.471389 -0.881893 0.057687 0.731842
-1.681080 -0.801006 -2.535672 0.000000 -0.471389 -0.881893 0.055827 0.730152
-1.681080 -0.807194 -2.532744 0.000000 -0.382672 -0.923856 0.035044 0.686238
-1.685711 -0.764467 -2.590355 0.000000 -0.995178 -0.097995 0.445025 0.990135
-1.685711 -0.765471 -2.583584 0.000000 -0.980773 -0.195074 0.396954 0.983051
-1.689585 -0.765471 -2.583584 0.000000 -0.980773 -0.195074 0.397801 0.983822
-1.689585 -0.764467 -2.590355 0.000000 -0.995178 -0.097995 0.445872 0.990906
-1.689585 -0.764131 -2.597193 0.000000 -1.000000 0.000000 0.494410 0.993254
-1.685711 -0.764131 -2.597193 0.000000 -1.000000 0.000000 0.493563 0.992484
-1.681080 -0.764131 -2.597193 0.000000 -1.000000 0.000000 0.492550 0.991563
-1.681080 -0.764467 -2.590355 0.000000 -0.995178 -0.097995 0.444012 0.989215
-1.681080 -0.765471 -2.583584 0.000000 -0.980773 -0.195074 0.395941 0.982131
-1.685711 -0.764467 -2.604030 0.000000 -0.995178 0.097995 0.542100 0.990052
-1.689585 -0.764467 -2.604030 0.000000 -0.995178 0.097995 0.542948 0.990822
-1.681080 -0.764467 -2.604030 0.000000 -0.995178 0.097995 0.541088 0.989132
-1.685711 -0.801006 -2.658713 0.000000 -0.471389 0.881893 0.930286 0.730318
-1.685711 -0.795133 -2.655195 0.000000 -0.555559 0.831446 0.905307 0.772029
-1.689585 -0.795133 -2.655195 0.000000 -0.555559 0.831446 0.906155 0.772799
-1.689585 -0.801006 -2.658713 0.000000 -0.471389 0.881893 0.931133 0.731088
-1.681080 -0.801006 -2.658713 0.000000 -0.471389 0.881893 0.929273 0.729398
-1.681080 -0.795133 -2.655195 0.000000 -0.555559 0.831446 0.904295 0.771108
-1.685711 -0.866772 -2.658713 0.000000 0.471389 0.881893 0.930286 0.263413
-1.685711 -0.860584 -2.661641 0.000000 0.382672 0.923856 0.951068 0.307327
-1.689585 -0.860584 -2.661641 0.000000 0.382672 0.923856 0.951916 0.308097
-1.689585 -0.866772 -2.658713 0.000000 0.471389 0.881893 0.931133 0.264183
-1.681080 -0.866772 -2.658713 0.000000 0.471389 0.881893 0.929273 0.262492
-1.681080 -0.860584 -2.661641 0.000000 0.382672 0.923856 0.950056 0.306406
-1.685711 -0.903311 -2.604030 0.000000 0.995178 0.097995 0.542100 0.004349
-1.685711 -0.902307 -2.610802 0.000000 0.980773 0.195074 0.590172 0.011432
-1.689585 -0.902307 -2.610802 0.000000 0.980773 0.195074 0.591019 0.012202
-1.689585 -0.903311 -2.604030 0.000000 0.995178 0.097995 0.542948 0.005118
-1.681080 -0.903311 -2.604030 0.000000 0.995178 0.097995 0.541088 0.003428
-1.681080 -0.902307 -2.610802 0.000000 0.980773 0.195074 0.589159 0.010512
-1.685711 -0.878143 -2.543269 0.000000 0.634388 -0.773003 0.110771 0.183398
-1.685711 -0.883216 -2.547866 0.000000 0.707114 -0.707083 0.143402 0.147356
-1.689585 -0.883216 -2.547866 0.000000 0.707114 -0.707083 0.144249 0.148126
-1.689585 -0.878143 -2.543269 0.000000 0.634388 -0.773003 0.111618 0.184168
-1.681080 -0.878143 -2.543269 0.000000 0.634388 -0.773003 0.109758 0.182478
-1.681080 -0.883216 -2.547866 0.000000 0.707083 -0.707083 0.142389 0.146435
-1.685711 -0.813640 -2.530439 0.000000 -0.290262 -0.956938 0.019690 0.641410
-1.685711 -0.820280 -2.528775 0.000000 -0.195074 -0.980773 0.007876 0.594278
-1.689585 -0.820280 -2.528775 0.000000 -0.195074 -0.980773 0.008724 0.595048
-1.689585 -0.813640 -2.530439 0.000000 -0.290262 -0.956938 0.020538 0.642180
-1.681080 -0.813640 -2.530439 0.000000 -0.290262 -0.956938 0.018678 0.640490
-1.681080 -0.820280 -2.528775 0.000000 -0.195074 -0.980773 0.006864 0.593358
-1.685711 -0.767135 -2.576943 0.000000 -0.956938 -0.290262 0.349815 0.971278
-1.685711 -0.769441 -2.570498 0.000000 -0.923856 -0.382672 0.304057 0.954950
-1.689585 -0.769441 -2.570498 0.000000 -0.923856 -0.382672 0.304904 0.955719
-1.689585 -0.767135 -2.576943 0.000000 -0.956938 -0.290262 0.350662 0.972048
-1.681080 -0.767135 -2.576943 0.000000 -0.956938 -0.290262 0.348802 0.970357
-1.681080 -0.769441 -2.570498 0.000000 -0.923856 -0.382672 0.303044 0.954029
-1.685711 -0.789635 -2.651116 0.000000 -0.634388 0.773003 0.876354 0.811087
-1.685711 -0.784562 -2.646519 0.000000 -0.707083 0.707083 0.843722 0.847129
-1.689585 -0.784562 -2.646519 0.000000 -0.707083 0.707083 0.844569 0.847899
-1.689585 -0.789635 -2.651116 0.000000 -0.634388 0.773003 0.877201 0.811857
-1.681080 -0.789635 -2.651116 0.000000 -0.634388 0.773003 0.875341 0.810166
-1.681080 -0.784562 -2.646519 0.000000 -0.707083 0.707083 0.842709 0.846209
-1.685711 -0.854139 -2.663947 0.000000 0.290262 0.956938 0.967435 0.353074
-1.685711 -0.847498 -2.665611 0.000000 0.195074 0.980773 0.979249 0.400207
-1.689585 -0.847498 -2.665611 0.000000 0.195074 0.980773 0.980096 0.400977
-1.689585 -0.854139 -2.663947 0.000000 0.290262 0.956938 0.968282 0.353844
-1.681080 -0.854139 -2.663947 0.000000 0.290262 0.956938 0.966422 0.352154
-1.681080 -0.847498 -2.665611 0.000000 0.195074 0.980773 0.978236 0.399287
-1.685711 -0.900643 -2.617442 0.000000 0.956938 0.290262 0.637311 0.023206
-1.685711 -0.898337 -2.623888 0.000000 0.923856 0.382672 0.683068 0.039535
-1.689585 -0.898337 -2.623888 0.000000 0.923856 0.382672 0.683915 0.040305
-1.689585 -0.900643 -2.617442 0.000000 0.956938 0.290262 0.638158 0.023976
-1.681080 -0.900643 -2.617442 0.000000 0.956938 0.290262 0.636298 0.022286
-1.681080 -0.898337 -2.623888 0.000000 0.923856 0.382672 0.682056 0.038614
-1.685711 -0.887812 -2.552939 0.000000 0.773003 -0.634388 0.179413 0.114691
-1.689585 -0.887812 -2.552939 0.000000 0.773003 -0.634358 0.180261 0.115461
-1.681080 -0.887812 -2.552939 0.000000 0.773003 -0.634388 0.178401 0.113770
-1.685711 -0.827052 -2.527771 0.000000 -0.097995 -0.995178 0.000751 0.546209
-1.689585 -0.827052 -2.527771 0.000000 -0.097995 -0.995178 0.001599 0.546979
-1.681080 -0.827052 -2.527771 0.000000 -0.097995 -0.995178 -0.000261 0.545289
-1.685711 -0.772368 -2.564309 0.000000 -0.881893 -0.471389 0.260129 0.934203
-1.689585 -0.772368 -2.564309 0.000000 -0.881893 -0.471389 0.260976 0.934973
-1.681080 -0.772368 -2.564309 0.000000 -0.881893 -0.471389 0.259116 0.933283
-1.685711 -0.779966 -2.641446 0.000000 -0.772973 0.634388 0.807710 0.879794
-1.689585 -0.779966 -2.641446 0.000000 -0.773003 0.634388 0.808557 0.880564
-1.681080 -0.779966 -2.641446 0.000000 -0.773003 0.634388 0.806697 0.878874
-1.685711 -0.840726 -2.666614 0.000000 0.097995 0.995178 0.986374 0.448276
-1.689585 -0.840726 -2.666614 0.000000 0.097995 0.995178 0.987221 0.449046
-1.681080 -0.840726 -2.666614 0.000000 0.097995 0.995178 0.985361 0.447356
-1.685711 -0.895410 -2.630076 0.000000 0.881893 0.471389 0.726997 0.060282
-1.689585 -0.895410 -2.630076 0.000000 0.881893 0.471389 0.727844 0.061051
-1.681080 -0.895410 -2.630076 0.000000 0.881893 0.471389 0.725984 0.059361
-1.691945 -0.895410 -2.564309 0.508499 0.759362 -0.405896 0.261492 0.061924
-1.691945 -0.898337 -2.570498 0.508469 0.795526 -0.329508 0.305421 0.041101
-1.691945 -0.891891 -2.558437 0.508469 0.715934 -0.478378 0.219807 0.086940
-1.691945 -0.840726 -2.527771 0.508499 0.084384 -0.856899 0.002115 0.450365
-1.691945 -0.847498 -2.528775 0.508469 0.167943 -0.844508 0.009240 0.402283
-1.691945 -0.833889 -2.527434 0.508469 0.000000 -0.861049 -0.000275 0.498909
-1.691945 -0.779966 -2.552939 0.508499 -0.665578 -0.546220 0.180777 0.881575
-1.691945 -0.784562 -2.547866 0.508469 -0.608844 -0.608844 0.143075 0.850663
-1.694258 -0.787645 -2.550949 0.926511 -0.266030 -0.266030 0.143426 0.850982
-1.691945 -0.775887 -2.558437 0.508469 -0.715934 -0.478378 0.219807 0.910497
-1.691945 -0.772368 -2.630076 0.508499 -0.759362 0.405896 0.728358 0.935040
-1.691945 -0.769441 -2.623888 0.508469 -0.795526 0.329508 0.684430 0.955862
-1.691945 -0.775887 -2.635948 0.508469 -0.715934 0.478378 0.770044 0.910022
-1.691945 -0.827052 -2.666614 0.508499 -0.084384 0.856899 0.987738 0.546598
-1.691945 -0.820280 -2.665611 0.508469 -0.167943 0.844508 0.980613 0.594679
-1.691945 -0.833889 -2.666951 0.508469 0.000000 0.861049 0.990128 0.498054
-1.691945 -0.887812 -2.641447 0.508499 0.665609 0.546220 0.809075 0.115388
-1.691945 -0.883216 -2.646519 0.508469 0.608844 0.608844 0.846776 0.146299
-1.691945 -0.891891 -2.635948 0.508469 0.715934 0.478378 0.770046 0.086465
-1.691945 -0.900643 -2.576943 0.508499 0.823969 -0.249947 0.351179 0.024694
-1.691945 -0.902307 -2.583584 0.508469 0.844508 -0.167974 0.398317 0.012838
-1.691945 -0.854139 -2.530439 0.508499 0.249916 -0.823969 0.021054 0.355130
-1.691945 -0.860584 -2.532744 0.508469 0.329508 -0.795495 0.037420 0.309355
-1.691945 -0.789635 -2.543269 0.508499 -0.546251 -0.665578 0.112135 0.812986
-1.691945 -0.795133 -2.539191 0.508438 -0.478378 -0.715964 0.083181 0.773978
-1.691945 -0.767135 -2.617442 0.508499 -0.823969 0.249947 0.638673 0.972269
-1.691945 -0.765471 -2.610802 0.508469 -0.844508 0.167974 0.591535 0.984124
-1.691945 -0.813639 -2.663947 0.508499 -0.249916 0.823969 0.968799 0.641832
-1.691945 -0.807194 -2.661641 0.508469 -0.329508 0.795495 0.952432 0.687608
-1.691945 -0.878143 -2.651116 0.508499 0.546220 0.665578 0.877717 0.183977
-1.691945 -0.872645 -2.655195 0.508469 0.478378 0.715934 0.906671 0.222985
-1.694258 -0.880133 -2.643436 0.926511 0.266030 0.266060 0.847127 0.146617
-1.691945 -0.903311 -2.590355 0.508499 0.856899 -0.084384 0.446389 0.005671
-1.691945 -0.903647 -2.597193 0.508469 0.861049 0.000000 0.494926 0.003239
-1.691945 -0.866773 -2.535672 0.508499 0.405896 -0.759362 0.058203 0.265405
-1.691945 -0.872645 -2.539191 0.508469 0.478378 -0.715934 0.083181 0.223695
-1.691945 -0.801006 -2.535672 0.508499 -0.405896 -0.759362 0.058203 0.732311
-1.691945 -0.807194 -2.532744 0.508469 -0.329508 -0.795495 0.037420 0.688397
-1.691945 -0.764467 -2.590355 0.508499 -0.856899 -0.084384 0.446389 0.991375
-1.691945 -0.765471 -2.583584 0.508469 -0.844508 -0.167974 0.398317 0.984291
-1.691945 -0.764131 -2.597193 0.508469 -0.861049 0.000000 0.494926 0.993724
-1.691945 -0.764467 -2.604030 0.508499 -0.856899 0.084384 0.543464 0.991291
-1.691945 -0.801006 -2.658713 0.508499 -0.405896 0.759362 0.931650 0.731557
-1.691945 -0.795133 -2.655195 0.508469 -0.478378 0.715934 0.906671 0.773268
-1.691945 -0.866772 -2.658713 0.508499 0.405896 0.759362 0.931650 0.264652
-1.691945 -0.860584 -2.661641 0.508469 0.329508 0.795495 0.952432 0.308566
-1.691945 -0.903311 -2.604030 0.508499 0.856899 0.084384 0.543464 0.005587
-1.691945 -0.902307 -2.610802 0.508469 0.844508 0.167974 0.591535 0.012671
-1.691945 -0.878143 -2.543269 0.508499 0.546251 -0.665578 0.112135 0.184638
-1.691945 -0.883216 -2.547866 0.508469 0.608875 -0.608844 0.144765 0.148595
-1.691945 -0.813640 -2.530439 0.508499 -0.249916 -0.823969 0.021054 0.642649
-1.691945 -0.820280 -2.528775 0.508469 -0.167943 -0.844508 0.009240 0.595517
-1.691945 -0.767135 -2.576943 0.508499 -0.823969 -0.249947 0.351179 0.972517
-1.691945 -0.769441 -2.570498 0.508469 -0.795526 -0.329508 0.305421 0.956189
-1.691945 -0.789635 -2.651116 0.508499 -0.546251 0.665578 0.877717 0.812325
-1.691945 -0.784562 -2.646519 0.508469 -0.608875 0.608844 0.845086 0.848368
-1.691945 -0.854139 -2.663947 0.508499 0.249947 0.823969 0.968799 0.354313
-1.691945 -0.847498 -2.665611 0.508469 0.167943 0.844508 0.980613 0.401446
-1.691945 -0.900643 -2.617442 0.508499 0.823969 0.249947 0.638674 0.024446
-1.691945 -0.898337 -2.623888 0.508469 0.795526 0.329508 0.684432 0.040774
-1.691945 -0.887812 -2.552939 0.508499 0.665578 -0.546220 0.180777 0.115930
-1.691945 -0.827052 -2.527771 0.508499 -0.084384 -0.856899 0.002115 0.547448
-1.691945 -0.772368 -2.564309 0.508499 -0.759362 -0.405896 0.261492 0.935442
-1.691945 -0.779966 -2.641446 0.508499 -0.665578 0.546220 0.809074 0.881033
-1.691945 -0.840726 -2.666614 0.508499 0.084384 0.856899 0.987738 0.449515
-1.691945 -0.895410 -2.630076 0.508499 0.759362 0.405896 0.728360 0.061521
4 0 1 2 3
4 0 3 4 5
4 0 5 6 1
4 7 8 9 10
4 7 10 11 12
4 7 12 6 8
4 13 14 15 16
4 13 16 17 18
4 13 18 6 14
4 19 20 21 22
4 19 22 23 24
4 19 24 6 20
4 25 26 27 28
4 25 28 29 30
4 25 30 6 26
4 31 32 33 34
4 31 34 35 36
4 31 36 6 32
4 37 5 4 38
4 37 38 39 40
4 37 40 6 5
4 41 12 11 42
4 41 42 43 44
4 41 44 6 12
4 45 18 17 46
4 45 46 47 48
4 45 48 6 18
4 49 24 23 50
4 49 50 51 52
4 49 52 6 24
4 53 30 29 54
4 53 54 55 56
4 53 56 6 30
4 57 36 35 58
4 57 58 59 60
4 57 60 6 36
4 61 40 39 62
4 61 62 63 64
4 61 64 6 40
4 65 44 43 66
4 65 66 67 68
4 65 68 6 44
4 69 48 47 70
4 69 70 71 72
4 69 72 6 48
4 73 74 75 76
4 73 76 77 78
4 73 78 6 74
4 79 52 51 80
4 79 80 75 74
4 79 74 6 52
4 81 56 55 82
4 81 82 83 84
4 81 84 6 56
4 85 60 59 86
4 85 86 87 88
4 85 88 6 60
4 89 64 63 90
4 89 90 91 92
4 89 92 6 64
4 93 68 67 94
4 93 94 95 96
4 93 96 6 68
4 97 72 71 98
4 97 98 99 100
4 97 100 6 72
4 101 78 77 102
4 101 102 103 104
4 101 104 6 78
4 105 84 83 106
4 105 106 107 108
4 105 108 6 84
4 109 88 87 110
4 109 110 111 112
4 109 112 6 88
4 113 92 91 114
4 113 114 115 116
4 113 116 6 92
4 117 96 95 118
4 117 118 2 1
4 117 1 6 96
4 119 100 99 120
4 119 120 9 8
4 119 8 6 100
4 121 104 103 122
4 121 122 15 14
4 121 14 6 104
4 123 108 107 124
4 123 124 21 20
4 123 20 6 108
4 125 112 111 126
4 125 126 27 26
4 125 26 6 112
4 127 116 115 128
4 127 128 33 32
4 127 32 6 116
4 129 130 131 132
4 129 132 133 134
4 129 134 4 3
4 129 3 2 130
4 135 136 137 138
4 135 138 139 140
4 135 140 11 10
4 135 10 9 136
4 141 142 143 144
4 141 144 145 146
4 141 146 17 16
4 141 16 15 142
4 147 148 149 150
4 147 150 151 152
4 147 152 23 22
4 147 22 21 148
4 153 154 155 156
4 153 156 157 158
4 153 158 29 28
4 153 28 27 154
4 159 160 161 162
4 159 162 163 164
4 159 164 35 34
4 159 34 33 160
4 165 134 133 166
4 165 166 167 168
4 165 168 39 38
4 165 38 4 134
4 169 140 139 170
4 169 170 171 172
4 169 172 43 42
4 169 42 11 140
4 173 146 145 174
4 173 174 175 176
4 173 176 47 46
4 173 46 17 146
4 177 152 151 178
4 177 178 179 180
4 177 180 51 50
4 177 50 23 152
4 181 158 157 182
4 181 182 183 184
4 181 184 55 54
4 181 54 29 158
4 185 164 163 186
4 185 186 187 188
4 185 188 59 58
4 185 58 35 164
4 189 168 167 190
4 189 190 191 192
4 189 192 63 62
4 189 62 39 168
4 193 172 171 194
4 193 194 195 196
4 193 196 67 66
4 193 66 43 172
4 197 176 175 198
4 197 198 199 200
4 197 200 71 70
4 197 70 47 176
4 201 202 203 204
4 201 204 205 206
4 201 206 77 76
4 201 76 75 202
4 207 180 179 208
4 207 208 203 202
4 207 202 75 80
4 207 80 51 180
4 209 184 183 210
4 209 210 211 212
4 209 212 83 82
4 209 82 55 184
4 213 188 187 214
4 213 214 215 216
4 213 216 87 86
4 213 86 59 188
4 217 192 191 218
4 217 218 219 220
4 217 220 91 90
4 217 90 63 192
4 221 196 195 222
4 221 222 223 224
4 221 224 95 94
4 221 94 67 196
4 225 200 199 226
4 225 226 227 228
4 225 228 99 98
4 225 98 71 200
4 229 206 205 230
4 229 230 231 232
4 229 232 103 102
4 229 102 77 206
4 233 212 211 234
4 233 234 235 236
4 233 236 107 106
4 233 106 83 212
4 237 216 215 238
4 237 238 239 240
4 237 240 111 110
4 237 110 87 216
4 241 220 219 242
4 241 242 243 244
4 241 244 115 114
4 241 114 91 220
4 245 224 223 246
4 245 246 131 130
4 245 130 2 118
4 245 118 95 224
4 247 228 227 248
4 247 248 137 136
4 247 136 9 120
4 247 120 99 228
4 249 232 231 250
4 249 250 143 142
4 249 142 15 122
4 249 122 103 232
4 251 236 235 252
4 251 252 149 148
4 251 148 21 124
4 251 124 107 236
4 253 240 239 254
4 253 254 155 154
4 253 154 27 126
4 253 126 111 240
4 255 244 243 256
4 255 256 161 160
4 255 160 33 128
4 255 128 115 244
4 257 258 259 260
4 257 260 261 262
4 257 262 263 264
4 257 264 265 258
4 266 267 268 269
4 266 269 270 271
4 266 271 272 273
4 266 273 274 267
4 275 276 277 278
4 275 278 279 280
4 275 280 281 282
4 275 282 283 276
4 284 285 286 287
4 284 287 288 289
4 284 289 290 291
4 284 291 292 285
4 293 294 295 296
4 293 296 297 298
4 293 298 299 300
4 293 300 301 294
4 302 303 304 305
4 302 305 306 307
4 302 307 308 309
4 302 309 310 303
4 311 312 313 314
4 311 314 259 258
4 311 258 265 315
4 311 315 316 312
4 317 318 319 320
4 317 320 268 267
4 317 267 274 321
4 317 321 322 318
4 323 324 325 326
4 323 326 277 276
4 323 276 283 327
4 323 327 328 324
4 329 330 331 332
4 329 332 286 285
4 329 285 292 333
4 329 333 334 330
4 335 336 337 338
4 335 338 295 294
4 335 294 301 339
4 335 339 340 336
4 341 342 343 344
4 341 344 304 303
4 341 303 310 345
4 341 345 346 342
4 347 348 349 350
4 347 350 313 312
4 347 312 316 351
4 347 351 352 348
4 353 354 355 356
4 353 356 319 318
4 353 318 322 357
4 353 357 358 354
4 359 360 361 362
4 359 362 325 324
4 359 324 328 363
4 359 363 364 360
4 365 366 367 368
4 365 368 369 370
4 365 370 371 372
4 365 372 373 366
4 374 370 369 375
4 374 375 331 330
4 374 330 334 376
4 374 376 371 370
4 377 378 379 380
4 377 380 337 336
4 377 336 340 381
4 377 381 382 378
4 383 384 385 386
4 383 386 343 342
4 383 342 346 387
4 383 387 388 384
4 389 390 391 392
4 389 392 349 348
4 389 348 352 393
4 389 393 394 390
4 395 396 397 398
4 395 398 355 354
4 395 354 358 399
4 395 399 400 396
4 401 402 403 404
4 401 404 361 360
4 401 360 364 405
4 401 405 406 402
4 407 408 409 410
4 407 410 367 366
4 407 366 373 411
4 407 411 412 408
4 413 414 415 416
4 413 416 379 378
4 413 378 382 417
4 413 417 418 414
4 419 420 421 422
4 419 422 385 384
4 419 384 388 423
4 419 423 424 420
4 425 426 427 428
4 425 428 391 390
4 425 390 394 429
4 425 429 430 426
4 431 262 261 432
4 431 432 397 396
4 431 396 400 433
4 431 433 263 262
4 434 271 270 435
4 434 435 403 402
4 434 402 406 436
4 434 436 272 271
4 437 280 279 438
4 437 438 409 408
4 437 408 412 439
4 437 439 281 280
4 440 289 288 441
4 440 441 415 414
4 440 414 418 442
4 440 442 290 289
4 443 298 297 444
4 443 444 421 420
4 443 420 424 445
4 443 445 299 298
4 446 307 306 447
4 446 447 427 426
4 446 426 430 448
4 446 448 308 307
4 449 450 133 132
4 449 132 131 451
4 449 451 261 260
4 449 260 259 450
4 452 453 139 138
4 452 138 137 454
4 452 454 270 269
4 452 269 268 453
4 455 456 457 144
4 455 144 143 458
4 455 458 279 278
4 455 278 277 456
4 459 460 151 150
4 459 150 149 461
4 459 461 288 287
4 459 287 286 460
4 462 463 157 156
4 462 156 155 464
4 462 464 297 296
4 462 296 295 463
4 465 466 163 162
4 465 162 161 467
4 465 467 306 305
4 465 305 304 466
4 468 469 167 166
4 468 166 133 450
4 468 450 259 314
4 468 314 313 469
4 470 471 171 170
4 470 170 139 453
4 470 453 268 320
4 470 320 319 471
4 472 473 175 174
4 472 174 145 456
4 472 456 277 326
4 472 326 325 473
4 474 475 179 178
4 474 178 151 460
4 474 460 286 332
4 474 332 331 475
4 476 477 183 182
4 476 182 157 463
4 476 463 295 338
4 476 338 337 477
4 478 479 187 186
4 478 186 480 466
4 478 466 304 344
4 478 344 343 479
4 481 482 191 190
4 481 190 167 469
4 481 469 313 350
4 481 350 349 482
4 483 484 195 194
4 483 194 171 471
4 483 471 319 356
4 483 356 355 484
4 485 486 199 198
4 485 198 175 473
4 485 473 325 362
4 485 362 361 486
4 487 488 205 204
4 487 204 203 489
4 487 489 369 368
4 487 368 367 488
4 490 489 203 208
4 490 208 179 475
4 490 475 331 375
4 490 375 369 489
4 491 492 211 210
4 491 210 183 477
4 491 477 337 380
4 491 380 379 492
4 493 494 215 214
4 493 214 187 479
4 493 479 343 386
4 493 386 385 494
4 495 496 219 218
4 495 218 191 482
4 495 482 349 392
4 495 392 391 496
4 497 498 223 222
4 497 222 195 484
4 497 484 355 398
4 497 398 397 498
4 499 500 227 226
4 499 226 199 486
4 499 486 361 404
4 499 404 403 500
4 501 502 231 230
4 501 230 205 488
4 501 488 367 410
4 501 410 409 502
4 503 504 235 234
4 503 234 211 492
4 503 492 379 416
4 503 416 415 504
4 505 506 239 238
4 505 238 215 494
4 505 494 385 422
4 505 422 421 506
4 507 508 243 242
4 507 242 219 496
4 507 496 391 428
4 507 428 427 508
4 509 451 131 246
4 509 246 223 498
4 509 498 397 432
4 509 432 261 451
4 510 454 137 248
4 510 248 227 500
4 510 500 403 435
4 510 435 270 454
4 511 458 143 250
4 511 250 231 502
4 511 502 409 438
4 511 438 279 458
4 512 461 149 252
4 512 252 235 504
4 512 504 415 441
4 512 441 288 461
4 513 464 155 254
4 513 254 239 506
4 513 506 421 444
4 513 444 297 464
4 514 467 161 256
4 514 256 243 508
4 514 508 427 447
4 514 447 306 467
