# Blender v2.79 (sub 0) OBJ File: 'm3_v2.blend'
# www.blender.org
o Sub-Headlight_Reflector_Plane.045
v 1.147713 -0.757250 4.199095
v 1.162970 -0.757189 4.206994
v 1.139889 -0.743409 4.196697
v 1.138027 -0.771165 4.195849
v 1.155114 -0.779094 4.206864
v 1.158046 -0.735347 4.208201
v 1.120971 -0.757365 4.191244
v 1.033970 -0.757851 4.240031
v 1.026219 -0.757912 4.256211
v 1.038346 -0.771502 4.231708
v 1.040305 -0.744126 4.232555
v 1.033095 -0.736317 4.253200
v 1.030005 -0.779445 4.251863
v 1.050642 -0.757736 4.216556
v 1.094212 -0.708915 4.221060
v 1.098647 -0.699077 4.233402
v 1.076001 -0.715128 4.221314
v 1.108187 -0.714768 4.209713
v 1.123127 -0.703800 4.222537
v 1.072413 -0.704378 4.240818
v 1.087891 -0.727478 4.204825
v 1.087471 -0.806186 4.218066
v 1.090541 -0.816024 4.229803
v 1.070048 -0.800143 4.218692
v 1.102330 -0.800163 4.207091
v 1.115795 -0.811033 4.219247
v 1.064924 -0.810991 4.237527
v 1.083722 -0.787623 4.202974
v 1.190078 -0.757091 4.237493
v 1.185798 -0.757107 4.229248
v 1.182192 -0.786998 4.238611
v 1.191505 -0.757086 4.244585
v 1.186190 -0.727246 4.240436
v 1.181746 -0.728525 4.231917
v 1.177917 -0.785750 4.230169
v 1.183617 -0.787414 4.245769
v 1.187671 -0.726820 4.247620
v 1.016209 -0.758010 4.300068
v 1.017789 -0.757994 4.289714
v 1.024155 -0.728546 4.298793
v 1.015682 -0.758015 4.307864
v 1.019932 -0.787412 4.296968
v 1.021522 -0.786154 4.286417
v 1.025566 -0.729773 4.288165
v 1.023684 -0.728137 4.306680
v 1.019401 -0.787831 4.304829
v 1.108296 -0.683205 4.271069
v 1.106772 -0.685711 4.261692
v 1.142542 -0.687812 4.258356
v 1.108804 -0.682370 4.278538
v 1.073302 -0.688622 4.283316
v 1.073162 -0.691110 4.273176
v 1.139477 -0.690337 4.249270
v 1.143564 -0.686971 4.265728
v 1.073349 -0.687793 4.291039
v 1.097991 -0.831896 4.266492
v 1.096815 -0.829390 4.257270
v 1.133044 -0.826922 4.254088
v 1.098383 -0.832731 4.273911
v 1.063579 -0.826845 4.279048
v 1.063792 -0.824342 4.269063
v 1.130321 -0.824413 4.245157
v 1.133952 -0.827758 4.261409
v 1.063509 -0.827680 4.286721
v -1.154857 -0.757250 4.199095
v -1.145172 -0.771165 4.195849
v -1.147034 -0.743409 4.196697
v -1.170114 -0.757189 4.206994
v -1.162258 -0.779094 4.206864
v -1.128116 -0.757365 4.191244
v -1.165190 -0.735347 4.208201
v -1.041115 -0.757851 4.240031
v -1.047449 -0.744126 4.232555
v -1.045490 -0.771502 4.231707
v -1.033363 -0.757912 4.256211
v -1.040239 -0.736317 4.253200
v -1.057787 -0.757736 4.216555
v -1.037150 -0.779445 4.251863
v -1.101357 -0.708915 4.221060
v -1.115332 -0.714768 4.209713
v -1.083146 -0.715128 4.221314
v -1.105791 -0.699077 4.233402
v -1.130272 -0.703800 4.222537
v -1.095035 -0.727478 4.204825
v -1.079557 -0.704378 4.240818
v -1.094615 -0.806186 4.218066
v -1.109475 -0.800163 4.207091
v -1.077192 -0.800143 4.218692
v -1.097686 -0.816024 4.229803
v -1.122940 -0.811033 4.219247
v -1.090867 -0.787623 4.202974
v -1.072068 -0.810991 4.237527
v -1.197223 -0.757091 4.237493
v -1.193334 -0.727246 4.240436
v -1.198649 -0.757086 4.244585
v -1.189336 -0.786998 4.238611
v -1.192942 -0.757107 4.229248
v -1.188890 -0.728525 4.231917
v -1.194816 -0.726820 4.247620
v -1.190762 -0.787414 4.245769
v -1.185061 -0.785750 4.230169
v -1.023353 -0.758010 4.300068
v -1.027076 -0.787412 4.296968
v -1.022826 -0.758015 4.307864
v -1.031299 -0.728546 4.298793
v -1.024934 -0.757994 4.289714
v -1.028667 -0.786154 4.286417
v -1.026546 -0.787831 4.304829
v -1.030828 -0.728137 4.306680
v -1.032711 -0.729773 4.288165
v -1.115440 -0.683205 4.271069
v -1.080447 -0.688622 4.283316
v -1.115948 -0.682370 4.278538
v -1.149687 -0.687813 4.258356
v -1.113917 -0.685711 4.261692
v -1.080306 -0.691110 4.273176
v -1.080493 -0.687793 4.291039
v -1.150708 -0.686971 4.265728
v -1.146621 -0.690337 4.249270
v -1.105135 -0.831896 4.266493
v -1.070724 -0.826845 4.279048
v -1.105527 -0.832731 4.273911
v -1.140189 -0.826922 4.254088
v -1.103959 -0.829389 4.257270
v -1.070936 -0.824342 4.269063
v -1.070653 -0.827679 4.286721
v -1.141097 -0.827758 4.261409
v -1.137465 -0.824413 4.245157
v 1.024703 -0.783638 4.271830
v 1.020950 -0.757963 4.275521
v 1.028389 -0.732227 4.273424
v 1.072881 -0.696086 4.259413
v 1.103725 -0.690724 4.249454
v 1.133346 -0.695385 4.237617
v 1.064216 -0.819335 4.255608
v 1.094462 -0.824377 4.245341
v 1.124874 -0.819395 4.233812
v 1.172858 -0.731083 4.221395
v 1.177237 -0.757138 4.219274
v 1.169365 -0.783254 4.219801
v 1.043294 -0.798082 4.244265
v 1.051109 -0.787547 4.223300
v 1.064863 -0.773464 4.206321
v 1.143659 -0.716554 4.212658
v 1.125348 -0.727241 4.199921
v 1.104181 -0.741525 4.193939
v 1.102010 -0.773380 4.192962
v 1.121274 -0.787490 4.198077
v 1.138161 -0.798046 4.210164
v 1.067091 -0.741833 4.207297
v 1.055342 -0.727925 4.225145
v 1.049028 -0.717519 4.246758
v 1.019401 -0.787831 4.311345
v 1.015682 -0.758015 4.314380
v 1.023684 -0.728137 4.313196
v 1.073349 -0.687793 4.297556
v 1.108804 -0.682370 4.285054
v 1.143564 -0.686971 4.272244
v 1.063509 -0.827680 4.293237
v 1.098383 -0.832731 4.280427
v 1.133952 -0.827758 4.267925
v 1.187671 -0.726820 4.254136
v 1.191505 -0.757086 4.251101
v 1.183617 -0.787414 4.252285
v 1.159094 -0.809753 4.235274
v 1.163018 -0.811948 4.244055
v 1.164327 -0.812680 4.251326
v 1.171797 -0.701740 4.254719
v 1.170390 -0.702480 4.247403
v 1.166170 -0.704703 4.238487
v 1.044231 -0.705981 4.282431
v 1.043332 -0.703818 4.293192
v 1.043032 -0.703097 4.301124
v 1.035218 -0.812686 4.297730
v 1.035622 -0.811955 4.289844
v 1.036833 -0.809765 4.279218
v -1.031848 -0.783638 4.271830
v -1.028095 -0.757963 4.275521
v -1.035534 -0.732227 4.273424
v -1.080025 -0.696086 4.259412
v -1.110870 -0.690724 4.249454
v -1.140490 -0.695385 4.237617
v -1.071361 -0.819335 4.255608
v -1.101607 -0.824377 4.245341
v -1.132018 -0.819395 4.233812
v -1.180003 -0.731083 4.221395
v -1.184382 -0.757138 4.219274
v -1.176510 -0.783254 4.219801
v -1.050439 -0.798083 4.244265
v -1.058254 -0.787547 4.223300
v -1.072007 -0.773464 4.206321
v -1.150803 -0.716554 4.212658
v -1.132493 -0.727241 4.199921
v -1.111326 -0.741525 4.193939
v -1.109154 -0.773380 4.192962
v -1.128418 -0.787490 4.198077
v -1.145306 -0.798046 4.210164
v -1.074236 -0.741833 4.207297
v -1.062487 -0.727925 4.225144
v -1.056172 -0.717519 4.246758
v -1.026546 -0.787831 4.311345
v -1.022826 -0.758015 4.314380
v -1.030828 -0.728137 4.313196
v -1.080493 -0.687793 4.297556
v -1.115948 -0.682370 4.285054
v -1.150708 -0.686971 4.272244
v -1.070653 -0.827680 4.293237
v -1.105527 -0.832731 4.280427
v -1.141097 -0.827758 4.267925
v -1.194816 -0.726820 4.254136
v -1.198649 -0.757086 4.251101
v -1.190762 -0.787414 4.252285
v -1.166238 -0.809753 4.235274
v -1.170163 -0.811948 4.244055
v -1.171471 -0.812680 4.251326
v -1.178942 -0.701740 4.254719
v -1.177535 -0.702480 4.247403
v -1.173314 -0.704703 4.238487
v -1.051375 -0.705981 4.282431
v -1.050476 -0.703818 4.293192
v -1.050176 -0.703097 4.301124
v -1.042363 -0.812686 4.297730
v -1.042767 -0.811955 4.289844
v -1.043978 -0.809765 4.279218
v 1.039256 -0.805384 4.264481
v 1.046030 -0.710308 4.267425
v 1.157728 -0.709147 4.227172
v 1.151244 -0.805363 4.224229
v 1.083054 -0.757550 4.195732
v 1.103593 -0.757550 4.197257
v 1.035218 -0.812686 4.304246
v 1.043032 -0.703097 4.307640
v 1.171797 -0.701740 4.261235
v 1.164327 -0.812680 4.257842
v -1.046401 -0.805384 4.264481
v -1.053174 -0.710308 4.267425
v -1.164873 -0.709147 4.227172
v -1.158388 -0.805363 4.224229
v -1.090199 -0.757550 4.195732
v -1.110738 -0.757550 4.197257
v -1.042363 -0.812686 4.304246
v -1.050176 -0.703097 4.307640
v -1.178942 -0.701740 4.261235
v -1.171471 -0.812680 4.257842
vn -0.4545 0.1578 0.8767
vn -0.6386 0.2074 0.7411
vn -0.3320 0.4421 0.8333
vn -0.4786 0.5322 0.6984
vn -0.4899 -0.1275 0.8624
vn -0.3169 -0.4513 0.8342
vn -0.6406 -0.1856 0.7451
vn -0.4624 -0.5237 0.7155
vn -0.2815 -0.0278 0.9592
vn -0.0847 0.2196 0.9719
vn -0.0815 -0.2649 0.9608
vn 0.1226 -0.0388 0.9917
vn 0.8798 -0.2215 0.4207
vn 0.9344 -0.2494 0.2543
vn 0.7523 -0.4848 0.4461
vn 0.7824 -0.5495 0.2932
vn 0.9157 0.0504 0.3988
vn 0.7907 0.3756 0.4835
vn 0.9544 0.1119 0.2769
vn 0.8271 0.4553 0.3296
vn 0.8139 -0.0609 0.5777
vn 0.6629 -0.3019 0.6851
vn 0.6831 0.1713 0.7100
vn 0.5356 -0.0637 0.8421
vn 0.1105 -0.7962 0.5949
vn 0.0401 -0.8915 0.4513
vn -0.0998 -0.6957 0.7113
vn -0.2093 -0.7867 0.5808
vn 0.2855 -0.8162 0.5024
vn 0.5240 -0.7014 0.4831
vn 0.2835 -0.8845 0.3706
vn 0.5249 -0.7822 0.3356
vn 0.2649 -0.6843 0.6793
vn 0.1088 -0.5169 0.8491
vn 0.4501 -0.5281 0.7201
vn 0.3191 -0.3210 0.8917
vn -0.1068 -0.7756 -0.6222
vn -0.0323 -0.8837 -0.4669
vn 0.1082 -0.6785 -0.7266
vn 0.2169 -0.7821 -0.5842
vn -0.2938 -0.7916 -0.5358
vn -0.5565 -0.6454 -0.5232
vn -0.2904 -0.8715 -0.3952
vn -0.5583 -0.7447 -0.3655
vn -0.2719 -0.6395 -0.7191
vn -0.1072 -0.4649 -0.8788
vn -0.4694 -0.4449 -0.7627
vn -0.3248 -0.2283 -0.9178
vn -0.8750 -0.1665 0.4545
vn -0.7465 -0.1777 0.6413
vn -0.6884 -0.5728 0.4450
vn -0.5662 -0.5518 0.6123
vn -0.8609 0.2437 0.4465
vn -0.6600 0.6045 0.4461
vn -0.7399 0.2240 0.6343
vn -0.5622 0.5686 0.6006
vn -0.9475 0.2569 0.1904
vn -0.9678 0.2517 -0.0000
vn -0.7587 0.6239 0.1873
vn -0.7948 0.6069 0.0000
vn -0.9699 -0.1456 0.1952
vn -0.8000 -0.5662 0.1986
vn -0.9921 -0.1257 0.0000
vn -0.8450 -0.5348 0.0000
vn 0.9827 0.1086 0.1501
vn 0.9708 0.1033 0.2165
vn 0.8514 0.4901 0.1868
vn 0.8440 0.4666 0.2645
vn 0.9568 -0.2517 0.1457
vn 0.7969 -0.5789 0.1727
vn 0.9455 -0.2490 0.2100
vn 0.7906 -0.5612 0.2448
vn 0.9645 -0.2558 0.0650
vn 0.9660 -0.2587 0.0000
vn 0.7972 -0.5985 0.0786
vn 0.7913 -0.6114 0.0000
vn 0.9904 0.1177 0.0731
vn 0.8508 0.5174 0.0915
vn 0.9923 0.1238 0.0000
vn 0.8437 0.5369 0.0000
vn 0.2266 -0.9495 0.2169
vn 0.2591 -0.9147 0.3101
vn 0.4978 -0.8439 0.2002
vn 0.5135 -0.8103 0.2824
vn -0.0321 -0.9643 0.2629
vn -0.3235 -0.8779 0.3531
vn 0.0120 -0.9264 0.3764
vn -0.2497 -0.8337 0.4925
vn -0.0880 -0.9893 0.1166
vn -0.1312 -0.9914 0.0000
vn -0.4082 -0.8989 0.1592
vn -0.4635 -0.8861 0.0000
vn 0.1852 -0.9779 0.0968
vn 0.4741 -0.8757 0.0912
vn 0.1512 -0.9885 0.0000
vn 0.4507 -0.8927 0.0000
vn -0.2263 -0.9469 -0.2284
vn -0.2629 -0.9069 -0.3292
vn -0.5264 -0.8220 -0.2173
vn -0.5452 -0.7799 -0.3074
vn 0.0421 -0.9628 -0.2670
vn 0.3240 -0.8805 -0.3461
vn -0.0029 -0.9221 -0.3869
vn 0.2479 -0.8269 -0.5048
vn 0.0973 -0.9884 -0.1164
vn 0.1385 -0.9904 0.0000
vn 0.3983 -0.9044 -0.1527
vn 0.4446 -0.8957 0.0000
vn -0.1803 -0.9784 -0.1006
vn -0.4971 -0.8621 -0.0983
vn -0.1433 -0.9897 0.0000
vn -0.4683 -0.8836 0.0000
vn 0.4897 0.1401 0.8605
vn 0.3213 0.4439 0.8365
vn 0.6203 0.2180 0.7535
vn 0.4611 0.5356 0.7075
vn 0.2817 0.0070 0.9595
vn 0.0816 -0.2649 0.9608
vn 0.0848 0.2196 0.9719
vn -0.1225 -0.0388 0.9917
vn 0.4540 -0.1509 0.8781
vn 0.6406 -0.1856 0.7451
vn 0.3279 -0.4482 0.8316
vn 0.4809 -0.5180 0.7074
vn -0.8983 -0.2020 0.3902
vn -0.7473 -0.4866 0.4526
vn -0.9282 -0.2581 0.2681
vn -0.7755 -0.5527 0.3053
vn -0.8121 -0.0911 0.5763
vn -0.6831 0.1714 0.7100
vn -0.6629 -0.3019 0.6851
vn -0.5356 -0.0637 0.8421
vn -0.8995 0.0711 0.4312
vn -0.9596 0.1026 0.2621
vn -0.7960 0.3733 0.4765
vn -0.8343 0.4515 0.3164
vn -0.1158 -0.8174 0.5642
vn 0.0998 -0.6957 0.7113
vn -0.0372 -0.8831 0.4676
vn 0.2093 -0.7867 0.5808
vn -0.2431 -0.6842 0.6876
vn -0.4595 -0.5281 0.7141
vn -0.1200 -0.5175 0.8473
vn -0.3274 -0.3213 0.8886
vn -0.3084 -0.7948 0.5227
vn -0.2835 -0.8845 0.3706
vn -0.5240 -0.7015 0.4831
vn -0.5248 -0.7822 0.3356
vn 0.1121 -0.7992 -0.5905
vn -0.1082 -0.6785 -0.7266
vn 0.0294 -0.8746 -0.4839
vn -0.2169 -0.7821 -0.5842
vn 0.2483 -0.6408 -0.7265
vn 0.4795 -0.4441 -0.7568
vn 0.1188 -0.4644 -0.8776
vn 0.3333 -0.2278 -0.9149
vn 0.3188 -0.7658 -0.5585
vn 0.2904 -0.8715 -0.3952
vn 0.5565 -0.6454 -0.5232
vn 0.5583 -0.7447 -0.3655
vn 0.8652 -0.1596 0.4754
vn 0.6819 -0.5656 0.4638
vn 0.7332 -0.1655 0.6595
vn 0.5595 -0.5394 0.6293
vn 0.9699 -0.1456 0.1952
vn 0.9921 -0.1257 0.0000
vn 0.8000 -0.5662 0.1986
vn 0.8450 -0.5348 -0.0000
vn 0.9475 0.2570 0.1904
vn 0.7587 0.6239 0.1873
vn 0.9678 0.2517 0.0000
vn 0.7948 0.6069 0.0000
vn 0.8609 0.2437 0.4465
vn 0.7399 0.2240 0.6343
vn 0.6650 0.6124 0.4274
vn 0.5622 0.5686 0.6006
vn -0.9827 0.1086 0.1502
vn -0.8514 0.4901 0.1868
vn -0.9708 0.1033 0.2164
vn -0.8440 0.4666 0.2646
vn -0.9909 0.1168 0.0670
vn -0.9923 0.1238 0.0000
vn -0.8514 0.5175 0.0850
vn -0.8436 0.5369 0.0000
vn -0.9638 -0.2569 0.0708
vn -0.7966 -0.5986 0.0845
vn -0.9660 -0.2587 0.0000
vn -0.7913 -0.6114 0.0000
vn -0.9568 -0.2517 0.1457
vn -0.9455 -0.2490 0.2100
vn -0.7969 -0.5789 0.1727
vn -0.7906 -0.5612 0.2448
vn -0.2267 -0.9466 0.2291
vn -0.4964 -0.8421 0.2108
vn -0.2569 -0.9105 0.3239
vn -0.5097 -0.8085 0.2942
vn -0.1852 -0.9779 0.0968
vn -0.1512 -0.9885 -0.0000
vn -0.4741 -0.8757 0.0912
vn -0.4507 -0.8927 0.0000
vn 0.0866 -0.9884 0.1248
vn 0.4065 -0.8979 0.1691
vn 0.1312 -0.9913 0.0000
vn 0.4635 -0.8861 0.0000
vn 0.0321 -0.9643 0.2629
vn -0.0120 -0.9264 0.3764
vn 0.3235 -0.8779 0.3531
vn 0.2497 -0.8337 0.4925
vn 0.2266 -0.9436 -0.2414
vn 0.5250 -0.8198 -0.2288
vn 0.2607 -0.9021 -0.3439
vn 0.5411 -0.7777 -0.3201
vn 0.1803 -0.9784 -0.1007
vn 0.1434 -0.9897 -0.0000
vn 0.4971 -0.8621 -0.0983
vn 0.4684 -0.8835 0.0000
vn -0.0960 -0.9875 -0.1247
vn -0.3970 -0.9034 -0.1623
vn -0.1384 -0.9904 0.0000
vn -0.4446 -0.8957 0.0000
vn -0.0421 -0.9628 -0.2670
vn 0.0029 -0.9221 -0.3869
vn -0.3240 -0.8805 -0.3461
vn -0.2624 -0.8296 -0.4929
vn -0.4897 0.1401 0.8605
vn -0.6203 0.2180 0.7535
vn -0.3213 0.4439 0.8365
vn -0.4611 0.5356 0.7075
vn -0.4540 -0.1509 0.8781
vn -0.3279 -0.4482 0.8316
vn -0.6284 -0.1675 0.7597
vn -0.4809 -0.5180 0.7074
vn -0.2817 0.0070 0.9595
vn -0.0972 0.2192 0.9708
vn -0.0940 -0.2630 0.9602
vn 0.1132 -0.0382 0.9928
vn 0.8983 -0.2020 0.3902
vn 0.9281 -0.2581 0.2682
vn 0.7473 -0.4866 0.4526
vn 0.7755 -0.5527 0.3053
vn 0.8995 0.0711 0.4312
vn 0.7960 0.3733 0.4765
vn 0.9596 0.1026 0.2621
vn 0.8343 0.4514 0.3164
vn 0.8121 -0.0911 0.5763
vn 0.6718 -0.3009 0.6768
vn 0.6923 0.1695 0.7014
vn 0.5434 -0.0641 0.8370
vn 0.1158 -0.8174 0.5643
vn 0.0371 -0.8831 0.4676
vn -0.0894 -0.6959 0.7125
vn -0.1921 -0.7862 0.5874
vn 0.3084 -0.7948 0.5227
vn 0.5184 -0.7014 0.4891
vn 0.2774 -0.8800 0.3855
vn 0.5178 -0.7816 0.3478
vn 0.2431 -0.6842 0.6876
vn 0.1200 -0.5175 0.8473
vn 0.4595 -0.5281 0.7141
vn 0.3274 -0.3213 0.8886
vn -0.1121 -0.7992 -0.5905
vn -0.0294 -0.8746 -0.4839
vn 0.0977 -0.6779 -0.7286
vn 0.2001 -0.7805 -0.5922
vn -0.3188 -0.7658 -0.5585
vn -0.5503 -0.6456 -0.5295
vn -0.2839 -0.8663 -0.4109
vn -0.5505 -0.7440 -0.3787
vn -0.2483 -0.6408 -0.7265
vn -0.1188 -0.4644 -0.8776
vn -0.4795 -0.4441 -0.7568
vn -0.3333 -0.2278 -0.9149
vn -0.8652 -0.1596 0.4754
vn -0.7332 -0.1655 0.6595
vn -0.6819 -0.5656 0.4638
vn -0.5595 -0.5394 0.6293
vn -0.8488 0.2486 0.4666
vn -0.6650 0.6124 0.4274
vn -0.7226 0.2310 0.6516
vn -0.5455 0.5701 0.6143
vn -0.9457 0.2539 0.2030
vn -0.7574 0.6220 0.1989
vn -0.9675 -0.1434 0.2081
vn -0.7980 -0.5647 0.2106
vn 0.9807 0.1111 0.1611
vn 0.9672 0.1084 0.2296
vn 0.8489 0.4902 0.1978
vn 0.8392 0.4680 0.2771
vn 0.9544 -0.2545 0.1561
vn 0.7944 -0.5792 0.1828
vn 0.9413 -0.2539 0.2225
vn 0.7861 -0.5624 0.2564
vn 0.9638 -0.2569 0.0708
vn 0.7966 -0.5986 0.0845
vn 0.9909 0.1168 0.0670
vn 0.8514 0.5175 0.0850
vn 0.8436 0.5369 0.0000
vn 0.2267 -0.9466 0.2291
vn 0.2569 -0.9105 0.3239
vn 0.4964 -0.8421 0.2108
vn 0.5097 -0.8085 0.2942
vn -0.0306 -0.9603 0.2772
vn -0.3204 -0.8724 0.3691
vn 0.0120 -0.9198 0.3922
vn -0.2476 -0.8246 0.5086
vn -0.0866 -0.9884 0.1248
vn -0.1312 -0.9913 0.0000
vn -0.4065 -0.8979 0.1691
vn 0.1861 -0.9770 0.1038
vn 0.4741 -0.8751 0.0975
vn -0.2266 -0.9436 -0.2414
vn -0.2607 -0.9021 -0.3439
vn -0.5250 -0.8198 -0.2288
vn -0.5411 -0.7777 -0.3201
vn 0.0406 -0.9587 -0.2817
vn 0.3213 -0.8749 -0.3623
vn -0.0030 -0.9151 -0.4033
vn 0.2624 -0.8296 -0.4929
vn 0.0960 -0.9875 -0.1247
vn 0.1384 -0.9904 0.0000
vn 0.3970 -0.9034 -0.1623
vn -0.1812 -0.9775 -0.1080
vn -0.4973 -0.8612 -0.1052
vn -0.1434 -0.9897 0.0000
vn 0.4545 0.1578 0.8767
vn 0.3320 0.4421 0.8333
vn 0.6386 0.2074 0.7411
vn 0.4786 0.5322 0.6984
vn 0.2815 -0.0278 0.9592
vn 0.0939 -0.2629 0.9602
vn 0.0972 0.2192 0.9708
vn -0.1132 -0.0382 0.9928
vn 0.4899 -0.1275 0.8624
vn 0.6284 -0.1675 0.7597
vn 0.3169 -0.4513 0.8342
vn 0.4624 -0.5237 0.7155
vn -0.8798 -0.2215 0.4207
vn -0.7523 -0.4848 0.4461
vn -0.9344 -0.2494 0.2543
vn -0.7824 -0.5495 0.2932
vn -0.8140 -0.0610 0.5777
vn -0.6923 0.1696 0.7014
vn -0.6718 -0.3009 0.6768
vn -0.5434 -0.0641 0.8370
vn -0.9157 0.0503 0.3988
vn -0.9544 0.1119 0.2769
vn -0.7906 0.3756 0.4835
vn -0.8271 0.4553 0.3296
vn -0.1105 -0.7961 0.5949
vn 0.0894 -0.6959 0.7125
vn -0.0400 -0.8915 0.4513
vn 0.1921 -0.7862 0.5874
vn -0.2649 -0.6843 0.6793
vn -0.4501 -0.5281 0.7201
vn -0.1088 -0.5169 0.8491
vn -0.3191 -0.3210 0.8917
vn -0.2855 -0.8162 0.5024
vn -0.2774 -0.8800 0.3855
vn -0.5184 -0.7014 0.4891
vn -0.5178 -0.7816 0.3478
vn 0.1068 -0.7756 -0.6222
vn -0.0977 -0.6779 -0.7286
vn 0.0323 -0.8837 -0.4669
vn -0.2001 -0.7805 -0.5922
vn 0.2719 -0.6395 -0.7191
vn 0.4694 -0.4449 -0.7627
vn 0.1072 -0.4649 -0.8788
vn 0.3248 -0.2283 -0.9178
vn 0.2938 -0.7916 -0.5358
vn 0.2839 -0.8663 -0.4109
vn 0.5503 -0.6456 -0.5296
vn 0.5505 -0.7440 -0.3787
vn 0.8750 -0.1665 0.4545
vn 0.6884 -0.5728 0.4450
vn 0.7465 -0.1777 0.6413
vn 0.5662 -0.5518 0.6123
vn 0.9675 -0.1434 0.2081
vn 0.7980 -0.5647 0.2106
vn 0.9457 0.2539 0.2030
vn 0.7574 0.6220 0.1989
vn 0.8488 0.2486 0.4666
vn 0.7226 0.2310 0.6516
vn 0.6600 0.6045 0.4461
vn 0.5455 0.5701 0.6143
vn -0.9807 0.1111 0.1611
vn -0.8489 0.4901 0.1978
vn -0.9672 0.1084 0.2297
vn -0.8392 0.4680 0.2771
vn -0.9904 0.1177 0.0731
vn -0.8508 0.5174 0.0915
vn -0.8437 0.5369 0.0000
vn -0.9645 -0.2558 0.0650
vn -0.7972 -0.5985 0.0786
vn -0.9544 -0.2545 0.1561
vn -0.9413 -0.2539 0.2225
vn -0.7944 -0.5792 0.1828
vn -0.7861 -0.5625 0.2564
vn -0.2266 -0.9495 0.2169
vn -0.4978 -0.8439 0.2001
vn -0.2591 -0.9147 0.3101
vn -0.5135 -0.8103 0.2824
vn -0.1861 -0.9770 0.1038
vn -0.4741 -0.8751 0.0975
vn -0.4506 -0.8927 0.0000
vn 0.0880 -0.9893 0.1166
vn 0.4082 -0.8989 0.1592
vn 0.1312 -0.9914 0.0000
vn 0.0306 -0.9603 0.2771
vn -0.0120 -0.9198 0.3922
vn 0.3204 -0.8724 0.3691
vn 0.2476 -0.8246 0.5086
vn 0.2263 -0.9469 -0.2284
vn 0.5263 -0.8221 -0.2173
vn 0.2629 -0.9069 -0.3292
vn 0.5452 -0.7799 -0.3074
vn 0.1812 -0.9775 -0.1080
vn 0.1433 -0.9897 0.0000
vn 0.4973 -0.8612 -0.1052
vn 0.4683 -0.8836 0.0000
vn -0.0973 -0.9884 -0.1165
vn -0.3983 -0.9044 -0.1527
vn -0.0406 -0.9587 -0.2817
vn 0.0030 -0.9151 -0.4033
vn -0.3213 -0.8749 -0.3623
vn -0.2479 -0.8269 -0.5048
s off
f 1//1 5//1 2//1
f 2//2 140//2 139//2
f 4//3 149//3 5//3
f 5//4 228//4 140//4
f 1//5 6//5 3//5
f 3//6 144//6 145//6
f 139//7 6//7 2//7
f 6//8 227//8 144//8
f 1//9 7//9 4//9
f 7//10 148//10 4//10
f 145//11 7//11 3//11
f 146//12 147//12 7//12
f 8//13 12//13 9//13
f 9//14 131//14 130//14
f 11//15 152//15 12//15
f 12//16 226//16 131//16
f 8//17 13//17 10//17
f 10//18 141//18 142//18
f 9//19 129//19 13//19
f 13//20 225//20 141//20
f 8//21 14//21 11//21
f 14//22 151//22 11//22
f 142//23 14//23 10//23
f 143//24 150//24 14//24
f 15//25 19//25 16//25
f 16//26 134//26 133//26
f 145//27 19//27 18//27
f 144//28 134//28 19//28
f 15//29 20//29 17//29
f 20//30 151//30 17//30
f 133//31 20//31 16//31
f 132//32 152//32 20//32
f 15//33 21//33 18//33
f 18//34 146//34 145//34
f 17//35 150//35 21//35
f 21//36 229//36 146//36
f 22//37 26//37 23//37
f 23//38 137//38 136//38
f 148//39 26//39 25//39
f 149//40 137//40 26//40
f 22//41 27//41 24//41
f 27//42 142//42 24//42
f 136//43 27//43 23//43
f 135//44 141//44 27//44
f 22//45 28//45 25//45
f 25//46 147//46 148//46
f 24//47 143//47 28//47
f 28//48 229//48 147//48
f 29//49 34//49 30//49
f 30//50 138//50 139//50
f 33//51 170//51 34//51
f 34//52 227//52 138//52
f 30//53 31//53 29//53
f 31//54 165//54 166//54
f 139//55 35//55 30//55
f 140//56 165//56 35//56
f 31//57 32//57 29//57
f 36//58 163//58 32//58
f 166//59 36//59 31//59
f 167//60 164//60 36//60
f 32//61 33//61 29//61
f 37//62 169//62 33//62
f 163//63 37//63 32//63
f 162//64 168//64 37//64
f 42//65 39//65 38//65
f 43//66 130//66 39//66
f 175//67 43//67 42//67
f 176//68 129//68 43//68
f 39//69 40//69 38//69
f 44//70 172//70 40//70
f 130//71 44//71 39//71
f 131//72 171//72 44//72
f 38//73 45//73 41//73
f 41//74 155//74 154//74
f 40//75 173//75 45//75
f 45//76 232//76 155//76
f 38//77 46//77 42//77
f 42//78 174//78 175//78
f 41//79 153//79 46//79
f 46//80 231//80 174//80
f 47//81 52//81 48//81
f 48//82 132//82 133//82
f 51//83 171//83 52//83
f 52//84 226//84 132//84
f 48//85 49//85 47//85
f 53//86 169//86 49//86
f 133//87 53//87 48//87
f 134//88 170//88 53//88
f 47//89 54//89 50//89
f 50//90 158//90 157//90
f 49//91 168//91 54//91
f 54//92 233//92 158//92
f 50//93 51//93 47//93
f 55//94 172//94 51//94
f 157//95 55//95 50//95
f 156//96 173//96 55//96
f 56//97 61//97 57//97
f 57//98 135//98 136//98
f 60//99 176//99 61//99
f 61//100 225//100 135//100
f 57//101 58//101 56//101
f 62//102 166//102 58//102
f 136//103 62//103 57//103
f 62//104 228//104 165//104
f 56//105 63//105 59//105
f 59//106 161//106 160//106
f 58//107 167//107 63//107
f 63//108 234//108 161//108
f 59//109 60//109 56//109
f 64//110 175//110 60//110
f 160//111 64//111 59//111
f 159//112 174//112 64//112
f 65//113 69//113 66//113
f 66//114 197//114 196//114
f 68//115 188//115 69//115
f 69//116 238//116 197//116
f 65//117 70//117 67//117
f 70//118 193//118 67//118
f 196//119 70//119 66//119
f 195//120 194//120 70//120
f 65//121 71//121 68//121
f 71//122 187//122 68//122
f 67//123 192//123 71//123
f 71//124 237//124 186//124
f 72//125 76//125 73//125
f 73//126 200//126 199//126
f 75//127 179//127 76//127
f 76//128 236//128 200//128
f 72//129 77//129 74//129
f 77//130 190//130 74//130
f 199//131 77//131 73//131
f 198//132 191//132 77//132
f 72//133 78//133 75//133
f 75//134 177//134 178//134
f 74//135 189//135 78//135
f 78//136 235//136 177//136
f 79//137 83//137 80//137
f 83//138 193//138 80//138
f 82//139 182//139 83//139
f 182//140 192//140 83//140
f 79//141 84//141 81//141
f 81//142 198//142 199//142
f 80//143 194//143 84//143
f 84//144 239//144 198//144
f 79//145 85//145 82//145
f 85//146 181//146 82//146
f 199//147 85//147 81//147
f 200//148 180//148 85//148
f 86//149 90//149 87//149
f 90//150 196//150 87//150
f 89//151 185//151 90//151
f 185//152 197//152 90//152
f 86//153 91//153 88//153
f 88//154 191//154 190//154
f 87//155 195//155 91//155
f 91//156 239//156 191//156
f 86//157 92//157 89//157
f 92//158 184//158 89//158
f 190//159 92//159 88//159
f 189//160 183//160 92//160
f 93//161 98//161 94//161
f 94//162 218//162 217//162
f 97//163 186//163 98//163
f 98//164 237//164 218//164
f 94//165 95//165 93//165
f 99//166 211//166 95//166
f 217//167 99//167 94//167
f 216//168 210//168 99//168
f 95//169 96//169 93//169
f 100//170 214//170 96//170
f 211//171 100//171 95//171
f 212//172 215//172 100//172
f 96//173 97//173 93//173
f 101//174 187//174 97//174
f 96//175 213//175 101//175
f 213//176 188//176 101//176
f 106//177 103//177 102//177
f 107//178 223//178 103//178
f 178//179 107//179 106//179
f 177//180 224//180 107//180
f 102//181 108//181 104//181
f 104//182 201//182 202//182
f 103//183 222//183 108//183
f 108//184 241//184 201//184
f 102//185 109//185 105//185
f 105//186 221//186 220//186
f 104//187 203//187 109//187
f 109//188 242//188 221//188
f 105//189 106//189 102//189
f 110//190 178//190 106//190
f 220//191 110//191 105//191
f 219//192 179//192 110//192
f 111//193 116//193 112//193
f 112//194 219//194 220//194
f 115//195 180//195 116//195
f 116//196 236//196 219//196
f 112//197 113//197 111//197
f 117//198 205//198 113//198
f 220//199 117//199 112//199
f 221//200 204//200 117//200
f 111//201 118//201 114//201
f 114//202 216//202 217//202
f 113//203 206//203 118//203
f 118//204 243//204 216//204
f 114//205 115//205 111//205
f 119//206 181//206 115//206
f 217//207 119//207 114//207
f 218//208 182//208 119//208
f 120//209 125//209 121//209
f 121//210 224//210 223//210
f 124//211 183//211 125//211
f 125//212 235//212 224//212
f 121//213 122//213 120//213
f 126//214 208//214 122//214
f 223//215 126//215 121//215
f 222//216 207//216 126//216
f 120//217 127//217 123//217
f 123//218 215//218 214//218
f 122//219 209//219 127//219
f 127//220 244//220 215//220
f 123//221 124//221 120//221
f 128//222 184//222 124//222
f 214//223 128//223 123//223
f 128//224 238//224 185//224
f 1//225 4//225 5//225
f 2//226 5//226 140//226
f 4//227 148//227 149//227
f 5//228 149//228 228//228
f 1//229 2//229 6//229
f 3//230 6//230 144//230
f 139//231 138//231 6//231
f 6//232 138//232 227//232
f 1//233 3//233 7//233
f 7//234 147//234 148//234
f 145//235 146//235 7//235
f 146//236 229//236 147//236
f 8//237 11//237 12//237
f 9//238 12//238 131//238
f 11//239 151//239 152//239
f 12//240 152//240 226//240
f 8//241 9//241 13//241
f 10//242 13//242 141//242
f 9//243 130//243 129//243
f 13//244 129//244 225//244
f 8//245 10//245 14//245
f 14//246 150//246 151//246
f 142//247 143//247 14//247
f 143//248 229//248 150//248
f 15//249 18//249 19//249
f 16//250 19//250 134//250
f 145//251 144//251 19//251
f 144//252 227//252 134//252
f 15//253 16//253 20//253
f 20//254 152//254 151//254
f 133//255 132//255 20//255
f 132//256 226//256 152//256
f 15//257 17//257 21//257
f 18//258 21//258 146//258
f 17//259 151//259 150//259
f 21//260 150//260 229//260
f 22//261 25//261 26//261
f 23//262 26//262 137//262
f 148//263 149//263 26//263
f 149//264 228//264 137//264
f 22//265 23//265 27//265
f 27//266 141//266 142//266
f 136//267 135//267 27//267
f 135//268 225//268 141//268
f 22//269 24//269 28//269
f 25//270 28//270 147//270
f 24//271 142//271 143//271
f 28//272 143//272 229//272
f 29//273 33//273 34//273
f 30//274 34//274 138//274
f 33//275 169//275 170//275
f 34//276 170//276 227//276
f 30//277 35//277 31//277
f 31//278 35//278 165//278
f 139//279 140//279 35//279
f 140//280 228//280 165//280
f 31//281 36//281 32//281
f 36//58 164//58 163//58
f 166//282 167//282 36//282
f 167//60 234//60 164//60
f 32//283 37//283 33//283
f 37//284 168//284 169//284
f 163//63 162//63 37//63
f 162//64 233//64 168//64
f 42//285 43//285 39//285
f 43//286 129//286 130//286
f 175//287 176//287 43//287
f 176//288 225//288 129//288
f 39//289 44//289 40//289
f 44//290 171//290 172//290
f 130//291 131//291 44//291
f 131//292 226//292 171//292
f 38//293 40//293 45//293
f 41//74 45//74 155//74
f 40//294 172//294 173//294
f 45//76 173//76 232//76
f 38//295 41//295 46//295
f 42//296 46//296 174//296
f 41//79 154//79 153//79
f 46//297 153//297 231//297
f 47//298 51//298 52//298
f 48//299 52//299 132//299
f 51//300 172//300 171//300
f 52//301 171//301 226//301
f 48//302 53//302 49//302
f 53//303 170//303 169//303
f 133//304 134//304 53//304
f 134//305 227//305 170//305
f 47//306 49//306 54//306
f 50//307 54//307 158//307
f 49//308 169//308 168//308
f 54//92 168//92 233//92
f 50//309 55//309 51//309
f 55//310 173//310 172//310
f 157//95 156//95 55//95
f 156//96 232//96 173//96
f 56//311 60//311 61//311
f 57//312 61//312 135//312
f 60//313 175//313 176//313
f 61//314 176//314 225//314
f 57//315 62//315 58//315
f 62//316 165//316 166//316
f 136//317 137//317 62//317
f 62//318 137//318 228//318
f 56//319 58//319 63//319
f 59//320 63//320 161//320
f 58//321 166//321 167//321
f 63//108 167//108 234//108
f 59//322 64//322 60//322
f 64//323 174//323 175//323
f 160//324 159//324 64//324
f 159//112 231//112 174//112
f 65//325 68//325 69//325
f 66//326 69//326 197//326
f 68//327 187//327 188//327
f 69//328 188//328 238//328
f 65//329 66//329 70//329
f 70//330 194//330 193//330
f 196//331 195//331 70//331
f 195//332 239//332 194//332
f 65//333 67//333 71//333
f 71//334 186//334 187//334
f 67//335 193//335 192//335
f 71//336 192//336 237//336
f 72//337 75//337 76//337
f 73//338 76//338 200//338
f 75//339 178//339 179//339
f 76//340 179//340 236//340
f 72//341 73//341 77//341
f 77//342 191//342 190//342
f 199//343 198//343 77//343
f 198//344 239//344 191//344
f 72//345 74//345 78//345
f 75//346 78//346 177//346
f 74//347 190//347 189//347
f 78//348 189//348 235//348
f 79//349 82//349 83//349
f 83//350 192//350 193//350
f 82//351 181//351 182//351
f 182//352 237//352 192//352
f 79//353 80//353 84//353
f 81//354 84//354 198//354
f 80//355 193//355 194//355
f 84//356 194//356 239//356
f 79//357 81//357 85//357
f 85//358 180//358 181//358
f 199//359 200//359 85//359
f 200//360 236//360 180//360
f 86//361 89//361 90//361
f 90//362 197//362 196//362
f 89//363 184//363 185//363
f 185//364 238//364 197//364
f 86//365 87//365 91//365
f 88//366 91//366 191//366
f 87//367 196//367 195//367
f 91//368 195//368 239//368
f 86//369 88//369 92//369
f 92//370 183//370 184//370
f 190//371 189//371 92//371
f 189//372 235//372 183//372
f 93//373 97//373 98//373
f 94//374 98//374 218//374
f 97//375 187//375 186//375
f 98//376 186//376 237//376
f 94//377 99//377 95//377
f 99//166 210//166 211//166
f 217//378 216//378 99//378
f 216//168 243//168 210//168
f 95//379 100//379 96//379
f 100//380 215//380 214//380
f 211//171 212//171 100//171
f 212//172 244//172 215//172
f 96//381 101//381 97//381
f 101//382 188//382 187//382
f 96//383 214//383 213//383
f 213//384 238//384 188//384
f 106//385 107//385 103//385
f 107//386 224//386 223//386
f 178//387 177//387 107//387
f 177//388 235//388 224//388
f 102//389 103//389 108//389
f 104//182 108//182 201//182
f 103//390 223//390 222//390
f 108//391 222//391 241//391
f 102//392 104//392 109//392
f 105//393 109//393 221//393
f 104//187 202//187 203//187
f 109//188 203//188 242//188
f 105//394 110//394 106//394
f 110//395 179//395 178//395
f 220//396 219//396 110//396
f 219//397 236//397 179//397
f 111//398 115//398 116//398
f 112//399 116//399 219//399
f 115//400 181//400 180//400
f 116//401 180//401 236//401
f 112//402 117//402 113//402
f 117//198 204//198 205//198
f 220//403 221//403 117//403
f 221//404 242//404 204//404
f 111//405 113//405 118//405
f 114//406 118//406 216//406
f 113//407 205//407 206//407
f 118//204 206//204 243//204
f 114//408 119//408 115//408
f 119//409 182//409 181//409
f 217//410 218//410 119//410
f 218//411 237//411 182//411
f 120//412 124//412 125//412
f 121//413 125//413 224//413
f 124//414 184//414 183//414
f 125//415 183//415 235//415
f 121//416 126//416 122//416
f 126//417 207//417 208//417
f 223//418 222//418 126//418
f 222//419 241//419 207//419
f 120//420 122//420 127//420
f 123//421 127//421 215//421
f 122//219 208//219 209//219
f 127//220 209//220 244//220
f 123//422 128//422 124//422
f 128//423 185//423 184//423
f 214//424 213//424 128//424
f 128//425 213//425 238//425
