ply
format ascii 1.0
comment Created by Blender 2.79 (sub 0) - www.blender.org, source file: 'm3_v2.blend'
element vertex 930
property float x
property float y
property float z
property float nx
property float ny
property float nz
element face 576
property list uchar uint vertex_indices
end_header
0.983693 0.063266 -4.416067 -0.177150 -0.107766 0.978266
1.014396 0.130138 -4.403005 -0.177150 -0.107766 0.978266
1.000827 0.132295 -4.405360 -0.177150 -0.107766 0.978266
0.969476 0.063266 -4.418506 -0.177150 -0.107766 0.978266
0.969476 0.063266 -4.418506 -0.180325 -0.100746 0.978434
1.000827 0.132295 -4.405360 -0.180325 -0.100746 0.978434
0.974930 0.132295 -4.410393 -0.180325 -0.100746 0.978434
0.944356 0.063266 -4.422875 -0.180325 -0.100746 0.978434
1.014396 0.130138 -4.403005 -0.194807 -0.099231 0.975809
1.045045 0.197010 -4.389952 -0.194807 -0.099231 0.975809
1.032178 0.201325 -4.392216 -0.194807 -0.099231 0.975809
1.000827 0.132295 -4.405360 -0.194807 -0.099231 0.975809
1.000827 0.132295 -4.405360 -0.199082 -0.091813 0.975672
1.032178 0.201325 -4.392216 -0.199082 -0.091813 0.975672
1.005503 0.201325 -4.397910 -0.199082 -0.091813 0.975672
0.974930 0.132295 -4.410393 -0.199082 -0.091813 0.975672
0.983693 0.063266 -4.416067 -0.158561 -0.116657 0.980433
0.969476 0.063266 -4.418506 -0.158561 -0.116657 0.980433
0.938125 -0.005763 -4.431650 -0.158561 -0.116657 0.980433
0.952884 -0.003606 -4.429146 -0.158561 -0.116657 0.980433
0.952884 -0.003606 -4.429146 -0.138668 -0.126125 0.982275
0.938125 -0.005763 -4.431650 -0.138668 -0.126125 0.982275
0.906774 -0.074793 -4.444796 -0.138668 -0.126125 0.982275
0.922021 -0.070479 -4.442233 -0.138668 -0.126125 0.982275
0.969476 0.063266 -4.418506 -0.160195 -0.110228 0.980912
0.944356 0.063266 -4.422875 -0.160195 -0.110228 0.980912
0.913783 -0.005763 -4.435358 -0.160195 -0.110228 0.980912
0.938125 -0.005763 -4.431650 -0.160195 -0.110228 0.980912
0.938125 -0.005763 -4.431650 -0.138587 -0.120324 0.983014
0.913783 -0.005763 -4.435358 -0.138587 -0.120324 0.983014
0.883209 -0.074793 -4.447842 -0.138587 -0.120324 0.983014
0.906774 -0.074793 -4.444796 -0.138587 -0.120324 0.983014
0.983693 0.063266 -4.416067 -0.154824 -0.121213 0.980478
0.952884 -0.003606 -4.429146 -0.154824 -0.121213 0.980478
0.962445 0.002865 -4.426889 -0.154824 -0.121213 0.980478
0.990571 0.063266 -4.414927 -0.154824 -0.121213 0.980478
0.990571 0.063266 -4.414927 -0.145200 -0.126960 0.981223
0.962445 0.002865 -4.426889 -0.145200 -0.126960 0.981223
0.969408 0.011494 -4.424758 -0.145200 -0.126960 0.981223
0.993780 0.063266 -4.414437 -0.145200 -0.126960 0.981223
0.952884 -0.003606 -4.429146 -0.138438 -0.129117 0.981918
0.922021 -0.070479 -4.442233 -0.138438 -0.129117 0.981918
0.934105 -0.057536 -4.438885 -0.138438 -0.129117 0.981918
0.962445 0.002865 -4.426889 -0.138438 -0.129117 0.981918
0.962445 0.002865 -4.426889 -0.136368 -0.131209 0.981931
0.934105 -0.057536 -4.438885 -0.136368 -0.131209 0.981931
0.948183 -0.031650 -4.433482 -0.136368 -0.131209 0.981931
0.969408 0.011494 -4.424758 -0.136368 -0.131209 0.981931
0.983693 0.063266 -4.416067 -0.169918 -0.113985 0.978844
0.990571 0.063266 -4.414927 -0.169918 -0.113985 0.978844
1.018270 0.123667 -4.403031 -0.169918 -0.113985 0.978844
1.014396 0.130138 -4.403005 -0.169918 -0.113985 0.978844
1.014396 0.130138 -4.403005 -0.185770 -0.106382 0.976817
1.018270 0.123667 -4.403031 -0.185770 -0.106382 0.976817
1.045754 0.184067 -4.391168 -0.185770 -0.106382 0.976817
1.045045 0.197010 -4.389952 -0.185770 -0.106382 0.976817
0.990571 0.063266 -4.414927 -0.154348 -0.122553 0.980386
0.993780 0.063266 -4.414437 -0.154348 -0.122553 0.980386
1.017297 0.115038 -4.404248 -0.154348 -0.122553 0.980386
1.018270 0.123667 -4.403031 -0.154348 -0.122553 0.980386
1.018270 0.123667 -4.403031 -0.162968 -0.118423 0.979499
1.017297 0.115038 -4.404248 -0.162968 -0.118423 0.979499
1.035955 0.158181 -4.395916 -0.162968 -0.118423 0.979499
1.045754 0.184067 -4.391168 -0.162968 -0.118423 0.979499
0.858038 0.063266 -4.438013 -0.182693 -0.063646 0.981108
0.885818 0.132295 -4.427870 -0.182693 -0.063646 0.981108
0.837729 0.132295 -4.437317 -0.182693 -0.063646 0.981108
0.811467 0.063266 -4.446193 -0.182693 -0.063646 0.981108
0.811467 0.063266 -4.446193 -0.182632 -0.050898 0.981863
0.837729 0.132295 -4.437317 -0.182632 -0.050898 0.981863
0.797367 0.132295 -4.445237 -0.182632 -0.050898 0.981863
0.772374 0.063266 -4.453052 -0.182632 -0.050898 0.981863
0.885818 0.132295 -4.427870 -0.201804 -0.055721 0.977840
0.913598 0.201325 -4.417726 -0.201804 -0.055721 0.977840
0.863990 0.201325 -4.428441 -0.201804 -0.055721 0.977840
0.837729 0.132295 -4.437317 -0.201804 -0.055721 0.977840
0.837729 0.132295 -4.437317 -0.201706 -0.043408 0.978484
0.863990 0.201325 -4.428441 -0.201706 -0.043408 0.978484
0.822360 0.201325 -4.437423 -0.201706 -0.043408 0.978484
0.797367 0.132295 -4.445237 -0.201706 -0.043408 0.978484
0.858038 0.063266 -4.438013 -0.162094 -0.072133 0.984135
0.811467 0.063266 -4.446193 -0.162094 -0.072133 0.984135
0.785206 -0.005763 -4.455069 -0.162094 -0.072133 0.984135
0.830258 -0.005763 -4.448157 -0.162094 -0.072133 0.984135
0.830258 -0.005763 -4.448157 -0.139852 -0.081211 0.986836
0.785206 -0.005763 -4.455069 -0.139852 -0.081211 0.986836
0.758945 -0.074793 -4.463944 -0.139852 -0.081211 0.986836
0.802478 -0.074793 -4.458302 -0.139852 -0.081211 0.986836
0.811467 0.063266 -4.446193 -0.162087 -0.058913 0.985016
0.772374 0.063266 -4.453052 -0.162087 -0.058913 0.985016
0.747381 -0.005763 -4.460867 -0.162087 -0.058913 0.985016
0.785206 -0.005763 -4.455069 -0.162087 -0.058913 0.985016
0.785206 -0.005763 -4.455069 -0.139918 -0.067480 0.987861
0.747381 -0.005763 -4.460867 -0.139918 -0.067480 0.987861
0.722388 -0.074793 -4.468681 -0.139918 -0.067480 0.987861
0.758945 -0.074793 -4.463944 -0.139918 -0.067480 0.987861
0.858038 0.063266 -4.438013 -0.161825 -0.086597 0.983012
0.830258 -0.005763 -4.448157 -0.161825 -0.086597 0.983012
0.875472 -0.005763 -4.441224 -0.161825 -0.086597 0.983012
0.904772 0.063266 -4.429810 -0.161825 -0.086597 0.983012
0.904772 0.063266 -4.429810 -0.161341 -0.099977 0.981822
0.875472 -0.005763 -4.441224 -0.161341 -0.099977 0.981822
0.913783 -0.005763 -4.435358 -0.161341 -0.099977 0.981822
0.944356 0.063266 -4.422875 -0.161341 -0.099977 0.981822
0.830258 -0.005763 -4.448157 -0.139625 -0.096167 0.985523
0.802478 -0.074793 -4.458302 -0.139625 -0.096167 0.985523
0.846172 -0.074793 -4.452639 -0.139625 -0.096167 0.985523
0.875472 -0.005763 -4.441224 -0.139625 -0.096167 0.985523
0.875472 -0.005763 -4.441224 -0.139271 -0.109954 0.984131
0.846172 -0.074793 -4.452639 -0.139271 -0.109954 0.984131
0.883209 -0.074793 -4.447842 -0.139271 -0.109954 0.984131
0.913783 -0.005763 -4.435358 -0.139271 -0.109954 0.984131
0.858038 0.063266 -4.438013 -0.182415 -0.077631 0.980152
0.904772 0.063266 -4.429810 -0.182415 -0.077631 0.980152
0.934073 0.132295 -4.418395 -0.182415 -0.077631 0.980152
0.885818 0.132295 -4.427870 -0.182415 -0.077631 0.980152
0.885818 0.132295 -4.427870 -0.201525 -0.069249 0.977032
0.934073 0.132295 -4.418395 -0.201525 -0.069249 0.977032
0.963373 0.201325 -4.406981 -0.201525 -0.069249 0.977032
0.913598 0.201325 -4.417726 -0.201525 -0.069249 0.977032
0.904772 0.063266 -4.429810 -0.181810 -0.090637 0.979148
0.944356 0.063266 -4.422875 -0.181810 -0.090637 0.979148
0.974930 0.132295 -4.410393 -0.181810 -0.090637 0.979148
0.934073 0.132295 -4.418395 -0.181810 -0.090637 0.979148
0.934073 0.132295 -4.418395 -0.200830 -0.081878 0.976198
0.974930 0.132295 -4.410393 -0.200830 -0.081878 0.976198
1.005503 0.201325 -4.397910 -0.200830 -0.081878 0.976198
0.963373 0.201325 -4.406981 -0.200830 -0.081878 0.976198
0.734896 0.063266 -4.459576 -0.173992 -0.036582 0.984067
0.758020 0.130138 -4.452952 -0.173992 -0.036582 0.984067
0.750045 0.123667 -4.454652 -0.173992 -0.036582 0.984067
0.729183 0.063266 -4.460537 -0.173992 -0.036582 0.984067
0.729183 0.063266 -4.460537 -0.155671 -0.042235 0.986906
0.750045 0.123667 -4.454652 -0.155671 -0.042235 0.986906
0.745221 0.115038 -4.455791 -0.155671 -0.042235 0.986906
0.727200 0.063266 -4.460840 -0.155671 -0.042235 0.986906
0.758020 0.130138 -4.452952 -0.190612 -0.030499 0.981192
0.781176 0.197010 -4.446324 -0.190612 -0.030499 0.981192
0.771040 0.184067 -4.448747 -0.190612 -0.030499 0.981192
0.750045 0.123667 -4.454652 -0.190612 -0.030499 0.981192
0.750045 0.123667 -4.454652 -0.164385 -0.039104 0.985621
0.771040 0.184067 -4.448747 -0.164385 -0.039104 0.985621
0.760819 0.158181 -4.451486 -0.164385 -0.039104 0.985621
0.745221 0.115038 -4.455791 -0.164385 -0.039104 0.985621
0.734896 0.063266 -4.459576 -0.157702 -0.042476 0.986573
0.729183 0.063266 -4.460537 -0.157702 -0.042476 0.986573
0.708585 0.002865 -4.466382 -0.157702 -0.042476 0.986573
0.711839 -0.003606 -4.466188 -0.157702 -0.042476 0.986573
0.711839 -0.003606 -4.466188 -0.140219 -0.048692 0.988923
0.708585 0.002865 -4.466382 -0.140219 -0.048692 0.988923
0.688119 -0.057536 -4.472207 -0.140219 -0.048692 0.988923
0.688815 -0.070479 -4.472796 -0.140219 -0.048692 0.988923
0.729183 0.063266 -4.460537 -0.146518 -0.045508 0.988161
0.727200 0.063266 -4.460840 -0.146518 -0.045508 0.988161
0.709708 0.011494 -4.465809 -0.146518 -0.045508 0.988161
0.708585 0.002865 -4.466382 -0.146518 -0.045508 0.988161
0.708585 0.002865 -4.466382 -0.137642 -0.048648 0.989287
0.709708 0.011494 -4.465809 -0.137642 -0.048648 0.989287
0.695696 -0.031650 -4.469872 -0.137642 -0.048648 0.989287
0.688119 -0.057536 -4.472207 -0.137642 -0.048648 0.989287
0.734896 0.063266 -4.459576 -0.160600 -0.044098 0.986034
0.711839 -0.003606 -4.466188 -0.160600 -0.044098 0.986034
0.723848 -0.005763 -4.464462 -0.160600 -0.044098 0.986034
0.748072 0.063266 -4.457296 -0.160600 -0.044098 0.986034
0.748072 0.063266 -4.457296 -0.161546 -0.049365 0.985630
0.723848 -0.005763 -4.464462 -0.161546 -0.049365 0.985630
0.747381 -0.005763 -4.460867 -0.161546 -0.049365 0.985630
0.772374 0.063266 -4.453052 -0.161546 -0.049365 0.985630
0.711839 -0.003606 -4.466188 -0.140072 -0.051512 0.988800
0.688815 -0.070479 -4.472796 -0.140072 -0.051512 0.988800
0.699625 -0.074793 -4.471627 -0.140072 -0.051512 0.988800
0.723848 -0.005763 -4.464462 -0.140072 -0.051512 0.988800
0.723848 -0.005763 -4.464462 -0.139671 -0.057464 0.988529
0.699625 -0.074793 -4.471627 -0.139671 -0.057464 0.988529
0.722388 -0.074793 -4.468681 -0.139671 -0.057464 0.988529
0.747381 -0.005763 -4.460867 -0.139671 -0.057464 0.988529
0.734896 0.063266 -4.459576 -0.179722 -0.037120 0.983017
0.748072 0.063266 -4.457296 -0.179722 -0.037120 0.983017
0.772295 0.132295 -4.450131 -0.179722 -0.037120 0.983017
0.758020 0.130138 -4.452952 -0.179722 -0.037120 0.983017
0.758020 0.130138 -4.452952 -0.197733 -0.030504 0.979781
0.772295 0.132295 -4.450131 -0.197733 -0.030504 0.979781
0.796519 0.201325 -4.442966 -0.197733 -0.030504 0.979781
0.781176 0.197010 -4.446324 -0.197733 -0.030504 0.979781
0.748072 0.063266 -4.457296 -0.181850 -0.041767 0.982439
0.772374 0.063266 -4.453052 -0.181850 -0.041767 0.982439
0.797367 0.132295 -4.445237 -0.181850 -0.041767 0.982439
0.772295 0.132295 -4.450131 -0.181850 -0.041767 0.982439
0.772295 0.132295 -4.450131 -0.200721 -0.034670 0.979035
0.797367 0.132295 -4.445237 -0.200721 -0.034670 0.979035
0.822360 0.201325 -4.437423 -0.200721 -0.034670 0.979035
0.796519 0.201325 -4.442966 -0.200721 -0.034670 0.979035
1.423778 -0.011737 -4.296731 0.650533 0.085208 -0.754631
1.457047 -0.011596 -4.262360 0.781121 0.057192 -0.621693
1.457099 -0.044608 -4.264966 0.787439 0.048769 -0.614399
1.423425 -0.044813 -4.300684 0.660543 0.080844 -0.746391
1.456791 -0.077342 -4.267714 0.787622 0.046541 -0.614368
1.422800 -0.077615 -4.304744 0.661092 0.080355 -0.745933
1.486462 -0.011315 -4.217138 0.881588 0.041078 -0.470199
1.486934 -0.044198 -4.218370 0.883389 0.029328 -0.467696
1.486970 -0.076796 -4.219831 0.882900 0.025513 -0.468825
1.386265 -0.044881 -4.327971 0.527970 0.114139 -0.841517
1.387131 -0.011784 -4.322863 0.518967 0.114505 -0.847072
1.345972 -0.044881 -4.349272 0.421125 0.136601 -0.896634
1.347584 -0.011784 -4.343364 0.419263 0.133976 -0.897885
1.385208 -0.077706 -4.333180 0.527818 0.114994 -0.841517
1.344225 -0.077706 -4.355283 0.418195 0.138096 -0.897763
1.387617 0.021856 -4.317960 0.510788 0.114078 -0.852077
1.423586 0.021885 -4.292991 0.641163 0.091067 -0.761956
1.387532 0.056311 -4.313365 0.504196 0.112766 -0.856166
1.422576 0.056325 -4.289571 0.633168 0.097964 -0.767754
1.348928 0.021856 -4.337662 0.417646 0.129551 -0.899289
1.349868 0.056311 -4.332272 0.416395 0.123478 -0.900723
1.456273 0.021970 -4.260034 0.774804 0.070040 -0.628254
1.485118 0.022141 -4.216365 0.879147 0.059755 -0.472762
1.454416 0.056368 -4.258128 0.768700 0.086398 -0.633686
1.482465 0.056453 -4.216277 0.875698 0.084201 -0.475417
1.078985 -0.011104 -4.413280 0.140294 0.127262 -0.981872
1.068054 -0.044514 -4.419150 0.138462 0.128178 -0.982025
1.027443 -0.044374 -4.424529 0.126255 0.131687 -0.983215
1.039924 -0.010843 -4.418457 0.126133 0.130863 -0.983337
0.995279 -0.044252 -4.428499 0.123692 0.133244 -0.983306
1.009006 -0.010618 -4.422227 0.122868 0.132176 -0.983551
1.057013 -0.077706 -4.425013 0.136235 0.128849 -0.982238
1.014902 -0.077706 -4.430602 0.125584 0.132298 -0.983215
0.981537 -0.077706 -4.434783 0.124699 0.133457 -0.983154
1.052283 0.023086 -4.412388 0.126774 0.129215 -0.983459
1.089697 0.022745 -4.407395 0.142766 0.126011 -0.981689
1.064460 0.057612 -4.406322 0.128758 0.126621 -0.983551
1.100080 0.057251 -4.401485 0.146245 0.124424 -0.981384
1.022702 0.023380 -4.415977 0.122868 0.129826 -0.983886
1.036352 0.057923 -4.409763 0.124363 0.126102 -0.984161
1.132223 0.022410 -4.400805 0.167852 0.123753 -0.977996
1.123323 -0.011360 -4.406560 0.162664 0.125004 -0.978698
1.177140 0.022133 -4.392425 0.203742 0.124088 -0.971099
1.170072 -0.011572 -4.398158 0.194922 0.126194 -0.972655
1.140671 0.056897 -4.395018 0.173498 0.122654 -0.977142
1.183693 0.056604 -4.386684 0.212104 0.122410 -0.969543
1.114123 -0.044653 -4.412293 0.157872 0.126347 -0.979339
1.104772 -0.077706 -4.418017 0.153722 0.126957 -0.979919
1.162662 -0.044767 -4.403888 0.186010 0.128452 -0.974090
1.155079 -0.077706 -4.409615 0.179327 0.129124 -0.975249
1.261709 -0.011763 -4.375600 0.287912 0.137730 -0.947691
1.257615 -0.044869 -4.381738 0.276833 0.141789 -0.950377
1.210680 -0.044835 -4.393863 0.225257 0.134678 -0.964934
1.216365 -0.011699 -4.387938 0.237098 0.131321 -0.962554
1.253382 -0.077706 -4.387930 0.267861 0.143193 -0.952727
1.204835 -0.077706 -4.399809 0.216407 0.135685 -0.966796
1.221726 0.021967 -4.382060 0.248329 0.127720 -0.960204
1.265525 0.021884 -4.369572 0.298166 0.132694 -0.945219
1.226604 0.056428 -4.376250 0.258156 0.124302 -0.958037
1.268924 0.056340 -4.363708 0.306742 0.127110 -0.943236
1.308078 0.021856 -4.354819 0.354259 0.134648 -0.925382
1.305613 -0.011784 -4.360842 0.348308 0.140355 -0.926786
1.310172 0.056311 -4.349051 0.359050 0.127628 -0.924528
1.302900 -0.044881 -4.367034 0.341807 0.144383 -0.928587
1.300065 -0.077706 -4.373310 0.334849 0.146031 -0.930876
1.533206 -0.010001 -4.090331 0.959288 0.051057 -0.277688
1.552343 -0.008596 -4.016768 0.968627 0.063509 -0.240150
1.552620 -0.037865 -4.022302 0.968047 0.049837 -0.245643
1.534358 -0.041693 -4.091121 0.958129 0.038606 -0.283608
1.551685 -0.065858 -4.031316 0.966338 0.044038 -0.253395
1.534835 -0.072832 -4.093184 0.956603 0.033906 -0.289285
1.570220 -0.006910 -3.940486 0.970885 0.070345 -0.228858
1.569121 -0.033033 -3.952737 0.970885 0.057619 -0.232398
1.563253 -0.053185 -3.981683 0.970580 0.048677 -0.235694
1.512575 -0.043515 -4.158449 0.935820 0.027802 -0.351329
1.511547 -0.010845 -4.158459 0.936430 0.040803 -0.348399
1.513124 -0.075885 -4.158838 0.934935 0.023347 -0.354015
1.509561 0.022425 -4.159263 0.935911 0.061983 -0.346660
1.530702 0.022795 -4.092085 0.959044 0.071749 -0.273965
1.506137 0.056596 -4.161258 0.933714 0.090213 -0.346446
1.526527 0.056781 -4.096363 0.956999 0.099399 -0.272408
1.549642 0.023222 -4.018191 0.968078 0.083285 -0.236274
1.567482 0.023677 -3.940940 0.970336 0.087436 -0.225318
1.544729 0.056994 -4.024882 0.966124 0.107822 -0.234352
1.561836 0.057222 -3.950110 0.968719 0.108829 -0.222968
1.394758 0.279754 -4.277449 0.618976 0.135197 -0.773644
1.416215 0.279194 -4.257380 0.737938 0.158971 -0.655843
1.425233 0.241010 -4.256439 0.743126 0.152959 -0.651418
1.401698 0.241349 -4.278594 0.618213 0.130894 -0.775018
1.433431 0.203060 -4.255832 0.748100 0.143315 -0.647908
1.407898 0.203230 -4.280019 0.618549 0.124943 -0.775719
1.435212 0.278074 -4.232007 0.835810 0.183752 -0.517350
1.445980 0.240332 -4.227913 0.844722 0.177465 -0.504868
1.455881 0.202721 -4.224256 0.852626 0.165471 -0.495590
1.375298 0.241462 -4.296211 0.502365 0.114811 -0.856960
1.370587 0.279940 -4.293756 0.508133 0.116550 -0.853328
1.345955 0.241462 -4.311120 0.423811 0.105228 -0.899594
1.343446 0.279940 -4.307841 0.430616 0.104434 -0.896451
1.379381 0.203286 -4.298923 0.498703 0.112888 -0.859371
1.347978 0.203286 -4.314647 0.419172 0.106693 -0.901578
1.365457 0.318619 -4.291471 0.516037 0.118076 -0.848354
1.387325 0.318347 -4.276487 0.620838 0.137883 -0.771691
1.360118 0.357398 -4.289271 0.517838 0.118229 -0.847255
1.379645 0.357036 -4.275620 0.616230 0.137638 -0.775414
1.340613 0.318619 -4.304729 0.439589 0.104221 -0.892117
1.337618 0.357398 -4.301698 0.443953 0.104129 -0.889950
1.406651 0.317533 -4.258541 0.732139 0.161504 -0.661702
1.423867 0.315905 -4.236390 0.824915 0.184088 -0.534410
1.396813 0.355950 -4.259813 0.720664 0.159978 -0.674520
1.412234 0.353779 -4.240919 0.809809 0.180792 -0.558092
1.467160 0.273570 -4.162443 0.921201 0.206183 -0.329905
1.481246 0.270134 -4.121686 0.934782 0.200751 -0.292978
1.494667 0.236035 -4.101327 0.941496 0.196234 -0.273904
1.480019 0.237731 -4.148307 0.928831 0.201178 -0.311014
1.507330 0.200572 -4.082077 0.947874 0.185980 -0.258675
1.492036 0.201420 -4.135006 0.936125 0.189184 -0.296396
1.494798 0.266299 -4.079223 0.941191 0.194555 -0.276131
1.508637 0.234225 -4.052297 0.947203 0.189550 -0.258553
1.521829 0.199668 -4.026774 0.952879 0.179632 -0.244301
1.464016 0.239201 -4.191186 0.902860 0.195013 -0.383099
1.452004 0.276209 -4.199789 0.893857 0.200476 -0.400983
1.475152 0.202155 -4.183190 0.911008 0.182379 -0.369762
1.439408 0.313191 -4.208797 0.882870 0.197760 -0.425916
1.453760 0.308813 -4.177145 0.912564 0.201178 -0.355937
1.426520 0.350161 -4.218009 0.869411 0.193732 -0.454482
1.440092 0.343757 -4.192127 0.901761 0.196661 -0.384808
1.467410 0.302192 -4.142814 0.927915 0.198004 -0.315775
1.480709 0.294450 -4.107143 0.935087 0.194891 -0.295907
1.453367 0.333229 -4.164325 0.920011 0.194678 -0.340037
1.466767 0.317239 -4.135647 0.929655 0.190069 -0.315592
1.274150 0.128326 -4.352653 0.317820 0.115268 -0.941099
1.271767 0.091877 -4.358061 0.313089 0.121281 -0.941923
1.230836 0.091950 -4.370529 0.266121 0.120334 -0.956389
1.234604 0.128372 -4.364952 0.272896 0.114841 -0.955138
1.189560 0.092096 -4.380936 0.219825 0.119602 -0.968169
1.194993 0.128466 -4.375260 0.227638 0.113987 -0.967040
1.238091 0.165535 -4.359570 0.279672 0.107578 -0.954039
1.276168 0.165517 -4.347504 0.322092 0.108829 -0.940397
1.241476 0.203277 -4.354433 0.287881 0.098239 -0.952605
1.277918 0.203284 -4.342633 0.327280 0.101718 -0.939421
1.200246 0.165570 -4.369741 0.236702 0.105319 -0.965850
1.205571 0.203264 -4.364463 0.248451 0.093234 -0.964141
1.313562 0.165512 -4.333748 0.366771 0.108921 -0.923887
1.312896 0.128310 -4.338521 0.364635 0.114383 -0.924070
1.349354 0.165512 -4.318505 0.416547 0.109043 -0.902524
1.350109 0.128310 -4.322714 0.415509 0.112583 -0.902585
1.313788 0.203286 -4.329294 0.369854 0.103946 -0.923246
1.311772 0.091853 -4.343619 0.362346 0.120548 -0.924192
1.350271 0.091853 -4.327296 0.415571 0.117374 -0.901944
1.417313 0.128306 -4.283997 0.622578 0.111667 -0.774529
1.446460 0.128293 -4.255975 0.757714 0.118015 -0.641804
1.451116 0.091876 -4.256785 0.762902 0.103214 -0.638203
1.420477 0.091859 -4.286577 0.626881 0.105014 -0.771966
1.472073 0.128268 -4.218769 0.865688 0.130802 -0.483108
1.478067 0.091910 -4.217107 0.871059 0.109256 -0.478835
1.386684 0.091853 -4.309182 0.499649 0.111423 -0.859004
1.385056 0.128310 -4.305391 0.497269 0.110904 -0.860439
1.382628 0.165512 -4.301978 0.496994 0.111362 -0.860561
1.413112 0.165489 -4.281816 0.619922 0.118229 -0.775689
1.440536 0.165421 -4.255667 0.752861 0.131291 -0.644917
1.464628 0.165285 -4.221180 0.859615 0.149419 -0.488601
1.280942 0.279935 -4.333718 0.343822 0.090060 -0.934690
1.313082 0.279940 -4.321250 0.381512 0.096866 -0.919248
1.313593 0.241462 -4.325154 0.374676 0.099796 -0.921751
1.279495 0.241457 -4.338063 0.334391 0.095065 -0.937590
1.244943 0.241440 -4.349597 0.298776 0.088809 -0.950163
1.248470 0.279918 -4.344985 0.312754 0.081332 -0.946318
1.211221 0.241406 -4.359506 0.264199 0.080355 -0.961089
1.217115 0.279884 -4.354790 0.284677 0.069338 -0.956084
1.252038 0.318605 -4.340523 0.329936 0.075655 -0.940947
1.282302 0.318615 -4.329522 0.355541 0.086642 -0.930601
1.255626 0.357398 -4.336135 0.339915 0.073855 -0.937529
1.283619 0.357398 -4.325401 0.362499 0.085574 -0.928037
1.223171 0.318585 -4.350234 0.310404 0.059969 -0.948698
1.229308 0.357398 -4.345759 0.324900 0.057039 -0.943999
1.312361 0.318619 -4.317502 0.390271 0.095065 -0.915769
1.311534 0.357398 -4.313832 0.395337 0.094485 -0.913633
1.512418 0.128171 -4.112075 0.948485 0.151891 -0.277963
1.529129 0.128107 -4.048456 0.958617 0.153752 -0.239479
1.537816 0.092126 -4.035148 0.962828 0.132694 -0.235237
1.520362 0.092041 -4.103142 0.953276 0.127842 -0.273659
1.544851 0.128039 -3.981902 0.962279 0.150243 -0.226753
1.554215 0.092217 -3.964007 0.965880 0.131108 -0.223212
1.500798 0.091967 -4.164844 0.929685 0.119175 -0.348491
1.493729 0.128226 -4.169824 0.924528 0.143803 -0.352886
1.485118 0.165059 -4.176004 0.918302 0.164708 -0.359905
1.502906 0.164765 -4.122812 0.942778 0.172185 -0.285501
1.518892 0.164426 -4.064276 0.953642 0.171392 -0.247230
1.533978 0.164064 -4.003067 0.957945 0.166356 -0.233741
1.108500 0.279261 -4.381942 0.244240 -0.023621 -0.969420
1.114827 0.279591 -4.380424 0.230598 -0.010071 -0.972991
1.096881 0.241114 -4.384452 0.197119 0.019715 -0.980163
1.089981 0.241090 -4.385874 0.214545 0.005554 -0.976684
1.079669 0.203151 -4.388966 0.172094 0.050569 -0.983764
1.072040 0.203142 -4.390334 0.190313 0.037172 -0.980987
1.125344 0.279630 -4.378004 0.223182 0.005066 -0.974731
1.108752 0.241154 -4.382154 0.188604 0.033265 -0.981475
1.092874 0.203167 -4.386753 0.163579 0.061953 -0.984558
1.086394 0.241076 -4.386712 0.247078 -0.013794 -0.968871
1.104780 0.278332 -4.382887 0.267495 -0.038606 -0.962767
1.084464 0.241066 -4.387258 0.265633 -0.021821 -0.963805
1.102364 0.277104 -4.383546 0.279885 -0.042146 -0.959075
1.068128 0.203136 -4.391140 0.225257 0.017182 -0.974120
1.066075 0.203133 -4.391665 0.243843 0.010407 -0.969726
1.122503 0.313508 -4.379577 0.293374 -0.060884 -0.954039
1.127218 0.317175 -4.378388 0.282907 -0.052217 -0.957701
1.139894 0.347643 -4.376524 0.304788 -0.068728 -0.949919
1.146035 0.354959 -4.375025 0.299844 -0.061251 -0.951994
1.118452 0.308625 -4.380524 0.292520 -0.058107 -0.954466
1.131404 0.333012 -4.378185 0.316141 -0.076876 -0.945555
1.133261 0.318409 -4.376718 0.275063 -0.040407 -0.960570
1.142413 0.318433 -4.374154 0.269662 -0.023988 -0.962645
1.151940 0.357398 -4.373173 0.298044 -0.051912 -0.953124
1.159719 0.357398 -4.370454 0.295907 -0.036103 -0.954527
1.119824 0.128810 -4.389690 0.158605 0.111789 -0.980987
1.110026 0.092633 -4.395543 0.151250 0.120396 -0.981109
1.076395 0.092933 -4.400260 0.132725 0.121067 -0.983703
1.088365 0.129001 -4.394334 0.139592 0.110385 -0.984008
1.049941 0.093191 -4.403595 0.128117 0.118931 -0.984588
1.063722 0.129167 -4.397612 0.135014 0.106204 -0.985107
1.100645 0.165770 -4.388676 0.150578 0.094180 -0.984069
1.129766 0.165698 -4.384048 0.169500 0.098300 -0.980590
1.113515 0.203190 -4.383415 0.167364 0.071627 -0.983276
1.140143 0.203216 -4.378735 0.185492 0.079226 -0.979430
1.077949 0.165831 -4.391952 0.146275 0.087527 -0.985351
1.163552 0.165628 -4.377818 0.198096 0.102145 -0.974822
1.156050 0.128621 -4.383419 0.187658 0.112980 -0.975707
1.171311 0.203243 -4.372490 0.212622 0.086703 -0.973266
1.148518 0.092339 -4.389188 0.179815 0.119724 -0.976379
0.977599 -0.010113 -4.426214 0.138646 0.125492 -0.982330
0.963002 -0.043071 -4.432532 0.138371 0.127689 -0.982086
0.958371 -0.039889 -4.432811 0.158238 0.118534 -0.980255
0.971905 -0.009270 -4.426954 0.158727 0.116001 -0.980468
0.957199 -0.035666 -4.432529 0.170812 0.111881 -0.978912
0.969114 -0.008184 -4.427321 0.171667 0.109745 -0.979003
0.948588 -0.075604 -4.438816 0.137150 0.128819 -0.982116
0.945482 -0.069298 -4.438466 0.146306 0.124638 -0.981353
0.948939 -0.056686 -4.436404 0.171728 0.112857 -0.978637
0.986730 0.023767 -4.420695 0.161382 0.111209 -0.980590
0.992564 0.023696 -4.419828 0.139836 0.121616 -0.982665
1.002289 0.058332 -4.414287 0.165868 0.104312 -0.980590
1.007779 0.058257 -4.413455 0.142582 0.115848 -0.982971
0.983534 0.023814 -4.421261 0.174352 0.105472 -0.979003
0.999311 0.058381 -4.414827 0.179449 0.098361 -0.978820
1.003675 0.023575 -4.418357 0.128330 0.127140 -0.983520
0.989099 -0.010468 -4.424726 0.128025 0.130222 -0.983154
1.018296 0.058129 -4.412045 0.130192 0.122349 -0.983886
0.974552 -0.044172 -4.431130 0.128636 0.131779 -0.982879
0.960020 -0.077706 -4.437554 0.129765 0.131932 -0.982696
1.162894 0.279759 -4.369351 0.239540 0.037507 -0.970153
1.188322 0.279828 -4.362870 0.259590 0.054170 -0.964171
1.179613 0.241350 -4.367538 0.232765 0.069674 -0.970031
1.151247 0.241283 -4.373874 0.208319 0.057863 -0.976318
1.127250 0.241213 -4.378686 0.191778 0.046205 -0.980346
1.141634 0.279690 -4.374353 0.225684 0.021302 -0.973937
1.156452 0.318469 -4.370287 0.271615 -0.004334 -0.962371
1.174906 0.318510 -4.365054 0.281137 0.017273 -0.959502
1.171485 0.357398 -4.366352 0.298135 -0.014313 -0.954405
1.187098 0.357398 -4.360869 0.305063 0.010041 -0.952269
1.197303 0.318551 -4.358391 0.294412 0.039674 -0.954833
1.206419 0.357398 -4.354005 0.314249 0.034913 -0.948668
1.038819 0.129344 -4.401129 0.157231 0.089846 -0.983459
1.023129 0.093468 -4.407174 0.148106 0.105960 -0.983276
1.018027 0.093531 -4.407980 0.173894 0.092746 -0.980377
1.034126 0.129384 -4.401921 0.186529 0.074374 -0.979614
1.015298 0.093571 -4.408504 0.188238 0.086856 -0.978271
1.031649 0.129410 -4.402436 0.202307 0.068239 -0.976928
1.050766 0.165913 -4.396258 0.203803 0.049104 -0.977752
1.055054 0.165898 -4.395467 0.170995 0.067110 -0.982971
1.048522 0.165922 -4.396774 0.221259 0.042543 -0.974273
1.063433 0.165872 -4.394123 0.154118 0.078494 -0.984924
1.047946 0.129276 -4.399785 0.142033 0.099307 -0.984863
1.032977 0.093362 -4.405806 0.134465 0.113742 -0.984344
-0.990838 0.063266 -4.416067 0.177150 -0.107766 0.978266
-0.976620 0.063266 -4.418506 0.177150 -0.107766 0.978266
-1.007971 0.132295 -4.405360 0.177150 -0.107766 0.978266
-1.021540 0.130138 -4.403005 0.177150 -0.107766 0.978266
-1.021540 0.130138 -4.403005 0.194808 -0.099231 0.975809
-1.007971 0.132295 -4.405360 0.194808 -0.099231 0.975809
-1.039322 0.201325 -4.392216 0.194808 -0.099231 0.975809
-1.052189 0.197010 -4.389952 0.194808 -0.099231 0.975809
-0.976620 0.063266 -4.418506 0.180307 -0.100761 0.978436
-0.951501 0.063266 -4.422875 0.180307 -0.100761 0.978436
-0.982074 0.132295 -4.410392 0.180307 -0.100761 0.978436
-1.007971 0.132295 -4.405360 0.180307 -0.100761 0.978436
-1.007971 0.132295 -4.405360 0.199065 -0.091815 0.975676
-0.982074 0.132295 -4.410392 0.199065 -0.091815 0.975676
-1.012648 0.201325 -4.397910 0.199065 -0.091815 0.975676
-1.039322 0.201325 -4.392216 0.199065 -0.091815 0.975676
-0.990838 0.063266 -4.416067 0.169917 -0.113985 0.978844
-1.021540 0.130138 -4.403005 0.169917 -0.113985 0.978844
-1.025414 0.123667 -4.403031 0.169917 -0.113985 0.978844
-0.997716 0.063266 -4.414927 0.169917 -0.113985 0.978844
-0.997716 0.063266 -4.414927 0.154350 -0.122552 0.980386
-1.025414 0.123667 -4.403031 0.154350 -0.122552 0.980386
-1.024441 0.115038 -4.404248 0.154350 -0.122552 0.980386
-1.000925 0.063266 -4.414437 0.154350 -0.122552 0.980386
-1.021540 0.130138 -4.403005 0.185770 -0.106382 0.976817
-1.052189 0.197010 -4.389952 0.185770 -0.106382 0.976817
-1.052899 0.184067 -4.391168 0.185770 -0.106382 0.976817
-1.025414 0.123667 -4.403031 0.185770 -0.106382 0.976817
-1.025414 0.123667 -4.403031 0.162968 -0.118423 0.979499
-1.052899 0.184067 -4.391168 0.162968 -0.118423 0.979499
-1.043100 0.158181 -4.395916 0.162968 -0.118423 0.979499
-1.024441 0.115038 -4.404248 0.162968 -0.118423 0.979499
-0.990838 0.063266 -4.416067 0.154824 -0.121213 0.980478
-0.997716 0.063266 -4.414927 0.154824 -0.121213 0.980478
-0.969590 0.002865 -4.426889 0.154824 -0.121213 0.980478
-0.960028 -0.003606 -4.429146 0.154824 -0.121213 0.980478
-0.960028 -0.003606 -4.429146 0.138438 -0.129117 0.981918
-0.969590 0.002865 -4.426889 0.138438 -0.129117 0.981918
-0.941250 -0.057536 -4.438885 0.138438 -0.129117 0.981918
-0.929165 -0.070479 -4.442233 0.138438 -0.129117 0.981918
-0.997716 0.063266 -4.414927 0.145202 -0.126959 0.981223
-1.000925 0.063266 -4.414437 0.145202 -0.126959 0.981223
-0.976553 0.011494 -4.424758 0.145202 -0.126959 0.981223
-0.969590 0.002865 -4.426889 0.145202 -0.126959 0.981223
-0.969590 0.002865 -4.426889 0.136368 -0.131209 0.981931
-0.976553 0.011494 -4.424758 0.136368 -0.131209 0.981931
-0.955327 -0.031650 -4.433482 0.136368 -0.131209 0.981931
-0.941250 -0.057536 -4.438885 0.136368 -0.131209 0.981931
-0.990838 0.063266 -4.416067 0.158593 -0.116648 0.980429
-0.960028 -0.003606 -4.429146 0.158593 -0.116648 0.980429
-0.945269 -0.005763 -4.431651 0.158593 -0.116648 0.980429
-0.976620 0.063266 -4.418506 0.158593 -0.116648 0.980429
-0.976620 0.063266 -4.418506 0.160176 -0.110244 0.980913
-0.945269 -0.005763 -4.431651 0.160176 -0.110244 0.980913
-0.920927 -0.005763 -4.435358 0.160176 -0.110244 0.980913
-0.951501 0.063266 -4.422875 0.160176 -0.110244 0.980913
-0.960028 -0.003606 -4.429146 0.138704 -0.126102 0.982273
-0.929165 -0.070479 -4.442233 0.138704 -0.126102 0.982273
-0.913918 -0.074793 -4.444796 0.138704 -0.126102 0.982273
-0.945269 -0.005763 -4.431651 0.138704 -0.126102 0.982273
-0.945269 -0.005763 -4.431651 0.138567 -0.120326 0.983016
-0.913918 -0.074793 -4.444796 0.138567 -0.120326 0.983016
-0.890354 -0.074793 -4.447842 0.138567 -0.120326 0.983016
-0.920927 -0.005763 -4.435358 0.138567 -0.120326 0.983016
-0.865183 0.063266 -4.438014 0.182683 -0.063656 0.981109
-0.818612 0.063266 -4.446193 0.182683 -0.063656 0.981109
-0.844873 0.132295 -4.437317 0.182683 -0.063656 0.981109
-0.892963 0.132295 -4.427870 0.182683 -0.063656 0.981109
-0.892963 0.132295 -4.427870 0.201804 -0.055721 0.977840
-0.844873 0.132295 -4.437317 0.201804 -0.055721 0.977840
-0.871134 0.201325 -4.428441 0.201804 -0.055721 0.977840
-0.920743 0.201325 -4.417726 0.201804 -0.055721 0.977840
-0.818612 0.063266 -4.446193 0.182632 -0.050898 0.981863
-0.779518 0.063266 -4.453052 0.182632 -0.050898 0.981863
-0.804511 0.132295 -4.445237 0.182632 -0.050898 0.981863
-0.844873 0.132295 -4.437317 0.182632 -0.050898 0.981863
-0.844873 0.132295 -4.437317 0.201706 -0.043408 0.978484
-0.804511 0.132295 -4.445237 0.201706 -0.043408 0.978484
-0.829504 0.201325 -4.437423 0.201706 -0.043408 0.978484
-0.871134 0.201325 -4.428441 0.201706 -0.043408 0.978484
-0.865183 0.063266 -4.438014 0.182424 -0.077633 0.980150
-0.892963 0.132295 -4.427870 0.182424 -0.077633 0.980150
-0.941217 0.132295 -4.418395 0.182424 -0.077633 0.980150
-0.911917 0.063266 -4.429810 0.182424 -0.077633 0.980150
-0.911917 0.063266 -4.429810 0.181821 -0.090638 0.979145
-0.941217 0.132295 -4.418395 0.181821 -0.090638 0.979145
-0.982074 0.132295 -4.410392 0.181821 -0.090638 0.979145
-0.951501 0.063266 -4.422875 0.181821 -0.090638 0.979145
-0.892963 0.132295 -4.427870 0.201525 -0.069249 0.977032
-0.920743 0.201325 -4.417726 0.201525 -0.069249 0.977032
-0.970518 0.201325 -4.406981 0.201525 -0.069249 0.977032
-0.941217 0.132295 -4.418395 0.201525 -0.069249 0.977032
-0.941217 0.132295 -4.418395 0.200841 -0.081866 0.976197
-0.970518 0.201325 -4.406981 0.200841 -0.081866 0.976197
-1.012648 0.201325 -4.397910 0.200841 -0.081866 0.976197
-0.982074 0.132295 -4.410392 0.200841 -0.081866 0.976197
-0.865183 0.063266 -4.438014 0.161836 -0.086586 0.983012
-0.911917 0.063266 -4.429810 0.161836 -0.086586 0.983012
-0.882617 -0.005763 -4.441224 0.161836 -0.086586 0.983012
-0.837403 -0.005763 -4.448157 0.161836 -0.086586 0.983012
-0.837403 -0.005763 -4.448157 0.139625 -0.096168 0.985523
-0.882617 -0.005763 -4.441224 0.139625 -0.096168 0.985523
-0.853316 -0.074793 -4.452639 0.139625 -0.096168 0.985523
-0.809622 -0.074793 -4.458302 0.139625 -0.096168 0.985523
-0.911917 0.063266 -4.429810 0.161340 -0.099977 0.981822
-0.951501 0.063266 -4.422875 0.161340 -0.099977 0.981822
-0.920927 -0.005763 -4.435358 0.161340 -0.099977 0.981822
-0.882617 -0.005763 -4.441224 0.161340 -0.099977 0.981822
-0.882617 -0.005763 -4.441224 0.139271 -0.109954 0.984131
-0.920927 -0.005763 -4.435358 0.139271 -0.109954 0.984131
-0.890354 -0.074793 -4.447842 0.139271 -0.109954 0.984131
-0.853316 -0.074793 -4.452639 0.139271 -0.109954 0.984131
-0.865183 0.063266 -4.438014 0.162084 -0.072130 0.984137
-0.837403 -0.005763 -4.448157 0.162084 -0.072130 0.984137
-0.792350 -0.005763 -4.455069 0.162084 -0.072130 0.984137
-0.818612 0.063266 -4.446193 0.162084 -0.072130 0.984137
-0.818612 0.063266 -4.446193 0.162087 -0.058913 0.985016
-0.792350 -0.005763 -4.455069 0.162087 -0.058913 0.985016
-0.754525 -0.005763 -4.460867 0.162087 -0.058913 0.985016
-0.779518 0.063266 -4.453052 0.162087 -0.058913 0.985016
-0.837403 -0.005763 -4.448157 0.139852 -0.081211 0.986836
-0.809622 -0.074793 -4.458302 0.139852 -0.081211 0.986836
-0.766089 -0.074793 -4.463944 0.139852 -0.081211 0.986836
-0.792350 -0.005763 -4.455069 0.139852 -0.081211 0.986836
-0.792350 -0.005763 -4.455069 0.139918 -0.067480 0.987861
-0.766089 -0.074793 -4.463944 0.139918 -0.067480 0.987861
-0.729532 -0.074793 -4.468681 0.139918 -0.067480 0.987861
-0.754525 -0.005763 -4.460867 0.139918 -0.067480 0.987861
-0.742041 0.063266 -4.459576 0.173993 -0.036582 0.984067
-0.736327 0.063266 -4.460537 0.173993 -0.036582 0.984067
-0.757190 0.123667 -4.454652 0.173993 -0.036582 0.984067
-0.765164 0.130138 -4.452952 0.173993 -0.036582 0.984067
-0.765164 0.130138 -4.452952 0.190613 -0.030499 0.981191
-0.757190 0.123667 -4.454652 0.190613 -0.030499 0.981191
-0.778185 0.184067 -4.448747 0.190613 -0.030499 0.981191
-0.788321 0.197010 -4.446324 0.190613 -0.030499 0.981191
-0.736327 0.063266 -4.460537 0.155671 -0.042235 0.986906
-0.734345 0.063266 -4.460840 0.155671 -0.042235 0.986906
-0.752366 0.115038 -4.455791 0.155671 -0.042235 0.986906
-0.757190 0.123667 -4.454652 0.155671 -0.042235 0.986906
-0.757190 0.123667 -4.454652 0.164385 -0.039104 0.985621
-0.752366 0.115038 -4.455791 0.164385 -0.039104 0.985621
-0.767963 0.158181 -4.451486 0.164385 -0.039104 0.985621
-0.778185 0.184067 -4.448747 0.164385 -0.039104 0.985621
-0.742041 0.063266 -4.459576 0.179722 -0.037121 0.983017
-0.765164 0.130138 -4.452952 0.179722 -0.037121 0.983017
-0.779440 0.132295 -4.450131 0.179722 -0.037121 0.983017
-0.755216 0.063266 -4.457296 0.179722 -0.037121 0.983017
-0.755216 0.063266 -4.457296 0.181850 -0.041767 0.982439
-0.779440 0.132295 -4.450131 0.181850 -0.041767 0.982439
-0.804511 0.132295 -4.445237 0.181850 -0.041767 0.982439
-0.779518 0.063266 -4.453052 0.181850 -0.041767 0.982439
-0.765164 0.130138 -4.452952 0.197733 -0.030504 0.979781
-0.788321 0.197010 -4.446324 0.197733 -0.030504 0.979781
-0.803663 0.201325 -4.442966 0.197733 -0.030504 0.979781
-0.779440 0.132295 -4.450131 0.197733 -0.030504 0.979781
-0.779440 0.132295 -4.450131 0.200721 -0.034670 0.979035
-0.803663 0.201325 -4.442966 0.200721 -0.034670 0.979035
-0.829504 0.201325 -4.437423 0.200721 -0.034670 0.979035
-0.804511 0.132295 -4.445237 0.200721 -0.034670 0.979035
-0.742041 0.063266 -4.459576 0.160635 -0.044092 0.986029
-0.755216 0.063266 -4.457296 0.160635 -0.044092 0.986029
-0.730993 -0.005763 -4.464462 0.160635 -0.044092 0.986029
-0.718984 -0.003606 -4.466189 0.160635 -0.044092 0.986029
-0.718984 -0.003606 -4.466189 0.140107 -0.051493 0.988797
-0.730993 -0.005763 -4.464462 0.140107 -0.051493 0.988797
-0.706769 -0.074793 -4.471627 0.140107 -0.051493 0.988797
-0.695959 -0.070479 -4.472796 0.140107 -0.051493 0.988797
-0.755216 0.063266 -4.457296 0.161546 -0.049365 0.985630
-0.779518 0.063266 -4.453052 0.161546 -0.049365 0.985630
-0.754525 -0.005763 -4.460867 0.161546 -0.049365 0.985630
-0.730993 -0.005763 -4.464462 0.161546 -0.049365 0.985630
-0.730993 -0.005763 -4.464462 0.139671 -0.057464 0.988529
-0.754525 -0.005763 -4.460867 0.139671 -0.057464 0.988529
-0.729532 -0.074793 -4.468681 0.139671 -0.057464 0.988529
-0.706769 -0.074793 -4.471627 0.139671 -0.057464 0.988529
-0.742041 0.063266 -4.459576 0.157624 -0.042511 0.986584
-0.718984 -0.003606 -4.466189 0.157624 -0.042511 0.986584
-0.715729 0.002865 -4.466382 0.157624 -0.042511 0.986584
-0.736327 0.063266 -4.460537 0.157624 -0.042511 0.986584
-0.736327 0.063266 -4.460537 0.146520 -0.045507 0.988160
-0.715729 0.002865 -4.466382 0.146520 -0.045507 0.988160
-0.716852 0.011494 -4.465809 0.146520 -0.045507 0.988160
-0.734345 0.063266 -4.460840 0.146520 -0.045507 0.988160
-0.718984 -0.003606 -4.466189 0.140118 -0.048720 0.988935
-0.695959 -0.070479 -4.472796 0.140118 -0.048720 0.988935
-0.695263 -0.057536 -4.472207 0.140118 -0.048720 0.988935
-0.715729 0.002865 -4.466382 0.140118 -0.048720 0.988935
-0.715729 0.002865 -4.466382 0.137646 -0.048646 0.989286
-0.695263 -0.057536 -4.472207 0.137646 -0.048646 0.989286
-0.702841 -0.031650 -4.469872 0.137646 -0.048646 0.989286
-0.716852 0.011494 -4.465809 0.137646 -0.048646 0.989286
-1.430922 -0.011737 -4.296731 -0.650533 0.085208 -0.754631
-1.430570 -0.044813 -4.300684 -0.660543 0.080844 -0.746391
-1.464244 -0.044608 -4.264966 -0.787439 0.048799 -0.614399
-1.464191 -0.011596 -4.262359 -0.781121 0.057192 -0.621693
-1.494078 -0.044198 -4.218370 -0.883389 0.029328 -0.467696
-1.493606 -0.011315 -4.217138 -0.881588 0.041078 -0.470199
-1.429944 -0.077615 -4.304744 -0.661092 0.080355 -0.745933
-1.463936 -0.077342 -4.267714 -0.787622 0.046541 -0.614368
-1.494114 -0.076796 -4.219831 -0.882900 0.025513 -0.468825
-1.463417 0.021970 -4.260034 -0.774804 0.070009 -0.628285
-1.430730 0.021885 -4.292991 -0.641163 0.091067 -0.761956
-1.461560 0.056368 -4.258128 -0.768700 0.086398 -0.633717
-1.429721 0.056325 -4.289571 -0.633168 0.097964 -0.767754
-1.492262 0.022141 -4.216365 -0.879147 0.059755 -0.472762
-1.489609 0.056453 -4.216277 -0.875698 0.084201 -0.475417
-1.394762 0.021856 -4.317960 -0.510788 0.114078 -0.852077
-1.394276 -0.011784 -4.322863 -0.518967 0.114505 -0.847072
-1.356072 0.021856 -4.337662 -0.417646 0.129551 -0.899289
-1.354729 -0.011784 -4.343364 -0.419263 0.133976 -0.897885
-1.394676 0.056311 -4.313366 -0.504227 0.112766 -0.856166
-1.357013 0.056311 -4.332272 -0.416395 0.123478 -0.900754
-1.393409 -0.044881 -4.327971 -0.527970 0.114139 -0.841517
-1.392352 -0.077706 -4.333180 -0.527818 0.114994 -0.841517
-1.353116 -0.044881 -4.349272 -0.421125 0.136601 -0.896634
-1.351370 -0.077706 -4.355283 -0.418195 0.138096 -0.897763
-1.086129 -0.011104 -4.413280 -0.140294 0.127262 -0.981872
-1.047068 -0.010843 -4.418458 -0.126102 0.130863 -0.983337
-1.034587 -0.044374 -4.424529 -0.126255 0.131687 -0.983215
-1.075198 -0.044514 -4.419151 -0.138462 0.128147 -0.982025
-1.022046 -0.077706 -4.430602 -0.125584 0.132298 -0.983215
-1.064157 -0.077706 -4.425013 -0.136235 0.128819 -0.982238
-1.016150 -0.010618 -4.422227 -0.122868 0.132176 -0.983551
-1.002424 -0.044252 -4.428499 -0.123692 0.133244 -0.983306
-0.988682 -0.077706 -4.434783 -0.124699 0.133457 -0.983154
-1.121267 -0.044653 -4.412294 -0.157872 0.126316 -0.979339
-1.130468 -0.011360 -4.406561 -0.162664 0.125034 -0.978698
-1.169806 -0.044767 -4.403888 -0.186010 0.128422 -0.974090
-1.177217 -0.011572 -4.398158 -0.194922 0.126194 -0.972655
-1.111917 -0.077706 -4.418017 -0.153722 0.126926 -0.979919
-1.162224 -0.077706 -4.409615 -0.179327 0.129124 -0.975249
-1.139367 0.022410 -4.400805 -0.167852 0.123783 -0.977996
-1.096841 0.022745 -4.407395 -0.142766 0.126041 -0.981689
-1.147816 0.056897 -4.395018 -0.173498 0.122654 -0.977142
-1.107225 0.057251 -4.401485 -0.146245 0.124424 -0.981384
-1.184284 0.022133 -4.392425 -0.203742 0.124088 -0.971099
-1.190837 0.056604 -4.386684 -0.212104 0.122410 -0.969543
-1.059427 0.023086 -4.412388 -0.126774 0.129215 -0.983459
-1.029846 0.023380 -4.415977 -0.122868 0.129826 -0.983886
-1.071605 0.057612 -4.406322 -0.128727 0.126621 -0.983551
-1.043496 0.057923 -4.409763 -0.124363 0.126102 -0.984161
-1.268853 -0.011763 -4.375600 -0.287912 0.137730 -0.947691
-1.223509 -0.011699 -4.387938 -0.237098 0.131321 -0.962554
-1.217825 -0.044835 -4.393863 -0.225257 0.134678 -0.964934
-1.264760 -0.044869 -4.381738 -0.276833 0.141789 -0.950377
-1.211979 -0.077706 -4.399809 -0.216407 0.135685 -0.966796
-1.260527 -0.077706 -4.387930 -0.267861 0.143193 -0.952727
-1.310045 -0.044881 -4.367034 -0.341807 0.144383 -0.928587
-1.312757 -0.011784 -4.360842 -0.348308 0.140355 -0.926786
-1.307209 -0.077706 -4.373310 -0.334849 0.146031 -0.930876
-1.315222 0.021856 -4.354819 -0.354259 0.134648 -0.925382
-1.272669 0.021884 -4.369572 -0.298166 0.132694 -0.945219
-1.317317 0.056311 -4.349051 -0.359050 0.127628 -0.924528
-1.276068 0.056340 -4.363708 -0.306711 0.127110 -0.943266
-1.228871 0.021967 -4.382060 -0.248329 0.127720 -0.960204
-1.233748 0.056428 -4.376250 -0.258156 0.124302 -0.958068
-1.540350 -0.010001 -4.090331 -0.959288 0.051057 -0.277688
-1.541503 -0.041693 -4.091122 -0.958129 0.038606 -0.283608
-1.559765 -0.037865 -4.022302 -0.968047 0.049837 -0.245643
-1.559488 -0.008596 -4.016768 -0.968627 0.063509 -0.240150
-1.576265 -0.033033 -3.952737 -0.970885 0.057619 -0.232398
-1.577365 -0.006910 -3.940486 -0.970885 0.070345 -0.228858
-1.541980 -0.072832 -4.093184 -0.956633 0.033906 -0.289285
-1.558829 -0.065858 -4.031316 -0.966338 0.044038 -0.253395
-1.570397 -0.053185 -3.981683 -0.970580 0.048677 -0.235694
-1.556786 0.023222 -4.018191 -0.968078 0.083285 -0.236274
-1.537846 0.022795 -4.092085 -0.959044 0.071749 -0.273965
-1.551873 0.056994 -4.024882 -0.966124 0.107822 -0.234352
-1.533671 0.056781 -4.096363 -0.956999 0.099399 -0.272408
-1.574626 0.023677 -3.940940 -0.970336 0.087436 -0.225318
-1.568981 0.057222 -3.950110 -0.968719 0.108829 -0.222968
-1.516705 0.022425 -4.159262 -0.935911 0.061983 -0.346660
-1.518691 -0.010845 -4.158459 -0.936430 0.040803 -0.348399
-1.513282 0.056596 -4.161258 -0.933714 0.090213 -0.346446
-1.519719 -0.043515 -4.158450 -0.935820 0.027802 -0.351329
-1.520269 -0.075885 -4.158838 -0.934935 0.023347 -0.354015
-1.401902 0.279754 -4.277449 -0.618976 0.135197 -0.773644
-1.408842 0.241349 -4.278594 -0.618213 0.130894 -0.775018
-1.432378 0.241010 -4.256439 -0.743126 0.152959 -0.651418
-1.423360 0.279194 -4.257380 -0.737907 0.159001 -0.655843
-1.453125 0.240332 -4.227913 -0.844722 0.177435 -0.504868
-1.442357 0.278074 -4.232007 -0.835780 0.183752 -0.517350
-1.415043 0.203230 -4.280019 -0.618549 0.124943 -0.775719
-1.440575 0.203060 -4.255832 -0.748100 0.143315 -0.647908
-1.463026 0.202721 -4.224256 -0.852626 0.165471 -0.495590
-1.413795 0.317533 -4.258540 -0.732139 0.161504 -0.661702
-1.394469 0.318347 -4.276487 -0.620838 0.137883 -0.771691
-1.403957 0.355950 -4.259813 -0.720695 0.159978 -0.674520
-1.386789 0.357036 -4.275620 -0.616230 0.137638 -0.775414
-1.431012 0.315905 -4.236390 -0.824885 0.184088 -0.534410
-1.419378 0.353779 -4.240919 -0.809809 0.180792 -0.558092
-1.372601 0.318619 -4.291471 -0.516037 0.118046 -0.848354
-1.377731 0.279940 -4.293755 -0.508133 0.116550 -0.853328
-1.347758 0.318619 -4.304729 -0.439589 0.104221 -0.892117
-1.350591 0.279940 -4.307841 -0.430616 0.104434 -0.896451
-1.367262 0.357398 -4.289271 -0.517838 0.118229 -0.847255
-1.344763 0.357398 -4.301698 -0.443922 0.104129 -0.889950
-1.382442 0.241462 -4.296210 -0.502365 0.114811 -0.856960
-1.386526 0.203286 -4.298923 -0.498703 0.112888 -0.859371
-1.353100 0.241462 -4.311120 -0.423811 0.105228 -0.899594
-1.355123 0.203286 -4.314647 -0.419172 0.106693 -0.901578
-1.474304 0.273570 -4.162443 -0.921201 0.206183 -0.329905
-1.487164 0.237731 -4.148307 -0.928831 0.201178 -0.311014
-1.501811 0.236035 -4.101327 -0.941496 0.196234 -0.273904
-1.488390 0.270134 -4.121686 -0.934782 0.200751 -0.292978
-1.515781 0.234225 -4.052297 -0.947203 0.189550 -0.258553
-1.501942 0.266299 -4.079223 -0.941191 0.194555 -0.276131
-1.499180 0.201420 -4.135006 -0.936125 0.189184 -0.296396
-1.514475 0.200572 -4.082077 -0.947874 0.185980 -0.258644
-1.528973 0.199668 -4.026774 -0.952879 0.179632 -0.244301
-1.474555 0.302192 -4.142814 -0.927915 0.198004 -0.315775
-1.460905 0.308813 -4.177145 -0.912564 0.201178 -0.355937
-1.460512 0.333229 -4.164325 -0.920011 0.194678 -0.340037
-1.447236 0.343757 -4.192127 -0.901791 0.196661 -0.384808
-1.487854 0.294450 -4.107143 -0.935087 0.194891 -0.295907
-1.473911 0.317239 -4.135647 -0.929624 0.190069 -0.315592
-1.446553 0.313191 -4.208797 -0.882870 0.197760 -0.425916
-1.459149 0.276209 -4.199789 -0.893857 0.200507 -0.400983
-1.433665 0.350161 -4.218009 -0.869411 0.193732 -0.454482
-1.471161 0.239201 -4.191186 -0.902860 0.195013 -0.383099
-1.482296 0.202155 -4.183190 -0.911008 0.182379 -0.369793
-1.281294 0.128326 -4.352653 -0.317820 0.115268 -0.941099
-1.241749 0.128372 -4.364952 -0.272896 0.114841 -0.955138
-1.237980 0.091950 -4.370529 -0.266121 0.120334 -0.956389
-1.278911 0.091877 -4.358061 -0.313089 0.121281 -0.941923
-1.202138 0.128466 -4.375260 -0.227638 0.113987 -0.967040
-1.196704 0.092096 -4.380936 -0.219825 0.119602 -0.968169
-1.318916 0.091853 -4.343619 -0.362346 0.120548 -0.924192
-1.320040 0.128310 -4.338521 -0.364635 0.114383 -0.924070
-1.357415 0.091853 -4.327296 -0.415571 0.117374 -0.901944
-1.357253 0.128310 -4.322714 -0.415509 0.112583 -0.902585
-1.320706 0.165512 -4.333748 -0.366771 0.108921 -0.923887
-1.283313 0.165517 -4.347504 -0.322092 0.108829 -0.940397
-1.320932 0.203286 -4.329294 -0.369854 0.103946 -0.923246
-1.285062 0.203284 -4.342633 -0.327280 0.101718 -0.939421
-1.356498 0.165512 -4.318505 -0.416547 0.109043 -0.902524
-1.245235 0.165535 -4.359570 -0.279672 0.107578 -0.954039
-1.207391 0.165570 -4.369742 -0.236702 0.105319 -0.965850
-1.248621 0.203277 -4.354433 -0.287881 0.098239 -0.952574
-1.212716 0.203264 -4.364463 -0.248451 0.093234 -0.964141
-1.424458 0.128306 -4.283997 -0.622578 0.111667 -0.774529
-1.427621 0.091859 -4.286577 -0.626881 0.105045 -0.771966
-1.458260 0.091876 -4.256785 -0.762902 0.103214 -0.638203
-1.453604 0.128293 -4.255975 -0.757714 0.118015 -0.641804
-1.485212 0.091910 -4.217107 -0.871059 0.109256 -0.478835
-1.479217 0.128268 -4.218769 -0.865688 0.130802 -0.483108
-1.447680 0.165421 -4.255667 -0.752861 0.131291 -0.644917
-1.420256 0.165489 -4.281816 -0.619922 0.118229 -0.775689
-1.471773 0.165285 -4.221180 -0.859615 0.149419 -0.488601
-1.389772 0.165512 -4.301978 -0.496994 0.111362 -0.860561
-1.392200 0.128310 -4.305391 -0.497269 0.110904 -0.860439
-1.393828 0.091853 -4.309182 -0.499649 0.111454 -0.859004
-1.288086 0.279935 -4.333717 -0.343822 0.090060 -0.934690
-1.286639 0.241457 -4.338063 -0.334391 0.095065 -0.937590
-1.320738 0.241462 -4.325154 -0.374676 0.099796 -0.921751
-1.320227 0.279940 -4.321249 -0.381512 0.096866 -0.919248
-1.319505 0.318619 -4.317501 -0.390271 0.095065 -0.915769
-1.289446 0.318615 -4.329522 -0.355541 0.086642 -0.930601
-1.318679 0.357398 -4.313832 -0.395337 0.094485 -0.913633
-1.290764 0.357398 -4.325401 -0.362499 0.085543 -0.928037
-1.259182 0.318605 -4.340522 -0.329936 0.075625 -0.940947
-1.255615 0.279918 -4.344984 -0.312723 0.081332 -0.946318
-1.230315 0.318585 -4.350234 -0.310404 0.059969 -0.948698
-1.224259 0.279884 -4.354789 -0.284677 0.069338 -0.956084
-1.262770 0.357398 -4.336135 -0.339915 0.073855 -0.937529
-1.236453 0.357398 -4.345759 -0.324900 0.057039 -0.943999
-1.252087 0.241440 -4.349597 -0.298776 0.088809 -0.950163
-1.218366 0.241406 -4.359505 -0.264199 0.080355 -0.961089
-1.519563 0.128171 -4.112075 -0.948485 0.151891 -0.277963
-1.527507 0.092041 -4.103142 -0.953276 0.127842 -0.273659
-1.544961 0.092126 -4.035147 -0.962828 0.132694 -0.235237
-1.536274 0.128107 -4.048455 -0.958617 0.153752 -0.239479
-1.561359 0.092217 -3.964007 -0.965880 0.131108 -0.223212
-1.551996 0.128039 -3.981902 -0.962279 0.150243 -0.226783
-1.526037 0.164426 -4.064276 -0.953642 0.171392 -0.247230
-1.510050 0.164765 -4.122812 -0.942778 0.172185 -0.285501
-1.541123 0.164064 -4.003067 -0.957945 0.166356 -0.233741
-1.492263 0.165059 -4.176004 -0.918302 0.164708 -0.359905
-1.500874 0.128226 -4.169825 -0.924528 0.143803 -0.352886
-1.507942 0.091967 -4.164844 -0.929685 0.119175 -0.348491
-1.115644 0.279261 -4.381942 -0.244240 -0.023621 -0.969420
-1.097125 0.241090 -4.385874 -0.214545 0.005554 -0.976684
-1.104026 0.241114 -4.384452 -0.197119 0.019715 -0.980163
-1.121972 0.279591 -4.380424 -0.230598 -0.010071 -0.972991
-1.115897 0.241154 -4.382154 -0.188604 0.033265 -0.981475
-1.132489 0.279630 -4.378004 -0.223182 0.005066 -0.974731
-1.079184 0.203142 -4.390334 -0.190283 0.037172 -0.981017
-1.086813 0.203151 -4.388966 -0.172094 0.050569 -0.983764
-1.100019 0.203167 -4.386753 -0.163579 0.061953 -0.984558
-1.140406 0.318409 -4.376718 -0.275063 -0.040407 -0.960570
-1.134362 0.317175 -4.378388 -0.282937 -0.052217 -0.957701
-1.159084 0.357398 -4.373173 -0.298044 -0.051912 -0.953124
-1.153180 0.354959 -4.375025 -0.299844 -0.061251 -0.951994
-1.149557 0.318433 -4.374154 -0.269662 -0.023957 -0.962645
-1.166864 0.357398 -4.370454 -0.295907 -0.036103 -0.954527
-1.129647 0.313508 -4.379577 -0.293374 -0.060884 -0.954039
-1.111925 0.278332 -4.382887 -0.267525 -0.038606 -0.962767
-1.125597 0.308625 -4.380524 -0.292611 -0.058107 -0.954436
-1.109509 0.277104 -4.383546 -0.279855 -0.042146 -0.959105
-1.147038 0.347643 -4.376524 -0.304819 -0.068697 -0.949919
-1.138548 0.333012 -4.378185 -0.316172 -0.076876 -0.945555
-1.093539 0.241076 -4.386712 -0.247047 -0.013794 -0.968902
-1.075272 0.203136 -4.391140 -0.225257 0.017182 -0.974120
-1.091608 0.241066 -4.387258 -0.265603 -0.021821 -0.963805
-1.073220 0.203133 -4.391665 -0.243965 0.010376 -0.969726
-1.126968 0.128810 -4.389690 -0.158605 0.111789 -0.980987
-1.095509 0.129001 -4.394334 -0.139592 0.110385 -0.984008
-1.083540 0.092933 -4.400260 -0.132694 0.121067 -0.983703
-1.117170 0.092633 -4.395543 -0.151250 0.120396 -0.981109
-1.070866 0.129167 -4.397612 -0.135014 0.106204 -0.985107
-1.057085 0.093191 -4.403595 -0.128117 0.118931 -0.984588
-1.155663 0.092339 -4.389188 -0.179815 0.119724 -0.976379
-1.163194 0.128621 -4.383419 -0.187628 0.112980 -0.975707
-1.170696 0.165628 -4.377819 -0.198096 0.102145 -0.974822
-1.136910 0.165698 -4.384048 -0.169500 0.098300 -0.980590
-1.178455 0.203243 -4.372490 -0.212622 0.086703 -0.973266
-1.147287 0.203216 -4.378735 -0.185492 0.079226 -0.979430
-1.107790 0.165770 -4.388676 -0.150578 0.094180 -0.984069
-1.085093 0.165831 -4.391952 -0.146306 0.087527 -0.985351
-1.120659 0.203190 -4.383415 -0.167364 0.071627 -0.983276
-0.984744 -0.010113 -4.426214 -0.138676 0.125462 -0.982330
-0.979050 -0.009270 -4.426955 -0.158635 0.116031 -0.980468
-0.965515 -0.039889 -4.432811 -0.158238 0.118534 -0.980224
-0.970146 -0.043071 -4.432532 -0.138371 0.127659 -0.982086
-0.952626 -0.069298 -4.438466 -0.146306 0.124638 -0.981323
-0.955733 -0.075604 -4.438816 -0.137150 0.128819 -0.982116
-0.976258 -0.008184 -4.427321 -0.171484 0.109836 -0.979034
-0.964344 -0.035666 -4.432529 -0.170812 0.111942 -0.978912
-0.956083 -0.056686 -4.436404 -0.171789 0.112888 -0.978637
-0.981696 -0.044172 -4.431130 -0.128636 0.131779 -0.982879
-0.996243 -0.010468 -4.424726 -0.128056 0.130222 -0.983154
-0.967164 -0.077706 -4.437554 -0.129765 0.131932 -0.982696
-1.010820 0.023575 -4.418357 -0.128361 0.127140 -0.983520
-0.999708 0.023696 -4.419829 -0.139897 0.121616 -0.982665
-1.025441 0.058129 -4.412045 -0.130161 0.122349 -0.983886
-1.014924 0.058257 -4.413455 -0.142613 0.115848 -0.982971
-0.993874 0.023767 -4.420696 -0.161290 0.111270 -0.980590
-0.990678 0.023814 -4.421261 -0.174047 0.105594 -0.979034
-1.009433 0.058332 -4.414287 -0.165899 0.104312 -0.980590
-1.006456 0.058381 -4.414827 -0.179388 0.098392 -0.978820
-1.170039 0.279759 -4.369350 -0.239570 0.037507 -0.970153
-1.158391 0.241283 -4.373874 -0.208319 0.057863 -0.976318
-1.186757 0.241350 -4.367538 -0.232765 0.069674 -0.970031
-1.195467 0.279828 -4.362870 -0.259590 0.054170 -0.964171
-1.204447 0.318551 -4.358390 -0.294382 0.039674 -0.954833
-1.182050 0.318510 -4.365053 -0.281137 0.017243 -0.959502
-1.213564 0.357398 -4.354005 -0.314249 0.034913 -0.948668
-1.194243 0.357398 -4.360869 -0.305094 0.010041 -0.952239
-1.163596 0.318469 -4.370287 -0.271645 -0.004334 -0.962371
-1.148779 0.279690 -4.374354 -0.225715 0.021302 -0.973937
-1.178630 0.357398 -4.366352 -0.298135 -0.014344 -0.954405
-1.134395 0.241214 -4.378686 -0.191778 0.046205 -0.980346
-1.045964 0.129344 -4.401129 -0.157170 0.089877 -0.983459
-1.041270 0.129384 -4.401920 -0.186560 0.074313 -0.979614
-1.025172 0.093531 -4.407979 -0.174017 0.092685 -0.980346
-1.030274 0.093468 -4.407173 -0.148015 0.105991 -0.983276
-1.038793 0.129410 -4.402436 -0.202490 0.068087 -0.976897
-1.022442 0.093571 -4.408504 -0.188452 0.086764 -0.978210
-1.040121 0.093362 -4.405807 -0.134434 0.113773 -0.984344
-1.055090 0.129276 -4.399785 -0.142033 0.099307 -0.984863
-1.070578 0.165872 -4.394123 -0.154088 0.078494 -0.984924
-1.062199 0.165898 -4.395467 -0.170965 0.067110 -0.982971
-1.057910 0.165913 -4.396258 -0.203833 0.049104 -0.977752
-1.055667 0.165922 -4.396774 -0.221320 0.042451 -0.974242
4 0 1 2 3
4 4 5 6 7
4 8 9 10 11
4 12 13 14 15
4 16 17 18 19
4 20 21 22 23
4 24 25 26 27
4 28 29 30 31
4 32 33 34 35
4 36 37 38 39
4 40 41 42 43
4 44 45 46 47
4 48 49 50 51
4 52 53 54 55
4 56 57 58 59
4 60 61 62 63
4 64 65 66 67
4 68 69 70 71
4 72 73 74 75
4 76 77 78 79
4 80 81 82 83
4 84 85 86 87
4 88 89 90 91
4 92 93 94 95
4 96 97 98 99
4 100 101 102 103
4 104 105 106 107
4 108 109 110 111
4 112 113 114 115
4 116 117 118 119
4 120 121 122 123
4 124 125 126 127
4 128 129 130 131
4 132 133 134 135
4 136 137 138 139
4 140 141 142 143
4 144 145 146 147
4 148 149 150 151
4 152 153 154 155
4 156 157 158 159
4 160 161 162 163
4 164 165 166 167
4 168 169 170 171
4 172 173 174 175
4 176 177 178 179
4 180 181 182 183
4 184 185 186 187
4 188 189 190 191
4 192 193 194 195
4 195 194 196 197
4 193 198 199 194
4 194 199 200 196
4 192 195 201 202
4 202 201 203 204
4 195 197 205 201
4 201 205 206 203
4 192 202 207 208
4 208 207 209 210
4 202 204 211 207
4 207 211 212 209
4 192 208 213 193
4 193 213 214 198
4 208 210 215 213
4 213 215 216 214
4 217 218 219 220
4 220 219 221 222
4 218 223 224 219
4 219 224 225 221
4 217 220 226 227
4 227 226 228 229
4 220 222 230 226
4 226 230 231 228
4 217 227 232 233
4 233 232 234 235
4 227 229 236 232
4 232 236 237 234
4 217 233 238 218
4 218 238 239 223
4 233 235 240 238
4 238 240 241 239
4 242 243 244 245
4 245 244 240 235
4 243 246 247 244
4 244 247 241 240
4 242 245 248 249
4 249 248 250 251
4 245 235 234 248
4 248 234 237 250
4 242 249 252 253
4 253 252 211 204
4 249 251 254 252
4 252 254 212 211
4 242 253 255 243
4 243 255 256 246
4 253 204 203 255
4 255 203 206 256
4 257 258 259 260
4 260 259 261 262
4 258 263 264 259
4 259 264 265 261
4 257 260 266 267
4 267 266 199 198
4 260 262 268 266
4 266 268 200 199
4 257 267 269 270
4 270 269 271 272
4 267 198 214 269
4 269 214 216 271
4 257 270 273 258
4 258 273 274 263
4 270 272 275 273
4 273 275 276 274
4 277 278 279 280
4 280 279 281 282
4 278 283 284 279
4 279 284 285 281
4 277 280 286 287
4 287 286 288 289
4 280 282 290 286
4 286 290 291 288
4 277 287 292 293
4 293 292 294 295
4 287 289 296 292
4 292 296 297 294
4 277 293 298 278
4 278 298 299 283
4 293 295 300 298
4 298 300 301 299
4 302 303 304 305
4 305 304 306 307
4 303 308 309 304
4 304 309 310 306
4 302 305 311 312
4 312 311 284 283
4 305 307 313 311
4 311 313 285 284
4 302 312 314 315
4 315 314 316 317
4 312 283 299 314
4 314 299 301 316
4 302 315 318 303
4 303 318 319 308
4 315 317 320 318
4 318 320 321 319
4 322 323 324 325
4 325 324 326 327
4 323 251 250 324
4 324 250 237 326
4 322 325 328 329
4 329 328 330 331
4 325 327 332 328
4 328 332 333 330
4 322 329 334 335
4 335 334 336 337
4 329 331 338 334
4 334 338 291 336
4 322 335 339 323
4 323 339 254 251
4 335 337 340 339
4 339 340 212 254
4 341 342 343 344
4 344 343 215 210
4 342 345 346 343
4 343 346 216 215
4 341 344 347 348
4 348 347 340 337
4 344 210 209 347
4 347 209 212 340
4 341 348 349 350
4 350 349 290 282
4 348 337 336 349
4 349 336 291 290
4 341 350 351 342
4 342 351 352 345
4 350 282 281 351
4 351 281 285 352
4 353 354 355 356
4 356 355 338 331
4 354 289 288 355
4 355 288 291 338
4 353 356 357 358
4 358 357 359 360
4 356 331 330 357
4 357 330 333 359
4 353 358 361 362
4 362 361 363 364
4 358 360 365 361
4 361 365 366 363
4 353 362 367 354
4 354 367 296 289
4 362 364 368 367
4 367 368 297 296
4 369 370 371 372
4 372 371 275 272
4 370 373 374 371
4 371 374 276 275
4 369 372 375 376
4 376 375 346 345
4 372 272 271 375
4 375 271 216 346
4 369 376 377 378
4 378 377 313 307
4 376 345 352 377
4 377 352 285 313
4 369 378 379 370
4 370 379 380 373
4 378 307 306 379
4 379 306 310 380
4 381 382 383 384
4 384 383 385 386
4 382 387 388 383
4 383 388 389 385
4 381 384 390 391
4 391 390 392 393
4 384 386 394 390
4 390 394 395 392
4 381 391 396 397
4 397 396 398 399
4 391 393 400 396
4 396 400 401 398
4 381 397 402 382
4 382 402 403 387
4 397 399 404 402
4 402 404 405 403
4 406 407 408 409
4 409 408 410 411
4 407 229 228 408
4 408 228 231 410
4 406 409 412 413
4 413 412 414 415
4 409 411 416 412
4 412 416 389 414
4 406 413 417 418
4 418 417 332 327
4 413 415 419 417
4 417 419 333 332
4 406 418 420 407
4 407 420 236 229
4 418 327 326 420
4 420 326 237 236
4 421 422 423 424
4 424 423 425 426
4 422 427 428 423
4 423 428 429 425
4 421 424 430 431
4 431 430 432 433
4 424 426 434 430
4 430 434 435 432
4 421 431 436 437
4 437 436 230 222
4 431 433 438 436
4 436 438 231 230
4 421 437 439 422
4 422 439 440 427
4 437 222 221 439
4 439 221 225 440
4 441 442 443 444
4 444 443 419 415
4 442 360 359 443
4 443 359 333 419
4 441 444 445 446
4 446 445 388 387
4 444 415 414 445
4 445 414 389 388
4 441 446 447 448
4 448 447 449 450
4 446 387 403 447
4 447 403 405 449
4 441 448 451 442
4 442 451 365 360
4 448 450 452 451
4 451 452 366 365
4 453 454 455 456
4 456 455 457 458
4 454 433 432 455
4 455 432 435 457
4 453 456 459 460
4 460 459 394 386
4 456 458 461 459
4 459 461 395 394
4 453 460 462 463
4 463 462 416 411
4 460 386 385 462
4 462 385 389 416
4 453 463 464 454
4 454 464 438 433
4 463 411 410 464
4 464 410 231 438
4 465 466 467 468
4 469 470 471 472
4 473 474 475 476
4 477 478 479 480
4 481 482 483 484
4 485 486 487 488
4 489 490 491 492
4 493 494 495 496
4 497 498 499 500
4 501 502 503 504
4 505 506 507 508
4 509 510 511 512
4 513 514 515 516
4 517 518 519 520
4 521 522 523 524
4 525 526 527 528
4 529 530 531 532
4 533 534 535 536
4 537 538 539 540
4 541 542 543 544
4 545 546 547 548
4 549 550 551 552
4 553 554 555 556
4 557 558 559 560
4 561 562 563 564
4 565 566 567 568
4 569 570 571 572
4 573 574 575 576
4 577 578 579 580
4 581 582 583 584
4 585 586 587 588
4 589 590 591 592
4 593 594 595 596
4 597 598 599 600
4 601 602 603 604
4 605 606 607 608
4 609 610 611 612
4 613 614 615 616
4 617 618 619 620
4 621 622 623 624
4 625 626 627 628
4 629 630 631 632
4 633 634 635 636
4 637 638 639 640
4 641 642 643 644
4 645 646 647 648
4 649 650 651 652
4 653 654 655 656
4 657 658 659 660
4 660 659 661 662
4 658 663 664 659
4 659 664 665 661
4 657 660 666 667
4 667 666 668 669
4 660 662 670 666
4 666 670 671 668
4 657 667 672 673
4 673 672 674 675
4 667 669 676 672
4 672 676 677 674
4 657 673 678 658
4 658 678 679 663
4 673 675 680 678
4 678 680 681 679
4 682 683 684 685
4 685 684 686 687
4 683 688 689 684
4 684 689 690 686
4 682 685 691 692
4 692 691 693 694
4 685 687 695 691
4 691 695 696 693
4 682 692 697 698
4 698 697 699 700
4 692 694 701 697
4 697 701 702 699
4 682 698 703 683
4 683 703 704 688
4 698 700 705 703
4 703 705 706 704
4 707 708 709 710
4 710 709 711 712
4 708 694 693 709
4 709 693 696 711
4 707 710 713 714
4 714 713 680 675
4 710 712 715 713
4 713 715 681 680
4 707 714 716 717
4 717 716 718 719
4 714 675 674 716
4 716 674 677 718
4 707 717 720 708
4 708 720 701 694
4 717 719 721 720
4 720 721 702 701
4 722 723 724 725
4 725 724 726 727
4 723 728 729 724
4 724 729 730 726
4 722 725 731 732
4 732 731 733 734
4 725 727 735 731
4 731 735 736 733
4 722 732 737 738
4 738 737 670 662
4 732 734 739 737
4 737 739 671 670
4 722 738 740 723
4 723 740 741 728
4 738 662 661 740
4 740 661 665 741
4 742 743 744 745
4 745 744 746 747
4 743 748 749 744
4 744 749 750 746
4 742 745 751 752
4 752 751 753 754
4 745 747 755 751
4 751 755 756 753
4 742 752 757 758
4 758 757 759 760
4 752 754 761 757
4 757 761 762 759
4 742 758 763 743
4 743 763 764 748
4 758 760 765 763
4 763 765 766 764
4 767 768 769 770
4 770 769 771 772
4 768 773 774 769
4 769 774 775 771
4 767 770 776 777
4 777 776 778 779
4 770 772 780 776
4 776 780 781 778
4 767 777 782 783
4 783 782 755 747
4 777 779 784 782
4 782 784 756 755
4 767 783 785 768
4 768 785 786 773
4 783 747 746 785
4 785 746 750 786
4 787 788 789 790
4 790 789 721 719
4 788 791 792 789
4 789 792 702 721
4 787 790 793 794
4 794 793 795 796
4 790 719 718 793
4 793 718 677 795
4 787 794 797 798
4 798 797 799 800
4 794 796 801 797
4 797 801 766 799
4 787 798 802 788
4 788 802 803 791
4 798 800 804 802
4 802 804 805 803
4 806 807 808 809
4 809 808 810 811
4 807 669 668 808
4 808 668 671 810
4 806 809 812 813
4 813 812 749 748
4 809 811 814 812
4 812 814 750 749
4 806 813 815 816
4 816 815 801 796
4 813 748 764 815
4 815 764 766 801
4 806 816 817 807
4 807 817 676 669
4 816 796 795 817
4 817 795 677 676
4 818 819 820 821
4 821 820 765 760
4 819 800 799 820
4 820 799 766 765
4 818 821 822 823
4 823 822 824 825
4 821 760 759 822
4 822 759 762 824
4 818 823 826 827
4 827 826 828 829
4 823 825 830 826
4 826 830 831 828
4 818 827 832 819
4 819 832 804 800
4 827 829 833 832
4 832 833 805 804
4 834 835 836 837
4 837 836 838 839
4 835 734 733 836
4 836 733 736 838
4 834 837 840 841
4 841 840 774 773
4 837 839 842 840
4 840 842 775 774
4 834 841 843 844
4 844 843 814 811
4 841 773 786 843
4 843 786 750 814
4 834 844 845 835
4 835 845 739 734
4 844 811 810 845
4 845 810 671 739
4 846 847 848 849
4 849 848 850 851
4 847 852 853 848
4 848 853 854 850
4 846 849 855 856
4 856 855 857 858
4 849 851 859 855
4 855 859 860 857
4 846 856 861 862
4 862 861 863 864
4 856 858 865 861
4 861 865 866 863
4 846 862 867 847
4 847 867 868 852
4 862 864 869 867
4 867 869 870 868
4 871 872 873 874
4 874 873 705 700
4 872 875 876 873
4 873 876 706 705
4 871 874 877 878
4 878 877 792 791
4 874 700 699 877
4 877 699 702 792
4 871 878 879 880
4 880 879 881 882
4 878 791 803 879
4 879 803 805 881
4 871 880 883 872
4 872 883 884 875
4 880 882 885 883
4 883 885 854 884
4 886 887 888 889
4 889 888 890 891
4 887 892 893 888
4 888 893 894 890
4 886 889 895 896
4 896 895 689 688
4 889 891 897 895
4 895 897 690 689
4 886 896 898 899
4 899 898 900 901
4 896 688 704 898
4 898 704 706 900
4 886 899 902 887
4 887 902 903 892
4 899 901 904 902
4 902 904 905 903
4 906 907 908 909
4 909 908 833 829
4 907 882 881 908
4 908 881 805 833
4 906 909 910 911
4 911 910 912 913
4 909 829 828 910
4 910 828 831 912
4 906 911 914 915
4 915 914 859 851
4 911 913 916 914
4 914 916 860 859
4 906 915 917 907
4 907 917 885 882
4 915 851 850 917
4 917 850 854 885
4 918 919 920 921
4 921 920 904 901
4 919 922 923 920
4 920 923 905 904
4 918 921 924 925
4 925 924 876 875
4 921 901 900 924
4 924 900 706 876
4 918 925 926 927
4 927 926 853 852
4 925 875 884 926
4 926 884 854 853
4 918 927 928 919
4 919 928 929 922
4 927 852 868 928
4 928 868 870 929
