# Blender v2.82 (sub 7) OBJ File: 'Dragon.blend'
# www.blender.org
o Blade_Cube
v -1.795214 2.938395 5.648607
v -1.751736 2.938395 5.689163
v -1.932827 3.662209 5.796135
v -1.889348 3.662209 5.836691
v -1.760330 2.754912 5.611209
v -1.761526 2.783612 5.612491
v -1.758783 2.811023 5.609551
v -1.752595 2.835247 5.602916
v -1.742716 2.860978 5.592326
v -1.760249 2.875508 5.611123
v -1.774093 2.891546 5.625964
v -1.786111 2.912926 5.638848
v -1.742633 2.912926 5.679404
v -1.730615 2.891546 5.666520
v -1.716771 2.875509 5.651679
v -1.699238 2.860978 5.632882
v -1.709116 2.835247 5.643472
v -1.715305 2.811023 5.650107
v -1.718048 2.783612 5.653047
v -1.716852 2.754912 5.651765
v -1.698306 2.657365 5.631883
v -1.741784 2.657365 5.591327
v -1.678187 2.575425 5.610314
v -1.721666 2.575425 5.569759
v -1.655456 2.494825 5.585945
v -1.698934 2.494825 5.545389
v -1.628164 2.402976 5.556687
v -1.671642 2.402976 5.516131
v -1.598264 2.289265 5.524632
v -1.641743 2.289265 5.484077
v -1.563581 2.137718 5.487450
v -1.607059 2.137718 5.446894
v -1.536720 2.001337 5.458654
v -1.580199 2.001337 5.418098
v -1.541844 1.514264 5.376980
v -1.498366 1.514264 5.417536
v -1.541231 1.601708 5.376322
v -1.497753 1.601708 5.416878
v -1.541143 1.679272 5.376228
v -1.497664 1.679272 5.416783
v -1.548152 1.770716 5.383742
v -1.504674 1.770716 5.424298
v -1.560892 1.880599 5.397401
v -1.517414 1.880599 5.437956
v -1.746348 2.949479 5.639803
v -1.883961 3.673293 5.787332
v -1.692919 2.668449 5.582524
v -1.737245 2.924011 5.630044
v -1.725227 2.902631 5.617160
v -1.711383 2.886593 5.602319
v -1.693850 2.872063 5.583522
v -1.703729 2.846332 5.594113
v -1.709918 2.822108 5.600748
v -1.712660 2.794697 5.603688
v -1.711464 2.765997 5.602406
v -1.672800 2.586510 5.560955
v -1.650068 2.505910 5.536585
v -1.622777 2.414061 5.507328
v -1.592877 2.300350 5.475273
v -1.558193 2.148803 5.438090
v -1.531333 2.012421 5.409294
v -1.495720 1.504007 5.371116
v -1.492234 1.598916 5.367378
v -1.492145 1.683670 5.367283
v -1.499286 1.781801 5.374938
v -1.512027 1.891684 5.388597
v -1.502527 1.434739 5.378413
v -1.772048 2.853958 5.614314
v -1.719340 2.853958 5.663479
v -1.771356 2.854121 5.613571
v -1.718647 2.854121 5.662736
v -1.770655 2.854055 5.612820
v -1.717947 2.854055 5.661985
v -1.769983 2.853761 5.612099
v -1.717274 2.853761 5.661264
v -1.769371 2.853256 5.611443
v -1.716663 2.853256 5.660609
v -1.768852 2.852564 5.610887
v -1.716144 2.852564 5.660052
v -1.768451 2.851719 5.610456
v -1.715743 2.851719 5.659622
v -1.768188 2.850765 5.610175
v -1.715480 2.850765 5.659340
v -1.768076 2.849750 5.610055
v -1.715368 2.849750 5.659221
v -1.768122 2.848723 5.610104
v -1.715414 2.848723 5.659269
v -1.768322 2.847737 5.610318
v -1.715614 2.847737 5.659484
v -1.768667 2.846840 5.610688
v -1.715958 2.846840 5.659853
v -1.769139 2.846079 5.611194
v -1.716431 2.846079 5.660360
v -1.769715 2.845491 5.611812
v -1.717007 2.845491 5.660977
v -1.770365 2.845106 5.612509
v -1.717657 2.845106 5.661674
v -1.771058 2.844942 5.613252
v -1.718350 2.844942 5.662417
v -1.771759 2.845009 5.614003
v -1.719051 2.845009 5.663168
v -1.772431 2.845302 5.614724
v -1.719723 2.845302 5.663889
v -1.773043 2.845808 5.615379
v -1.720335 2.845808 5.664545
v -1.773562 2.846500 5.615936
v -1.720854 2.846500 5.665102
v -1.773963 2.847344 5.616366
v -1.721255 2.847344 5.665532
v -1.774226 2.848298 5.616648
v -1.721518 2.848298 5.665813
v -1.774338 2.849314 5.616767
v -1.721629 2.849314 5.665933
v -1.774292 2.850341 5.616719
v -1.721584 2.850341 5.665884
v -1.774092 2.851327 5.616504
v -1.721384 2.851327 5.665670
v -1.773747 2.852223 5.616135
v -1.721039 2.852223 5.665300
v -1.773275 2.852984 5.615628
v -1.720567 2.852984 5.664794
v -1.772699 2.853572 5.615011
v -1.719991 2.853572 5.664176
v -1.798182 2.772750 5.642489
v -1.745474 2.772750 5.691654
v -1.797482 2.772683 5.641738
v -1.744774 2.772683 5.690904
v -1.796809 2.772390 5.641017
v -1.744101 2.772390 5.690182
v -1.796198 2.771884 5.640362
v -1.743490 2.771884 5.689527
v -1.795679 2.771192 5.639805
v -1.742971 2.771192 5.688971
v -1.795278 2.770348 5.639375
v -1.742569 2.770348 5.688540
v -1.795015 2.769394 5.639093
v -1.742306 2.769394 5.688259
v -1.794903 2.768378 5.638973
v -1.742195 2.768378 5.688139
v -1.794949 2.767351 5.639022
v -1.742240 2.767351 5.688188
v -1.795149 2.766365 5.639236
v -1.742440 2.766365 5.688402
v -1.795493 2.765469 5.639606
v -1.742785 2.765469 5.688772
v -1.795966 2.764708 5.640112
v -1.743258 2.764708 5.689278
v -1.796542 2.764119 5.640730
v -1.743833 2.764119 5.689895
v -1.851844 2.915254 5.709318
v -1.808366 2.915254 5.749874
v -1.745167 2.743342 5.682121
v -1.750317 2.770426 5.687641
v -1.989457 3.639068 5.856846
v -1.945979 3.639068 5.897402
v -1.754954 2.794821 5.692613
v -1.758782 2.814952 5.696716
v -1.823529 2.926824 5.678962
v -1.780051 2.926824 5.719518
v -1.961142 3.650638 5.826491
v -1.917663 3.650638 5.867046
v -1.762609 2.835083 5.700819
v -1.766436 2.855214 5.704923
v -1.770264 2.875345 5.709026
v -1.774902 2.899740 5.713998
v -1.816960 2.731771 5.671920
v -1.826064 2.757240 5.681679
v -1.838082 2.778619 5.694564
v -1.851925 2.794657 5.709404
v -1.869459 2.809187 5.728201
v -1.859580 2.834919 5.717611
v -1.853391 2.859143 5.710976
v -1.850649 2.886554 5.708036
v -1.807171 2.886554 5.748592
v -1.809913 2.859143 5.751532
v -1.816102 2.834919 5.758167
v -1.825981 2.809187 5.768757
v -1.808447 2.794657 5.749960
v -1.794604 2.778619 5.735120
v -1.782585 2.757240 5.722235
v -1.773482 2.731771 5.712476
v -1.726621 2.645794 5.662239
v -1.770100 2.645794 5.621683
v -1.754936 2.634224 5.692594
v -1.798415 2.634224 5.652038
v -1.788645 2.743342 5.641565
v -1.793795 2.770426 5.647085
v -1.798433 2.794821 5.652058
v -1.802260 2.814952 5.656160
v -1.806087 2.835083 5.660264
v -1.809915 2.855214 5.664367
v -1.813742 2.875345 5.668470
v -1.818380 2.899740 5.673442
v -1.710716 2.562133 5.645187
v -1.754194 2.562133 5.604631
v -1.743244 2.548841 5.680059
v -1.786722 2.548841 5.639503
v -1.694858 2.478724 5.628186
v -1.738336 2.478724 5.587630
v -1.734260 2.462623 5.670428
v -1.777738 2.462623 5.629872
v -1.676687 2.383148 5.608706
v -1.720165 2.383148 5.568150
v -1.725209 2.363321 5.660725
v -1.768688 2.363321 5.620169
v -1.654471 2.266297 5.584889
v -1.697949 2.266297 5.544333
v -1.710678 2.243330 5.645146
v -1.754156 2.243330 5.604590
v -1.625236 2.112524 5.553547
v -1.668714 2.112524 5.512991
v -1.686890 2.087331 5.619644
v -1.730368 2.087331 5.579088
v -1.599239 1.975790 5.525678
v -1.642717 1.975790 5.485122
v -1.661758 1.950243 5.592701
v -1.705236 1.950243 5.552145
v -1.554025 1.509287 5.390039
v -1.510547 1.509287 5.430594
v -1.566206 1.504309 5.403098
v -1.522728 1.504309 5.443654
v -1.569408 1.590194 5.406529
v -1.525929 1.590194 5.447085
v -1.597584 1.578680 5.436737
v -1.554106 1.578680 5.477292
v -1.583085 1.662133 5.421192
v -1.539607 1.662133 5.461748
v -1.625027 1.644994 5.466156
v -1.581549 1.644994 5.506712
v -1.599722 1.749643 5.439028
v -1.556244 1.749643 5.479584
v -1.651293 1.728570 5.494315
v -1.607814 1.728570 5.534871
v -1.620026 1.856435 5.460795
v -1.576548 1.856435 5.501351
v -1.679159 1.832272 5.524189
v -1.635681 1.832272 5.564745
v -1.540484 1.450929 5.380426
v -1.501898 1.450929 5.416419
v -1.857232 2.904169 5.758677
v -1.994844 3.627983 5.906206
v -1.939403 3.650638 5.846769
v -1.803802 2.623139 5.701397
v -1.856037 2.875469 5.757396
v -1.858779 2.848058 5.760335
v -1.864968 2.823834 5.766970
v -1.874847 2.798103 5.777561
v -1.857313 2.783573 5.758764
v -1.843470 2.767534 5.743923
v -1.831451 2.746155 5.731039
v -1.822348 2.720687 5.721280
v -1.792110 2.537756 5.688862
v -1.783126 2.451539 5.679231
v -1.774075 2.352236 5.669528
v -1.759543 2.232245 5.653949
v -1.735756 2.076246 5.628448
v -1.710624 1.939158 5.601505
v -1.561717 1.477038 5.441868
v -1.598188 1.555620 5.480968
v -1.628168 1.628087 5.513107
v -1.656680 1.717485 5.543674
v -1.684547 1.821187 5.573548
v -1.531453 1.422919 5.409423
v -1.509087 1.387265 5.385446
v -1.850634 2.821846 5.698561
v -1.797926 2.821846 5.747727
v -1.851285 2.821460 5.699259
v -1.798576 2.821460 5.748425
v -1.851860 2.820872 5.699876
v -1.799152 2.820872 5.749042
v -1.852333 2.820111 5.700383
v -1.799624 2.820111 5.749548
v -1.852677 2.819215 5.700752
v -1.799969 2.819215 5.749918
v -1.852877 2.818228 5.700967
v -1.800169 2.818228 5.750132
v -1.852923 2.817202 5.701015
v -1.800215 2.817202 5.750181
v -1.852811 2.816186 5.700896
v -1.800103 2.816186 5.750062
v -1.852548 2.815232 5.700614
v -1.799840 2.815232 5.749779
v -1.852147 2.814387 5.700184
v -1.799439 2.814388 5.749350
v -1.851628 2.813695 5.699627
v -1.798920 2.813695 5.748793
v -1.851017 2.813190 5.698972
v -1.798308 2.813190 5.748137
v -1.850344 2.812896 5.698251
v -1.797636 2.812896 5.747416
v -1.849644 2.812830 5.697500
v -1.796935 2.812830 5.746665
v -1.848951 2.812993 5.696757
v -1.796243 2.812993 5.745923
v -1.848300 2.813379 5.696059
v -1.795592 2.813379 5.745225
v -1.847724 2.813967 5.695442
v -1.795016 2.813967 5.744607
v -1.847252 2.814728 5.694936
v -1.794544 2.814728 5.744102
v -1.846907 2.815624 5.694566
v -1.794199 2.815624 5.743731
v -1.846707 2.816611 5.694352
v -1.793999 2.816611 5.743517
v -1.846662 2.817637 5.694303
v -1.793953 2.817637 5.743468
v -1.846773 2.818653 5.694423
v -1.794065 2.818653 5.743588
v -1.847036 2.819607 5.694705
v -1.794328 2.819607 5.743870
v -1.847437 2.820451 5.695135
v -1.794729 2.820451 5.744300
v -1.847957 2.821144 5.695691
v -1.795248 2.821144 5.744857
v -1.848568 2.821649 5.696346
v -1.795860 2.821649 5.745512
v -1.849241 2.821943 5.697068
v -1.796532 2.821943 5.746233
v -1.849941 2.822009 5.697818
v -1.797233 2.822009 5.746984
v -1.798846 2.772598 5.643201
v -1.746138 2.772598 5.692366
v -1.799468 2.772224 5.643867
v -1.746760 2.772224 5.693033
v -1.800044 2.771636 5.644485
v -1.747336 2.771636 5.693650
v -1.800516 2.770875 5.644991
v -1.747808 2.770875 5.694157
v -1.800861 2.769979 5.645361
v -1.748153 2.769979 5.694526
v -1.801061 2.768992 5.645576
v -1.748353 2.768992 5.694741
v -1.801107 2.767966 5.645624
v -1.748399 2.767966 5.694789
v -1.800995 2.766950 5.645504
v -1.748287 2.766950 5.694670
v -1.800732 2.765996 5.645223
v -1.748024 2.765996 5.694388
v -1.800331 2.765152 5.644793
v -1.747623 2.765152 5.693958
v -1.799812 2.764459 5.644236
v -1.747104 2.764459 5.693401
v -1.799201 2.763954 5.643580
v -1.746492 2.763954 5.692746
v -1.798528 2.763660 5.642859
v -1.745820 2.763660 5.692025
v -1.797827 2.763594 5.642108
v -1.745119 2.763594 5.691274
v -1.797163 2.763746 5.641397
v -1.744455 2.763746 5.690562
v -1.795214 2.938395 5.648607
v -1.932827 3.662209 5.796135
v -1.932827 3.662209 5.796135
v -1.751736 2.938395 5.689163
v -1.889348 3.662209 5.836691
v -1.889348 3.662209 5.836691
v -1.742633 2.912926 5.679404
v -1.883961 3.673293 5.787332
v -1.883961 3.673293 5.787332
v -1.961142 3.650638 5.826491
v -1.917663 3.650638 5.867046
v -1.752595 2.835247 5.602916
v -1.758783 2.811023 5.609551
v -1.761526 2.783612 5.612491
v -1.760330 2.754912 5.611209
v -1.716771 2.875509 5.651679
v -1.730615 2.891546 5.666520
v -1.774093 2.891546 5.625964
v -1.760249 2.875508 5.611123
v -1.786111 2.912926 5.638848
v -1.742716 2.860978 5.592326
v -1.742716 2.860978 5.592326
v -1.741784 2.657365 5.591327
v -1.715305 2.811023 5.650107
v -1.709116 2.835247 5.643472
v -1.716852 2.754912 5.651765
v -1.718048 2.783612 5.653047
v -1.699238 2.860978 5.632882
v -1.699238 2.860978 5.632882
v -1.698306 2.657365 5.631883
v -1.693850 2.872063 5.583522
v -1.693850 2.872063 5.583522
v -1.693850 2.872063 5.583522
v -1.721666 2.575425 5.569759
v -1.678187 2.575425 5.610314
v -1.698934 2.494825 5.545389
v -1.655456 2.494825 5.585945
v -1.671642 2.402976 5.516131
v -1.628164 2.402976 5.556687
v -1.641743 2.289265 5.484077
v -1.598264 2.289265 5.524632
v -1.607059 2.137718 5.446894
v -1.563581 2.137718 5.487450
v -1.580199 2.001337 5.418098
v -1.536720 2.001337 5.458654
v -1.498366 1.514264 5.417536
v -1.497753 1.601708 5.416878
v -1.541231 1.601708 5.376322
v -1.541844 1.514264 5.376980
v -1.497664 1.679272 5.416783
v -1.541143 1.679272 5.376228
v -1.504674 1.770716 5.424298
v -1.548152 1.770716 5.383742
v -1.517414 1.880599 5.437956
v -1.560892 1.880599 5.397401
v -1.501898 1.450929 5.416419
v -1.501898 1.450929 5.416419
v -1.509087 1.387265 5.385446
v -1.509087 1.387265 5.385446
v -1.509087 1.387265 5.385446
v -1.540484 1.450929 5.380426
v -1.540484 1.450929 5.380426
v -1.531333 2.012421 5.409294
v -1.512027 1.891684 5.388597
v -1.495720 1.504007 5.371116
v -1.502527 1.434739 5.378413
v -1.499286 1.781801 5.374938
v -1.492145 1.683670 5.367283
v -1.492234 1.598916 5.367378
v -1.558193 2.148803 5.438090
v -1.592877 2.300350 5.475273
v -1.622777 2.414061 5.507328
v -1.650068 2.505910 5.536585
v -1.672800 2.586510 5.560955
v -1.692919 2.668449 5.582524
v -1.712660 2.794697 5.603688
v -1.711464 2.765997 5.602406
v -1.709918 2.822108 5.600748
v -1.703729 2.846332 5.594113
v -1.711383 2.886593 5.602319
v -1.725227 2.902631 5.617160
v -1.746348 2.949479 5.639803
v -1.737245 2.924011 5.630044
v -1.772048 2.853958 5.614314
v -1.771356 2.854121 5.613571
v -1.718647 2.854121 5.662736
v -1.719340 2.853958 5.663479
v -1.770655 2.854055 5.612820
v -1.717947 2.854055 5.661985
v -1.769983 2.853761 5.612099
v -1.717274 2.853761 5.661264
v -1.769371 2.853256 5.611443
v -1.716663 2.853256 5.660609
v -1.768852 2.852564 5.610887
v -1.716144 2.852564 5.660052
v -1.768451 2.851719 5.610456
v -1.715743 2.851719 5.659622
v -1.768188 2.850765 5.610175
v -1.715480 2.850765 5.659340
v -1.768076 2.849750 5.610055
v -1.715368 2.849750 5.659221
v -1.768122 2.848723 5.610104
v -1.715414 2.848723 5.659269
v -1.768322 2.847737 5.610318
v -1.715614 2.847737 5.659484
v -1.768667 2.846840 5.610688
v -1.715958 2.846840 5.659853
v -1.769139 2.846079 5.611194
v -1.716431 2.846079 5.660360
v -1.769715 2.845491 5.611812
v -1.717007 2.845491 5.660977
v -1.770365 2.845106 5.612509
v -1.717657 2.845106 5.661674
v -1.771058 2.844942 5.613252
v -1.718350 2.844942 5.662417
v -1.771759 2.845009 5.614003
v -1.719051 2.845009 5.663168
v -1.772431 2.845302 5.614724
v -1.719723 2.845302 5.663889
v -1.773043 2.845808 5.615379
v -1.720335 2.845808 5.664545
v -1.773562 2.846500 5.615936
v -1.720854 2.846500 5.665102
v -1.773963 2.847344 5.616366
v -1.721255 2.847344 5.665532
v -1.774226 2.848298 5.616648
v -1.721518 2.848298 5.665813
v -1.774338 2.849314 5.616767
v -1.721629 2.849314 5.665933
v -1.774292 2.850341 5.616719
v -1.721584 2.850341 5.665884
v -1.774092 2.851327 5.616504
v -1.721384 2.851327 5.665670
v -1.773747 2.852223 5.616135
v -1.721039 2.852223 5.665300
v -1.773275 2.852984 5.615628
v -1.720567 2.852984 5.664794
v -1.772699 2.853572 5.615011
v -1.719991 2.853572 5.664176
v -1.798846 2.772598 5.643201
v -1.798182 2.772750 5.642489
v -1.745474 2.772750 5.691654
v -1.746138 2.772598 5.692366
v -1.797482 2.772683 5.641738
v -1.744774 2.772683 5.690904
v -1.796809 2.772390 5.641017
v -1.744101 2.772390 5.690182
v -1.796198 2.771884 5.640362
v -1.743490 2.771884 5.689527
v -1.795679 2.771192 5.639805
v -1.742971 2.771192 5.688971
v -1.795278 2.770348 5.639375
v -1.742569 2.770348 5.688540
v -1.795015 2.769394 5.639093
v -1.742306 2.769394 5.688259
v -1.794903 2.768378 5.638973
v -1.742195 2.768378 5.688139
v -1.794949 2.767351 5.639022
v -1.742240 2.767351 5.688188
v -1.795149 2.766365 5.639236
v -1.742440 2.766365 5.688402
v -1.795493 2.765469 5.639606
v -1.742785 2.765469 5.688772
v -1.795966 2.764708 5.640112
v -1.743258 2.764708 5.689278
v -1.796542 2.764119 5.640730
v -1.743833 2.764119 5.689895
v -1.797163 2.763746 5.641397
v -1.744455 2.763746 5.690562
v -1.851844 2.915254 5.709318
v -1.989457 3.639068 5.856846
v -1.989457 3.639068 5.856846
v -1.808366 2.915254 5.749874
v -1.945979 3.639068 5.897402
v -1.945979 3.639068 5.897402
v -1.807171 2.886554 5.748592
v -1.994844 3.627983 5.906206
v -1.994844 3.627983 5.906206
v -1.851925 2.794657 5.709404
v -1.838082 2.778619 5.694564
v -1.826064 2.757240 5.681679
v -1.816960 2.731771 5.671920
v -1.816102 2.834919 5.758167
v -1.809913 2.859143 5.751532
v -1.853391 2.859143 5.710976
v -1.859580 2.834919 5.717611
v -1.850649 2.886554 5.708036
v -1.869459 2.809187 5.728201
v -1.869459 2.809187 5.728201
v -1.798415 2.634224 5.652038
v -1.794604 2.778619 5.735120
v -1.808447 2.794657 5.749960
v -1.773482 2.731771 5.712476
v -1.782585 2.757240 5.722235
v -1.825981 2.809187 5.768757
v -1.825981 2.809187 5.768757
v -1.754936 2.634224 5.692594
v -1.874847 2.798103 5.777561
v -1.874847 2.798103 5.777561
v -1.874847 2.798103 5.777561
v -1.786722 2.548841 5.639503
v -1.743244 2.548841 5.680059
v -1.777738 2.462623 5.629872
v -1.734260 2.462623 5.670428
v -1.768688 2.363321 5.620169
v -1.725209 2.363321 5.660725
v -1.754156 2.243330 5.604590
v -1.710678 2.243330 5.645146
v -1.730368 2.087331 5.579088
v -1.686890 2.087331 5.619644
v -1.705236 1.950243 5.552145
v -1.661758 1.950243 5.592701
v -1.522728 1.504309 5.443654
v -1.554106 1.578680 5.477292
v -1.597584 1.578680 5.436737
v -1.566206 1.504309 5.403098
v -1.581549 1.644994 5.506712
v -1.625027 1.644994 5.466156
v -1.607814 1.728570 5.534871
v -1.651293 1.728570 5.494315
v -1.635681 1.832272 5.564745
v -1.679159 1.832272 5.524189
v -1.710624 1.939158 5.601505
v -1.684547 1.821187 5.573548
v -1.561717 1.477038 5.441868
v -1.531453 1.422919 5.409423
v -1.656680 1.717485 5.543674
v -1.628168 1.628087 5.513107
v -1.598188 1.555620 5.480968
v -1.735756 2.076246 5.628448
v -1.759543 2.232245 5.653949
v -1.774075 2.352236 5.669528
v -1.783126 2.451539 5.679231
v -1.792110 2.537756 5.688862
v -1.803802 2.623139 5.701397
v -1.831451 2.746155 5.731039
v -1.822348 2.720687 5.721280
v -1.843470 2.767534 5.743923
v -1.857313 2.783573 5.758764
v -1.864968 2.823834 5.766970
v -1.858779 2.848058 5.760335
v -1.857232 2.904169 5.758677
v -1.856037 2.875469 5.757396
v -1.850634 2.821846 5.698561
v -1.851285 2.821460 5.699259
v -1.798576 2.821460 5.748425
v -1.797926 2.821846 5.747727
v -1.851860 2.820872 5.699876
v -1.799152 2.820872 5.749042
v -1.852333 2.820111 5.700383
v -1.799624 2.820111 5.749548
v -1.852677 2.819215 5.700752
v -1.799969 2.819215 5.749918
v -1.852877 2.818228 5.700967
v -1.800169 2.818228 5.750132
v -1.852923 2.817202 5.701015
v -1.800215 2.817202 5.750181
v -1.852811 2.816186 5.700896
v -1.800103 2.816186 5.750062
v -1.852548 2.815232 5.700614
v -1.799840 2.815232 5.749779
v -1.852147 2.814387 5.700184
v -1.799439 2.814388 5.749350
v -1.851628 2.813695 5.699627
v -1.798920 2.813695 5.748793
v -1.851017 2.813190 5.698972
v -1.798308 2.813190 5.748137
v -1.850344 2.812896 5.698251
v -1.797636 2.812896 5.747416
v -1.849644 2.812830 5.697500
v -1.796935 2.812830 5.746665
v -1.848951 2.812993 5.696757
v -1.796243 2.812993 5.745923
v -1.848300 2.813379 5.696059
v -1.795592 2.813379 5.745225
v -1.847724 2.813967 5.695442
v -1.795016 2.813967 5.744607
v -1.847252 2.814728 5.694936
v -1.794544 2.814728 5.744102
v -1.846907 2.815624 5.694566
v -1.794199 2.815624 5.743731
v -1.846707 2.816611 5.694352
v -1.793999 2.816611 5.743517
v -1.846662 2.817637 5.694303
v -1.793953 2.817637 5.743468
v -1.846773 2.818653 5.694423
v -1.794065 2.818653 5.743588
v -1.847036 2.819607 5.694705
v -1.794328 2.819607 5.743870
v -1.847437 2.820451 5.695135
v -1.794729 2.820451 5.744300
v -1.847957 2.821144 5.695691
v -1.795248 2.821144 5.744857
v -1.848568 2.821649 5.696346
v -1.795860 2.821649 5.745512
v -1.849241 2.821943 5.697068
v -1.796532 2.821943 5.746233
v -1.849941 2.822009 5.697818
v -1.797233 2.822009 5.746984
v -1.799468 2.772224 5.643867
v -1.746760 2.772224 5.693033
v -1.800044 2.771636 5.644485
v -1.747336 2.771636 5.693650
v -1.800516 2.770875 5.644991
v -1.747808 2.770875 5.694157
v -1.800861 2.769979 5.645361
v -1.748153 2.769979 5.694526
v -1.801061 2.768992 5.645576
v -1.748353 2.768992 5.694741
v -1.801107 2.767966 5.645624
v -1.748399 2.767966 5.694789
v -1.800995 2.766950 5.645504
v -1.748287 2.766950 5.694670
v -1.800732 2.765996 5.645223
v -1.748024 2.765996 5.694388
v -1.800331 2.765152 5.644793
v -1.747623 2.765152 5.693958
v -1.799812 2.764459 5.644236
v -1.747104 2.764459 5.693401
v -1.799201 2.763954 5.643580
v -1.746492 2.763954 5.692746
v -1.798528 2.763660 5.642859
v -1.745820 2.763660 5.692025
v -1.797827 2.763594 5.642108
v -1.745119 2.763594 5.691274
vn 0.9219 0.3441 0.1779
vn 0.8762 0.4409 0.1946
vn 0.8567 0.4752 0.2002
vn 0.7312 0.0000 0.6821
vn 0.7313 0.0000 0.6821
vn 0.9774 0.1569 0.1419
vn 0.9649 0.2130 0.1532
vn 0.9633 0.2195 0.1544
vn 0.9295 0.3250 0.1744
vn -0.7313 0.0000 -0.6821
vn -0.7312 0.0000 -0.6821
vn -0.1831 0.9633 0.1963
vn 0.8048 0.5543 0.2123
vn 0.7781 0.5893 0.2173
vn 0.9864 0.1002 0.1302
vn 0.9731 0.1780 0.1462
vn 0.9872 0.0936 0.1288
vn 0.7520 0.6208 0.2215
vn 0.7519 0.6208 0.2215
vn 0.9365 -0.3498 0.0237
vn 0.9495 -0.3120 0.0336
vn 0.9616 -0.2707 0.0442
vn 0.9814 -0.1802 0.0667
vn 0.9870 -0.1418 0.0759
vn 0.9943 -0.0365 0.1003
vn 0.9943 -0.0161 0.1049
vn 0.9655 0.2106 0.1527
vn 0.9652 0.2120 0.1530
vn 0.9607 0.2292 0.1563
vn 0.9605 0.2299 0.1565
vn 0.9622 0.2235 0.1552
vn 0.9626 0.2221 0.1549
vn 0.9684 0.1989 0.1504
vn 0.9686 0.1980 0.1502
vn 0.9739 0.1743 0.1454
vn 0.9740 0.1739 0.1454
vn 0.9791 0.1476 0.1400
vn 0.9790 0.1479 0.1401
vn 0.7352 -0.0216 0.6775
vn 0.7360 -0.0266 0.6764
vn -0.7269 -0.0216 -0.6863
vn -0.1435 -0.0391 -0.9889
vn -0.1724 -0.0081 -0.9850
vn -0.1274 -0.0540 -0.9904
vn -0.1823 0.0318 -0.9827
vn -0.1833 0.0331 -0.9825
vn -0.1932 0.0798 -0.9779
vn -0.1946 0.0817 -0.9774
vn -0.2014 0.1152 -0.9727
vn -0.2016 0.1165 -0.9725
vn 0.9968 -0.0540 0.0583
vn 0.9947 -0.0945 0.0402
vn 0.9926 -0.1164 0.0331
vn -0.1082 -0.1310 -0.9854
vn -0.1092 -0.0945 -0.9895
vn -0.1020 -0.1163 -0.9879
vn 0.9841 0.1165 0.1336
vn -0.2077 0.1476 -0.9670
vn 0.7402 -0.0531 0.6702
vn 0.9886 0.0817 0.1263
vn 0.9843 0.1152 0.1333
vn 0.9890 0.0798 0.1248
vn 0.9928 0.0331 0.1147
vn 0.9930 0.0318 0.1136
vn 0.9946 -0.0081 0.1035
vn 0.9938 -0.0035 0.1110
vn 0.9964 -0.0391 0.0744
vn -0.2127 0.1739 -0.9615
vn -0.2127 0.1743 -0.9614
vn -0.2171 0.1979 -0.9558
vn -0.2173 0.1989 -0.9556
vn -0.2214 0.2221 -0.9495
vn -0.2217 0.2235 -0.9491
vn -0.2228 0.2299 -0.9473
vn -0.2227 0.2292 -0.9475
vn -0.2196 0.2120 -0.9523
vn -0.2194 0.2106 -0.9526
vn -0.2134 0.1780 -0.9606
vn -0.2133 0.1772 -0.9608
vn -0.1737 -0.0161 -0.9846
vn -0.1970 0.0936 -0.9759
vn -0.1983 0.1002 -0.9750
vn -0.1442 -0.1419 -0.9793
vn -0.1691 -0.0365 -0.9849
vn -0.1108 -0.2707 -0.9562
vn -0.1346 -0.1802 -0.9744
vn -0.0887 -0.3498 -0.9326
vn -0.0994 -0.3120 -0.9449
vn -0.2708 0.5893 -0.7612
vn -0.2732 0.6208 -0.7348
vn -0.2677 0.5543 -0.7881
vn -0.2593 0.4752 -0.8408
vn -0.2550 0.4409 -0.8605
vn -0.2210 0.2195 -0.9502
vn -0.2386 0.3250 -0.9151
vn -0.2198 0.2130 -0.9520
vn -0.2094 0.1569 -0.9651
vn -0.2415 0.3441 -0.9073
vn 0.9906 -0.1310 0.0394
vn -0.7259 -0.0266 -0.6872
vn -0.7200 -0.0531 -0.6919
vn -0.0323 0.9989 0.0346
vn -0.0323 0.9988 0.0349
vn 0.1201 0.9843 -0.1288
vn 0.1201 0.9844 -0.1288
vn 0.2665 0.9205 -0.2856
vn 0.2665 0.9205 -0.2859
vn 0.3995 0.8105 -0.4282
vn 0.3995 0.8105 -0.4283
vn 0.5126 0.6600 -0.5492
vn 0.5997 0.4761 -0.6431
vn 0.5999 0.4761 -0.6429
vn 0.6571 0.2685 -0.7044
vn 0.6570 0.2683 -0.7044
vn 0.6813 0.0475 -0.7304
vn 0.6813 0.0473 -0.7305
vn 0.6714 -0.1761 -0.7198
vn 0.6713 -0.1758 -0.7200
vn 0.6279 -0.3908 -0.6730
vn 0.6278 -0.3906 -0.6732
vn 0.5529 -0.5858 -0.5925
vn 0.5528 -0.5857 -0.5928
vn 0.4501 -0.7515 -0.4823
vn 0.4501 -0.7513 -0.4826
vn 0.3247 -0.8794 -0.3482
vn 0.3247 -0.8794 -0.3480
vn 0.1831 -0.9633 -0.1964
vn 0.1831 -0.9633 -0.1963
vn 0.0323 -0.9989 -0.0345
vn 0.0323 -0.9988 -0.0348
vn -0.1201 -0.9844 0.1286
vn -0.1201 -0.9843 0.1290
vn -0.2665 -0.9206 0.2855
vn -0.2665 -0.9204 0.2859
vn -0.3995 -0.8105 0.4283
vn -0.3995 -0.8106 0.4282
vn -0.5125 -0.6598 0.5496
vn -0.5125 -0.6600 0.5492
vn -0.5998 -0.4760 0.6432
vn -0.5999 -0.4761 0.6430
vn -0.6571 -0.2684 0.7044
vn -0.6569 -0.2684 0.7045
vn -0.6813 -0.0475 0.7304
vn -0.6813 -0.0476 0.7305
vn -0.6714 0.1760 0.7199
vn -0.6714 0.1760 0.7198
vn -0.6279 0.3907 0.6731
vn -0.6279 0.3908 0.6731
vn -0.5529 0.5857 0.5926
vn -0.5528 0.5857 0.5928
vn -0.4501 0.7514 0.4824
vn 0.7306 0.0000 0.6827
vn 0.7309 0.0000 0.6825
vn 0.7313 -0.0001 0.6821
vn -0.3247 0.8794 0.3481
vn -0.3248 0.8794 0.3481
vn -0.4500 0.7513 0.4827
vn -0.7311 0.0000 -0.6823
vn -0.7311 0.0000 -0.6822
vn -0.7315 0.0000 -0.6818
vn -0.0307 0.9990 0.0327
vn -0.1831 0.9633 0.1962
vn -0.0307 0.9990 0.0329
vn 0.2665 0.9205 -0.2858
vn 0.2665 0.9205 -0.2857
vn 0.3995 0.8104 -0.4284
vn 0.5126 0.6598 -0.5495
vn 0.5997 0.4762 -0.6431
vn 0.5999 0.4760 -0.6430
vn 0.6571 0.2684 -0.7043
vn 0.6570 0.2686 -0.7044
vn 0.6813 0.0474 -0.7304
vn 0.6815 0.0474 -0.7303
vn 0.6714 -0.1762 -0.7198
vn 0.6714 -0.1758 -0.7199
vn 0.6279 -0.3910 -0.6729
vn 0.6277 -0.3904 -0.6735
vn 0.5528 -0.5859 -0.5925
vn 0.4501 -0.7514 -0.4825
vn 0.4501 -0.7513 -0.4825
vn 0.3262 -0.8782 -0.3498
vn 0.3263 -0.8781 -0.3498
vn 0.7311 0.0000 0.6822
vn 0.7316 0.0000 0.6817
vn -0.7316 0.0000 -0.6817
vn -0.7309 0.0000 -0.6825
vn 0.1691 0.0365 0.9849
vn 0.1442 0.1419 0.9793
vn 0.1737 0.0161 0.9846
vn 0.1984 -0.1002 0.9750
vn 0.2094 -0.1569 0.9651
vn 0.1970 -0.0936 0.9759
vn 0.1346 0.1802 0.9744
vn 0.1108 0.2707 0.9562
vn 0.2054 -0.1357 0.9692
vn 0.2198 -0.2130 0.9520
vn 0.2210 -0.2195 0.9502
vn 0.0994 0.3120 0.9449
vn 0.0886 0.3498 0.9326
vn 0.2708 -0.5893 0.7611
vn 0.2732 -0.6208 0.7348
vn 0.2732 -0.6208 0.7347
vn 0.2593 -0.4752 0.8408
vn 0.2677 -0.5543 0.7881
vn 0.2415 -0.3441 0.9073
vn 0.2550 -0.4409 0.8605
vn 0.2386 -0.3250 0.9151
vn 0.1989 -0.1026 0.9746
vn 0.2055 -0.1365 0.9691
vn 0.1986 -0.1013 0.9748
vn 0.1950 -0.0836 0.9772
vn 0.1949 -0.0829 0.9773
vn 0.1962 -0.0894 0.9765
vn 0.1965 -0.0909 0.9763
vn 0.2012 -0.1146 0.9728
vn 0.2014 -0.1155 0.9727
vn 0.2061 -0.1394 0.9685
vn 0.2062 -0.1398 0.9684
vn 0.2112 -0.1661 0.9632
vn -0.7270 -0.0216 -0.6863
vn -0.9325 -0.3187 -0.1701
vn -0.9212 -0.3569 -0.1552
vn -0.9151 -0.3759 -0.1459
vn -0.9458 -0.2802 -0.1642
vn -0.9339 -0.3116 -0.1752
vn -0.9462 -0.2786 -0.1647
vn -0.9597 -0.2334 -0.1561
vn -0.9602 -0.2311 -0.1567
vn -0.9685 -0.1982 -0.1502
vn 0.2091 -0.3759 0.9027
vn 0.2064 -0.4166 0.8853
vn 0.2188 -0.3569 0.9082
vn -0.8807 -0.4467 -0.1572
vn -0.8874 -0.4373 -0.1460
vn -0.8975 -0.4166 -0.1444
vn 0.2169 -0.1970 0.9561
vn 0.2112 -0.1658 0.9633
vn -0.9756 -0.1661 -0.1438
vn -0.9688 -0.1970 -0.1500
vn -0.9756 -0.1658 -0.1437
vn 0.2172 -0.1982 0.9558
vn 0.2230 -0.2311 0.9470
vn 0.2224 -0.2334 0.9466
vn 0.2300 -0.2786 0.9325
vn 0.2295 -0.2802 0.9321
vn 0.2345 -0.3187 0.9184
vn 0.2397 -0.3116 0.9195
vn -0.9804 -0.1398 -0.1384
vn -0.9805 -0.1394 -0.1383
vn -0.9843 -0.1155 -0.1334
vn -0.9844 -0.1145 -0.1332
vn -0.9875 -0.0909 -0.1282
vn -0.9877 -0.0894 -0.1279
vn -0.9885 -0.0829 -0.1265
vn -0.9884 -0.0836 -0.1267
vn -0.9863 -0.1013 -0.1304
vn -0.9861 -0.1026 -0.1307
vn -0.9811 -0.1357 -0.1375
vn -0.9810 -0.1365 -0.1377
vn -0.9295 -0.3250 -0.1744
vn -0.9633 -0.2195 -0.1544
vn -0.9219 -0.3441 -0.1779
vn -0.8762 -0.4409 -0.1946
vn -0.8567 -0.4752 -0.2002
vn -0.8048 -0.5543 -0.2123
vn -0.7781 -0.5893 -0.2173
vn -0.7519 -0.6208 -0.2215
vn -0.9365 0.3498 -0.0237
vn -0.9495 0.3120 -0.0336
vn -0.9616 0.2707 -0.0442
vn -0.9649 -0.2130 -0.1532
vn -0.9814 0.1802 -0.0667
vn -0.9870 0.1418 -0.0759
vn -0.9943 0.0161 -0.1049
vn -0.9872 -0.0936 -0.1288
vn -0.9864 -0.1002 -0.1302
vn -0.9774 -0.1569 -0.1419
vn -0.9943 0.0365 -0.1003
vn 0.2073 -0.4373 0.8751
vn 0.2180 -0.4467 0.8677
vn -0.3248 0.8794 0.3480
vn -0.1831 0.9633 0.1964
vn -0.1832 0.9633 0.1961
vn -0.4500 0.7515 0.4824
vn -0.3248 0.8793 0.3484
vn -0.5528 0.5857 0.5927
vn -0.4500 0.7514 0.4826
vn -0.6279 0.3905 0.6732
vn -0.5528 0.5858 0.5926
vn -0.6713 0.1760 0.7199
vn -0.6280 0.3907 0.6731
vn -0.6813 -0.0472 0.7305
vn -0.6715 0.1760 0.7197
vn -0.6570 -0.2684 0.7044
vn -0.6814 -0.0474 0.7304
vn -0.5998 -0.4760 0.6431
vn -0.6570 -0.2685 0.7044
vn -0.5126 -0.6598 0.5494
vn -0.5998 -0.4762 0.6430
vn -0.3995 -0.8106 0.4281
vn -0.5125 -0.6597 0.5496
vn -0.2665 -0.9206 0.2853
vn -0.3995 -0.8104 0.4284
vn -0.2664 -0.9204 0.2860
vn -0.1201 -0.9844 0.1287
vn 0.0323 -0.9988 -0.0350
vn 0.3247 -0.8793 -0.3483
vn 0.4501 -0.7514 -0.4826
vn 0.3248 -0.8794 -0.3481
vn 0.5528 -0.5857 -0.5926
vn 0.6280 -0.3906 -0.6731
vn 0.5528 -0.5858 -0.5926
vn 0.6716 -0.1760 -0.7197
vn 0.6813 0.0475 -0.7305
vn 0.6713 -0.1760 -0.7199
vn 0.6571 0.2686 -0.7043
vn 0.6570 0.2685 -0.7044
vn 0.5126 0.6598 -0.5494
vn 0.3996 0.8105 -0.4283
vn 0.5125 0.6599 -0.5494
vn 0.1201 0.9844 -0.1286
vn 0.7312 0.0001 0.6822
vn 0.7314 0.0000 0.6819
vn -0.0323 0.9989 0.0348
vn -0.7314 0.0000 -0.6819
vn -0.7310 0.0000 -0.6823
vn -0.3262 0.8782 0.3497
vn -0.4501 0.7514 0.4825
vn -0.6278 0.3907 0.6731
vn -0.6279 0.3906 0.6731
vn -0.6714 0.1761 0.7198
vn -0.6571 -0.2684 0.7043
vn -0.6814 -0.0476 0.7304
vn -0.5999 -0.4758 0.6432
vn -0.6570 -0.2687 0.7043
vn -0.5124 -0.6598 0.5496
vn -0.5999 -0.4762 0.6429
vn -0.3994 -0.8106 0.4282
vn -0.2665 -0.9205 0.2856
vn -0.1201 -0.9843 0.1288
vn -0.2665 -0.9205 0.2857
vn 0.0306 -0.9990 -0.0327
vn 0.0306 -0.9990 -0.0330
vn 0.7315 0.0000 0.6818
vn 0.7307 -0.0001 0.6827
vn -0.7312 0.0000 -0.6822
vn -0.7313 0.0000 -0.6820
vn 0.9733 0.1772 0.1460
vn -0.1798 -0.0035 -0.9837
vn -0.2077 0.1479 -0.9669
vn 0.5125 0.6599 -0.5495
vn 0.7313 0.0000 0.6820
vn 0.7307 0.0000 0.6827
vn 0.7314 0.0000 0.6820
vn 0.7310 0.0000 0.6823
vn 0.7312 -0.0001 0.6821
vn 0.7313 0.0001 0.6820
vn 0.7312 -0.0000 0.6822
vn 0.7318 0.0000 0.6814
vn 0.7312 -0.0001 0.6822
vn 0.7310 0.0002 0.6823
vn 0.7319 0.0000 0.6814
vn 0.7327 0.0003 0.6806
vn 0.7310 0.0000 0.6824
vn 0.7316 0.0000 0.6818
vn 0.7319 -0.0001 0.6813
vn 0.7304 0.0000 0.6830
vn 0.7355 0.0005 0.6775
vn -0.7316 0.0000 -0.6818
vn -0.7314 -0.0001 -0.6819
vn -0.7308 0.0001 -0.6825
vn -0.7292 -0.0002 -0.6843
vn -0.7322 0.0001 -0.6811
vn -0.7318 -0.0001 -0.6815
vn -0.7311 0.0001 -0.6822
vn -0.7317 0.0001 -0.6816
vn -0.7318 -0.0003 -0.6815
vn -0.7314 0.0001 -0.6819
vn 0.5125 0.6598 -0.5495
vn 0.7311 -0.0001 0.6822
vn 0.7315 0.0001 0.6818
vn 0.7317 0.0000 0.6816
vn 0.7305 -0.0001 0.6829
vn 0.7309 0.0000 0.6824
vn -0.7315 -0.0001 -0.6818
vn -0.7300 0.0002 -0.6834
vn -0.7296 0.0004 -0.6838
vn 0.7312 0.0001 0.6821
vn 0.7310 0.0001 0.6824
vn 0.7302 0.0000 0.6832
vn 0.7324 -0.0001 0.6809
vn 0.7311 0.0010 0.6822
vn 0.7319 -0.0001 0.6814
vn 0.7308 0.0000 0.6825
vn 0.7314 0.0003 0.6819
vn 0.7317 0.0002 0.6816
vn 0.7330 0.0000 0.6803
vn 0.7303 -0.0003 0.6831
vn -0.7308 0.0000 -0.6826
vn -0.7318 0.0001 -0.6814
vn -0.7306 0.0000 -0.6828
vn -0.7317 -0.0001 -0.6816
vn -0.7304 0.0000 -0.6830
vn -0.7330 0.0007 -0.6803
vn -0.7305 -0.0001 -0.6829
vn -0.7311 -0.0001 -0.6823
vn -0.7309 0.0000 -0.6824
vn -0.7312 0.0001 -0.6821
vn -0.7298 -0.0002 -0.6837
vn -0.7326 0.0001 -0.6807
vn 0.7313 0.0001 0.6821
vn 0.7298 0.0000 0.6836
vn 0.7301 -0.0002 0.6833
vn 0.7326 0.0000 0.6806
vn -0.7307 -0.0000 -0.6826
vn -0.7315 -0.0002 -0.6818
vn -0.7313 -0.0002 -0.6821
vn -0.7313 -0.0001 -0.6821
vn -0.7317 0.0000 -0.6816
s 1
f 48//1 14//2 49//3
f 153//4 376//5 377//5
f 358//6 354//7 432//8
f 366//5 162//4 378//5
f 157//5 374//5 375//5
f 432//8 357//9 48//1
f 351//10 360//11 352//11
f 356//5 159//5 2//4
f 242//12 4//12 359//12
f 49//3 15//13 50//14
f 156//5 377//5 374//5
f 2//4 165//5 13//5
f 162//4 375//5 378//5
f 367//5 163//4 366//5
f 189//10 363//10 188//11
f 13//5 164//4 367//5
f 187//11 365//11 186//10
f 368//10 191//11 192//11
f 188//11 364//10 187//11
f 190//10 362//10 189//10
f 20//15 425//16 55//17
f 369//11 190//10 191//11
f 370//11 192//11 193//11
f 152//5 21//5 376//5
f 351//10 193//11 158//11
f 365//11 183//10 186//10
f 50//14 379//18 382//19
f 16//20 52//21 383//20
f 17//22 53//23 52//21
f 18//24 54//25 53//23
f 19//26 55//17 54//25
f 373//10 195//10 183//10
f 21//5 194//5 23//5
f 425//16 385//27 424//28
f 384//10 199//10 195//10
f 23//5 198//5 25//5
f 424//28 387//29 423//30
f 386//10 203//11 199//10
f 25//5 202//4 27//5
f 423//30 389//31 422//32
f 388//11 207//11 203//11
f 27//5 206//5 29//4
f 422//32 391//33 421//34
f 390//10 211//10 207//11
f 29//4 210//4 31//4
f 421//34 393//35 420//36
f 392//10 215//10 211//10
f 31//4 214//4 33//5
f 420//36 395//37 413//38
f 396//39 223//5 219//40
f 35//41 222//10 37//10
f 399//42 419//43 415//44
f 397//5 227//5 223//5
f 37//10 226//10 39//11
f 419//43 401//45 418//46
f 400//4 231//5 227//5
f 39//11 230//11 41//10
f 418//46 403//47 417//48
f 402//5 235//4 231//5
f 41//10 234//11 43//10
f 417//48 405//49 414//50
f 62//51 407//52 416//53
f 408//54 412//55 67//56
f 214//4 404//5 33//5
f 395//37 66//57 413//38
f 215//10 43//10 234//11
f 34//58 414//50 405//49
f 396//39 219//40 406//59
f 65//60 44//61 42//62
f 64//63 42//62 40//64
f 63//65 40//64 38//66
f 36//67 63//65 38//66
f 60//68 34//58 32//69
f 59//70 32//69 30//71
f 58//72 30//71 28//73
f 57//74 28//73 26//75
f 56//76 26//75 24//77
f 47//78 24//77 22//79
f 6//80 427//81 5//82
f 7//83 426//84 6//80
f 8//85 428//86 7//83
f 372//87 429//88 8//85
f 430//89 9//90 10//91
f 427//81 22//79 5//82
f 431//92 10//91 11//93
f 353//12 242//12 359//12
f 45//94 12//95 1//96
f 3//97 45//94 1//96
f 433//98 11//93 12//95
f 407//52 409//99 416//53
f 218//100 35//41 411//101
f 415//44 412//55 399//42
f 437//12 435//102 434//12
f 436//103 438//104 435//102
f 439//105 440//106 438//104
f 441//107 442//108 440//106
f 443//109 444//110 442//108
f 444//110 447//111 446//112
f 447//111 448//113 446//112
f 449//114 450//115 448//113
f 451//116 452//117 450//115
f 453//118 454//119 452//117
f 455//120 456//121 454//119
f 457//122 458//123 456//121
f 459//124 460//125 458//123
f 461//126 462//127 460//125
f 463//128 464//129 462//127
f 465//130 466//131 464//129
f 467//132 468//133 466//131
f 469//134 470//135 468//133
f 471//136 472//137 470//135
f 473//138 474//139 472//137
f 475//140 476//141 474//139
f 477//142 478//143 476//141
f 479//144 480//145 478//143
f 481//146 482//147 480//145
f 483//148 484//149 482//147
f 485//150 486//151 484//149
f 77//152 75//153 89//154
f 123//155 434//12 488//156
f 487//157 488//156 486//151
f 120//158 122//159 98//160
f 493//12 491//161 490//162
f 492//163 494//105 491//161
f 495//105 496//164 494//105
f 497//165 498//109 496//164
f 499//166 500//167 498//109
f 500//167 503//168 502//169
f 503//168 504//170 502//169
f 505//171 506//172 504//170
f 507//173 508//174 506//172
f 509//175 510//176 508//174
f 511//177 512//178 510//176
f 513//122 514//179 512//178
f 515//180 516//181 514//179
f 517//182 518//128 516//181
f 129//153 127//183 145//184
f 148//160 349//185 124//186
f 244//187 175//188 526//189
f 543//4 153//4 544//5
f 523//190 527//191 592//192
f 533//5 162//4 163//4
f 541//4 157//5 542//4
f 592//192 526//189 523//190
f 360//11 520//10 521//10
f 159//5 525//4 151//5
f 155//12 242//12 528//12
f 245//193 176//194 175//188
f 544//5 156//5 541//4
f 151//5 165//5 159//5
f 542//4 162//4 545//5
f 534//5 163//4 164//4
f 189//10 530//11 529//11
f 174//5 164//4 165//5
f 187//11 532//10 531//10
f 191//11 535//10 192//11
f 188//11 531//10 530//11
f 190//10 529//11 538//10
f 585//195 181//196 251//197
f 190//10 536//10 191//11
f 192//11 537//10 193//11
f 184//5 152//5 543//4
f 193//11 520//10 158//11
f 183//10 532//10 186//10
f 246//198 546//199 176//194
f 248//200 177//201 550//202
f 249//203 178//204 248//200
f 250//205 179//206 249//203
f 251//197 180//207 250//205
f 195//10 540//11 183//10
f 184//5 194//5 182//5
f 585//195 552//208 547//209
f 199//10 551//10 195//10
f 196//5 198//5 194//5
f 584//210 554//211 552//208
f 203//11 553//11 199//10
f 200//4 202//4 198//5
f 583//212 556//213 554//211
f 207//11 555//10 203//11
f 204//4 206//5 202//4
f 582//214 558//215 556//213
f 211//10 557//10 207//11
f 208//5 210//4 206//5
f 581//216 560//217 558//215
f 215//10 559//10 211//10
f 212//5 214//4 210//4
f 580//218 562//219 560//217
f 223//5 563//39 219//40
f 220//220 222//10 218//100
f 579//221 566//222 575//223
f 227//5 564//5 223//5
f 224//11 226//10 222//10
f 579//221 568//224 565//225
f 231//5 567//5 227//5
f 228//11 230//11 226//10
f 578//226 570//227 568//224
f 235//4 569//5 231//5
f 232//11 234//11 230//11
f 577//228 572//229 570//227
f 258//230 239//231 221//232
f 410//233 263//234 238//235
f 214//4 571//4 235//4
f 262//236 562//219 573//237
f 215//10 236//11 561//11
f 217//238 574//239 257//240
f 563//39 406//59 219//40
f 237//241 261//242 233//243
f 233//243 260//244 229//245
f 229//245 259//246 225//247
f 221//232 259//246 258//230
f 217//238 256//248 213//249
f 213//249 255//250 209//251
f 209//251 254//252 205//253
f 205//253 253//254 201//255
f 201//255 252//256 197//257
f 197//257 243//258 185//259
f 167//260 587//261 586//262
f 168//263 586//262 588//264
f 169//265 588//264 589//266
f 539//267 589//266 548//267
f 170//268 590//269 171//270
f 166//271 243//258 587//261
f 171//270 591//272 172//273
f 522//12 242//12 160//12
f 173//274 240//275 150//276
f 240//275 154//277 150//276
f 172//273 593//278 173//274
f 239//231 576//279 264//280
f 218//100 411//101 220//220
f 238//235 575//223 566//222
f 595//281 597//282 594//283
f 598//284 596//285 595//281
f 600//286 599//287 598//284
f 602//288 601//289 600//286
f 604//290 603//291 602//288
f 604//290 607//292 605//293
f 608//294 607//292 606//295
f 610//296 609//297 608//294
f 612//298 611//299 610//296
f 614//300 613//301 612//298
f 616//302 615//303 614//300
f 618//131 617//304 616//302
f 620//129 619//305 618//131
f 622//128 621//306 620//129
f 624//307 623//127 622//128
f 626//308 625//309 624//307
f 628//310 627//180 626//308
f 630//311 629//312 628//310
f 632//313 631//120 630//311
f 634//314 633//315 632//313
f 636//316 635//116 634//314
f 638//112 637//317 636//316
f 640//318 639//111 638//112
f 642//319 641//320 640//318
f 644//165 643//109 642//319
f 646//321 645//164 644//165
f 318//322 649//323 298//323
f 594//283 320//102 648//324
f 648//324 647//105 646//321
f 269//325 267//325 291//326
f 650//327 493//12 490//162
f 652//328 651//327 650//327
f 654//150 653//328 652//328
f 656//329 655//149 654//150
f 658//146 657//330 656//329
f 658//146 661//143 659//331
f 662//332 661//143 660//333
f 664//334 663//335 662//332
f 666//336 665//337 664//334
f 668//338 667//298 666//336
f 670//339 669//135 668//338
f 672//340 671//341 670//339
f 674//342 673//305 672//340
f 518//128 675//343 674//342
f 346//344 348//323 326//345
f 325//346 323//347 347//11
f 48//1 357//9 14//2
f 153//4 152//5 376//5
f 358//6 355//6 354//7
f 366//5 163//4 162//4
f 157//5 156//5 374//5
f 432//8 354//7 357//9
f 351//10 158//11 360//11
f 356//5 361//5 159//5
f 242//12 161//12 4//12
f 49//3 14//2 15//13
f 156//5 153//4 377//5
f 2//4 159//5 165//5
f 162//4 157//5 375//5
f 367//5 164//4 163//4
f 189//10 362//10 363//10
f 13//5 165//5 164//4
f 187//11 364//10 365//11
f 368//10 369//11 191//11
f 188//11 363//10 364//10
f 190//10 371//11 362//10
f 20//15 380//348 425//16
f 369//11 371//11 190//10
f 370//11 368//10 192//11
f 152//5 182//5 21//5
f 351//10 370//11 193//11
f 365//11 373//10 183//10
f 50//14 15//13 379//18
f 16//20 17//22 52//21
f 17//22 18//24 53//23
f 18//24 19//26 54//25
f 19//26 20//15 55//17
f 373//10 384//10 195//10
f 21//5 182//5 194//5
f 425//16 380//348 385//27
f 384//10 386//10 199//10
f 23//5 194//5 198//5
f 424//28 385//27 387//29
f 386//10 388//11 203//11
f 25//5 198//5 202//4
f 423//30 387//29 389//31
f 388//11 390//10 207//11
f 27//5 202//4 206//5
f 422//32 389//31 391//33
f 390//10 392//10 211//10
f 29//4 206//5 210//4
f 421//34 391//33 393//35
f 392//10 394//10 215//10
f 31//4 210//4 214//4
f 420//36 393//35 395//37
f 396//39 397//5 223//5
f 35//41 218//100 222//10
f 399//42 398//349 419//43
f 397//5 400//4 227//5
f 37//10 222//10 226//10
f 419//43 398//349 401//45
f 400//4 402//5 231//5
f 39//11 226//10 230//11
f 418//46 401//45 403//47
f 402//5 404//5 235//4
f 41//10 230//11 234//11
f 417//48 403//47 405//49
f 62//51 36//67 407//52
f 214//4 235//4 404//5
f 395//37 44//61 66//57
f 215//10 394//10 43//10
f 34//58 61//350 414//50
f 65//60 66//57 44//61
f 64//63 65//60 42//62
f 63//65 64//63 40//64
f 36//67 62//51 63//65
f 60//68 61//350 34//58
f 59//70 60//68 32//69
f 58//72 59//70 30//71
f 57//74 58//72 28//73
f 56//76 57//74 26//75
f 47//78 56//76 24//77
f 6//80 426//84 427//81
f 7//83 428//86 426//84
f 8//85 429//88 428//86
f 372//87 381//87 429//88
f 430//89 51//90 9//90
f 427//81 47//78 22//79
f 431//92 430//89 10//91
f 353//12 160//12 242//12
f 45//94 433//98 12//95
f 3//97 46//97 45//94
f 433//98 431//92 11//93
f 415//44 67//56 412//55
f 437//12 436//103 435//102
f 436//103 439//105 438//104
f 439//105 441//107 440//106
f 441//107 443//109 442//108
f 443//109 445//351 444//110
f 444//110 445//351 447//111
f 447//111 449//114 448//113
f 449//114 451//116 450//115
f 451//116 453//118 452//117
f 453//118 455//120 454//119
f 455//120 457//122 456//121
f 457//122 459//124 458//123
f 459//124 461//126 460//125
f 461//126 463//128 462//127
f 463//128 465//130 464//129
f 465//130 467//132 466//131
f 467//132 469//134 468//133
f 469//134 471//136 470//135
f 471//136 473//138 472//137
f 473//138 475//140 474//139
f 475//140 477//142 476//141
f 477//142 479//144 478//143
f 479//144 481//146 480//145
f 481//146 483//148 482//147
f 483//148 485//150 484//149
f 485//150 487//157 486//151
f 73//323 71//352 95//353
f 71//352 69//354 97//355
f 69//354 489//323 97//355
f 489//323 121//4 99//352
f 97//355 489//323 99//352
f 121//4 119//183 103//356
f 119//183 117//357 105//358
f 117//357 115//359 105//358
f 115//359 113//360 107//361
f 105//358 115//359 107//361
f 113//360 111//362 109//363
f 109//363 107//361 113//360
f 105//358 103//356 119//183
f 103//356 101//323 121//4
f 101//323 99//352 121//4
f 97//355 95//353 71//352
f 95//353 93//364 73//323
f 93//364 91//362 73//323
f 91//362 89//154 75//153
f 73//323 91//362 75//153
f 89//154 87//365 79//366
f 87//365 85//367 81//4
f 85//367 83//368 81//4
f 81//4 79//366 87//365
f 79//366 77//152 89//154
f 123//155 437//12 434//12
f 487//157 123//155 488//156
f 122//159 68//369 96//346
f 68//369 70//185 94//158
f 70//185 72//346 92//325
f 72//346 74//11 90//370
f 74//11 76//11 90//370
f 76//11 78//10 88//371
f 90//370 76//11 88//371
f 78//10 80//372 84//373
f 80//372 82//185 84//373
f 84//373 86//374 78//10
f 86//374 88//371 78//10
f 90//370 92//325 72//346
f 92//325 94//158 70//185
f 94//158 96//346 68//369
f 96//346 98//160 122//159
f 98//160 100//185 120//158
f 100//185 102//160 118//10
f 102//160 104//346 116//375
f 104//346 106//376 114//186
f 106//376 108//377 112//159
f 108//377 110//378 112//159
f 112//159 114//186 106//376
f 114//186 116//375 104//346
f 116//375 118//10 102//160
f 118//10 120//158 100//185
f 493//12 492//163 491//161
f 492//163 495//105 494//105
f 495//105 497//165 496//164
f 497//165 499//166 498//109
f 499//166 501//379 500//167
f 500//167 501//379 503//168
f 503//168 505//171 504//170
f 505//171 507//173 506//172
f 507//173 509//175 508//174
f 509//175 511//177 510//176
f 511//177 513//122 512//178
f 513//122 515//180 514//179
f 515//180 517//182 516//181
f 517//182 519//127 518//128
f 127//183 125//380 147//184
f 125//380 322//4 149//381
f 127//183 147//184 145//184
f 322//4 350//323 149//381
f 149//381 147//184 125//380
f 145//184 143//382 129//153
f 143//382 141//344 131//383
f 129//153 143//382 131//383
f 141//344 139//5 135//5
f 139//5 137//323 135//5
f 135//5 133//384 141//344
f 133//384 131//383 141//344
f 349//185 321//159 124//186
f 124//186 126//326 148//160
f 126//326 128//10 146//10
f 148//160 126//326 146//10
f 128//10 130//11 144//160
f 130//11 132//325 142//11
f 144//160 130//11 142//11
f 132//325 134//385 138//386
f 134//385 136//387 138//386
f 138//386 140//160 132//325
f 140//160 142//11 132//325
f 144//160 146//10 128//10
f 244//187 245//193 175//188
f 543//4 152//5 153//4
f 523//190 524//191 527//191
f 533//5 545//5 162//4
f 541//4 156//5 157//5
f 592//192 244//187 526//189
f 360//11 158//11 520//10
f 159//5 361//5 525//4
f 155//12 161//12 242//12
f 245//193 246//198 176//194
f 544//5 153//4 156//5
f 151//5 174//5 165//5
f 542//4 157//5 162//4
f 534//5 533//5 163//4
f 189//10 188//11 530//11
f 174//5 534//5 164//4
f 187//11 186//10 532//10
f 191//11 536//10 535//10
f 188//11 187//11 531//10
f 190//10 189//10 529//11
f 585//195 547//209 181//196
f 190//10 538//10 536//10
f 192//11 535//10 537//10
f 184//5 182//5 152//5
f 193//11 537//10 520//10
f 183//10 540//11 532//10
f 246//198 549//199 546//199
f 248//200 178//204 177//201
f 249//203 179//206 178//204
f 250//205 180//207 179//206
f 251//197 181//196 180//207
f 195//10 551//10 540//11
f 184//5 196//5 194//5
f 585//195 584//210 552//208
f 199//10 553//11 551//10
f 196//5 200//4 198//5
f 584//210 583//212 554//211
f 203//11 555//10 553//11
f 200//4 204//4 202//4
f 583//212 582//214 556//213
f 207//11 557//10 555//10
f 204//4 208//5 206//5
f 582//214 581//216 558//215
f 211//10 559//10 557//10
f 208//5 212//5 210//4
f 581//216 580//218 560//217
f 215//10 561//11 559//10
f 212//5 216//4 214//4
f 580//218 573//237 562//219
f 223//5 564//5 563//39
f 220//220 224//11 222//10
f 579//221 565//225 566//222
f 227//5 567//5 564//5
f 224//11 228//11 226//10
f 579//221 578//226 568//224
f 231//5 569//5 567//5
f 228//11 232//11 230//11
f 578//226 577//228 570//227
f 235//4 571//4 569//5
f 232//11 236//11 234//11
f 577//228 574//239 572//229
f 258//230 576//279 239//231
f 214//4 216//4 571//4
f 262//236 237//241 562//219
f 215//10 234//11 236//11
f 217//238 572//229 574//239
f 237//241 262//236 261//242
f 233//243 261//242 260//244
f 229//245 260//244 259//246
f 221//232 225//247 259//246
f 217//238 257//240 256//248
f 213//249 256//248 255//250
f 209//251 255//250 254//252
f 205//253 254//252 253//254
f 201//255 253//254 252//256
f 197//257 252//256 243//258
f 167//260 166//271 587//261
f 168//263 167//260 586//262
f 169//265 168//263 588//264
f 539//267 169//265 589//266
f 170//268 247//268 590//269
f 166//271 185//259 243//258
f 171//270 590//269 591//272
f 522//12 528//12 242//12
f 173//274 593//278 240//275
f 240//275 241//277 154//277
f 172//273 591//272 593//278
f 238//235 263//234 575//223
f 595//281 596//285 597//282
f 598//284 599//287 596//285
f 600//286 601//289 599//287
f 602//288 603//291 601//289
f 604//290 605//293 603//291
f 604//290 606//295 607//292
f 608//294 609//297 607//292
f 610//296 611//299 609//297
f 612//298 613//301 611//299
f 614//300 615//303 613//301
f 616//302 617//304 615//303
f 618//131 619//305 617//304
f 620//129 621//306 619//305
f 622//128 623//127 621//306
f 624//307 625//309 623//127
f 626//308 627//180 625//309
f 628//310 629//312 627//180
f 630//311 631//120 629//312
f 632//313 633//315 631//120
f 634//314 635//116 633//315
f 636//316 637//317 635//116
f 638//112 639//111 637//317
f 640//318 641//320 639//111
f 642//319 643//109 641//320
f 644//165 645//164 643//109
f 646//321 647//105 645//164
f 266//184 268//323 292//355
f 268//323 270//358 290//183
f 270//358 272//388 290//183
f 272//388 274//389 288//382
f 290//183 272//388 288//382
f 274//389 276//390 284//381
f 276//390 278//390 282//391
f 278//390 280//392 282//391
f 282//391 284//381 276//390
f 284//381 286//393 274//389
f 286//393 288//382 274//389
f 290//183 292//355 268//323
f 292//355 294//358 266//184
f 294//358 296//4 266//184
f 296//4 298//323 649//323
f 266//184 296//4 649//323
f 298//323 300//382 316//183
f 300//382 302//382 314//394
f 302//382 304//383 314//394
f 304//383 306//395 312//396
f 314//394 304//383 312//396
f 306//395 308//397 310//398
f 310//398 312//396 306//395
f 314//394 316//183 300//382
f 316//183 318//322 298//323
f 594//283 597//282 320//102
f 648//324 320//102 647//105
f 267//325 265//325 291//326
f 265//325 319//186 293//11
f 291//326 265//325 293//11
f 319//186 317//399 295//347
f 317//399 315//325 297//369
f 295//347 317//399 297//369
f 315//325 313//400 301//401
f 313//400 311//402 303//403
f 311//402 309//375 303//403
f 309//375 307//404 305//405
f 303//403 309//375 305//405
f 303//403 301//401 313//400
f 301//401 299//347 315//325
f 299//347 297//369 315//325
f 295//347 293//11 319//186
f 291//326 289//186 269//325
f 289//186 287//159 271//369
f 287//159 285//406 273//11
f 285//406 283//407 275//160
f 283//407 281//408 275//160
f 281//408 279//409 277//410
f 275//160 281//408 277//410
f 275//160 273//11 285//406
f 273//11 271//369 287//159
f 271//369 269//325 289//186
f 650//327 651//327 493//12
f 652//328 653//328 651//327
f 654//150 655//149 653//328
f 656//329 657//330 655//149
f 658//146 659//331 657//330
f 658//146 660//333 661//143
f 662//332 663//335 661//143
f 664//334 665//337 663//335
f 666//336 667//298 665//337
f 668//338 669//135 667//298
f 670//339 671//341 669//135
f 672//340 673//305 671//341
f 674//342 675//343 673//305
f 518//128 519//127 675//343
f 322//4 324//384 350//323
f 324//384 326//345 348//323
f 350//323 324//384 348//323
f 326//345 328//183 344//411
f 328//183 330//153 342//4
f 330//153 332//412 342//4
f 332//412 334//413 340//184
f 342//4 332//412 340//184
f 334//413 336//323 338//414
f 338//414 340//184 334//413
f 342//4 344//411 328//183
f 344//411 346//344 326//345
f 323//347 321//159 349//185
f 349//185 347//11 323//347
f 347//11 345//186 325//346
f 345//186 343//159 325//346
f 343//159 341//415 327//347
f 325//346 343//159 327//347
f 341//415 339//416 331//186
f 339//416 337//417 333//325
f 337//417 335//418 333//325
f 333//325 331//186 339//416
f 331//186 329//419 341//415
f 329//419 327//347 341//415
