# Blender v2.82 (sub 7) OBJ File: 'living_room.blend'
# www.blender.org
o Bookshelf_WhitePaint.510
v -2.142580 1.203639 4.209140
v -2.142580 1.203639 3.656120
v -2.144240 1.201969 3.657020
v -2.144240 1.201969 4.208240
v -2.144240 0.030627 3.636160
v -2.144240 1.222569 3.636160
v -2.421740 1.222569 3.636160
v -2.421740 0.030627 3.636160
v -2.142580 1.201349 3.653690
v -2.142580 1.219759 3.637830
v -2.142580 0.030627 3.637830
v -2.142580 0.030627 3.653690
v -2.142580 1.203639 3.656120
v -2.142580 1.222569 3.639790
v -2.142580 1.222569 4.225470
v -2.142580 1.203639 4.209140
v -2.142580 1.201349 4.211570
v -2.142580 0.030627 4.227440
v -2.142580 1.219759 4.227440
v -2.142580 0.030627 4.211570
v -2.423400 1.203639 3.656120
v -2.423400 1.222569 3.639790
v -2.423400 1.222569 4.225470
v -2.423400 1.203639 4.209140
v -2.423400 1.201349 3.653690
v -2.423400 0.030627 3.637830
v -2.423400 1.219759 3.637830
v -2.423400 0.030627 3.653690
v -2.423400 1.219759 4.227440
v -2.423400 1.201349 4.211570
v -2.423400 0.030627 4.227440
v -2.423400 0.030627 4.211570
v -2.421740 0.030627 3.655360
v -2.421740 1.200309 3.655360
v -2.144240 1.200309 3.655360
v -2.144240 0.030627 3.655360
v -2.421740 1.224229 3.637830
v -2.144240 1.224229 3.637830
v -2.144240 1.224229 4.227440
v -2.421740 1.224229 4.227440
v -2.144240 1.200309 4.209900
v -2.421740 1.200309 4.209900
v -2.421740 0.030627 4.209900
v -2.144240 0.030627 4.209900
v -2.144240 1.201969 3.657020
v -2.421740 1.201969 3.657020
v -2.421740 1.201969 4.208240
v -2.144240 1.201969 4.208240
v -2.144240 0.030627 4.229100
v -2.421740 0.030627 4.229100
v -2.421740 1.222569 4.229100
v -2.144240 1.222569 4.229100
v -2.144240 1.222569 3.636160
v -2.142580 1.219759 3.637830
v -2.142580 1.222569 3.639790
v -2.144240 1.224229 3.637830
v -2.421740 1.224229 3.637830
v -2.423400 1.219759 3.637830
v -2.423400 1.222569 3.639790
v -2.421740 1.222569 3.636160
v -2.423400 1.219759 4.227440
v -2.423400 1.222569 4.225470
v -2.421740 1.224229 4.227440
v -2.421740 1.222569 4.229100
v -2.142580 1.219759 4.227440
v -2.144240 1.222569 4.229100
v -2.144240 1.224229 4.227440
v -2.142580 1.222569 4.225470
v -2.423400 1.203639 4.209140
v -2.423400 1.201349 4.211570
v -2.421740 1.200309 4.209900
v -2.421740 1.201969 4.208240
v -2.144240 1.201969 4.208240
v -2.144240 1.200309 4.209900
v -2.142580 1.201349 4.211570
v -2.142580 1.203639 4.209140
v -2.144240 1.201969 3.657020
v -2.142580 1.203639 3.656120
v -2.142580 1.201349 3.653690
v -2.144240 1.200309 3.655360
v -2.421740 1.224229 3.637830
v -2.421740 1.224229 4.227440
v -2.423400 1.222569 4.225470
v -2.423400 1.222569 3.639790
v -2.421740 1.224229 4.227440
v -2.144240 1.224229 4.227440
v -2.144240 1.222569 4.229100
v -2.421740 1.222569 4.229100
v -2.421740 1.200309 3.655360
v -2.421740 0.030627 3.655360
v -2.423400 0.030627 3.653690
v -2.423400 1.201349 3.653690
v -2.142580 1.222569 3.639790
v -2.142580 1.222569 4.225470
v -2.144240 1.224229 4.227440
v -2.144240 1.224229 3.637830
v -2.144240 1.224229 3.637830
v -2.421740 1.224229 3.637830
v -2.421740 1.222569 3.636160
v -2.144240 1.222569 3.636160
v -2.144240 1.222569 3.636160
v -2.144240 0.030627 3.636160
v -2.142580 0.030627 3.637830
v -2.142580 1.219759 3.637830
v -2.144240 0.030627 3.655360
v -2.144240 1.200309 3.655360
v -2.142580 1.201349 3.653690
v -2.142580 0.030627 3.653690
v -2.421740 1.201969 3.657020
v -2.144240 1.201969 3.657020
v -2.144240 1.200309 3.655360
v -2.421740 1.200309 3.655360
v -2.423400 1.203639 3.656120
v -2.423400 1.203639 4.209140
v -2.421740 1.201969 4.208240
v -2.421740 1.201969 3.657020
v -2.423400 1.219759 3.637830
v -2.423400 0.030627 3.637830
v -2.421740 0.030627 3.636160
v -2.421740 1.222569 3.636160
v -2.144240 1.200309 4.209900
v -2.144240 0.030627 4.209900
v -2.142580 0.030627 4.211570
v -2.142580 1.201349 4.211570
v -2.144240 0.030627 4.229100
v -2.144240 1.222569 4.229100
v -2.142580 1.219759 4.227440
v -2.142580 0.030627 4.227440
v -2.423400 1.201349 4.211570
v -2.423400 0.030627 4.211570
v -2.421740 0.030627 4.209900
v -2.421740 1.200309 4.209900
v -2.421740 1.200309 4.209900
v -2.144240 1.200309 4.209900
v -2.144240 1.201969 4.208240
v -2.421740 1.201969 4.208240
v -2.423400 0.030627 4.227440
v -2.423400 1.219759 4.227440
v -2.421740 1.222569 4.229100
v -2.421740 0.030627 4.229100
v -2.156030 0.931155 4.208590
v -2.421570 0.931155 3.656590
v -2.156030 0.931155 3.656590
v -2.421570 0.931155 4.208590
v -2.156030 0.910500 3.656590
v -2.421570 0.910501 4.208590
v -2.156030 0.910500 4.208590
v -2.421570 0.910501 3.656590
v -2.154370 0.929491 3.656590
v -2.154370 0.912165 4.208590
v -2.154370 0.929491 4.208590
v -2.154370 0.912165 3.656590
v -2.154370 0.929491 3.656590
v -2.156030 0.931155 3.656590
v -2.156030 0.929491 3.654930
v -2.154370 0.912165 3.656590
v -2.156030 0.910500 4.208590
v -2.154370 0.912165 4.208590
v -2.156030 0.910500 3.656590
v -2.154370 0.929491 3.656590
v -2.156030 0.912165 3.654930
v -2.154370 0.912165 3.656590
v -2.156030 0.929491 3.654930
v -2.156030 0.931155 3.656590
v -2.154370 0.929491 4.208590
v -2.156030 0.931155 4.208590
v -2.154370 0.929491 3.656590
v -2.156030 0.929491 3.654930
v -2.421570 0.931155 3.656590
v -2.421570 0.929491 3.654930
v -2.156030 0.931155 3.656590
v -2.156030 0.910500 3.656590
v -2.421570 0.912165 3.654930
v -2.421570 0.910501 3.656590
v -2.156030 0.912165 3.654930
v -2.156030 0.929491 3.654930
v -2.421570 0.912165 3.654930
v -2.156030 0.912165 3.654930
v -2.421570 0.929491 3.654930
v -2.156030 0.661782 4.208590
v -2.421570 0.661783 3.656590
v -2.156030 0.661782 3.656590
v -2.421570 0.661783 4.208590
v -2.156030 0.641128 3.656590
v -2.421570 0.641128 4.208590
v -2.156030 0.641128 4.208590
v -2.421570 0.641128 3.656590
v -2.154370 0.660118 3.656590
v -2.154370 0.642792 4.208590
v -2.154370 0.660118 4.208590
v -2.154370 0.642792 3.656590
v -2.154370 0.660118 3.656590
v -2.156030 0.661782 3.656590
v -2.156030 0.660118 3.654930
v -2.154370 0.642792 3.656590
v -2.156030 0.641128 4.208590
v -2.154370 0.642792 4.208590
v -2.156030 0.641128 3.656590
v -2.154370 0.660118 3.656590
v -2.156030 0.642792 3.654930
v -2.154370 0.642792 3.656590
v -2.156030 0.660118 3.654930
v -2.156030 0.661782 3.656590
v -2.154370 0.660118 4.208590
v -2.156030 0.661782 4.208590
v -2.154370 0.660118 3.656590
v -2.156030 0.660118 3.654930
v -2.421570 0.661783 3.656590
v -2.421570 0.660118 3.654930
v -2.156030 0.661782 3.656590
v -2.156030 0.641128 3.656590
v -2.421570 0.642792 3.654930
v -2.421570 0.641128 3.656590
v -2.156030 0.642792 3.654930
v -2.156030 0.660118 3.654930
v -2.421570 0.642792 3.654930
v -2.156030 0.642792 3.654930
v -2.421570 0.660118 3.654930
v -2.156030 0.392410 4.208590
v -2.421570 0.392410 3.656590
v -2.156030 0.392410 3.656590
v -2.421570 0.392410 4.208590
v -2.156030 0.371756 3.656590
v -2.421570 0.371756 4.208590
v -2.156030 0.371756 4.208590
v -2.421570 0.371756 3.656590
v -2.154370 0.390746 3.656590
v -2.154370 0.373420 4.208590
v -2.154370 0.390746 4.208590
v -2.154370 0.373420 3.656590
v -2.154370 0.373420 3.656590
v -2.156030 0.371756 4.208590
v -2.154370 0.373420 4.208590
v -2.156030 0.371756 3.656590
v -2.154370 0.390746 3.656590
v -2.156030 0.373420 3.654930
v -2.154370 0.373420 3.656590
v -2.156030 0.390746 3.654930
v -2.156030 0.392410 3.656590
v -2.154370 0.390746 4.208590
v -2.156030 0.392410 4.208590
v -2.154370 0.390746 3.656590
v -2.156030 0.390746 3.654930
v -2.421570 0.392410 3.656590
v -2.421570 0.390746 3.654930
v -2.156030 0.392410 3.656590
v -2.156030 0.371756 3.656590
v -2.421570 0.373420 3.654930
v -2.421570 0.371756 3.656590
v -2.156030 0.373420 3.654930
v -2.156030 0.390746 3.654930
v -2.421570 0.373420 3.654930
v -2.156030 0.373420 3.654930
v -2.421570 0.390746 3.654930
v -2.156030 0.102384 3.656590
v -2.421570 0.102384 4.208590
v -2.156030 0.102384 4.208590
v -2.421570 0.102384 3.656590
v -2.154370 0.121374 3.656590
v -2.154370 0.104048 4.208590
v -2.154370 0.121374 4.208590
v -2.154370 0.104048 3.656590
v -2.156030 0.104048 4.210250
v -2.421570 0.121374 4.210250
v -2.156030 0.121374 4.210250
v -2.421570 0.104048 4.210250
v -2.154370 0.104048 3.656590
v -2.156030 0.102384 4.208590
v -2.154370 0.104048 4.208590
v -2.156030 0.102384 3.656590
v -2.154370 0.104048 4.208590
v -2.156030 0.121374 4.210250
v -2.154370 0.121374 4.208590
v -2.156030 0.104048 4.210250
v -2.156030 0.104048 4.210250
v -2.421570 0.102384 4.208590
v -2.421570 0.104048 4.210250
v -2.156030 0.102384 4.208590
v -2.164900 0.030697 4.206010
v -2.164900 0.100627 3.656590
v -2.164900 0.030697 3.656590
v -2.164900 0.100627 4.206010
v -2.183890 0.102291 4.206010
v -2.166570 0.102291 3.656590
v -2.166570 0.102291 4.206010
v -2.183890 0.102291 3.656590
v -2.185560 0.030697 3.656590
v -2.185560 0.100627 4.206010
v -2.185560 0.030697 4.206010
v -2.185560 0.100627 3.656590
v -2.183890 0.030697 4.207670
v -2.166570 0.100627 4.207670
v -2.166570 0.030697 4.207670
v -2.183890 0.100627 4.207670
v -2.166570 0.100627 4.207670
v -2.166570 0.102291 4.206010
v -2.164900 0.100627 4.206010
v -2.183890 0.029033 3.656590
v -2.185560 0.030697 4.206010
v -2.183890 0.029033 4.206010
v -2.185560 0.030697 3.656590
v -2.183890 0.029033 4.206010
v -2.166570 0.030697 4.207670
v -2.166570 0.029033 4.206010
v -2.183890 0.030697 4.207670
v -2.164900 0.030697 4.206010
v -2.166570 0.100627 4.207670
v -2.164900 0.100627 4.206010
v -2.166570 0.030697 4.207670
v -2.166570 0.102291 4.206010
v -2.183890 0.100627 4.207670
v -2.183890 0.102291 4.206010
v -2.166570 0.100627 4.207670
v -2.183890 0.030697 4.207670
v -2.185560 0.100627 4.206010
v -2.183890 0.100627 4.207670
v -2.185560 0.030697 4.206010
v -2.164900 0.100627 4.206010
v -2.166570 0.102291 3.656590
v -2.164900 0.100627 3.656590
v -2.166570 0.102291 4.206010
v -2.183890 0.102291 4.206010
v -2.185560 0.100627 3.656590
v -2.183890 0.102291 3.656590
v -2.185560 0.100627 4.206010
v -2.421740 0.028963 4.227440
v -2.144240 0.028963 4.227440
v -2.144240 0.028963 4.211570
v -2.421740 0.028963 4.211570
v -2.421740 0.028963 4.211570
v -2.144240 0.028963 4.211570
v -2.144240 0.030627 4.209900
v -2.421740 0.030627 4.209900
v -2.144240 0.028963 4.227440
v -2.421740 0.028963 4.227440
v -2.421740 0.030627 4.229100
v -2.144240 0.030627 4.229100
v -2.423230 0.912165 4.208590
v -2.423230 0.929491 3.656590
v -2.423230 0.929491 4.208590
v -2.423230 0.912165 3.656590
v -2.421570 0.912165 3.654930
v -2.423230 0.912165 3.656590
v -2.421570 0.910501 3.656590
v -2.421570 0.931155 3.656590
v -2.423230 0.929491 3.656590
v -2.421570 0.929491 3.654930
v -2.421570 0.931155 4.208590
v -2.423230 0.929491 3.656590
v -2.421570 0.931155 3.656590
v -2.423230 0.929491 4.208590
v -2.423230 0.912165 3.656590
v -2.421570 0.929491 3.654930
v -2.423230 0.929491 3.656590
v -2.421570 0.912165 3.654930
v -2.423230 0.912165 4.208590
v -2.421570 0.910501 3.656590
v -2.423230 0.912165 3.656590
v -2.421570 0.910501 4.208590
v -2.423230 0.642792 4.208590
v -2.423230 0.660118 3.656590
v -2.423230 0.660118 4.208590
v -2.423230 0.642792 3.656590
v -2.421570 0.642792 3.654930
v -2.423230 0.642792 3.656590
v -2.421570 0.641128 3.656590
v -2.421570 0.661783 4.208590
v -2.423230 0.660118 3.656590
v -2.421570 0.661783 3.656590
v -2.423230 0.660118 4.208590
v -2.423230 0.642792 3.656590
v -2.421570 0.660118 3.654930
v -2.423230 0.660118 3.656590
v -2.421570 0.642792 3.654930
v -2.423230 0.642792 4.208590
v -2.421570 0.641128 3.656590
v -2.423230 0.642792 3.656590
v -2.421570 0.641128 4.208590
v -2.421740 1.200309 3.655360
v -2.423400 1.201349 3.653690
v -2.423400 1.203639 3.656120
v -2.421740 1.201969 3.657020
v -2.156030 0.912165 4.210250
v -2.421570 0.929491 4.210250
v -2.156030 0.929491 4.210250
v -2.421570 0.912165 4.210250
v -2.156030 0.912165 4.210250
v -2.154370 0.912165 4.208590
v -2.156030 0.910500 4.208590
v -2.154370 0.929491 4.208590
v -2.156030 0.929491 4.210250
v -2.156030 0.931155 4.208590
v -2.421570 0.929491 4.210250
v -2.423230 0.929491 4.208590
v -2.421570 0.931155 4.208590
v -2.421570 0.912165 4.210250
v -2.421570 0.910501 4.208590
v -2.423230 0.912165 4.208590
v -2.154370 0.912165 4.208590
v -2.156030 0.929491 4.210250
v -2.154370 0.929491 4.208590
v -2.156030 0.912165 4.210250
v -2.156030 0.931155 4.208590
v -2.421570 0.929491 4.210250
v -2.421570 0.931155 4.208590
v -2.156030 0.929491 4.210250
v -2.423230 0.929491 4.208590
v -2.421570 0.912165 4.210250
v -2.423230 0.912165 4.208590
v -2.421570 0.929491 4.210250
v -2.156030 0.912165 4.210250
v -2.421570 0.910501 4.208590
v -2.421570 0.912165 4.210250
v -2.156030 0.910500 4.208590
v -2.156030 0.642792 4.210250
v -2.421570 0.660118 4.210250
v -2.156030 0.660118 4.210250
v -2.421570 0.642792 4.210250
v -2.156030 0.642792 4.210250
v -2.154370 0.642792 4.208590
v -2.156030 0.641128 4.208590
v -2.154370 0.660118 4.208590
v -2.156030 0.660118 4.210250
v -2.156030 0.661782 4.208590
v -2.154370 0.642792 4.208590
v -2.156030 0.660118 4.210250
v -2.154370 0.660118 4.208590
v -2.156030 0.642792 4.210250
v -2.156030 0.661782 4.208590
v -2.421570 0.660118 4.210250
v -2.421570 0.661783 4.208590
v -2.156030 0.660118 4.210250
v -2.156030 0.642792 4.210250
v -2.421570 0.641128 4.208590
v -2.421570 0.642792 4.210250
v -2.156030 0.641128 4.208590
v -2.154370 0.390746 3.656590
v -2.156030 0.392410 3.656590
v -2.156030 0.390746 3.654930
v -2.423230 0.373420 4.208590
v -2.423230 0.390746 3.656590
v -2.423230 0.390746 4.208590
v -2.423230 0.373420 3.656590
v -2.156030 0.373420 4.210250
v -2.421570 0.390746 4.210250
v -2.156030 0.390746 4.210250
v -2.421570 0.373420 4.210250
v -2.156030 0.373420 4.210250
v -2.154370 0.373420 4.208590
v -2.156030 0.371756 4.208590
v -2.154370 0.390746 4.208590
v -2.156030 0.390746 4.210250
v -2.156030 0.392410 4.208590
v -2.421570 0.373420 4.210250
v -2.421570 0.371756 4.208590
v -2.423230 0.373420 4.208590
v -2.154370 0.373420 4.208590
v -2.156030 0.390746 4.210250
v -2.154370 0.390746 4.208590
v -2.156030 0.373420 4.210250
v -2.156030 0.392410 4.208590
v -2.421570 0.390746 4.210250
v -2.421570 0.392410 4.208590
v -2.156030 0.390746 4.210250
v -2.423230 0.390746 4.208590
v -2.421570 0.373420 4.210250
v -2.423230 0.373420 4.208590
v -2.421570 0.390746 4.210250
v -2.156030 0.373420 4.210250
v -2.421570 0.371756 4.208590
v -2.421570 0.373420 4.210250
v -2.156030 0.371756 4.208590
v -2.423230 0.373420 4.208590
v -2.421570 0.371756 3.656590
v -2.423230 0.373420 3.656590
v -2.421570 0.371756 4.208590
v -2.156030 0.123038 4.208590
v -2.421570 0.123038 3.656590
v -2.156030 0.123038 3.656590
v -2.421570 0.123038 4.208590
v -2.154370 0.121374 3.656590
v -2.156030 0.123038 3.656590
v -2.156030 0.121374 3.654930
v -2.154370 0.121374 3.656590
v -2.156030 0.104048 3.654930
v -2.154370 0.104048 3.656590
v -2.156030 0.121374 3.654930
v -2.156030 0.123038 3.656590
v -2.154370 0.121374 4.208590
v -2.156030 0.123038 4.208590
v -2.154370 0.121374 3.656590
v -2.156030 0.121374 3.654930
v -2.421570 0.123038 3.656590
v -2.421570 0.121374 3.654930
v -2.156030 0.123038 3.656590
v -2.156030 0.102384 3.656590
v -2.421570 0.104048 3.654930
v -2.421570 0.102384 3.656590
v -2.156030 0.104048 3.654930
v -2.156030 0.121374 3.654930
v -2.421570 0.104048 3.654930
v -2.156030 0.104048 3.654930
v -2.421570 0.121374 3.654930
v -2.166570 0.029033 3.656590
v -2.183890 0.029033 4.206010
v -2.166570 0.029033 4.206010
v -2.183890 0.029033 3.656590
v -2.183890 0.029033 3.656590
v -2.183890 0.030697 3.654930
v -2.185560 0.030697 3.656590
v -2.183890 0.100627 3.654930
v -2.183890 0.102291 3.656590
v -2.185560 0.100627 3.656590
v -2.164900 0.100627 3.656590
v -2.166570 0.102291 3.656590
v -2.166570 0.100627 3.654930
v -2.166570 0.029033 3.656590
v -2.183890 0.030697 3.654930
v -2.183890 0.029033 3.656590
v -2.166570 0.030697 3.654930
v -2.166570 0.030697 3.654930
v -2.164900 0.100627 3.656590
v -2.166570 0.100627 3.654930
v -2.164900 0.030697 3.656590
v -2.185560 0.030697 3.656590
v -2.183890 0.100627 3.654930
v -2.185560 0.100627 3.656590
v -2.183890 0.030697 3.654930
v -2.183890 0.102291 3.656590
v -2.166570 0.100627 3.654930
v -2.166570 0.102291 3.656590
v -2.183890 0.100627 3.654930
v -2.166570 0.030697 3.654930
v -2.183890 0.100627 3.654930
v -2.183890 0.030697 3.654930
v -2.166570 0.100627 3.654930
v -2.421740 0.028963 3.637830
v -2.421740 0.028963 3.653690
v -2.144240 0.028963 3.653690
v -2.144240 0.028963 3.637830
v -2.421740 0.028963 3.637830
v -2.144240 0.028963 3.637830
v -2.144240 0.030627 3.636160
v -2.421740 0.030627 3.636160
v -2.144240 0.028963 3.653690
v -2.421740 0.028963 3.653690
v -2.421740 0.030627 3.655360
v -2.144240 0.030627 3.655360
v -2.423230 0.104048 4.208590
v -2.423230 0.121374 3.656590
v -2.423230 0.121374 4.208590
v -2.423230 0.104048 3.656590
v -2.156030 0.104048 4.210250
v -2.154370 0.104048 4.208590
v -2.156030 0.102384 4.208590
v -2.154370 0.121374 4.208590
v -2.156030 0.121374 4.210250
v -2.156030 0.123038 4.208590
v -2.421570 0.104048 4.210250
v -2.421570 0.102384 4.208590
v -2.423230 0.104048 4.208590
v -2.156030 0.123038 4.208590
v -2.421570 0.121374 4.210250
v -2.421570 0.123038 4.208590
v -2.156030 0.121374 4.210250
v -2.423230 0.121374 4.208590
v -2.421570 0.104048 4.210250
v -2.423230 0.104048 4.208590
v -2.421570 0.121374 4.210250
v -2.423230 0.104048 4.208590
v -2.421570 0.102384 3.656590
v -2.423230 0.104048 3.656590
v -2.421570 0.102384 4.208590
v -2.183890 0.030697 4.207670
v -2.183890 0.029033 4.206010
v -2.185560 0.030697 4.206010
v -2.166570 0.029033 4.206010
v -2.166570 0.030697 4.207670
v -2.164900 0.030697 4.206010
v -2.183890 0.100627 4.207670
v -2.185560 0.100627 4.206010
v -2.183890 0.102291 4.206010
v -2.164900 0.030697 3.656590
v -2.166570 0.029033 4.206010
v -2.164900 0.030697 4.206010
v -2.166570 0.029033 3.656590
v -2.144240 0.030627 4.229100
v -2.142580 0.030627 4.227440
v -2.144240 0.028963 4.227440
v -2.421740 0.028963 4.227440
v -2.423400 0.030627 4.227440
v -2.421740 0.030627 4.229100
v -2.421740 0.030627 4.209900
v -2.423400 0.030627 4.211570
v -2.421740 0.028963 4.211570
v -2.142580 0.030627 4.211570
v -2.144240 0.030627 4.209900
v -2.144240 0.028963 4.211570
v -2.421740 0.028963 4.227440
v -2.421740 0.028963 4.211570
v -2.423400 0.030627 4.211570
v -2.423400 0.030627 4.227440
v -2.142580 0.030627 4.227440
v -2.142580 0.030627 4.211570
v -2.144240 0.028963 4.211570
v -2.144240 0.028963 4.227440
v -2.421740 0.030627 3.636160
v -2.423400 0.030627 3.637830
v -2.421740 0.028963 3.637830
v -2.144240 0.030627 3.655360
v -2.142580 0.030627 3.653690
v -2.144240 0.028963 3.653690
v -2.423400 0.030627 3.653690
v -2.421740 0.030627 3.655360
v -2.421740 0.028963 3.653690
v -2.423400 0.030627 3.637830
v -2.423400 0.030627 3.653690
v -2.421740 0.028963 3.653690
v -2.421740 0.028963 3.637830
v -2.144240 0.028963 3.637830
v -2.144240 0.028963 3.653690
v -2.142580 0.030627 3.653690
v -2.142580 0.030627 3.637830
v -2.421570 0.121374 4.210250
v -2.423230 0.121374 4.208590
v -2.421570 0.123038 4.208590
v -2.421570 0.123038 4.208590
v -2.423230 0.121374 3.656590
v -2.421570 0.123038 3.656590
v -2.423230 0.121374 4.208590
v -2.421570 0.123038 3.656590
v -2.423230 0.121374 3.656590
v -2.421570 0.121374 3.654930
v -2.423230 0.104048 3.656590
v -2.421570 0.121374 3.654930
v -2.423230 0.121374 3.656590
v -2.421570 0.104048 3.654930
v -2.166570 0.029033 3.656590
v -2.164900 0.030697 3.656590
v -2.166570 0.030697 3.654930
v -2.144240 0.028963 3.637830
v -2.142580 0.030627 3.637830
v -2.144240 0.030627 3.636160
v -2.421570 0.392410 4.208590
v -2.423230 0.390746 3.656590
v -2.421570 0.392410 3.656590
v -2.423230 0.390746 4.208590
v -2.423230 0.373420 3.656590
v -2.421570 0.390746 3.654930
v -2.423230 0.390746 3.656590
v -2.421570 0.373420 3.654930
v -2.421570 0.390746 4.210250
v -2.423230 0.390746 4.208590
v -2.421570 0.392410 4.208590
v -2.421570 0.642792 4.210250
v -2.421570 0.641128 4.208590
v -2.423230 0.642792 4.208590
v -2.423230 0.660118 4.208590
v -2.421570 0.642792 4.210250
v -2.423230 0.642792 4.208590
v -2.421570 0.660118 4.210250
v -2.421570 0.661783 3.656590
v -2.423230 0.660118 3.656590
v -2.421570 0.660118 3.654930
v -2.154370 0.912165 3.656590
v -2.156030 0.912165 3.654930
v -2.156030 0.910500 3.656590
v -2.154370 0.642792 3.656590
v -2.156030 0.642792 3.654930
v -2.156030 0.641128 3.656590
v -2.421570 0.660118 4.210250
v -2.423230 0.660118 4.208590
v -2.421570 0.661783 4.208590
v -2.154370 0.373420 3.656590
v -2.156030 0.373420 3.654930
v -2.156030 0.371756 3.656590
v -2.421570 0.373420 3.654930
v -2.423230 0.373420 3.656590
v -2.421570 0.371756 3.656590
v -2.421570 0.392410 3.656590
v -2.423230 0.390746 3.656590
v -2.421570 0.390746 3.654930
v -2.154370 0.104048 3.656590
v -2.156030 0.104048 3.654930
v -2.156030 0.102384 3.656590
v -2.421570 0.104048 3.654930
v -2.423230 0.104048 3.656590
v -2.421570 0.102384 3.656590
vt 0.511292 0.526730
vt 0.752859 0.526730
vt 0.752465 0.511006
vt 0.511686 0.511006
vt 0.454665 0.001873
vt 0.454665 0.507561
vt 0.583071 0.507561
vt 0.583071 0.001873
vt 0.318897 0.506367
vt 0.312395 0.498560
vt 0.311401 0.499529
vt 0.318897 0.001873
vt 0.312395 0.001873
vt 0.318090 0.507561
vt 0.078136 0.507561
vt 0.084825 0.499529
vt 0.083831 0.498560
vt 0.077330 0.001873
vt 0.083831 0.001873
vt 0.077330 0.506367
vt 0.587570 0.507561
vt 0.593265 0.498560
vt 0.594259 0.499529
vt 0.827524 0.507561
vt 0.820835 0.499529
vt 0.586764 0.001873
vt 0.593265 0.001873
vt 0.586764 0.506367
vt 0.828330 0.506367
vt 0.821829 0.498560
vt 0.828330 0.001873
vt 0.821829 0.001873
vt 0.832023 0.492438
vt 0.960430 0.979260
vt 0.832023 0.979260
vt 0.960430 0.492438
vt 0.262317 0.511292
vt 0.133910 0.752859
vt 0.133910 0.511292
vt 0.262317 0.752859
vt 0.001834 0.998128
vt 0.130241 0.998128
vt 0.130241 0.511306
vt 0.001834 0.511306
vt 0.394392 0.530160
vt 0.265985 0.530160
vt 0.265985 0.771727
vt 0.394392 0.771727
vt 0.450996 0.001873
vt 0.322589 0.507561
vt 0.322589 0.001873
vt 0.450996 0.507561
vt 0.979560 0.030321
vt 0.972356 0.020440
vt 0.963836 0.030321
vt 0.972356 0.036164
vt 0.953488 0.055031
vt 0.960692 0.049189
vt 0.953488 0.039308
vt 0.944969 0.049189
vt 0.991224 0.020440
vt 0.991224 0.036164
vt 0.982704 0.030321
vt 0.998428 0.030321
vt 0.971041 0.039308
vt 0.963836 0.049189
vt 0.971041 0.055031
vt 0.979560 0.049189
vt 0.968099 0.073899
vt 0.979560 0.063113
vt 0.971699 0.058176
vt 0.963836 0.066037
vt 0.998428 0.066037
vt 0.990565 0.058176
vt 0.982704 0.063113
vt 0.994165 0.073899
vt 0.944969 0.066037
vt 0.949230 0.073899
vt 0.960692 0.063113
vt 0.952831 0.058176
vt 0.907233 0.001858
vt 0.922956 0.242619
vt 0.907233 0.243425
vt 0.922956 0.002664
vt 0.526468 0.586478
vt 0.398061 0.602201
vt 0.398061 0.586478
vt 0.526468 0.602201
vt 0.904088 0.488259
vt 0.888365 0.001872
vt 0.904088 0.001872
vt 0.888365 0.488694
vt 0.506769 0.511006
vt 0.266815 0.511006
vt 0.266009 0.526730
vt 0.507576 0.526730
vt 0.530136 0.564465
vt 0.658543 0.564465
vt 0.658543 0.548742
vt 0.530136 0.548742
vt 0.073899 0.507561
vt 0.073899 0.001873
vt 0.058176 0.001873
vt 0.058176 0.506367
vt 0.831761 0.001872
vt 0.847484 0.488694
vt 0.831761 0.488259
vt 0.847484 0.001872
vt 0.662212 0.564465
vt 0.790618 0.548742
vt 0.790618 0.564465
vt 0.662212 0.548742
vt 0.926101 0.001858
vt 0.941824 0.243031
vt 0.926101 0.243425
vt 0.941824 0.002252
vt 0.036164 0.506367
vt 0.036164 0.001873
vt 0.020440 0.001873
vt 0.020440 0.507561
vt 0.885220 0.488259
vt 0.885220 0.001872
vt 0.869497 0.001872
vt 0.869497 0.488694
vt 0.039308 0.001873
vt 0.055031 0.506367
vt 0.039308 0.507561
vt 0.055031 0.001873
vt 0.866352 0.488694
vt 0.866352 0.001872
vt 0.850629 0.001872
vt 0.850629 0.488259
vt 0.398061 0.545597
vt 0.526468 0.545597
vt 0.526468 0.529874
vt 0.398061 0.529874
vt 0.001572 0.001873
vt 0.017296 0.507561
vt 0.001572 0.506367
vt 0.017296 0.001873
vt 0.359677 0.789565
vt 0.535845 0.434316
vt 0.535845 0.789565
vt 0.359677 0.434316
vt 0.714950 0.046256
vt 0.538782 0.046256
vt 0.538782 0.401505
vt 0.714950 0.401505
vt 0.356729 0.192786
vt 0.356729 0.180348
vt 0.001480 0.180348
vt 0.001480 0.192786
vt 0.926617 0.060945
vt 0.939055 0.060945
vt 0.926617 0.073383
vt 0.714938 0.028607
vt 0.714938 0.016169
vt 0.359689 0.016169
vt 0.359689 0.028607
vt 0.956468 0.013682
vt 0.968905 0.013682
vt 0.968905 0.001244
vt 0.956468 0.001244
vt 0.356729 0.177861
vt 0.356729 0.165423
vt 0.001480 0.165423
vt 0.001480 0.177861
vt 0.001468 0.687811
vt 0.001468 0.700249
vt 0.177636 0.700249
vt 0.177636 0.687811
vt 0.001468 0.717662
vt 0.001468 0.730099
vt 0.177636 0.730099
vt 0.177636 0.717669
vt 0.001468 0.685323
vt 0.177636 0.685323
vt 0.177636 0.672886
vt 0.001468 0.672886
vt 0.001468 0.565684
vt 0.177636 0.210435
vt 0.177636 0.565684
vt 0.001468 0.210435
vt 0.356741 0.210435
vt 0.180573 0.210435
vt 0.180573 0.565684
vt 0.356741 0.565684
vt 0.714938 0.416667
vt 0.714938 0.404229
vt 0.359689 0.404229
vt 0.359689 0.416667
vt 0.896766 0.046020
vt 0.909204 0.046020
vt 0.896766 0.058458
vt 0.356729 0.133085
vt 0.356729 0.120647
vt 0.001480 0.120647
vt 0.001480 0.133085
vt 0.986318 0.013682
vt 0.998756 0.013682
vt 0.998756 0.001244
vt 0.986318 0.001244
vt 0.356729 0.118159
vt 0.356729 0.105721
vt 0.001480 0.105721
vt 0.001480 0.118159
vt 0.001468 0.657960
vt 0.001468 0.670390
vt 0.177636 0.670398
vt 0.177636 0.657960
vt 0.894054 0.774876
vt 0.894054 0.762438
vt 0.717886 0.762438
vt 0.717886 0.774876
vt 0.001468 0.759950
vt 0.177636 0.759950
vt 0.177636 0.747512
vt 0.001468 0.747512
vt 0.717886 0.714938
vt 0.894054 0.359689
vt 0.894054 0.714938
vt 0.717886 0.359689
vt 0.714950 0.434316
vt 0.538782 0.434316
vt 0.538782 0.789565
vt 0.714950 0.789565
vt 0.356729 0.580846
vt 0.356729 0.568408
vt 0.001480 0.568408
vt 0.001480 0.580846
vt 0.356729 0.610696
vt 0.356729 0.598259
vt 0.001480 0.598259
vt 0.001480 0.610696
vt 0.956468 0.028607
vt 0.968905 0.028607
vt 0.968905 0.016169
vt 0.956468 0.016169
vt 0.356729 0.640547
vt 0.356729 0.628109
vt 0.001480 0.628109
vt 0.001480 0.640547
vt 0.717886 0.717662
vt 0.717886 0.730099
vt 0.894054 0.730099
vt 0.894054 0.717662
vt 0.894054 0.759950
vt 0.894054 0.747512
vt 0.717886 0.747512
vt 0.717886 0.759950
vt 0.180573 0.759950
vt 0.356741 0.759950
vt 0.356741 0.747512
vt 0.180573 0.747512
vt 0.894054 0.001480
vt 0.717886 0.001480
vt 0.717886 0.356729
vt 0.894054 0.356729
vt 0.714938 0.013682
vt 0.714938 0.001244
vt 0.359689 0.001244
vt 0.359689 0.013682
vt 0.356741 0.777363
vt 0.180573 0.789801
vt 0.180573 0.777363
vt 0.356741 0.789801
vt 0.356729 0.013682
vt 0.356729 0.001244
vt 0.001480 0.001244
vt 0.001480 0.013682
vt 0.939055 0.001244
vt 0.926617 0.013682
vt 0.926617 0.001244
vt 0.939055 0.013682
vt 0.356741 0.715174
vt 0.180573 0.702736
vt 0.356741 0.702736
vt 0.180573 0.715174
vt 0.029712 0.164736
vt 0.029712 0.267696
vt 0.835153 0.267696
vt 0.835153 0.164736
vt 0.889640 0.808126
vt 0.867117 0.002685
vt 0.889640 0.002685
vt 0.867117 0.808125
vt 0.029712 0.002574
vt 0.835153 0.105534
vt 0.029712 0.105534
vt 0.835153 0.002574
vt 0.921171 0.110682
vt 0.943694 0.213642
vt 0.921171 0.213642
vt 0.943694 0.110682
vt 0.137387 0.272523
vt 0.159910 0.272523
vt 0.159910 0.295045
vt 0.916667 0.002685
vt 0.894144 0.808126
vt 0.894144 0.002685
vt 0.916667 0.808126
vt 0.921171 0.218481
vt 0.943694 0.240978
vt 0.921171 0.240991
vt 0.943694 0.218468
vt 0.943694 0.002574
vt 0.921171 0.105534
vt 0.921171 0.002574
vt 0.943694 0.105534
vt 0.975225 0.218468
vt 0.997748 0.240991
vt 0.975225 0.240978
vt 0.997748 0.218481
vt 0.997748 0.002574
vt 0.975225 0.105534
vt 0.975225 0.002574
vt 0.997748 0.105534
vt 0.029712 0.137387
vt 0.029712 0.159910
vt 0.835153 0.159910
vt 0.835153 0.137387
vt 0.002252 0.808126
vt 0.024775 0.002685
vt 0.024775 0.808126
vt 0.002252 0.002685
vt 0.662212 0.545597
vt 0.790618 0.545597
vt 0.790618 0.529874
vt 0.662212 0.529874
vt 0.526468 0.548742
vt 0.398061 0.548742
vt 0.398061 0.564465
vt 0.526468 0.564465
vt 0.790618 0.567610
vt 0.662212 0.583333
vt 0.662212 0.567610
vt 0.790618 0.583333
vt 0.356729 0.135572
vt 0.001480 0.148010
vt 0.001480 0.135572
vt 0.356729 0.148010
vt 0.956468 0.073383
vt 0.968905 0.060945
vt 0.968905 0.073383
vt 0.983831 0.073383
vt 0.971393 0.060945
vt 0.983831 0.060945
vt 0.356729 0.103234
vt 0.001480 0.090796
vt 0.356729 0.090796
vt 0.001480 0.103234
vt 0.998756 0.016169
vt 0.986318 0.016169
vt 0.986318 0.028607
vt 0.998756 0.028607
vt 0.356729 0.162935
vt 0.001480 0.150498
vt 0.356729 0.150498
vt 0.001480 0.162935
vt 0.356729 0.195274
vt 0.001480 0.207711
vt 0.001480 0.195274
vt 0.356729 0.207711
vt 0.926617 0.058458
vt 0.939055 0.046020
vt 0.939055 0.058458
vt 0.714938 0.431592
vt 0.359689 0.419154
vt 0.714938 0.419154
vt 0.359689 0.431592
vt 0.924129 0.031095
vt 0.911692 0.031095
vt 0.911692 0.043532
vt 0.924129 0.043532
vt 0.356729 0.028607
vt 0.001480 0.016169
vt 0.356729 0.016169
vt 0.001480 0.028607
vt 0.990565 0.039308
vt 0.994167 0.055031
vt 0.982704 0.044245
vt 0.998428 0.047169
vt 0.177636 0.732587
vt 0.001468 0.745025
vt 0.001468 0.732587
vt 0.177636 0.745025
vt 0.971393 0.043532
vt 0.983831 0.043532
vt 0.983831 0.031095
vt 0.968905 0.090796
vt 0.956468 0.090796
vt 0.968905 0.103234
vt 0.983831 0.090796
vt 0.971393 0.103234
vt 0.971393 0.090796
vt 0.939055 0.103234
vt 0.926617 0.103234
vt 0.926617 0.090796
vt 0.953980 0.016169
vt 0.941542 0.028607
vt 0.941542 0.016169
vt 0.953980 0.028607
vt 0.180573 0.687811
vt 0.356741 0.700249
vt 0.180573 0.700249
vt 0.356741 0.687811
vt 0.971393 0.013682
vt 0.983831 0.001244
vt 0.983831 0.013682
vt 0.971393 0.001244
vt 0.356741 0.670398
vt 0.180573 0.657968
vt 0.356741 0.657960
vt 0.180573 0.670398
vt 0.356741 0.672886
vt 0.180573 0.685323
vt 0.180573 0.672886
vt 0.356741 0.685323
vt 0.896766 0.103234
vt 0.909204 0.090796
vt 0.909204 0.103234
vt 0.924129 0.090796
vt 0.911692 0.090796
vt 0.924129 0.103234
vt 0.924129 0.016169
vt 0.911692 0.028607
vt 0.911692 0.016169
vt 0.924129 0.028607
vt 0.001468 0.643035
vt 0.177636 0.655473
vt 0.001468 0.655473
vt 0.177636 0.643035
vt 0.356741 0.745025
vt 0.180573 0.732587
vt 0.356741 0.732587
vt 0.180573 0.745025
vt 0.941542 0.046020
vt 0.953980 0.046020
vt 0.941542 0.058458
vt 0.356729 0.613184
vt 0.001480 0.625622
vt 0.001480 0.613184
vt 0.356729 0.625622
vt 0.177636 0.702736
vt 0.001468 0.715174
vt 0.001468 0.702736
vt 0.177636 0.715174
vt 0.956468 0.088308
vt 0.968905 0.075871
vt 0.968905 0.088308
vt 0.953980 0.075871
vt 0.941542 0.075871
vt 0.953980 0.088308
vt 0.909204 0.088308
vt 0.896766 0.088308
vt 0.896766 0.075871
vt 0.909204 0.016169
vt 0.896766 0.028607
vt 0.896766 0.016169
vt 0.909204 0.028607
vt 0.180573 0.717662
vt 0.356741 0.730099
vt 0.180573 0.730099
vt 0.356741 0.717662
vt 0.926617 0.028607
vt 0.939055 0.016169
vt 0.939055 0.028607
vt 0.926617 0.016169
vt 0.356741 0.655473
vt 0.180573 0.643035
vt 0.356741 0.643035
vt 0.180573 0.655473
vt 0.356729 0.043532
vt 0.001480 0.031095
vt 0.356729 0.031095
vt 0.001480 0.043532
vt 0.359677 0.401505
vt 0.535845 0.046256
vt 0.535845 0.401505
vt 0.359677 0.046256
vt 0.986318 0.046020
vt 0.998756 0.046020
vt 0.986318 0.058458
vt 0.911692 0.013682
vt 0.924129 0.013682
vt 0.924129 0.001244
vt 0.911692 0.001244
vt 0.714938 0.043532
vt 0.714938 0.031095
vt 0.359689 0.031095
vt 0.359689 0.043532
vt 0.717886 0.732587
vt 0.717886 0.745025
vt 0.894054 0.745025
vt 0.894054 0.732587
vt 0.177636 0.774876
vt 0.177636 0.762438
vt 0.001468 0.762438
vt 0.001468 0.774876
vt 0.180573 0.774876
vt 0.356741 0.774876
vt 0.356741 0.762438
vt 0.180573 0.762438
vt 0.862613 0.002685
vt 0.840090 0.002685
vt 0.840090 0.808126
vt 0.862613 0.808125
vt 0.997748 0.268018
vt 0.975225 0.268018
vt 0.997748 0.245495
vt 0.948198 0.245495
vt 0.948198 0.268018
vt 0.970721 0.268018
vt 0.056306 0.272523
vt 0.078829 0.272523
vt 0.056306 0.295045
vt 0.943694 0.268018
vt 0.943694 0.245495
vt 0.921171 0.245495
vt 0.921171 0.268018
vt 0.997748 0.110682
vt 0.975225 0.110682
vt 0.975225 0.213642
vt 0.997748 0.213642
vt 0.970721 0.002574
vt 0.948198 0.002574
vt 0.948198 0.105534
vt 0.970721 0.105534
vt 0.970721 0.240991
vt 0.970721 0.218468
vt 0.948198 0.218468
vt 0.948198 0.240991
vt 0.948198 0.110682
vt 0.948198 0.213642
vt 0.970721 0.213642
vt 0.970721 0.110682
vt 0.530136 0.529874
vt 0.530136 0.545597
vt 0.658543 0.545597
vt 0.658543 0.529874
vt 0.658543 0.567610
vt 0.530136 0.567610
vt 0.530136 0.583333
vt 0.658543 0.583333
vt 0.526468 0.567610
vt 0.398061 0.583333
vt 0.398061 0.567610
vt 0.526468 0.583333
vt 0.356729 0.075871
vt 0.001480 0.088308
vt 0.001480 0.075871
vt 0.356729 0.088308
vt 0.971393 0.088308
vt 0.983831 0.075871
vt 0.983831 0.088308
vt 0.924129 0.075871
vt 0.924129 0.088308
vt 0.911692 0.075871
vt 0.953980 0.103234
vt 0.941542 0.090796
vt 0.941542 0.103234
vt 0.001468 0.777363
vt 0.177636 0.789801
vt 0.001468 0.789801
vt 0.177636 0.777363
vt 0.941542 0.013682
vt 0.953980 0.001244
vt 0.953980 0.013682
vt 0.941542 0.001244
vt 0.356729 0.058458
vt 0.001480 0.046020
vt 0.356729 0.046020
vt 0.001480 0.058458
vt 0.105856 0.295045
vt 0.105856 0.272523
vt 0.083333 0.272523
vt 0.132883 0.272523
vt 0.110360 0.295045
vt 0.132883 0.295045
vt 0.164414 0.295045
vt 0.164414 0.272523
vt 0.186937 0.272523
vt 0.835153 0.132883
vt 0.835153 0.110360
vt 0.029712 0.110360
vt 0.029712 0.132883
vt 0.963836 0.111635
vt 0.979560 0.111635
vt 0.979560 0.095912
vt 0.998428 0.077044
vt 0.982704 0.077044
vt 0.998428 0.092767
vt 0.963836 0.092767
vt 0.963836 0.077044
vt 0.979560 0.092767
vt 0.982704 0.111635
vt 0.998428 0.095912
vt 0.998428 0.111635
vt 0.960692 0.017296
vt 0.944969 0.001572
vt 0.960692 0.001572
vt 0.944969 0.017296
vt 0.963836 0.017296
vt 0.979560 0.017296
vt 0.979560 0.001572
vt 0.963836 0.001572
vt 0.944969 0.111635
vt 0.960692 0.111635
vt 0.944969 0.095912
vt 0.944969 0.130503
vt 0.960692 0.130503
vt 0.944969 0.114780
vt 0.944969 0.092767
vt 0.960692 0.092767
vt 0.960692 0.077044
vt 0.944969 0.020440
vt 0.960692 0.036164
vt 0.944969 0.036164
vt 0.960692 0.020440
vt 0.998428 0.001572
vt 0.982704 0.001572
vt 0.982704 0.017296
vt 0.998428 0.017296
vt 0.998756 0.060945
vt 0.986318 0.060945
vt 0.986318 0.073383
vt 0.356729 0.073383
vt 0.001480 0.060945
vt 0.356729 0.060945
vt 0.001480 0.073383
vt 0.953980 0.073383
vt 0.941542 0.060945
vt 0.953980 0.060945
vt 0.909204 0.001244
vt 0.896766 0.001244
vt 0.896766 0.013682
vt 0.909204 0.013682
vt 0.029279 0.272523
vt 0.051802 0.295045
vt 0.029279 0.295045
vt 0.979560 0.114780
vt 0.979560 0.130503
vt 0.963836 0.130503
vt 0.356729 0.595771
vt 0.001480 0.583333
vt 0.356729 0.583333
vt 0.001480 0.595771
vt 0.909204 0.031095
vt 0.896766 0.031095
vt 0.896766 0.043532
vt 0.909204 0.043532
vt 0.939055 0.075871
vt 0.926617 0.088308
vt 0.926617 0.075871
vt 0.998756 0.088308
vt 0.986318 0.088308
vt 0.986318 0.075871
vt 0.971393 0.028607
vt 0.983831 0.016169
vt 0.983831 0.028607
vt 0.971393 0.016169
vt 0.939055 0.043532
vt 0.926617 0.031095
vt 0.939055 0.031095
vt 0.956468 0.043532
vt 0.968905 0.043532
vt 0.956468 0.031095
vt 0.911692 0.073383
vt 0.911692 0.060945
vt 0.924129 0.073383
vt 0.953980 0.031095
vt 0.941542 0.043532
vt 0.941542 0.031095
vt 0.971393 0.058458
vt 0.983831 0.058458
vt 0.971393 0.046020
vt 0.896766 0.073383
vt 0.909204 0.060945
vt 0.909204 0.073383
vt 0.968905 0.058458
vt 0.956468 0.046020
vt 0.968905 0.046020
vt 0.986318 0.043532
vt 0.986318 0.031095
vt 0.998756 0.043532
vt 0.911692 0.058458
vt 0.924129 0.046020
vt 0.924129 0.058458
vn -0.7085 0.7057 -0.0030
vn -0.7085 0.7057 0.0028
vn -0.7100 0.7042 -0.0028
vn -0.7101 0.7041 0.0030
vn 0.0000 -0.0000 1.0000
vn -1.0000 -0.0000 0.0000
vn 0.0000 1.0000 0.0000
vn -0.8615 -0.3205 0.3938
vn -0.8851 -0.2367 0.4008
vn -0.8618 -0.3203 0.3934
vn -0.8057 -0.4478 0.3878
vn -0.8614 0.3203 -0.3943
vn -0.9130 0.3130 -0.2617
vn -0.8615 0.3193 -0.3948
vn -0.8156 0.2968 -0.4967
vn -0.8613 0.3201 0.3946
vn -0.8617 -0.3191 -0.3947
vn -0.9118 -0.3134 -0.2652
vn -0.8612 -0.3199 -0.3949
vn -0.8175 -0.2977 -0.4931
vn 0.7474 0.4768 0.4627
vn 0.7570 0.4838 0.4392
vn 0.7478 0.4766 0.4622
vn 0.7285 0.4779 0.4909
vn -0.7473 0.4791 0.4605
vn -0.7650 0.4469 0.4638
vn -0.7469 0.4793 0.4609
vn -0.7370 0.4981 0.4569
vn -0.7473 0.4790 -0.4605
vn -0.7370 0.4981 -0.4568
vn -0.7469 0.4793 -0.4608
vn -0.7650 0.4467 -0.4639
vn -0.7071 0.7071 0.0000
vn -0.7072 0.7070 0.0000
vn 0.0000 0.7072 0.7071
vn -0.7069 0.0000 0.7073
vn -0.7070 -0.0000 0.7072
vn -0.7071 -0.7071 -0.0000
vn -0.7072 -0.7070 -0.0000
vn -0.0030 -0.7092 0.7050
vn 0.0030 -0.7092 0.7050
vn -0.7077 0.0020 0.7066
vn -0.7094 -0.0030 0.7048
vn -0.7094 0.0030 0.7048
vn -0.7111 -0.0021 0.7031
vn 0.7070 -0.0000 0.7072
vn 0.7069 0.0000 0.7074
vn 0.7068 -0.0000 0.7074
vn 0.0000 -0.7071 0.7071
vn -0.7071 -0.7072 0.0000
vn 0.7110 -0.0019 0.7032
vn 0.7094 0.0032 0.7048
vn 0.7094 -0.0032 0.7048
vn 0.7078 0.0019 0.7064
vn -0.7098 0.0024 0.7044
vn -0.7092 -0.0028 0.7050
vn -0.7092 0.0028 0.7050
vn -0.7083 -0.0024 0.7059
vn 0.7071 0.0000 0.7071
vn 0.7073 0.0000 0.7069
vn 0.7083 -0.0023 0.7059
vn 0.7092 0.0028 0.7050
vn 0.7092 -0.0028 0.7050
vn 0.7098 0.0023 0.7044
vn 0.0000 0.7071 0.7072
vn 0.0000 0.7071 0.7071
vn -0.7072 0.0000 0.7070
vn -0.7073 0.0000 0.7069
vn 0.5773 0.5775 -0.5773
vn -0.7082 0.7060 0.0013
vn -0.7082 0.7060 -0.0014
vn -0.7082 0.7060 0.0015
vn -0.7082 0.7060 -0.0015
vn -0.7071 0.0000 0.7071
vn -0.7080 -0.7062 -0.0013
vn -0.7080 -0.7062 0.0012
vn -0.7080 -0.7062 -0.0011
vn -0.7080 -0.7062 0.0011
vn -0.0012 -0.7062 0.7080
vn 0.0012 -0.7062 0.7080
vn 0.0015 0.7060 0.7082
vn -0.0015 0.7060 0.7082
vn 0.0012 0.7062 0.7080
vn -0.0012 0.7062 0.7080
vn 0.5772 0.5774 -0.5774
vn -0.7079 0.7063 0.0011
vn -0.7079 0.7063 -0.0011
vn -0.7080 0.7062 0.0013
vn -0.7080 0.7062 -0.0012
vn -0.7079 -0.7063 -0.0011
vn -0.7079 -0.7063 0.0011
vn -0.0015 -0.7060 0.7082
vn 0.0015 -0.7060 0.7082
vn -0.7079 0.7063 0.0010
vn -0.7079 0.7063 -0.0009
vn -0.7080 0.7062 0.0010
vn -0.7080 0.7062 -0.0011
vn -0.7079 0.7063 0.0009
vn 0.7070 0.0000 0.7073
vn 0.7073 0.0000 0.7070
vn 0.7069 0.0000 0.7073
vn 0.5773 0.5775 0.5773
vn 0.0000 -0.7070 0.7072
vn 0.7072 0.0000 0.7070
vn -0.0000 0.7070 0.7072
vn -0.7070 0.0000 0.7073
vn -0.7059 -0.7083 0.0018
vn -0.7059 -0.7083 -0.0018
vn -0.7071 0.7072 0.0000
vn 0.0018 0.7084 0.7059
vn -0.0018 0.7084 0.7059
vn -0.5773 -0.5774 -0.5774
vn -0.5773 0.5774 -0.5774
vn -0.7463 -0.4790 0.4621
vn -0.7464 -0.4790 0.4620
vn -0.7462 -0.4791 0.4622
vn -0.7466 -0.4788 0.4618
vn -0.5768 0.5767 -0.5785
vn -0.5786 0.5767 -0.5767
vn -0.5786 0.5750 -0.5785
vn -0.5783 -0.5769 -0.5769
vn -0.5770 -0.5768 -0.5783
vn -0.5783 -0.5755 -0.5782
vn -0.5774 0.5774 0.5773
vn -0.5774 -0.5774 0.5773
vn 0.0000 -0.7072 0.7071
vn 0.5773 -0.5774 0.5774
vn -0.5785 -0.5768 -0.5768
vn -0.5768 -0.5770 -0.5783
vn -0.5783 -0.5753 -0.5784
vn 0.5773 0.5774 -0.5773
vn 0.5774 -0.5773 0.5773
vn -0.5775 -0.5772 0.5773
vn 0.0000 -0.7071 0.7072
vn 0.5773 0.5774 -0.5774
vn -0.7080 -0.7062 0.0010
vn -0.7079 -0.7063 -0.0008
vn -0.7079 -0.7063 0.0009
vn -0.0013 -0.7062 0.7080
vn 0.0013 0.7062 0.7080
vn -0.5773 -0.5774 -0.5773
vn 0.5757 -0.5758 0.5806
vn 0.5772 -0.5776 0.5773
vn 0.5738 -0.5791 0.5791
vn 0.5774 0.5774 -0.5772
vn -0.7051 0.0028 0.7091
vn -0.7051 -0.0028 0.7091
vn -0.7049 0.0031 0.7093
vn -0.7049 -0.0031 0.7093
vn 0.7049 -0.0029 0.7093
vn 0.7049 0.0030 0.7093
vn 0.7051 -0.0027 0.7091
vn 0.7051 0.0026 0.7091
vn 0.0018 0.7084 0.7058
vn -0.0018 0.7084 0.7058
vn 0.5773 -0.5774 0.5773
vn 0.5774 0.5773 0.5773
vn 0.5769 0.5770 -0.5782
vn 0.5784 0.5751 -0.5785
vn 0.5787 0.5767 -0.5766
vn -0.7073 0.0000 0.7070
vn 0.5758 0.5758 -0.5804
vn 0.5772 0.5778 -0.5771
vn 0.5739 0.5791 -0.5790
vn -0.5771 0.5778 -0.5772
vn -0.5758 0.5759 -0.5803
vn -0.5739 0.5791 -0.5790
vn -0.7059 0.7083 -0.0017
vn -0.7059 0.7083 0.0017
vn -0.5770 0.5771 -0.5780
vn -0.5783 0.5754 -0.5784
vn 0.5783 0.5754 -0.5784
vn 0.5786 0.5767 -0.5767
vn 0.5770 0.5771 -0.5780
vn -0.5772 -0.5774 -0.5774
vn 0.5772 -0.5774 -0.5774
vn -0.7072 -0.7071 -0.0000
vn -0.7080 0.7063 -0.0012
vn 0.5793 0.5792 0.5735
vn 0.5806 0.5757 0.5758
vn 0.5771 0.5780 0.5770
vn -0.5792 0.5792 -0.5736
vn -0.5807 0.5756 -0.5757
vn -0.5772 0.5777 -0.5772
vn 0.5807 0.5757 -0.5756
vn 0.5792 0.5792 -0.5737
vn 0.5772 0.5776 -0.5772
vn -0.7070 -0.7072 -0.0000
vn -0.7079 0.7063 -0.0012
vn -0.7080 0.7062 -0.0013
vn -0.7079 0.7063 0.0013
vn 0.5770 -0.5768 -0.5782
vn 0.5785 -0.5767 -0.5768
vn 0.5785 -0.5753 -0.5783
vn -0.5772 0.5774 -0.5774
vn 0.5773 -0.5774 -0.5774
vn 0.5774 -0.5773 -0.5773
vn -0.5773 -0.5774 0.5774
vn -0.5786 0.5768 0.5767
vn -0.5766 0.5770 0.5785
vn -0.5784 0.5749 0.5787
vn -0.5784 0.5769 0.5767
vn -0.5768 0.5769 0.5783
vn -0.5784 0.5753 0.5784
vn -0.5773 -0.5773 -0.5774
vn -0.5773 0.5773 -0.5774
vn -0.5773 -0.5775 -0.5773
s 1
f 1/1/1 2/2/2 3/3/3
f 1/1/1 3/3/3 4/4/4
f 5/5/5 6/6/5 7/7/5
f 5/5/5 7/7/5 8/8/5
f 10/9/6 9/10/6 13/11/6
f 9/10/6 10/9/6 11/12/6
f 9/10/6 11/12/6 12/13/6
f 10/9/6 13/11/6 14/14/6
f 15/15/6 14/14/6 13/11/6
f 15/15/6 13/11/6 16/16/6
f 15/15/6 16/16/6 17/17/6
f 18/18/6 17/17/6 20/19/6
f 18/18/6 19/20/6 17/17/6
f 15/15/6 17/17/6 19/20/6
f 22/21/6 25/22/6 21/23/6
f 21/23/6 23/24/6 22/21/6
f 21/23/6 24/25/6 23/24/6
f 26/26/6 28/27/6 25/22/6
f 26/26/6 25/22/6 27/28/6
f 22/21/6 27/28/6 25/22/6
f 29/29/6 23/24/6 24/25/6
f 29/29/6 24/25/6 30/30/6
f 30/30/6 31/31/6 29/29/6
f 30/30/6 32/32/6 31/31/6
f 33/33/5 35/34/5 34/35/5
f 33/33/5 36/36/5 35/34/5
f 37/37/7 39/38/7 38/39/7
f 37/37/7 40/40/7 39/38/7
f 41/41/5 42/42/5 43/43/5
f 41/41/5 43/43/5 44/44/5
f 45/45/7 46/46/7 47/47/7
f 45/45/7 47/47/7 48/48/7
f 49/49/5 51/50/5 50/51/5
f 49/49/5 52/52/5 51/50/5
f 53/53/8 54/54/9 55/55/10
f 53/53/8 55/55/10 56/56/11
f 57/57/12 60/58/13 58/59/14
f 57/57/12 58/59/14 59/60/15
f 61/61/16 63/62/16 62/63/16
f 61/61/16 64/64/16 63/62/16
f 65/65/17 66/66/18 67/67/19
f 65/65/17 67/67/19 68/68/20
f 69/69/21 70/70/22 71/71/23
f 69/69/21 71/71/23 72/72/24
f 73/73/25 74/74/26 75/75/27
f 73/73/25 75/75/27 76/76/28
f 77/77/29 78/78/30 79/79/31
f 77/77/29 79/79/31 80/80/32
f 81/81/33 83/82/34 82/83/34
f 81/81/33 84/84/33 83/82/34
f 85/85/35 87/86/35 86/87/35
f 85/85/35 88/88/35 87/86/35
f 89/89/36 91/90/37 90/91/37
f 89/89/36 92/92/36 91/90/37
f 93/93/38 94/94/39 95/95/39
f 93/93/38 95/95/39 96/96/38
f 97/97/40 98/98/41 99/99/40
f 97/97/40 99/99/40 100/100/41
f 101/101/42 102/102/43 103/103/44
f 101/101/42 103/103/44 104/104/45
f 105/105/46 107/106/47 106/107/48
f 105/105/46 108/108/46 107/106/47
f 109/109/49 111/110/49 110/111/49
f 109/109/49 112/112/49 111/110/49
f 113/113/50 115/114/38 114/115/38
f 113/113/50 116/116/50 115/114/38
f 117/117/51 118/118/52 119/119/53
f 117/117/51 119/119/53 120/120/54
f 121/121/55 122/122/56 123/123/57
f 121/121/55 123/123/57 124/124/58
f 125/125/46 127/126/59 126/127/59
f 125/125/46 128/128/60 127/126/59
f 129/129/61 130/130/62 131/131/63
f 129/129/61 131/131/63 132/132/64
f 133/133/65 134/134/66 135/135/66
f 133/133/65 135/135/66 136/136/65
f 137/137/67 139/138/68 138/139/68
f 137/137/67 140/140/67 139/138/68
f 141/141/7 142/142/7 144/143/7
f 141/141/7 143/144/7 142/142/7
f 145/145/7 148/146/7 146/147/7
f 145/145/7 146/147/7 147/148/7
f 149/149/6 152/150/6 150/151/6
f 149/149/6 150/151/6 151/152/6
f 153/153/69 155/154/69 154/155/69
f 156/156/70 159/157/71 157/158/72
f 156/156/70 157/158/72 158/159/73
f 160/160/74 163/161/74 161/162/74
f 160/160/74 161/162/74 162/163/74
f 164/164/75 167/165/76 165/166/77
f 164/164/75 165/166/77 166/167/78
f 168/168/79 171/169/80 169/170/79
f 168/168/79 169/170/79 170/171/80
f 172/172/81 175/173/82 173/174/83
f 172/172/81 173/174/83 174/175/84
f 176/176/5 179/177/5 177/178/5
f 176/176/5 177/178/5 178/179/5
f 180/180/7 181/181/7 183/182/7
f 180/180/7 182/183/7 181/181/7
f 184/184/7 187/185/7 185/186/7
f 184/184/7 185/186/7 186/187/7
f 188/188/6 191/189/6 189/190/6
f 188/188/6 189/190/6 190/191/6
f 192/192/85 194/193/85 193/194/85
f 195/195/86 198/196/87 196/197/88
f 195/195/86 196/197/88 197/198/89
f 199/199/74 202/200/74 200/201/74
f 199/199/74 200/201/74 201/202/74
f 203/203/75 206/204/76 204/205/90
f 203/203/75 204/205/90 205/206/91
f 207/207/79 210/208/80 208/209/92
f 207/207/79 208/209/92 209/210/93
f 211/211/83 214/212/84 212/213/83
f 211/211/83 212/213/83 213/214/84
f 215/215/5 218/216/5 216/217/5
f 215/215/5 216/217/5 217/218/5
f 219/219/7 220/220/7 222/221/7
f 219/219/7 221/222/7 220/220/7
f 223/223/7 226/224/7 224/225/7
f 223/223/7 224/225/7 225/226/7
f 227/227/6 230/228/6 228/229/6
f 227/227/6 228/229/6 229/230/6
f 231/231/94 234/232/95 232/233/96
f 231/231/94 232/233/96 233/234/97
f 235/235/74 238/236/74 236/237/74
f 235/235/74 236/237/74 237/238/74
f 239/239/75 242/240/76 240/241/90
f 239/239/75 240/241/90 241/242/91
f 243/243/79 246/244/80 244/245/79
f 243/243/79 244/245/79 245/246/80
f 247/247/83 250/248/84 248/249/83
f 247/247/83 248/249/83 249/250/84
f 251/251/5 254/252/5 252/253/5
f 251/251/5 252/253/5 253/254/5
f 255/255/7 258/256/7 256/257/7
f 255/255/7 256/257/7 257/258/7
f 259/259/6 262/260/6 260/261/6
f 259/259/6 260/261/6 261/262/6
f 263/263/5 264/264/5 266/265/5
f 263/263/5 265/266/5 264/264/5
f 267/267/98 270/268/95 268/269/96
f 267/267/98 268/269/96 269/270/97
f 271/271/99 272/272/100 274/273/101
f 271/271/99 273/274/60 272/272/100
f 275/275/49 276/276/49 278/277/49
f 275/275/49 277/278/49 276/276/49
f 279/279/6 282/280/6 280/281/6
f 279/279/6 280/281/6 281/282/6
f 283/283/7 284/284/7 286/285/7
f 283/283/7 285/286/7 284/284/7
f 287/287/6 288/288/6 290/289/6
f 287/287/6 289/290/6 288/288/6
f 291/291/5 292/292/5 294/293/5
f 291/291/5 293/294/5 292/292/5
f 295/295/102 297/296/102 296/297/102
f 298/298/50 299/299/38 301/300/38
f 298/298/50 300/301/50 299/299/38
f 302/302/103 303/303/49 305/304/49
f 302/302/103 304/305/103 303/303/49
f 306/306/104 307/307/104 309/308/104
f 306/306/104 308/309/104 307/307/104
f 310/310/105 311/311/105 313/312/105
f 310/310/105 312/313/105 311/311/105
f 314/314/37 315/315/37 317/316/106
f 314/314/37 316/317/106 315/315/37
f 318/318/107 321/319/108 319/320/107
f 318/318/107 319/320/107 320/321/108
f 322/322/109 323/323/109 325/324/109
f 322/322/109 324/325/33 323/323/109
f 326/326/7 327/327/7 328/328/7
f 326/326/7 328/328/7 329/329/7
f 330/330/110 331/331/111 332/332/110
f 330/330/110 332/332/110 333/333/111
f 334/334/49 336/335/49 335/336/103
f 334/334/49 337/337/103 336/335/49
f 338/338/6 339/339/6 341/340/6
f 338/338/6 340/341/6 339/339/6
f 342/342/112 344/343/112 343/344/112
f 345/345/113 347/346/113 346/347/113
f 348/348/33 349/349/33 351/350/33
f 348/348/33 350/351/33 349/349/33
f 352/352/59 355/353/59 353/354/59
f 352/352/59 353/354/59 354/355/59
f 356/356/38 357/357/38 359/358/38
f 356/356/38 358/359/38 357/357/38
f 360/360/6 361/361/6 363/362/6
f 360/360/6 362/363/6 361/361/6
f 364/364/112 366/365/112 365/366/112
f 367/367/33 368/368/33 370/369/33
f 367/367/33 369/370/33 368/368/33
f 371/371/59 374/372/59 372/373/59
f 371/371/59 372/373/59 373/374/59
f 375/375/38 376/376/38 378/377/38
f 375/375/38 377/378/38 376/376/38
f 379/379/114 381/380/115 380/381/116
f 379/379/114 382/382/117 381/380/115
f 383/383/5 384/384/5 386/385/5
f 383/383/5 385/386/5 384/384/5
f 387/387/118 388/388/119 389/389/120
f 390/390/121 391/391/122 392/392/123
f 393/393/124 395/394/124 394/395/124
f 396/396/125 398/397/125 397/398/125
f 399/399/59 400/400/59 402/401/59
f 399/399/59 401/402/59 400/400/59
f 403/403/66 404/404/35 406/405/105
f 403/403/66 405/406/66 404/404/35
f 407/407/74 408/408/74 410/409/74
f 407/407/74 409/410/74 408/408/74
f 411/411/126 412/412/49 414/413/49
f 411/411/126 413/414/49 412/412/49
f 415/415/5 416/416/5 418/417/5
f 415/415/5 417/418/5 416/416/5
f 419/419/127 421/420/127 420/421/127
f 422/422/128 423/423/129 424/424/130
f 425/425/59 426/426/59 428/427/59
f 425/425/59 427/428/59 426/426/59
f 429/429/65 430/430/66 432/431/66
f 429/429/65 431/432/66 430/430/66
f 433/433/49 434/434/126 436/435/103
f 433/433/49 435/436/49 434/434/126
f 437/437/131 439/438/131 438/439/131
f 440/440/6 441/441/6 443/442/6
f 440/440/6 442/443/6 441/441/6
f 444/444/5 445/445/5 447/446/5
f 444/444/5 446/447/5 445/445/5
f 448/448/132 450/449/132 449/450/132
f 451/451/121 452/452/122 453/453/123
f 454/454/133 456/455/133 455/456/133
f 457/457/59 458/458/59 460/459/59
f 457/457/59 459/460/59 458/458/59
f 461/461/66 462/462/66 464/463/66
f 461/461/66 463/464/66 462/462/66
f 465/465/74 466/466/74 468/467/74
f 465/465/74 467/468/74 466/466/74
f 469/469/134 470/470/49 472/471/134
f 469/469/134 471/472/49 470/470/49
f 473/473/38 474/474/38 476/475/38
f 473/473/38 475/476/38 474/474/38
f 477/477/7 478/478/7 480/479/7
f 477/477/7 479/480/7 478/478/7
f 481/481/135 483/482/135 482/483/135
f 484/484/74 487/485/74 485/486/74
f 484/484/74 485/486/74 486/487/74
f 488/488/77 491/489/136 489/490/137
f 488/488/77 489/490/137 490/491/138
f 492/492/139 495/493/80 493/494/79
f 492/492/139 493/494/79 494/495/80
f 496/496/140 499/497/84 497/498/83
f 496/496/140 497/498/83 498/499/84
f 500/500/5 503/501/5 501/502/5
f 500/500/5 501/502/5 502/503/5
f 504/504/7 507/505/7 505/506/7
f 504/504/7 505/506/7 506/507/7
f 508/508/141 510/509/141 509/510/141
f 511/511/142 512/512/143 513/513/144
f 514/514/145 516/515/145 515/516/145
f 517/517/83 520/518/84 518/519/83
f 517/517/83 518/519/83 519/520/84
f 521/521/146 524/522/147 522/523/148
f 521/521/146 522/523/148 523/524/149
f 525/525/150 528/526/151 526/527/152
f 525/525/150 526/527/152 527/528/153
f 529/529/79 532/530/80 530/531/79
f 529/529/79 530/531/79 531/532/80
f 533/533/5 536/534/5 534/535/5
f 533/533/5 534/535/5 535/536/5
f 537/537/7 538/538/7 539/539/7
f 537/537/7 539/539/7 540/540/7
f 541/541/154 542/542/155 543/543/154
f 541/541/154 543/543/154 544/544/155
f 545/545/49 547/546/49 546/547/49
f 545/545/49 548/548/49 547/546/49
f 549/549/6 550/550/6 552/551/6
f 549/549/6 551/552/6 550/550/6
f 553/553/156 555/554/156 554/555/156
f 556/556/157 558/557/157 557/558/157
f 559/559/158 560/560/159 561/561/160
f 562/562/66 563/563/66 565/564/66
f 562/562/66 564/565/66 563/563/66
f 566/566/106 567/567/161 569/568/36
f 566/566/106 568/569/68 567/567/161
f 570/570/38 571/571/38 573/572/38
f 570/570/38 572/573/38 571/571/38
f 574/574/162 575/575/163 576/576/164
f 577/577/165 578/578/166 579/579/167
f 580/580/124 582/581/124 581/582/124
f 583/583/168 586/584/169 584/585/168
f 583/583/168 584/585/168 585/586/169
f 587/587/170 588/588/119 589/589/171
f 590/590/172 591/591/173 592/592/174
f 593/593/175 595/594/175 594/595/175
f 596/596/176 598/597/176 597/598/176
f 599/599/39 601/600/38 600/601/177
f 599/599/39 602/602/38 601/600/38
f 603/603/178 604/604/88 605/605/89
f 603/603/178 605/605/89 606/606/86
f 607/607/179 608/608/180 609/609/181
f 610/610/182 611/611/183 612/612/184
f 613/613/185 614/614/186 615/615/187
f 616/616/38 618/617/38 617/618/38
f 616/616/38 619/619/188 618/617/38
f 620/620/189 621/621/88 622/622/190
f 620/620/189 622/622/190 623/623/191
f 624/624/192 625/625/193 626/626/194
f 627/627/33 628/628/33 630/629/33
f 627/627/33 629/630/33 628/628/33
f 631/631/195 633/632/195 632/633/195
f 634/634/59 637/635/59 635/636/59
f 634/634/59 635/636/59 636/637/59
f 638/638/196 640/639/196 639/640/196
f 641/641/197 643/642/197 642/643/197
f 644/644/33 645/645/33 647/646/33
f 644/644/33 646/647/33 645/645/33
f 648/648/59 651/649/59 649/650/59
f 648/648/59 649/650/59 650/651/59
f 652/652/124 654/653/124 653/654/124
f 655/655/198 657/656/198 656/657/198
f 658/658/74 659/659/74 661/660/74
f 658/658/74 660/661/74 659/659/74
f 662/662/195 664/663/195 663/664/195
f 665/665/199 666/666/200 667/667/201
f 668/668/176 670/669/176 669/670/176
f 671/671/124 673/672/124 672/673/124
f 674/674/202 675/675/203 676/676/204
f 677/677/205 679/678/205 678/679/205
f 680/680/206 682/681/206 681/682/206
f 683/683/196 685/684/196 684/685/196
f 686/686/207 688/687/207 687/688/207
