# Blender v2.82 (sub 7) OBJ File: 'living_room.blend'
# www.blender.org
o BrownBooks_Mesh_(87)
v -2.343270 0.931079 3.717910
v -2.201750 1.145989 3.706430
v -2.201750 0.931079 3.717910
v -2.343270 1.145989 3.706430
v -2.201750 0.932412 3.742850
v -2.343270 1.147319 3.731370
v -2.343270 0.932412 3.742850
v -2.201750 1.147319 3.731370
v -2.200930 0.931147 3.719170
v -2.343270 0.931079 3.717910
v -2.201750 0.931079 3.717910
v -2.343270 0.931147 3.719170
v -2.200930 0.932344 3.741590
v -2.343270 0.932344 3.741590
v -2.201750 0.932412 3.742850
v -2.343270 0.932412 3.742850
v -2.343270 0.932412 3.742850
v -2.343270 1.147249 3.730110
v -2.343270 0.932344 3.741590
v -2.343270 1.147319 3.731370
v -2.343270 1.146049 3.707690
v -2.343270 0.931147 3.719170
v -2.343270 1.145989 3.706430
v -2.343270 0.931079 3.717910
v -2.201750 0.931079 3.717910
v -2.200930 1.146049 3.707690
v -2.200930 0.931147 3.719170
v -2.201750 1.145989 3.706430
v -2.200930 0.931147 3.719170
v -2.200930 1.147249 3.730110
v -2.200930 0.932344 3.741590
v -2.200930 1.146049 3.707690
v -2.200930 0.932344 3.741590
v -2.201750 1.147319 3.731370
v -2.201750 0.932412 3.742850
v -2.200930 1.147249 3.730110
v -2.343270 1.147319 3.731370
v -2.200930 1.147249 3.730110
v -2.343270 1.147249 3.730110
v -2.201750 1.147319 3.731370
v -2.343270 1.147249 3.730110
v -2.200930 1.146049 3.707690
v -2.343270 1.146049 3.707690
v -2.200930 1.147249 3.730110
v -2.343270 1.146049 3.707690
v -2.201750 1.145989 3.706430
v -2.343270 1.145989 3.706430
v -2.200930 1.146049 3.707690
v -2.362950 0.931635 3.689910
v -2.190690 1.146659 3.680950
v -2.190690 0.931635 3.689910
v -2.362950 1.146659 3.680950
v -2.190690 0.932675 3.714870
v -2.362950 1.147699 3.705910
v -2.362950 0.932675 3.714870
v -2.190690 1.147699 3.705910
v -2.189860 0.931688 3.691180
v -2.362950 0.931635 3.689910
v -2.190690 0.931635 3.689910
v -2.362950 0.931688 3.691180
v -2.362950 0.931688 3.691180
v -2.189860 0.932623 3.713610
v -2.362950 0.932623 3.713610
v -2.189860 0.931688 3.691180
v -2.362950 0.932623 3.713610
v -2.190690 0.932675 3.714870
v -2.362950 0.932675 3.714870
v -2.189860 0.932623 3.713610
v -2.362950 0.932675 3.714870
v -2.362950 1.147649 3.704650
v -2.362950 0.932623 3.713610
v -2.362950 1.147699 3.705910
v -2.362950 1.146709 3.682220
v -2.362950 0.931688 3.691180
v -2.362950 1.146659 3.680950
v -2.362950 0.931635 3.689910
v -2.190690 0.931635 3.689910
v -2.189860 1.146709 3.682220
v -2.189860 0.931688 3.691180
v -2.190690 1.146659 3.680950
v -2.189860 0.931688 3.691180
v -2.189860 1.147649 3.704650
v -2.189860 0.932623 3.713610
v -2.189860 1.146709 3.682220
v -2.189860 0.932623 3.713610
v -2.190690 1.147699 3.705910
v -2.190690 0.932675 3.714870
v -2.189860 1.147649 3.704650
v -2.362950 1.147699 3.705910
v -2.189860 1.147649 3.704650
v -2.362950 1.147649 3.704650
v -2.190690 1.147699 3.705910
v -2.362950 1.147649 3.704650
v -2.189860 1.146709 3.682220
v -2.362950 1.146709 3.682220
v -2.189860 1.147649 3.704650
v -2.362950 1.146709 3.682220
v -2.190690 1.146659 3.680950
v -2.362950 1.146659 3.680950
v -2.189860 1.146709 3.682220
v -2.359260 0.931655 3.663110
v -2.187000 1.146729 3.655560
v -2.187000 0.931655 3.663110
v -2.359260 1.146729 3.655560
v -2.187000 0.932530 3.688070
v -2.359260 1.147609 3.680530
v -2.359260 0.932530 3.688070
v -2.187000 1.147609 3.680530
v -2.186170 0.931699 3.664370
v -2.359260 0.931655 3.663110
v -2.187000 0.931655 3.663110
v -2.359260 0.931699 3.664370
v -2.186170 0.932486 3.686810
v -2.359260 0.932486 3.686810
v -2.359260 0.932486 3.686810
v -2.187000 0.932530 3.688070
v -2.359260 0.932530 3.688070
v -2.186170 0.932486 3.686810
v -2.359260 0.932530 3.688070
v -2.359260 1.147569 3.679260
v -2.359260 0.932486 3.686810
v -2.359260 1.147609 3.680530
v -2.359260 1.146779 3.656830
v -2.359260 0.931699 3.664370
v -2.359260 1.146729 3.655560
v -2.359260 0.931655 3.663110
v -2.187000 0.931655 3.663110
v -2.186170 1.146779 3.656830
v -2.186170 0.931699 3.664370
v -2.187000 1.146729 3.655560
v -2.186170 0.931699 3.664370
v -2.186170 1.147569 3.679260
v -2.186170 0.932486 3.686810
v -2.186170 1.146779 3.656830
v -2.186170 0.932486 3.686810
v -2.187000 1.147609 3.680530
v -2.187000 0.932530 3.688070
v -2.186170 1.147569 3.679260
v -2.359260 1.147609 3.680530
v -2.186170 1.147569 3.679260
v -2.359260 1.147569 3.679260
v -2.187000 1.147609 3.680530
v -2.359260 1.147569 3.679260
v -2.186170 1.146779 3.656830
v -2.359260 1.146779 3.656830
v -2.186170 1.147569 3.679260
v -2.187000 1.146729 3.655560
v -2.359260 1.146729 3.655560
vt 0.821285 0.002481
vt 0.820412 0.002481
vt 0.820412 0.937010
vt 0.821285 0.937010
vt 0.782300 0.002481
vt 0.781230 0.937010
vt 0.781230 0.002481
vt 0.782300 0.937010
vt 0.987148 0.008603
vt 0.989829 0.008603
vt 0.989829 0.127444
vt 0.987148 0.127444
vt 0.946689 0.127444
vt 0.946689 0.008603
vt 0.943949 0.127444
vt 0.943949 0.008603
vt 0.943949 0.127444
vt 0.946689 0.256778
vt 0.946689 0.127444
vt 0.943949 0.256778
vt 0.987148 0.256778
vt 0.987148 0.127444
vt 0.989829 0.256778
vt 0.989829 0.127444
vt 0.820412 0.002481
vt 0.819206 0.002481
vt 0.819206 0.937010
vt 0.820412 0.937010
vt 0.819206 0.002481
vt 0.784315 0.002481
vt 0.784315 0.937010
vt 0.819206 0.937010
vt 0.784315 0.002481
vt 0.782300 0.937010
vt 0.782300 0.002481
vt 0.784315 0.937010
vt 0.943949 0.256778
vt 0.946689 0.375415
vt 0.946689 0.256778
vt 0.943949 0.375415
vt 0.946689 0.256778
vt 0.987148 0.375415
vt 0.987148 0.256778
vt 0.946689 0.375415
vt 0.987148 0.256778
vt 0.989829 0.375415
vt 0.989829 0.256778
vt 0.987148 0.375415
vt 0.873708 0.002481
vt 0.871966 0.002481
vt 0.871966 0.937010
vt 0.873708 0.937010
vt 0.827515 0.002481
vt 0.826136 0.937010
vt 0.826136 0.002481
vt 0.827515 0.937010
vt 0.987148 0.008603
vt 0.989829 0.008603
vt 0.989829 0.127444
vt 0.987148 0.127444
vt 0.987148 0.127444
vt 0.946689 0.127444
vt 0.946689 0.008603
vt 0.987148 0.008603
vt 0.946689 0.127444
vt 0.943949 0.127444
vt 0.943949 0.008603
vt 0.946689 0.008603
vt 0.943949 0.127444
vt 0.946689 0.256778
vt 0.946689 0.127444
vt 0.943949 0.256778
vt 0.987148 0.256778
vt 0.987148 0.127444
vt 0.989829 0.256778
vt 0.989829 0.127444
vt 0.871966 0.002481
vt 0.869311 0.002481
vt 0.869311 0.937010
vt 0.871966 0.937010
vt 0.869311 0.002481
vt 0.830112 0.002481
vt 0.830112 0.937010
vt 0.869311 0.937010
vt 0.830112 0.002481
vt 0.827515 0.937010
vt 0.827515 0.002481
vt 0.830112 0.937010
vt 0.943949 0.256778
vt 0.946689 0.375415
vt 0.946689 0.256778
vt 0.943949 0.375415
vt 0.946689 0.256778
vt 0.987148 0.375415
vt 0.987148 0.256778
vt 0.946689 0.375415
vt 0.987148 0.256778
vt 0.989829 0.375415
vt 0.989829 0.256778
vt 0.987148 0.375415
vt 0.932659 0.002481
vt 0.930861 0.002481
vt 0.930861 0.937010
vt 0.932659 0.937010
vt 0.884981 0.002481
vt 0.883558 0.937010
vt 0.883558 0.002481
vt 0.884981 0.937010
vt 0.987148 0.008603
vt 0.989829 0.008603
vt 0.989829 0.127444
vt 0.987148 0.127444
vt 0.946689 0.127444
vt 0.946689 0.008603
vt 0.946689 0.127444
vt 0.943949 0.127444
vt 0.943949 0.008603
vt 0.946689 0.008603
vt 0.943949 0.127444
vt 0.946689 0.256778
vt 0.946689 0.127444
vt 0.943949 0.256778
vt 0.987148 0.256778
vt 0.987148 0.127444
vt 0.989829 0.256778
vt 0.989829 0.127444
vt 0.930861 0.002481
vt 0.928121 0.002481
vt 0.928121 0.937010
vt 0.930861 0.937010
vt 0.928121 0.002481
vt 0.887662 0.002481
vt 0.887662 0.937010
vt 0.928121 0.937010
vt 0.887662 0.002481
vt 0.884981 0.937010
vt 0.884981 0.002481
vt 0.887662 0.937010
vt 0.943949 0.256778
vt 0.946689 0.375415
vt 0.946689 0.256778
vt 0.943949 0.375415
vt 0.946689 0.256778
vt 0.987148 0.375415
vt 0.987148 0.256778
vt 0.946689 0.375415
vt 0.989829 0.375415
vt 0.989829 0.256778
vn 0.0000 0.0533 0.9986
vn 0.0000 0.9986 -0.0535
vn 0.0006 0.9985 -0.0541
vn -0.0006 0.9985 -0.0539
vn 0.0000 0.9986 -0.0536
vn 0.0000 0.9986 -0.0533
vn 0.0005 0.9985 -0.0539
vn -0.0005 0.9985 -0.0543
vn -1.0000 -0.0000 0.0000
vn -0.8387 0.0272 0.5440
vn -0.8386 0.0309 0.5438
vn -0.8385 0.0274 0.5442
vn -0.8385 0.0306 0.5441
vn 0.8374 0.0291 0.5458
vn 0.8375 0.0291 0.5457
vn 0.8374 0.0291 0.5457
vn 0.0000 0.9986 -0.0538
vn 0.0000 0.9986 -0.0531
vn 0.0000 0.9985 -0.0539
vn 0.0000 0.9986 -0.0534
vn 0.0000 0.0416 0.9991
vn 0.0000 0.9991 -0.0416
vn 0.0000 0.9991 -0.0419
vn 0.0000 0.9991 -0.0413
vn -0.0003 0.9991 -0.0413
vn 0.0000 0.9992 -0.0412
vn -0.0003 0.9991 -0.0414
vn -0.8375 0.0228 0.5460
vn -0.8373 0.0231 0.5462
vn -0.8373 0.0223 0.5463
vn 0.8374 0.0228 0.5462
vn 0.8375 0.0228 0.5460
vn 0.0000 0.9991 -0.0420
vn 0.0000 0.9991 -0.0415
vn -0.0000 0.9991 -0.0418
vn 0.0000 0.0351 0.9994
vn 0.0000 0.0350 0.9994
vn 0.0000 0.9994 -0.0350
vn 0.0000 0.9994 -0.0349
vn 0.0000 0.9994 -0.0351
vn 0.0005 0.9994 -0.0350
vn -0.0005 0.9994 -0.0350
vn 0.0003 0.9994 -0.0346
vn 0.0000 0.9994 -0.0348
vn -0.8352 0.0231 0.5494
vn -0.8353 0.0154 0.5496
vn -0.8373 0.0197 0.5464
vn -0.8374 0.0187 0.5463
vn 0.8374 0.0192 0.5462
vn 0.8372 0.0192 0.5466
vn -0.0000 0.9994 -0.0352
vn 0.0000 0.9994 -0.0353
s 1
f 1/1/1 3/2/1 2/3/1
f 1/1/1 2/3/1 4/4/1
f 5/5/1 6/6/1 7/7/1
f 5/5/1 8/8/1 6/6/1
f 9/9/2 11/10/3 10/11/4
f 9/9/2 10/11/4 12/12/5
f 12/12/5 14/13/6 13/14/5
f 12/12/5 13/14/5 9/9/2
f 14/13/6 16/15/7 15/16/8
f 14/13/6 15/16/8 13/14/5
f 17/17/9 18/18/9 19/19/9
f 17/17/9 20/20/9 18/18/9
f 19/19/9 21/21/9 22/22/9
f 19/19/9 18/18/9 21/21/9
f 22/22/9 23/23/9 24/24/9
f 22/22/9 21/21/9 23/23/9
f 25/25/10 27/26/11 26/27/12
f 25/25/10 26/27/12 28/28/13
f 29/29/9 31/30/9 30/31/9
f 29/29/9 30/31/9 32/32/9
f 33/33/14 34/34/15 35/35/16
f 33/33/14 36/36/14 34/34/15
f 37/37/17 38/38/18 39/39/19
f 37/37/17 40/40/18 38/38/18
f 41/41/2 42/42/2 43/43/2
f 41/41/2 44/44/2 42/42/2
f 45/45/2 46/46/6 47/47/2
f 45/45/2 48/48/20 46/46/6
f 49/49/21 51/50/21 50/51/21
f 49/49/21 50/51/21 52/52/21
f 53/53/21 54/54/21 55/55/21
f 53/53/21 56/56/21 54/54/21
f 57/57/22 59/58/22 58/59/23
f 57/57/22 58/59/23 60/60/23
f 61/61/22 63/62/22 62/63/22
f 61/61/22 62/63/22 64/64/22
f 65/65/24 67/66/25 66/67/26
f 65/65/24 66/67/26 68/68/27
f 69/69/9 70/70/9 71/71/9
f 69/69/9 72/72/9 70/70/9
f 71/71/9 73/73/9 74/74/9
f 71/71/9 70/70/9 73/73/9
f 74/74/9 75/75/9 76/76/9
f 74/74/9 73/73/9 75/75/9
f 77/77/28 79/78/28 78/79/29
f 77/77/28 78/79/29 80/80/30
f 81/81/9 83/82/9 82/83/9
f 81/81/9 82/83/9 84/84/9
f 85/85/31 86/86/32 87/87/31
f 85/85/31 88/88/32 86/86/32
f 89/89/22 90/90/33 91/91/34
f 89/89/22 92/92/33 90/90/33
f 93/93/34 94/94/34 95/95/34
f 93/93/34 96/96/23 94/94/34
f 97/97/35 98/98/22 99/99/35
f 97/97/35 100/100/34 98/98/22
f 101/101/36 103/102/36 102/103/36
f 101/101/36 102/103/36 104/104/36
f 105/105/37 106/106/37 107/107/37
f 105/105/37 108/108/37 106/106/37
f 109/109/38 111/110/39 110/111/38
f 109/109/38 110/111/38 112/112/38
f 112/112/38 114/113/40 113/114/40
f 112/112/38 113/114/40 109/109/38
f 115/115/41 117/116/42 116/117/43
f 115/115/41 116/117/43 118/118/44
f 119/119/9 120/120/9 121/121/9
f 119/119/9 122/122/9 120/120/9
f 121/121/9 123/123/9 124/124/9
f 121/121/9 120/120/9 123/123/9
f 124/124/9 125/125/9 126/126/9
f 124/124/9 123/123/9 125/125/9
f 127/127/45 129/128/46 128/129/47
f 127/127/45 128/129/47 130/130/48
f 131/131/9 133/132/9 132/133/9
f 131/131/9 132/133/9 134/134/9
f 135/135/49 136/136/49 137/137/49
f 135/135/49 138/138/50 136/136/49
f 139/139/51 140/140/38 141/141/52
f 139/139/51 142/142/38 140/140/38
f 143/143/51 144/144/38 145/145/40
f 143/143/51 146/146/39 144/144/38
f 145/145/40 147/147/39 148/148/51
f 145/145/40 144/144/38 147/147/39
