# Blender v2.82 (sub 7) OBJ File: 'living_room.blend'
# www.blender.org
o Ceiling_Mesh_(140)
v 0.906922 3.168610 1.247000
v 1.935800 3.168610 0.979247
v 1.935800 3.168610 1.247000
v 0.906922 3.168610 0.979247
v -0.452280 3.168610 1.247000
v -0.452280 3.168610 0.979247
v -1.481160 3.168610 1.247000
v -1.481160 3.168610 0.979246
v -0.452280 3.168610 0.464016
v -0.516310 3.168610 0.464016
v 0.906922 3.168610 0.464016
v 0.970952 3.168610 0.464016
v 3.087810 3.168610 2.193460
v 3.087810 3.168610 1.247000
v 1.935800 3.168610 2.193460
v 0.906922 3.168610 2.193460
v -0.452280 3.168610 2.193460
v -1.283240 3.168610 2.193460
v 1.935800 3.168610 3.524920
v 3.087810 3.168609 8.115281
v 1.935800 3.168609 8.115281
v 3.087810 3.168610 3.524920
v 0.906922 3.168610 3.524920
v 0.906922 3.168609 8.115281
v -0.452281 3.168610 3.524920
v -0.452281 3.168609 8.115281
v -1.283240 3.168610 3.524920
v -1.481160 3.168609 8.115281
v -2.496490 3.168610 2.193460
v -1.954210 3.168610 1.247000
v -1.954210 3.168610 2.193460
v -2.496480 3.168610 1.247000
v -2.496490 3.168609 8.115281
v -1.954210 3.168610 3.524920
v -1.954210 3.168609 8.115281
v -2.496490 3.168610 3.524920
v 3.087810 3.168610 2.464460
v 1.935800 3.168610 2.464460
v 3.087810 3.168610 3.253931
v 1.935800 3.168610 3.253931
v 0.906922 3.168610 2.464460
v 0.906922 3.168610 3.253931
v -0.452280 3.168610 2.464460
v -0.452280 3.168610 3.253931
v -1.283240 3.168610 2.464460
v -1.283240 3.168610 3.253931
v -1.954210 3.168610 3.253931
v -1.954210 3.168610 2.464460
vt 0.454447 0.112033
vt 0.588174 0.112033
vt 0.588174 0.077892
vt 0.454447 0.077892
vt 0.277788 0.112033
vt 0.277788 0.077892
vt 0.144062 0.112033
vt 0.144062 0.077892
vt 0.277788 0.012195
vt 0.269466 0.012195
vt 0.454447 0.012195
vt 0.462770 0.012195
vt 0.737903 0.232716
vt 0.737903 0.112033
vt 0.588174 0.232716
vt 0.454447 0.232716
vt 0.277788 0.232716
vt 0.169786 0.232716
vt 0.588174 0.402490
vt 0.588174 0.987805
vt 0.737903 0.987805
vt 0.737903 0.402490
vt 0.454447 0.402490
vt 0.454447 0.987805
vt 0.277788 0.402490
vt 0.277788 0.987805
vt 0.169786 0.402490
vt 0.144061 0.987805
vt 0.012097 0.232716
vt 0.082578 0.232716
vt 0.082578 0.112033
vt 0.012097 0.112033
vt 0.012097 0.987805
vt 0.082578 0.987805
vt 0.082578 0.402490
vt 0.012097 0.402490
vt 0.588174 0.267271
vt 0.737903 0.267271
vt 0.588174 0.367935
vt 0.737903 0.367935
vt 0.454447 0.267271
vt 0.454447 0.367935
vt 0.277788 0.267271
vt 0.277788 0.367935
vt 0.169786 0.267271
vt 0.169786 0.367935
vt 0.082578 0.367935
vt 0.082578 0.267271
vn 0.0000 1.0000 0.0000
s 1
f 1/1/1 3/2/1 2/3/1
f 1/1/1 2/3/1 4/4/1
f 5/5/1 1/1/1 4/4/1
f 5/5/1 4/4/1 6/6/1
f 7/7/1 5/5/1 6/6/1
f 7/7/1 6/6/1 8/8/1
f 8/8/1 6/6/1 9/9/1
f 8/8/1 9/9/1 10/10/1
f 6/6/1 4/4/1 11/11/1
f 6/6/1 11/11/1 9/9/1
f 4/4/1 2/3/1 12/12/1
f 4/4/1 12/12/1 11/11/1
f 13/13/1 14/14/1 3/2/1
f 13/13/1 3/2/1 15/15/1
f 1/1/1 16/16/1 15/15/1
f 1/1/1 15/15/1 3/2/1
f 5/5/1 17/17/1 16/16/1
f 5/5/1 16/16/1 1/1/1
f 7/7/1 18/18/1 17/17/1
f 7/7/1 17/17/1 5/5/1
f 19/19/1 21/20/1 20/21/1
f 19/19/1 20/21/1 22/22/1
f 23/23/1 24/24/1 21/20/1
f 23/23/1 21/20/1 19/19/1
f 25/25/1 26/26/1 24/24/1
f 25/25/1 24/24/1 23/23/1
f 27/27/1 28/28/1 26/26/1
f 27/27/1 26/26/1 25/25/1
f 29/29/1 31/30/1 30/31/1
f 29/29/1 30/31/1 32/32/1
f 31/30/1 18/18/1 7/7/1
f 31/30/1 7/7/1 30/31/1
f 33/33/1 35/34/1 34/35/1
f 33/33/1 34/35/1 36/36/1
f 35/34/1 28/28/1 27/27/1
f 35/34/1 27/27/1 34/35/1
f 15/15/1 38/37/1 37/38/1
f 15/15/1 37/38/1 13/13/1
f 38/37/1 40/39/1 39/40/1
f 38/37/1 39/40/1 37/38/1
f 40/39/1 19/19/1 22/22/1
f 40/39/1 22/22/1 39/40/1
f 16/16/1 41/41/1 38/37/1
f 16/16/1 38/37/1 15/15/1
f 41/41/1 42/42/1 40/39/1
f 41/41/1 40/39/1 38/37/1
f 42/42/1 23/23/1 19/19/1
f 42/42/1 19/19/1 40/39/1
f 17/17/1 43/43/1 41/41/1
f 17/17/1 41/41/1 16/16/1
f 43/43/1 44/44/1 42/42/1
f 43/43/1 42/42/1 41/41/1
f 44/44/1 25/25/1 23/23/1
f 44/44/1 23/23/1 42/42/1
f 18/18/1 45/45/1 43/43/1
f 18/18/1 43/43/1 17/17/1
f 45/45/1 46/46/1 44/44/1
f 45/45/1 44/44/1 43/43/1
f 46/46/1 27/27/1 25/25/1
f 46/46/1 25/25/1 44/44/1
f 27/27/1 46/46/1 47/47/1
f 27/27/1 47/47/1 34/35/1
f 46/46/1 45/45/1 48/48/1
f 46/46/1 48/48/1 47/47/1
f 45/45/1 18/18/1 31/30/1
f 45/45/1 31/30/1 48/48/1
