# Blender v2.82 (sub 7) OBJ File: 'living_room.blend'
# www.blender.org
o ChimneyMarble_Mesh_(54)
v -1.469800 0.041565 2.329730
v -2.204530 0.041565 2.329730
v -2.204530 0.090152 2.329730
v -1.469800 0.090152 2.329730
v -2.204530 0.038565 2.332730
v -1.469800 0.038565 2.332730
v -1.469800 0.038565 2.875440
v -2.204530 0.038565 2.875440
v -1.466800 0.090152 2.332730
v -1.466800 0.090152 2.875440
v -1.466800 0.041565 2.875440
v -1.466800 0.041565 2.332730
v -2.207530 0.041565 2.332730
v -2.207530 0.041565 2.875440
v -2.207530 0.090152 2.875440
v -2.207530 0.090152 2.332730
v -1.469800 0.093152 2.881440
v -2.204530 0.093152 2.881440
v -2.204530 0.093151 3.424160
v -1.469800 0.093151 3.424160
v -1.466800 0.090151 3.424160
v -1.466800 0.041564 3.424160
v -1.466800 0.041565 2.881440
v -1.466800 0.090152 2.881440
v -2.207530 0.041564 3.424160
v -2.207530 0.090151 3.424160
v -2.207530 0.090152 2.881440
v -2.207530 0.041565 2.881440
v -1.469800 0.041564 3.427160
v -1.469800 0.090151 3.427160
v -2.204530 0.090151 3.427160
v -2.204530 0.041564 3.427160
v -2.204530 0.038564 3.424160
v -2.204530 0.038565 2.881440
v -1.469800 0.038565 2.881440
v -1.469800 0.038564 3.424160
v -2.204530 0.090152 2.329730
v -2.207530 0.090152 2.332730
v -2.204530 0.093152 2.332730
v -1.469800 0.090152 2.329730
v -1.469800 0.093152 2.332730
v -1.466800 0.090152 2.332730
v -1.469800 0.041565 2.329730
v -1.466800 0.041565 2.332730
v -1.469800 0.038565 2.332730
v -2.204530 0.038565 2.332730
v -2.207530 0.041565 2.332730
v -2.204530 0.041565 2.329730
v -1.469800 0.093152 2.875440
v -1.469800 0.093152 2.881440
v -1.466800 0.090152 2.881440
v -1.466800 0.090152 2.875440
v -2.207530 0.090152 2.881440
v -2.204530 0.093152 2.881440
v -2.204530 0.093152 2.875440
v -2.207530 0.090152 2.875440
v -2.204530 0.093151 3.424160
v -2.207530 0.090151 3.424160
v -2.204530 0.090151 3.427160
v -1.466800 0.090151 3.424160
v -1.469800 0.093151 3.424160
v -1.469800 0.090151 3.427160
v -1.469800 0.038564 3.424160
v -1.466800 0.041564 3.424160
v -1.469800 0.041564 3.427160
v -2.204530 0.041564 3.427160
v -2.207530 0.041564 3.424160
v -2.204530 0.038564 3.424160
v -2.204530 0.038565 2.881440
v -2.207530 0.041565 2.881440
v -2.207530 0.041565 2.875440
v -2.204530 0.038565 2.875440
v -1.466800 0.041565 2.875440
v -1.466800 0.041565 2.881440
v -1.469800 0.038565 2.881440
v -1.469800 0.038565 2.875440
v -1.469800 0.093152 2.875440
v -2.204530 0.093152 2.875440
v -1.466800 0.090152 2.332730
v -1.469800 0.093152 2.332730
v -2.204530 0.093152 2.332730
v -2.207530 0.090152 2.332730
v -1.466800 0.090152 2.332730
v -1.466800 0.041565 2.332730
v -1.469800 0.041565 2.329730
v -1.469800 0.090152 2.329730
v -2.204530 0.093152 2.332730
v -1.469800 0.093152 2.332730
v -1.469800 0.090152 2.329730
v -2.204530 0.090152 2.329730
v -2.204530 0.090152 2.329730
v -2.204530 0.041565 2.329730
v -2.207530 0.041565 2.332730
v -2.207530 0.090152 2.332730
v -1.469800 0.038565 2.332730
v -2.204530 0.038565 2.332730
v -2.204530 0.041565 2.329730
v -1.469800 0.041565 2.329730
v -2.204530 0.038565 2.332730
v -2.207530 0.041565 2.332730
v -1.466800 0.041565 2.332730
v -1.469800 0.038565 2.332730
v -1.469800 0.093151 3.424160
v -1.466800 0.090151 3.424160
v -2.207530 0.090151 3.424160
v -2.204530 0.093151 3.424160
v -1.469800 0.090151 3.427160
v -1.469800 0.041564 3.427160
v -1.466800 0.041564 3.424160
v -1.466800 0.090151 3.424160
v -2.204530 0.090151 3.427160
v -1.469800 0.090151 3.427160
v -1.469800 0.093151 3.424160
v -2.204530 0.093151 3.424160
v -2.207530 0.090151 3.424160
v -2.207530 0.041564 3.424160
v -2.204530 0.041564 3.427160
v -2.204530 0.090151 3.427160
v -1.469800 0.041564 3.427160
v -2.204530 0.041564 3.427160
v -2.204530 0.038564 3.424160
v -1.469800 0.038564 3.424160
v -2.207530 0.041564 3.424160
v -2.204530 0.038564 3.424160
v -1.469800 0.038564 3.424160
v -1.466800 0.041564 3.424160
v -1.469800 0.093152 2.332730
v -2.204530 0.093152 2.332730
v -1.494310 0.038503 2.878440
v -1.494310 0.038503 2.356010
v -1.911370 0.038503 2.356010
v -1.911370 0.038503 2.878440
v -1.494310 0.028538 2.878440
v -1.494310 0.028538 2.356010
v -1.911370 0.028538 2.356010
v -1.911370 0.028538 2.878440
v -1.911370 0.038502 3.400880
v -1.494310 0.038502 3.400880
v -1.494310 0.028537 3.400880
v -1.911370 0.028537 3.400880
vt 0.002667 0.704955
vt 0.402738 0.727477
vt 0.402738 0.704955
vt 0.002667 0.727477
vt 0.029694 0.029705
vt 0.429765 0.322705
vt 0.429765 0.029705
vt 0.029694 0.322705
vt 0.618943 0.024775
vt 0.325944 0.002252
vt 0.325944 0.024775
vt 0.618943 0.002252
vt 0.002678 0.623874
vt 0.295678 0.623874
vt 0.295678 0.646396
vt 0.002678 0.646396
vt 0.435100 0.325944
vt 0.835171 0.325944
vt 0.835171 0.618943
vt 0.435100 0.618943
vt 0.029705 0.024775
vt 0.322705 0.002252
vt 0.029705 0.002252
vt 0.322705 0.024775
vt 0.591916 0.623874
vt 0.591916 0.646396
vt 0.298917 0.646396
vt 0.298917 0.623874
vt 0.997333 0.623874
vt 0.997333 0.646396
vt 0.597262 0.646396
vt 0.597262 0.623874
vt 0.029694 0.618943
vt 0.429765 0.325944
vt 0.029694 0.325944
vt 0.429765 0.618943
vt 0.975225 0.002252
vt 0.975225 0.024775
vt 0.997748 0.024775
vt 0.943694 0.002252
vt 0.921171 0.024775
vt 0.943694 0.024775
vt 0.921171 0.029279
vt 0.921171 0.051802
vt 0.943694 0.051802
vt 0.835586 0.024775
vt 0.813063 0.024775
vt 0.835586 0.002252
vt 0.889640 0.295678
vt 0.867117 0.298917
vt 0.889640 0.298917
vt 0.867117 0.295678
vt 0.916667 0.298917
vt 0.894144 0.298917
vt 0.894144 0.295678
vt 0.916667 0.295678
vt 0.759009 0.002252
vt 0.781532 0.002252
vt 0.759009 0.024775
vt 0.948198 0.002252
vt 0.970721 0.024775
vt 0.970721 0.002252
vt 0.731982 0.002252
vt 0.754505 0.002252
vt 0.731982 0.024775
vt 0.808559 0.024775
vt 0.808559 0.002252
vt 0.786036 0.002252
vt 0.024775 0.298917
vt 0.002252 0.298917
vt 0.002252 0.295678
vt 0.024775 0.295678
vt 0.862613 0.295678
vt 0.840090 0.298917
vt 0.862613 0.298917
vt 0.840090 0.295678
vt 0.435100 0.322705
vt 0.835171 0.322705
vt 0.889640 0.002678
vt 0.867117 0.002678
vt 0.894144 0.002678
vt 0.916667 0.002678
vt 0.677928 0.024775
vt 0.700450 0.002252
vt 0.677928 0.002252
vt 0.700450 0.024775
vt 0.808144 0.700450
vt 0.408073 0.677928
vt 0.408073 0.700450
vt 0.808144 0.677928
vt 0.623874 0.024775
vt 0.646396 0.002252
vt 0.623874 0.002252
vt 0.646396 0.024775
vt 0.808144 0.673423
vt 0.408073 0.650901
vt 0.408073 0.673423
vt 0.808144 0.650901
vt 0.024775 0.002678
vt 0.002252 0.002678
vt 0.862613 0.002678
vt 0.840090 0.002678
vt 0.867117 0.591916
vt 0.889640 0.591916
vt 0.916667 0.591916
vt 0.894144 0.591916
vt 0.650901 0.024775
vt 0.650901 0.002252
vt 0.673423 0.002252
vt 0.673423 0.024775
vt 0.402738 0.673423
vt 0.002667 0.673423
vt 0.002667 0.650901
vt 0.402738 0.650901
vt 0.704955 0.024775
vt 0.704955 0.002252
vt 0.727477 0.002252
vt 0.727477 0.024775
vt 0.402738 0.700450
vt 0.002667 0.700450
vt 0.002667 0.677928
vt 0.402738 0.677928
vt 0.002252 0.591916
vt 0.024775 0.591916
vt 0.840090 0.591916
vt 0.862613 0.591916
vt 0.435100 0.029705
vt 0.835171 0.029705
vt 0.000000 0.000000
vt 0.000000 0.000000
vt 0.000000 0.000000
vt 0.000000 0.000000
vt 0.000000 0.000000
vt 0.000000 0.000000
vt 0.000000 0.000000
vt 0.000000 0.000000
vt 0.000000 0.000000
vt 0.000000 0.000000
vt 0.000000 0.000000
vt 0.000000 0.000000
vn 0.0000 0.0000 1.0000
vn 0.0000 1.0000 0.0000
vn -1.0000 0.0000 0.0000
vn 0.5773 -0.5773 0.5774
vn -0.5773 -0.5774 0.5774
vn -0.5773 0.5774 0.5774
vn -0.5773 -0.5773 -0.5774
vn -0.7071 -0.7071 -0.0000
vn -0.7071 0.7071 0.0000
vn -0.5772 0.5777 0.5772
vn -0.5774 -0.5773 -0.5773
vn 0.5774 -0.5774 0.5773
vn 0.5774 0.5773 -0.5774
vn -0.7071 0.0000 0.7071
vn 0.0000 -0.7071 0.7071
vn 0.7071 0.0000 0.7071
vn 0.0000 0.7071 0.7071
vn -0.7071 0.7072 0.0000
vn 0.7072 0.0000 0.7070
vn 0.7070 0.0000 0.7072
vn -0.7070 0.0000 0.7072
vn -0.7072 0.0000 0.7070
vn -0.7072 -0.7071 -0.0000
vn 0.7071 0.7071 0.0000
vn 0.5774 0.5774 -0.5774
vn -0.5774 0.5774 -0.5774
vn 0.7071 -0.7071 -0.0000
vn 0.5774 -0.5774 -0.5774
vn -0.5774 -0.5774 -0.5774
vn -0.5774 0.5774 0.5774
vn 0.5774 0.5774 0.5774
vn 0.5774 -0.5774 0.5774
vn -0.5774 -0.5774 0.5774
s 1
f 1/1/1 3/2/1 2/3/1
f 1/1/1 4/4/1 3/2/1
f 5/5/2 7/6/2 6/7/2
f 5/5/2 8/8/2 7/6/2
f 9/9/3 11/10/3 10/11/3
f 9/9/3 12/12/3 11/10/3
f 13/13/3 14/14/3 15/15/3
f 13/13/3 15/15/3 16/16/3
f 17/17/2 18/18/2 19/19/2
f 17/17/2 19/19/2 20/20/2
f 21/21/3 23/22/3 22/23/3
f 21/21/3 24/24/3 23/22/3
f 25/25/3 26/26/3 27/27/3
f 25/25/3 27/27/3 28/28/3
f 29/29/1 30/30/1 31/31/1
f 29/29/1 31/31/1 32/32/1
f 33/33/2 35/34/2 34/35/2
f 33/33/2 36/36/2 35/34/2
f 37/37/4 39/38/4 38/39/4
f 40/40/5 42/41/5 41/42/5
f 43/43/6 45/44/6 44/45/6
f 46/46/7 47/47/7 48/48/7
f 49/49/8 51/50/8 50/51/8
f 49/49/8 52/52/8 51/50/8
f 53/53/9 54/54/9 55/55/9
f 53/53/9 55/55/9 56/56/9
f 57/57/10 58/58/10 59/59/10
f 60/60/11 62/61/11 61/62/11
f 63/63/12 64/64/12 65/65/12
f 66/66/13 68/67/13 67/68/13
f 69/69/8 70/70/8 71/71/8
f 69/69/8 71/71/8 72/72/8
f 73/73/9 75/74/9 74/75/9
f 73/73/9 76/76/9 75/74/9
f 77/77/2 78/78/2 18/18/2
f 77/77/2 18/18/2 17/17/2
f 24/24/3 11/10/3 23/22/3
f 24/24/3 10/11/3 11/10/3
f 52/52/8 80/79/8 79/80/8
f 52/52/8 49/49/8 80/79/8
f 55/55/9 81/81/9 82/82/9
f 55/55/9 82/82/9 56/56/9
f 15/15/3 14/14/3 28/28/3
f 15/15/3 28/28/3 27/27/3
f 83/83/14 85/84/14 84/85/14
f 83/83/14 86/86/14 85/84/14
f 87/87/15 89/88/15 88/89/15
f 87/87/15 90/90/15 89/88/15
f 91/91/16 93/92/16 92/93/16
f 91/91/16 94/94/16 93/92/16
f 95/95/17 97/96/17 96/97/17
f 95/95/17 98/98/17 97/96/17
f 99/99/8 72/72/8 71/71/8
f 99/99/8 71/71/8 100/100/8
f 101/101/9 76/76/9 73/73/9
f 101/101/9 102/102/9 76/76/9
f 8/8/2 35/34/2 7/6/2
f 8/8/2 34/35/2 35/34/2
f 50/51/8 104/103/8 103/104/8
f 50/51/8 51/50/8 104/103/8
f 53/53/9 105/105/18 106/106/18
f 53/53/9 106/106/18 54/54/9
f 107/107/19 108/108/20 109/109/20
f 107/107/19 109/109/20 110/110/19
f 111/111/17 112/112/17 113/113/17
f 111/111/17 113/113/17 114/114/17
f 115/115/21 116/116/22 117/117/22
f 115/115/21 117/117/22 118/118/21
f 119/119/15 120/120/15 121/121/15
f 119/119/15 121/121/15 122/122/15
f 123/123/23 70/70/8 69/69/8
f 123/123/23 69/69/8 124/124/23
f 125/125/9 74/75/9 75/74/9
f 125/125/9 126/126/9 74/75/9
f 77/77/2 127/127/2 128/128/2
f 77/77/2 128/128/2 78/78/2
f 129/129/24 130/130/25 131/131/26
f 129/129/24 131/131/26 132/132/9
f 130/130/25 129/129/24 133/133/27
f 130/130/25 133/133/27 134/134/28
f 135/135/29 136/136/8 132/132/9
f 135/135/29 132/132/9 131/131/26
f 134/134/28 135/135/29 131/131/26
f 134/134/28 131/131/26 130/130/25
f 135/135/29 134/134/28 133/133/27
f 135/135/29 133/133/27 136/136/8
f 129/129/24 132/132/9 137/137/30
f 129/129/24 137/137/30 138/138/31
f 138/138/31 139/139/32 133/133/27
f 138/138/31 133/133/27 129/129/24
f 140/140/33 137/137/30 132/132/9
f 140/140/33 132/132/9 136/136/8
f 139/139/32 138/138/31 137/137/30
f 139/139/32 137/137/30 140/140/33
f 140/140/33 136/136/8 133/133/27
f 140/140/33 133/133/27 139/139/32
