# Blender v2.82 (sub 7) OBJ File: 'living_room.blend'
# www.blender.org
o Drawer
v -2.111120 1.176100 1.344080
v -2.111120 1.205600 1.344080
v -2.123080 0.737852 1.351230
v -2.123080 0.736555 1.351230
v -2.121420 0.734891 1.351230
v -2.121420 0.521996 1.351230
v -2.123080 0.521996 1.349560
v -2.121420 0.517371 1.351230
v -2.123080 0.517371 1.349560
v -2.121420 0.299851 1.351230
v -2.121420 0.086957 1.351230
v -2.123080 0.086957 1.349560
v -2.138250 0.085293 2.125810
v -2.123080 0.299851 1.349560
v -2.143740 0.076809 1.371010
v -2.145410 0.028737 2.106020
v -2.143740 0.030401 1.371010
v -2.142260 0.030830 1.351340
v -2.143920 0.030830 1.349670
v -2.142260 0.030830 1.367030
v -2.143920 1.174570 1.368690
v -2.121420 0.958068 1.741110
v -2.123080 0.956404 1.735920
v -2.121420 0.958068 1.735920
v -2.121420 0.734891 2.125810
v -2.138250 0.521996 2.127470
v -2.412440 0.030829 2.127310
v -2.143920 0.030830 2.127310
v -2.121420 0.299851 2.125810
v -2.121420 0.086957 2.125810
v -2.123080 0.086957 2.127470
v -2.138250 0.086957 2.127470
v -2.143740 0.030401 2.106020
v -2.412440 0.029165 2.125640
v -2.143920 0.030830 2.108290
v -2.121420 0.304476 2.125810
v -2.123080 0.304476 2.127470
v -2.138250 0.304476 2.127470
v -2.123080 0.299851 2.127470
v -2.138250 0.299851 2.127470
v -2.121420 1.171230 2.125930
v -2.121420 0.958068 2.125930
v -2.121420 0.952410 2.125810
v -2.121420 0.739516 2.125810
v -2.123080 0.739516 2.127470
v -2.138250 0.739516 2.127470
v -2.416680 1.176100 2.132950
v -2.416680 1.177770 2.134610
v -2.111120 1.205600 2.132950
v -2.416680 1.203940 2.134610
v -2.143920 1.174570 2.108290
v -2.111120 1.176100 2.132950
v -2.109460 1.177770 1.344080
v -2.109460 1.203940 1.344080
v -2.111120 1.203940 1.342420
v -2.111120 1.177770 1.342420
v -2.111120 1.177770 2.134610
v -2.111120 1.203940 2.134610
v -2.109460 1.203940 2.132950
v -2.109460 1.177770 2.132950
v -2.123080 0.521996 2.127470
v -2.121420 0.521996 2.125810
v -2.121420 0.517371 2.125810
v -2.123080 0.517371 2.127470
v -2.121420 0.304476 1.351230
v -2.121420 0.739516 1.351230
v -2.121420 0.952410 1.351230
v -2.123080 0.954074 1.351230
v -2.123080 0.952410 2.127470
v -2.123080 0.734891 2.127470
v -2.138250 0.734891 2.127470
v -2.123080 0.304476 1.349560
v -2.412440 1.174570 2.127310
v -2.142260 0.030830 2.125640
v -2.142260 0.030830 2.109950
v -2.142260 1.174570 2.109950
v -2.143920 1.176240 1.351340
v -2.142260 1.174570 1.351340
v -2.142260 1.174570 1.367030
v -2.121420 1.171230 1.741110
v -2.123080 0.958068 1.739450
v -2.138250 0.956404 1.741110
v -2.123080 0.956404 1.741110
v -2.123080 0.956404 2.125930
v -2.123080 0.958068 2.127590
v -2.123080 1.172900 1.741110
v -2.123080 1.171230 2.127590
v -2.121420 1.171230 1.735920
v -2.121420 1.171230 1.351110
v -2.121420 0.958068 1.351110
v -2.123080 0.956404 1.351110
v -2.138250 0.956404 1.351110
v -2.123080 1.172900 1.735920
v -2.123080 1.172900 1.351110
v -2.418350 1.177770 2.132950
v -2.416680 1.177770 2.134610
v -2.416680 1.176100 2.132950
v -2.111120 1.203940 1.342420
v -2.109460 1.203940 1.344080
v -2.111120 1.205600 1.344080
v -2.109460 1.203940 2.132950
v -2.111120 1.203940 2.134610
v -2.111120 1.205600 2.132950
v -2.418350 1.177770 2.132950
v -2.418350 1.203940 2.132950
v -2.416680 1.203940 2.134610
v -2.416680 1.177770 2.134610
v -2.138250 0.737852 1.351230
v -2.138250 0.739516 1.349560
v -2.139910 0.739516 1.351230
v -2.121420 0.734891 2.125810
v -2.123080 0.734891 2.127470
v -2.123080 0.736555 2.125810
v -2.138250 0.517371 1.349560
v -2.138250 0.519035 1.351230
v -2.139910 0.517371 1.351230
v -2.138250 0.302812 1.351230
v -2.138250 0.304476 1.349560
v -2.139910 0.304476 1.351230
v -2.121420 0.299851 2.125810
v -2.123080 0.299851 2.127470
v -2.123080 0.301515 2.125810
v -2.123080 0.085293 2.125810
v -2.123080 0.086957 2.127470
v -2.121420 0.086957 2.125810
v -2.138250 0.085293 2.125810
v -2.139910 0.086957 2.125810
v -2.138250 0.086957 2.127470
v -2.138250 0.085293 1.351230
v -2.138250 0.086957 1.349560
v -2.139910 0.086957 1.351230
v -2.123080 0.520332 2.125810
v -2.138250 0.520332 2.125810
v -2.138250 0.521996 2.127470
v -2.123080 0.521996 2.127470
v -2.123080 0.736555 1.351230
v -2.138250 0.736555 1.351230
v -2.138250 0.734891 1.349560
v -2.123080 0.734891 1.349560
v -2.123080 0.302812 2.125810
v -2.138250 0.302812 2.125810
v -2.138250 0.304476 2.127470
v -2.123080 0.304476 2.127470
v -2.123080 0.519035 1.351230
v -2.138250 0.519035 1.351230
v -2.138250 0.517371 1.349560
v -2.123080 0.517371 1.349560
v -2.123080 0.085293 2.125810
v -2.138250 0.085293 2.125810
v -2.138250 0.086957 2.127470
v -2.123080 0.086957 2.127470
v -2.162770 0.030401 1.371010
v -2.161100 0.028737 1.371010
v -2.161100 0.030401 1.369350
v -2.145410 0.078473 2.106020
v -2.143740 0.076809 2.106020
v -2.145410 0.076809 2.107680
v -2.162770 0.030401 2.106020
v -2.162770 0.076809 2.106020
v -2.161100 0.076809 2.107680
v -2.161100 0.030401 2.107680
v -2.161100 0.030401 2.107680
v -2.145410 0.030401 2.107680
v -2.145410 0.028737 2.106020
v -2.161100 0.028737 2.106020
v -2.143920 1.174570 2.127310
v -2.143920 1.176240 2.125640
v -2.142260 1.174570 2.125640
v -2.414100 1.174570 2.125640
v -2.414100 1.174570 2.109950
v -2.412440 1.176240 2.109950
v -2.412440 1.176240 2.125640
v -2.143920 1.174570 1.349670
v -2.142260 1.174570 1.351340
v -2.143920 1.176240 1.351340
v -2.142260 1.174570 1.367030
v -2.143920 1.174570 1.368690
v -2.143920 1.176240 1.367030
v -2.142260 0.030830 1.351340
v -2.143920 0.029166 1.351340
v -2.143920 0.029166 1.367030
v -2.142260 0.030830 1.367030
v -2.123080 0.956404 2.125930
v -2.123080 0.958068 2.127590
v -2.121420 0.958068 2.125930
v -2.138250 1.171230 1.739450
v -2.138250 1.172900 1.741110
v -2.139910 1.171230 1.741110
v -2.138250 0.956404 1.351110
v -2.138250 0.958068 1.349440
v -2.139910 0.958068 1.351110
v -2.138250 1.172900 1.351110
v -2.139910 1.171230 1.351110
v -2.138250 1.171230 1.349440
v -2.123080 0.958068 1.737590
v -2.123080 0.956404 1.735920
v -2.138250 0.956404 1.735920
v -2.138250 0.958068 1.737590
v -2.109460 1.177770 1.344080
v -2.111120 1.176100 1.344080
v -2.111120 1.177770 1.342420
v -2.111120 1.203940 1.342420
v -2.109460 1.203940 1.344080
v -2.109460 1.203940 2.132950
v -2.111120 1.205600 1.344080
v -2.121420 0.734891 1.351230
v -2.121420 0.521996 1.351230
v -2.123080 0.521996 1.349560
v -2.121420 0.517371 1.351230
v -2.123080 0.517371 1.349560
v -2.121420 0.299851 1.351230
v -2.121420 0.086957 2.125810
v -2.121420 0.086957 1.351230
v -2.123080 0.086957 1.349560
v -2.123080 0.085293 1.351230
v -2.143740 0.030401 1.371010
v -2.142260 0.030830 1.351340
v -2.142260 0.030830 1.367030
v -2.123080 0.956404 1.741110
v -2.121420 0.958068 1.741110
v -2.121420 0.958068 1.735920
v -2.121420 0.734891 2.125810
v -2.138250 0.521996 2.127470
v -2.121420 0.299851 2.125810
v -2.123080 0.086957 2.127470
v -2.138250 0.086957 2.127470
v -2.143740 0.030401 2.106020
v -2.143920 0.030830 2.108290
v -2.121420 0.304476 2.125810
v -2.123080 0.304476 2.127470
v -2.138250 0.517371 2.127470
v -2.138250 0.304476 2.127470
v -2.138250 0.299851 2.127470
v -2.121420 1.171230 2.125930
v -2.121420 0.958068 2.125930
v -2.121420 0.952410 2.125810
v -2.121420 0.739516 2.125810
v -2.123080 0.739516 2.127470
v -2.416680 1.205600 2.132950
v -2.111120 1.205600 2.132950
v -2.111120 1.203940 2.134610
v -2.416680 1.203940 2.134610
v -2.111120 1.176100 2.132950
v -2.111120 1.177770 2.134610
v -2.109460 1.177770 2.132950
v -2.416680 1.203940 1.342420
v -2.416680 1.205600 1.344080
v -2.123080 0.521996 2.127470
v -2.121420 0.521996 2.125810
v -2.121420 0.517371 2.125810
v -2.121420 0.304476 1.351230
v -2.121420 0.739516 1.351230
v -2.121420 0.952410 1.351230
v -2.123080 0.739516 1.349560
v -2.123080 0.954074 1.351230
v -2.123080 0.952410 2.127470
v -2.123080 0.734891 2.127470
v -2.138250 0.734891 2.127470
v -2.145410 0.028737 1.371010
v -2.121420 1.171230 1.741110
v -2.123080 0.956404 2.125930
v -2.138250 0.958068 2.127590
v -2.123080 0.958068 2.127590
v -2.123080 1.172900 1.741110
v -2.123080 1.171230 1.739450
v -2.123080 1.171230 2.127590
v -2.123080 1.172900 2.125930
v -2.121420 1.171230 1.735920
v -2.121420 1.171230 1.351110
v -2.121420 0.958068 1.351110
v -2.123080 0.956404 1.351110
v -2.123080 1.172900 1.735920
v -2.123080 1.171230 1.349440
v -2.109460 1.177770 2.132950
v -2.109460 1.177770 1.344080
v -2.111120 1.176100 1.344080
v -2.111120 1.177770 1.342420
v -2.416680 1.205600 2.132950
v -2.111120 1.203940 1.342420
v -2.109460 1.203940 1.344080
v -2.109460 1.203940 2.132950
v -2.111120 1.205600 2.132950
v -2.111120 1.205600 1.344080
v -2.121420 0.734891 1.351230
v -2.121420 0.521996 1.351230
v -2.123080 0.521996 1.349560
v -2.121420 0.517371 1.351230
v -2.123080 0.517371 1.349560
v -2.121420 0.299851 1.351230
v -2.121420 0.086957 2.125810
v -2.121420 0.086957 1.351230
v -2.123080 0.086957 1.349560
v -2.123080 0.085293 1.351230
v -2.143740 0.030401 1.371010
v -2.142260 0.030830 1.351340
v -2.142260 0.030830 1.367030
v -2.123080 0.956404 1.741110
v -2.121420 0.958068 1.741110
v -2.121420 0.958068 1.735920
v -2.121420 0.734891 2.125810
v -2.138250 0.521996 2.127470
v -2.142260 0.030830 2.109950
v -2.121420 0.299851 2.125810
v -2.123080 0.086957 2.127470
v -2.138250 0.086957 2.127470
v -2.143740 0.030401 2.106020
v -2.143920 0.030830 2.108290
v -2.121420 0.304476 2.125810
v -2.123080 0.304476 2.127470
v -2.138250 0.517371 2.127470
v -2.138250 0.304476 2.127470
v -2.138250 0.299851 2.127470
v -2.416680 1.203940 2.134610
v -2.111120 1.203940 2.134610
v -2.121420 1.171230 2.125930
v -2.121420 0.958068 2.125930
v -2.123080 0.958068 2.127590
v -2.121420 0.952410 2.125810
v -2.121420 0.739516 2.125810
v -2.123080 0.739516 2.127470
v -2.111120 1.176100 2.132950
v -2.111120 1.177770 2.134610
v -2.416680 1.203940 1.342420
v -2.416680 1.205600 1.344080
v -2.123080 0.521996 2.127470
v -2.121420 0.521996 2.125810
v -2.121420 0.517371 2.125810
v -2.121420 0.304476 1.351230
v -2.121420 0.739516 1.351230
v -2.121420 0.952410 1.351230
v -2.123080 0.739516 1.349560
v -2.123080 0.954074 1.351230
v -2.123080 0.952410 2.127470
v -2.123080 0.734891 2.127470
v -2.138250 0.734891 2.127470
v -2.145410 0.028737 1.371010
v -2.142260 0.030830 2.125640
v -2.143920 0.029166 2.109950
v -2.121420 1.171230 1.741110
v -2.123080 0.956404 2.125930
v -2.138250 0.958068 2.127590
v -2.123080 1.172900 1.741110
v -2.123080 1.171230 1.739450
v -2.123080 1.171230 2.127590
v -2.123080 1.172900 2.125930
v -2.121420 1.171230 1.735920
v -2.121420 1.171230 1.351110
v -2.121420 0.958068 1.351110
v -2.123080 0.956404 1.351110
v -2.123080 1.172900 1.735920
v -2.123080 1.171230 1.349440
v -2.109460 1.203940 2.132950
v -2.109460 1.203940 1.344080
v -2.111120 1.205600 2.132950
v -2.109460 1.177770 2.132950
v -2.109460 1.177770 1.344080
v -2.111120 1.176100 1.344080
v -2.111120 1.177770 1.342420
v -2.416680 1.205600 2.132950
v -2.111120 1.205600 1.344080
v -2.111120 1.203940 1.342420
v -2.123080 0.956404 1.741110
v -2.121420 0.958068 1.741110
v -2.121420 0.958068 1.735920
v -2.416680 1.203940 2.134610
v -2.111120 1.203940 2.134610
v -2.121420 1.171230 2.125930
v -2.121420 0.958068 2.125930
v -2.123080 0.958068 2.127590
v -2.121420 0.952410 2.125810
v -2.111120 1.176100 2.132950
v -2.111120 1.177770 2.134610
v -2.416680 1.203940 1.342420
v -2.416680 1.205600 1.344080
v -2.121420 0.952410 1.351230
v -2.123080 0.954074 1.351230
v -2.123080 0.952410 2.127470
v -2.121420 1.171230 1.741110
v -2.123080 0.956404 2.125930
v -2.138250 0.958068 2.127590
v -2.123080 1.172900 1.741110
v -2.123080 1.171230 1.739450
v -2.123080 1.171230 2.127590
v -2.123080 1.172900 2.125930
v -2.121420 1.171230 1.735920
v -2.121420 1.171230 1.351110
v -2.121420 0.958068 1.351110
v -2.123080 0.956404 1.351110
v -2.123080 1.172900 1.735920
v -2.123080 1.171230 1.349440
v -2.121420 1.171230 1.351110
v -2.121420 0.958068 1.351110
v -2.121420 0.958068 1.735920
v -2.121420 1.171230 1.735920
v -2.109460 1.177770 1.344080
v -2.109460 1.177770 2.132950
v -2.109460 1.203940 2.132950
v -2.109460 1.203940 1.344080
v -2.416680 1.205600 1.344080
v -2.111120 1.205600 1.344080
v -2.111120 1.205600 2.132950
v -2.416680 1.205600 2.132950
v -2.416680 1.177770 1.342420
v -2.111120 1.177770 1.342420
v -2.111120 1.203940 1.342420
v -2.416680 1.203940 1.342420
v -2.111120 1.176100 2.132950
v -2.111120 1.176100 1.344080
v -2.416680 1.176100 1.344080
v -2.416680 1.176100 2.132950
v -2.109460 1.177770 2.132950
v -2.109460 1.177770 1.344080
v -2.111120 1.176100 1.344080
v -2.111120 1.176100 2.132950
v -2.416680 1.176100 1.344080
v -2.111120 1.176100 1.344080
v -2.111120 1.177770 1.342420
v -2.416680 1.177770 1.342420
v -2.111120 1.205600 1.344080
v -2.416680 1.205600 1.344080
v -2.416680 1.203940 1.342420
v -2.111120 1.203940 1.342420
v -2.123080 0.954074 1.351230
v -2.123080 0.954074 2.125810
v -2.138250 0.954074 2.125810
v -2.138250 0.954074 1.351230
v -2.121420 0.952410 2.125810
v -2.121420 0.952410 1.351230
v -2.121420 0.739516 1.351230
v -2.121420 0.739516 2.125810
v -2.123080 0.736555 1.351230
v -2.123080 0.736555 2.125810
v -2.138250 0.736555 2.125810
v -2.138250 0.736555 1.351230
v -2.121420 0.734891 2.125810
v -2.121420 0.734891 1.351230
v -2.121420 0.521996 1.351230
v -2.121420 0.521996 2.125810
v -2.123080 0.954074 2.125810
v -2.123080 0.954074 1.351230
v -2.121420 0.952410 1.351230
v -2.121420 0.952410 2.125810
v -2.123080 0.737852 1.351230
v -2.123080 0.737852 2.125810
v -2.121420 0.739516 2.125810
v -2.121420 0.739516 1.351230
v -2.123080 0.736555 2.125810
v -2.123080 0.736555 1.351230
v -2.121420 0.734891 1.351230
v -2.121420 0.734891 2.125810
v -2.121420 0.521996 1.351230
v -2.121420 0.734891 1.351230
v -2.123080 0.734891 1.349560
v -2.123080 0.521996 1.349560
v -2.412440 1.174570 1.368690
v -2.143920 1.176240 1.367030
v -2.143920 1.174570 1.368690
v -2.143920 1.176240 1.351340
v -2.143920 1.176240 1.367030
v -2.412440 1.176240 1.367030
v -2.412440 1.176240 1.351340
v -2.123080 1.172900 1.741110
v -2.123080 1.172900 2.125930
v -2.138250 1.172900 2.125930
v -2.138250 1.172900 1.741110
v -2.123080 0.958068 1.739450
v -2.123080 1.171230 1.739450
v -2.138250 1.171230 1.739450
v -2.121420 1.171230 2.125930
v -2.121420 1.171230 1.741110
v -2.121420 0.958068 1.741110
v -2.121420 0.958068 2.125930
v -2.123080 1.172900 2.125930
v -2.123080 1.172900 1.741110
v -2.121420 1.171230 1.741110
v -2.121420 1.171230 2.125930
v -2.121420 0.958068 1.741110
v -2.121420 1.171230 1.741110
v -2.123080 1.171230 1.739450
v -2.123080 0.958068 1.739450
v -2.123080 0.956404 1.741110
v -2.123080 0.956404 2.125930
v -2.121420 0.958068 2.125930
v -2.121420 0.958068 1.741110
v -2.123080 1.172900 1.735920
v -2.138250 1.172900 1.735920
v -2.138250 1.172900 1.351110
v -2.123080 1.172900 1.351110
v -2.123080 0.958068 1.737590
v -2.138250 0.958068 1.737590
v -2.138250 1.171230 1.737590
v -2.123080 1.171230 1.737590
v -2.123080 1.172900 1.351110
v -2.121420 1.171230 1.351110
v -2.121420 1.171230 1.735920
v -2.123080 1.172900 1.735920
v -2.121420 0.958068 1.735920
v -2.123080 0.958068 1.737590
v -2.123080 1.171230 1.737590
v -2.121420 1.171230 1.735920
v -2.123080 0.956404 1.735920
v -2.121420 0.958068 1.735920
v -2.121420 0.958068 1.351110
v -2.123080 0.956404 1.351110
v -2.123080 0.734891 2.127470
v -2.138250 0.521996 2.127470
v -2.138250 0.734891 2.127470
v -2.121420 0.734891 2.125810
v -2.121420 0.521996 2.125810
v -2.123080 0.521996 2.127470
v -2.123080 0.734891 2.127470
v -2.139910 0.521996 2.125810
v -2.139910 0.734891 2.125810
v -2.138250 0.734891 2.127470
v -2.142260 1.174570 2.125640
v -2.143920 0.030830 2.127310
v -2.143920 1.174570 2.127310
v -2.111120 1.177770 2.134610
v -2.416680 1.177770 2.134610
v -2.416680 1.203940 2.134610
v -2.111120 1.203940 2.134610
v -2.143920 1.176240 2.125640
v -2.412440 1.176240 2.125640
v -2.412440 1.176240 2.109950
v -2.143920 1.176240 2.109950
v -2.121420 1.171230 2.125930
v -2.121420 0.958068 2.125930
v -2.123080 0.958068 2.127590
v -2.123080 1.171230 2.127590
v -2.139910 0.958068 2.125930
v -2.139910 1.171230 2.125930
v -2.138250 1.171230 2.127590
v -2.123080 1.171230 2.127590
v -2.123080 0.958068 2.127590
v -2.138250 0.958068 2.127590
v -2.138250 1.171230 2.127590
v -2.121420 0.952410 2.125810
v -2.121420 0.739516 2.125810
v -2.123080 0.739516 2.127470
v -2.123080 0.952410 2.127470
v -2.139910 0.739516 2.125810
v -2.139910 0.952410 2.125810
v -2.138250 0.952410 2.127470
v -2.123080 0.952410 2.127470
v -2.123080 0.739516 2.127470
v -2.138250 0.739516 2.127470
v -2.138250 0.952410 2.127470
v -2.111120 1.176100 2.132950
v -2.416680 1.177770 2.134610
v -2.111120 1.177770 2.134610
v -2.143920 1.174570 2.127310
v -2.412440 1.176240 2.125640
v -2.143920 1.176240 2.125640
v -2.412440 1.174570 2.108290
v -2.143920 1.176240 2.109950
v -2.412440 1.176240 2.109950
v -2.121420 0.739516 1.351230
v -2.121420 0.952410 1.351230
v -2.123080 0.952410 1.349560
v -2.123080 0.739516 1.349560
v -2.123080 0.954074 1.351230
v -2.138250 0.952410 1.349560
v -2.123080 0.952410 1.349560
v -2.123080 0.952410 2.127470
v -2.138250 0.952410 2.127470
v -2.138250 0.954074 2.125810
v -2.123080 0.954074 2.125810
v -2.123080 0.734891 2.127470
v -2.138250 0.734891 2.127470
v -2.138250 0.736555 2.125810
v -2.123080 0.736555 2.125810
v -2.121420 1.171230 1.741110
v -2.123080 1.172900 1.741110
v -2.123080 1.171230 1.739450
v -2.123080 1.171230 2.127590
v -2.138250 1.172900 2.125930
v -2.123080 1.172900 2.125930
v -2.121420 1.171230 1.735920
v -2.123080 1.171230 1.737590
v -2.123080 1.172900 1.735920
v -2.121420 1.171230 1.351110
v -2.123080 1.171230 1.349440
v -2.123080 0.958068 1.349440
v -2.121420 0.958068 1.351110
v -2.139910 0.521996 1.351230
v -2.139910 0.734891 2.125810
v -2.139910 0.521996 2.125810
v -2.123080 0.520332 2.125810
v -2.123080 0.520332 1.351230
v -2.138250 0.520332 1.351230
v -2.138250 0.520332 2.125810
v -2.123080 0.519035 1.351230
v -2.123080 0.519035 2.125810
v -2.138250 0.519035 2.125810
v -2.121420 0.517371 2.125810
v -2.121420 0.517371 1.351230
v -2.121420 0.304476 1.351230
v -2.121420 0.304476 2.125810
v -2.123080 0.301515 1.351230
v -2.123080 0.301515 2.125810
v -2.138250 0.301515 2.125810
v -2.138250 0.301515 1.351230
v -2.121420 0.299851 2.125810
v -2.121420 0.299851 1.351230
v -2.121420 0.086957 1.351230
v -2.121420 0.086957 2.125810
v -2.123080 0.520332 1.351230
v -2.123080 0.520332 2.125810
v -2.121420 0.521996 2.125810
v -2.121420 0.521996 1.351230
v -2.138250 0.520332 2.125810
v -2.138250 0.520332 1.351230
v -2.139910 0.521996 1.351230
v -2.139910 0.521996 2.125810
v -2.123080 0.519035 2.125810
v -2.123080 0.519035 1.351230
v -2.121420 0.517371 1.351230
v -2.121420 0.517371 2.125810
v -2.121420 0.304476 1.351230
v -2.121420 0.517371 1.351230
v -2.123080 0.517371 1.349560
v -2.123080 0.304476 1.349560
v -2.123080 0.302812 1.351230
v -2.123080 0.302812 2.125810
v -2.121420 0.304476 2.125810
v -2.121420 0.304476 1.351230
v -2.123080 0.301515 2.125810
v -2.123080 0.301515 1.351230
v -2.121420 0.299851 1.351230
v -2.121420 0.299851 2.125810
v -2.121420 0.086957 1.351230
v -2.121420 0.299851 1.351230
v -2.123080 0.299851 1.349560
v -2.123080 0.086957 1.349560
v -2.123080 0.085293 1.351230
v -2.123080 0.085293 2.125810
v -2.121420 0.086957 2.125810
v -2.121420 0.086957 1.351230
v -2.143740 0.076809 1.371010
v -2.143740 0.030401 1.371010
v -2.143740 0.030401 2.106020
v -2.143740 0.076809 2.106020
v -2.143740 0.030401 1.371010
v -2.143740 0.076809 1.371010
v -2.145410 0.076809 1.369350
v -2.145410 0.030401 1.369350
v -2.145410 0.028737 1.371010
v -2.145410 0.028737 2.106020
v -2.143740 0.030401 2.106020
v -2.143740 0.030401 1.371010
v -2.142260 0.030830 1.351340
v -2.142260 0.030830 1.367030
v -2.142260 1.174570 1.367030
v -2.142260 1.174570 1.351340
v -2.143920 0.030830 1.349670
v -2.142260 0.030830 1.351340
v -2.142260 0.030830 1.367030
v -2.143920 0.030830 1.368690
v -2.143920 1.174570 1.368690
v -2.123080 0.734891 2.127470
v -2.123080 0.521996 2.127470
v -2.138250 0.521996 2.127470
v -2.139910 0.521996 2.125810
v -2.138250 0.734891 2.127470
v -2.138250 0.521996 2.127470
v -2.142260 0.030830 2.125640
v -2.142260 1.174570 2.125640
v -2.142260 1.174570 2.109950
v -2.142260 0.030830 2.109950
v -2.412440 0.030829 2.108290
v -2.143920 0.030830 2.108290
v -2.143920 1.174570 2.108290
v -2.142260 1.174570 2.125640
v -2.142260 0.030830 2.125640
v -2.143920 0.030830 2.127310
v -2.142260 0.030830 2.109950
v -2.143920 1.174570 2.108290
v -2.143920 0.030830 2.108290
v -2.123080 0.299851 2.127470
v -2.123080 0.086957 2.127470
v -2.138250 0.086957 2.127470
v -2.138250 0.299851 2.127470
v -2.121420 0.299851 2.125810
v -2.123080 0.086957 2.127470
v -2.123080 0.299851 2.127470
v -2.139910 0.086957 2.125810
v -2.139910 0.299851 2.125810
v -2.138250 0.299851 2.127470
v -2.138250 0.086957 2.127470
v -2.143740 0.076809 2.106020
v -2.143740 0.030401 2.106020
v -2.145410 0.030401 2.107680
v -2.145410 0.076809 2.107680
v -2.161100 0.030401 2.107680
v -2.145410 0.076809 2.107680
v -2.145410 0.030401 2.107680
v -2.123080 0.517371 2.127470
v -2.123080 0.304476 2.127470
v -2.138250 0.304476 2.127470
v -2.138250 0.517371 2.127470
v -2.121420 0.517371 2.125810
v -2.121420 0.304476 2.125810
v -2.123080 0.304476 2.127470
v -2.123080 0.517371 2.127470
v -2.123080 0.517371 2.127470
v -2.138250 0.517371 2.127470
v -2.138250 0.519035 2.125810
v -2.123080 0.299851 2.127470
v -2.138250 0.301515 2.125810
v -2.123080 0.301515 2.125810
v -2.123080 0.520332 2.125810
v -2.123080 0.521996 2.127470
v -2.121420 0.521996 2.125810
v -2.121420 0.517371 2.125810
v -2.123080 0.517371 2.127470
v -2.123080 0.519035 2.125810
v -2.121420 0.304476 1.351230
v -2.123080 0.304476 1.349560
v -2.123080 0.302812 1.351230
v -2.142260 0.030830 2.125640
v -2.143920 0.029166 2.109950
v -2.143920 0.029166 2.125640
v -2.418350 1.177770 2.132950
v -2.418350 1.177770 1.344080
v -2.418350 1.203940 1.344080
v -2.418350 1.203940 2.132950
v -2.418350 1.177770 1.344080
v -2.418350 1.177770 2.132950
v -2.416680 1.176100 2.132950
v -2.416680 1.176100 1.344080
v -2.416680 1.177770 1.342420
v -2.416680 1.203940 1.342420
v -2.418350 1.203940 1.344080
v -2.418350 1.177770 1.344080
v -2.418350 1.203940 2.132950
v -2.418350 1.203940 1.344080
v -2.416680 1.205600 1.344080
v -2.416680 1.205600 2.132950
v -2.139910 0.739516 1.351230
v -2.139910 0.952410 1.351230
v -2.139910 0.952410 2.125810
v -2.139910 0.739516 2.125810
v -2.123080 0.739516 1.349560
v -2.123080 0.952410 1.349560
v -2.138250 0.952410 1.349560
v -2.138250 0.739516 1.349560
v -2.139910 0.521996 1.351230
v -2.139910 0.734891 1.351230
v -2.139910 0.734891 2.125810
v -2.123080 0.521996 1.349560
v -2.123080 0.734891 1.349560
v -2.138250 0.734891 1.349560
v -2.138250 0.521996 1.349560
v -2.123080 0.519035 1.351230
v -2.138250 0.519035 2.125810
v -2.138250 0.519035 1.351230
v -2.139910 0.304476 1.351230
v -2.139910 0.517371 1.351230
v -2.139910 0.517371 2.125810
v -2.139910 0.304476 2.125810
v -2.123080 0.304476 1.349560
v -2.123080 0.517371 1.349560
v -2.138250 0.517371 1.349560
v -2.138250 0.304476 1.349560
v -2.139910 0.086957 1.351230
v -2.139910 0.299851 1.351230
v -2.139910 0.299851 2.125810
v -2.139910 0.086957 2.125810
v -2.123080 0.086957 1.349560
v -2.123080 0.299851 1.349560
v -2.138250 0.299851 1.349560
v -2.138250 0.086957 1.349560
v -2.138250 0.734891 1.349560
v -2.138250 0.736555 1.351230
v -2.139910 0.734891 1.351230
v -2.123080 0.739516 1.349560
v -2.138250 0.737852 1.351230
v -2.123080 0.737852 1.351230
v -2.138250 0.737852 2.125810
v -2.138250 0.737852 1.351230
v -2.139910 0.739516 1.351230
v -2.139910 0.739516 2.125810
v -2.139910 0.952410 1.351230
v -2.139910 0.739516 1.351230
v -2.138250 0.739516 1.349560
v -2.138250 0.952410 1.349560
v -2.138250 0.954074 1.351230
v -2.138250 0.954074 2.125810
v -2.139910 0.952410 2.125810
v -2.139910 0.952410 1.351230
v -2.123080 0.521996 1.349560
v -2.138250 0.521996 1.349560
v -2.138250 0.520332 1.351230
v -2.123080 0.520332 1.351230
v -2.139910 0.734891 1.351230
v -2.139910 0.521996 1.351230
v -2.138250 0.521996 1.349560
v -2.138250 0.734891 1.349560
v -2.138250 0.736555 1.351230
v -2.138250 0.736555 2.125810
v -2.139910 0.734891 2.125810
v -2.139910 0.734891 1.351230
v -2.138250 0.302812 2.125810
v -2.138250 0.302812 1.351230
v -2.139910 0.304476 1.351230
v -2.139910 0.304476 2.125810
v -2.139910 0.517371 1.351230
v -2.139910 0.304476 1.351230
v -2.138250 0.304476 1.349560
v -2.138250 0.517371 1.349560
v -2.138250 0.519035 1.351230
v -2.138250 0.519035 2.125810
v -2.139910 0.517371 2.125810
v -2.139910 0.517371 1.351230
v -2.123080 0.086957 1.349560
v -2.138250 0.086957 1.349560
v -2.138250 0.085293 1.351230
v -2.123080 0.085293 1.351230
v -2.138250 0.085293 2.125810
v -2.138250 0.085293 1.351230
v -2.139910 0.086957 1.351230
v -2.139910 0.086957 2.125810
v -2.139910 0.299851 1.351230
v -2.139910 0.086957 1.351230
v -2.138250 0.086957 1.349560
v -2.138250 0.299851 1.349560
v -2.138250 0.301515 1.351230
v -2.138250 0.301515 2.125810
v -2.139910 0.299851 2.125810
v -2.139910 0.299851 1.351230
v -2.161100 0.078473 2.106020
v -2.161100 0.078473 1.371010
v -2.145410 0.078473 1.371010
v -2.145410 0.078473 2.106020
v -2.162770 0.030401 2.106020
v -2.162770 0.030401 1.371010
v -2.162770 0.076809 1.371010
v -2.162770 0.076809 2.106020
v -2.161100 0.028737 2.106020
v -2.161100 0.028737 1.371010
v -2.162770 0.030401 1.371010
v -2.162770 0.030401 2.106020
v -2.161100 0.078473 1.371010
v -2.161100 0.078473 2.106020
v -2.162770 0.076809 2.106020
v -2.162770 0.076809 1.371010
v -2.145410 0.078473 2.106020
v -2.145410 0.078473 1.371010
v -2.143740 0.076809 1.371010
v -2.143740 0.076809 2.106020
v -2.142260 0.030830 1.351340
v -2.142260 1.174570 1.367030
v -2.142260 1.174570 1.351340
v -2.412440 0.030829 1.368690
v -2.412440 1.174570 1.368690
v -2.143920 1.174570 1.368690
v -2.143920 0.030830 1.368690
v -2.414100 1.174570 1.351340
v -2.414100 1.174570 1.367030
v -2.414100 0.030829 1.367030
v -2.414100 0.030829 1.351340
v -2.143920 1.174570 1.349670
v -2.412440 1.174570 1.349670
v -2.412440 0.030829 1.349670
v -2.143920 0.030830 1.349670
v -2.143920 1.174570 1.349670
v -2.143920 1.176240 1.351340
v -2.412440 1.176240 1.351340
v -2.412440 1.174570 1.349670
v -2.142260 1.174570 1.351340
v -2.143920 1.174570 1.349670
v -2.143920 0.030830 1.349670
v -2.412440 0.030829 1.349670
v -2.412440 0.029165 1.351340
v -2.143920 0.029166 1.351340
v -2.143920 0.030830 1.349670
v -2.414100 0.030829 1.351340
v -2.412440 0.030829 1.349670
v -2.412440 1.174570 1.349670
v -2.414100 1.174570 1.351340
v -2.412440 0.029165 1.351340
v -2.414100 0.030829 1.351340
v -2.414100 0.030829 1.367030
v -2.412440 0.029165 1.367030
v -2.414100 1.174570 1.367030
v -2.412440 1.174570 1.368690
v -2.412440 0.030829 1.368690
v -2.414100 0.030829 1.367030
v -2.414100 1.174570 1.351340
v -2.412440 1.176240 1.351340
v -2.412440 1.176240 1.367030
v -2.414100 1.174570 1.367030
v -2.142260 0.030830 1.367030
v -2.143920 1.174570 1.368690
v -2.142260 1.174570 1.367030
v -2.412440 1.174570 1.368690
v -2.412440 1.176240 1.367030
v -2.143920 1.176240 1.367030
v -2.139910 0.958068 1.741110
v -2.139910 1.171230 1.741110
v -2.139910 1.171230 2.125930
v -2.139910 0.958068 2.125930
v -2.123080 0.958068 1.739450
v -2.138250 1.171230 1.739450
v -2.138250 0.958068 1.739450
v -2.138250 0.956404 2.125930
v -2.138250 0.956404 1.741110
v -2.139910 0.958068 1.741110
v -2.139910 0.958068 2.125930
v -2.139910 1.171230 1.741110
v -2.139910 0.958068 1.741110
v -2.138250 0.958068 1.739450
v -2.138250 1.172900 1.741110
v -2.138250 1.172900 2.125930
v -2.139910 1.171230 2.125930
v -2.139910 1.171230 1.741110
v -2.139910 0.958068 1.735920
v -2.139910 0.958068 1.351110
v -2.139910 1.171230 1.351110
v -2.139910 1.171230 1.735920
v -2.138250 0.956404 1.351110
v -2.139910 0.958068 1.351110
v -2.139910 0.958068 1.735920
v -2.138250 0.956404 1.735920
v -2.139910 1.171230 1.735920
v -2.138250 0.958068 1.737590
v -2.139910 0.958068 1.735920
v -2.138250 1.172900 1.735920
v -2.139910 1.171230 1.735920
v -2.139910 1.171230 1.351110
v -2.138250 1.172900 1.351110
v -2.418350 1.203940 1.344080
v -2.416680 1.203940 1.342420
v -2.416680 1.205600 1.344080
v -2.138250 0.952410 1.349560
v -2.138250 0.954074 1.351230
v -2.139910 0.952410 1.351230
v -2.123080 0.954074 1.351230
v -2.138250 0.954074 1.351230
v -2.138250 0.952410 1.349560
v -2.123080 0.304476 1.349560
v -2.138250 0.304476 1.349560
v -2.138250 0.302812 1.351230
v -2.123080 0.302812 1.351230
v -2.412440 0.030829 1.349670
v -2.414100 0.030829 1.351340
v -2.412440 0.029165 1.351340
v -2.143920 1.176240 1.351340
v -2.142260 1.174570 1.367030
v -2.143920 1.176240 1.367030
v -2.123080 0.958068 1.739450
v -2.138250 0.958068 1.739450
v -2.138250 0.956404 1.741110
v -2.123080 1.172900 1.741110
v -2.138250 1.172900 1.741110
v -2.138250 1.171230 1.739450
v -2.138250 0.956404 1.735920
v -2.139910 0.958068 1.735920
v -2.138250 0.958068 1.737590
v -2.123080 0.956404 1.351110
v -2.123080 0.958068 1.349440
v -2.138250 0.958068 1.349440
v -2.138250 0.956404 1.351110
v -2.123080 1.172900 1.735920
v -2.123080 1.171230 1.737590
v -2.138250 1.171230 1.737590
v -2.138250 1.172900 1.735920
v -2.123080 1.171230 1.349440
v -2.123080 1.172900 1.351110
v -2.138250 1.172900 1.351110
v -2.138250 1.171230 1.349440
v -2.139910 0.958068 1.351110
v -2.138250 0.958068 1.349440
v -2.138250 1.171230 1.349440
v -2.139910 1.171230 1.351110
v -2.123080 1.171230 1.349440
v -2.138250 1.171230 1.349440
v -2.138250 0.958068 1.349440
v -2.123080 0.958068 1.349440
v -2.414100 1.174570 2.125640
v -2.414100 0.030829 2.125640
v -2.414100 0.030829 2.109950
v -2.412440 0.030829 2.127310
v -2.143920 0.030830 2.127310
v -2.143920 0.029166 2.125640
v -2.412440 0.029165 2.125640
v -2.412440 0.029165 2.125640
v -2.412440 0.029165 2.109950
v -2.414100 0.030829 2.109950
v -2.414100 0.030829 2.125640
v -2.412440 0.030829 2.108290
v -2.143920 1.174570 2.108290
v -2.412440 1.174570 2.108290
v -2.143920 1.174570 2.127310
v -2.143920 0.030830 2.127310
v -2.412440 0.030829 2.127310
v -2.412440 0.029165 2.125640
v -2.143920 0.029166 2.125640
v -2.143920 0.029166 2.109950
v -2.412440 0.029165 2.109950
v -2.143920 0.030830 2.108290
v -2.412440 0.030829 2.108290
v -2.412440 0.029165 2.109950
v -2.414100 0.030829 2.109950
v -2.412440 0.029165 2.109950
v -2.412440 0.030829 2.108290
v -2.418350 1.203940 2.132950
v -2.416680 1.205600 2.132950
v -2.416680 1.203940 2.134610
v -2.121420 0.952410 2.125810
v -2.123080 0.952410 2.127470
v -2.123080 0.954074 2.125810
v -2.138250 0.737852 2.125810
v -2.139910 0.739516 2.125810
v -2.138250 0.739516 2.127470
v -2.121420 0.734891 1.351230
v -2.123080 0.736555 1.351230
v -2.123080 0.734891 1.349560
v -2.121420 0.299851 1.351230
v -2.123080 0.301515 1.351230
v -2.123080 0.299851 1.349560
v -2.123080 0.737852 2.125810
v -2.138250 0.737852 2.125810
v -2.138250 0.739516 2.127470
v -2.123080 0.739516 2.127470
v -2.162770 0.030401 2.106020
v -2.161100 0.030401 2.107680
v -2.161100 0.028737 2.106020
v -2.161100 0.076809 1.369350
v -2.145410 0.076809 1.369350
v -2.145410 0.078473 1.371010
v -2.161100 0.078473 1.371010
v -2.412440 0.030829 2.127310
v -2.412440 0.029165 2.125640
v -2.414100 0.030829 2.125640
v -2.142260 1.174570 2.109950
v -2.143920 1.176240 2.109950
v -2.143920 1.174570 2.108290
v -2.121420 1.171230 2.125930
v -2.123080 1.171230 2.127590
v -2.123080 1.172900 2.125930
v -2.138250 0.956404 1.741110
v -2.138250 0.958068 1.739450
v -2.139910 0.958068 1.741110
v -2.414100 1.174570 2.125640
v -2.414100 0.030829 2.109950
v -2.414100 1.174570 2.109950
v -2.414100 0.030829 2.125640
v -2.414100 1.174570 2.125640
v -2.412440 1.174570 2.127310
v -2.412440 0.030829 2.127310
v -2.414100 1.174570 2.109950
v -2.414100 0.030829 2.109950
v -2.412440 0.030829 2.108290
v -2.412440 1.174570 2.108290
v -2.123080 0.737852 2.125810
v -2.123080 0.737852 1.351230
v -2.138250 0.737852 1.351230
v -2.138250 0.737852 2.125810
v -2.123080 0.302812 2.125810
v -2.123080 0.302812 1.351230
v -2.138250 0.302812 1.351230
v -2.138250 0.302812 2.125810
v -2.123080 0.085293 2.125810
v -2.123080 0.085293 1.351230
v -2.138250 0.085293 1.351230
v -2.138250 0.085293 2.125810
v -2.123080 0.739516 1.349560
v -2.138250 0.739516 1.349560
v -2.138250 0.737852 1.351230
v -2.123080 0.301515 1.351230
v -2.138250 0.301515 1.351230
v -2.138250 0.299851 1.349560
v -2.123080 0.299851 1.349560
v -2.161100 0.028737 1.371010
v -2.161100 0.028737 2.106020
v -2.145410 0.028737 2.106020
v -2.145410 0.028737 1.371010
v -2.161100 0.076809 1.369350
v -2.161100 0.030401 1.369350
v -2.145410 0.030401 1.369350
v -2.145410 0.076809 1.369350
v -2.145410 0.078473 1.371010
v -2.145410 0.076809 1.369350
v -2.143740 0.076809 1.371010
v -2.162770 0.076809 1.371010
v -2.162770 0.030401 1.371010
v -2.161100 0.030401 1.369350
v -2.161100 0.076809 1.369350
v -2.412440 0.029165 1.351340
v -2.412440 0.029165 1.367030
v -2.143920 0.029166 1.367030
v -2.143920 0.029166 1.351340
v -2.123080 0.956404 2.125930
v -2.123080 0.956404 1.741110
v -2.138250 0.956404 1.741110
v -2.138250 0.956404 2.125930
v -2.139910 1.171230 1.741110
v -2.138250 0.958068 1.739450
v -2.138250 1.171230 1.739450
v -2.123080 0.956404 1.351110
v -2.138250 0.956404 1.351110
v -2.138250 0.956404 1.735920
v -2.123080 0.956404 1.735920
v -2.139910 1.171230 1.735920
v -2.138250 1.171230 1.737590
v -2.138250 0.958068 1.737590
v -2.143920 1.174570 2.127310
v -2.412440 0.030829 2.127310
v -2.412440 1.174570 2.127310
v -2.142260 0.030830 2.109950
v -2.142260 1.174570 2.109950
v -2.143920 1.174570 2.108290
v -2.161100 0.078473 2.106020
v -2.145410 0.078473 2.106020
v -2.145410 0.076809 2.107680
v -2.161100 0.076809 2.107680
v -2.143920 0.030830 2.108290
v -2.412440 0.029165 2.109950
v -2.143920 0.029166 2.109950
v -2.123080 0.517371 2.127470
v -2.138250 0.519035 2.125810
v -2.123080 0.519035 2.125810
v -2.139910 0.304476 2.125810
v -2.139910 0.517371 2.125810
v -2.138250 0.517371 2.127470
v -2.138250 0.304476 2.127470
v -2.123080 0.299851 2.127470
v -2.138250 0.299851 2.127470
v -2.138250 0.301515 2.125810
v -2.139910 0.958068 2.125930
v -2.138250 1.171230 2.127590
v -2.138250 0.958068 2.127590
v -2.139910 0.739516 2.125810
v -2.138250 0.952410 2.127470
v -2.138250 0.739516 2.127470
v -2.111120 1.176100 2.132950
v -2.416680 1.176100 2.132950
v -2.416680 1.177770 2.134610
v -2.143920 1.174570 2.127310
v -2.412440 1.174570 2.127310
v -2.412440 1.176240 2.125640
v -2.412440 1.174570 2.108290
v -2.143920 1.174570 2.108290
v -2.143920 1.176240 2.109950
v -2.161100 0.028737 1.371010
v -2.145410 0.028737 1.371010
v -2.145410 0.030401 1.369350
v -2.161100 0.030401 1.369350
v -2.143920 1.176240 2.125640
v -2.143920 1.176240 2.109950
v -2.142260 1.174570 2.109950
v -2.142260 1.174570 2.125640
v -2.143920 0.030830 1.368690
v -2.143920 0.029166 1.367030
v -2.412440 0.029165 1.367030
v -2.412440 0.030829 1.368690
v -2.138250 0.956404 2.125930
v -2.139910 0.958068 2.125930
v -2.138250 0.958068 2.127590
v -2.123080 0.956404 2.125930
v -2.138250 0.956404 2.125930
v -2.138250 0.958068 2.127590
v -2.123080 1.172900 1.741110
v -2.138250 1.171230 1.739450
v -2.123080 1.171230 1.739450
v -2.123080 1.171230 2.127590
v -2.138250 1.171230 2.127590
v -2.138250 1.172900 2.125930
v -2.143920 0.030830 2.127310
v -2.142260 0.030830 2.125640
v -2.143920 0.029166 2.125640
v -2.161100 0.030401 2.107680
v -2.161100 0.076809 2.107680
v -2.145410 0.076809 2.107680
v -2.138250 0.954074 2.125810
v -2.138250 0.952410 2.127470
v -2.139910 0.952410 2.125810
v -2.138250 0.302812 2.125810
v -2.139910 0.304476 2.125810
v -2.138250 0.304476 2.127470
v -2.143920 0.029166 1.367030
v -2.143920 0.030830 1.368690
v -2.142260 0.030830 1.367030
v -2.121420 0.739516 1.351230
v -2.123080 0.739516 1.349560
v -2.123080 0.737852 1.351230
v -2.121420 0.952410 1.351230
v -2.123080 0.954074 1.351230
v -2.123080 0.952410 1.349560
v -2.121420 0.517371 1.351230
v -2.123080 0.519035 1.351230
v -2.123080 0.517371 1.349560
v -2.111120 1.176100 1.344080
v -2.109460 1.177770 1.344080
v -2.111120 1.177770 1.342420
v -2.121420 1.171230 1.351110
v -2.123080 1.172900 1.351110
v -2.123080 1.171230 1.349440
v -2.138250 0.520332 2.125810
v -2.139910 0.521996 2.125810
v -2.138250 0.521996 2.127470
v -2.138250 0.301515 2.125810
v -2.138250 0.299851 2.127470
v -2.139910 0.299851 2.125810
v -2.123080 0.302812 2.125810
v -2.123080 0.304476 2.127470
v -2.121420 0.304476 2.125810
v -2.138250 1.172900 2.125930
v -2.138250 1.171230 2.127590
v -2.139910 1.171230 2.125930
v -2.138250 0.520332 1.351230
v -2.138250 0.521996 1.349560
v -2.139910 0.521996 1.351230
v -2.123080 0.737852 2.125810
v -2.123080 0.739516 2.127470
v -2.121420 0.739516 2.125810
v -2.138250 0.736555 2.125810
v -2.138250 0.734891 2.127470
v -2.139910 0.734891 2.125810
v -2.138250 0.519035 2.125810
v -2.138250 0.517371 2.127470
v -2.139910 0.517371 2.125810
v -2.416680 1.176100 1.344080
v -2.416680 1.177770 1.342420
v -2.418350 1.177770 1.344080
v -2.121420 0.521996 1.351230
v -2.123080 0.521996 1.349560
v -2.123080 0.520332 1.351230
v -2.121420 0.086957 1.351230
v -2.123080 0.086957 1.349560
v -2.123080 0.085293 1.351230
v -2.414100 1.174570 1.351340
v -2.412440 1.174570 1.349670
v -2.412440 1.176240 1.351340
v -2.121420 0.958068 1.735920
v -2.123080 0.956404 1.735920
v -2.123080 0.958068 1.737590
v -2.162770 0.076809 1.371010
v -2.161100 0.076809 1.369350
v -2.161100 0.078473 1.371010
v -2.414100 1.174570 1.367030
v -2.412440 1.176240 1.367030
v -2.412440 1.174570 1.368690
v -2.138250 0.299851 1.349560
v -2.138250 0.301515 1.351230
v -2.139910 0.299851 1.351230
v -2.123080 0.956404 1.351110
v -2.121420 0.958068 1.351110
v -2.123080 0.958068 1.349440
v -2.161100 0.078473 2.106020
v -2.161100 0.076809 2.107680
v -2.162770 0.076809 2.106020
v -2.145410 0.030401 1.369350
v -2.145410 0.028737 1.371010
v -2.143740 0.030401 1.371010
v -2.143920 0.029166 2.109950
v -2.142260 0.030830 2.109950
v -2.143920 0.030830 2.108290
v -2.143920 0.030830 1.349670
v -2.143920 0.029166 1.351340
v -2.142260 0.030830 1.351340
v -2.145410 0.028737 2.106020
v -2.145410 0.030401 2.107680
v -2.143740 0.030401 2.106020
v -2.414100 1.174570 2.109950
v -2.412440 1.174570 2.108290
v -2.412440 1.176240 2.109950
v -2.414100 1.174570 2.125640
v -2.412440 1.176240 2.125640
v -2.412440 1.174570 2.127310
v -2.121420 0.958068 1.741110
v -2.123080 0.958068 1.739450
v -2.123080 0.956404 1.741110
v -2.142260 0.030830 2.125640
v -2.142260 0.030830 2.109950
v -2.143920 0.029166 2.109950
v -2.138250 1.171230 1.737590
v -2.139910 1.171230 1.735920
v -2.138250 1.172900 1.735920
v -2.414100 0.030829 1.367030
v -2.412440 0.030829 1.368690
v -2.412440 0.029165 1.367030
vt 0.096994 0.785286
vt 0.083333 0.657337
vt 0.096994 0.657337
vt 0.796569 0.002451
vt 0.796569 0.026961
vt 0.821078 0.026961
vt 0.821078 0.002451
vt 0.825980 0.002451
vt 0.850490 0.026961
vt 0.825980 0.026961
vt 0.850490 0.002451
vt 0.997967 0.071138
vt 0.977642 0.050813
vt 0.997967 0.050813
vt 0.261667 0.578333
vt 0.261667 0.561667
vt 0.278333 0.561667
vt 0.590686 0.056373
vt 0.615196 0.056373
vt 0.615196 0.031863
vt 0.703431 0.031863
vt 0.678922 0.031863
vt 0.678922 0.056373
vt 0.674020 0.031863
vt 0.649510 0.056373
vt 0.649510 0.031863
vt 0.855392 0.002451
vt 0.879902 0.026961
vt 0.855392 0.026961
vt 0.879902 0.002451
vt 0.362022 0.657104
vt 0.375683 0.670765
vt 0.362022 0.670765
vt 0.736339 0.657104
vt 0.722678 0.670765
vt 0.722678 0.657104
vt 0.640710 0.657104
vt 0.640710 0.670765
vt 0.654372 0.657104
vt 0.788251 0.657104
vt 0.788251 0.670765
vt 0.801913 0.670765
vt 0.539617 0.657104
vt 0.525956 0.670765
vt 0.525956 0.657104
vt 0.542350 0.657104
vt 0.556011 0.670765
vt 0.542350 0.670765
vt 0.605191 0.657104
vt 0.591530 0.670765
vt 0.605191 0.670765
vt 0.558743 0.657104
vt 0.572404 0.670765
vt 0.558743 0.670765
vt 0.457650 0.558743
vt 0.443989 0.572404
vt 0.443989 0.558743
vt 0.457650 0.572404
vt 0.214481 0.670765
vt 0.228142 0.670765
vt 0.228142 0.657104
vt 0.214481 0.657104
vt 0.457650 0.542350
vt 0.443989 0.556011
vt 0.443989 0.542350
vt 0.457650 0.556011
vt 0.443989 0.621585
vt 0.457650 0.621585
vt 0.457650 0.607924
vt 0.443989 0.607924
vt 0.244536 0.657104
vt 0.230874 0.670765
vt 0.230874 0.657104
vt 0.244536 0.670765
vt 0.397619 0.140476
vt 0.373810 0.116667
vt 0.373810 0.140476
vt 0.459524 0.140476
vt 0.483333 0.116667
vt 0.459524 0.116667
vt 0.145238 0.116883
vt 0.169048 0.168831
vt 0.145238 0.168831
vt 0.169048 0.116883
vt 0.316667 0.140476
vt 0.340476 0.116667
vt 0.340476 0.140476
vt 0.316667 0.116667
vt 0.977642 0.465447
vt 0.997967 0.465447
vt 0.977642 0.485772
vt 0.997967 0.172764
vt 0.977642 0.193089
vt 0.977642 0.172764
vt 0.997967 0.193089
vt 0.997967 0.245935
vt 0.977642 0.266260
vt 0.977642 0.245935
vt 0.997967 0.416667
vt 0.997967 0.436992
vt 0.977642 0.416667
vt 0.997967 0.168699
vt 0.997967 0.148374
vt 0.977642 0.148374
vt 0.977642 0.168699
vt 0.521667 0.561667
vt 0.521667 0.578333
vt 0.538333 0.578333
vt 0.581667 0.561667
vt 0.581667 0.578333
vt 0.598333 0.561667
vt 0.461667 0.561667
vt 0.461667 0.578333
vt 0.478333 0.578333
vt 0.621667 0.578333
vt 0.638333 0.561667
vt 0.621667 0.561667
vt 0.418333 0.578333
vt 0.401667 0.561667
vt 0.418333 0.561667
vt 0.401667 0.578333
vt 0.591119 0.879902
vt 0.879469 0.855406
vt 0.879469 0.879902
vt 0.591119 0.855392
vt 0.708333 0.031863
vt 0.708333 0.056373
vt 0.732843 0.056373
vt 0.318333 0.561667
vt 0.318333 0.578333
vt 0.301667 0.578333
vt 0.732376 0.002451
vt 0.002918 0.002451
vt 0.002918 0.026961
vt 0.732376 0.026961
vt 0.938017 0.298030
vt 0.938017 0.041970
vt 0.481983 0.041970
vt 0.481983 0.298030
vt 0.732376 0.796569
vt 0.002918 0.796569
vt 0.002918 0.821078
vt 0.732376 0.821078
vt 0.585352 0.032330
vt 0.297001 0.761788
vt 0.297001 0.032330
vt 0.585352 0.761788
vt 0.291234 0.855392
vt 0.002884 0.855392
vt 0.002884 0.879902
vt 0.291234 0.879901
vt 0.291234 0.761788
vt 0.291234 0.032330
vt 0.002884 0.032330
vt 0.002884 0.761788
vt 0.762255 0.732376
vt 0.762255 0.002918
vt 0.737745 0.002918
vt 0.737745 0.732376
vt 0.002884 0.909314
vt 0.291234 0.909314
vt 0.291234 0.884804
vt 0.002884 0.884804
vt 0.591119 0.762255
vt 0.879469 0.762255
vt 0.879469 0.737745
vt 0.591119 0.737759
vt 0.903005 0.444250
vt 0.916667 0.883619
vt 0.903005 0.883619
vt 0.916667 0.444250
vt 0.018021 0.391843
vt 0.457389 0.391843
vt 0.457389 0.263894
vt 0.018021 0.263894
vt 0.984973 0.001627
vt 0.998634 0.440996
vt 0.984973 0.440996
vt 0.998634 0.001627
vt 0.018021 0.260696
vt 0.457389 0.260696
vt 0.457389 0.132747
vt 0.018021 0.132747
vt 0.477037 0.146175
vt 0.916405 0.146175
vt 0.916405 0.132514
vt 0.477037 0.132514
vt 0.916405 0.148907
vt 0.477037 0.148907
vt 0.477037 0.162568
vt 0.916405 0.162568
vt 0.001627 0.654372
vt 0.440996 0.654372
vt 0.440996 0.640710
vt 0.001627 0.640710
vt 0.001366 0.657337
vt 0.001366 0.785286
vt 0.015027 0.785286
vt 0.015027 0.657337
vt 0.343835 0.709350
vt 0.509824 0.729675
vt 0.509824 0.709350
vt 0.002371 0.733740
vt 0.168360 0.754065
vt 0.002371 0.754065
vt 0.168360 0.733740
vt 0.961667 0.461983
vt 0.978333 0.918017
vt 0.961667 0.918017
vt 0.978333 0.461983
vt 0.021667 0.561970
vt 0.038333 0.818030
vt 0.021667 0.818030
vt 0.021983 0.558030
vt 0.478017 0.558030
vt 0.478017 0.301970
vt 0.021983 0.301970
vt 0.978333 0.458017
vt 0.978333 0.001983
vt 0.961667 0.001983
vt 0.961667 0.458017
vt 0.181667 0.561970
vt 0.181667 0.818030
vt 0.198333 0.818030
vt 0.198333 0.561970
vt 0.478017 0.261667
vt 0.021983 0.261667
vt 0.021983 0.278333
vt 0.478017 0.278333
vt 0.001667 0.458017
vt 0.018333 0.001983
vt 0.018333 0.458017
vt 0.001667 0.001983
vt 0.178333 0.561970
vt 0.161667 0.818030
vt 0.161667 0.561970
vt 0.178333 0.818030
vt 0.958333 0.461983
vt 0.941667 0.461983
vt 0.941667 0.918017
vt 0.958333 0.918017
vt 0.098333 0.561970
vt 0.081667 0.561970
vt 0.081667 0.818030
vt 0.098333 0.818030
vt 0.481983 0.021667
vt 0.481983 0.038333
vt 0.938017 0.038333
vt 0.938017 0.021667
vt 0.982240 0.703319
vt 0.968579 0.703319
vt 0.968579 0.575370
vt 0.900273 0.768892
vt 0.886612 0.640944
vt 0.900273 0.640944
vt 0.886612 0.768892
vt 0.952186 0.575370
vt 0.965847 0.703319
vt 0.952186 0.703319
vt 0.876016 0.680505
vt 0.855691 0.680505
vt 0.855691 0.002422
vt 0.585352 0.884804
vt 0.297001 0.909313
vt 0.297001 0.884804
vt 0.585352 0.909314
vt 0.002371 0.729675
vt 0.168360 0.709351
vt 0.168360 0.729675
vt 0.002371 0.709350
vt 0.118333 0.818030
vt 0.101667 0.561970
vt 0.118333 0.561970
vt 0.101667 0.818030
vt 0.061667 0.561970
vt 0.078333 0.818030
vt 0.061667 0.818030
vt 0.138333 0.818030
vt 0.121667 0.561970
vt 0.138333 0.561970
vt 0.121667 0.818030
vt 0.178962 0.785286
vt 0.165301 0.657337
vt 0.178962 0.657337
vt 0.165301 0.785286
vt 0.148907 0.657337
vt 0.162568 0.785286
vt 0.148907 0.785286
vt 0.195355 0.785286
vt 0.181694 0.657337
vt 0.195355 0.657337
vt 0.181694 0.785286
vt 0.585352 0.855392
vt 0.585352 0.879902
vt 0.297001 0.879902
vt 0.680556 0.684959
vt 0.680556 0.705285
vt 0.514566 0.705285
vt 0.339092 0.733740
vt 0.339092 0.754065
vt 0.173103 0.754065
vt 0.116120 0.657337
vt 0.116120 0.785286
vt 0.129781 0.785286
vt 0.129781 0.657337
vt 0.001366 0.523224
vt 0.001366 0.509563
vt 0.015027 0.509563
vt 0.457650 0.591530
vt 0.443989 0.605191
vt 0.443989 0.591530
vt 0.457650 0.605191
vt 0.015027 0.476776
vt 0.001366 0.490437
vt 0.001366 0.476776
vt 0.015027 0.490437
vt 0.641667 0.561667
vt 0.658333 0.561667
vt 0.658333 0.578333
vt 0.378333 0.561667
vt 0.378333 0.578333
vt 0.361667 0.578333
vt 0.698333 0.561667
vt 0.681667 0.578333
vt 0.681667 0.561667
vt 0.241667 0.818030
vt 0.258333 0.818030
vt 0.258333 0.561970
vt 0.241667 0.561970
vt 0.460644 0.509796
vt 0.900012 0.509796
vt 0.900012 0.637745
vt 0.474044 0.440996
vt 0.474044 0.001627
vt 0.460383 0.001627
vt 0.460383 0.440996
vt 0.935792 0.001627
vt 0.949454 0.440996
vt 0.935792 0.440996
vt 0.018021 0.129548
vt 0.457389 0.129548
vt 0.457389 0.001599
vt 0.018021 0.001599
vt 0.968579 0.001627
vt 0.982240 0.440996
vt 0.968579 0.440996
vt 0.982240 0.001627
vt 0.018021 0.522991
vt 0.457389 0.522991
vt 0.457389 0.395042
vt 0.018021 0.395042
vt 0.440996 0.525956
vt 0.001627 0.525956
vt 0.001627 0.539617
vt 0.440996 0.539617
vt 0.440996 0.624317
vt 0.001627 0.637978
vt 0.001627 0.624317
vt 0.440996 0.637978
vt 0.001627 0.621585
vt 0.440996 0.621585
vt 0.440996 0.607924
vt 0.001627 0.607924
vt 0.952186 0.444222
vt 0.952186 0.572171
vt 0.965847 0.572171
vt 0.965847 0.444222
vt 0.883619 0.640710
vt 0.444250 0.640710
vt 0.444250 0.654372
vt 0.883619 0.654372
vt 0.460644 0.490437
vt 0.900012 0.490437
vt 0.900012 0.476776
vt 0.460644 0.476776
vt 0.066940 0.657337
vt 0.066940 0.785286
vt 0.080601 0.785286
vt 0.080601 0.657337
vt 0.900012 0.443989
vt 0.460644 0.443989
vt 0.460644 0.457650
vt 0.900012 0.457650
vt 0.882875 0.111688
vt 0.882875 0.059740
vt 0.002839 0.059740
vt 0.002839 0.111688
vt 0.202381 0.116883
vt 0.202381 0.168831
vt 0.226190 0.168831
vt 0.226190 0.116883
vt 0.916667 0.002839
vt 0.916667 0.882875
vt 0.940476 0.882875
vt 0.940476 0.002839
vt 0.851626 0.002422
vt 0.831301 0.680505
vt 0.831301 0.002422
vt 0.880081 0.680505
vt 0.900406 0.002422
vt 0.880081 0.002422
vt 0.973577 0.002422
vt 0.953252 0.680505
vt 0.953252 0.002422
vt 0.982240 0.703319
vt 0.968579 0.575370
vt 0.982240 0.575370
vt 0.952186 0.575370
vt 0.965847 0.703319
vt 0.965847 0.575370
vt 0.928862 0.002422
vt 0.928862 0.680505
vt 0.949187 0.680505
vt 0.949187 0.002422
vt 0.168360 0.002422
vt 0.002371 0.002422
vt 0.002371 0.680505
vt 0.876016 0.680505
vt 0.876016 0.002422
vt 0.855691 0.002422
vt 0.904472 0.002422
vt 0.924797 0.002422
vt 0.924797 0.680505
vt 0.113388 0.785286
vt 0.099727 0.657337
vt 0.113388 0.657337
vt 0.099727 0.785286
vt 0.096994 0.785286
vt 0.083333 0.785286
vt 0.083333 0.657337
vt 0.017760 0.657337
vt 0.031421 0.785286
vt 0.017760 0.785286
vt 0.031421 0.657337
vt 0.197619 0.168831
vt 0.197619 0.116883
vt 0.173810 0.116883
vt 0.173810 0.168831
vt 0.116667 0.116883
vt 0.140476 0.116883
vt 0.140476 0.168831
vt 0.933060 0.572171
vt 0.919399 0.444222
vt 0.933060 0.444222
vt 0.919399 0.572171
vt 0.933060 0.703319
vt 0.919399 0.575370
vt 0.933060 0.575370
vt 0.919399 0.703319
vt 0.015027 0.493169
vt 0.001366 0.506831
vt 0.001366 0.493169
vt 0.015027 0.460383
vt 0.001366 0.474044
vt 0.015027 0.474044
vt 0.427596 0.657104
vt 0.441257 0.670765
vt 0.427596 0.670765
vt 0.687158 0.657104
vt 0.673497 0.670765
vt 0.673497 0.657104
vt 0.739071 0.670765
vt 0.752732 0.657104
vt 0.752732 0.670765
vt 0.977642 0.022358
vt 0.977642 0.002033
vt 0.997967 0.002033
vt 0.732376 0.767157
vt 0.002918 0.791667
vt 0.002918 0.767157
vt 0.732376 0.791667
vt 0.767157 0.002918
vt 0.791667 0.732376
vt 0.767157 0.732376
vt 0.791667 0.002918
vt 0.884804 0.002451
vt 0.909314 0.026961
vt 0.884804 0.026961
vt 0.909314 0.002451
vt 0.732376 0.825980
vt 0.002918 0.850490
vt 0.002918 0.825980
vt 0.732376 0.850490
vt 0.477037 0.181927
vt 0.916405 0.309876
vt 0.477037 0.309876
vt 0.916405 0.181927
vt 0.198087 0.657337
vt 0.198087 0.785286
vt 0.211749 0.785286
vt 0.211749 0.657337
vt 0.460644 0.509796
vt 0.900012 0.637745
vt 0.460644 0.637745
vt 0.935792 0.575370
vt 0.935792 0.703319
vt 0.949454 0.703319
vt 0.949454 0.575370
vt 0.935792 0.001627
vt 0.949454 0.001627
vt 0.949454 0.440996
vt 0.477037 0.001599
vt 0.916405 0.129548
vt 0.477037 0.129548
vt 0.916405 0.001599
vt 0.935792 0.444222
vt 0.935792 0.572171
vt 0.949454 0.572171
vt 0.949454 0.444222
vt 0.477037 0.313075
vt 0.916405 0.441024
vt 0.477037 0.441024
vt 0.916405 0.313075
vt 0.034153 0.657337
vt 0.034153 0.785286
vt 0.047814 0.785286
vt 0.047814 0.657337
vt 0.706284 0.657104
vt 0.706284 0.670765
vt 0.719945 0.657104
vt 0.001366 0.457650
vt 0.001366 0.443989
vt 0.015027 0.443989
vt 0.916405 0.165301
vt 0.477037 0.178962
vt 0.477037 0.165301
vt 0.916405 0.178962
vt 0.146175 0.785286
vt 0.132514 0.657337
vt 0.146175 0.657337
vt 0.132514 0.785286
vt 0.001627 0.588798
vt 0.440996 0.575137
vt 0.440996 0.588798
vt 0.001627 0.575137
vt 0.443989 0.539617
vt 0.457650 0.539617
vt 0.457650 0.525956
vt 0.443989 0.525956
vt 0.998634 0.703319
vt 0.984973 0.575370
vt 0.998634 0.575370
vt 0.984973 0.703319
vt 0.460644 0.506831
vt 0.900012 0.493169
vt 0.900012 0.506831
vt 0.460644 0.493169
vt 0.440996 0.558743
vt 0.001627 0.572404
vt 0.001627 0.558743
vt 0.440996 0.572404
vt 0.982240 0.572171
vt 0.968579 0.444222
vt 0.982240 0.444222
vt 0.968579 0.572171
vt 0.001627 0.605191
vt 0.440996 0.591530
vt 0.440996 0.605191
vt 0.001627 0.591530
vt 0.247268 0.670765
vt 0.260929 0.670765
vt 0.260929 0.657104
vt 0.247268 0.657104
vt 0.440996 0.542350
vt 0.001627 0.556011
vt 0.001627 0.542350
vt 0.440996 0.556011
vt 0.064208 0.785286
vt 0.050546 0.657337
vt 0.064208 0.657337
vt 0.050546 0.785286
vt 0.460644 0.474044
vt 0.900012 0.460383
vt 0.900012 0.474044
vt 0.460644 0.460383
vt 0.997618 0.882875
vt 0.973810 0.002839
vt 0.997619 0.002839
vt 0.973810 0.882875
vt 0.882875 0.002597
vt 0.002839 0.054545
vt 0.002839 0.002597
vt 0.882875 0.054545
vt 0.026191 0.997161
vt 0.002381 0.117125
vt 0.026191 0.117125
vt 0.002381 0.997161
vt 0.945252 0.002839
vt 0.969048 0.882875
vt 0.945238 0.882875
vt 0.969048 0.002839
vt 0.911905 0.882875
vt 0.911905 0.002839
vt 0.888095 0.002839
vt 0.888095 0.882875
vt 0.851626 0.002422
vt 0.851626 0.680505
vt 0.831301 0.680505
vt 0.660908 0.002422
vt 0.826897 0.680505
vt 0.660908 0.680505
vt 0.826897 0.002422
vt 0.636179 0.680505
vt 0.656504 0.002422
vt 0.656504 0.680505
vt 0.636179 0.002422
vt 0.197493 0.680505
vt 0.363482 0.680505
vt 0.363482 0.002422
vt 0.197493 0.002422
vt 0.343835 0.684959
vt 0.343835 0.705285
vt 0.509824 0.705285
vt 0.509824 0.684959
vt 0.880081 0.680505
vt 0.900406 0.680505
vt 0.900406 0.002422
vt 0.685298 0.709350
vt 0.685298 0.729675
vt 0.851287 0.729675
vt 0.851287 0.709350
vt 0.461382 0.002422
vt 0.441057 0.680505
vt 0.441057 0.002422
vt 0.461382 0.680505
vt 0.977642 0.099593
vt 0.997967 0.119919
vt 0.977642 0.119919
vt 0.997967 0.099593
vt 0.172764 0.680505
vt 0.193089 0.002422
vt 0.193089 0.680505
vt 0.172764 0.002422
vt 0.977642 0.075203
vt 0.997967 0.095528
vt 0.977642 0.095528
vt 0.997967 0.075203
vt 0.973577 0.002422
vt 0.953252 0.680505
vt 0.973577 0.680505
vt 0.343835 0.709350
vt 0.343835 0.729675
vt 0.509824 0.729675
vt 0.021983 0.001970
vt 0.478017 0.258030
vt 0.021983 0.258030
vt 0.478017 0.001970
vt 0.021667 0.561970
vt 0.038333 0.561970
vt 0.038333 0.818030
vt 0.478017 0.281667
vt 0.021983 0.298333
vt 0.021983 0.281667
vt 0.478017 0.298333
vt 0.058333 0.818030
vt 0.041667 0.561970
vt 0.058333 0.561970
vt 0.001667 0.461983
vt 0.018333 0.918017
vt 0.001667 0.918017
vt 0.018333 0.461983
vt 0.938017 0.301970
vt 0.481983 0.558030
vt 0.481983 0.301970
vt 0.938017 0.558030
vt 0.481983 0.001667
vt 0.938017 0.018333
vt 0.481983 0.018333
vt 0.938017 0.001667
vt 0.221667 0.818030
vt 0.221667 0.561970
vt 0.238333 0.561970
vt 0.941667 0.458017
vt 0.958333 0.001983
vt 0.958333 0.458017
vt 0.941667 0.001983
vt 0.968137 0.002451
vt 0.943627 0.026961
vt 0.943627 0.002451
vt 0.394809 0.657104
vt 0.408470 0.657104
vt 0.394809 0.670765
vt 0.001366 0.523224
vt 0.015027 0.523224
vt 0.015027 0.509563
vt 0.443989 0.637978
vt 0.457650 0.637978
vt 0.457650 0.624317
vt 0.443989 0.624317
vt 0.977642 0.339431
vt 0.997967 0.319106
vt 0.997967 0.339431
vt 0.997967 0.071138
vt 0.977642 0.071138
vt 0.977642 0.050813
vt 0.261667 0.578333
vt 0.278333 0.561667
vt 0.278333 0.578333
vt 0.281667 0.578333
vt 0.298333 0.561667
vt 0.298333 0.578333
vt 0.458333 0.561667
vt 0.441667 0.578333
vt 0.458333 0.578333
vt 0.341667 0.561667
vt 0.341667 0.578333
vt 0.358333 0.578333
vt 0.358333 0.561667
vt 0.398333 0.578333
vt 0.381667 0.561667
vt 0.398333 0.561667
vt 0.381667 0.578333
vt 0.321667 0.561667
vt 0.321667 0.578333
vt 0.338333 0.578333
vt 0.338333 0.561667
vt 0.158333 0.561970
vt 0.141667 0.818030
vt 0.141667 0.561970
vt 0.158333 0.818030
vt 0.201667 0.818030
vt 0.218333 0.818030
vt 0.218333 0.561970
vt 0.201667 0.561970
vt 0.388211 0.680505
vt 0.367886 0.002422
vt 0.388211 0.002422
vt 0.173103 0.729663
vt 0.339092 0.709362
vt 0.339092 0.729675
vt 0.173103 0.709350
vt 0.997967 0.123984
vt 0.977642 0.144309
vt 0.977642 0.123984
vt 0.997967 0.144309
vt 0.168360 0.002422
vt 0.168360 0.680505
vt 0.002371 0.680505
vt 0.631775 0.680505
vt 0.465786 0.002422
vt 0.631775 0.002422
vt 0.173103 0.705285
vt 0.339092 0.705285
vt 0.339092 0.684959
vt 0.173103 0.684961
vt 0.685298 0.705285
vt 0.851287 0.705272
vt 0.851287 0.684959
vt 0.997967 0.583333
vt 0.977642 0.583333
vt 0.977642 0.563008
vt 0.914216 0.002451
vt 0.938725 0.026961
vt 0.938725 0.002451
vt 0.326503 0.657104
vt 0.312842 0.670765
vt 0.312842 0.657104
vt 0.342896 0.657104
vt 0.342896 0.670765
vt 0.329235 0.670765
vt 0.689891 0.657104
vt 0.703552 0.657104
vt 0.703552 0.670765
vt 0.476776 0.657104
vt 0.490437 0.657104
vt 0.490437 0.670765
vt 0.457650 0.575137
vt 0.443989 0.588798
vt 0.443989 0.575137
vt 0.457650 0.588798
vt 0.345238 0.140476
vt 0.369048 0.116667
vt 0.369048 0.140476
vt 0.254762 0.116667
vt 0.230952 0.116667
vt 0.230952 0.140476
vt 0.254762 0.140476
vt 0.997967 0.558943
vt 0.997967 0.538618
vt 0.977642 0.558943
vt 0.977642 0.392276
vt 0.997967 0.412602
vt 0.997967 0.392276
vt 0.738333 0.561667
vt 0.721667 0.578333
vt 0.721667 0.561667
vt 0.501667 0.561667
vt 0.501667 0.578333
vt 0.518333 0.578333
vt 0.388211 0.680505
vt 0.367886 0.680505
vt 0.367886 0.002422
vt 0.392276 0.002422
vt 0.412602 0.680505
vt 0.392276 0.680505
vt 0.412602 0.002422
vt 0.436992 0.680505
vt 0.416667 0.002422
vt 0.436992 0.002422
vt 0.416667 0.680505
vt 0.933060 0.440996
vt 0.933060 0.001627
vt 0.919399 0.001627
vt 0.919399 0.440996
vt 0.015027 0.440996
vt 0.015027 0.001627
vt 0.001366 0.001627
vt 0.001366 0.440996
vt 0.965847 0.440996
vt 0.965847 0.001627
vt 0.952186 0.001627
vt 0.952186 0.440996
vt 0.001366 0.457650
vt 0.015027 0.443989
vt 0.015027 0.457650
vt 0.263661 0.670765
vt 0.277322 0.670765
vt 0.277322 0.657104
vt 0.263661 0.657104
vt 0.030952 0.117125
vt 0.030952 0.997161
vt 0.054762 0.997161
vt 0.054762 0.117125
vt 0.111905 0.168831
vt 0.111903 0.116883
vt 0.088095 0.116883
vt 0.088095 0.168831
vt 0.454762 0.140476
vt 0.430952 0.116667
vt 0.454762 0.116667
vt 0.083333 0.168831
vt 0.059524 0.116883
vt 0.083333 0.116883
vt 0.059537 0.168831
vt 0.002371 0.684959
vt 0.002371 0.705285
vt 0.168360 0.705285
vt 0.168360 0.684959
vt 0.998333 0.458017
vt 0.998333 0.001983
vt 0.981667 0.001983
vt 0.981667 0.458017
vt 0.058333 0.818030
vt 0.041667 0.561970
vt 0.041667 0.818030
vt 0.998333 0.461983
vt 0.981667 0.461983
vt 0.981667 0.918017
vt 0.998333 0.918017
vt 0.221667 0.818030
vt 0.238333 0.561970
vt 0.238333 0.818030
vt 0.631775 0.680505
vt 0.465786 0.002422
vt 0.465786 0.680505
vt 0.904472 0.002422
vt 0.904472 0.680505
vt 0.924797 0.680505
vt 0.259524 0.140476
vt 0.283333 0.116667
vt 0.283333 0.140476
vt 0.259524 0.116667
vt 0.685298 0.705285
vt 0.685298 0.684972
vt 0.851287 0.684959
vt 0.015027 0.493169
vt 0.015027 0.506831
vt 0.001366 0.506831
vt 0.984973 0.444222
vt 0.998634 0.572171
vt 0.984973 0.572171
vt 0.998634 0.444222
vt 0.015027 0.460383
vt 0.001366 0.460383
vt 0.001366 0.474044
vt 0.061667 0.561970
vt 0.078333 0.561970
vt 0.078333 0.818030
vt 0.148907 0.657337
vt 0.162568 0.785286
vt 0.162568 0.657337
vt 0.585352 0.855392
vt 0.297001 0.855392
vt 0.297001 0.879902
vt 0.680556 0.684959
vt 0.514566 0.705285
vt 0.514566 0.684959
vt 0.339092 0.733740
vt 0.173103 0.754065
vt 0.173103 0.733740
vt 0.311905 0.116667
vt 0.288095 0.116667
vt 0.288095 0.140476
vt 0.311905 0.140476
vt 0.977642 0.046748
vt 0.997967 0.046748
vt 0.997967 0.026423
vt 0.977642 0.026423
vt 0.680556 0.729675
vt 0.514566 0.709350
vt 0.680556 0.709350
vt 0.514566 0.729675
vt 0.558333 0.561667
vt 0.558333 0.578333
vt 0.541667 0.578333
vt 0.318333 0.561667
vt 0.301667 0.561667
vt 0.301667 0.578333
vt 0.281667 0.578333
vt 0.298333 0.561667
vt 0.281667 0.561667
vt 0.378333 0.561667
vt 0.361667 0.578333
vt 0.361667 0.561667
vt 0.977642 0.510163
vt 0.997967 0.510163
vt 0.977642 0.489837
vt 0.116667 0.116883
vt 0.140476 0.168831
vt 0.116667 0.168831
vt 0.474044 0.670765
vt 0.460383 0.657104
vt 0.474044 0.657104
vt 0.670765 0.657104
vt 0.657104 0.670765
vt 0.670765 0.670765
vt 0.997967 0.270325
vt 0.997967 0.290650
vt 0.977642 0.290650
vt 0.296448 0.670765
vt 0.310109 0.657104
vt 0.310109 0.670765
vt 0.345628 0.657104
vt 0.359290 0.657104
vt 0.359290 0.670765
vt 0.607924 0.657104
vt 0.621585 0.657104
vt 0.621585 0.670765
vt 0.620098 0.056373
vt 0.644608 0.056373
vt 0.620098 0.031863
vt 0.701667 0.561667
vt 0.718333 0.578333
vt 0.718333 0.561667
vt 0.457650 0.657104
vt 0.457650 0.670765
vt 0.443989 0.670765
vt 0.506831 0.670765
vt 0.493169 0.657104
vt 0.506831 0.657104
vt 0.624317 0.657104
vt 0.637978 0.670765
vt 0.624317 0.670765
vt 0.618333 0.578333
vt 0.601667 0.561667
vt 0.618333 0.561667
vt 0.378415 0.657104
vt 0.392076 0.670765
vt 0.378415 0.670765
vt 0.280055 0.657104
vt 0.293716 0.670765
vt 0.280055 0.670765
vt 0.769126 0.670765
vt 0.769126 0.657104
vt 0.755464 0.657104
vt 0.785519 0.670765
vt 0.785519 0.657104
vt 0.771858 0.657104
vt 0.997549 0.026961
vt 0.997549 0.002451
vt 0.973039 0.026961
vt 0.411202 0.670765
vt 0.424863 0.657104
vt 0.424863 0.670765
vt 0.575137 0.670765
vt 0.588798 0.657104
vt 0.588798 0.670765
vt 0.997967 0.197154
vt 0.977642 0.197154
vt 0.997967 0.217480
vt 0.498333 0.578333
vt 0.481667 0.578333
vt 0.481667 0.561667
vt 0.569048 0.116667
vt 0.545238 0.140476
vt 0.545238 0.116667
vt 0.977642 0.367886
vt 0.977642 0.388211
vt 0.997967 0.367886
vt 0.509563 0.657104
vt 0.523224 0.657104
vt 0.509563 0.670765
vt 0.438333 0.561667
vt 0.438333 0.578333
vt 0.421667 0.578333
vt 0.426190 0.140476
vt 0.402381 0.116667
vt 0.426190 0.116667
vt 0.511905 0.140476
vt 0.511905 0.116667
vt 0.488095 0.140476
vt 0.997967 0.514228
vt 0.997967 0.534553
vt 0.977642 0.534553
vt 0.997967 0.241870
vt 0.977642 0.241870
vt 0.977642 0.221545
vt 0.516667 0.116667
vt 0.540476 0.140476
vt 0.516667 0.140476
vt 0.997967 0.343496
vt 0.977642 0.363821
vt 0.977642 0.343496
vt 0.977642 0.441057
vt 0.997967 0.441057
vt 0.997967 0.461382
vt 0.561667 0.578333
vt 0.578333 0.561667
vt 0.578333 0.578333
vt 0.977642 0.022358
vt 0.997967 0.022358
vt 0.997967 0.002033
vt 0.678333 0.561667
vt 0.661667 0.561667
vt 0.678333 0.578333
vt 0.977642 0.315041
vt 0.977642 0.294715
vt 0.997967 0.315041
vn 0.7070 0.0000 0.7072
vn -0.7072 0.0000 0.7071
vn -0.7071 0.0000 0.7071
vn 0.7071 0.0000 0.7071
vn 0.7093 0.7049 0.0000
vn 0.0000 -0.7063 -0.7079
vn 0.5763 0.5762 -0.5796
vn -0.5774 -0.5774 0.5774
vn 0.5774 0.5774 0.5774
vn -0.7050 0.0000 0.7092
vn -0.5790 -0.5776 -0.5755
vn 0.5779 0.5763 0.5778
vn 0.5789 -0.5776 0.5755
vn 0.5790 0.5776 0.5755
vn 0.5778 0.5764 0.5779
vn 0.5778 -0.5764 0.5778
vn 0.5779 0.5764 -0.5778
vn 0.0000 -0.7063 0.7080
vn 0.0000 -0.7063 0.7079
vn 0.0000 -0.7084 0.7058
vn 0.0000 -0.7084 0.7059
vn 0.5756 0.5775 0.5790
vn -0.5756 -0.5775 -0.5790
vn -0.7049 0.0000 0.7093
vn 0.5798 0.5762 0.5761
vn -0.7092 0.7050 0.0000
vn -0.7093 0.7049 0.0000
vn 0.5797 0.5761 -0.5762
vn 0.5786 0.5750 0.5785
vn -0.7079 0.7063 0.0000
vn -0.7080 0.7062 0.0000
vn -0.5778 0.5763 -0.5779
vn 0.5786 -0.5750 0.5785
vn 0.5797 -0.5762 0.5762
vn 0.0000 0.7071 0.7071
vn -0.5785 0.5750 -0.5785
vn 0.0000 -0.7062 0.7080
vn -0.7071 -0.7071 0.0000
vn -1.0000 0.0000 0.0000
vn 0.0000 1.0000 0.0000
vn 0.0000 0.0000 1.0000
vn 0.0000 0.7050 0.7092
vn 0.0000 0.7049 0.7093
vn 0.0000 -0.7071 0.7071
vn -0.7080 -0.7062 -0.0000
vn -0.7079 -0.7063 -0.0000
vn -0.7080 -0.7063 -0.0000
vn -0.7092 0.0000 0.7051
vn -0.7093 0.0000 0.7049
vn 0.0000 -0.7049 -0.7093
vn 0.0000 0.0000 -1.0000
vn -0.7093 -0.7049 -0.0000
vn -0.7091 -0.7051 -0.0000
vn -0.7070 0.0000 0.7072
vn -0.7092 -0.7050 0.0000
vn -0.7092 0.0000 -0.7050
vn 0.7094 -0.0000 0.7048
vn 0.7072 0.0000 0.7070
vn -0.7072 0.0000 0.7070
vn 0.0000 -0.7050 0.7092
vn 0.0000 0.7050 -0.7092
vn 0.0000 0.7084 -0.7059
vn 0.0000 0.7063 0.7080
vn 0.0000 0.7063 0.7079
vn 0.5785 0.5750 -0.5785
vn 0.5796 0.5762 0.5763
vn -0.7092 -0.0000 0.7050
vn -0.7059 0.7084 0.0000
vn -0.7058 0.7084 0.0000
vn 1.0000 -0.0000 0.0000
vn 0.7071 0.0000 -0.7071
vn -0.7093 0.0000 -0.7049
vn -0.7050 0.0000 -0.7092
vn -0.7049 0.0000 -0.7093
vn 0.5778 -0.5764 0.5779
vn 0.5790 -0.5775 -0.5755
vn 0.7080 -0.7062 0.0000
vn -0.7050 0.7092 0.0000
vn 0.0000 -0.7084 -0.7058
vn 0.0000 0.7084 0.7058
vn 0.0000 0.7084 0.7059
vn -0.7080 0.7063 0.0000
vn -0.7058 -0.7084 -0.0000
vn -0.7059 -0.7084 -0.0000
vn -0.7071 0.0000 -0.7071
vn 0.0000 -0.7050 -0.7092
vn -0.5750 0.5786 -0.5785
vn -0.5790 0.5776 -0.5755
vn -0.5790 -0.5776 -0.5754
vn 0.7092 0.7050 0.0000
vn 0.0000 -0.7062 -0.7080
vn 0.5790 0.5776 -0.5755
vn -0.5779 -0.5764 -0.5777
vn 0.5751 -0.5785 -0.5785
vn -0.5779 -0.5764 0.5778
vn 0.5789 0.5776 -0.5756
vn 0.5790 0.5775 -0.5755
vn -0.5755 -0.5776 0.5789
vn 0.5790 0.5776 -0.5754
vn -0.5785 -0.5751 0.5785
vn 0.5785 0.5749 0.5786
vn 0.5779 0.5764 0.5778
vn -0.7094 -0.0000 0.7048
vn -0.7072 -0.0000 -0.7071
vn 0.5756 0.5775 -0.5790
vn 0.0000 0.7049 -0.7093
vn 0.0000 0.7072 0.7071
vn -0.5778 -0.5764 0.5778
vn 0.0000 0.7062 -0.7080
vn -0.5779 0.5764 0.5778
vn 0.5779 -0.5764 0.5778
vn -0.5784 0.5750 0.5785
vn -0.5796 -0.5762 0.5763
vn -0.5778 0.5764 0.5778
vn -0.5785 0.5750 0.5785
vn 0.5779 -0.5763 0.5778
vn 0.5779 -0.5764 -0.5778
vn 0.5778 -0.5764 -0.5778
vn 0.5761 0.5763 0.5797
vn 0.5796 -0.5763 0.5762
vn 0.5790 -0.5775 0.5755
vn -0.5756 0.5775 -0.5790
vn 0.5785 -0.5750 -0.5784
vn -0.5755 0.5776 0.5789
vn -0.5756 0.5775 0.5790
vn 0.5756 -0.5775 0.5790
vn -0.5784 0.5751 -0.5785
vn -0.5797 0.5762 0.5761
vn 0.5778 -0.5764 -0.5779
vn 0.5797 -0.5762 -0.5762
vn -0.5778 -0.5765 0.5778
s off
f 29/1/1 31/2/1 30/3/1
f 53/4/2 54/5/2 55/6/2
f 53/4/3 55/6/3 56/7/3
f 57/8/4 59/9/4 58/10/4
f 57/8/4 60/11/4 59/9/4
f 77/12/5 79/13/5 78/14/5
f 81/15/6 83/16/6 82/17/6
f 95/18/7 96/19/7 97/20/7
f 98/21/8 99/22/8 100/23/8
f 101/24/9 103/25/9 102/26/9
f 104/27/10 106/28/10 105/29/10
f 104/27/10 107/30/10 106/28/10
f 108/31/11 110/32/11 109/33/11
f 111/34/12 113/35/12 112/36/12
f 114/37/13 115/38/13 116/39/13
f 117/40/14 118/41/14 119/42/14
f 120/43/15 122/44/15 121/45/15
f 123/46/16 125/47/16 124/48/16
f 126/49/17 127/50/17 128/51/17
f 129/52/11 131/53/11 130/54/11
f 132/55/18 134/56/18 133/57/18
f 132/55/19 135/58/19 134/56/19
f 136/59/20 137/60/20 138/61/20
f 136/59/21 138/61/21 139/62/21
f 140/63/19 142/64/19 141/65/19
f 140/63/19 143/66/19 142/64/19
f 144/67/20 145/68/20 146/69/20
f 144/67/21 146/69/21 147/70/21
f 148/71/19 150/72/19 149/73/19
f 148/71/19 151/74/19 150/72/19
f 152/75/22 153/76/22 154/77/22
f 155/78/23 156/79/23 157/80/23
f 158/81/10 160/82/10 159/83/10
f 158/81/24 161/84/24 160/82/24
f 162/85/19 164/86/19 163/87/19
f 162/85/19 165/88/19 164/86/19
f 166/89/25 168/90/25 167/91/25
f 169/92/26 171/93/26 170/94/26
f 169/92/27 172/95/27 171/93/27
f 173/96/28 175/97/28 174/98/28
f 176/99/29 178/100/29 177/101/29
f 179/102/30 180/103/30 181/104/30
f 179/102/31 181/104/31 182/105/31
f 183/106/32 184/107/32 185/108/32
f 186/109/33 187/110/33 188/111/33
f 189/112/14 190/113/14 191/114/14
f 192/115/34 193/116/34 194/117/34
f 195/118/20 197/119/20 196/120/20
f 195/118/20 198/121/20 197/119/20
f 239/122/35 241/123/35 240/124/35
f 239/122/35 242/125/35 241/123/35
f 243/126/36 244/127/36 245/128/36
f 261/129/37 263/130/37 262/131/37
f 280/132/38 281/133/38 282/134/38
f 280/132/38 282/134/38 283/135/38
f 391/136/39 392/137/39 393/138/39
f 391/136/39 393/138/39 394/139/39
f 395/140/39 396/141/39 397/142/39
f 395/140/39 397/142/39 398/143/39
f 399/144/40 401/145/40 400/146/40
f 399/144/40 402/147/40 401/145/40
f 403/148/41 404/149/41 405/150/41
f 403/148/41 405/150/41 406/151/41
f 407/152/40 408/153/40 409/154/40
f 407/152/40 409/154/40 410/155/40
f 411/156/27 412/157/27 413/158/27
f 411/156/27 413/158/27 414/159/27
f 415/160/42 416/161/42 417/162/42
f 415/160/43 417/162/43 418/163/43
f 419/164/44 420/165/44 421/166/44
f 419/164/44 421/166/44 422/167/44
f 423/168/40 425/169/40 424/170/40
f 423/168/40 426/171/40 425/169/40
f 427/172/39 428/173/39 429/174/39
f 427/172/39 429/174/39 430/175/39
f 431/176/40 433/177/40 432/178/40
f 431/176/40 434/179/40 433/177/40
f 435/180/39 436/181/39 437/182/39
f 435/180/39 437/182/39 438/183/39
f 439/184/45 440/185/45 441/186/45
f 439/184/46 441/186/46 442/187/46
f 443/188/31 444/189/31 445/190/31
f 443/188/30 445/190/30 446/191/30
f 447/192/47 448/193/47 449/194/47
f 447/192/46 449/194/46 450/195/46
f 451/196/48 452/197/48 453/198/48
f 451/196/49 453/198/49 454/199/49
f 455/200/50 456/201/50 457/202/50
f 458/203/40 460/204/40 459/205/40
f 458/203/40 461/206/40 460/204/40
f 462/207/40 464/208/40 463/209/40
f 462/207/40 465/210/40 464/208/40
f 466/211/51 468/212/51 467/213/51
f 469/214/39 470/215/39 471/216/39
f 469/214/39 471/216/39 472/217/39
f 473/218/52 474/219/52 475/220/52
f 473/218/53 475/220/53 476/221/53
f 477/222/54 478/223/54 479/224/54
f 477/222/54 479/224/54 480/225/54
f 481/226/30 482/227/30 483/228/30
f 481/226/30 483/228/30 484/229/30
f 485/230/40 487/231/40 486/232/40
f 485/230/40 488/233/40 487/231/40
f 489/234/41 491/235/41 490/236/41
f 489/234/41 492/237/41 491/235/41
f 493/238/55 494/239/55 495/240/55
f 493/238/55 495/240/55 496/241/55
f 497/242/56 498/243/56 499/244/56
f 497/242/56 499/244/56 500/245/56
f 501/246/30 502/247/30 503/248/30
f 501/246/30 503/248/30 504/249/30
f 505/250/41 507/251/41 506/252/41
f 508/253/1 510/254/1 509/255/1
f 508/253/4 511/256/4 510/254/4
f 512/257/3 514/258/3 513/259/3
f 515/260/57 517/261/57 516/262/57
f 518/263/41 520/264/41 519/265/41
f 518/263/41 521/266/41 520/264/41
f 522/267/40 524/268/40 523/269/40
f 522/267/40 525/270/40 524/268/40
f 526/271/1 528/272/1 527/273/1
f 526/271/1 529/274/1 528/272/1
f 530/275/3 532/276/3 531/277/3
f 533/278/41 535/279/41 534/280/41
f 533/278/41 536/281/41 535/279/41
f 537/282/58 539/283/58 538/284/58
f 537/282/1 540/285/1 539/283/1
f 541/286/59 543/287/59 542/288/59
f 544/289/41 546/290/41 545/291/41
f 544/289/41 547/292/41 546/290/41
f 548/293/60 550/294/60 549/295/60
f 551/296/35 553/297/35 552/298/35
f 554/299/61 556/300/61 555/301/61
f 557/302/48 558/303/48 559/304/48
f 557/302/49 559/304/49 560/305/49
f 561/306/62 563/307/62 562/308/62
f 564/309/63 566/310/63 565/311/63
f 564/309/64 567/312/64 566/310/64
f 568/313/63 570/314/63 569/315/63
f 568/313/64 571/316/64 570/314/64
f 572/317/65 574/318/65 573/319/65
f 575/320/43 577/321/43 576/322/43
f 578/323/66 580/324/66 579/325/66
f 581/326/67 582/327/67 583/328/67
f 581/326/67 583/328/67 584/329/67
f 585/330/39 587/331/39 586/332/39
f 588/333/40 589/334/40 590/335/40
f 588/333/40 590/335/40 591/336/40
f 592/337/40 594/338/40 593/339/40
f 595/340/39 596/341/39 597/342/39
f 595/340/39 597/342/39 598/343/39
f 599/344/40 601/345/40 600/346/40
f 599/344/40 602/347/40 601/345/40
f 603/348/39 604/349/39 605/350/39
f 603/348/39 605/350/39 606/351/39
f 607/352/31 608/353/31 609/354/31
f 607/352/30 609/354/30 610/355/30
f 611/356/45 613/357/45 612/358/45
f 611/356/45 614/359/45 613/357/45
f 615/360/45 616/361/45 617/362/45
f 615/360/46 617/362/46 618/363/46
f 619/364/67 620/365/67 621/366/67
f 619/364/49 621/366/49 622/367/49
f 623/368/31 624/369/31 625/370/31
f 623/368/30 625/370/30 626/371/30
f 627/372/45 628/373/45 629/374/45
f 627/372/46 629/374/46 630/375/46
f 631/376/67 632/377/67 633/378/67
f 631/376/67 633/378/67 634/379/67
f 635/380/31 636/381/31 637/382/31
f 635/380/30 637/382/30 638/383/30
f 639/384/39 640/385/39 641/386/39
f 639/384/39 641/386/39 642/387/39
f 643/388/10 644/389/10 645/390/10
f 643/388/10 645/390/10 646/391/10
f 647/392/68 648/393/68 649/394/68
f 647/392/69 649/394/69 650/395/69
f 651/396/70 653/397/70 652/398/70
f 654/399/49 655/400/49 656/401/49
f 657/402/4 659/403/4 658/404/4
f 660/405/41 662/406/41 661/407/41
f 663/408/71 664/409/71 665/410/71
f 666/411/39 667/412/39 668/413/39
f 666/411/39 668/413/39 669/414/39
f 670/415/41 671/416/41 672/417/41
f 673/418/72 674/419/72 675/420/72
f 676/421/71 678/422/71 677/423/71
f 679/424/41 681/425/41 680/426/41
f 679/424/41 682/427/41 681/425/41
f 683/428/58 685/429/58 684/430/58
f 686/431/3 688/432/3 687/433/3
f 686/431/59 689/434/59 688/432/59
f 690/435/73 691/436/73 692/437/73
f 690/435/74 692/437/74 693/438/74
f 694/439/41 696/440/41 695/441/41
f 697/442/41 699/443/41 698/444/41
f 697/442/41 700/445/41 699/443/41
f 701/446/4 703/447/4 702/448/4
f 701/446/4 704/449/4 703/447/4
f 705/450/63 707/451/63 706/452/63
f 708/453/6 709/454/6 710/455/6
f 711/456/75 713/457/75 712/458/75
f 714/459/15 716/460/15 715/461/15
f 717/462/76 719/463/76 718/464/76
f 720/465/77 722/466/77 721/467/77
f 723/468/39 725/469/39 724/470/39
f 723/468/39 726/471/39 725/469/39
f 727/472/38 729/473/38 728/474/38
f 727/472/38 730/475/38 729/473/38
f 731/476/73 733/477/73 732/478/73
f 731/476/73 734/479/73 733/477/73
f 735/480/78 737/481/78 736/482/78
f 735/480/78 738/483/78 737/481/78
f 739/484/39 741/485/39 740/486/39
f 739/484/39 742/487/39 741/485/39
f 743/488/41 744/489/41 745/490/41
f 743/488/41 745/490/41 746/491/41
f 747/492/39 749/493/39 748/494/39
f 750/495/41 751/496/41 752/497/41
f 750/495/41 752/497/41 753/498/41
f 754/499/40 756/500/40 755/501/40
f 757/502/39 759/503/39 758/504/39
f 757/502/39 760/505/39 759/503/39
f 761/506/41 762/507/41 763/508/41
f 761/506/41 763/508/41 764/509/41
f 765/510/39 767/511/39 766/512/39
f 765/510/39 768/513/39 767/511/39
f 769/514/41 770/515/41 771/516/41
f 769/514/41 771/516/41 772/517/41
f 773/518/13 774/519/13 775/520/13
f 776/521/79 778/522/79 777/523/79
f 779/524/45 781/525/45 780/526/45
f 779/524/45 782/527/45 781/525/45
f 783/528/56 785/529/56 784/530/56
f 783/528/72 786/531/72 785/529/72
f 787/532/31 789/533/31 788/534/31
f 787/532/31 790/535/31 789/533/31
f 791/536/80 792/537/80 793/538/80
f 791/536/81 793/538/81 794/539/81
f 795/540/56 797/541/56 796/542/56
f 795/540/72 798/543/72 797/541/72
f 799/544/31 801/545/31 800/546/31
f 799/544/82 802/547/82 801/545/82
f 803/548/47 805/549/47 804/550/47
f 803/548/47 806/551/47 805/549/47
f 807/552/72 809/553/72 808/554/72
f 807/552/72 810/555/72 809/553/72
f 811/556/82 813/557/82 812/558/82
f 811/556/82 814/559/82 813/557/82
f 815/560/80 816/561/80 817/562/80
f 815/560/80 817/562/80 818/563/80
f 819/564/47 821/565/47 820/566/47
f 819/564/47 822/567/47 821/565/47
f 823/568/72 825/569/72 824/570/72
f 823/568/72 826/571/72 825/569/72
f 827/572/31 829/573/31 828/574/31
f 827/572/31 830/575/31 829/573/31
f 831/576/40 833/577/40 832/578/40
f 831/576/40 834/579/40 833/577/40
f 835/580/39 837/581/39 836/582/39
f 835/580/39 838/583/39 837/581/39
f 839/584/83 841/585/83 840/586/83
f 839/584/83 842/587/83 841/585/83
f 843/588/69 845/589/69 844/590/69
f 843/588/69 846/591/69 845/589/69
f 847/592/84 848/593/84 849/594/84
f 847/592/83 849/594/83 850/595/83
f 851/596/70 853/597/70 852/598/70
f 854/599/41 856/600/41 855/601/41
f 854/599/41 857/602/41 856/600/41
f 858/603/39 860/604/39 859/605/39
f 858/603/39 861/606/39 860/604/39
f 862/607/41 863/608/41 864/609/41
f 862/607/41 864/609/41 865/610/41
f 866/611/44 867/612/44 868/613/44
f 866/611/44 868/613/44 869/614/44
f 870/615/67 871/616/67 872/617/67
f 873/618/80 874/619/80 875/620/80
f 873/618/80 875/620/80 876/621/80
f 877/622/56 879/623/56 878/624/56
f 877/622/72 880/625/72 879/623/72
f 881/626/46 883/627/46 882/628/46
f 881/626/45 884/629/45 883/627/45
f 885/630/3 887/631/3 886/632/3
f 885/630/3 888/633/3 887/631/3
f 889/634/27 891/635/27 890/636/27
f 889/634/26 892/637/26 891/635/26
f 893/638/85 894/639/85 895/640/85
f 896/641/86 897/642/86 898/643/86
f 899/644/39 901/645/39 900/646/39
f 899/644/39 902/647/39 901/645/39
f 903/648/51 905/649/51 904/650/51
f 906/651/45 908/652/45 907/653/45
f 906/651/46 909/654/46 908/652/46
f 910/655/85 912/656/85 911/657/85
f 913/658/27 915/659/27 914/660/27
f 913/658/27 916/661/27 915/659/27
f 917/662/39 919/663/39 918/664/39
f 917/662/39 920/665/39 919/663/39
f 921/666/45 923/667/45 922/668/45
f 921/666/45 924/669/45 923/667/45
f 925/670/67 927/671/67 926/672/67
f 928/673/27 930/674/27 929/675/27
f 928/673/27 931/676/27 930/674/27
f 932/677/87 934/678/87 933/679/87
f 935/680/88 937/681/88 936/682/88
f 938/683/20 939/684/20 940/685/20
f 941/686/80 942/687/80 943/688/80
f 941/686/80 943/688/80 944/689/80
f 945/690/89 947/691/89 946/692/89
f 948/693/90 950/694/90 949/695/90
f 951/696/91 953/697/91 952/698/91
f 954/699/61 956/700/61 955/701/61
f 957/702/92 958/703/92 959/704/92
f 960/705/81 961/706/81 962/707/81
f 960/705/80 962/707/80 963/708/80
f 964/709/35 966/710/35 965/711/35
f 964/709/35 967/712/35 966/710/35
f 968/713/44 969/714/44 970/715/44
f 968/713/44 970/715/44 971/716/44
f 972/717/72 974/718/72 973/719/72
f 972/717/72 975/720/72 974/718/72
f 976/721/41 977/722/41 978/723/41
f 976/721/41 978/723/41 979/724/41
f 980/725/39 982/726/39 981/727/39
f 983/728/20 985/729/20 984/730/20
f 983/728/20 986/731/20 985/729/20
f 987/732/45 989/733/45 988/734/45
f 987/732/46 990/735/46 989/733/46
f 991/736/51 993/737/51 992/738/51
f 994/739/41 996/740/41 995/741/41
f 997/742/40 998/743/40 999/744/40
f 997/742/40 999/744/40 1000/745/40
f 1001/746/64 1002/747/64 1003/748/64
f 1004/749/93 1006/750/93 1005/751/93
f 1007/752/94 1008/753/94 1009/754/94
f 1010/755/12 1012/756/12 1011/757/12
f 1013/758/95 1015/759/95 1014/760/95
f 1016/761/96 1018/762/96 1017/763/96
f 1019/764/97 1021/765/97 1020/766/97
f 1022/767/19 1024/768/19 1023/769/19
f 1022/767/19 1025/770/19 1024/768/19
f 1026/771/98 1028/772/98 1027/773/98
f 1029/774/18 1030/775/18 1031/776/18
f 1029/774/37 1031/776/37 1032/777/37
f 1033/778/99 1034/779/99 1035/780/99
f 1036/781/100 1037/782/100 1038/783/100
f 1039/784/101 1041/785/101 1040/786/101
f 1042/787/102 1043/788/102 1044/789/102
f 1045/790/39 1047/791/39 1046/792/39
f 1048/793/103 1050/794/103 1049/795/103
f 1048/793/103 1051/796/103 1050/794/103
f 1052/797/85 1054/798/85 1053/799/85
f 1052/797/104 1055/800/104 1054/798/104
f 1056/801/40 1057/802/40 1058/803/40
f 1056/801/40 1058/803/40 1059/804/40
f 1060/805/40 1061/806/40 1062/807/40
f 1060/805/40 1062/807/40 1063/808/40
f 1064/809/40 1065/810/40 1066/811/40
f 1064/809/40 1066/811/40 1067/812/40
f 1068/813/79 1070/814/79 1069/815/79
f 1071/816/20 1072/817/20 1073/818/20
f 1071/816/20 1073/818/20 1074/819/20
f 1075/820/40 1076/821/40 1077/822/40
f 1075/820/40 1077/822/40 1078/823/40
f 1079/824/41 1080/825/41 1081/826/41
f 1079/824/41 1081/826/41 1082/827/41
f 1083/828/105 1085/829/105 1084/830/105
f 1086/831/73 1088/832/73 1087/833/73
f 1086/831/73 1089/834/73 1088/832/73
f 1090/835/40 1091/836/40 1092/837/40
f 1090/835/40 1092/837/40 1093/838/40
f 1094/839/40 1095/840/40 1096/841/40
f 1094/839/40 1096/841/40 1097/842/40
f 1098/843/4 1099/844/4 1100/845/4
f 1101/846/40 1102/847/40 1103/848/40
f 1101/846/40 1103/848/40 1104/849/40
f 1105/850/67 1107/851/67 1106/852/67
f 1108/853/51 1109/854/51 1110/855/51
f 1111/856/59 1112/857/59 1113/858/59
f 1114/859/64 1116/860/64 1115/861/64
f 1114/859/64 1117/862/64 1116/860/64
f 1118/863/6 1120/864/6 1119/865/6
f 1121/866/64 1123/867/64 1122/868/64
f 1124/869/3 1126/870/3 1125/871/3
f 1124/869/59 1127/872/59 1126/870/59
f 1128/873/6 1129/874/6 1130/875/6
f 1131/876/3 1133/877/3 1132/878/3
f 1134/879/71 1135/880/71 1136/881/71
f 1137/882/106 1138/883/106 1139/884/106
f 1140/885/107 1142/886/107 1141/887/107
f 1143/888/61 1145/889/61 1144/890/61
f 1146/891/63 1147/892/63 1148/893/63
f 1146/891/63 1148/893/63 1149/894/63
f 1150/895/52 1151/896/52 1152/897/52
f 1150/895/55 1152/897/55 1153/898/55
f 1154/899/18 1156/900/18 1155/901/18
f 1154/899/18 1157/902/18 1156/900/18
f 1158/903/108 1160/904/108 1159/905/108
f 1161/906/109 1162/907/109 1163/908/109
f 1164/909/60 1165/910/60 1166/911/60
f 1167/912/42 1169/913/42 1168/914/42
f 1170/915/88 1171/916/88 1172/917/88
f 1173/918/41 1175/919/41 1174/920/41
f 1176/921/110 1178/922/110 1177/923/110
f 1179/924/17 1180/925/17 1181/926/17
f 1182/927/111 1184/928/111 1183/929/111
f 1185/930/76 1187/931/76 1186/932/76
f 1188/933/97 1190/934/97 1189/935/97
f 1191/936/96 1193/937/96 1192/938/96
f 1194/939/112 1195/940/112 1196/941/112
f 1197/942/113 1198/943/113 1199/944/113
f 1200/945/95 1202/946/95 1201/947/95
f 1203/948/114 1205/949/114 1204/950/114
f 1206/951/75 1208/952/75 1207/953/75
f 1209/954/115 1211/955/115 1210/956/115
f 1212/957/11 1214/958/11 1213/959/11
f 1215/960/116 1217/961/116 1216/962/116
f 1218/963/117 1219/964/117 1220/965/117
f 1221/966/118 1222/967/118 1223/968/118
f 1224/969/119 1225/970/119 1226/971/119
f 1227/972/76 1229/973/76 1228/974/76
f 1230/975/76 1232/976/76 1231/977/76
f 1233/978/120 1234/979/120 1235/980/120
f 1236/981/121 1238/982/121 1237/983/121
f 1239/984/122 1241/985/122 1240/986/122
f 1242/987/123 1243/988/123 1244/989/123
f 1245/990/88 1247/991/88 1246/992/88
f 1248/993/76 1250/994/76 1249/995/76
f 1251/996/124 1253/997/124 1252/998/124
f 1254/999/125 1255/1000/125 1256/1001/125
f 1257/1002/117 1259/1003/117 1258/1004/117
f 1260/1005/76 1262/1006/76 1261/1007/76
f 1263/1008/126 1265/1009/126 1264/1010/126
f 1266/1011/127 1268/1012/127 1267/1013/127
f 1269/1014/128 1271/1015/128 1270/1016/128
f 1272/1017/129 1274/1018/129 1273/1019/129
f 1275/1020/30 1276/1021/30 1277/1022/30
f 1278/1023/130 1279/1024/130 1280/1025/130
f 1281/1026/131 1283/1027/131 1282/1028/131

