# Blender v2.82 (sub 7) OBJ File: 'living_room.blend'
# www.blender.org
o FloorLampBase_Mesh_(179)
v 2.624490 1.288270 1.677370
v 2.624490 1.279600 1.677370
v 2.620530 1.279600 1.679970
v 2.620530 1.288270 1.679970
v 2.620250 1.290160 1.679680
v 2.624330 1.290160 1.677000
v 2.629120 1.290160 1.676010
v 2.629120 1.288270 1.676410
v 2.629120 1.279600 1.676410
v 2.617940 1.288270 1.683930
v 2.617940 1.279600 1.683930
v 2.616980 1.279600 1.688560
v 2.616980 1.288270 1.688560
v 2.616570 1.290160 1.688560
v 2.617560 1.290160 1.683770
v 2.617940 1.288270 1.693190
v 2.617940 1.279600 1.693190
v 2.620530 1.279600 1.697150
v 2.620530 1.288270 1.697150
v 2.620250 1.290160 1.697430
v 2.617560 1.290160 1.693350
v 2.624490 1.288270 1.699740
v 2.624490 1.279600 1.699740
v 2.629120 1.279600 1.700700
v 2.629120 1.288270 1.700700
v 2.629120 1.290160 1.701110
v 2.624330 1.290160 1.700120
v 2.633750 1.288270 1.699740
v 2.633750 1.279600 1.699740
v 2.637710 1.279600 1.697150
v 2.637710 1.288270 1.697150
v 2.638000 1.290160 1.697430
v 2.633910 1.290160 1.700120
v 2.640310 1.288270 1.693190
v 2.640310 1.279600 1.693190
v 2.641270 1.279600 1.688560
v 2.641270 1.288270 1.688560
v 2.641670 1.290160 1.688560
v 2.640680 1.290160 1.693350
v 2.640310 1.288270 1.683930
v 2.640310 1.279600 1.683930
v 2.637710 1.279600 1.679970
v 2.637710 1.288270 1.679970
v 2.638000 1.290160 1.679680
v 2.640680 1.290160 1.683770
v 2.633750 1.288270 1.677370
v 2.633750 1.279600 1.677370
v 2.633910 1.290160 1.677000
v 2.634370 1.293790 1.675880
v 2.629120 1.293790 1.674790
v 2.629120 1.301590 1.673580
v 2.634840 1.301590 1.674760
v 2.639710 1.301590 1.677970
v 2.638850 1.293790 1.678830
v 2.641800 1.293790 1.683310
v 2.642920 1.301590 1.682840
v 2.644100 1.301590 1.688560
v 2.642890 1.293790 1.688560
v 2.641800 1.293790 1.693810
v 2.638850 1.293790 1.698290
v 2.642920 1.301590 1.694270
v 2.639710 1.301590 1.699150
v 2.634370 1.293790 1.701240
v 2.634840 1.301590 1.702360
v 2.629120 1.301590 1.703540
v 2.629120 1.293790 1.702320
v 2.623870 1.293790 1.701240
v 2.623410 1.301590 1.702360
v 2.618530 1.301590 1.699150
v 2.619390 1.293790 1.698290
v 2.616440 1.293790 1.693810
v 2.615320 1.301590 1.694270
v 2.614140 1.301590 1.688560
v 2.615360 1.293790 1.688560
v 2.616440 1.293790 1.683310
v 2.615320 1.301590 1.682840
v 2.618530 1.301590 1.677970
v 2.619390 1.293790 1.678830
v 2.623870 1.293790 1.675880
v 2.623410 1.301590 1.674760
v 2.623250 1.316030 1.674390
v 2.618240 1.316030 1.677680
v 2.618420 1.329570 1.677860
v 2.623350 1.329570 1.674620
v 2.629120 1.329570 1.673420
v 2.629120 1.316030 1.673170
v 2.614950 1.316030 1.682690
v 2.613730 1.316030 1.688560
v 2.613990 1.329570 1.688560
v 2.615180 1.329570 1.682790
v 2.614950 1.316030 1.694430
v 2.618240 1.316030 1.699440
v 2.618420 1.329570 1.699260
v 2.615180 1.329570 1.694330
v 2.623250 1.316030 1.702730
v 2.629120 1.316030 1.703940
v 2.629120 1.329570 1.703690
v 2.623350 1.329570 1.702500
v 2.634990 1.316030 1.702730
v 2.640000 1.316030 1.699440
v 2.639820 1.329570 1.699260
v 2.634890 1.329570 1.702500
v 2.643290 1.316030 1.694430
v 2.644510 1.316030 1.688560
v 2.644250 1.329570 1.688560
v 2.643060 1.329570 1.694330
v 2.643290 1.316030 1.682690
v 2.640000 1.316030 1.677680
v 2.639820 1.329570 1.677860
v 2.643060 1.329570 1.682790
v 2.634990 1.316030 1.674390
v 2.634890 1.329570 1.674620
v 2.634610 1.334650 1.675320
v 2.629120 1.334650 1.674180
v 2.629120 1.335300 1.675310
v 2.634170 1.335300 1.676360
v 2.638490 1.335300 1.679190
v 2.639290 1.334650 1.678390
v 2.642360 1.334650 1.683070
v 2.641320 1.335300 1.683510
v 2.642370 1.335300 1.688560
v 2.643500 1.334650 1.688560
v 2.642360 1.334650 1.694040
v 2.639290 1.334650 1.698730
v 2.641320 1.335300 1.693610
v 2.638490 1.335300 1.697920
v 2.634610 1.334650 1.701800
v 2.634170 1.335300 1.700760
v 2.629120 1.335300 1.701800
v 2.629120 1.334650 1.702940
v 2.623640 1.334650 1.701800
v 2.624070 1.335300 1.700760
v 2.619760 1.335300 1.697920
v 2.618950 1.334650 1.698730
v 2.615880 1.334650 1.694040
v 2.616920 1.335300 1.693610
v 2.615880 1.335300 1.688560
v 2.614740 1.334650 1.688560
v 2.615880 1.334650 1.683070
v 2.616920 1.335300 1.683510
v 2.619760 1.335300 1.679190
v 2.618950 1.334650 1.678390
v 2.623640 1.334650 1.675320
v 2.624070 1.335300 1.676360
v 2.624600 1.335520 1.677640
v 2.620730 1.335520 1.680170
v 2.621800 1.335520 1.681240
v 2.625170 1.335520 1.679030
v 2.629120 1.335520 1.678210
v 2.629120 1.335520 1.676700
v 2.618200 1.335520 1.684030
v 2.617260 1.335520 1.688560
v 2.618770 1.335520 1.688560
v 2.619590 1.335520 1.684610
v 2.618200 1.335520 1.693080
v 2.620730 1.335520 1.696940
v 2.621800 1.335520 1.695880
v 2.619590 1.335520 1.692510
v 2.624600 1.335520 1.699480
v 2.629120 1.335520 1.700420
v 2.629120 1.335520 1.698910
v 2.625170 1.335520 1.698090
v 2.633650 1.335520 1.699480
v 2.637510 1.335520 1.696940
v 2.636440 1.335520 1.695880
v 2.633070 1.335520 1.698090
v 2.640040 1.335520 1.693080
v 2.640980 1.335520 1.688560
v 2.639470 1.335520 1.688560
v 2.638650 1.335520 1.692510
v 2.640040 1.335520 1.684030
v 2.637510 1.335520 1.680170
v 2.636440 1.335520 1.681240
v 2.638650 1.335520 1.684610
v 2.633650 1.335520 1.677640
v 2.633070 1.335520 1.679030
v 2.620400 0.253011 1.667510
v 2.629120 0.253011 1.665710
v 2.629120 0.201338 1.655280
v 2.616430 0.201338 1.657910
v 2.605590 0.201338 1.665030
v 2.612960 0.253011 1.672400
v 2.618640 0.298239 1.678080
v 2.623470 0.298239 1.674910
v 2.629120 0.298239 1.673740
v 2.608070 0.253011 1.679840
v 2.598470 0.201338 1.675860
v 2.595840 0.201338 1.688560
v 2.606270 0.253011 1.688560
v 2.614300 0.298239 1.688560
v 2.615470 0.298239 1.682900
v 2.608070 0.253011 1.697280
v 2.598470 0.201338 1.701250
v 2.605590 0.201338 1.712090
v 2.612960 0.253011 1.704720
v 2.618640 0.298239 1.699040
v 2.615470 0.298239 1.694210
v 2.620400 0.253011 1.709610
v 2.616430 0.201338 1.719210
v 2.629120 0.201338 1.721840
v 2.629120 0.253011 1.711410
v 2.629120 0.298239 1.703380
v 2.623470 0.298239 1.702210
v 2.637840 0.253011 1.709610
v 2.641820 0.201338 1.719210
v 2.652650 0.201338 1.712090
v 2.645280 0.253011 1.704720
v 2.639600 0.298239 1.699040
v 2.634770 0.298239 1.702210
v 2.650170 0.253011 1.697280
v 2.659770 0.201338 1.701250
v 2.662400 0.201338 1.688560
v 2.651970 0.253011 1.688560
v 2.643940 0.298239 1.688560
v 2.642770 0.298239 1.694210
v 2.650170 0.253011 1.679840
v 2.659770 0.201338 1.675860
v 2.652650 0.201338 1.665030
v 2.645280 0.253011 1.672400
v 2.639600 0.298239 1.678080
v 2.642770 0.298239 1.682900
v 2.637840 0.253011 1.667510
v 2.641820 0.201338 1.657910
v 2.634770 0.298239 1.674910
v 2.612660 0.162966 1.648820
v 2.629120 0.162966 1.645410
v 2.629120 0.132441 1.633550
v 2.608140 0.132441 1.637900
v 2.590220 0.132441 1.649660
v 2.598610 0.162966 1.658050
v 2.589390 0.162966 1.672100
v 2.578460 0.132441 1.667570
v 2.574110 0.132441 1.688560
v 2.585980 0.162966 1.688560
v 2.589390 0.162966 1.705020
v 2.578460 0.132441 1.709540
v 2.590220 0.132441 1.727460
v 2.598610 0.162966 1.719070
v 2.612660 0.162966 1.728290
v 2.608140 0.132441 1.739220
v 2.629120 0.132441 1.743570
v 2.629120 0.162966 1.731700
v 2.645580 0.162966 1.728290
v 2.650110 0.132441 1.739220
v 2.668020 0.132441 1.727460
v 2.659630 0.162966 1.719070
v 2.668860 0.162966 1.705020
v 2.679780 0.132441 1.709540
v 2.684130 0.132441 1.688560
v 2.672270 0.162966 1.688560
v 2.668860 0.162966 1.672100
v 2.679780 0.132441 1.667570
v 2.668020 0.132441 1.649660
v 2.659630 0.162966 1.658050
v 2.645580 0.162966 1.648820
v 2.650110 0.132441 1.637900
v 2.601870 0.104306 1.622770
v 2.629120 0.104306 1.617130
v 2.629120 0.079330 1.590440
v 2.591690 0.079330 1.598190
v 2.559740 0.079330 1.619180
v 2.578610 0.104306 1.638050
v 2.563330 0.104306 1.661310
v 2.538750 0.079330 1.651130
v 2.531000 0.079330 1.688560
v 2.557690 0.104306 1.688560
v 2.563330 0.104306 1.715810
v 2.538750 0.079330 1.725990
v 2.559740 0.079330 1.757940
v 2.578610 0.104306 1.739070
v 2.601870 0.104306 1.754350
v 2.591690 0.079330 1.778930
v 2.629120 0.079330 1.786680
v 2.629120 0.104306 1.759990
v 2.656370 0.104306 1.754350
v 2.666550 0.079330 1.778930
v 2.698500 0.079330 1.757940
v 2.679630 0.104306 1.739070
v 2.694910 0.104306 1.715810
v 2.719490 0.079330 1.725990
v 2.727240 0.079330 1.688560
v 2.700560 0.104306 1.688560
v 2.694910 0.104306 1.661310
v 2.719490 0.079330 1.651130
v 2.698500 0.079330 1.619180
v 2.679630 0.104306 1.638050
v 2.656370 0.104306 1.622770
v 2.666550 0.079330 1.598190
v 2.555420 0.034600 1.510640
v 2.629120 0.034600 1.495380
v 2.629120 0.030982 1.494020
v 2.554910 0.030982 1.509390
v 2.491560 0.030982 1.551000
v 2.492520 0.034600 1.551960
v 2.502420 0.042816 1.561860
v 2.560770 0.042816 1.523540
v 2.629120 0.042816 1.509380
v 2.575420 0.058280 1.558920
v 2.629120 0.058280 1.547800
v 2.529590 0.058280 1.589030
v 2.451200 0.034600 1.614860
v 2.449950 0.030982 1.614340
v 2.434580 0.030982 1.688560
v 2.435940 0.034600 1.688560
v 2.449940 0.042816 1.688560
v 2.464100 0.042816 1.620210
v 2.499480 0.058280 1.634860
v 2.488360 0.058280 1.688560
v 2.451200 0.034600 1.762260
v 2.449950 0.030982 1.762770
v 2.491560 0.030982 1.826120
v 2.492520 0.034600 1.825160
v 2.502420 0.042816 1.815260
v 2.464100 0.042816 1.756910
v 2.499480 0.058280 1.742260
v 2.529590 0.058280 1.788090
v 2.555420 0.034600 1.866480
v 2.554910 0.030982 1.867730
v 2.629120 0.030982 1.883100
v 2.629120 0.034600 1.881740
v 2.629120 0.042816 1.867740
v 2.560770 0.042816 1.853580
v 2.575420 0.058280 1.818200
v 2.629120 0.058280 1.829320
v 2.702820 0.034600 1.866480
v 2.703340 0.030982 1.867730
v 2.766680 0.030982 1.826120
v 2.765720 0.034600 1.825160
v 2.755820 0.042816 1.815260
v 2.697470 0.042816 1.853580
v 2.682820 0.058280 1.818200
v 2.728650 0.058280 1.788090
v 2.807040 0.034600 1.762260
v 2.808290 0.030982 1.762770
v 2.823660 0.030982 1.688560
v 2.822300 0.034600 1.688560
v 2.808300 0.042816 1.688560
v 2.794140 0.042816 1.756910
v 2.758760 0.058280 1.742260
v 2.769880 0.058280 1.688560
v 2.807040 0.034600 1.614860
v 2.808290 0.030982 1.614340
v 2.766680 0.030982 1.551000
v 2.765720 0.034600 1.551960
v 2.755820 0.042816 1.561860
v 2.794140 0.042816 1.620210
v 2.758760 0.058280 1.634860
v 2.728650 0.058280 1.589030
v 2.702820 0.034600 1.510640
v 2.703340 0.030982 1.509390
v 2.697470 0.042816 1.523540
v 2.682820 0.058280 1.558920
v 2.554730 0.029313 1.508980
v 2.629120 0.029313 1.493570
v 2.629120 0.028620 1.493570
v 2.554730 0.028620 1.508980
v 2.491240 0.028620 1.550680
v 2.491240 0.029313 1.550680
v 2.449540 0.029313 1.614170
v 2.449540 0.028620 1.614170
v 2.434130 0.028620 1.688560
v 2.434130 0.029313 1.688560
v 2.449540 0.029313 1.762950
v 2.449540 0.028620 1.762950
v 2.491240 0.028620 1.826440
v 2.491240 0.029313 1.826440
v 2.554730 0.029313 1.868140
v 2.554730 0.028620 1.868140
v 2.629120 0.028620 1.883550
v 2.629120 0.029313 1.883550
v 2.703510 0.029313 1.868140
v 2.703510 0.028620 1.868140
v 2.767000 0.028620 1.826440
v 2.767000 0.029313 1.826440
v 2.808710 0.029313 1.762950
v 2.824110 0.029313 1.688560
v 2.808710 0.028620 1.762950
v 2.824110 0.028620 1.688560
v 2.808710 0.029313 1.614170
v 2.808710 0.028620 1.614170
v 2.767000 0.028620 1.550680
v 2.767000 0.029313 1.550680
v 2.703510 0.029313 1.508980
v 2.703510 0.028620 1.508980
v 2.633750 0.317279 1.677370
v 2.629120 0.317279 1.676410
v 2.629120 0.434346 1.676410
v 2.633750 0.434346 1.677370
v 2.637710 0.434346 1.679970
v 2.637710 0.317279 1.679970
v 2.640310 0.317279 1.683930
v 2.640310 0.434346 1.683930
v 2.641270 0.434346 1.688560
v 2.641270 0.317279 1.688560
v 2.640310 0.317279 1.693190
v 2.640310 0.434346 1.693190
v 2.637710 0.434346 1.697150
v 2.637710 0.317279 1.697150
v 2.633750 0.317279 1.699740
v 2.633750 0.434346 1.699740
v 2.629120 0.434346 1.700700
v 2.629120 0.317279 1.700700
v 2.624490 0.317279 1.699740
v 2.624490 0.434346 1.699740
v 2.620530 0.434346 1.697150
v 2.620530 0.317279 1.697150
v 2.617940 0.317279 1.693190
v 2.617940 0.434346 1.693190
v 2.616980 0.434346 1.688560
v 2.616980 0.317279 1.688560
v 2.617940 0.317279 1.683930
v 2.617940 0.434346 1.683930
v 2.620530 0.434346 1.679970
v 2.620530 0.317279 1.679970
v 2.624490 0.317279 1.677370
v 2.624490 0.434346 1.677370
v 2.633750 0.773661 1.677370
v 2.629120 0.773661 1.676410
v 2.629120 1.119380 1.676410
v 2.633750 1.119380 1.677370
v 2.637710 1.119380 1.679970
v 2.637710 0.773661 1.679970
v 2.633750 1.255670 1.677370
v 2.629120 1.255670 1.676410
v 2.637710 1.255670 1.679970
v 2.640310 0.773661 1.683930
v 2.640310 1.119380 1.683930
v 2.641270 1.119380 1.688560
v 2.641270 0.773661 1.688560
v 2.640310 1.255670 1.683930
v 2.641270 1.255670 1.688560
v 2.640310 0.773661 1.693190
v 2.640310 1.119380 1.693190
v 2.637710 1.119380 1.697150
v 2.637710 0.773661 1.697150
v 2.640310 1.255670 1.693190
v 2.637710 1.255670 1.697150
v 2.633750 0.773661 1.699740
v 2.633750 1.119380 1.699740
v 2.629120 1.119380 1.700700
v 2.629120 0.773661 1.700700
v 2.633750 1.255670 1.699740
v 2.629120 1.255670 1.700700
v 2.624490 0.773661 1.699740
v 2.624490 1.119380 1.699740
v 2.620530 1.119380 1.697150
v 2.620530 0.773661 1.697150
v 2.624490 1.255670 1.699740
v 2.620530 1.255670 1.697150
v 2.617940 0.773661 1.693190
v 2.617940 1.119380 1.693190
v 2.616980 1.119380 1.688560
v 2.616980 0.773661 1.688560
v 2.617940 1.255670 1.693190
v 2.616980 1.255670 1.688560
v 2.617940 0.773661 1.683930
v 2.617940 1.119380 1.683930
v 2.620530 1.119380 1.679970
v 2.620530 0.773661 1.679970
v 2.617940 1.255670 1.683930
v 2.620530 1.255670 1.679970
v 2.624490 0.773661 1.677370
v 2.624490 1.119380 1.677370
v 2.624490 1.255670 1.677370
v 2.403192 1.326171 1.683744
v 2.853192 1.326171 1.683744
v 2.403192 1.325196 1.683840
v 2.853192 1.325196 1.683840
v 2.403192 1.324258 1.684125
v 2.853192 1.324258 1.684125
v 2.403192 1.323393 1.684587
v 2.853192 1.323393 1.684587
v 2.403192 1.322636 1.685209
v 2.853192 1.322636 1.685209
v 2.403192 1.322014 1.685966
v 2.853192 1.322014 1.685966
v 2.403192 1.321552 1.686831
v 2.853192 1.321552 1.686831
v 2.403192 1.321267 1.687769
v 2.853192 1.321267 1.687769
v 2.403192 1.321171 1.688744
v 2.853192 1.321171 1.688744
v 2.403192 1.321267 1.689720
v 2.853192 1.321267 1.689720
v 2.403192 1.321552 1.690657
v 2.853192 1.321552 1.690657
v 2.403192 1.322014 1.691522
v 2.853192 1.322014 1.691522
v 2.403192 1.322636 1.692280
v 2.853192 1.322636 1.692280
v 2.403192 1.323393 1.692901
v 2.853192 1.323393 1.692901
v 2.403192 1.324258 1.693363
v 2.853192 1.324258 1.693363
v 2.403192 1.325196 1.693648
v 2.853192 1.325196 1.693648
v 2.403192 1.326171 1.693744
v 2.853192 1.326171 1.693744
v 2.403192 1.327147 1.693648
v 2.853192 1.327147 1.693648
v 2.403192 1.328085 1.693363
v 2.853192 1.328085 1.693363
v 2.403192 1.328949 1.692901
v 2.853192 1.328949 1.692901
v 2.403192 1.329707 1.692280
v 2.853192 1.329707 1.692280
v 2.403192 1.330328 1.691522
v 2.853192 1.330328 1.691522
v 2.403192 1.330791 1.690657
v 2.853192 1.330791 1.690657
v 2.403192 1.331075 1.689720
v 2.853192 1.331075 1.689720
v 2.403192 1.331171 1.688744
v 2.853192 1.331171 1.688744
v 2.403192 1.331075 1.687769
v 2.853192 1.331075 1.687769
v 2.403192 1.330791 1.686831
v 2.853192 1.330791 1.686831
v 2.403192 1.330328 1.685966
v 2.853192 1.330328 1.685966
v 2.403192 1.329707 1.685209
v 2.853192 1.329707 1.685209
v 2.403192 1.328949 1.684587
v 2.853192 1.328949 1.684587
v 2.403192 1.328085 1.684125
v 2.853192 1.328085 1.684125
v 2.403192 1.327147 1.683840
v 2.853192 1.327147 1.683840
v 2.633192 1.326171 1.463744
v 2.633192 1.326171 1.913744
v 2.633096 1.325196 1.463744
v 2.633096 1.325196 1.913744
v 2.632811 1.324258 1.463744
v 2.632811 1.324258 1.913744
v 2.632349 1.323393 1.463744
v 2.632349 1.323393 1.913744
v 2.631727 1.322636 1.463744
v 2.631727 1.322636 1.913744
v 2.630970 1.322014 1.463744
v 2.630970 1.322014 1.913744
v 2.630105 1.321552 1.463744
v 2.630105 1.321552 1.913744
v 2.629167 1.321267 1.463744
v 2.629167 1.321267 1.913744
v 2.628192 1.321171 1.463744
v 2.628192 1.321171 1.913744
v 2.627217 1.321267 1.463744
v 2.627217 1.321267 1.913744
v 2.626279 1.321552 1.463744
v 2.626279 1.321552 1.913744
v 2.625414 1.322014 1.463744
v 2.625414 1.322014 1.913744
v 2.624656 1.322636 1.463744
v 2.624656 1.322636 1.913744
v 2.624035 1.323393 1.463744
v 2.624035 1.323393 1.913744
v 2.623573 1.324258 1.463744
v 2.623573 1.324258 1.913744
v 2.623288 1.325196 1.463744
v 2.623288 1.325196 1.913744
v 2.623192 1.326171 1.463744
v 2.623192 1.326171 1.913744
v 2.623288 1.327147 1.463744
v 2.623288 1.327147 1.913744
v 2.623573 1.328085 1.463744
v 2.623573 1.328084 1.913744
v 2.624035 1.328949 1.463744
v 2.624035 1.328949 1.913744
v 2.624656 1.329707 1.463744
v 2.624656 1.329707 1.913744
v 2.625414 1.330328 1.463744
v 2.625414 1.330328 1.913744
v 2.626279 1.330791 1.463744
v 2.626279 1.330791 1.913744
v 2.627217 1.331075 1.463744
v 2.627217 1.331075 1.913744
v 2.628192 1.331171 1.463744
v 2.628192 1.331171 1.913744
v 2.629167 1.331075 1.463744
v 2.629167 1.331075 1.913744
v 2.630105 1.330791 1.463744
v 2.630105 1.330791 1.913744
v 2.630970 1.330328 1.463744
v 2.630970 1.330328 1.913744
v 2.631727 1.329707 1.463744
v 2.631727 1.329707 1.913744
v 2.632349 1.328949 1.463744
v 2.632349 1.328949 1.913744
v 2.632811 1.328085 1.463744
v 2.632811 1.328084 1.913744
v 2.633096 1.327147 1.463744
v 2.633096 1.327147 1.913744
vt 1.000000 1.000000
vt 0.968750 0.500000
vt 1.000000 0.500000
vt 0.968750 1.000000
vt 0.937500 0.500000
vt 0.937500 1.000000
vt 0.906250 0.500000
vt 0.906250 1.000000
vt 0.875000 0.500000
vt 0.875000 1.000000
vt 0.843750 0.500000
vt 0.843750 1.000000
vt 0.812500 0.500000
vt 0.812500 1.000000
vt 0.781250 0.500000
vt 0.781250 1.000000
vt 0.750000 0.500000
vt 0.750000 1.000000
vt 0.718750 0.500000
vt 0.718750 1.000000
vt 0.687500 0.500000
vt 0.687500 1.000000
vt 0.656250 0.500000
vt 0.656250 1.000000
vt 0.625000 0.500000
vt 0.625000 1.000000
vt 0.593750 0.500000
vt 0.593750 1.000000
vt 0.562500 0.500000
vt 0.562500 1.000000
vt 0.531250 0.500000
vt 0.531250 1.000000
vt 0.500000 0.500000
vt 0.500000 1.000000
vt 0.468750 0.500000
vt 0.468750 1.000000
vt 0.437500 0.500000
vt 0.437500 1.000000
vt 0.406250 0.500000
vt 0.406250 1.000000
vt 0.375000 0.500000
vt 0.375000 1.000000
vt 0.343750 0.500000
vt 0.343750 1.000000
vt 0.312500 0.500000
vt 0.312500 1.000000
vt 0.281250 0.500000
vt 0.281250 1.000000
vt 0.250000 0.500000
vt 0.250000 1.000000
vt 0.218750 0.500000
vt 0.218750 1.000000
vt 0.187500 0.500000
vt 0.187500 1.000000
vt 0.156250 0.500000
vt 0.156250 1.000000
vt 0.125000 0.500000
vt 0.125000 1.000000
vt 0.093750 0.500000
vt 0.093750 1.000000
vt 0.062500 0.500000
vt 0.471731 0.158156
vt 0.471731 0.341844
vt 0.341844 0.471731
vt 0.062500 1.000000
vt 0.031250 0.500000
vt 0.031250 1.000000
vt 0.000000 0.500000
vt 0.550447 0.383337
vt 0.703179 0.485389
vt 0.796822 0.014612
vt 1.000000 1.000000
vt 0.968750 0.500000
vt 1.000000 0.500000
vt 0.968750 1.000000
vt 0.937500 0.500000
vt 0.937500 1.000000
vt 0.906250 0.500000
vt 0.906250 1.000000
vt 0.875000 0.500000
vt 0.875000 1.000000
vt 0.843750 0.500000
vt 0.843750 1.000000
vt 0.812500 0.500000
vt 0.812500 1.000000
vt 0.781250 0.500000
vt 0.781250 1.000000
vt 0.750000 0.500000
vt 0.750000 1.000000
vt 0.718750 0.500000
vt 0.718750 1.000000
vt 0.687500 0.500000
vt 0.687500 1.000000
vt 0.656250 0.500000
vt 0.656250 1.000000
vt 0.625000 0.500000
vt 0.625000 1.000000
vt 0.593750 0.500000
vt 0.593750 1.000000
vt 0.562500 0.500000
vt 0.562500 1.000000
vt 0.531250 0.500000
vt 0.531250 1.000000
vt 0.500000 0.500000
vt 0.500000 1.000000
vt 0.468750 0.500000
vt 0.468750 1.000000
vt 0.437500 0.500000
vt 0.437500 1.000000
vt 0.406250 0.500000
vt 0.406250 1.000000
vt 0.375000 0.500000
vt 0.375000 1.000000
vt 0.343750 0.500000
vt 0.343750 1.000000
vt 0.312500 0.500000
vt 0.312500 1.000000
vt 0.281250 0.500000
vt 0.281250 1.000000
vt 0.250000 0.500000
vt 0.250000 1.000000
vt 0.218750 0.500000
vt 0.218750 1.000000
vt 0.187500 0.500000
vt 0.187500 1.000000
vt 0.156250 0.500000
vt 0.156250 1.000000
vt 0.125000 0.500000
vt 0.125000 1.000000
vt 0.093750 0.500000
vt 0.093750 1.000000
vt 0.062500 0.500000
vt 0.341844 0.471731
vt 0.028269 0.341844
vt 0.158156 0.028269
vt 0.062500 1.000000
vt 0.031250 0.500000
vt 0.031250 1.000000
vt 0.000000 0.500000
vt 0.985388 0.296822
vt 0.796822 0.014612
vt 0.514611 0.203179
vt 0.296822 0.485388
vt 0.250000 0.490000
vt 0.203179 0.485389
vt 0.158156 0.471731
vt 0.116663 0.449553
vt 0.080295 0.419706
vt 0.050447 0.383337
vt 0.028269 0.341844
vt 0.014612 0.296822
vt 0.010000 0.250000
vt 0.014611 0.203179
vt 0.028269 0.158156
vt 0.050447 0.116663
vt 0.080294 0.080294
vt 0.116663 0.050447
vt 0.158156 0.028269
vt 0.203178 0.014612
vt 0.250000 0.010000
vt 0.296822 0.014612
vt 0.341844 0.028269
vt 0.383337 0.050447
vt 0.419706 0.080294
vt 0.449553 0.116663
vt 0.485388 0.203178
vt 0.490000 0.250000
vt 0.485388 0.296822
vt 0.449553 0.383337
vt 0.419706 0.419706
vt 0.383337 0.449553
vt 0.000000 1.000000
vt 0.750000 0.490000
vt 0.796822 0.485388
vt 0.841844 0.471731
vt 0.883337 0.449553
vt 0.919706 0.419706
vt 0.949553 0.383337
vt 0.971731 0.341844
vt 0.985388 0.296822
vt 0.990000 0.250000
vt 0.985388 0.203178
vt 0.971731 0.158156
vt 0.949553 0.116663
vt 0.919706 0.080294
vt 0.883337 0.050447
vt 0.841844 0.028269
vt 0.750000 0.010000
vt 0.703178 0.014612
vt 0.658156 0.028269
vt 0.616663 0.050447
vt 0.580294 0.080294
vt 0.550447 0.116663
vt 0.528269 0.158156
vt 0.514611 0.203179
vt 0.510000 0.250000
vt 0.514612 0.296822
vt 0.528269 0.341844
vt 0.580295 0.419706
vt 0.616663 0.449553
vt 0.658156 0.471731
vt 0.296822 0.485388
vt 0.250000 0.490000
vt 0.203179 0.485389
vt 0.158156 0.471731
vt 0.116663 0.449553
vt 0.080295 0.419706
vt 0.050447 0.383337
vt 0.014612 0.296822
vt 0.010000 0.250000
vt 0.014611 0.203179
vt 0.028269 0.158156
vt 0.050447 0.116663
vt 0.080294 0.080294
vt 0.116663 0.050447
vt 0.203178 0.014612
vt 0.250000 0.010000
vt 0.296822 0.014612
vt 0.341844 0.028269
vt 0.383337 0.050447
vt 0.471731 0.158156
vt 0.419706 0.080294
vt 0.449553 0.116663
vt 0.485388 0.203178
vt 0.490000 0.250000
vt 0.485388 0.296822
vt 0.471731 0.341844
vt 0.449553 0.383337
vt 0.419706 0.419706
vt 0.383337 0.449553
vt 0.000000 1.000000
vt 0.703179 0.485389
vt 0.750000 0.490000
vt 0.796822 0.485388
vt 0.841844 0.471731
vt 0.883337 0.449553
vt 0.919706 0.419706
vt 0.949553 0.383337
vt 0.971731 0.341844
vt 0.990000 0.250000
vt 0.985388 0.203178
vt 0.971731 0.158156
vt 0.949553 0.116663
vt 0.919706 0.080294
vt 0.883337 0.050447
vt 0.841844 0.028269
vt 0.750000 0.010000
vt 0.616663 0.050447
vt 0.703178 0.014612
vt 0.658156 0.028269
vt 0.580294 0.080294
vt 0.550447 0.116663
vt 0.528269 0.158156
vt 0.510000 0.250000
vt 0.514612 0.296822
vt 0.528269 0.341844
vt 0.550447 0.383337
vt 0.580295 0.419706
vt 0.616663 0.449553
vt 0.658156 0.471731
vt 0.054169 0.957722
vt 0.054169 0.950747
vt 0.057728 0.950747
vt 0.057728 0.957722
vt 0.057986 0.959248
vt 0.054309 0.959248
vt 0.050000 0.959248
vt 0.050000 0.957722
vt 0.050000 0.950747
vt 0.145831 0.957722
vt 0.145831 0.950747
vt 0.150000 0.950747
vt 0.150000 0.957722
vt 0.150000 0.959248
vt 0.145691 0.959248
vt 0.142015 0.959248
vt 0.142272 0.957722
vt 0.142272 0.950747
vt 0.154169 0.957722
vt 0.154169 0.950747
vt 0.157728 0.950747
vt 0.157728 0.957722
vt 0.157985 0.959248
vt 0.154309 0.959248
vt 0.245831 0.957722
vt 0.245831 0.950747
vt 0.250000 0.950747
vt 0.250000 0.957722
vt 0.250000 0.959248
vt 0.245691 0.959248
vt 0.242014 0.959248
vt 0.242272 0.957722
vt 0.242272 0.950747
vt 0.254169 0.957722
vt 0.254169 0.950747
vt 0.257727 0.950747
vt 0.257727 0.957722
vt 0.257986 0.959248
vt 0.254309 0.959248
vt 0.345831 0.957722
vt 0.342272 0.957722
vt 0.342272 0.950747
vt 0.345831 0.950747
vt 0.350000 0.950747
vt 0.350000 0.957722
vt 0.350000 0.959248
vt 0.345691 0.959248
vt 0.342014 0.959248
vt 0.354169 0.957722
vt 0.354169 0.950747
vt 0.357728 0.950747
vt 0.357728 0.957722
vt 0.357985 0.959248
vt 0.354309 0.959248
vt 0.045831 0.957722
vt 0.045831 0.950747
vt 0.045691 0.959248
vt 0.042014 0.959248
vt 0.042273 0.957722
vt 0.042273 0.950747
vt 0.045275 0.962163
vt 0.050000 0.962163
vt 0.050000 0.968441
vt 0.044857 0.968441
vt 0.040468 0.968441
vt 0.041241 0.962163
vt 0.354725 0.962163
vt 0.358759 0.962163
vt 0.359532 0.968441
vt 0.355143 0.968441
vt 0.350000 0.968441
vt 0.350000 0.962163
vt 0.345275 0.962163
vt 0.341241 0.962163
vt 0.344857 0.968441
vt 0.340468 0.968441
vt 0.254725 0.962163
vt 0.258759 0.962163
vt 0.259532 0.968441
vt 0.255143 0.968441
vt 0.250000 0.968441
vt 0.250000 0.962163
vt 0.245275 0.962163
vt 0.244857 0.968441
vt 0.240468 0.968441
vt 0.241241 0.962163
vt 0.154725 0.962163
vt 0.158759 0.962163
vt 0.159532 0.968441
vt 0.155143 0.968441
vt 0.150000 0.968441
vt 0.150000 0.962163
vt 0.145275 0.962163
vt 0.144857 0.968441
vt 0.140468 0.968441
vt 0.141241 0.962163
vt 0.054725 0.962163
vt 0.058759 0.962163
vt 0.059532 0.968441
vt 0.055143 0.968441
vt 0.055282 0.980063
vt 0.059790 0.980063
vt 0.059630 0.990956
vt 0.055195 0.990956
vt 0.050000 0.990956
vt 0.050000 0.980063
vt 0.144719 0.980063
vt 0.150000 0.980063
vt 0.150000 0.990956
vt 0.144805 0.990956
vt 0.140370 0.990956
vt 0.140210 0.980063
vt 0.155281 0.980063
vt 0.159790 0.980063
vt 0.159630 0.990956
vt 0.155195 0.990956
vt 0.244718 0.980063
vt 0.250000 0.980063
vt 0.250000 0.990956
vt 0.244805 0.990956
vt 0.240370 0.990956
vt 0.240210 0.980063
vt 0.255281 0.980063
vt 0.259790 0.980063
vt 0.259630 0.990956
vt 0.255195 0.990956
vt 0.344719 0.980063
vt 0.340210 0.980063
vt 0.350000 0.980063
vt 0.350000 0.990956
vt 0.344805 0.990956
vt 0.340370 0.990956
vt 0.355281 0.980063
vt 0.359790 0.980063
vt 0.359630 0.990956
vt 0.355195 0.990956
vt 0.044719 0.980063
vt 0.044805 0.990956
vt 0.040370 0.990956
vt 0.040210 0.980063
vt 0.045064 0.995049
vt 0.050000 0.995049
vt 0.967052 0.005813
vt 0.975000 0.004167
vt 0.975000 0.005808
vt 0.967678 0.007325
vt 0.961430 0.011429
vt 0.960268 0.010268
vt 0.040851 0.995049
vt 0.354936 0.995049
vt 0.359149 0.995049
vt 0.955812 0.017052
vt 0.957325 0.017678
vt 0.955808 0.025000
vt 0.954167 0.025000
vt 0.350000 0.995049
vt 0.345064 0.995049
vt 0.340851 0.995049
vt 0.955812 0.032948
vt 0.957325 0.032322
vt 0.961430 0.038571
vt 0.960268 0.039732
vt 0.254936 0.995049
vt 0.259149 0.995049
vt 0.967052 0.044187
vt 0.967678 0.042676
vt 0.975000 0.044192
vt 0.975000 0.045833
vt 0.250000 0.995049
vt 0.245064 0.995049
vt 0.982948 0.044187
vt 0.982322 0.042676
vt 0.988571 0.038571
vt 0.989732 0.039732
vt 0.240851 0.995049
vt 0.154936 0.995049
vt 0.159149 0.995049
vt 0.994187 0.032948
vt 0.992676 0.032322
vt 0.994192 0.025000
vt 0.995833 0.025000
vt 0.150000 0.995049
vt 0.145064 0.995049
vt 0.994187 0.017052
vt 0.992676 0.017678
vt 0.988571 0.011429
vt 0.989732 0.010268
vt 0.140851 0.995049
vt 0.054936 0.995049
vt 0.059149 0.995049
vt 0.982948 0.005813
vt 0.982322 0.007325
vt 0.981555 0.009174
vt 0.987151 0.012850
vt 0.985602 0.014399
vt 0.980719 0.011193
vt 0.975000 0.010008
vt 0.975000 0.007817
vt 0.990825 0.018445
vt 0.992184 0.025000
vt 0.989993 0.025000
vt 0.988809 0.019281
vt 0.990825 0.031555
vt 0.987151 0.037151
vt 0.985602 0.035601
vt 0.988809 0.030719
vt 0.981555 0.040826
vt 0.975000 0.042183
vt 0.975000 0.039992
vt 0.980719 0.038807
vt 0.968445 0.040826
vt 0.962850 0.037151
vt 0.964399 0.035601
vt 0.969281 0.038807
vt 0.959174 0.031555
vt 0.957816 0.025000
vt 0.960007 0.025000
vt 0.961193 0.030719
vt 0.959174 0.018445
vt 0.962850 0.012850
vt 0.964399 0.014399
vt 0.961193 0.019281
vt 0.968445 0.009174
vt 0.969281 0.011193
vt 0.057845 0.124618
vt 0.050000 0.124618
vt 0.050000 0.083035
vt 0.061425 0.083035
vt 0.071176 0.083035
vt 0.064541 0.124618
vt 0.059432 0.161014
vt 0.055089 0.161014
vt 0.050000 0.161014
vt 0.142155 0.124618
vt 0.135459 0.124618
vt 0.128824 0.083035
vt 0.138576 0.083035
vt 0.150000 0.083035
vt 0.150000 0.124618
vt 0.150000 0.161014
vt 0.144912 0.161014
vt 0.140569 0.161014
vt 0.157845 0.124618
vt 0.161425 0.083035
vt 0.171176 0.083035
vt 0.164541 0.124618
vt 0.159432 0.161014
vt 0.155088 0.161014
vt 0.242155 0.124618
vt 0.235459 0.124618
vt 0.228824 0.083035
vt 0.238575 0.083035
vt 0.250000 0.083035
vt 0.250000 0.124618
vt 0.250000 0.161014
vt 0.244911 0.161014
vt 0.240568 0.161014
vt 0.257845 0.124618
vt 0.261424 0.083035
vt 0.271176 0.083035
vt 0.264541 0.124618
vt 0.259431 0.161014
vt 0.255088 0.161014
vt 0.342155 0.124618
vt 0.338575 0.083035
vt 0.350000 0.083035
vt 0.350000 0.124618
vt 0.350000 0.161014
vt 0.344912 0.161014
vt 0.340568 0.161014
vt 0.335459 0.124618
vt 0.328824 0.083035
vt 0.357845 0.124618
vt 0.361424 0.083035
vt 0.371176 0.083035
vt 0.364541 0.124618
vt 0.359431 0.161014
vt 0.355088 0.161014
vt 0.042155 0.124618
vt 0.035459 0.124618
vt 0.028824 0.083035
vt 0.038576 0.083035
vt 0.044912 0.161014
vt 0.040569 0.161014
vt 0.064811 0.052156
vt 0.050000 0.052156
vt 0.050000 0.027592
vt 0.068884 0.027592
vt 0.085002 0.027592
vt 0.077453 0.052156
vt 0.135189 0.052156
vt 0.122547 0.052156
vt 0.114998 0.027592
vt 0.131116 0.027592
vt 0.150000 0.027592
vt 0.150000 0.052156
vt 0.164811 0.052156
vt 0.168884 0.027592
vt 0.185002 0.027592
vt 0.177453 0.052156
vt 0.235189 0.052156
vt 0.222547 0.052156
vt 0.214998 0.027592
vt 0.231116 0.027592
vt 0.250000 0.027592
vt 0.250000 0.052156
vt 0.264811 0.052156
vt 0.268884 0.027592
vt 0.285003 0.027592
vt 0.277453 0.052156
vt 0.335189 0.052156
vt 0.331116 0.027592
vt 0.350000 0.027592
vt 0.350000 0.052156
vt 0.322547 0.052156
vt 0.314998 0.027592
vt 0.364811 0.052156
vt 0.368884 0.027592
vt 0.385002 0.027592
vt 0.377453 0.052156
vt 0.035189 0.052156
vt 0.022548 0.052156
vt 0.014997 0.027592
vt 0.031116 0.027592
vt 0.570477 0.100563
vt 0.550000 0.096323
vt 0.550000 0.076272
vt 0.578126 0.082097
vt 0.602133 0.097867
vt 0.587955 0.112044
vt 0.074523 0.004950
vt 0.095454 0.004950
vt 0.050000 0.004950
vt 0.599436 0.129523
vt 0.617903 0.121874
vt 0.623727 0.150000
vt 0.603677 0.150000
vt 0.125478 0.004950
vt 0.150000 0.004950
vt 0.104545 0.004950
vt 0.599436 0.170476
vt 0.617903 0.178126
vt 0.602133 0.202133
vt 0.587955 0.187955
vt 0.174522 0.004950
vt 0.195455 0.004950
vt 0.570477 0.199436
vt 0.578126 0.217903
vt 0.550000 0.223727
vt 0.550000 0.203677
vt 0.225477 0.004950
vt 0.250000 0.004950
vt 0.204545 0.004950
vt 0.529523 0.199436
vt 0.521873 0.217903
vt 0.497867 0.202133
vt 0.512044 0.187955
vt 0.274523 0.004950
vt 0.295455 0.004950
vt 0.500564 0.170476
vt 0.482097 0.178126
vt 0.476272 0.150000
vt 0.496323 0.150000
vt 0.325478 0.004950
vt 0.350000 0.004950
vt 0.304545 0.004950
vt 0.500564 0.129523
vt 0.482097 0.121874
vt 0.497867 0.097867
vt 0.512044 0.112044
vt 0.374522 0.004950
vt 0.395455 0.004950
vt 0.529523 0.100563
vt 0.521873 0.082097
vt 0.025477 0.004950
vt 0.004545 0.004950
vt 0.889244 0.195833
vt 0.824999 0.195833
vt 0.824999 0.170624
vt 0.889694 0.170624
vt 0.944914 0.170624
vt 0.944079 0.195833
vt 0.605377 0.016307
vt 0.652644 0.047355
vt 0.645201 0.054799
vt 0.601361 0.026002
vt 0.550000 0.015364
vt 0.550000 0.004839
vt 0.590349 0.052587
vt 0.550000 0.044231
vt 0.624790 0.075210
vt 0.760757 0.045833
vt 0.705921 0.045833
vt 0.705087 0.020624
vt 0.760306 0.020624
vt 0.825000 0.020624
vt 0.825000 0.045833
vt 0.683692 0.094623
vt 0.695161 0.150000
vt 0.684635 0.150000
vt 0.673997 0.098638
vt 0.647412 0.109650
vt 0.655769 0.150000
vt 0.889244 0.045833
vt 0.889694 0.020624
vt 0.944914 0.020624
vt 0.944079 0.045833
vt 0.683692 0.205377
vt 0.652644 0.252644
vt 0.645201 0.245201
vt 0.673997 0.201361
vt 0.647412 0.190349
vt 0.624790 0.224789
vt 0.760756 0.145833
vt 0.705921 0.145833
vt 0.705086 0.120624
vt 0.760306 0.120624
vt 0.825001 0.120624
vt 0.825001 0.145833
vt 0.605377 0.283692
vt 0.550000 0.295161
vt 0.550000 0.284635
vt 0.601361 0.273997
vt 0.590349 0.247412
vt 0.550000 0.255768
vt 0.889244 0.145833
vt 0.889695 0.120624
vt 0.944914 0.120624
vt 0.944080 0.145833
vt 0.494623 0.283692
vt 0.447355 0.252644
vt 0.454799 0.245201
vt 0.498638 0.273997
vt 0.509650 0.247412
vt 0.475210 0.224789
vt 0.760756 0.095833
vt 0.760306 0.070624
vt 0.825000 0.070624
vt 0.825000 0.095833
vt 0.416308 0.205377
vt 0.404839 0.150000
vt 0.415365 0.150000
vt 0.426002 0.201361
vt 0.705921 0.095833
vt 0.705086 0.070624
vt 0.452588 0.190349
vt 0.444231 0.150000
vt 0.889243 0.095833
vt 0.889694 0.070624
vt 0.944913 0.070624
vt 0.944079 0.095833
vt 0.416308 0.094623
vt 0.447355 0.047355
vt 0.454799 0.054799
vt 0.426002 0.098638
vt 0.452588 0.109650
vt 0.475210 0.075210
vt 0.760756 0.195833
vt 0.705920 0.195833
vt 0.705086 0.170624
vt 0.760305 0.170624
vt 0.494623 0.016307
vt 0.498638 0.026002
vt 0.509650 0.052587
vt 0.889844 0.158995
vt 0.824999 0.158995
vt 0.824999 0.154167
vt 0.889844 0.154167
vt 0.945192 0.154167
vt 0.945192 0.158995
vt 0.760156 0.008995
vt 0.704808 0.008995
vt 0.704808 0.004167
vt 0.760156 0.004167
vt 0.825000 0.004167
vt 0.825000 0.008995
vt 0.889844 0.008995
vt 0.889844 0.004167
vt 0.945192 0.004167
vt 0.945192 0.008995
vt 0.760156 0.108995
vt 0.704808 0.108995
vt 0.704808 0.104167
vt 0.760156 0.104167
vt 0.825001 0.104167
vt 0.825001 0.108995
vt 0.889845 0.108995
vt 0.889845 0.104167
vt 0.945192 0.104167
vt 0.945192 0.108995
vt 0.760156 0.058995
vt 0.825000 0.058995
vt 0.704808 0.058995
vt 0.704808 0.054167
vt 0.760156 0.054167
vt 0.825000 0.054167
vt 0.889844 0.058995
vt 0.889844 0.054167
vt 0.945192 0.054167
vt 0.945192 0.058995
vt 0.760155 0.158995
vt 0.760155 0.154167
vt 0.704808 0.158995
vt 0.704808 0.154167
vt 0.045831 0.176336
vt 0.050000 0.176336
vt 0.050000 0.270544
vt 0.045831 0.270544
vt 0.042273 0.270544
vt 0.042273 0.176336
vt 0.354169 0.176336
vt 0.357728 0.176336
vt 0.357728 0.270544
vt 0.354169 0.270544
vt 0.350000 0.270544
vt 0.350000 0.176336
vt 0.345831 0.176336
vt 0.345831 0.270544
vt 0.342272 0.270544
vt 0.342272 0.176336
vt 0.254169 0.176336
vt 0.257727 0.176336
vt 0.257727 0.270544
vt 0.254169 0.270544
vt 0.250000 0.270544
vt 0.250000 0.176336
vt 0.245831 0.176336
vt 0.245831 0.270544
vt 0.242272 0.270544
vt 0.242272 0.176336
vt 0.154169 0.176336
vt 0.157728 0.176336
vt 0.157728 0.270544
vt 0.154169 0.270544
vt 0.150000 0.270544
vt 0.150000 0.176336
vt 0.145831 0.176336
vt 0.145831 0.270544
vt 0.142272 0.270544
vt 0.142272 0.176336
vt 0.054169 0.176336
vt 0.057728 0.176336
vt 0.057728 0.270544
vt 0.054169 0.270544
vt 0.045831 0.543601
vt 0.050000 0.543601
vt 0.050000 0.821813
vt 0.045831 0.821813
vt 0.042273 0.821813
vt 0.042273 0.543601
vt 0.045831 0.931485
vt 0.050000 0.931485
vt 0.042273 0.931485
vt 0.354169 0.543601
vt 0.357728 0.543601
vt 0.357728 0.821813
vt 0.354169 0.821813
vt 0.350000 0.821813
vt 0.350000 0.543601
vt 0.354169 0.931485
vt 0.357728 0.931485
vt 0.350000 0.931485
vt 0.345831 0.543601
vt 0.345831 0.821813
vt 0.342272 0.821813
vt 0.342272 0.543601
vt 0.345831 0.931485
vt 0.342272 0.931485
vt 0.254169 0.543601
vt 0.257727 0.543601
vt 0.257727 0.821813
vt 0.254169 0.821813
vt 0.250000 0.821813
vt 0.250000 0.543601
vt 0.254169 0.931485
vt 0.257727 0.931485
vt 0.250000 0.931485
vt 0.245831 0.543601
vt 0.245831 0.821813
vt 0.242272 0.821813
vt 0.242272 0.543601
vt 0.245831 0.931485
vt 0.242272 0.931485
vt 0.154169 0.543601
vt 0.157728 0.543601
vt 0.157728 0.821813
vt 0.154169 0.821813
vt 0.150000 0.821813
vt 0.150000 0.543601
vt 0.154169 0.931485
vt 0.157728 0.931485
vt 0.150000 0.931485
vt 0.145831 0.543601
vt 0.145831 0.821813
vt 0.142272 0.821813
vt 0.142272 0.543601
vt 0.145831 0.931485
vt 0.142272 0.931485
vt 0.054169 0.543601
vt 0.057728 0.543601
vt 0.057728 0.821813
vt 0.054169 0.821813
vt 0.054169 0.931485
vt 0.057728 0.931485
vn 0.0000 -0.0980 -0.9952
vn 0.0000 -0.2903 -0.9569
vn 0.0000 -0.4714 -0.8819
vn 0.0000 -0.6344 -0.7730
vn 0.0000 -0.7729 -0.6345
vn 0.0000 -0.8819 -0.4714
vn 0.0000 -0.9569 -0.2905
vn 0.0000 -0.9952 -0.0978
vn 0.0000 -0.9952 0.0981
vn 0.0000 -0.9569 0.2903
vn 0.0000 -0.8819 0.4714
vn 0.0000 -0.7731 0.6343
vn 0.0000 -0.6344 0.7730
vn 0.0000 -0.4714 0.8819
vn 0.0000 -0.2904 0.9569
vn 0.0000 -0.0980 0.9952
vn 0.0000 0.0980 0.9952
vn 0.0000 0.2903 0.9569
vn 0.0000 0.4715 0.8819
vn 0.0000 0.6344 0.7730
vn 0.0000 0.7731 0.6343
vn 0.0000 0.8818 0.4716
vn 0.0000 0.9569 0.2903
vn 0.0000 0.9952 0.0981
vn 0.0000 0.9952 -0.0978
vn 0.0000 0.9569 -0.2903
vn 0.0000 0.8819 -0.4714
vn 0.0000 0.7731 -0.6343
vn 0.0000 0.6344 -0.7730
vn 0.0000 0.4713 -0.8820
vn 1.0000 0.0000 0.0000
vn 0.0000 0.2903 -0.9569
vn 0.0000 0.0981 -0.9952
vn -1.0000 0.0000 0.0000
vn 0.9951 -0.0984 0.0000
vn 0.9568 -0.2908 0.0000
vn 0.8820 -0.4713 -0.0000
vn 0.7729 -0.6345 0.0000
vn 0.6341 -0.7732 0.0000
vn 0.4715 -0.8819 0.0000
vn 0.2902 -0.9570 0.0000
vn 0.0981 -0.9952 0.0000
vn -0.0980 -0.9952 0.0000
vn -0.2901 -0.9570 0.0000
vn -0.4713 -0.8820 0.0000
vn -0.6341 -0.7732 0.0000
vn -0.7732 -0.6342 0.0000
vn -0.8820 -0.4713 0.0000
vn -0.9569 -0.2903 -0.0000
vn -0.9952 -0.0978 0.0000
vn -0.9952 0.0978 -0.0000
vn -0.9568 0.2907 0.0000
vn -0.8819 0.4714 0.0000
vn -0.7729 0.6345 0.0000
vn -0.6344 0.7730 0.0000
vn -0.4715 0.8819 0.0000
vn -0.2904 0.9569 0.0000
vn -0.0981 0.9952 0.0000
vn 0.0980 0.9952 0.0000
vn 0.2902 0.9570 0.0000
vn 0.4715 0.8819 0.0000
vn 0.6344 0.7730 0.0000
vn 0.7732 0.6342 0.0000
vn 0.8819 0.4714 0.0000
vn 0.0000 0.0000 1.0000
vn 0.9570 0.2902 0.0000
vn 0.9953 0.0973 0.0000
vn 0.0000 0.0000 -1.0000
vn 0.0000 -0.2904 -0.9569
vn 0.0000 -0.7731 -0.6343
vn 0.0000 -0.9569 -0.2903
vn 0.0000 -0.9952 -0.0981
vn 0.0000 -0.9952 0.0978
vn 0.0000 -0.9569 0.2905
vn 0.0000 -0.7729 0.6345
vn 0.0000 -0.2903 0.9569
vn 0.0000 0.0981 0.9952
vn 0.0000 0.4713 0.8820
vn 0.0000 0.8819 0.4714
vn 0.0000 0.9952 0.0978
vn 0.0000 0.9952 -0.0981
vn 0.0000 0.8818 -0.4716
vn 0.0000 0.4715 -0.8819
vn 1.0000 0.0003 0.0000
vn 1.0000 -0.0006 0.0000
vn 1.0000 0.0025 0.0000
vn 1.0000 -0.0017 0.0000
vn 1.0000 -0.0003 0.0000
vn 1.0000 0.0006 0.0000
vn 1.0000 -0.0025 0.0000
vn 1.0000 0.0017 0.0000
vn 1.0000 0.0001 0.0000
vn 1.0000 -0.0001 0.0000
vn 0.0000 0.0980 -0.9952
vn -1.0000 0.0017 0.0000
vn -1.0000 -0.0006 0.0000
vn -1.0000 -0.0017 0.0000
vn -1.0000 0.0006 0.0000
vn -1.0000 0.0001 0.0000
vn -1.0000 -0.0001 0.0000
vn 0.9953 -0.0973 0.0000
vn 0.9570 -0.2902 -0.0000
vn 0.8819 -0.4714 0.0000
vn 0.7732 -0.6342 0.0000
vn 0.6344 -0.7730 0.0000
vn 0.4713 -0.8820 0.0000
vn 0.0980 -0.9952 -0.0000
vn -0.0981 -0.9952 -0.0000
vn -0.2904 -0.9569 0.0000
vn -0.4715 -0.8819 0.0000
vn -0.6344 -0.7730 0.0000
vn -0.7729 -0.6345 0.0000
vn -0.8819 -0.4714 -0.0000
vn -0.9568 -0.2907 0.0000
vn -0.9569 0.2903 0.0000
vn -0.8820 0.4713 0.0000
vn -0.7732 0.6342 0.0000
vn -0.6341 0.7732 0.0000
vn -0.4713 0.8820 0.0000
vn -0.2901 0.9570 0.0000
vn -0.0980 0.9952 0.0000
vn 0.0981 0.9952 0.0000
vn 0.2901 0.9570 0.0000
vn 0.6342 0.7732 0.0000
vn 0.7729 0.6346 0.0000
vn 0.8820 0.4713 0.0000
vn -0.0012 0.0000 1.0000
vn 0.0012 0.0000 1.0000
vn -0.0003 0.0000 1.0000
vn 0.0002 0.0000 1.0000
vn -0.0002 0.0000 1.0000
vn -0.0001 0.0000 1.0000
vn 0.9568 0.2908 0.0000
vn 0.9951 0.0984 0.0000
vn -0.0012 0.0000 -1.0000
vn 0.0009 0.0000 -1.0000
vn 0.0019 0.0000 -1.0000
vn 0.0003 0.0000 -1.0000
vn -0.0019 0.0000 -1.0000
vn 0.0012 0.0000 -1.0000
vn -0.0003 0.0000 -1.0000
vn 0.0001 0.0000 -1.0000
vn -0.3803 -0.1060 -0.9188
vn -0.3827 0.0000 -0.9239
vn -0.7071 0.0000 -0.7071
vn -0.7031 -0.1065 -0.7031
vn -0.6816 -0.2659 -0.6817
vn -0.3691 -0.2646 -0.8909
vn -0.0000 -0.2656 -0.9641
vn -0.0000 -0.1063 -0.9943
vn -0.9187 -0.1060 -0.3805
vn -0.9238 0.0000 -0.3828
vn -0.9943 -0.1065 -0.0000
vn -0.9640 -0.2660 -0.0000
vn -0.8909 -0.2649 -0.3690
vn -0.9187 -0.1060 0.3805
vn -0.9239 0.0000 0.3827
vn -0.7071 0.0000 0.7071
vn -0.7031 -0.1065 0.7031
vn -0.6816 -0.2659 0.6817
vn -0.8909 -0.2650 0.3690
vn -0.3805 -0.1061 0.9187
vn -0.3827 0.0000 0.9239
vn -0.0000 -0.1065 0.9943
vn 0.0000 -0.2661 0.9639
vn -0.3690 -0.2649 0.8909
vn 0.3805 -0.1060 0.9187
vn 0.3827 0.0000 0.9239
vn 0.7071 -0.0000 0.7071
vn 0.7031 -0.1065 0.7031
vn 0.6817 -0.2658 0.6817
vn 0.3690 -0.2649 0.8909
vn 0.9187 -0.1060 0.3806
vn 0.9239 0.0000 0.3827
vn 0.9943 -0.1062 -0.0000
vn 0.9641 -0.2656 -0.0000
vn 0.8909 -0.2646 0.3691
vn 0.9187 -0.1060 -0.3806
vn 0.9239 0.0000 -0.3827
vn 0.7071 0.0000 -0.7071
vn 0.7031 -0.1065 -0.7031
vn 0.6817 -0.2657 -0.6817
vn 0.8910 -0.2648 -0.3688
vn 0.3801 -0.1062 -0.9188
vn 0.3827 0.0000 -0.9239
vn 0.3689 -0.2649 -0.8909
vn 0.3722 -0.2337 -0.8983
vn 0.0000 -0.2343 -0.9722
vn -0.0001 -0.0903 -0.9959
vn 0.3811 -0.0902 -0.9201
vn 0.7042 -0.0905 -0.7042
vn 0.6874 -0.2344 -0.6874
vn 0.8983 -0.2338 -0.3721
vn 0.9201 -0.0902 -0.3811
vn 0.9959 -0.0903 0.0001
vn 0.9722 -0.2343 0.0000
vn 0.8982 -0.2337 0.3722
vn 0.6874 -0.2343 0.6874
vn 0.9201 -0.0901 0.3812
vn 0.7044 -0.0905 0.7040
vn 0.3721 -0.2335 0.8983
vn 0.3816 -0.0902 0.9199
vn -0.0001 -0.0905 0.9959
vn 0.0000 -0.2343 0.9722
vn -0.3722 -0.2336 0.8983
vn -0.3812 -0.0902 0.9201
vn -0.7042 -0.0905 0.7042
vn -0.6874 -0.2342 0.6874
vn -0.8983 -0.2336 0.3722
vn -0.9201 -0.0902 0.3812
vn -0.9959 -0.0905 0.0001
vn -0.9722 -0.2343 0.0000
vn -0.8983 -0.2335 -0.3721
vn -0.9201 -0.0902 -0.3811
vn -0.7040 -0.0905 -0.7044
vn -0.6874 -0.2344 -0.6874
vn -0.3721 -0.2339 -0.8982
vn -0.3812 -0.0901 -0.9201
vn -0.3827 -0.0047 -0.9239
vn -0.7071 -0.0048 -0.7071
vn -0.7046 0.0822 -0.7048
vn -0.3814 0.0821 -0.9207
vn -0.0000 0.0823 -0.9966
vn 0.0000 -0.0049 -1.0000
vn -0.9240 -0.0048 -0.3824
vn -1.0000 -0.0046 0.0000
vn -0.9966 0.0823 0.0000
vn -0.9208 0.0821 -0.3813
vn -0.9238 -0.0047 0.3829
vn -0.7071 -0.0048 0.7071
vn -0.7047 0.0823 0.7047
vn -0.9208 0.0820 0.3814
vn -0.3828 -0.0047 0.9238
vn 0.0000 -0.0046 1.0000
vn -0.0000 0.0822 0.9966
vn -0.3814 0.0820 0.9208
vn 0.3827 -0.0047 0.9239
vn 0.7071 -0.0048 0.7071
vn 0.7048 0.0822 0.7046
vn 0.3814 0.0820 0.9208
vn 0.9240 -0.0047 0.3824
vn 1.0000 -0.0046 0.0000
vn 0.9966 0.0822 0.0000
vn 0.9208 0.0820 0.3814
vn 0.9240 -0.0048 -0.3824
vn 0.7071 -0.0048 -0.7071
vn 0.7047 0.0820 -0.7047
vn 0.9208 0.0821 -0.3813
vn 0.3825 -0.0047 -0.9239
vn 0.3814 0.0820 -0.9208
vn 0.3219 0.5406 -0.7772
vn -0.0000 0.5396 -0.8419
vn -0.0000 0.9365 -0.3507
vn 0.1339 0.9367 -0.3235
vn 0.2480 0.9365 -0.2480
vn 0.5953 0.5397 -0.5953
vn 0.7772 0.5406 -0.3219
vn 0.3234 0.9367 -0.1339
vn 0.3507 0.9365 0.0000
vn 0.8419 0.5396 -0.0000
vn 0.7772 0.5406 0.3219
vn 0.5954 0.5396 0.5953
vn 0.3235 0.9367 0.1339
vn 0.2480 0.9365 0.2479
vn 0.3219 0.5408 0.7771
vn 0.1339 0.9367 0.3235
vn -0.0000 0.9365 0.3507
vn 0.0000 0.5397 0.8419
vn -0.3219 0.5407 0.7772
vn -0.1339 0.9367 0.3235
vn -0.2478 0.9366 0.2479
vn -0.5953 0.5396 0.5953
vn -0.7772 0.5407 0.3219
vn -0.3234 0.9367 0.1339
vn -0.3508 0.9364 0.0000
vn -0.8421 0.5393 0.0001
vn -0.7771 0.5408 -0.3219
vn -0.3235 0.9367 -0.1339
vn -0.2480 0.9365 -0.2480
vn -0.5953 0.5396 -0.5953
vn -0.3219 0.5408 -0.7771
vn -0.1339 0.9367 -0.3234
vn -0.0332 0.9962 -0.0801
vn -0.0615 0.9962 -0.0615
vn 0.0000 1.0000 0.0000
vn 0.0000 1.0000 -0.0001
vn -0.0000 0.9962 -0.0871
vn -0.0800 0.9962 -0.0331
vn -0.0870 0.9962 0.0000
vn 0.0000 1.0000 0.0001
vn -0.0800 0.9962 0.0331
vn -0.0615 0.9962 0.0615
vn -0.0331 0.9962 0.0800
vn -0.0000 0.9962 0.0871
vn 0.0332 0.9962 0.0801
vn 0.0615 0.9962 0.0614
vn 0.0800 0.9962 0.0331
vn 0.0870 0.9962 -0.0000
vn 0.0800 0.9962 -0.0331
vn 0.0615 0.9962 -0.0615
vn 0.0331 0.9962 -0.0800
vn -0.3759 0.1860 -0.9078
vn 0.0000 0.1866 -0.9824
vn -0.0001 0.2243 -0.9745
vn -0.3730 0.2235 -0.9005
vn -0.6890 0.2242 -0.6892
vn -0.6947 0.1866 -0.6947
vn -0.6984 0.1574 -0.6982
vn -0.3780 0.1570 -0.9124
vn 0.0000 0.1573 -0.9875
vn -0.9078 0.1860 -0.3759
vn -0.9005 0.2236 -0.3729
vn -0.9746 0.2241 0.0001
vn -0.9824 0.1866 0.0000
vn -0.9875 0.1573 -0.0001
vn -0.9124 0.1571 -0.3780
vn -0.9076 0.1859 0.3763
vn -0.9005 0.2234 0.3731
vn -0.6891 0.2242 0.6891
vn -0.6947 0.1866 0.6947
vn -0.6983 0.1572 0.6983
vn -0.9125 0.1571 0.3777
vn -0.3763 0.1859 0.9076
vn -0.3730 0.2234 0.9005
vn -0.0001 0.2241 0.9746
vn 0.0000 0.1866 0.9824
vn 0.0000 0.1576 0.9875
vn -0.3777 0.1571 0.9125
vn 0.3762 0.1860 0.9077
vn 0.3729 0.2236 0.9005
vn 0.6892 0.2242 0.6890
vn 0.6947 0.1866 0.6947
vn 0.6982 0.1575 0.6983
vn 0.3777 0.1571 0.9125
vn 0.9077 0.1860 0.3762
vn 0.9005 0.2235 0.3730
vn 0.9745 0.2242 0.0001
vn 0.9824 0.1866 0.0000
vn 0.9875 0.1575 -0.0001
vn 0.9125 0.1568 0.3777
vn 0.9078 0.1861 -0.3759
vn 0.9004 0.2235 -0.3732
vn 0.6891 0.2242 -0.6891
vn 0.6947 0.1866 -0.6947
vn 0.6984 0.1574 -0.6982
vn 0.9124 0.1569 -0.3781
vn 0.3763 0.1859 -0.9076
vn 0.3732 0.2235 -0.9004
vn 0.3778 0.1568 -0.9125
vn -0.3642 0.3074 -0.8791
vn 0.0000 0.3084 -0.9512
vn -0.0000 0.4385 -0.8987
vn -0.3441 0.4371 -0.8310
vn -0.6354 0.4386 -0.6355
vn -0.6726 0.3084 -0.6727
vn -0.8792 0.3074 -0.3640
vn -0.8309 0.4372 -0.3442
vn -0.8987 0.4387 0.0000
vn -0.9512 0.3085 -0.0000
vn -0.8792 0.3074 0.3640
vn -0.8309 0.4372 0.3441
vn -0.6354 0.4386 0.6354
vn -0.6727 0.3081 0.6727
vn -0.3640 0.3074 0.8792
vn -0.3441 0.4372 0.8309
vn -0.0000 0.4387 0.8987
vn 0.0000 0.3085 0.9512
vn 0.3640 0.3074 0.8792
vn 0.3442 0.4372 0.8309
vn 0.6355 0.4386 0.6354
vn 0.6727 0.3084 0.6726
vn 0.8791 0.3074 0.3642
vn 0.8308 0.4373 0.3443
vn 0.8987 0.4386 0.0000
vn 0.9512 0.3084 -0.0000
vn 0.8791 0.3074 -0.3642
vn 0.8309 0.4371 -0.3442
vn 0.6355 0.4386 -0.6355
vn 0.6726 0.3085 -0.6726
vn 0.3642 0.3074 -0.8791
vn 0.3442 0.4371 -0.8309
vn -0.2968 0.6311 -0.7167
vn -0.0000 0.6329 -0.7742
vn 0.0000 0.8312 -0.5560
vn -0.2136 0.8297 -0.5157
vn -0.3932 0.8312 -0.3932
vn -0.5475 0.6329 -0.5475
vn -0.7167 0.6311 -0.2968
vn -0.5157 0.8297 -0.2136
vn -0.5560 0.8312 0.0000
vn -0.7742 0.6329 0.0000
vn -0.7167 0.6311 0.2968
vn -0.5157 0.8297 0.2136
vn -0.3932 0.8312 0.3932
vn -0.5475 0.6329 0.5475
vn -0.2968 0.6311 0.7167
vn -0.2136 0.8297 0.5157
vn 0.0000 0.8312 0.5560
vn 0.0000 0.6329 0.7742
vn 0.2968 0.6311 0.7167
vn 0.2136 0.8297 0.5157
vn 0.3932 0.8312 0.3932
vn 0.5475 0.6329 0.5475
vn 0.7166 0.6311 0.2969
vn 0.5157 0.8297 0.2136
vn 0.5560 0.8312 0.0000
vn 0.7742 0.6330 0.0000
vn 0.7167 0.6311 -0.2969
vn 0.5157 0.8297 -0.2136
vn 0.3932 0.8312 -0.3932
vn 0.5475 0.6329 -0.5475
vn 0.2968 0.6311 -0.7167
vn 0.2136 0.8297 -0.5157
vn -0.2992 0.6237 -0.7221
vn 0.0000 0.6231 -0.7822
vn 0.0000 0.3046 -0.9525
vn -0.3646 0.3037 -0.8803
vn -0.6736 0.3043 -0.6736
vn -0.5531 0.6229 -0.5531
vn -0.3172 0.8937 -0.3172
vn -0.1718 0.8935 -0.4149
vn 0.0000 0.8937 -0.4486
vn -0.1552 0.9141 -0.3747
vn 0.0000 0.9147 -0.4042
vn -0.2858 0.9147 -0.2858
vn -0.7222 0.6237 -0.2991
vn -0.8802 0.3037 -0.3646
vn -0.9526 0.3043 0.0000
vn -0.7822 0.6230 0.0000
vn -0.4486 0.8937 0.0000
vn -0.4149 0.8935 -0.1718
vn -0.3747 0.9141 -0.1552
vn -0.4042 0.9147 0.0000
vn -0.7221 0.6237 0.2992
vn -0.8803 0.3037 0.3646
vn -0.6735 0.3045 0.6735
vn -0.5531 0.6231 0.5531
vn -0.3172 0.8937 0.3172
vn -0.4149 0.8935 0.1718
vn -0.3747 0.9141 0.1552
vn -0.2858 0.9147 0.2858
vn -0.2988 0.6236 0.7223
vn -0.3646 0.3037 0.8803
vn 0.0000 0.3046 0.9525
vn -0.0000 0.6230 0.7823
vn 0.0000 0.8937 0.4486
vn -0.1718 0.8935 0.4149
vn -0.1552 0.9141 0.3747
vn 0.0000 0.9147 0.4042
vn 0.2991 0.6235 0.7223
vn 0.3646 0.3037 0.8802
vn 0.6736 0.3043 0.6736
vn 0.5529 0.6234 0.5529
vn 0.3172 0.8937 0.3172
vn 0.1718 0.8935 0.4149
vn 0.1552 0.9141 0.3747
vn 0.2858 0.9147 0.2858
vn 0.7221 0.6237 0.2992
vn 0.8802 0.3037 0.3646
vn 0.9526 0.3042 0.0000
vn 0.7822 0.6230 0.0000
vn 0.4486 0.8937 0.0000
vn 0.4149 0.8935 0.1718
vn 0.3747 0.9141 0.1552
vn 0.4042 0.9147 0.0000
vn 0.7222 0.6237 -0.2991
vn 0.8803 0.3036 -0.3646
vn 0.6736 0.3043 -0.6736
vn 0.5529 0.6234 -0.5529
vn 0.3172 0.8937 -0.3172
vn 0.4149 0.8935 -0.1718
vn 0.3747 0.9141 -0.1552
vn 0.2858 0.9147 -0.2858
vn 0.2991 0.6237 -0.7222
vn 0.3646 0.3037 -0.8802
vn 0.1718 0.8935 -0.4149
vn 0.1552 0.9141 -0.3747
vn -0.3795 0.1291 -0.9161
vn 0.0000 0.1295 -0.9916
vn -0.7011 0.1299 -0.7011
vn -0.9161 0.1293 -0.3794
vn -0.9239 0.0000 -0.3827
vn -0.9916 0.1292 0.0000
vn -0.9161 0.1294 0.3794
vn -0.7011 0.1299 0.7011
vn -0.3795 0.1292 0.9161
vn 0.0000 0.1295 0.9916
vn 0.3794 0.1292 0.9162
vn 0.7011 0.1299 0.7012
vn 0.9161 0.1293 0.3794
vn 0.9916 0.1292 -0.0000
vn 0.9161 0.1295 -0.3794
vn 0.7011 0.1299 -0.7012
vn 0.3794 0.1292 -0.9162
vn 0.3817 0.0700 -0.9216
vn 0.0000 0.0702 -0.9975
vn 0.7054 0.0703 -0.7054
vn 0.9216 0.0700 -0.3817
vn 0.9975 0.0702 -0.0000
vn 0.9216 0.0700 0.3817
vn 0.7070 -0.0000 0.7072
vn 0.7053 0.0704 0.7054
vn 0.3817 0.0701 0.9216
vn 0.0000 0.0705 0.9975
vn -0.3818 0.0701 0.9216
vn -0.3825 -0.0000 0.9239
vn -0.7054 0.0703 0.7053
vn -0.9216 0.0701 0.3818
vn -0.9975 0.0705 -0.0000
vn -0.9217 0.0701 -0.3816
vn -0.7072 0.0000 -0.7070
vn -0.7053 0.0704 -0.7054
vn -0.3817 0.0700 -0.9216
vn -0.9239 -0.0000 0.3826
vn -0.9239 0.0000 -0.3826
s off
f 466/1/1 467/2/1 465/3/1
f 468/4/2 469/5/2 467/2/2
f 470/6/3 471/7/3 469/5/3
f 472/8/4 473/9/4 471/7/4
f 474/10/5 475/11/5 473/9/5
f 476/12/6 477/13/6 475/11/6
f 478/14/7 479/15/7 477/13/7
f 480/16/8 481/17/8 479/15/8
f 482/18/9 483/19/9 481/17/9
f 484/20/10 485/21/10 483/19/10
f 486/22/11 487/23/11 485/21/11
f 488/24/12 489/25/12 487/23/12
f 490/26/13 491/27/13 489/25/13
f 492/28/14 493/29/14 491/27/14
f 494/30/15 495/31/15 493/29/15
f 496/32/16 497/33/16 495/31/16
f 498/34/17 499/35/17 497/33/17
f 500/36/18 501/37/18 499/35/18
f 502/38/19 503/39/19 501/37/19
f 504/40/20 505/41/20 503/39/20
f 506/42/21 507/43/21 505/41/21
f 508/44/22 509/45/22 507/43/22
f 510/46/23 511/47/23 509/45/23
f 512/48/24 513/49/24 511/47/24
f 514/50/25 515/51/25 513/49/25
f 516/52/26 517/53/26 515/51/26
f 518/54/27 519/55/27 517/53/27
f 520/56/28 521/57/28 519/55/28
f 522/58/29 523/59/29 521/57/29
f 524/60/30 525/61/30 523/59/30
f 486/62/31 478/63/31 470/64/31
f 526/65/32 527/66/32 525/61/32
f 528/67/33 465/68/33 527/66/33
f 519/69/34 527/70/34 495/71/34
f 530/72/35 531/73/35 529/74/35
f 532/75/36 533/76/36 531/73/36
f 534/77/37 535/78/37 533/76/37
f 536/79/38 537/80/38 535/78/38
f 538/81/39 539/82/39 537/80/39
f 540/83/40 541/84/40 539/82/40
f 542/85/41 543/86/41 541/84/41
f 544/87/42 545/88/42 543/86/42
f 546/89/43 547/90/43 545/88/43
f 548/91/44 549/92/44 547/90/44
f 550/93/45 551/94/45 549/92/45
f 552/95/46 553/96/46 551/94/46
f 554/97/47 555/98/47 553/96/47
f 556/99/48 557/100/48 555/98/48
f 558/101/49 559/102/49 557/100/49
f 560/103/50 561/104/50 559/102/50
f 562/105/51 563/106/51 561/104/51
f 564/107/52 565/108/52 563/106/52
f 566/109/53 567/110/53 565/108/53
f 568/111/54 569/112/54 567/110/54
f 570/113/55 571/114/55 569/112/55
f 572/115/56 573/116/56 571/114/56
f 574/117/57 575/118/57 573/116/57
f 576/119/58 577/120/58 575/118/58
f 578/121/59 579/122/59 577/120/59
f 580/123/60 581/124/60 579/122/60
f 582/125/61 583/126/61 581/124/61
f 584/127/62 585/128/62 583/126/62
f 586/129/63 587/130/63 585/128/63
f 588/131/64 589/132/64 587/130/64
f 534/133/65 582/134/65 566/135/65
f 590/136/66 591/137/66 589/132/66
f 592/138/67 529/139/67 591/137/67
f 543/140/68 559/141/68 575/142/68
f 466/1/1 468/4/1 467/2/1
f 468/4/69 470/6/69 469/5/69
f 470/6/3 472/8/3 471/7/3
f 472/8/4 474/10/4 473/9/4
f 474/10/70 476/12/70 475/11/70
f 476/12/6 478/14/6 477/13/6
f 478/14/71 480/16/71 479/15/71
f 480/16/72 482/18/72 481/17/72
f 482/18/73 484/20/73 483/19/73
f 484/20/74 486/22/74 485/21/74
f 486/22/11 488/24/11 487/23/11
f 488/24/75 490/26/75 489/25/75
f 490/26/13 492/28/13 491/27/13
f 492/28/14 494/30/14 493/29/14
f 494/30/76 496/32/76 495/31/76
f 496/32/16 498/34/16 497/33/16
f 498/34/77 500/36/77 499/35/77
f 500/36/18 502/38/18 501/37/18
f 502/38/78 504/40/78 503/39/78
f 504/40/20 506/42/20 505/41/20
f 506/42/21 508/44/21 507/43/21
f 508/44/79 510/46/79 509/45/79
f 510/46/23 512/48/23 511/47/23
f 512/48/80 514/50/80 513/49/80
f 514/50/81 516/52/81 515/51/81
f 516/52/26 518/54/26 517/53/26
f 518/54/82 520/56/82 519/55/82
f 520/56/28 522/58/28 521/57/28
f 522/58/29 524/60/29 523/59/29
f 524/60/83 526/65/83 525/61/83
f 470/64/84 468/143/84 466/144/84
f 466/144/85 528/145/85 526/146/85
f 526/146/31 524/147/31 522/148/31
f 522/148/31 520/149/31 526/146/31
f 520/149/31 518/150/31 526/146/31
f 518/150/31 516/151/31 514/152/31
f 514/152/31 512/153/31 510/154/31
f 510/154/86 508/155/86 506/156/86
f 506/156/87 504/157/87 510/154/87
f 504/157/31 502/158/31 510/154/31
f 502/158/88 500/159/88 498/160/88
f 498/160/89 496/161/89 494/162/89
f 494/162/31 492/163/31 490/164/31
f 490/164/31 488/165/31 494/162/31
f 488/165/31 486/62/31 494/162/31
f 486/62/31 484/166/31 482/167/31
f 482/167/31 480/168/31 478/63/31
f 478/63/90 476/169/90 474/170/90
f 474/170/91 472/171/91 478/63/91
f 472/171/31 470/64/31 478/63/31
f 470/64/31 466/144/31 526/146/31
f 518/150/31 514/152/31 510/154/31
f 502/158/31 498/160/31 494/162/31
f 486/62/31 482/167/31 478/63/31
f 470/64/31 526/146/31 502/158/31
f 526/146/92 518/150/92 502/158/92
f 518/150/31 510/154/31 502/158/31
f 502/158/31 494/162/31 470/64/31
f 494/162/93 486/62/93 470/64/93
f 526/65/32 528/67/32 527/66/32
f 528/67/94 466/172/94 465/68/94
f 527/70/34 465/173/34 467/174/34
f 467/174/34 469/175/34 527/70/34
f 469/175/34 471/176/34 527/70/34
f 471/176/34 473/177/34 475/178/34
f 475/178/34 477/179/34 479/180/34
f 479/180/34 481/181/34 483/182/34
f 483/182/95 485/183/95 479/180/95
f 485/183/34 487/184/34 479/180/34
f 487/184/34 489/185/34 491/186/34
f 491/186/96 493/187/96 495/71/96
f 495/71/34 497/188/34 499/189/34
f 499/189/34 501/190/34 495/71/34
f 501/190/34 503/191/34 495/71/34
f 503/191/34 505/192/34 507/193/34
f 507/193/34 509/194/34 511/195/34
f 511/195/34 513/196/34 515/197/34
f 515/197/97 517/198/97 511/195/97
f 517/198/34 519/69/34 511/195/34
f 519/69/34 521/199/34 523/200/34
f 523/200/98 525/201/98 527/70/98
f 471/176/34 475/178/34 527/70/34
f 475/178/34 479/180/34 527/70/34
f 487/184/34 491/186/34 495/71/34
f 503/191/34 507/193/34 495/71/34
f 507/193/34 511/195/34 495/71/34
f 519/69/34 523/200/34 527/70/34
f 479/180/99 487/184/99 527/70/99
f 487/184/34 495/71/34 527/70/34
f 511/195/100 519/69/100 495/71/100
f 530/72/101 532/75/101 531/73/101
f 532/75/102 534/77/102 533/76/102
f 534/77/103 536/79/103 535/78/103
f 536/79/104 538/81/104 537/80/104
f 538/81/105 540/83/105 539/82/105
f 540/83/106 542/85/106 541/84/106
f 542/85/41 544/87/41 543/86/41
f 544/87/107 546/89/107 545/88/107
f 546/89/108 548/91/108 547/90/108
f 548/91/109 550/93/109 549/92/109
f 550/93/110 552/95/110 551/94/110
f 552/95/111 554/97/111 553/96/111
f 554/97/112 556/99/112 555/98/112
f 556/99/113 558/101/113 557/100/113
f 558/101/114 560/103/114 559/102/114
f 560/103/50 562/105/50 561/104/50
f 562/105/51 564/107/51 563/106/51
f 564/107/115 566/109/115 565/108/115
f 566/109/116 568/111/116 567/110/116
f 568/111/117 570/113/117 569/112/117
f 570/113/118 572/115/118 571/114/118
f 572/115/119 574/117/119 573/116/119
f 574/117/120 576/119/120 575/118/120
f 576/119/121 578/121/121 577/120/121
f 578/121/122 580/123/122 579/122/122
f 580/123/123 582/125/123 581/124/123
f 582/125/61 584/127/61 583/126/61
f 584/127/124 586/129/124 585/128/124
f 586/129/125 588/131/125 587/130/125
f 588/131/126 590/136/126 589/132/126
f 534/133/65 532/202/65 530/203/65
f 530/203/127 592/204/127 590/205/127
f 590/205/128 588/206/128 586/207/128
f 586/207/128 584/208/128 582/134/128
f 582/134/129 580/209/129 578/210/129
f 578/210/65 576/211/65 574/212/65
f 574/212/127 572/213/127 570/214/127
f 570/214/65 568/215/65 574/212/65
f 568/215/65 566/135/65 574/212/65
f 566/135/128 564/216/128 562/217/128
f 562/217/65 560/218/65 558/219/65
f 558/219/65 556/220/65 550/221/65
f 556/220/65 554/222/65 550/221/65
f 554/222/127 552/223/127 550/221/127
f 550/221/129 548/224/129 546/225/129
f 546/225/130 544/226/130 550/221/130
f 544/226/65 542/227/65 550/221/65
f 542/227/128 540/228/128 538/229/128
f 538/229/65 536/230/65 542/227/65
f 536/230/65 534/133/65 542/227/65
f 534/133/131 530/203/131 582/134/131
f 530/203/65 590/205/65 582/134/65
f 590/205/65 586/207/65 582/134/65
f 582/134/132 578/210/132 566/135/132
f 578/210/130 574/212/130 566/135/130
f 566/135/65 562/217/65 558/219/65
f 566/135/132 558/219/132 550/221/132
f 550/221/65 542/227/65 566/135/65
f 542/227/65 534/133/65 566/135/65
f 590/136/133 592/138/133 591/137/133
f 592/138/134 530/231/134 529/139/134
f 591/232/135 529/233/135 531/234/135
f 531/234/68 533/235/68 591/232/68
f 533/235/136 535/236/136 591/232/136
f 535/236/137 537/237/137 539/238/137
f 539/238/138 541/239/138 543/140/138
f 543/140/68 545/240/68 547/241/68
f 547/241/68 549/242/68 551/243/68
f 551/243/135 553/244/135 555/245/135
f 555/245/68 557/246/68 551/243/68
f 557/246/68 559/141/68 551/243/68
f 559/141/68 561/247/68 567/248/68
f 561/247/68 563/249/68 567/248/68
f 563/249/68 565/250/68 567/248/68
f 567/248/139 569/251/139 571/252/139
f 571/252/68 573/253/68 567/248/68
f 573/253/68 575/142/68 567/248/68
f 575/142/68 577/254/68 579/255/68
f 579/255/68 581/256/68 583/257/68
f 583/257/140 585/258/140 587/259/140
f 587/259/68 589/260/68 591/232/68
f 535/236/141 539/238/141 543/140/141
f 543/140/68 547/241/68 559/141/68
f 547/241/68 551/243/68 559/141/68
f 575/142/68 579/255/68 583/257/68
f 583/257/68 587/259/68 575/142/68
f 587/259/142 591/232/142 575/142/142
f 591/232/68 535/236/68 543/140/68
f 559/141/142 567/248/142 575/142/142
f 591/232/68 543/140/68 575/142/68
s 1
f 1/261/143 2/262/144 3/263/145
f 1/261/143 3/263/145 4/264/146
f 1/261/143 4/264/146 5/265/147
f 1/261/143 5/265/147 6/266/148
f 1/261/143 6/266/148 7/267/149
f 1/261/143 7/267/149 8/268/150
f 1/261/143 8/268/150 9/269/68
f 1/261/143 9/269/68 2/262/144
f 10/270/151 11/271/152 12/272/34
f 10/270/151 12/272/34 13/273/153
f 10/270/151 13/273/153 14/274/154
f 10/270/151 14/274/154 15/275/155
f 10/270/151 15/275/155 5/276/147
f 10/270/151 5/276/147 4/277/146
f 10/270/151 4/277/146 3/278/145
f 10/270/151 3/278/145 11/271/152
f 16/279/156 17/280/157 18/281/158
f 16/279/156 18/281/158 19/282/159
f 16/279/156 19/282/159 20/283/160
f 16/279/156 20/283/160 21/284/161
f 16/279/156 21/284/161 14/274/154
f 16/279/156 14/274/154 13/273/153
f 16/279/156 13/273/153 12/272/34
f 16/279/156 12/272/34 17/280/157
f 22/285/162 23/286/163 24/287/65
f 22/285/162 24/287/65 25/288/164
f 22/285/162 25/288/164 26/289/165
f 22/285/162 26/289/165 27/290/166
f 22/285/162 27/290/166 20/291/160
f 22/285/162 20/291/160 19/292/159
f 22/285/162 19/292/159 18/293/158
f 22/285/162 18/293/158 23/286/163
f 28/294/167 29/295/168 30/296/169
f 28/294/167 30/296/169 31/297/170
f 28/294/167 31/297/170 32/298/171
f 28/294/167 32/298/171 33/299/172
f 28/294/167 33/299/172 26/289/165
f 28/294/167 26/289/165 25/288/164
f 28/294/167 25/288/164 24/287/65
f 28/294/167 24/287/65 29/295/168
f 34/300/173 31/301/170 30/302/169
f 34/300/173 30/302/169 35/303/174
f 34/300/173 35/303/174 36/304/31
f 34/300/173 36/304/31 37/305/175
f 34/300/173 37/305/175 38/306/176
f 34/300/173 38/306/176 39/307/177
f 34/300/173 39/307/177 32/308/171
f 34/300/173 32/308/171 31/301/170
f 40/309/178 41/310/179 42/311/180
f 40/309/178 42/311/180 43/312/181
f 40/309/178 43/312/181 44/313/182
f 40/309/178 44/313/182 45/314/183
f 40/309/178 45/314/183 38/306/176
f 40/309/178 38/306/176 37/305/175
f 40/309/178 37/305/175 36/304/31
f 40/309/178 36/304/31 41/310/179
f 46/315/184 47/316/185 9/269/68
f 46/315/184 9/269/68 8/268/150
f 46/315/184 8/268/150 7/267/149
f 46/315/184 7/267/149 48/317/186
f 46/315/184 48/317/186 44/318/182
f 46/315/184 44/318/182 43/319/181
f 46/315/184 43/319/181 42/320/180
f 46/315/184 42/320/180 47/316/185
f 49/321/187 48/317/186 7/267/149
f 49/321/187 7/267/149 50/322/188
f 49/321/187 50/322/188 51/323/189
f 49/321/187 51/323/189 52/324/190
f 49/321/187 52/324/190 53/325/191
f 49/321/187 53/325/191 54/326/192
f 49/321/187 54/326/192 44/318/182
f 49/321/187 44/318/182 48/317/186
f 55/327/193 45/314/183 44/313/182
f 55/327/193 44/313/182 54/328/192
f 55/327/193 54/328/192 53/329/191
f 55/327/193 53/329/191 56/330/194
f 55/327/193 56/330/194 57/331/195
f 55/327/193 57/331/195 58/332/196
f 55/327/193 58/332/196 38/306/176
f 55/327/193 38/306/176 45/314/183
f 59/333/197 60/334/198 32/308/171
f 59/333/197 32/308/171 39/307/177
f 59/333/197 39/307/177 38/306/176
f 59/333/197 38/306/176 58/332/196
f 59/333/197 58/332/196 57/331/195
f 59/333/197 57/331/195 61/335/199
f 59/333/197 61/335/199 62/336/200
f 59/333/197 62/336/200 60/334/198
f 63/337/201 33/299/172 32/298/171
f 63/337/201 32/298/171 60/338/198
f 63/337/201 60/338/198 62/339/200
f 63/337/201 62/339/200 64/340/202
f 63/337/201 64/340/202 65/341/203
f 63/337/201 65/341/203 66/342/204
f 63/337/201 66/342/204 26/289/165
f 63/337/201 26/289/165 33/299/172
f 67/343/205 27/290/166 26/289/165
f 67/343/205 26/289/165 66/342/204
f 67/343/205 66/342/204 65/341/203
f 67/343/205 65/341/203 68/344/206
f 67/343/205 68/344/206 69/345/207
f 67/343/205 69/345/207 70/346/208
f 67/343/205 70/346/208 20/291/160
f 67/343/205 20/291/160 27/290/166
f 71/347/209 21/284/161 20/283/160
f 71/347/209 20/283/160 70/348/208
f 71/347/209 70/348/208 69/349/207
f 71/347/209 69/349/207 72/350/210
f 71/347/209 72/350/210 73/351/211
f 71/347/209 73/351/211 74/352/212
f 71/347/209 74/352/212 14/274/154
f 71/347/209 14/274/154 21/284/161
f 75/353/213 15/275/155 14/274/154
f 75/353/213 14/274/154 74/352/212
f 75/353/213 74/352/212 73/351/211
f 75/353/213 73/351/211 76/354/214
f 75/353/213 76/354/214 77/355/215
f 75/353/213 77/355/215 78/356/216
f 75/353/213 78/356/216 5/276/147
f 75/353/213 5/276/147 15/275/155
f 79/357/217 6/266/148 5/265/147
f 79/357/217 5/265/147 78/358/216
f 79/357/217 78/358/216 77/359/215
f 79/357/217 77/359/215 80/360/218
f 79/357/217 80/360/218 51/323/189
f 79/357/217 51/323/189 50/322/188
f 79/357/217 50/322/188 7/267/149
f 79/357/217 7/267/149 6/266/148
f 81/361/219 80/360/218 77/359/215
f 81/361/219 77/359/215 82/362/220
f 81/361/219 82/362/220 83/363/221
f 81/361/219 83/363/221 84/364/222
f 81/361/219 84/364/222 85/365/223
f 81/361/219 85/365/223 86/366/224
f 81/361/219 86/366/224 51/323/189
f 81/361/219 51/323/189 80/360/218
f 87/367/225 76/354/214 73/351/211
f 87/367/225 73/351/211 88/368/226
f 87/367/225 88/368/226 89/369/227
f 87/367/225 89/369/227 90/370/228
f 87/367/225 90/370/228 83/371/221
f 87/367/225 83/371/221 82/372/220
f 87/367/225 82/372/220 77/355/215
f 87/367/225 77/355/215 76/354/214
f 91/373/229 72/350/210 69/349/207
f 91/373/229 69/349/207 92/374/230
f 91/373/229 92/374/230 93/375/231
f 91/373/229 93/375/231 94/376/232
f 91/373/229 94/376/232 89/369/227
f 91/373/229 89/369/227 88/368/226
f 91/373/229 88/368/226 73/351/211
f 91/373/229 73/351/211 72/350/210
f 95/377/233 68/344/206 65/341/203
f 95/377/233 65/341/203 96/378/234
f 95/377/233 96/378/234 97/379/235
f 95/377/233 97/379/235 98/380/236
f 95/377/233 98/380/236 93/381/231
f 95/377/233 93/381/231 92/382/230
f 95/377/233 92/382/230 69/345/207
f 95/377/233 69/345/207 68/344/206
f 99/383/237 64/340/202 62/339/200
f 99/383/237 62/339/200 100/384/238
f 99/383/237 100/384/238 101/385/239
f 99/383/237 101/385/239 102/386/240
f 99/383/237 102/386/240 97/379/235
f 99/383/237 97/379/235 96/378/234
f 99/383/237 96/378/234 65/341/203
f 99/383/237 65/341/203 64/340/202
f 103/387/241 100/388/238 62/336/200
f 103/387/241 62/336/200 61/335/199
f 103/387/241 61/335/199 57/331/195
f 103/387/241 57/331/195 104/389/242
f 103/387/241 104/389/242 105/390/243
f 103/387/241 105/390/243 106/391/244
f 103/387/241 106/391/244 101/392/239
f 103/387/241 101/392/239 100/388/238
f 107/393/245 56/330/194 53/329/191
f 107/393/245 53/329/191 108/394/246
f 107/393/245 108/394/246 109/395/247
f 107/393/245 109/395/247 110/396/248
f 107/393/245 110/396/248 105/390/243
f 107/393/245 105/390/243 104/389/242
f 107/393/245 104/389/242 57/331/195
f 107/393/245 57/331/195 56/330/194
f 111/397/249 52/324/190 51/323/189
f 111/397/249 51/323/189 86/366/224
f 111/397/249 86/366/224 85/365/223
f 111/397/249 85/365/223 112/398/250
f 111/397/249 112/398/250 109/399/247
f 111/397/249 109/399/247 108/400/246
f 111/397/249 108/400/246 53/325/191
f 111/397/249 53/325/191 52/324/190
f 113/401/251 112/398/250 85/365/223
f 113/401/251 85/365/223 114/402/252
f 113/403/251 114/404/252 115/405/253
f 113/403/251 115/405/253 116/406/254
f 113/403/251 116/406/254 117/407/255
f 113/403/251 117/407/255 118/408/256
f 113/401/251 118/409/256 109/399/247
f 113/401/251 109/399/247 112/398/250
f 119/410/257 110/396/248 109/395/247
f 119/410/257 109/395/247 118/411/256
f 119/412/257 118/408/256 117/407/255
f 119/412/257 117/407/255 120/413/258
f 119/412/257 120/413/258 121/414/259
f 119/412/257 121/414/259 122/415/260
f 119/410/257 122/416/260 105/390/243
f 119/410/257 105/390/243 110/396/248
f 123/417/261 124/418/262 101/392/239
f 123/417/261 101/392/239 106/391/244
f 123/417/261 106/391/244 105/390/243
f 123/417/261 105/390/243 122/416/260
f 123/419/261 122/415/260 121/414/259
f 123/419/261 121/414/259 125/420/263
f 123/419/261 125/420/263 126/421/264
f 123/419/261 126/421/264 124/422/262
f 127/423/265 102/386/240 101/385/239
f 127/423/265 101/385/239 124/424/262
f 127/425/265 124/422/262 126/421/264
f 127/425/265 126/421/264 128/426/266
f 127/425/265 128/426/266 129/427/267
f 127/425/265 129/427/267 130/428/268
f 127/423/265 130/429/268 97/379/235
f 127/423/265 97/379/235 102/386/240
f 131/430/269 98/380/236 97/379/235
f 131/430/269 97/379/235 130/429/268
f 131/431/269 130/428/268 129/427/267
f 131/431/269 129/427/267 132/432/270
f 131/431/269 132/432/270 133/433/271
f 131/431/269 133/433/271 134/434/272
f 131/430/269 134/435/272 93/381/231
f 131/430/269 93/381/231 98/380/236
f 135/436/273 94/376/232 93/375/231
f 135/436/273 93/375/231 134/437/272
f 135/438/273 134/434/272 133/433/271
f 135/438/273 133/433/271 136/439/274
f 135/438/273 136/439/274 137/440/275
f 135/438/273 137/440/275 138/441/276
f 135/436/273 138/442/276 89/369/227
f 135/436/273 89/369/227 94/376/232
f 139/443/277 90/370/228 89/369/227
f 139/443/277 89/369/227 138/442/276
f 139/444/277 138/441/276 137/440/275
f 139/444/277 137/440/275 140/445/278
f 139/444/277 140/445/278 141/446/279
f 139/444/277 141/446/279 142/447/280
f 139/443/277 142/448/280 83/371/221
f 139/443/277 83/371/221 90/370/228
f 143/449/281 84/364/222 83/363/221
f 143/449/281 83/363/221 142/450/280
f 143/451/281 142/447/280 141/446/279
f 143/451/281 141/446/279 144/452/282
f 143/451/281 144/452/282 115/405/253
f 143/451/281 115/405/253 114/404/252
f 143/449/281 114/402/252 85/365/223
f 143/449/281 85/365/223 84/364/222
f 145/453/283 144/452/282 141/446/279
f 145/453/283 141/446/279 146/454/284
f 145/453/283 146/454/284 147/455/285
f 145/453/283 147/455/285 148/456/286
f 145/453/283 148/456/286 149/457/285
f 145/453/283 149/457/285 150/458/287
f 145/453/283 150/458/287 115/405/253
f 145/453/283 115/405/253 144/452/282
f 151/459/288 140/445/278 137/440/275
f 151/459/288 137/440/275 152/460/289
f 151/459/288 152/460/289 153/461/285
f 151/459/288 153/461/285 154/462/290
f 151/459/288 154/462/290 147/455/285
f 151/459/288 147/455/285 146/454/284
f 151/459/288 146/454/284 141/446/279
f 151/459/288 141/446/279 140/445/278
f 155/463/291 136/439/274 133/433/271
f 155/463/291 133/433/271 156/464/292
f 155/463/291 156/464/292 157/465/285
f 155/463/291 157/465/285 158/466/286
f 155/463/291 158/466/286 153/461/285
f 155/463/291 153/461/285 152/460/289
f 155/463/291 152/460/289 137/440/275
f 155/463/291 137/440/275 136/439/274
f 159/467/293 132/432/270 129/427/267
f 159/467/293 129/427/267 160/468/294
f 159/467/293 160/468/294 161/469/285
f 159/467/293 161/469/285 162/470/290
f 159/467/293 162/470/290 157/465/285
f 159/467/293 157/465/285 156/464/292
f 159/467/293 156/464/292 133/433/271
f 159/467/293 133/433/271 132/432/270
f 163/471/295 128/426/266 126/421/264
f 163/471/295 126/421/264 164/472/296
f 163/471/295 164/472/296 165/473/285
f 163/471/295 165/473/285 166/474/285
f 163/471/295 166/474/285 161/469/285
f 163/471/295 161/469/285 160/468/294
f 163/471/295 160/468/294 129/427/267
f 163/471/295 129/427/267 128/426/266
f 167/475/297 164/472/296 126/421/264
f 167/475/297 126/421/264 125/420/263
f 167/475/297 125/420/263 121/414/259
f 167/475/297 121/414/259 168/476/298
f 167/475/297 168/476/298 169/477/285
f 167/475/297 169/477/285 170/478/286
f 167/475/297 170/478/286 165/473/285
f 167/475/297 165/473/285 164/472/296
f 171/479/299 120/413/258 117/407/255
f 171/479/299 117/407/255 172/480/300
f 171/479/299 172/480/300 173/481/285
f 171/479/299 173/481/285 174/482/290
f 171/479/299 174/482/290 169/477/285
f 171/479/299 169/477/285 168/476/298
f 171/479/299 168/476/298 121/414/259
f 171/479/299 121/414/259 120/413/258
f 175/483/301 116/406/254 115/405/253
f 175/483/301 115/405/253 150/458/287
f 175/483/301 150/458/287 149/457/285
f 175/483/301 149/457/285 176/484/285
f 175/483/301 176/484/285 173/481/285
f 175/483/301 173/481/285 172/480/300
f 175/483/301 172/480/300 117/407/255
f 175/483/301 117/407/255 116/406/254
f 177/485/302 178/486/303 179/487/304
f 177/485/302 179/487/304 180/488/305
f 177/485/302 180/488/305 181/489/306
f 177/485/302 181/489/306 182/490/307
f 177/485/302 182/490/307 183/491/308
f 177/485/302 183/491/308 184/492/309
f 177/485/302 184/492/309 185/493/310
f 177/485/302 185/493/310 178/486/303
f 186/494/311 182/495/307 181/496/306
f 186/494/311 181/496/306 187/497/312
f 186/494/311 187/497/312 188/498/313
f 186/494/311 188/498/313 189/499/314
f 186/494/311 189/499/314 190/500/315
f 186/494/311 190/500/315 191/501/316
f 186/494/311 191/501/316 183/502/308
f 186/494/311 183/502/308 182/495/307
f 192/503/317 189/499/314 188/498/313
f 192/503/317 188/498/313 193/504/318
f 192/503/317 193/504/318 194/505/319
f 192/503/317 194/505/319 195/506/320
f 192/503/317 195/506/320 196/507/321
f 192/503/317 196/507/321 197/508/322
f 192/503/317 197/508/322 190/500/315
f 192/503/317 190/500/315 189/499/314
f 198/509/323 195/510/320 194/511/319
f 198/509/323 194/511/319 199/512/324
f 198/509/323 199/512/324 200/513/325
f 198/509/323 200/513/325 201/514/326
f 198/509/323 201/514/326 202/515/327
f 198/509/323 202/515/327 203/516/328
f 198/509/323 203/516/328 196/517/321
f 198/509/323 196/517/321 195/510/320
f 204/518/329 201/514/326 200/513/325
f 204/518/329 200/513/325 205/519/330
f 204/518/329 205/519/330 206/520/331
f 204/518/329 206/520/331 207/521/332
f 204/518/329 207/521/332 208/522/333
f 204/518/329 208/522/333 209/523/334
f 204/518/329 209/523/334 202/515/327
f 204/518/329 202/515/327 201/514/326
f 210/524/335 211/525/336 212/526/337
f 210/524/335 212/526/337 213/527/338
f 210/524/335 213/527/338 214/528/339
f 210/524/335 214/528/339 215/529/340
f 210/524/335 215/529/340 208/530/333
f 210/524/335 208/530/333 207/531/332
f 210/524/335 207/531/332 206/532/331
f 210/524/335 206/532/331 211/525/336
f 216/533/341 213/527/338 212/526/337
f 216/533/341 212/526/337 217/534/342
f 216/533/341 217/534/342 218/535/343
f 216/533/341 218/535/343 219/536/344
f 216/533/341 219/536/344 220/537/345
f 216/533/341 220/537/345 221/538/346
f 216/533/341 221/538/346 214/528/339
f 216/533/341 214/528/339 213/527/338
f 222/539/347 219/540/344 218/541/343
f 222/539/347 218/541/343 223/542/348
f 222/539/347 223/542/348 179/487/304
f 222/539/347 179/487/304 178/486/303
f 222/539/347 178/486/303 185/493/310
f 222/539/347 185/493/310 224/543/349
f 222/539/347 224/543/349 220/544/345
f 222/539/347 220/544/345 219/540/344
f 225/545/350 226/546/351 227/547/352
f 225/545/350 227/547/352 228/548/353
f 225/545/350 228/548/353 229/549/354
f 225/545/350 229/549/354 230/550/355
f 225/545/350 230/550/355 181/489/306
f 225/545/350 181/489/306 180/488/305
f 225/545/350 180/488/305 179/487/304
f 225/545/350 179/487/304 226/546/351
f 231/551/356 230/552/355 229/553/354
f 231/551/356 229/553/354 232/554/357
f 231/551/356 232/554/357 233/555/358
f 231/551/356 233/555/358 234/556/359
f 231/551/356 234/556/359 188/498/313
f 231/551/356 188/498/313 187/497/312
f 231/551/356 187/497/312 181/496/306
f 231/551/356 181/496/306 230/552/355
f 235/557/360 234/556/359 233/555/358
f 235/557/360 233/555/358 236/558/361
f 235/557/360 236/558/361 237/559/362
f 235/557/360 237/559/362 238/560/363
f 235/557/360 238/560/363 194/505/319
f 235/557/360 194/505/319 193/504/318
f 235/557/360 193/504/318 188/498/313
f 235/557/360 188/498/313 234/556/359
f 239/561/364 238/562/363 237/563/362
f 239/561/364 237/563/362 240/564/365
f 239/561/364 240/564/365 241/565/366
f 239/561/364 241/565/366 242/566/367
f 239/561/364 242/566/367 200/513/325
f 239/561/364 200/513/325 199/512/324
f 239/561/364 199/512/324 194/511/319
f 239/561/364 194/511/319 238/562/363
f 243/567/368 242/566/367 241/565/366
f 243/567/368 241/565/366 244/568/369
f 243/567/368 244/568/369 245/569/370
f 243/567/368 245/569/370 246/570/371
f 243/567/368 246/570/371 206/520/331
f 243/567/368 206/520/331 205/519/330
f 243/567/368 205/519/330 200/513/325
f 243/567/368 200/513/325 242/566/367
f 247/571/372 248/572/373 249/573/374
f 247/571/372 249/573/374 250/574/375
f 247/571/372 250/574/375 212/526/337
f 247/571/372 212/526/337 211/525/336
f 247/571/372 211/525/336 206/532/331
f 247/571/372 206/532/331 246/575/371
f 247/571/372 246/575/371 245/576/370
f 247/571/372 245/576/370 248/572/373
f 251/577/376 250/574/375 249/573/374
f 251/577/376 249/573/374 252/578/377
f 251/577/376 252/578/377 253/579/378
f 251/577/376 253/579/378 254/580/379
f 251/577/376 254/580/379 218/535/343
f 251/577/376 218/535/343 217/534/342
f 251/577/376 217/534/342 212/526/337
f 251/577/376 212/526/337 250/574/375
f 255/581/380 254/582/379 253/583/378
f 255/581/380 253/583/378 256/584/381
f 255/581/380 256/584/381 227/547/352
f 255/581/380 227/547/352 226/546/351
f 255/581/380 226/546/351 179/487/304
f 255/581/380 179/487/304 223/542/348
f 255/581/380 223/542/348 218/541/343
f 255/581/380 218/541/343 254/582/379
f 257/585/382 258/586/383 259/587/384
f 257/585/382 259/587/384 260/588/385
f 257/585/382 260/588/385 261/589/386
f 257/585/382 261/589/386 262/590/387
f 257/591/382 262/592/387 229/549/354
f 257/591/382 229/549/354 228/548/353
f 257/591/382 228/548/353 227/547/352
f 257/591/382 227/547/352 258/593/383
f 263/594/388 262/590/387 261/589/386
f 263/594/388 261/589/386 264/595/389
f 263/594/388 264/595/389 265/596/390
f 263/594/388 265/596/390 266/597/391
f 263/598/388 266/599/391 233/555/358
f 263/598/388 233/555/358 232/554/357
f 263/598/388 232/554/357 229/553/354
f 263/598/388 229/553/354 262/600/387
f 267/601/392 266/597/391 265/596/390
f 267/601/392 265/596/390 268/602/393
f 267/601/392 268/602/393 269/603/394
f 267/601/392 269/603/394 270/604/395
f 267/605/392 270/606/395 237/559/362
f 267/605/392 237/559/362 236/558/361
f 267/605/392 236/558/361 233/555/358
f 267/605/392 233/555/358 266/599/391
f 271/607/396 270/604/395 269/603/394
f 271/607/396 269/603/394 272/608/397
f 271/607/396 272/608/397 273/609/398
f 271/607/396 273/609/398 274/610/399
f 271/611/396 274/612/399 241/565/366
f 271/611/396 241/565/366 240/564/365
f 271/611/396 240/564/365 237/563/362
f 271/611/396 237/563/362 270/613/395
f 275/614/400 274/610/399 273/609/398
f 275/614/400 273/609/398 276/615/401
f 275/614/400 276/615/401 277/616/402
f 275/614/400 277/616/402 278/617/403
f 275/618/400 278/619/403 245/569/370
f 275/618/400 245/569/370 244/568/369
f 275/618/400 244/568/369 241/565/366
f 275/618/400 241/565/366 274/612/399
f 279/620/404 280/621/405 281/622/406
f 279/620/404 281/622/406 282/623/407
f 279/624/404 282/625/407 249/573/374
f 279/624/404 249/573/374 248/572/373
f 279/624/404 248/572/373 245/576/370
f 279/624/404 245/576/370 278/626/403
f 279/620/404 278/617/403 277/616/402
f 279/620/404 277/616/402 280/621/405
f 283/627/408 282/623/407 281/622/406
f 283/627/408 281/622/406 284/628/409
f 283/627/408 284/628/409 285/629/410
f 283/627/408 285/629/410 286/630/411
f 283/631/408 286/632/411 253/579/378
f 283/631/408 253/579/378 252/578/377
f 283/631/408 252/578/377 249/573/374
f 283/631/408 249/573/374 282/625/407
f 287/633/412 286/630/411 285/629/410
f 287/633/412 285/629/410 288/634/413
f 287/633/412 288/634/413 259/587/384
f 287/633/412 259/587/384 258/586/383
f 287/635/412 258/593/383 227/547/352
f 287/635/412 227/547/352 256/584/381
f 287/635/412 256/584/381 253/583/378
f 287/635/412 253/583/378 286/636/411
f 289/637/414 290/638/415 291/639/416
f 289/637/414 291/639/416 292/640/417
f 289/637/414 292/640/417 293/641/418
f 289/637/414 293/641/418 294/642/419
f 289/643/414 294/644/419 295/645/420
f 289/643/414 295/645/420 296/646/421
f 289/643/414 296/646/421 297/647/422
f 289/643/414 297/647/422 290/648/415
f 298/649/423 299/650/424 297/647/422
f 298/649/423 297/647/422 296/646/421
f 298/649/423 296/646/421 295/645/420
f 298/649/423 295/645/420 300/651/425
f 298/649/423 300/651/425 261/589/386
f 298/649/423 261/589/386 260/588/385
f 298/649/423 260/588/385 259/587/384
f 298/649/423 259/587/384 299/650/424
f 301/652/426 294/653/419 293/654/418
f 301/652/426 293/654/418 302/655/427
f 301/652/426 302/655/427 303/656/428
f 301/652/426 303/656/428 304/657/429
f 301/658/426 304/659/429 305/660/430
f 301/658/426 305/660/430 306/661/431
f 301/658/426 306/661/431 295/645/420
f 301/658/426 295/645/420 294/644/419
f 307/662/432 300/651/425 295/645/420
f 307/662/432 295/645/420 306/661/431
f 307/662/432 306/661/431 305/660/430
f 307/662/432 305/660/430 308/663/433
f 307/662/432 308/663/433 265/596/390
f 307/662/432 265/596/390 264/595/389
f 307/662/432 264/595/389 261/589/386
f 307/662/432 261/589/386 300/651/425
f 309/664/434 304/657/429 303/656/428
f 309/664/434 303/656/428 310/665/435
f 309/664/434 310/665/435 311/666/436
f 309/664/434 311/666/436 312/667/437
f 309/668/434 312/669/437 313/670/438
f 309/668/434 313/670/438 314/671/439
f 309/668/434 314/671/439 305/660/430
f 309/668/434 305/660/430 304/659/429
f 315/672/440 308/663/433 305/660/430
f 315/672/440 305/660/430 314/671/439
f 315/672/440 314/671/439 313/670/438
f 315/672/440 313/670/438 316/673/441
f 315/672/440 316/673/441 269/603/394
f 315/672/440 269/603/394 268/602/393
f 315/672/440 268/602/393 265/596/390
f 315/672/440 265/596/390 308/663/433
f 317/674/442 312/675/437 311/676/436
f 317/674/442 311/676/436 318/677/443
f 317/674/442 318/677/443 319/678/444
f 317/674/442 319/678/444 320/679/445
f 317/680/442 320/681/445 321/682/446
f 317/680/442 321/682/446 322/683/447
f 317/680/442 322/683/447 313/670/438
f 317/680/442 313/670/438 312/669/437
f 323/684/448 316/673/441 313/670/438
f 323/684/448 313/670/438 322/683/447
f 323/684/448 322/683/447 321/682/446
f 323/684/448 321/682/446 324/685/449
f 323/684/448 324/685/449 273/609/398
f 323/684/448 273/609/398 272/608/397
f 323/684/448 272/608/397 269/603/394
f 323/684/448 269/603/394 316/673/441
f 325/686/450 320/679/445 319/678/444
f 325/686/450 319/678/444 326/687/451
f 325/686/450 326/687/451 327/688/452
f 325/686/450 327/688/452 328/689/453
f 325/690/450 328/691/453 329/692/454
f 325/690/450 329/692/454 330/693/455
f 325/690/450 330/693/455 321/682/446
f 325/690/450 321/682/446 320/681/445
f 331/694/456 324/685/449 321/682/446
f 331/694/456 321/682/446 330/693/455
f 331/694/456 330/693/455 329/692/454
f 331/694/456 329/692/454 332/695/457
f 331/694/456 332/695/457 277/616/402
f 331/694/456 277/616/402 276/615/401
f 331/694/456 276/615/401 273/609/398
f 331/694/456 273/609/398 324/685/449
f 333/696/458 334/697/459 335/698/460
f 333/696/458 335/698/460 336/699/461
f 333/700/458 336/701/461 337/702/462
f 333/700/458 337/702/462 338/703/463
f 333/700/458 338/703/463 329/692/454
f 333/700/458 329/692/454 328/691/453
f 333/696/458 328/704/453 327/705/452
f 333/696/458 327/705/452 334/697/459
f 339/706/464 338/703/463 337/702/462
f 339/706/464 337/702/462 340/707/465
f 339/706/464 340/707/465 281/622/406
f 339/706/464 281/622/406 280/621/405
f 339/706/464 280/621/405 277/616/402
f 339/706/464 277/616/402 332/695/457
f 339/706/464 332/695/457 329/692/454
f 339/706/464 329/692/454 338/703/463
f 341/708/466 336/699/461 335/698/460
f 341/708/466 335/698/460 342/709/467
f 341/708/466 342/709/467 343/710/468
f 341/708/466 343/710/468 344/711/469
f 341/712/466 344/713/469 345/714/470
f 341/712/466 345/714/470 346/715/471
f 341/712/466 346/715/471 337/702/462
f 341/712/466 337/702/462 336/701/461
f 347/716/472 340/707/465 337/702/462
f 347/716/472 337/702/462 346/715/471
f 347/716/472 346/715/471 345/714/470
f 347/716/472 345/714/470 348/717/473
f 347/716/472 348/717/473 285/629/410
f 347/716/472 285/629/410 284/628/409
f 347/716/472 284/628/409 281/622/406
f 347/716/472 281/622/406 340/707/465
f 349/718/474 344/719/469 343/720/468
f 349/718/474 343/720/468 350/721/475
f 349/718/474 350/721/475 291/639/416
f 349/718/474 291/639/416 290/638/415
f 349/722/474 290/648/415 297/647/422
f 349/722/474 297/647/422 351/723/476
f 349/722/474 351/723/476 345/714/470
f 349/722/474 345/714/470 344/713/469
f 352/724/477 348/717/473 345/714/470
f 352/724/477 345/714/470 351/723/476
f 352/724/477 351/723/476 297/647/422
f 352/724/477 297/647/422 299/650/424
f 352/724/477 299/650/424 259/587/384
f 352/724/477 259/587/384 288/634/413
f 352/724/477 288/634/413 285/629/410
f 352/724/477 285/629/410 348/717/473
f 353/725/478 292/640/417 291/639/416
f 353/725/478 291/639/416 354/726/479
f 353/725/478 354/726/479 355/727/68
f 353/725/478 355/727/68 356/728/144
f 353/725/478 356/728/144 357/729/145
f 353/725/478 357/729/145 358/730/480
f 353/725/478 358/730/480 293/641/418
f 353/725/478 293/641/418 292/640/417
f 359/731/481 302/655/427 293/654/418
f 359/731/481 293/654/418 358/732/480
f 359/731/481 358/732/480 357/733/145
f 359/731/481 357/733/145 360/734/482
f 359/731/481 360/734/482 361/735/34
f 359/731/481 361/735/34 362/736/483
f 359/731/481 362/736/483 303/656/428
f 359/731/481 303/656/428 302/655/427
f 363/737/484 310/665/435 303/656/428
f 363/737/484 303/656/428 362/736/483
f 363/737/484 362/736/483 361/735/34
f 363/737/484 361/735/34 364/738/157
f 363/737/484 364/738/157 365/739/158
f 363/737/484 365/739/158 366/740/485
f 363/737/484 366/740/485 311/666/436
f 363/737/484 311/666/436 310/665/435
f 367/741/486 318/677/443 311/676/436
f 367/741/486 311/676/436 366/742/485
f 367/741/486 366/742/485 365/743/158
f 367/741/486 365/743/158 368/744/163
f 367/741/486 368/744/163 369/745/65
f 367/741/486 369/745/65 370/746/487
f 367/741/486 370/746/487 319/678/444
f 367/741/486 319/678/444 318/677/443
f 371/747/488 326/687/451 319/678/444
f 371/747/488 319/678/444 370/746/487
f 371/747/488 370/746/487 369/745/65
f 371/747/488 369/745/65 372/748/168
f 371/747/488 372/748/168 373/749/169
f 371/747/488 373/749/169 374/750/489
f 371/747/488 374/750/489 327/688/452
f 371/747/488 327/688/452 326/687/451
f 375/751/490 376/752/491 335/698/460
f 375/751/490 335/698/460 334/697/459
f 375/751/490 334/697/459 327/705/452
f 375/751/490 327/705/452 374/753/489
f 375/751/490 374/753/489 373/754/169
f 375/751/490 373/754/169 377/755/174
f 375/751/490 377/755/174 378/756/31
f 375/751/490 378/756/31 376/752/491
f 379/757/492 342/709/467 335/698/460
f 379/757/492 335/698/460 376/752/491
f 379/757/492 376/752/491 378/756/31
f 379/757/492 378/756/31 380/758/179
f 379/757/492 380/758/179 381/759/180
f 379/757/492 381/759/180 382/760/493
f 379/757/492 382/760/493 343/710/468
f 379/757/492 343/710/468 342/709/467
f 383/761/494 384/762/185 355/727/68
f 383/761/494 355/727/68 354/726/479
f 383/761/494 354/726/479 291/639/416
f 383/761/494 291/639/416 350/721/475
f 383/761/494 350/721/475 343/720/468
f 383/761/494 343/720/468 382/763/493
f 383/761/494 382/763/493 381/764/180
f 383/761/494 381/764/180 384/762/185
f 385/765/495 224/543/349 185/493/310
f 385/765/495 185/493/310 386/766/496
f 385/765/495 386/766/496 387/767/68
f 385/765/495 387/767/68 388/768/185
f 385/765/495 388/768/185 389/769/180
f 385/765/495 389/769/180 390/770/497
f 385/765/495 390/770/497 220/544/345
f 385/765/495 220/544/345 224/543/349
f 391/771/498 221/538/346 220/537/345
f 391/771/498 220/537/345 390/772/497
f 391/771/498 390/772/497 389/773/180
f 391/771/498 389/773/180 392/774/179
f 391/771/498 392/774/179 393/775/31
f 391/771/498 393/775/31 394/776/499
f 391/771/498 394/776/499 214/528/339
f 391/771/498 214/528/339 221/538/346
f 395/777/500 215/529/340 214/528/339
f 395/777/500 214/528/339 394/776/499
f 395/777/500 394/776/499 393/775/31
f 395/777/500 393/775/31 396/778/174
f 395/777/500 396/778/174 397/779/501
f 395/777/500 397/779/501 398/780/502
f 395/777/500 398/780/502 208/530/333
f 395/777/500 208/530/333 215/529/340
f 399/781/503 209/523/334 208/522/333
f 399/781/503 208/522/333 398/782/502
f 399/781/503 398/782/502 397/783/501
f 399/781/503 397/783/501 400/784/168
f 399/781/503 400/784/168 401/785/65
f 399/781/503 401/785/65 402/786/504
f 399/781/503 402/786/504 202/515/327
f 399/781/503 202/515/327 209/523/334
f 403/787/505 203/516/328 202/515/327
f 403/787/505 202/515/327 402/786/504
f 403/787/505 402/786/504 401/785/65
f 403/787/505 401/785/65 404/788/506
f 403/787/505 404/788/506 405/789/158
f 403/787/505 405/789/158 406/790/507
f 403/787/505 406/790/507 196/517/321
f 403/787/505 196/517/321 203/516/328
f 407/791/508 197/508/322 196/507/321
f 407/791/508 196/507/321 406/792/507
f 407/791/508 406/792/507 405/793/158
f 407/791/508 405/793/158 408/794/157
f 407/791/508 408/794/157 409/795/34
f 407/791/508 409/795/34 410/796/509
f 407/791/508 410/796/509 190/500/315
f 407/791/508 190/500/315 197/508/322
f 411/797/510 191/501/316 190/500/315
f 411/797/510 190/500/315 410/796/509
f 411/797/510 410/796/509 409/795/34
f 411/797/510 409/795/34 412/798/482
f 411/797/510 412/798/482 413/799/511
f 411/797/510 413/799/511 414/800/512
f 411/797/510 414/800/512 183/502/308
f 411/797/510 183/502/308 191/501/316
f 415/801/513 184/492/309 183/491/308
f 415/801/513 183/491/308 414/802/512
f 415/801/513 414/802/512 413/803/511
f 415/801/513 413/803/511 416/804/144
f 415/801/513 416/804/144 387/767/68
f 415/801/513 387/767/68 386/766/496
f 415/801/513 386/766/496 185/493/310
f 415/801/513 185/493/310 184/492/309
f 417/805/185 388/768/185 387/767/68
f 417/805/185 387/767/68 418/806/68
f 417/805/185 418/806/68 419/807/68
f 417/805/185 419/807/68 420/808/185
f 417/805/185 420/808/185 421/809/180
f 417/805/185 421/809/180 422/810/180
f 417/805/185 422/810/180 389/769/180
f 417/805/185 389/769/180 388/768/185
f 423/811/185 420/808/185 419/807/68
f 423/811/185 419/807/68 424/812/68
f 423/811/185 424/812/68 9/269/68
f 423/811/185 9/269/68 47/316/185
f 423/811/185 47/316/185 42/320/180
f 423/811/185 42/320/180 425/813/180
f 423/811/185 425/813/180 421/809/180
f 423/811/185 421/809/180 420/808/185
f 426/814/179 392/774/179 389/773/180
f 426/814/179 389/773/180 422/815/180
f 426/814/179 422/815/180 421/816/180
f 426/814/179 421/816/180 427/817/179
f 426/814/179 427/817/179 428/818/31
f 426/814/179 428/818/31 429/819/31
f 426/814/179 429/819/31 393/775/31
f 426/814/179 393/775/31 392/774/179
f 430/820/179 427/817/179 421/816/180
f 430/820/179 421/816/180 425/821/180
f 430/820/179 425/821/180 42/311/180
f 430/820/179 42/311/180 41/310/179
f 430/820/179 41/310/179 36/304/31
f 430/820/179 36/304/31 431/822/31
f 430/820/179 431/822/31 428/818/31
f 430/820/179 428/818/31 427/817/179
f 432/823/174 396/778/174 393/775/31
f 432/823/174 393/775/31 429/819/31
f 432/823/174 429/819/31 428/818/31
f 432/823/174 428/818/31 433/824/174
f 432/823/174 433/824/174 434/825/169
f 432/823/174 434/825/169 435/826/501
f 432/823/174 435/826/501 397/779/501
f 432/823/174 397/779/501 396/778/174
f 436/827/174 433/824/174 428/818/31
f 436/827/174 428/818/31 431/822/31
f 436/827/174 431/822/31 36/304/31
f 436/827/174 36/304/31 35/303/174
f 436/827/174 35/303/174 30/302/169
f 436/827/174 30/302/169 437/828/501
f 436/827/174 437/828/501 434/825/169
f 436/827/174 434/825/169 433/824/174
f 438/829/168 400/784/168 397/783/501
f 438/829/168 397/783/501 435/830/501
f 438/829/168 435/830/501 434/831/169
f 438/829/168 434/831/169 439/832/168
f 438/829/168 439/832/168 440/833/65
f 438/829/168 440/833/65 441/834/65
f 438/829/168 441/834/65 401/785/65
f 438/829/168 401/785/65 400/784/168
f 442/835/168 439/832/168 434/831/169
f 442/835/168 434/831/169 437/836/501
f 442/835/168 437/836/501 30/296/169
f 442/835/168 30/296/169 29/295/168
f 442/835/168 29/295/168 24/287/65
f 442/835/168 24/287/65 443/837/65
f 442/835/168 443/837/65 440/833/65
f 442/835/168 440/833/65 439/832/168
f 444/838/163 404/788/506 401/785/65
f 444/838/163 401/785/65 441/834/65
f 444/838/163 441/834/65 440/833/65
f 444/838/163 440/833/65 445/839/163
f 444/838/163 445/839/163 446/840/158
f 444/838/163 446/840/158 447/841/158
f 444/838/163 447/841/158 405/789/158
f 444/838/163 405/789/158 404/788/506
f 448/842/163 445/839/163 440/833/65
f 448/842/163 440/833/65 443/837/65
f 448/842/163 443/837/65 24/287/65
f 448/842/163 24/287/65 23/286/163
f 448/842/163 23/286/163 18/293/158
f 448/842/163 18/293/158 449/843/158
f 448/842/163 449/843/158 446/840/158
f 448/842/163 446/840/158 445/839/163
f 450/844/514 408/794/157 405/793/158
f 450/844/514 405/793/158 447/845/158
f 450/844/514 447/845/158 446/846/158
f 450/844/514 446/846/158 451/847/157
f 450/844/514 451/847/157 452/848/34
f 450/844/514 452/848/34 453/849/34
f 450/844/514 453/849/34 409/795/34
f 450/844/514 409/795/34 408/794/157
f 454/850/514 451/847/157 446/846/158
f 454/850/514 446/846/158 449/851/158
f 454/850/514 449/851/158 18/281/158
f 454/850/514 18/281/158 17/280/157
f 454/850/514 17/280/157 12/272/34
f 454/850/514 12/272/34 455/852/34
f 454/850/514 455/852/34 452/848/34
f 454/850/514 452/848/34 451/847/157
f 456/853/515 412/798/482 409/795/34
f 456/853/515 409/795/34 453/849/34
f 456/853/515 453/849/34 452/848/34
f 456/853/515 452/848/34 457/854/482
f 456/853/515 457/854/482 458/855/511
f 456/853/515 458/855/511 459/856/511
f 456/853/515 459/856/511 413/799/511
f 456/853/515 413/799/511 412/798/482
f 460/857/515 457/854/482 452/848/34
f 460/857/515 452/848/34 455/852/34
f 460/857/515 455/852/34 12/272/34
f 460/857/515 12/272/34 11/271/152
f 460/857/515 11/271/152 3/278/145
f 460/857/515 3/278/145 461/858/145
f 460/857/515 461/858/145 458/855/511
f 460/857/515 458/855/511 457/854/482
f 462/859/144 416/804/144 413/803/511
f 462/859/144 413/803/511 459/860/511
f 462/859/144 459/860/511 458/861/511
f 462/859/144 458/861/511 463/862/144
f 462/859/144 463/862/144 419/807/68
f 462/859/144 419/807/68 418/806/68
f 462/859/144 418/806/68 387/767/68
f 462/859/144 387/767/68 416/804/144
f 464/863/144 463/862/144 458/861/511
f 464/863/144 458/861/511 461/864/145
f 464/863/144 461/864/145 3/263/145
f 464/863/144 3/263/145 2/262/144
f 464/863/144 2/262/144 9/269/68
f 464/863/144 9/269/68 424/812/68
f 464/863/144 424/812/68 419/807/68
f 464/863/144 419/807/68 463/862/144
