# Blender v2.82 (sub 7) OBJ File: 'living_room.blend'
# www.blender.org
o GreenBooks_Mesh_(39)
v -2.410500 0.935023 4.071170
v -2.187000 1.112529 4.094560
v -2.187000 0.935023 4.071170
v -2.410500 1.112529 4.094560
v -2.187000 0.932729 4.088580
v -2.410500 1.110229 4.111980
v -2.410500 0.932729 4.088580
v -2.187000 1.110229 4.111980
v -2.186170 0.934858 4.072430
v -2.410500 0.935023 4.071170
v -2.187000 0.935023 4.071170
v -2.410500 0.934858 4.072430
v -2.186170 0.932894 4.087330
v -2.410500 0.932894 4.087330
v -2.410500 0.932894 4.087330
v -2.187000 0.932729 4.088580
v -2.410500 0.932729 4.088580
v -2.186170 0.932894 4.087330
v -2.410500 0.932729 4.088580
v -2.410500 1.110399 4.110720
v -2.410500 0.932894 4.087330
v -2.410500 1.110229 4.111980
v -2.410500 0.932894 4.087330
v -2.410500 1.112359 4.095820
v -2.410500 0.934858 4.072430
v -2.410500 1.110399 4.110720
v -2.410500 1.112529 4.094560
v -2.410500 0.935023 4.071170
v -2.187000 0.935023 4.071170
v -2.186170 1.112359 4.095820
v -2.186170 0.934858 4.072430
v -2.187000 1.112529 4.094560
v -2.186170 0.934858 4.072430
v -2.186170 1.110399 4.110720
v -2.186170 0.932894 4.087330
v -2.186170 1.112359 4.095820
v -2.186170 0.932894 4.087330
v -2.187000 1.110229 4.111980
v -2.187000 0.932729 4.088580
v -2.186170 1.110399 4.110720
v -2.410500 1.110229 4.111980
v -2.186170 1.110399 4.110720
v -2.410500 1.110399 4.110720
v -2.187000 1.110229 4.111980
v -2.410500 1.110399 4.110720
v -2.186170 1.112359 4.095820
v -2.410500 1.112359 4.095820
v -2.186170 1.110399 4.110720
v -2.410500 1.112359 4.095820
v -2.187000 1.112529 4.094560
v -2.410500 1.112529 4.094560
v -2.186170 1.112359 4.095820
v -2.284240 0.931874 3.812220
v -2.179620 1.100279 3.812220
v -2.179620 0.931874 3.812220
v -2.284240 1.100279 3.812220
v -2.179620 0.931874 3.848410
v -2.284240 1.100279 3.848410
v -2.284240 0.931874 3.848410
v -2.179620 1.100279 3.848410
v -2.178790 0.931874 3.813480
v -2.284240 0.931874 3.812220
v -2.179620 0.931874 3.812220
v -2.284240 0.931874 3.813480
v -2.178790 0.931874 3.847140
v -2.284240 0.931874 3.847140
v -2.179620 0.931874 3.848410
v -2.284240 0.931874 3.848410
v -2.284240 0.931874 3.848410
v -2.284240 1.100279 3.847140
v -2.284240 0.931874 3.847140
v -2.284240 1.100279 3.848410
v -2.284240 1.100279 3.813480
v -2.284240 0.931874 3.813480
v -2.284240 1.100279 3.812220
v -2.284240 0.931874 3.812220
v -2.179620 0.931874 3.812220
v -2.178790 1.100279 3.813480
v -2.178790 0.931874 3.813480
v -2.179620 1.100279 3.812220
v -2.178790 0.931874 3.813480
v -2.178790 1.100279 3.847140
v -2.178790 0.931874 3.847140
v -2.178790 1.100279 3.813480
v -2.178790 0.931874 3.847140
v -2.179620 1.100279 3.848410
v -2.179620 0.931874 3.848410
v -2.178790 1.100279 3.847140
v -2.284240 1.100279 3.848410
v -2.178790 1.100279 3.847140
v -2.284240 1.100279 3.847140
v -2.179620 1.100279 3.848410
v -2.178790 1.100279 3.813480
v -2.284240 1.100279 3.813480
v -2.179620 1.100279 3.812220
v -2.284240 1.100279 3.812220
vt 0.085053 0.002481
vt 0.084620 0.002481
vt 0.084620 0.760408
vt 0.085053 0.760408
vt 0.041930 0.002481
vt 0.040506 0.760408
vt 0.040506 0.002481
vt 0.041930 0.760408
vt 0.987148 0.008603
vt 0.989829 0.008603
vt 0.989829 0.127444
vt 0.987148 0.127444
vt 0.946689 0.127444
vt 0.946689 0.008603
vt 0.946689 0.127444
vt 0.943949 0.127444
vt 0.943949 0.008603
vt 0.946689 0.008603
vt 0.943949 0.127444
vt 0.946689 0.256778
vt 0.946689 0.127444
vt 0.943949 0.256778
vt 0.946689 0.127444
vt 0.987148 0.256778
vt 0.987148 0.127444
vt 0.946689 0.256778
vt 0.989829 0.256778
vt 0.989829 0.127444
vt 0.084620 0.002481
vt 0.083038 0.002481
vt 0.083038 0.760408
vt 0.084620 0.760408
vt 0.083038 0.002481
vt 0.043314 0.002481
vt 0.043314 0.760408
vt 0.083038 0.760408
vt 0.043314 0.002481
vt 0.041930 0.760408
vt 0.041930 0.002481
vt 0.043314 0.760408
vt 0.943949 0.256778
vt 0.946689 0.375415
vt 0.946689 0.256778
vt 0.943949 0.375415
vt 0.946689 0.256778
vt 0.987148 0.375415
vt 0.987148 0.256778
vt 0.946689 0.375415
vt 0.987148 0.256778
vt 0.989829 0.375415
vt 0.989829 0.256778
vt 0.987148 0.375415
vt 0.608766 0.002481
vt 0.606968 0.002481
vt 0.606968 0.784273
vt 0.608766 0.784273
vt 0.506922 0.002481
vt 0.505498 0.784273
vt 0.505498 0.002481
vt 0.506922 0.784273
vt 0.987148 0.008603
vt 0.989829 0.008603
vt 0.989829 0.127444
vt 0.987148 0.127444
vt 0.946689 0.127444
vt 0.946689 0.008603
vt 0.943949 0.127444
vt 0.943949 0.008603
vt 0.943949 0.127444
vt 0.946689 0.256778
vt 0.946689 0.127444
vt 0.943949 0.256778
vt 0.987148 0.256778
vt 0.987148 0.127444
vt 0.989829 0.256778
vt 0.989829 0.127444
vt 0.606968 0.002481
vt 0.604229 0.002481
vt 0.604229 0.784273
vt 0.606968 0.784273
vt 0.604229 0.002481
vt 0.509603 0.002481
vt 0.509603 0.784273
vt 0.604229 0.784273
vt 0.509603 0.002481
vt 0.506922 0.784273
vt 0.506922 0.002481
vt 0.509603 0.784273
vt 0.943949 0.256778
vt 0.946689 0.375415
vt 0.946689 0.256778
vt 0.943949 0.375415
vt 0.987148 0.375415
vt 0.987148 0.256778
vt 0.989829 0.375415
vt 0.989829 0.256778
vn 0.0000 -0.1306 0.9914
vn 0.0000 -0.1307 0.9914
vn 0.0000 0.9915 0.1303
vn 0.0006 0.9916 0.1294
vn -0.0009 0.9915 0.1298
vn 0.0000 0.9915 0.1302
vn 0.0000 0.9914 0.1307
vn 0.0000 0.9914 0.1308
vn -1.0000 -0.0000 0.0000
vn -0.8372 -0.0714 0.5422
vn -0.8372 -0.0719 0.5422
vn -0.8375 -0.0714 0.5417
vn 0.8374 -0.0714 0.5419
vn 0.8375 -0.0714 0.5417
vn -0.0000 0.9914 0.1306
vn 0.0000 0.9915 0.1304
vn 0.0000 0.0000 1.0000
vn 0.0000 1.0000 0.0000
vn 0.0000 1.0000 0.0001
vn -0.8351 0.0043 0.5501
vn -0.8351 -0.0043 0.5501
vn -0.8351 0.0046 0.5501
vn -0.8351 -0.0046 0.5501
vn 0.8375 0.0000 0.5464
vn 0.8376 0.0000 0.5463
s 1
f 1/1/1 3/2/1 2/3/1
f 1/1/1 2/3/1 4/4/1
f 5/5/2 6/6/2 7/7/2
f 5/5/2 8/8/2 6/6/2
f 9/9/3 11/10/4 10/11/5
f 9/9/3 10/11/5 12/12/6
f 12/12/6 14/13/7 13/14/7
f 12/12/6 13/14/7 9/9/3
f 15/15/8 17/16/8 16/17/8
f 15/15/8 16/17/8 18/18/8
f 19/19/9 20/20/9 21/21/9
f 19/19/9 22/22/9 20/20/9
f 23/23/9 24/24/9 25/25/9
f 23/23/9 26/26/9 24/24/9
f 25/25/9 27/27/9 28/28/9
f 25/25/9 24/24/9 27/27/9
f 29/29/10 31/30/11 30/31/12
f 29/29/10 30/31/12 32/32/12
f 33/33/9 35/34/9 34/35/9
f 33/33/9 34/35/9 36/36/9
f 37/37/13 38/38/14 39/39/13
f 37/37/13 40/40/14 38/38/14
f 41/41/7 42/42/15 43/43/7
f 41/41/7 44/44/15 42/42/15
f 45/45/16 46/46/16 47/47/16
f 45/45/16 48/48/16 46/46/16
f 49/49/7 50/50/15 51/51/7
f 49/49/7 52/52/15 50/50/15
f 53/53/17 55/54/17 54/55/17
f 53/53/17 54/55/17 56/56/17
f 57/57/17 58/58/17 59/59/17
f 57/57/17 60/60/17 58/58/17
f 61/61/18 63/62/18 62/63/18
f 61/61/18 62/63/18 64/64/18
f 64/64/18 66/65/18 65/66/18
f 64/64/18 65/66/18 61/61/18
f 66/65/18 68/67/18 67/68/19
f 66/65/18 67/68/19 65/66/18
f 69/69/9 70/70/9 71/71/9
f 69/69/9 72/72/9 70/70/9
f 71/71/9 73/73/9 74/74/9
f 71/71/9 70/70/9 73/73/9
f 74/74/9 75/75/9 76/76/9
f 74/74/9 73/73/9 75/75/9
f 77/77/20 79/78/21 78/79/22
f 77/77/20 78/79/22 80/80/23
f 81/81/9 83/82/9 82/83/9
f 81/81/9 82/83/9 84/84/9
f 85/85/24 86/86/24 87/87/25
f 85/85/24 88/88/25 86/86/24
f 89/89/18 90/90/18 91/91/18
f 89/89/18 92/92/18 90/90/18
f 91/91/18 93/93/18 94/94/18
f 91/91/18 90/90/18 93/93/18
f 94/94/18 95/95/18 96/96/18
f 94/94/18 93/93/18 95/95/18
