# Blender v2.82 (sub 7) OBJ File: 'living_room.blend'
# www.blender.org
o Journal_Mesh_(49)
v 0.606696 0.466247 2.784820
v 0.389668 0.466247 2.860760
v 0.483808 0.466246 3.129800
v 0.700836 0.466246 3.053860
v 0.389668 0.461937 2.860760
v 0.606696 0.461937 2.784820
v 0.700836 0.461937 3.053860
v 0.483808 0.461937 3.129800
v 0.389382 0.466247 2.860860
v 0.384218 0.466247 2.862670
v 0.478359 0.466246 3.131710
v 0.483522 0.466246 3.129900
v 0.384218 0.461937 2.862670
v 0.389382 0.461937 2.860860
v 0.483522 0.461937 3.129900
v 0.478359 0.461937 3.131710
v 0.389668 0.466247 2.860760
v 0.389525 0.466318 2.860810
v 0.483665 0.466318 3.129850
v 0.483808 0.466246 3.129800
v 0.389525 0.466318 2.860810
v 0.389382 0.466247 2.860860
v 0.483522 0.466246 3.129900
v 0.483665 0.466318 3.129850
v 0.389525 0.461937 2.860810
v 0.483665 0.461937 3.129850
v 0.384218 0.466247 2.862670
v 0.383825 0.465674 2.862800
v 0.477966 0.465674 3.131850
v 0.478359 0.466246 3.131710
v 0.383825 0.465674 2.862800
v 0.383825 0.462492 2.862800
v 0.477966 0.462491 3.131850
v 0.477966 0.465674 3.131850
v 0.383825 0.462492 2.862800
v 0.384218 0.461937 2.862670
v 0.478359 0.461937 3.131710
v 0.477966 0.462491 3.131850
v 0.606696 0.465674 2.784820
v 0.606696 0.466247 2.784820
v 0.700836 0.466246 3.053860
v 0.700836 0.465674 3.053860
v 0.700836 0.462491 3.053860
v 0.606696 0.462492 2.784820
v 0.700836 0.461937 3.053860
v 0.606696 0.461937 2.784820
v 0.606696 0.466247 2.784820
v 0.606696 0.465674 2.784820
v 0.389668 0.465674 2.860760
v 0.389668 0.466247 2.860760
v 0.606696 0.462492 2.784820
v 0.389668 0.462492 2.860760
v 0.606696 0.461937 2.784820
v 0.389668 0.461937 2.860760
v 0.483808 0.466246 3.129800
v 0.483808 0.465674 3.129800
v 0.700836 0.465674 3.053860
v 0.700836 0.466246 3.053860
v 0.483808 0.462491 3.129800
v 0.700836 0.462491 3.053860
v 0.483808 0.461937 3.129800
v 0.700836 0.461937 3.053860
v 0.389382 0.466247 2.860860
v 0.389382 0.465674 2.860860
v 0.383825 0.465674 2.862800
v 0.384218 0.466247 2.862670
v 0.389382 0.462492 2.860860
v 0.383825 0.462492 2.862800
v 0.389382 0.462492 2.860860
v 0.389382 0.461937 2.860860
v 0.384218 0.461937 2.862670
v 0.383825 0.462492 2.862800
v 0.478359 0.466246 3.131710
v 0.477966 0.465674 3.131850
v 0.483522 0.465674 3.129900
v 0.483522 0.466246 3.129900
v 0.477966 0.465674 3.131850
v 0.477966 0.462491 3.131850
v 0.483522 0.462491 3.129900
v 0.483522 0.465674 3.129900
v 0.478359 0.461937 3.131710
v 0.483522 0.461937 3.129900
v 0.389525 0.466318 2.860810
v 0.389525 0.465779 2.860810
v 0.389382 0.465674 2.860860
v 0.389382 0.466247 2.860860
v 0.389525 0.465779 2.860810
v 0.389525 0.462545 2.860810
v 0.389382 0.462492 2.860860
v 0.389382 0.465674 2.860860
v 0.389525 0.462545 2.860810
v 0.389525 0.461937 2.860810
v 0.389382 0.461937 2.860860
v 0.389382 0.462492 2.860860
v 0.389668 0.466247 2.860760
v 0.389668 0.465674 2.860760
v 0.389668 0.465674 2.860760
v 0.389668 0.462492 2.860760
v 0.389525 0.462545 2.860810
v 0.389525 0.465779 2.860810
v 0.389668 0.462492 2.860760
v 0.389668 0.461937 2.860760
v 0.389525 0.461937 2.860810
v 0.389525 0.462545 2.860810
v 0.483665 0.466318 3.129850
v 0.483665 0.465778 3.129850
v 0.483808 0.465674 3.129800
v 0.483808 0.466246 3.129800
v 0.483665 0.465778 3.129850
v 0.483665 0.462545 3.129850
v 0.483808 0.462491 3.129800
v 0.483808 0.465674 3.129800
v 0.483665 0.462545 3.129850
v 0.483665 0.461937 3.129850
v 0.483808 0.461937 3.129800
v 0.483808 0.462491 3.129800
v 0.483522 0.466246 3.129900
v 0.483522 0.465674 3.129900
v 0.483665 0.465778 3.129850
v 0.483665 0.466318 3.129850
v 0.483522 0.465674 3.129900
v 0.483522 0.462491 3.129900
v 0.483665 0.462545 3.129850
v 0.483665 0.465778 3.129850
v 0.483665 0.461937 3.129850
v 0.483665 0.462545 3.129850
vt 0.960201 0.998683
vt 0.021177 0.998683
vt 0.018098 0.001318
vt 0.960201 0.001318
vt 0.021177 0.998683
vt 0.960201 0.001318
vt 0.960201 0.998683
vt 0.018098 0.001318
vt 0.020304 0.998683
vt 0.004538 0.998683
vt 0.001462 0.001318
vt 0.017225 0.001318
vt 0.004538 0.998683
vt 0.017225 0.001318
vt 0.020304 0.998683
vt 0.001462 0.001318
vt 0.021177 0.998683
vt 0.020740 0.998683
vt 0.017661 0.001318
vt 0.018098 0.001318
vt 0.020740 0.998683
vt 0.020304 0.998683
vt 0.017225 0.001318
vt 0.017661 0.001318
vt 0.017661 0.001318
vt 0.020740 0.998683
vt 0.004538 0.998683
vt 0.003339 0.998683
vt 0.000262 0.001318
vt 0.001462 0.001318
vt 0.003339 0.998683
vt 0.003339 0.998683
vt 0.000262 0.001318
vt 0.000262 0.001318
vt 0.003339 0.998683
vt 0.004538 0.998683
vt 0.001462 0.001318
vt 0.000262 0.001318
vt 0.960201 0.998683
vt 0.960201 0.001318
vt 0.960201 0.998683
vt 0.960201 0.001318
vt 0.960201 0.998683
vt 0.960201 0.001318
vt 0.960201 0.998683
vt 0.960201 0.001318
vt 0.960201 0.998683
vt 0.021177 0.998683
vt 0.960201 0.998683
vt 0.021177 0.998683
vt 0.021177 0.998683
vt 0.960201 0.998683
vt 0.021177 0.998683
vt 0.960201 0.998683
vt 0.018098 0.001318
vt 0.018098 0.001318
vt 0.960201 0.001318
vt 0.960201 0.001318
vt 0.018098 0.001318
vt 0.960201 0.001318
vt 0.018098 0.001318
vt 0.960201 0.001318
vt 0.020304 0.998683
vt 0.003339 0.998683
vt 0.020304 0.998683
vt 0.004538 0.998683
vt 0.003339 0.998683
vt 0.020304 0.998683
vt 0.020304 0.998683
vt 0.004538 0.998683
vt 0.020304 0.998683
vt 0.003339 0.998683
vt 0.001462 0.001318
vt 0.000262 0.001318
vt 0.017225 0.001318
vt 0.017225 0.001318
vt 0.000262 0.001318
vt 0.000262 0.001318
vt 0.017225 0.001318
vt 0.017225 0.001318
vt 0.001462 0.001318
vt 0.017225 0.001318
vt 0.020740 0.998683
vt 0.020304 0.998683
vt 0.020740 0.998683
vt 0.020304 0.998683
vt 0.020740 0.998683
vt 0.020304 0.998683
vt 0.020740 0.998683
vt 0.020304 0.998683
vt 0.020740 0.998683
vt 0.020304 0.998683
vt 0.020740 0.998683
vt 0.020304 0.998683
vt 0.021177 0.998683
vt 0.021177 0.998683
vt 0.021177 0.998683
vt 0.020740 0.998683
vt 0.021177 0.998683
vt 0.020740 0.998683
vt 0.021177 0.998683
vt 0.020740 0.998683
vt 0.021177 0.998683
vt 0.020740 0.998683
vt 0.017661 0.001318
vt 0.017661 0.001318
vt 0.018098 0.001318
vt 0.018098 0.001318
vt 0.017661 0.001318
vt 0.017661 0.001318
vt 0.018098 0.001318
vt 0.018098 0.001318
vt 0.017661 0.001318
vt 0.017661 0.001318
vt 0.018098 0.001318
vt 0.018098 0.001318
vt 0.017225 0.001318
vt 0.017225 0.001318
vt 0.017661 0.001318
vt 0.017661 0.001318
vt 0.017225 0.001318
vt 0.017225 0.001318
vt 0.017661 0.001318
vt 0.017661 0.001318
vt 0.017661 0.001318
vt 0.017661 0.001318
vn -0.0000 1.0000 0.0000
vn 0.0000 1.0000 -0.0001
vn 0.4026 0.9045 -0.1409
vn 0.4026 0.9044 -0.1410
vn -0.4025 0.9045 0.1411
vn -0.4025 0.9045 0.1409
vn -0.7635 0.5880 0.2671
vn -0.7634 0.5882 0.2670
vn -0.9439 0.0000 0.3303
vn -0.7552 -0.5998 0.2643
vn -0.7553 -0.5998 0.2643
vn -0.7552 -0.5999 0.2643
vn -0.9439 0.0000 0.3302
vn 0.3303 0.0000 0.9439
vn 0.3302 0.0000 0.9439
vn 0.3289 -0.0015 0.9444
vn 0.3321 -0.0006 0.9432
vn 0.3288 -0.0000 0.9444
vn 0.3401 -0.0207 0.9401
vn 0.3296 -0.0008 0.9441
vn 0.3295 0.0009 0.9442
vn 0.3312 0.0011 0.9436
vn 0.3388 0.0183 0.9407
vn 0.3307 0.0000 0.9437
vn 0.3199 0.0055 0.9474
vn 0.3303 0.0001 0.9439
vn 0.3302 0.0001 0.9439
vn 0.3304 -0.0001 0.9438
vn 0.3305 0.0000 0.9438
vn 0.3310 0.0000 0.9436
vn 0.3304 0.0000 0.9438
vn 0.3298 0.0003 0.9440
vn 0.3307 0.0018 0.9437
vn 0.3291 -0.0010 0.9443
vn 0.3282 0.0012 0.9446
vn 0.3333 -0.0019 0.9428
vn 0.3314 0.0000 0.9435
vn 0.3293 -0.0023 0.9442
vn 0.3288 0.0028 0.9444
vn 0.3322 -0.0005 0.9432
vn 0.3300 0.0010 0.9440
vn 0.3363 0.0037 0.9417
vn 0.3274 -0.0019 0.9449
vn 0.3285 0.0019 0.9445
vn 0.3316 -0.0037 0.9434
vn 0.3315 0.0010 0.9435
vn 0.3319 0.0018 0.9433
vn 0.3321 -0.0020 0.9432
vn 0.3307 -0.0008 0.9437
vn 0.3294 0.0000 0.9442
vn 0.3281 -0.0000 0.9446
vn 0.3290 0.0000 0.9443
vn 0.3291 0.0000 0.9443
vn 0.3292 0.0000 0.9443
vn 0.3293 0.0000 0.9442
vn 0.3306 0.0000 0.9438
vn 0.3298 -0.0000 0.9441
vn 0.3299 0.0000 0.9440
vn 0.3298 0.0000 0.9440
s 1
f 1/1/1 2/2/1 3/3/1
f 1/1/1 3/3/1 4/4/1
f 5/5/1 7/6/1 6/7/1
f 5/5/1 8/8/2 7/6/1
f 9/9/1 10/10/1 11/11/1
f 9/9/1 11/11/1 12/12/1
f 13/13/1 15/14/1 14/15/1
f 13/13/1 16/16/1 15/14/1
f 17/17/3 18/18/3 19/19/4
f 17/17/3 19/19/4 20/20/4
f 21/21/5 22/22/5 23/23/6
f 21/21/5 23/23/6 24/24/6
f 14/15/1 26/25/2 25/26/1
f 14/15/1 15/14/1 26/25/2
f 25/26/1 8/8/2 5/5/1
f 25/26/1 26/25/2 8/8/2
f 27/27/7 28/28/7 29/29/7
f 27/27/7 29/29/7 30/30/8
f 31/31/9 32/32/9 33/33/9
f 31/31/9 33/33/9 34/34/9
f 35/35/10 36/36/11 37/37/10
f 35/35/10 37/37/10 38/38/12
f 39/39/9 41/40/13 40/41/9
f 39/39/9 42/42/9 41/40/13
f 42/42/9 44/43/9 43/44/9
f 42/42/9 39/39/9 44/43/9
f 43/44/9 46/45/9 45/46/9
f 43/44/9 44/43/9 46/45/9
f 47/47/14 49/48/14 48/49/14
f 47/47/14 50/50/15 49/48/14
f 48/49/14 52/51/14 51/52/14
f 48/49/14 49/48/14 52/51/14
f 51/52/14 54/53/14 53/54/15
f 51/52/14 52/51/14 54/53/14
f 55/55/15 56/56/14 57/57/14
f 55/55/15 57/57/14 58/58/14
f 56/56/14 59/59/14 60/60/14
f 56/56/14 60/60/14 57/57/14
f 59/59/14 61/61/14 62/62/14
f 59/59/14 62/62/14 60/60/14
f 63/63/16 65/64/17 64/65/18
f 63/63/16 66/66/19 65/64/17
f 64/65/18 68/67/20 67/68/21
f 64/65/18 65/64/17 68/67/20
f 69/69/22 71/70/23 70/71/24
f 69/69/22 72/72/25 71/70/23
f 73/73/26 74/74/27 75/75/27
f 73/73/26 75/75/27 76/76/26
f 77/77/15 78/78/14 79/79/15
f 77/77/15 79/79/15 80/80/14
f 78/78/14 81/81/14 82/82/28
f 78/78/14 82/82/28 79/79/15
f 83/83/29 85/84/30 84/85/31
f 83/83/29 86/86/32 85/84/30
f 87/87/33 89/88/34 88/89/35
f 87/87/33 90/90/36 89/88/34
f 91/91/37 93/92/38 92/93/39
f 91/91/37 94/94/40 93/92/38
f 95/95/29 84/85/31 96/96/41
f 95/95/29 83/83/29 84/85/31
f 97/97/42 99/98/43 98/99/44
f 97/97/42 100/100/45 99/98/43
f 101/101/46 103/102/47 102/103/48
f 101/101/46 104/104/49 103/102/47
f 105/105/50 106/106/50 107/107/50
f 105/105/50 107/107/50 108/108/50
f 109/109/51 110/110/51 111/111/51
f 109/109/51 111/111/51 112/112/51
f 113/113/52 114/114/53 115/115/54
f 113/113/52 115/115/54 116/116/55
f 117/117/24 118/118/56 119/119/56
f 117/117/24 119/119/56 120/120/24
f 121/121/57 122/122/14 123/123/58
f 121/121/57 123/123/58 124/124/59
f 79/79/15 82/82/28 125/125/31
f 79/79/15 125/125/31 126/126/14
