# Blender v2.82 (sub 7) OBJ File: 'living_room.blend'
# www.blender.org
o PictureFrameM_Mesh_(69)
v -2.422370 2.119790 1.549480
v -2.422370 2.119790 1.934240
v -2.434510 1.555900 1.934240
v -2.434510 1.555900 1.549480
vt 0.983316 0.996099
vt 0.012264 0.017729
vt 0.012264 0.996099
vt 0.983316 0.017729
vn -0.9998 0.0215 0.0000
s 1
f 1/1/1 3/2/1 2/3/1
f 1/1/1 4/4/1 3/2/1
