# Blender v2.82 (sub 7) OBJ File: 'living_room.blend'
# www.blender.org
o PictureFrameL_Mesh_(12)
v 2.969460 2.252670 3.499400
v 2.969460 2.252670 2.311400
v 2.999560 1.257430 2.311400
v 2.999560 1.257429 3.499400
vt 1.000000 0.993969
vt 0.000000 0.000000
vt 0.000000 0.993969
vt 1.000000 0.000000
vn 0.9995 0.0302 0.0000
s 1
f 1/1/1 3/2/1 2/3/1
f 1/1/1 4/4/1 3/2/1
