# Blender v2.82 (sub 7) OBJ File: 'living_room.blend'
# www.blender.org
o RadioInterior_Mesh_(3)
v -2.292010 1.331840 1.592630
v -2.270100 1.302360 1.568800
v -2.269880 1.331840 1.568560
v -2.292340 1.302360 1.592990
v -2.247850 1.302360 1.544610
v -2.247750 1.331840 1.544490
v -2.225610 1.302360 1.520420
v -2.225610 1.331840 1.520420
v -2.203370 1.302360 1.496230
v -2.203480 1.331840 1.496350
v -2.181130 1.302360 1.472040
v -2.181340 1.331840 1.472280
v -2.158880 1.302360 1.447850
v -2.159210 1.331840 1.448210
v -2.269990 1.272880 1.568680
v -2.292180 1.272880 1.592810
v -2.247800 1.272880 1.544550
v -2.225610 1.272880 1.520420
v -2.203420 1.272880 1.496290
v -2.181240 1.272880 1.472160
v -2.159050 1.272880 1.448030
v -2.269180 1.243400 1.567800
v -2.290970 1.243400 1.591490
v -2.247400 1.243400 1.544110
v -2.225610 1.243400 1.520420
v -2.203830 1.243400 1.496730
v -2.182040 1.243400 1.473040
v -2.160260 1.243400 1.449350
v -2.268680 1.233250 1.567260
v -2.290220 1.233250 1.590680
v -2.247150 1.233250 1.543840
v -2.225610 1.233250 1.520420
v -2.204080 1.233250 1.497000
v -2.182540 1.233250 1.473580
v -2.161010 1.233250 1.450160
v -2.290200 1.361310 1.590650
v -2.268670 1.361310 1.567240
v -2.247140 1.361310 1.543830
v -2.225610 1.361310 1.520420
v -2.204080 1.361310 1.497010
v -2.182560 1.361310 1.473600
v -2.161030 1.361310 1.450190
v -2.288530 1.374930 1.588840
v -2.267550 1.374930 1.566030
v -2.246580 1.374930 1.543230
v -2.225610 1.374930 1.520420
v -2.204640 1.374930 1.497610
v -2.183670 1.374930 1.474810
v -2.162700 1.374930 1.452000
v -2.267990 1.221130 1.566510
v -2.289180 1.221130 1.589550
v -2.246800 1.221130 1.543460
v -2.225610 1.221130 1.520420
v -2.204420 1.221130 1.497380
v -2.183230 1.221130 1.474330
v -2.162040 1.221130 1.451290
v -2.225610 1.390790 1.520420
v -2.205370 1.390790 1.498410
v -2.245850 1.390790 1.542430
v -2.266090 1.389250 1.564440
v -2.185130 1.389250 1.476400
v -2.164890 1.386190 1.454390
v -2.286330 1.386190 1.586450
v -2.225610 1.212350 1.520420
v -2.245850 1.212350 1.542430
v -2.205370 1.212350 1.498410
v -2.185130 1.212350 1.476400
v -2.164890 1.212350 1.454390
v -2.266090 1.212350 1.564440
v -2.286330 1.212350 1.586450
v -2.152130 1.302360 1.440520
v -2.152500 1.331840 1.440910
v -2.144450 1.302360 1.432160
v -2.144850 1.331840 1.432600
v -2.152310 1.272880 1.440710
v -2.144650 1.272880 1.432380
v -2.153650 1.243400 1.442160
v -2.146130 1.243400 1.433980
v -2.154470 1.233250 1.443060
v -2.147030 1.233250 1.434970
v -2.154500 1.361310 1.443080
v -2.147060 1.361310 1.435000
v -2.156340 1.374930 1.445080
v -2.149090 1.374930 1.437210
v -2.155610 1.221130 1.444300
v -2.148300 1.221130 1.436340
v -2.160600 1.385410 1.449730
v -2.155730 1.384520 1.444420
v -2.158440 1.212950 1.447370
v -2.150500 1.215200 1.438740
v -2.306370 1.331840 1.608240
v -2.299560 1.302360 1.600830
v -2.299190 1.331840 1.600440
v -2.306770 1.302360 1.608680
v -2.299370 1.272880 1.600630
v -2.306570 1.272880 1.608460
v -2.298030 1.243400 1.599170
v -2.305100 1.243400 1.606860
v -2.297200 1.233250 1.598270
v -2.304190 1.233250 1.605870
v -2.304160 1.361310 1.605840
v -2.297180 1.361310 1.598250
v -2.302130 1.374930 1.603630
v -2.295330 1.374930 1.596240
v -2.296050 1.221130 1.597020
v -2.302930 1.221130 1.604500
v -2.295500 1.384520 1.596420
v -2.290920 1.385360 1.591440
v -2.292790 1.212950 1.593470
v -2.300720 1.215200 1.602100
vt 0.100910 0.665465
vt 0.233940 0.665465
vt 0.232619 0.504298
vt 0.098926 0.504298
vt 0.366970 0.665465
vt 0.366313 0.504298
vt 0.500000 0.665465
vt 0.500000 0.504298
vt 0.633036 0.665465
vt 0.633693 0.504298
vt 0.766066 0.665465
vt 0.767387 0.504298
vt 0.899096 0.665465
vt 0.901080 0.504298
vt 0.233277 0.343131
vt 0.099915 0.343131
vt 0.366639 0.343131
vt 0.500000 0.343131
vt 0.633362 0.343131
vt 0.766724 0.343131
vt 0.900085 0.343131
vt 0.238129 0.181963
vt 0.107194 0.181963
vt 0.369065 0.181963
vt 0.500000 0.181963
vt 0.630935 0.181963
vt 0.761877 0.181963
vt 0.892812 0.181963
vt 0.241119 0.126457
vt 0.111682 0.126457
vt 0.370562 0.126457
vt 0.500000 0.126457
vt 0.629443 0.126457
vt 0.758881 0.126457
vt 0.888324 0.126457
vt 0.111820 0.826632
vt 0.241214 0.826632
vt 0.370607 0.826632
vt 0.500000 0.826632
vt 0.629394 0.826632
vt 0.758792 0.826632
vt 0.888186 0.826632
vt 0.121857 0.901079
vt 0.247906 0.901079
vt 0.373956 0.901079
vt 0.500000 0.901079
vt 0.626050 0.901079
vt 0.752099 0.901079
vt 0.878143 0.901079
vt 0.245281 0.060195
vt 0.117922 0.060195
vt 0.372641 0.060195
vt 0.500000 0.060195
vt 0.627360 0.060195
vt 0.754719 0.060195
vt 0.882078 0.060195
vt 0.500000 0.987805
vt 0.621650 0.987805
vt 0.378350 0.987805
vt 0.256700 0.979374
vt 0.743300 0.979374
vt 0.864950 0.962676
vt 0.135050 0.962676
vt 0.500000 0.012195
vt 0.378350 0.012195
vt 0.621650 0.012195
vt 0.743300 0.012195
vt 0.864950 0.012195
vt 0.256700 0.012195
vt 0.135050 0.012195
vt 0.939460 0.665465
vt 0.941643 0.504298
vt 0.985395 0.665465
vt 0.987805 0.504298
vt 0.940554 0.343131
vt 0.986600 0.343131
vt 0.932540 0.181963
vt 0.977751 0.181963
vt 0.927599 0.126457
vt 0.972296 0.126457
vt 0.927449 0.826632
vt 0.972125 0.826632
vt 0.916390 0.901079
vt 0.959915 0.901079
vt 0.920729 0.060195
vt 0.964702 0.060195
vt 0.890728 0.958395
vt 0.920054 0.953524
vt 0.903761 0.015443
vt 0.951459 0.027751
vt 0.014611 0.665465
vt 0.057760 0.665465
vt 0.055560 0.504298
vt 0.012195 0.504298
vt 0.056660 0.343131
vt 0.013400 0.343131
vt 0.064724 0.181963
vt 0.022255 0.181963
vt 0.069699 0.126457
vt 0.027710 0.126457
vt 0.027876 0.826632
vt 0.069848 0.826632
vt 0.040091 0.901079
vt 0.080974 0.901079
vt 0.076613 0.060195
vt 0.035304 0.060195
vt 0.079946 0.953524
vt 0.107498 0.958100
vt 0.096240 0.015443
vt 0.048541 0.027751
vn -0.7362 -0.0001 -0.6768
vn -0.7361 -0.0001 -0.6769
vn -0.7361 0.0000 -0.6769
vn -0.7359 0.0001 -0.6771
vn -0.7361 -0.0000 -0.6768
vn -0.7362 -0.0000 -0.6768
vn -0.7361 0.0001 -0.6769
vn -0.7361 -0.0001 -0.6768
vn -0.7358 0.0001 -0.6772
vn -0.7359 0.0000 -0.6771
vn -0.7358 -0.0001 -0.6772
vn -0.7361 -0.0002 -0.6769
vn -0.7361 -0.0002 -0.6768
vn -0.7363 0.0000 -0.6767
vn -0.7361 0.0002 -0.6769
vn -0.7360 0.0003 -0.6769
vn -0.7364 -0.0005 -0.6766
vn -0.7361 0.0002 -0.6768
vn -0.7360 0.0002 -0.6769
vn -0.7362 0.0001 -0.6767
vn -0.7360 0.0001 -0.6770
vn -0.7360 -0.0000 -0.6769
vn -0.7361 0.0003 -0.6769
vn -0.7361 -0.0003 -0.6769
vn -0.7361 0.0005 -0.6769
vn -0.7360 0.0011 -0.6770
vn -0.7360 0.0002 -0.6770
vn -0.7360 -0.0001 -0.6770
vn -0.7360 -0.0001 -0.6769
vn -0.7353 0.0001 -0.6778
vn -0.7363 -0.0001 -0.6766
vn -0.7360 -0.0007 -0.6770
vn -0.7362 -0.0002 -0.6768
vn -0.7359 -0.0001 -0.6770
vn -0.7352 0.0002 -0.6778
vn -0.7354 0.0012 -0.6776
vn -0.7352 0.0007 -0.6779
vn -0.7362 0.0007 -0.6768
vn -0.7365 0.0002 -0.6765
vn -0.7359 0.0022 -0.6771
vn -0.7378 -0.0052 -0.6750
vn -0.7361 0.0008 -0.6768
vn -0.7351 -0.0019 -0.6779
vn -0.7355 -0.0001 -0.6775
vn -0.7359 0.0001 -0.6770
vn -0.7368 -0.0000 -0.6761
vn -0.7360 0.0000 -0.6770
vn -0.7362 -0.0000 -0.6767
vn -0.7359 -0.0001 -0.6771
vn -0.7363 0.0004 -0.6766
vn -0.7358 -0.0008 -0.6772
vn -0.7368 -0.0015 -0.6761
s 1
f 1/1/1 3/2/2 2/3/3
f 1/1/1 2/3/3 4/4/4
f 3/2/2 6/5/2 5/6/3
f 3/2/2 5/6/3 2/3/3
f 6/5/2 8/7/3 7/8/5
f 6/5/2 7/8/5 5/6/3
f 8/7/3 10/9/4 9/10/6
f 8/7/3 9/10/6 7/8/5
f 10/9/4 12/11/7 11/12/7
f 10/9/4 11/12/7 9/10/6
f 12/11/7 14/13/8 13/14/9
f 12/11/7 13/14/9 11/12/7
f 4/4/4 2/3/3 15/15/3
f 4/4/4 15/15/3 16/16/3
f 2/3/3 5/6/3 17/17/7
f 2/3/3 17/17/7 15/15/3
f 5/6/3 7/8/5 18/18/3
f 5/6/3 18/18/3 17/17/7
f 7/8/5 9/10/6 19/19/5
f 7/8/5 19/19/5 18/18/3
f 9/10/6 11/12/7 20/20/1
f 9/10/6 20/20/1 19/19/5
f 11/12/7 13/14/9 21/21/10
f 11/12/7 21/21/10 20/20/1
f 16/16/3 15/15/3 22/22/2
f 16/16/3 22/22/2 23/23/2
f 15/15/3 17/17/7 24/24/3
f 15/15/3 24/24/3 22/22/2
f 17/17/7 18/18/3 25/25/3
f 17/17/7 25/25/3 24/24/3
f 18/18/3 19/19/5 26/26/7
f 18/18/3 26/26/7 25/25/3
f 19/19/5 20/20/1 27/27/5
f 19/19/5 27/27/5 26/26/7
f 20/20/1 21/21/10 28/28/3
f 20/20/1 28/28/3 27/27/5
f 23/23/2 22/22/2 29/29/11
f 23/23/2 29/29/11 30/30/12
f 22/22/2 24/24/3 31/31/2
f 22/22/2 31/31/2 29/29/11
f 24/24/3 25/25/3 32/32/3
f 24/24/3 32/32/3 31/31/2
f 25/25/3 26/26/7 33/33/13
f 25/25/3 33/33/13 32/32/3
f 26/26/7 27/27/5 34/34/7
f 26/26/7 34/34/7 33/33/13
f 27/27/5 28/28/3 35/35/10
f 27/27/5 35/35/10 34/34/7
f 36/36/14 37/37/15 3/2/2
f 36/36/14 3/2/2 1/1/1
f 37/37/15 38/38/16 6/5/2
f 37/37/15 6/5/2 3/2/2
f 38/38/16 39/39/3 8/7/3
f 38/38/16 8/7/3 6/5/2
f 39/39/3 40/40/12 10/9/4
f 39/39/3 10/9/4 8/7/3
f 40/40/12 41/41/3 12/11/7
f 40/40/12 12/11/7 10/9/4
f 41/41/3 42/42/17 14/13/8
f 41/41/3 14/13/8 12/11/7
f 43/43/18 44/44/19 37/37/15
f 43/43/18 37/37/15 36/36/14
f 44/44/19 45/45/7 38/38/16
f 44/44/19 38/38/16 37/37/15
f 45/45/7 46/46/6 39/39/3
f 45/45/7 39/39/3 38/38/16
f 46/46/6 47/47/8 40/40/12
f 46/46/6 40/40/12 39/39/3
f 47/47/8 48/48/7 41/41/3
f 47/47/8 41/41/3 40/40/12
f 48/48/7 49/49/20 42/42/17
f 48/48/7 42/42/17 41/41/3
f 30/30/12 29/29/11 50/50/7
f 30/30/12 50/50/7 51/51/21
f 29/29/11 31/31/2 52/52/2
f 29/29/11 52/52/2 50/50/7
f 31/31/2 32/32/3 53/53/22
f 31/31/2 53/53/22 52/52/2
f 32/32/3 33/33/13 54/54/13
f 32/32/3 54/54/13 53/53/22
f 33/33/13 34/34/7 55/55/2
f 33/33/13 55/55/2 54/54/13
f 34/34/7 35/35/10 56/56/12
f 34/34/7 56/56/12 55/55/2
f 57/57/6 58/58/23 47/47/8
f 57/57/6 47/47/8 46/46/6
f 57/57/6 46/46/6 45/45/7
f 57/57/6 45/45/7 59/59/24
f 60/60/2 59/59/24 45/45/7
f 60/60/2 45/45/7 44/44/19
f 61/61/25 48/48/7 47/47/8
f 61/61/25 47/47/8 58/58/23
f 62/62/26 49/49/20 48/48/7
f 62/62/26 48/48/7 61/61/25
f 63/63/21 60/60/2 44/44/19
f 63/63/21 44/44/19 43/43/18
f 64/64/22 65/65/12 52/52/2
f 64/64/22 52/52/2 53/53/22
f 64/64/22 53/53/22 54/54/13
f 64/64/22 54/54/13 66/66/25
f 67/67/13 66/66/25 54/54/13
f 67/67/13 54/54/13 55/55/2
f 68/68/6 67/67/13 55/55/2
f 68/68/6 55/55/2 56/56/12
f 69/69/18 50/50/7 52/52/2
f 69/69/18 52/52/2 65/65/12
f 70/70/27 51/51/21 50/50/7
f 70/70/27 50/50/7 69/69/18
f 14/13/8 72/71/28 71/72/29
f 14/13/8 71/72/29 13/14/9
f 72/71/28 74/73/30 73/74/31
f 72/71/28 73/74/31 71/72/29
f 13/14/9 71/72/29 75/75/4
f 13/14/9 75/75/4 21/21/10
f 71/72/29 73/74/31 76/76/18
f 71/72/29 76/76/18 75/75/4
f 21/21/10 75/75/4 77/77/32
f 21/21/10 77/77/32 28/28/3
f 75/75/4 76/76/18 78/78/33
f 75/75/4 78/78/33 77/77/32
f 28/28/3 77/77/32 79/79/34
f 28/28/3 79/79/34 35/35/10
f 77/77/32 78/78/33 80/80/2
f 77/77/32 80/80/2 79/79/34
f 42/42/17 81/81/29 72/71/28
f 42/42/17 72/71/28 14/13/8
f 81/81/29 82/82/35 74/73/30
f 81/81/29 74/73/30 72/71/28
f 49/49/20 83/83/36 81/81/29
f 49/49/20 81/81/29 42/42/17
f 83/83/36 84/84/37 82/82/35
f 83/83/36 82/82/35 81/81/29
f 35/35/10 79/79/34 85/85/38
f 35/35/10 85/85/38 56/56/12
f 79/79/34 80/80/2 86/86/39
f 79/79/34 86/86/39 85/85/38
f 84/84/37 83/83/36 87/87/40
f 84/84/37 87/87/40 88/88/41
f 83/83/36 49/49/20 62/62/26
f 83/83/36 62/62/26 87/87/40
f 89/89/42 68/68/6 56/56/12
f 89/89/42 56/56/12 85/85/38
f 89/89/42 85/85/38 86/86/39
f 89/89/42 86/86/39 90/90/43
f 91/91/44 93/92/45 92/93/22
f 91/91/44 92/93/22 94/94/46
f 93/92/45 1/1/1 4/4/4
f 93/92/45 4/4/4 92/93/22
f 94/94/46 92/93/22 95/95/5
f 94/94/46 95/95/5 96/96/7
f 92/93/22 4/4/4 16/16/3
f 92/93/22 16/16/3 95/95/5
f 96/96/7 95/95/5 97/97/1
f 96/96/7 97/97/1 98/98/5
f 95/95/5 16/16/3 23/23/2
f 95/95/5 23/23/2 97/97/1
f 98/98/5 97/97/1 99/99/2
f 98/98/5 99/99/2 100/100/47
f 97/97/1 23/23/2 30/30/12
f 97/97/1 30/30/12 99/99/2
f 101/101/28 102/102/48 93/92/45
f 101/101/28 93/92/45 91/91/44
f 102/102/48 36/36/14 1/1/1
f 102/102/48 1/1/1 93/92/45
f 103/103/49 104/104/3 102/102/48
f 103/103/49 102/102/48 101/101/28
f 104/104/3 43/43/18 36/36/14
f 104/104/3 36/36/14 102/102/48
f 100/100/47 99/99/2 105/105/50
f 100/100/47 105/105/50 106/106/3
f 99/99/2 30/30/12 51/51/21
f 99/99/2 51/51/21 105/105/50
f 107/107/51 108/108/2 104/104/3
f 107/107/51 104/104/3 103/103/49
f 108/108/2 63/63/21 43/43/18
f 108/108/2 43/43/18 104/104/3
f 109/109/27 105/105/50 51/51/21
f 109/109/27 51/51/21 70/70/27
f 109/109/27 110/110/52 106/106/3
f 109/109/27 106/106/3 105/105/50
