# Blender v2.82 (sub 7) OBJ File: 'living_room.blend'
# www.blender.org
o RedBooks_Mesh_(6)
v -2.289570 0.936512 4.043630
v -2.217740 1.039899 4.065960
v -2.217740 0.936512 4.043630
v -2.289570 1.039899 4.065960
v -2.217740 0.932609 4.061710
v -2.289570 1.035989 4.084030
v -2.289570 0.932609 4.061710
v -2.217740 1.035989 4.084030
v -2.216910 0.936245 4.044870
v -2.289570 0.936512 4.043630
v -2.217740 0.936512 4.043630
v -2.289570 0.936245 4.044870
v -2.289570 0.936245 4.044870
v -2.216910 0.932876 4.060470
v -2.289570 0.932876 4.060470
v -2.216910 0.936245 4.044870
v -2.289570 0.932876 4.060470
v -2.217740 0.932609 4.061710
v -2.289570 0.932609 4.061710
v -2.216910 0.932876 4.060470
v -2.289570 0.932609 4.061710
v -2.289570 1.036259 4.082790
v -2.289570 0.932876 4.060470
v -2.289570 1.035989 4.084030
v -2.289570 1.039629 4.067200
v -2.289570 0.936245 4.044870
v -2.289570 1.039899 4.065960
v -2.289570 0.936512 4.043630
v -2.217740 0.936512 4.043630
v -2.216910 1.039629 4.067200
v -2.216910 0.936245 4.044870
v -2.217740 1.039899 4.065960
v -2.216910 0.936245 4.044870
v -2.216910 1.036259 4.082790
v -2.216910 0.932876 4.060470
v -2.216910 1.039629 4.067200
v -2.216910 0.932876 4.060470
v -2.217740 1.035989 4.084030
v -2.217740 0.932609 4.061710
v -2.216910 1.036259 4.082790
v -2.289570 1.035989 4.084030
v -2.216910 1.036259 4.082790
v -2.289570 1.036259 4.082790
v -2.217740 1.035989 4.084030
v -2.216910 1.039629 4.067200
v -2.289570 1.039629 4.067200
v -2.217740 1.039899 4.065960
v -2.289570 1.039899 4.065960
v -2.292640 0.931874 3.785830
v -2.187000 1.093839 3.785830
v -2.187000 0.931874 3.785830
v -2.292640 1.093839 3.785830
v -2.187000 0.931874 3.810810
v -2.292640 1.093839 3.810810
v -2.292640 0.931874 3.810810
v -2.187000 1.093839 3.810810
v -2.186170 0.931874 3.787090
v -2.292640 0.931874 3.785830
v -2.187000 0.931874 3.785830
v -2.292640 0.931874 3.787090
v -2.186170 0.931874 3.809540
v -2.292640 0.931874 3.809540
v -2.187000 0.931874 3.810810
v -2.292640 0.931874 3.810810
v -2.292640 0.931874 3.810810
v -2.292640 1.093839 3.809540
v -2.292640 0.931874 3.809540
v -2.292640 1.093839 3.810810
v -2.292640 1.093839 3.787090
v -2.292640 0.931874 3.787090
v -2.292640 1.093839 3.785830
v -2.292640 0.931874 3.785830
v -2.187000 0.931874 3.785830
v -2.186170 1.093839 3.787090
v -2.186170 0.931874 3.787090
v -2.187000 1.093839 3.785830
v -2.186170 0.931874 3.787090
v -2.186170 1.093839 3.809540
v -2.186170 0.931874 3.809540
v -2.186170 1.093839 3.787090
v -2.186170 0.931874 3.809540
v -2.187000 1.093839 3.810810
v -2.187000 0.931874 3.810810
v -2.186170 1.093839 3.809540
v -2.292640 1.093839 3.810810
v -2.186170 1.093839 3.809540
v -2.292640 1.093839 3.809540
v -2.187000 1.093839 3.810810
v -2.186170 1.093839 3.787090
v -2.292640 1.093839 3.787090
v -2.187000 1.093839 3.785830
v -2.292640 1.093839 3.785830
v -2.323390 0.934829 4.164690
v -2.187000 1.179209 4.191290
v -2.187000 0.934829 4.164690
v -2.323390 1.179209 4.191290
v -2.187000 0.932828 4.183070
v -2.323390 1.177199 4.209670
v -2.323390 0.932828 4.183070
v -2.187000 1.177199 4.209670
v -2.186170 0.934692 4.165950
v -2.323390 0.934829 4.164690
v -2.187000 0.934829 4.164690
v -2.323390 0.934692 4.165950
v -2.186170 0.932965 4.181810
v -2.323390 0.932965 4.181810
v -2.187000 0.932828 4.183070
v -2.323390 0.932828 4.183070
v -2.323390 0.932828 4.183070
v -2.323390 1.177339 4.208410
v -2.323390 0.932965 4.181810
v -2.323390 1.177199 4.209670
v -2.323390 1.179069 4.192550
v -2.323390 0.934692 4.165950
v -2.323390 1.179209 4.191290
v -2.323390 0.934829 4.164690
v -2.187000 0.934829 4.164690
v -2.186170 1.179069 4.192550
v -2.186170 0.934692 4.165950
v -2.187000 1.179209 4.191290
v -2.186170 0.934692 4.165950
v -2.186170 1.177339 4.208410
v -2.186170 0.932965 4.181810
v -2.186170 1.179069 4.192550
v -2.186170 0.932965 4.181810
v -2.187000 1.177199 4.209670
v -2.187000 0.932828 4.183070
v -2.186170 1.177339 4.208410
v -2.323390 1.177199 4.209670
v -2.186170 1.177339 4.208410
v -2.323390 1.177339 4.208410
v -2.187000 1.177199 4.209670
v -2.323390 1.177339 4.208410
v -2.186170 1.179069 4.192550
v -2.323390 1.179069 4.192550
v -2.186170 1.177339 4.208410
v -2.187000 1.179209 4.191290
v -2.323390 1.179209 4.191290
v -2.359260 0.662264 3.682040
v -2.187000 0.842963 3.673970
v -2.187000 0.662264 3.682040
v -2.359260 0.842963 3.673970
v -2.187000 0.663456 3.708710
v -2.359260 0.844155 3.700630
v -2.359260 0.663456 3.708710
v -2.187000 0.844155 3.700630
v -2.186170 0.662321 3.683310
v -2.359260 0.662264 3.682040
v -2.187000 0.662264 3.682040
v -2.359260 0.662321 3.683310
v -2.186170 0.663400 3.707440
v -2.359260 0.663400 3.707440
v -2.187000 0.663456 3.708710
v -2.359260 0.663456 3.708710
v -2.359260 0.663456 3.708710
v -2.359260 0.844099 3.699370
v -2.359260 0.663400 3.707440
v -2.359260 0.844155 3.700630
v -2.359260 0.843020 3.675230
v -2.359260 0.662321 3.683310
v -2.359260 0.842963 3.673970
v -2.359260 0.662264 3.682040
v -2.187000 0.662264 3.682040
v -2.186170 0.843020 3.675230
v -2.186170 0.662321 3.683310
v -2.187000 0.842963 3.673970
v -2.186170 0.662321 3.683310
v -2.186170 0.844099 3.699370
v -2.186170 0.663400 3.707440
v -2.186170 0.843020 3.675230
v -2.186170 0.663400 3.707440
v -2.187000 0.844155 3.700630
v -2.187000 0.663456 3.708710
v -2.186170 0.844099 3.699370
v -2.359260 0.844155 3.700630
v -2.186170 0.844099 3.699370
v -2.359260 0.844099 3.699370
v -2.187000 0.844155 3.700630
v -2.359260 0.844099 3.699370
v -2.186170 0.843020 3.675230
v -2.359260 0.843020 3.675230
v -2.186170 0.844099 3.699370
v -2.187000 0.842963 3.673970
v -2.359260 0.842963 3.673970
vt 0.216352 0.002481
vt 0.214554 0.002481
vt 0.214554 0.564714
vt 0.216352 0.564714
vt 0.182862 0.002481
vt 0.179582 0.564714
vt 0.181439 0.002481
vt 0.181006 0.564714
vt 0.987148 0.008603
vt 0.989829 0.008603
vt 0.989829 0.127444
vt 0.987148 0.127444
vt 0.987148 0.127444
vt 0.946689 0.127444
vt 0.946689 0.008603
vt 0.987148 0.008603
vt 0.946689 0.127444
vt 0.943949 0.127444
vt 0.943949 0.008603
vt 0.946689 0.008603
vt 0.943949 0.127444
vt 0.946689 0.256778
vt 0.946689 0.127444
vt 0.943949 0.256778
vt 0.987148 0.256778
vt 0.987148 0.127444
vt 0.989829 0.256778
vt 0.989829 0.127444
vt 0.214554 0.002481
vt 0.211814 0.002481
vt 0.211814 0.564714
vt 0.214554 0.564714
vt 0.211814 0.002481
vt 0.185543 0.002481
vt 0.183687 0.564714
vt 0.211814 0.564714
vt 0.185543 0.002481
vt 0.181006 0.564714
vt 0.182862 0.002481
vt 0.183687 0.564714
vt 0.943949 0.256778
vt 0.946689 0.375415
vt 0.946689 0.256778
vt 0.943949 0.375415
vt 0.987148 0.375415
vt 0.987148 0.256778
vt 0.989829 0.375415
vt 0.989829 0.256778
vt 0.666243 0.002481
vt 0.664705 0.002481
vt 0.664705 0.784572
vt 0.666243 0.784572
vt 0.611708 0.002793
vt 0.611885 0.784572
vt 0.610285 0.002793
vt 0.613308 0.784572
vt 0.987148 0.008603
vt 0.989829 0.008603
vt 0.989829 0.127444
vt 0.987148 0.127444
vt 0.946689 0.127444
vt 0.946689 0.008603
vt 0.943949 0.127444
vt 0.943949 0.008603
vt 0.943949 0.127444
vt 0.946689 0.256778
vt 0.946689 0.127444
vt 0.943949 0.256778
vt 0.987148 0.256778
vt 0.987148 0.127444
vt 0.989829 0.256778
vt 0.989829 0.127444
vt 0.664705 0.002481
vt 0.663464 0.002481
vt 0.663464 0.784572
vt 0.664705 0.784572
vt 0.663464 0.002481
vt 0.614389 0.002793
vt 0.615989 0.784572
vt 0.663464 0.784572
vt 0.614389 0.002793
vt 0.613308 0.784572
vt 0.611708 0.002793
vt 0.615989 0.784572
vt 0.943949 0.256778
vt 0.946689 0.375415
vt 0.946689 0.256778
vt 0.943949 0.375415
vt 0.987148 0.375415
vt 0.987148 0.256778
vt 0.989829 0.375415
vt 0.989829 0.256778
vt 0.037201 0.002481
vt 0.036769 0.002481
vt 0.036769 0.901213
vt 0.037201 0.901213
vt 0.002379 0.002481
vt 0.000956 0.901213
vt 0.000956 0.002481
vt 0.002379 0.901213
vt 0.987148 0.008603
vt 0.989829 0.008603
vt 0.989829 0.127444
vt 0.987148 0.127444
vt 0.946689 0.127444
vt 0.946689 0.008603
vt 0.943949 0.127444
vt 0.943949 0.008603
vt 0.943949 0.127444
vt 0.946689 0.256778
vt 0.946689 0.127444
vt 0.943949 0.256778
vt 0.987148 0.256778
vt 0.987148 0.127444
vt 0.989829 0.256778
vt 0.989829 0.127444
vt 0.036769 0.002481
vt 0.035187 0.002481
vt 0.035187 0.901213
vt 0.036769 0.901213
vt 0.035187 0.002481
vt 0.003763 0.002481
vt 0.003763 0.901213
vt 0.035187 0.901213
vt 0.003763 0.002481
vt 0.002379 0.901213
vt 0.002379 0.002481
vt 0.003763 0.901213
vt 0.943949 0.256778
vt 0.946689 0.375415
vt 0.946689 0.256778
vt 0.943949 0.375415
vt 0.946689 0.256778
vt 0.987148 0.375415
vt 0.987148 0.256778
vt 0.946689 0.375415
vt 0.989829 0.375415
vt 0.989829 0.256778
vt 0.313402 0.002481
vt 0.311604 0.002481
vt 0.311604 0.886297
vt 0.313402 0.886297
vt 0.258682 0.002481
vt 0.257259 0.886297
vt 0.257259 0.002481
vt 0.258682 0.886297
vt 0.987148 0.008603
vt 0.989829 0.008603
vt 0.989829 0.127444
vt 0.987148 0.127444
vt 0.946689 0.127444
vt 0.946689 0.008603
vt 0.943949 0.127444
vt 0.943949 0.008603
vt 0.943949 0.127444
vt 0.946689 0.256778
vt 0.946689 0.127444
vt 0.943949 0.256778
vt 0.987148 0.256778
vt 0.987148 0.127444
vt 0.989829 0.256778
vt 0.989829 0.127444
vt 0.311604 0.002481
vt 0.308864 0.002481
vt 0.308864 0.886297
vt 0.311604 0.886297
vt 0.308864 0.002481
vt 0.261363 0.002481
vt 0.261363 0.886297
vt 0.308864 0.886297
vt 0.261363 0.002481
vt 0.258682 0.886297
vt 0.258682 0.002481
vt 0.261363 0.886297
vt 0.943949 0.256778
vt 0.946689 0.375415
vt 0.946689 0.256778
vt 0.943949 0.375415
vt 0.946689 0.256778
vt 0.987148 0.375415
vt 0.987148 0.256778
vt 0.946689 0.375415
vt 0.989829 0.375415
vt 0.989829 0.256778
vn 0.0000 -0.2111 0.9775
vn 0.0000 -0.2110 0.9775
vn -0.0003 0.9775 0.2107
vn 0.0004 0.9776 0.2103
vn -0.0006 0.9776 0.2105
vn 0.0006 0.9776 0.2105
vn 0.0000 0.9775 0.2111
vn 0.0000 0.9776 0.2105
vn -0.0003 0.9776 0.2104
vn 0.0003 0.9775 0.2107
vn -1.0000 0.0000 0.0000
vn -0.8367 -0.1144 0.5355
vn -0.8368 -0.1169 0.5350
vn -0.8367 -0.1143 0.5356
vn -0.8368 -0.1168 0.5350
vn 0.8373 -0.1153 0.5344
vn 0.8374 -0.1153 0.5343
vn 0.0000 0.9775 0.2112
vn 0.0000 0.9774 0.2112
vn 0.0000 0.0000 1.0000
vn 0.0000 1.0000 0.0000
vn -0.8351 0.0043 0.5500
vn -0.8351 -0.0043 0.5500
vn 0.8374 0.0000 0.5465
vn 0.8375 0.0000 0.5464
vn 0.8375 -0.0000 0.5465
vn 0.0000 -0.1082 0.9941
vn 0.0000 0.9941 0.1082
vn 0.0000 0.9941 0.1081
vn 0.0000 0.9942 0.1080
vn -0.8365 -0.0574 0.5450
vn -0.8364 -0.0611 0.5446
vn -0.8367 -0.0579 0.5446
vn -0.8367 -0.0607 0.5443
vn 0.8375 -0.0591 0.5433
vn -0.0000 0.9941 0.1085
vn -0.0000 0.9941 0.1083
vn 0.0000 0.9941 0.1084
vn 0.0000 0.0446 0.9990
vn 0.0000 0.0447 0.9990
vn 0.0000 0.9990 -0.0447
vn 0.0003 0.9990 -0.0450
vn -0.0005 0.9990 -0.0448
vn 0.0000 0.9990 -0.0448
vn 0.0000 0.9990 -0.0443
vn 0.0000 0.9990 -0.0444
vn -0.0006 0.9990 -0.0440
vn 0.0005 0.9990 -0.0437
vn -0.8373 0.0249 0.5461
vn -0.8374 0.0239 0.5461
vn -0.8354 0.0283 0.5489
vn -0.8354 0.0207 0.5492
vn 0.8375 0.0244 0.5459
vn 0.8376 0.0244 0.5457
vn 0.8376 0.0244 0.5458
vn 0.0000 0.9990 -0.0446
vn 0.0000 0.9990 -0.0450
s 1
f 1/1/1 3/2/1 2/3/1
f 1/1/1 2/3/1 4/4/1
f 5/5/2 6/6/2 7/7/2
f 5/5/2 8/8/2 6/6/2
f 9/9/3 11/10/4 10/11/5
f 9/9/3 10/11/5 12/12/6
f 13/13/7 15/14/7 14/15/7
f 13/13/7 14/15/7 16/16/7
f 17/17/8 19/18/8 18/19/9
f 17/17/8 18/19/9 20/20/10
f 21/21/11 22/22/11 23/23/11
f 21/21/11 24/24/11 22/22/11
f 23/23/11 25/25/11 26/26/11
f 23/23/11 22/22/11 25/25/11
f 26/26/11 27/27/11 28/28/11
f 26/26/11 25/25/11 27/27/11
f 29/29/12 31/30/13 30/31/14
f 29/29/12 30/31/14 32/32/15
f 33/33/11 35/34/11 34/35/11
f 33/33/11 34/35/11 36/36/11
f 37/37/16 38/38/17 39/39/17
f 37/37/16 40/40/17 38/38/17
f 41/41/7 42/42/7 43/43/7
f 41/41/7 44/44/18 42/42/7
f 43/43/7 45/45/19 46/46/7
f 43/43/7 42/42/7 45/45/19
f 46/46/7 47/47/7 48/48/7
f 46/46/7 45/45/19 47/47/7
f 49/49/20 51/50/20 50/51/20
f 49/49/20 50/51/20 52/52/20
f 53/53/20 54/54/20 55/55/20
f 53/53/20 56/56/20 54/54/20
f 57/57/21 59/58/21 58/59/21
f 57/57/21 58/59/21 60/60/21
f 60/60/21 62/61/21 61/62/21
f 60/60/21 61/62/21 57/57/21
f 62/61/21 64/63/21 63/64/21
f 62/61/21 63/64/21 61/62/21
f 65/65/11 66/66/11 67/67/11
f 65/65/11 68/68/11 66/66/11
f 67/67/11 69/69/11 70/70/11
f 67/67/11 66/66/11 69/69/11
f 70/70/11 71/71/11 72/72/11
f 70/70/11 69/69/11 71/71/11
f 73/73/22 75/74/23 74/75/22
f 73/73/22 74/75/22 76/76/23
f 77/77/11 79/78/11 78/79/11
f 77/77/11 78/79/11 80/80/11
f 81/81/24 82/82/25 83/83/25
f 81/81/24 84/84/26 82/82/25
f 85/85/21 86/86/21 87/87/21
f 85/85/21 88/88/21 86/86/21
f 87/87/21 89/89/21 90/90/21
f 87/87/21 86/86/21 89/89/21
f 90/90/21 91/91/21 92/92/21
f 90/90/21 89/89/21 91/91/21
f 93/93/27 95/94/27 94/95/27
f 93/93/27 94/95/27 96/96/27
f 97/97/27 98/98/27 99/99/27
f 97/97/27 100/100/27 98/98/27
f 101/101/28 103/102/29 102/103/29
f 101/101/28 102/103/29 104/104/28
f 104/104/28 106/105/28 105/106/28
f 104/104/28 105/106/28 101/101/28
f 106/105/28 108/107/29 107/108/30
f 106/105/28 107/108/30 105/106/28
f 109/109/11 110/110/11 111/111/11
f 109/109/11 112/112/11 110/110/11
f 111/111/11 113/113/11 114/114/11
f 111/111/11 110/110/11 113/113/11
f 114/114/11 115/115/11 116/116/11
f 114/114/11 113/113/11 115/115/11
f 117/117/31 119/118/32 118/119/33
f 117/117/31 118/119/33 120/120/34
f 121/121/11 123/122/11 122/123/11
f 121/121/11 122/123/11 124/124/11
f 125/125/35 126/126/35 127/127/35
f 125/125/35 128/128/35 126/126/35
f 129/129/36 130/130/37 131/131/36
f 129/129/36 132/132/37 130/130/37
f 133/133/38 134/134/37 135/135/38
f 133/133/38 136/136/38 134/134/37
f 135/135/38 137/137/28 138/138/38
f 135/135/38 134/134/37 137/137/28
f 139/139/39 141/140/39 140/141/39
f 139/139/39 140/141/39 142/142/39
f 143/143/40 144/144/40 145/145/40
f 143/143/40 146/146/40 144/144/40
f 147/147/41 149/148/42 148/149/43
f 147/147/41 148/149/43 150/150/44
f 150/150/44 152/151/45 151/152/46
f 150/150/44 151/152/46 147/147/41
f 152/151/45 154/153/47 153/154/48
f 152/151/45 153/154/48 151/152/46
f 155/155/11 156/156/11 157/157/11
f 155/155/11 158/158/11 156/156/11
f 157/157/11 159/159/11 160/160/11
f 157/157/11 156/156/11 159/159/11
f 160/160/11 161/161/11 162/162/11
f 160/160/11 159/159/11 161/161/11
f 163/163/49 165/164/50 164/165/51
f 163/163/49 164/165/51 166/166/52
f 167/167/11 169/168/11 168/169/11
f 167/167/11 168/169/11 170/170/11
f 171/171/53 172/172/54 173/173/53
f 171/171/53 174/174/55 172/172/54
f 175/175/46 176/176/46 177/177/46
f 175/175/46 178/178/46 176/176/46
f 179/179/56 180/180/44 181/181/57
f 179/179/56 182/182/41 180/180/44
f 181/181/57 183/183/46 184/184/44
f 181/181/57 180/180/44 183/183/46
