# Blender v2.82 (sub 7) OBJ File: 'living_room.blend'
# www.blender.org
o TableDrawer_Mesh_(153)
v 0.772672 0.450365 2.707640
v 0.755869 0.450365 2.707640
v 0.755869 0.450364 3.205230
v 0.772672 0.450364 3.205230
v 0.755869 0.450364 3.205230
v 0.755869 0.450365 2.707640
v 0.755869 0.268823 2.707640
v 0.755869 0.268822 3.205230
v 0.755869 0.450365 2.707640
v 0.772672 0.450365 2.707640
v 0.772672 0.268823 2.707640
v 0.755869 0.268823 2.707640
v 0.772672 0.450365 2.707640
v 0.772672 0.450364 3.205230
v 0.772672 0.268822 3.205230
v 0.772672 0.268823 2.707640
v 0.772672 0.450364 3.205230
v 0.755869 0.450364 3.205230
v 0.755869 0.268822 3.205230
v 0.772672 0.268822 3.205230
v 0.755869 0.268822 3.205230
v 0.755869 0.268823 2.707640
v 0.772672 0.268823 2.707640
v 0.772672 0.268822 3.205230
v 0.293617 0.450365 2.707640
v 0.293617 0.450364 3.205230
v 0.310420 0.450364 3.205230
v 0.310420 0.450365 2.707640
v 0.310420 0.450364 3.205230
v 0.310420 0.268822 3.205230
v 0.310420 0.268823 2.707640
v 0.310420 0.450365 2.707640
v 0.310420 0.450365 2.707640
v 0.310420 0.268823 2.707640
v 0.293617 0.268823 2.707640
v 0.293617 0.450365 2.707640
v 0.293617 0.450365 2.707640
v 0.293617 0.268823 2.707640
v 0.293617 0.268822 3.205230
v 0.293617 0.450364 3.205230
v 0.293617 0.450364 3.205230
v 0.293617 0.268822 3.205230
v 0.310420 0.268822 3.205230
v 0.310420 0.450364 3.205230
v 0.310420 0.268822 3.205230
v 0.293617 0.268822 3.205230
v 0.293617 0.268823 2.707640
v 0.310420 0.268823 2.707640
v 0.750970 0.447457 3.203570
v 0.315318 0.447457 3.188410
v 0.315318 0.447457 3.203570
v 0.750970 0.447457 3.188410
v 0.750970 0.271807 3.186740
v 0.315318 0.445793 3.186740
v 0.750970 0.445793 3.186740
v 0.315318 0.271807 3.186740
v 0.315318 0.270143 3.203570
v 0.750970 0.270143 3.188410
v 0.750970 0.270143 3.203570
v 0.315318 0.270143 3.188410
v 0.752634 0.271807 3.203570
v 0.752634 0.445793 3.188410
v 0.752634 0.445793 3.203570
v 0.752634 0.271807 3.188410
v 0.315318 0.445793 3.205230
v 0.750970 0.271807 3.205230
v 0.750970 0.445793 3.205230
v 0.315318 0.271807 3.205230
v 0.315318 0.445793 3.205230
v 0.315318 0.447457 3.203570
v 0.313654 0.445793 3.203570
v 0.750970 0.271807 3.205230
v 0.750970 0.270143 3.203570
v 0.752634 0.271807 3.203570
v 0.315318 0.270143 3.203570
v 0.315318 0.271807 3.205230
v 0.313654 0.271807 3.203570
v 0.750970 0.445793 3.205230
v 0.752634 0.445793 3.203570
v 0.750970 0.447457 3.203570
v 0.752634 0.445793 3.188410
v 0.750970 0.445793 3.186740
v 0.750970 0.447457 3.188410
v 0.315318 0.270143 3.188410
v 0.313654 0.271807 3.188410
v 0.315318 0.271807 3.186740
v 0.750970 0.270143 3.188410
v 0.750970 0.271807 3.186740
v 0.752634 0.271807 3.188410
v 0.315318 0.447457 3.188410
v 0.315318 0.445793 3.186740
v 0.313654 0.445793 3.188410
v 0.315318 0.445793 3.205230
v 0.313654 0.271807 3.203570
v 0.315318 0.271807 3.205230
v 0.313654 0.445793 3.203570
v 0.315318 0.447457 3.203570
v 0.750970 0.445793 3.205230
v 0.750970 0.447457 3.203570
v 0.315318 0.445793 3.205230
v 0.750970 0.271807 3.205230
v 0.752634 0.445793 3.203570
v 0.750970 0.445793 3.205230
v 0.752634 0.271807 3.203570
v 0.750970 0.270143 3.203570
v 0.315318 0.271807 3.205230
v 0.315318 0.270143 3.203570
v 0.750970 0.271807 3.205230
v 0.752634 0.271807 3.203570
v 0.750970 0.270143 3.188410
v 0.752634 0.271807 3.188410
v 0.750970 0.270143 3.203570
v 0.315318 0.270143 3.188410
v 0.750970 0.271807 3.186740
v 0.750970 0.270143 3.188410
v 0.315318 0.271807 3.186740
v 0.315318 0.270143 3.203570
v 0.313654 0.271807 3.188410
v 0.315318 0.270143 3.188410
v 0.313654 0.271807 3.203570
v 0.750970 0.447457 3.203570
v 0.752634 0.445793 3.188410
v 0.750970 0.447457 3.188410
v 0.752634 0.445793 3.203570
v 0.750970 0.445793 3.186740
v 0.752634 0.271807 3.188410
v 0.750970 0.271807 3.186740
v 0.752634 0.445793 3.188410
v 0.313654 0.445793 3.203570
v 0.315318 0.447457 3.188410
v 0.313654 0.445793 3.188410
v 0.315318 0.447457 3.203570
v 0.750970 0.447457 3.188410
v 0.315318 0.445793 3.186740
v 0.315318 0.447457 3.188410
v 0.750970 0.445793 3.186740
v 0.315318 0.271807 3.186740
v 0.313654 0.445793 3.188410
v 0.315318 0.445793 3.186740
v 0.313654 0.271807 3.188410
v 0.313654 0.445793 3.203570
v 0.313654 0.271807 3.188410
v 0.313654 0.271807 3.203570
v 0.313654 0.445793 3.188410
v 0.315318 0.271676 2.725960
v 0.315318 0.445661 2.725960
v 0.750970 0.445661 2.725960
v 0.750970 0.271676 2.725960
v 0.315318 0.447326 2.709130
v 0.750970 0.447326 2.709130
v 0.750970 0.447326 2.724290
v 0.315318 0.447326 2.724290
v 0.750970 0.270012 2.709130
v 0.315318 0.270012 2.709130
v 0.315318 0.270012 2.724290
v 0.750970 0.270012 2.724290
v 0.313654 0.271676 2.709130
v 0.313654 0.445661 2.709130
v 0.313654 0.445661 2.724290
v 0.313654 0.271676 2.724290
v 0.750970 0.445661 2.707460
v 0.315318 0.445661 2.707460
v 0.315318 0.271676 2.707460
v 0.750970 0.271676 2.707460
v 0.750970 0.445661 2.707460
v 0.750970 0.271676 2.707460
v 0.752634 0.271676 2.709130
v 0.752634 0.445661 2.709130
v 0.750970 0.447326 2.709130
v 0.315318 0.447326 2.709130
v 0.315318 0.445661 2.707460
v 0.750970 0.445661 2.707460
v 0.315318 0.271676 2.707460
v 0.315318 0.445661 2.707460
v 0.313654 0.445661 2.709130
v 0.313654 0.271676 2.709130
v 0.315318 0.270012 2.709130
v 0.750970 0.270012 2.709130
v 0.750970 0.271676 2.707460
v 0.315318 0.271676 2.707460
v 0.313654 0.271676 2.709130
v 0.313654 0.271676 2.724290
v 0.315318 0.270012 2.724290
v 0.315318 0.270012 2.709130
v 0.750970 0.270012 2.724290
v 0.315318 0.270012 2.724290
v 0.315318 0.271676 2.725960
v 0.750970 0.271676 2.725960
v 0.750970 0.270012 2.709130
v 0.750970 0.270012 2.724290
v 0.752634 0.271676 2.724290
v 0.752634 0.271676 2.709130
v 0.315318 0.445661 2.725960
v 0.315318 0.271676 2.725960
v 0.313654 0.271676 2.724290
v 0.313654 0.445661 2.724290
v 0.752634 0.445661 2.709130
v 0.752634 0.445661 2.724290
v 0.750970 0.447326 2.724290
v 0.750970 0.447326 2.709130
v 0.315318 0.447326 2.724290
v 0.750970 0.447326 2.724290
v 0.750970 0.445661 2.725960
v 0.315318 0.445661 2.725960
v 0.750970 0.271676 2.725960
v 0.750970 0.445661 2.725960
v 0.752634 0.445661 2.724290
v 0.752634 0.271676 2.724290
v 0.752634 0.445661 2.709130
v 0.752634 0.271676 2.709130
v 0.752634 0.271676 2.724290
v 0.752634 0.445661 2.724290
v 0.750970 0.445661 2.707460
v 0.752634 0.445661 2.709130
v 0.750970 0.447326 2.709130
v 0.750970 0.270012 2.709130
v 0.752634 0.271676 2.709130
v 0.750970 0.271676 2.707460
v 0.750970 0.270012 2.724290
v 0.750970 0.271676 2.725960
v 0.752634 0.271676 2.724290
v 0.750970 0.447326 2.724290
v 0.752634 0.445661 2.724290
v 0.750970 0.445661 2.725960
v 0.315318 0.445661 2.707460
v 0.315318 0.447326 2.709130
v 0.313654 0.445661 2.709130
v 0.313654 0.445661 2.724290
v 0.315318 0.447326 2.724290
v 0.315318 0.445661 2.725960
v 0.315318 0.270012 2.724290
v 0.313654 0.271676 2.724290
v 0.315318 0.271676 2.725960
v 0.315318 0.447326 2.709130
v 0.315318 0.447326 2.724290
v 0.313654 0.445661 2.724290
v 0.313654 0.445661 2.709130
v 0.315318 0.271676 2.707460
v 0.313654 0.271676 2.709130
v 0.315318 0.270012 2.709130
vt 0.828431 0.005777
vt 0.877451 0.005777
vt 0.877451 0.641281
vt 0.828431 0.641281
vt 0.700105 0.229692
vt 0.064601 0.005602
vt 0.064601 0.229692
vt 0.700105 0.005602
vt 0.995098 0.464986
vt 0.946078 0.240896
vt 0.946078 0.464986
vt 0.995098 0.240896
vt 0.700105 0.464986
vt 0.064601 0.464986
vt 0.064601 0.240896
vt 0.700105 0.240896
vt 0.995098 0.229692
vt 0.946078 0.229692
vt 0.946078 0.005602
vt 0.995098 0.005602
vt 0.710784 0.641281
vt 0.759804 0.005777
vt 0.710784 0.005777
vt 0.759804 0.641281
vt 0.818627 0.005777
vt 0.818627 0.641281
vt 0.769608 0.641281
vt 0.769608 0.005777
vt 0.064601 0.700280
vt 0.064601 0.476190
vt 0.700105 0.476190
vt 0.700105 0.700280
vt 0.887255 0.464986
vt 0.936275 0.240896
vt 0.887255 0.240896
vt 0.936275 0.464986
vt 0.005777 0.935574
vt 0.641281 0.711485
vt 0.005777 0.711485
vt 0.641281 0.935574
vt 0.887255 0.229692
vt 0.887255 0.005602
vt 0.936275 0.005602
vt 0.936275 0.229692
vt 0.053922 0.641281
vt 0.004902 0.005777
vt 0.004902 0.641281
vt 0.053922 0.005777
vt 0.003543 0.461310
vt 0.889314 0.431548
vt 0.889314 0.461310
vt 0.003543 0.431548
vt 0.003543 0.539216
vt 0.003543 0.889356
vt 0.889314 0.889356
vt 0.889314 0.539216
vt 0.003543 0.425595
vt 0.889314 0.425595
vt 0.889314 0.395833
vt 0.003543 0.395833
vt 0.931548 0.003501
vt 0.961310 0.353641
vt 0.931548 0.353641
vt 0.961310 0.003501
vt 0.003543 0.389356
vt 0.889314 0.039216
vt 0.889314 0.389356
vt 0.003543 0.039216
vt 0.925595 0.788690
vt 0.895833 0.818452
vt 0.895833 0.788690
vt 0.931548 0.818452
vt 0.961310 0.788690
vt 0.961310 0.818452
vt 0.967262 0.752976
vt 0.997024 0.782738
vt 0.967262 0.782738
vt 0.931548 0.752976
vt 0.961310 0.782738
vt 0.961310 0.752976
vt 0.967262 0.788690
vt 0.997024 0.788690
vt 0.997024 0.818452
vt 0.967262 0.824405
vt 0.997024 0.854167
vt 0.967262 0.854167
vt 0.961310 0.824405
vt 0.961310 0.854167
vt 0.931548 0.854167
vt 0.895833 0.854167
vt 0.895833 0.824405
vt 0.925595 0.824405
vt 0.997024 0.353641
vt 0.967262 0.003501
vt 0.997024 0.003501
vt 0.967262 0.353641
vt 0.889314 0.467262
vt 0.003543 0.497024
vt 0.003543 0.467262
vt 0.889314 0.497024
vt 0.895833 0.360644
vt 0.925595 0.710784
vt 0.895833 0.710784
vt 0.925595 0.360644
vt 0.889314 0.895833
vt 0.003543 0.925595
vt 0.003543 0.895833
vt 0.889314 0.925595
vt 0.895833 0.782738
vt 0.925595 0.752976
vt 0.925595 0.782738
vt 0.895833 0.752976
vt 0.889314 0.502976
vt 0.003543 0.502976
vt 0.003543 0.532738
vt 0.889314 0.532738
vt 0.961310 0.717262
vt 0.931548 0.717262
vt 0.931548 0.747024
vt 0.961310 0.747024
vt 0.967262 0.747024
vt 0.997024 0.717262
vt 0.997024 0.747024
vt 0.967262 0.717262
vt 0.925595 0.353641
vt 0.925595 0.003501
vt 0.895833 0.003501
vt 0.895833 0.353641
vt 0.925595 0.717262
vt 0.895833 0.747024
vt 0.895833 0.717262
vt 0.925595 0.747024
vt 0.003543 0.032738
vt 0.889314 0.032738
vt 0.889314 0.002976
vt 0.003543 0.002976
vt 0.967262 0.360644
vt 0.967262 0.710784
vt 0.997024 0.710784
vt 0.997024 0.360644
vt 0.961310 0.710784
vt 0.961310 0.360644
vt 0.931548 0.360644
vt 0.931548 0.710784
vt 0.003543 0.539216
vt 0.889314 0.889356
vt 0.003543 0.889356
vt 0.889314 0.539216
vt 0.889314 0.431548
vt 0.003543 0.461310
vt 0.003543 0.431548
vt 0.889314 0.461310
vt 0.889314 0.395833
vt 0.003543 0.395833
vt 0.003543 0.425595
vt 0.889314 0.425595
vt 0.931548 0.003501
vt 0.931548 0.353641
vt 0.961310 0.353641
vt 0.961310 0.003501
vt 0.003543 0.389356
vt 0.889314 0.389356
vt 0.889314 0.039216
vt 0.003543 0.039216
vt 0.997024 0.353641
vt 0.997024 0.003501
vt 0.967262 0.003501
vt 0.967262 0.353641
vt 0.003543 0.497024
vt 0.889314 0.497024
vt 0.889314 0.467262
vt 0.003543 0.467262
vt 0.931548 0.360644
vt 0.931548 0.710784
vt 0.961310 0.710784
vt 0.961310 0.360644
vt 0.889314 0.895833
vt 0.003543 0.895833
vt 0.003543 0.925595
vt 0.889314 0.925595
vt 0.895833 0.782738
vt 0.925595 0.782738
vt 0.925595 0.752976
vt 0.895833 0.752976
vt 0.889314 0.502976
vt 0.003543 0.532738
vt 0.003543 0.502976
vt 0.889314 0.532738
vt 0.925595 0.717262
vt 0.895833 0.747024
vt 0.895833 0.717262
vt 0.925595 0.747024
vt 0.925595 0.353641
vt 0.895833 0.003501
vt 0.925595 0.003501
vt 0.895833 0.353641
vt 0.961310 0.717262
vt 0.931548 0.747024
vt 0.931548 0.717262
vt 0.961310 0.747024
vt 0.003543 0.032738
vt 0.889314 0.002976
vt 0.889314 0.032738
vt 0.003543 0.002976
vt 0.895833 0.360644
vt 0.925595 0.710784
vt 0.895833 0.710784
vt 0.925595 0.360644
vt 0.997024 0.710784
vt 0.967262 0.360644
vt 0.997024 0.360644
vt 0.967262 0.710784
vt 0.961310 0.788690
vt 0.961310 0.818452
vt 0.931548 0.788690
vt 0.997024 0.788690
vt 0.997024 0.818452
vt 0.967262 0.818452
vt 0.931548 0.824405
vt 0.931548 0.854167
vt 0.961310 0.854167
vt 0.895833 0.818452
vt 0.925595 0.788690
vt 0.895833 0.788690
vt 0.967262 0.752976
vt 0.967262 0.782738
vt 0.997024 0.752976
vt 0.931548 0.752976
vt 0.961310 0.752976
vt 0.961310 0.782738
vt 0.997024 0.824405
vt 0.997024 0.854167
vt 0.967262 0.854167
vt 0.967262 0.747024
vt 0.997024 0.717262
vt 0.997024 0.747024
vt 0.967262 0.717262
vt 0.895833 0.854167
vt 0.895833 0.824405
vt 0.925595 0.854167
vn 0.0000 1.0000 0.0000
vn 1.0000 0.0000 0.0000
vn 0.0000 0.0000 1.0000
vn -0.5773 0.5774 0.5773
vn 0.5773 -0.5774 0.5773
vn -0.5773 -0.5774 0.5774
vn -0.5764 -0.5765 -0.5792
vn -0.5778 -0.5763 -0.5779
vn -0.5765 -0.5778 -0.5778
vn 0.5774 0.5773 -0.5773
vn -0.5774 -0.5773 -0.5773
vn 0.5774 -0.5773 -0.5773
vn -0.5774 0.5773 -0.5773
vn -0.7071 0.0000 0.7071
vn 0.0000 0.7071 0.7071
vn -0.0000 0.7071 0.7072
vn 0.7071 0.0000 0.7071
vn -0.0000 -0.7071 0.7072
vn 0.0000 -0.7071 0.7071
vn 0.7071 -0.7071 0.0000
vn 0.0018 0.7084 0.7058
vn -0.0018 0.7084 0.7058
vn 0.7071 0.7071 0.0000
vn -0.7085 0.0018 0.7057
vn -0.7085 -0.0019 0.7057
vn -0.7085 -0.0018 0.7057
vn -0.7071 0.7071 0.0000
vn -0.0018 -0.7084 0.7058
vn 0.0018 -0.7084 0.7058
vn 0.7085 -0.0019 0.7057
vn 0.7085 0.0019 0.7057
vn -0.7085 0.0019 0.7057
vn -0.7084 -0.0018 0.7058
vn -0.7084 0.0018 0.7058
vn -0.0015 -0.7082 0.7060
vn 0.0015 -0.7082 0.7060
vn 0.7084 0.0018 0.7058
vn 0.7084 -0.0018 0.7058
vn 0.0000 -0.7072 0.7071
vn -0.7072 0.0000 0.7071
vn 0.7070 0.7072 0.0000
vn 0.7073 0.7069 0.0000
vn 0.7072 0.0000 0.7071
vn -0.5767 0.5787 -0.5766
vn -0.5788 0.5787 -0.5746
vn -0.5787 0.5767 -0.5766
vn -0.5770 -0.5782 -0.5768
vn -0.5790 -0.5765 -0.5765
vn -0.5787 -0.5786 -0.5748
vn 0.5787 -0.5786 0.5747
vn 0.5769 -0.5783 0.5768
vn 0.5790 -0.5765 0.5766
vn -0.5774 0.5773 0.5774
vn -0.5774 -0.5773 0.5773
vn -0.7073 0.7069 0.0000
s 1
f 1/1/1 2/2/1 3/3/1
f 1/1/1 3/3/1 4/4/1
f 5/5/2 7/6/2 6/7/2
f 5/5/2 8/8/2 7/6/2
f 9/9/3 11/10/3 10/11/3
f 9/9/3 12/12/3 11/10/3
f 13/13/2 14/14/2 15/15/2
f 13/13/2 15/15/2 16/16/2
f 17/17/3 18/18/3 19/19/3
f 17/17/3 19/19/3 20/20/3
f 21/21/1 23/22/1 22/23/1
f 21/21/1 24/24/1 23/22/1
f 25/25/1 26/26/1 27/27/1
f 25/25/1 27/27/1 28/28/1
f 29/29/2 30/30/2 31/31/2
f 29/29/2 31/31/2 32/32/2
f 33/33/3 35/34/3 34/35/3
f 33/33/3 36/36/3 35/34/3
f 37/37/2 39/38/2 38/39/2
f 37/37/2 40/40/2 39/38/2
f 41/41/3 42/42/3 43/43/3
f 41/41/3 43/43/3 44/44/3
f 45/45/1 47/46/1 46/47/1
f 45/45/1 48/48/1 47/46/1
f 49/49/1 50/50/1 51/51/1
f 49/49/1 52/52/1 50/50/1
f 53/53/3 55/54/3 54/55/3
f 53/53/3 54/55/3 56/56/3
f 57/57/1 59/58/1 58/59/1
f 57/57/1 58/59/1 60/60/1
f 61/61/2 62/62/2 63/63/2
f 61/61/2 64/64/2 62/62/2
f 65/65/3 66/66/3 67/67/3
f 65/65/3 68/68/3 66/66/3
f 69/69/4 70/70/4 71/71/4
f 72/72/5 73/73/5 74/74/5
f 75/75/6 76/76/6 77/77/6
f 78/78/7 80/79/8 79/80/9
f 81/81/10 82/82/10 83/83/10
f 84/84/11 85/85/11 86/86/11
f 87/87/12 88/88/12 89/89/12
f 90/90/13 91/91/13 92/92/13
f 93/93/14 94/94/14 95/95/14
f 93/93/14 96/96/14 94/94/14
f 97/97/15 98/98/15 99/99/15
f 97/97/15 100/100/16 98/98/15
f 101/101/17 102/102/17 103/103/17
f 101/101/17 104/104/17 102/102/17
f 105/105/18 106/106/19 107/107/18
f 105/105/18 108/108/18 106/106/19
f 109/109/20 110/110/20 111/111/20
f 109/109/20 112/112/20 110/110/20
f 113/113/21 115/114/22 114/115/21
f 113/113/21 114/115/21 116/116/22
f 117/117/23 119/118/23 118/119/23
f 117/117/23 118/119/23 120/120/23
f 121/121/23 122/122/23 123/123/23
f 121/121/23 124/124/23 122/122/23
f 125/125/24 127/126/25 126/127/24
f 125/125/24 126/127/24 128/128/26
f 129/129/27 130/130/27 131/131/27
f 129/129/27 132/132/27 130/130/27
f 133/133/28 135/134/29 134/135/28
f 133/133/28 134/135/28 136/136/29
f 137/137/30 139/138/31 138/139/30
f 137/137/30 138/139/30 140/140/31
f 141/141/2 143/142/2 142/143/2
f 141/141/2 142/143/2 144/144/2
f 145/145/3 147/146/3 146/147/3
f 145/145/3 148/148/3 147/146/3
f 149/149/1 151/150/1 150/151/1
f 149/149/1 152/152/1 151/150/1
f 153/153/1 154/154/1 155/155/1
f 153/153/1 155/155/1 156/156/1
f 157/157/2 158/158/2 159/159/2
f 157/157/2 159/159/2 160/160/2
f 161/161/3 162/162/3 163/163/3
f 161/161/3 163/163/3 164/164/3
f 165/165/32 166/166/33 167/167/34
f 165/165/32 167/167/34 168/168/25
f 169/169/35 170/170/36 171/171/35
f 169/169/35 171/171/35 172/172/36
f 173/173/30 174/174/37 175/175/38
f 173/173/30 175/175/38 176/176/31
f 177/177/21 178/178/22 179/179/21
f 177/177/21 179/179/21 180/180/22
f 181/181/23 182/182/23 183/183/23
f 181/181/23 183/183/23 184/184/23
f 185/185/39 187/186/19 186/187/19
f 185/185/39 188/188/39 187/186/19
f 189/189/20 191/190/20 190/191/20
f 189/189/20 192/192/20 191/190/20
f 193/193/14 195/194/40 194/195/40
f 193/193/14 196/196/14 195/194/40
f 197/197/41 199/198/42 198/199/42
f 197/197/41 200/200/23 199/198/42
f 201/201/15 203/202/15 202/203/15
f 201/201/15 204/204/15 203/202/15
f 205/205/43 207/206/17 206/207/17
f 205/205/43 208/208/43 207/206/17
f 209/209/2 211/210/2 210/211/2
f 209/209/2 212/212/2 211/210/2
f 213/213/10 215/214/10 214/215/10
f 216/216/12 218/217/12 217/218/12
f 219/219/44 220/220/45 221/221/46
f 222/222/47 223/223/48 224/224/49
f 225/225/50 226/226/51 227/227/52
f 228/228/53 230/229/53 229/230/53
f 231/231/54 233/232/54 232/233/54
f 234/234/55 236/235/55 235/236/55
f 234/234/55 237/237/55 236/235/55
f 238/238/11 240/239/11 239/240/11
