# Blender v2.82 (sub 7) OBJ File: 'living_room.blend'
# www.blender.org
o TableDrawerHandles_Mesh_(7)
v 0.495743 0.372752 3.218820
v 0.570545 0.372752 3.216430
v 0.495743 0.372752 3.216430
v 0.570545 0.372752 3.218820
v 0.495743 0.372752 3.208420
v 0.570545 0.372752 3.205980
v 0.495743 0.372752 3.205980
v 0.570545 0.372752 3.208420
v 0.570545 0.369021 3.216690
v 0.495743 0.360791 3.218140
v 0.495743 0.369021 3.216690
v 0.570545 0.360791 3.218140
v 0.570961 0.369015 3.219490
v 0.570961 0.360865 3.218550
v 0.570961 0.369015 3.217110
v 0.570961 0.361301 3.220940
v 0.495743 0.369015 3.208830
v 0.570545 0.360976 3.208830
v 0.570545 0.369015 3.208830
v 0.495743 0.360976 3.208830
v 0.570545 0.369847 3.205560
v 0.495743 0.372336 3.205560
v 0.570545 0.372336 3.205560
v 0.495743 0.369847 3.205560
v 0.570961 0.372336 3.218890
v 0.570961 0.369847 3.216960
v 0.570961 0.372336 3.216520
v 0.570961 0.369847 3.219340
v 0.570545 0.360560 3.208420
v 0.495743 0.360560 3.205980
v 0.570545 0.360560 3.205980
v 0.495743 0.360560 3.208420
v 0.495327 0.369847 3.208420
v 0.495327 0.372336 3.205980
v 0.495327 0.369847 3.205980
v 0.495327 0.372336 3.208420
v 0.495743 0.372342 3.219310
v 0.570545 0.369841 3.219760
v 0.570545 0.372342 3.219310
v 0.495743 0.369841 3.219760
v 0.495743 0.372752 3.215600
v 0.570545 0.372752 3.209250
v 0.495743 0.372752 3.209250
v 0.570545 0.372752 3.215600
v 0.495327 0.369015 3.205980
v 0.495327 0.360976 3.208420
v 0.495327 0.369015 3.208420
v 0.495327 0.360976 3.205980
v 0.495327 0.369847 3.216120
v 0.495327 0.372336 3.209250
v 0.495327 0.369847 3.209250
v 0.495327 0.372336 3.215670
v 0.570961 0.372336 3.215670
v 0.570961 0.369847 3.209250
v 0.570961 0.372336 3.209250
v 0.570961 0.369847 3.216120
v 0.570545 0.369015 3.205560
v 0.495743 0.360976 3.205560
v 0.495743 0.369015 3.205560
v 0.570545 0.360976 3.205560
v 0.570961 0.372336 3.208420
v 0.570961 0.369847 3.205980
v 0.570961 0.372336 3.205980
v 0.570961 0.369847 3.208420
v 0.570545 0.369431 3.216200
v 0.495743 0.369431 3.209250
v 0.570545 0.369431 3.209250
v 0.495743 0.369431 3.216200
v 0.495743 0.369022 3.219910
v 0.570545 0.361376 3.221350
v 0.570545 0.369022 3.219910
v 0.495743 0.361376 3.221350
v 0.570961 0.369015 3.208420
v 0.570961 0.360976 3.205980
v 0.570961 0.369015 3.205980
v 0.570961 0.360976 3.208420
v 0.495327 0.369015 3.217110
v 0.495327 0.361301 3.220940
v 0.495327 0.369015 3.219490
v 0.495327 0.360865 3.218550
v 0.570545 0.360892 3.221020
v 0.495743 0.360455 3.218620
v 0.570545 0.360455 3.218620
v 0.495743 0.360892 3.221020
v 0.495743 0.372342 3.219310
v 0.495743 0.372752 3.218820
v 0.495327 0.372336 3.218890
v 0.570545 0.369841 3.219760
v 0.570961 0.369015 3.219490
v 0.570961 0.369847 3.219340
v 0.570545 0.369022 3.219910
v 0.495327 0.369015 3.219490
v 0.495743 0.369841 3.219760
v 0.495327 0.369847 3.219340
v 0.495743 0.369022 3.219910
v 0.570545 0.372342 3.219310
v 0.570961 0.372336 3.218890
v 0.570545 0.372752 3.218820
v 0.570545 0.372336 3.205560
v 0.570545 0.372752 3.205980
v 0.570961 0.372336 3.205980
v 0.495327 0.369015 3.205980
v 0.495743 0.369847 3.205560
v 0.495743 0.369015 3.205560
v 0.495327 0.369847 3.205980
v 0.570545 0.369847 3.205560
v 0.570961 0.369015 3.205980
v 0.570545 0.369015 3.205560
v 0.570961 0.369847 3.205980
v 0.495743 0.372336 3.205560
v 0.495327 0.372336 3.205980
v 0.495743 0.372752 3.205980
v 0.570545 0.369021 3.216690
v 0.570961 0.369847 3.216960
v 0.570961 0.369015 3.217110
v 0.570961 0.369847 3.216120
v 0.570545 0.369431 3.216200
v 0.570545 0.369431 3.209250
v 0.570961 0.369847 3.208420
v 0.570961 0.369847 3.209250
v 0.570961 0.369015 3.208420
v 0.570545 0.369015 3.208830
v 0.495327 0.369847 3.216960
v 0.495743 0.369021 3.216690
v 0.495327 0.369015 3.217110
v 0.495743 0.369431 3.216200
v 0.495327 0.369847 3.216120
v 0.495327 0.369847 3.208420
v 0.495743 0.369431 3.209250
v 0.495327 0.369847 3.209250
v 0.495743 0.369015 3.208830
v 0.495327 0.369015 3.208420
v 0.570961 0.372336 3.216520
v 0.570545 0.372752 3.215600
v 0.570545 0.372752 3.216430
v 0.570961 0.372336 3.215670
v 0.570961 0.372336 3.209250
v 0.570545 0.372752 3.208420
v 0.570545 0.372752 3.209250
v 0.570961 0.372336 3.208420
v 0.495743 0.372752 3.216430
v 0.495327 0.372336 3.215670
v 0.495327 0.372336 3.216520
v 0.495743 0.372752 3.215600
v 0.495743 0.372752 3.209250
v 0.495327 0.372336 3.208420
v 0.495327 0.372336 3.209250
v 0.495743 0.372752 3.208420
v 0.495743 0.360976 3.208830
v 0.495327 0.360976 3.208420
v 0.495743 0.360560 3.208420
v 0.570545 0.360976 3.208830
v 0.570545 0.360560 3.208420
v 0.570961 0.360976 3.208420
v 0.570545 0.360791 3.218140
v 0.570961 0.360865 3.218550
v 0.570545 0.360455 3.218620
v 0.495743 0.360791 3.218140
v 0.495743 0.360455 3.218620
v 0.495327 0.360865 3.218550
v 0.495327 0.360976 3.205980
v 0.495743 0.360976 3.205560
v 0.495743 0.360560 3.205980
v 0.495327 0.361301 3.220940
v 0.495743 0.360892 3.221020
v 0.495743 0.361376 3.221350
v 0.570961 0.360976 3.205980
v 0.570545 0.360560 3.205980
v 0.570545 0.360976 3.205560
v 0.570961 0.361301 3.220940
v 0.570545 0.361376 3.221350
v 0.570545 0.360892 3.221020
v 0.495743 0.372342 3.219310
v 0.495327 0.369847 3.219340
v 0.495743 0.369841 3.219760
v 0.495327 0.372336 3.218890
v 0.495743 0.372752 3.218820
v 0.570545 0.372342 3.219310
v 0.570545 0.372752 3.218820
v 0.495743 0.372342 3.219310
v 0.570545 0.369841 3.219760
v 0.570961 0.372336 3.218890
v 0.570545 0.372342 3.219310
v 0.570961 0.369847 3.219340
v 0.570545 0.369022 3.219910
v 0.495743 0.369841 3.219760
v 0.495743 0.369022 3.219910
v 0.570545 0.369841 3.219760
v 0.570545 0.372336 3.205560
v 0.570961 0.372336 3.205980
v 0.570545 0.372752 3.205980
v 0.495743 0.372336 3.205560
v 0.495743 0.372752 3.205980
v 0.570545 0.372336 3.205560
v 0.495743 0.369847 3.205560
v 0.495327 0.372336 3.205980
v 0.495743 0.372336 3.205560
v 0.495327 0.369847 3.205980
v 0.570961 0.369847 3.216120
v 0.570545 0.369431 3.209250
v 0.570961 0.369847 3.209250
v 0.570545 0.369431 3.216200
v 0.495327 0.369847 3.216960
v 0.495327 0.369847 3.219340
v 0.495743 0.369431 3.216200
v 0.495327 0.369847 3.209250
v 0.495743 0.369431 3.209250
v 0.495327 0.369847 3.216120
v 0.570545 0.372752 3.218820
v 0.570961 0.372336 3.216520
v 0.570545 0.372752 3.216430
v 0.570961 0.372336 3.218890
v 0.570545 0.372752 3.215600
v 0.570961 0.372336 3.209250
v 0.570545 0.372752 3.209250
v 0.570961 0.372336 3.215670
v 0.570961 0.372336 3.205980
v 0.570545 0.372752 3.208420
v 0.570961 0.372336 3.208420
v 0.570545 0.372752 3.205980
v 0.495327 0.372336 3.218890
v 0.495743 0.372752 3.216430
v 0.495327 0.372336 3.216520
v 0.495743 0.372752 3.218820
v 0.495327 0.372336 3.215670
v 0.495743 0.372752 3.209250
v 0.495327 0.372336 3.209250
v 0.495743 0.372752 3.215600
v 0.495743 0.372752 3.205980
v 0.495327 0.372336 3.208420
v 0.495743 0.372752 3.208420
v 0.495327 0.372336 3.205980
v 0.570545 0.369431 3.216200
v 0.495743 0.369021 3.216690
v 0.495743 0.369431 3.216200
v 0.570545 0.369021 3.216690
v 0.570545 0.369015 3.208830
v 0.495743 0.369431 3.209250
v 0.495743 0.369015 3.208830
v 0.570545 0.369431 3.209250
v 0.495327 0.372336 3.216520
v 0.570961 0.369015 3.208420
v 0.570545 0.360976 3.208830
v 0.570961 0.360976 3.208420
v 0.570545 0.369015 3.208830
v 0.495743 0.360976 3.208830
v 0.570545 0.360560 3.208420
v 0.570545 0.360976 3.208830
v 0.495743 0.360560 3.208420
v 0.495743 0.369015 3.208830
v 0.495327 0.360976 3.208420
v 0.495743 0.360976 3.208830
v 0.495327 0.369015 3.208420
v 0.495327 0.369015 3.217110
v 0.495743 0.360791 3.218140
v 0.495327 0.360865 3.218550
v 0.495743 0.369021 3.216690
v 0.570545 0.360791 3.218140
v 0.495743 0.360455 3.218620
v 0.495743 0.360791 3.218140
v 0.570545 0.360455 3.218620
v 0.570545 0.369021 3.216690
v 0.570961 0.360865 3.218550
v 0.570545 0.360791 3.218140
v 0.570961 0.369015 3.217110
v 0.495743 0.360560 3.208420
v 0.495327 0.360976 3.205980
v 0.495743 0.360560 3.205980
v 0.495327 0.360976 3.208420
v 0.495327 0.369015 3.205980
v 0.495743 0.360976 3.205560
v 0.495327 0.360976 3.205980
v 0.495743 0.369015 3.205560
v 0.495743 0.369022 3.219910
v 0.495327 0.361301 3.220940
v 0.495743 0.361376 3.221350
v 0.495327 0.369015 3.219490
v 0.495327 0.360865 3.218550
v 0.495743 0.360892 3.221020
v 0.495327 0.361301 3.220940
v 0.495743 0.360455 3.218620
v 0.570545 0.369015 3.205560
v 0.570961 0.360976 3.205980
v 0.570545 0.360976 3.205560
v 0.570961 0.369015 3.205980
v 0.570961 0.360976 3.208420
v 0.570545 0.360560 3.205980
v 0.570961 0.360976 3.205980
v 0.570545 0.360560 3.208420
v 0.570545 0.360455 3.218620
v 0.570961 0.361301 3.220940
v 0.570545 0.360892 3.221020
v 0.570961 0.360865 3.218550
v 0.570961 0.369015 3.219490
v 0.570545 0.361376 3.221350
v 0.570961 0.361301 3.220940
v 0.570545 0.369022 3.219910
v 0.495743 0.360560 3.205980
v 0.570545 0.360976 3.205560
v 0.570545 0.360560 3.205980
v 0.495743 0.360976 3.205560
v 0.495743 0.361376 3.221350
v 0.570545 0.360892 3.221020
v 0.570545 0.361376 3.221350
v 0.495743 0.360892 3.221020
v 0.495327 0.372336 3.218890
v 0.571241 0.372753 2.695210
v 0.496439 0.372753 2.697600
v 0.571241 0.372753 2.697600
v 0.496439 0.372753 2.695210
v 0.571241 0.372753 2.705620
v 0.496439 0.372753 2.708060
v 0.571241 0.372753 2.708060
v 0.496439 0.372753 2.705620
v 0.496439 0.369022 2.697350
v 0.571241 0.360792 2.695900
v 0.571241 0.369022 2.697350
v 0.496439 0.360792 2.695900
v 0.496023 0.369016 2.694540
v 0.496023 0.360866 2.695490
v 0.496023 0.369016 2.696920
v 0.496023 0.361302 2.693090
v 0.571241 0.369016 2.705200
v 0.496439 0.360977 2.705200
v 0.496439 0.369016 2.705200
v 0.571241 0.360977 2.705200
v 0.496439 0.369848 2.708470
v 0.571241 0.372337 2.708470
v 0.496439 0.372337 2.708470
v 0.571241 0.369848 2.708470
v 0.496023 0.372337 2.695140
v 0.496023 0.369848 2.697070
v 0.496023 0.372337 2.697520
v 0.496023 0.369848 2.694700
v 0.496439 0.360561 2.705620
v 0.571241 0.360561 2.708060
v 0.496439 0.360561 2.708060
v 0.571241 0.360561 2.705620
v 0.571657 0.369848 2.705620
v 0.571657 0.372337 2.708060
v 0.571657 0.369848 2.708060
v 0.571657 0.372337 2.705620
v 0.571241 0.372343 2.694720
v 0.496439 0.369842 2.694270
v 0.496439 0.372343 2.694720
v 0.571241 0.369842 2.694270
v 0.571241 0.372753 2.698430
v 0.496439 0.372753 2.704790
v 0.571241 0.372753 2.704790
v 0.496439 0.372753 2.698430
v 0.571657 0.369016 2.708060
v 0.571657 0.360977 2.705620
v 0.571657 0.369016 2.705620
v 0.571657 0.360977 2.708060
v 0.571657 0.369848 2.697910
v 0.571657 0.372337 2.704790
v 0.571657 0.369848 2.704790
v 0.571657 0.372337 2.698360
v 0.496023 0.372337 2.698360
v 0.496023 0.369848 2.704790
v 0.496023 0.372337 2.704790
v 0.496023 0.369848 2.697910
v 0.496439 0.369016 2.708470
v 0.571241 0.360977 2.708470
v 0.571241 0.369016 2.708470
v 0.496439 0.360977 2.708470
v 0.496023 0.372337 2.705620
v 0.496023 0.369848 2.708060
v 0.496023 0.372337 2.708060
v 0.496023 0.369848 2.705620
v 0.496439 0.369432 2.697830
v 0.571241 0.369432 2.704790
v 0.496439 0.369432 2.704790
v 0.571241 0.369432 2.697830
v 0.571241 0.369023 2.694120
v 0.496439 0.361377 2.692680
v 0.496439 0.369023 2.694120
v 0.571241 0.361377 2.692680
v 0.496023 0.369016 2.705620
v 0.496023 0.360977 2.708060
v 0.496023 0.369016 2.708060
v 0.496023 0.360977 2.705620
v 0.571657 0.369016 2.696920
v 0.571657 0.361302 2.693090
v 0.571657 0.369016 2.694540
v 0.571657 0.360866 2.695490
v 0.496439 0.360893 2.693020
v 0.571241 0.360456 2.695420
v 0.496439 0.360456 2.695420
v 0.571241 0.360893 2.693020
v 0.571241 0.372343 2.694720
v 0.571241 0.372753 2.695210
v 0.571657 0.372337 2.695140
v 0.496439 0.369842 2.694270
v 0.496023 0.369016 2.694540
v 0.496023 0.369848 2.694700
v 0.496439 0.369023 2.694120
v 0.571657 0.369016 2.694540
v 0.571241 0.369842 2.694270
v 0.571657 0.369848 2.694700
v 0.571241 0.369023 2.694120
v 0.496439 0.372343 2.694720
v 0.496023 0.372337 2.695140
v 0.496439 0.372753 2.695210
v 0.496439 0.372337 2.708470
v 0.496439 0.372753 2.708060
v 0.496023 0.372337 2.708060
v 0.571657 0.369016 2.708060
v 0.571241 0.369848 2.708470
v 0.571241 0.369016 2.708470
v 0.571657 0.369848 2.708060
v 0.496439 0.369848 2.708470
v 0.496023 0.369016 2.708060
v 0.496439 0.369016 2.708470
v 0.496023 0.369848 2.708060
v 0.571241 0.372337 2.708470
v 0.571657 0.372337 2.708060
v 0.571241 0.372753 2.708060
v 0.496439 0.369022 2.697350
v 0.496023 0.369848 2.697070
v 0.496023 0.369016 2.696920
v 0.496023 0.369848 2.697910
v 0.496439 0.369432 2.697830
v 0.496439 0.369432 2.704790
v 0.496023 0.369848 2.705620
v 0.496023 0.369848 2.704790
v 0.496023 0.369016 2.705620
v 0.496439 0.369016 2.705200
v 0.571657 0.369848 2.697070
v 0.571241 0.369022 2.697350
v 0.571657 0.369016 2.696920
v 0.571241 0.369432 2.697830
v 0.571657 0.369848 2.697910
v 0.571657 0.369848 2.705620
v 0.571241 0.369432 2.704790
v 0.571657 0.369848 2.704790
v 0.571241 0.369016 2.705200
v 0.571657 0.369016 2.705620
v 0.496023 0.372337 2.697520
v 0.496439 0.372753 2.698430
v 0.496439 0.372753 2.697600
v 0.496023 0.372337 2.698360
v 0.496023 0.372337 2.704790
v 0.496439 0.372753 2.705620
v 0.496439 0.372753 2.704790
v 0.496023 0.372337 2.705620
v 0.571241 0.372753 2.697600
v 0.571657 0.372337 2.698360
v 0.571657 0.372337 2.697520
v 0.571241 0.372753 2.698430
v 0.571241 0.372753 2.704790
v 0.571657 0.372337 2.705620
v 0.571657 0.372337 2.704790
v 0.571241 0.372753 2.705620
v 0.571241 0.360977 2.705200
v 0.571657 0.360977 2.705620
v 0.571241 0.360561 2.705620
v 0.496439 0.360977 2.705200
v 0.496439 0.360561 2.705620
v 0.496023 0.360977 2.705620
v 0.496439 0.360792 2.695900
v 0.496023 0.360866 2.695490
v 0.496439 0.360456 2.695420
v 0.571241 0.360792 2.695900
v 0.571241 0.360456 2.695420
v 0.571657 0.360866 2.695490
v 0.571657 0.360977 2.708060
v 0.571241 0.360977 2.708470
v 0.571241 0.360561 2.708060
v 0.571657 0.361302 2.693090
v 0.571241 0.360893 2.693020
v 0.571241 0.361377 2.692680
v 0.496023 0.360977 2.708060
v 0.496439 0.360561 2.708060
v 0.496439 0.360977 2.708470
v 0.496023 0.361302 2.693090
v 0.496439 0.361377 2.692680
v 0.496439 0.360893 2.693020
v 0.571241 0.372343 2.694720
v 0.571657 0.369848 2.694700
v 0.571241 0.369842 2.694270
v 0.571657 0.372337 2.695140
v 0.571241 0.372753 2.695210
v 0.496439 0.372343 2.694720
v 0.496439 0.372753 2.695210
v 0.571241 0.372343 2.694720
v 0.496439 0.369842 2.694270
v 0.496023 0.372337 2.695140
v 0.496439 0.372343 2.694720
v 0.496023 0.369848 2.694700
v 0.496439 0.369023 2.694120
v 0.571241 0.369842 2.694270
v 0.571241 0.369023 2.694120
v 0.496439 0.369842 2.694270
v 0.496439 0.372337 2.708470
v 0.496023 0.369848 2.708060
v 0.496439 0.369848 2.708470
v 0.496023 0.372337 2.708060
v 0.496439 0.372753 2.708060
v 0.571241 0.372337 2.708470
v 0.571241 0.372753 2.708060
v 0.496439 0.372337 2.708470
v 0.571241 0.369848 2.708470
v 0.571657 0.372337 2.708060
v 0.571241 0.372337 2.708470
v 0.571657 0.369848 2.708060
v 0.496023 0.369848 2.697910
v 0.496439 0.369432 2.704790
v 0.496023 0.369848 2.704790
v 0.496439 0.369432 2.697830
v 0.571657 0.369016 2.694540
v 0.571657 0.369848 2.697070
v 0.571657 0.369016 2.696920
v 0.571657 0.369848 2.694700
v 0.571241 0.369432 2.697830
v 0.571657 0.369848 2.704790
v 0.571241 0.369432 2.704790
v 0.571657 0.369848 2.697910
v 0.496439 0.372753 2.695210
v 0.496023 0.372337 2.697520
v 0.496439 0.372753 2.697600
v 0.496023 0.372337 2.695140
v 0.496439 0.372753 2.698430
v 0.496023 0.372337 2.698360
v 0.496023 0.372337 2.708060
v 0.496439 0.372753 2.705620
v 0.496023 0.372337 2.705620
v 0.496439 0.372753 2.708060
v 0.571657 0.372337 2.695140
v 0.571241 0.372753 2.697600
v 0.571657 0.372337 2.697520
v 0.571241 0.372753 2.695210
v 0.571657 0.372337 2.698360
v 0.571241 0.372753 2.698430
v 0.571241 0.372753 2.708060
v 0.571657 0.372337 2.708060
v 0.496439 0.369432 2.697830
v 0.571241 0.369022 2.697350
v 0.571241 0.369432 2.697830
v 0.496439 0.369022 2.697350
v 0.496439 0.369016 2.705200
v 0.571241 0.369432 2.704790
v 0.571241 0.369016 2.705200
v 0.496439 0.369432 2.704790
v 0.571657 0.372337 2.697520
v 0.571657 0.369848 2.697070
v 0.496023 0.369016 2.705620
v 0.496439 0.360977 2.705200
v 0.496023 0.360977 2.705620
v 0.496439 0.369016 2.705200
v 0.571241 0.360977 2.705200
v 0.496439 0.360561 2.705620
v 0.496439 0.360977 2.705200
v 0.571241 0.360561 2.705620
v 0.571241 0.369016 2.705200
v 0.571657 0.360977 2.705620
v 0.571241 0.360977 2.705200
v 0.571657 0.369016 2.705620
v 0.571657 0.369016 2.696920
v 0.571241 0.360792 2.695900
v 0.571657 0.360866 2.695490
v 0.571241 0.369022 2.697350
v 0.496439 0.360792 2.695900
v 0.571241 0.360456 2.695420
v 0.571241 0.360792 2.695900
v 0.496439 0.360456 2.695420
v 0.496439 0.369022 2.697350
v 0.496023 0.360866 2.695490
v 0.496439 0.360792 2.695900
v 0.496023 0.369016 2.696920
v 0.571241 0.360561 2.705620
v 0.571657 0.360977 2.708060
v 0.571241 0.360561 2.708060
v 0.571657 0.360977 2.705620
v 0.571657 0.369016 2.708060
v 0.571241 0.360977 2.708470
v 0.571657 0.360977 2.708060
v 0.571241 0.369016 2.708470
v 0.571241 0.369023 2.694120
v 0.571657 0.361302 2.693090
v 0.571241 0.361377 2.692680
v 0.571657 0.369016 2.694540
v 0.571657 0.360866 2.695490
v 0.571241 0.360893 2.693020
v 0.571657 0.361302 2.693090
v 0.571241 0.360456 2.695420
v 0.496439 0.369016 2.708470
v 0.496023 0.360977 2.708060
v 0.496439 0.360977 2.708470
v 0.496023 0.369016 2.708060
v 0.496023 0.360977 2.705620
v 0.496439 0.360561 2.708060
v 0.496023 0.360977 2.708060
v 0.496439 0.360561 2.705620
v 0.496439 0.360456 2.695420
v 0.496023 0.361302 2.693090
v 0.496439 0.360893 2.693020
v 0.496023 0.360866 2.695490
v 0.496023 0.369016 2.694540
v 0.496439 0.361377 2.692680
v 0.496023 0.361302 2.693090
v 0.496439 0.369023 2.694120
v 0.571241 0.360561 2.708060
v 0.496439 0.360977 2.708470
v 0.496439 0.360561 2.708060
v 0.571241 0.360977 2.708470
v 0.571241 0.361377 2.692680
v 0.496439 0.360893 2.693020
v 0.496439 0.361377 2.692680
v 0.571241 0.360893 2.693020
v 0.571657 0.369848 2.694700
v 0.571657 0.372337 2.695140
vt 0.770468 0.838710
vt 0.002259 0.814194
vt 0.770468 0.814194
vt 0.002259 0.838710
vt 0.770468 0.731814
vt 0.002259 0.706745
vt 0.770468 0.706745
vt 0.002259 0.731814
vt 0.002259 0.361472
vt 0.770468 0.361472
vt 0.770468 0.274892
vt 0.002259 0.274892
vt 0.789933 0.095959
vt 0.799688 0.002199
vt 0.814509 0.095959
vt 0.774937 0.007215
vt 0.002259 0.270563
vt 0.770468 0.183983
vt 0.770468 0.270563
vt 0.002259 0.183983
vt 0.002259 0.673432
vt 0.002259 0.702346
vt 0.770468 0.702346
vt 0.770468 0.673432
vt 0.796155 0.134164
vt 0.816039 0.105530
vt 0.820679 0.134164
vt 0.791515 0.105530
vt 0.770468 0.407025
vt 0.770468 0.365702
vt 0.002259 0.365702
vt 0.002259 0.407025
vt 0.800154 0.241894
vt 0.774937 0.241894
vt 0.774937 0.270528
vt 0.800154 0.270528
vt 0.002259 0.566116
vt 0.770468 0.524793
vt 0.770468 0.566116
vt 0.002259 0.524793
vt 0.770468 0.805635
vt 0.002259 0.740363
vt 0.770468 0.740363
vt 0.002259 0.805635
vt 0.774937 0.232322
vt 0.800154 0.232322
vt 0.800154 0.139840
vt 0.774937 0.139840
vt 0.879774 0.241894
vt 0.808753 0.241894
vt 0.808753 0.270528
vt 0.875124 0.270528
vt 0.829421 0.134164
vt 0.895792 0.105530
vt 0.895792 0.134164
vt 0.824772 0.105530
vt 0.002259 0.663767
vt 0.770468 0.663767
vt 0.770468 0.570381
vt 0.002259 0.570381
vt 0.904392 0.134164
vt 0.929609 0.105530
vt 0.929609 0.134164
vt 0.904392 0.105530
vt 0.770468 0.497835
vt 0.770468 0.411255
vt 0.002259 0.411255
vt 0.002259 0.497835
vt 0.002259 0.111472
vt 0.770468 0.024892
vt 0.770468 0.111472
vt 0.002259 0.024892
vt 0.904392 0.095959
vt 0.929609 0.003476
vt 0.929609 0.095959
vt 0.904392 0.003476
vt 0.890036 0.232322
vt 0.914613 0.232322
vt 0.929609 0.143579
vt 0.904857 0.138563
vt 0.770468 0.975207
vt 0.002259 0.933884
vt 0.770468 0.933884
vt 0.002259 0.975207
vt 0.910985 0.384470
vt 0.910985 0.365530
vt 0.929924 0.368194
vt 0.825046 0.384333
vt 0.833974 0.365530
vt 0.839015 0.384470
vt 0.820076 0.365690
vt 0.847844 0.365530
vt 0.856772 0.384333
vt 0.842803 0.384470
vt 0.861742 0.365690
vt 0.907197 0.384470
vt 0.907197 0.365530
vt 0.888258 0.368194
vt 0.929924 0.388258
vt 0.929924 0.407197
vt 0.910985 0.407197
vt 0.884470 0.365530
vt 0.865530 0.365530
vt 0.865530 0.384470
vt 0.884470 0.384470
vt 0.929924 0.285146
vt 0.929924 0.274793
vt 0.910985 0.274793
vt 0.910985 0.285146
vt 0.865530 0.388258
vt 0.884470 0.407197
vt 0.865530 0.407197
vt 0.987252 0.320213
vt 0.979167 0.320076
vt 0.981991 0.339015
vt 0.998106 0.339015
vt 0.996560 0.329545
vt 0.774621 0.375000
vt 0.793561 0.384470
vt 0.774621 0.384470
vt 0.793561 0.365530
vt 0.784091 0.365530
vt 0.972555 0.339015
vt 0.975379 0.320076
vt 0.967294 0.320213
vt 0.957985 0.329545
vt 0.956439 0.339015
vt 0.979167 0.361742
vt 0.998106 0.361742
vt 0.998106 0.352273
vt 0.988636 0.342803
vt 0.979167 0.342803
vt 0.888258 0.361742
vt 0.907197 0.342803
vt 0.907197 0.360045
vt 0.888258 0.344234
vt 0.797348 0.384470
vt 0.816288 0.365530
vt 0.816288 0.384470
vt 0.797348 0.365530
vt 0.865530 0.360045
vt 0.884470 0.361742
vt 0.884470 0.344234
vt 0.865530 0.342803
vt 0.956439 0.361742
vt 0.975379 0.361742
vt 0.975379 0.342803
vt 0.956439 0.342803
vt 0.839015 0.407197
vt 0.820076 0.388258
vt 0.839015 0.388258
vt 0.797348 0.407197
vt 0.797348 0.388258
vt 0.816288 0.388258
vt 0.774621 0.388258
vt 0.793561 0.404363
vt 0.774621 0.407197
vt 0.998106 0.365530
vt 0.998106 0.384470
vt 0.979167 0.381635
vt 0.888258 0.407197
vt 0.907197 0.388258
vt 0.907197 0.407197
vt 0.933712 0.381534
vt 0.952652 0.365530
vt 0.952652 0.384470
vt 0.861742 0.407197
vt 0.842803 0.407197
vt 0.842803 0.388258
vt 0.975379 0.381534
vt 0.956439 0.384470
vt 0.956439 0.365530
vt 0.942846 0.316116
vt 0.943451 0.274893
vt 0.952652 0.274793
vt 0.933712 0.316017
vt 0.770468 0.910985
vt 0.002259 0.929924
vt 0.002259 0.910985
vt 0.770468 0.929924
vt 0.956439 0.274793
vt 0.975379 0.316017
vt 0.966245 0.316116
vt 0.965640 0.274893
vt 0.770468 0.501894
vt 0.002259 0.520833
vt 0.002259 0.501894
vt 0.770468 0.520833
vt 0.929924 0.316116
vt 0.910985 0.316116
vt 0.002259 0.907197
vt 0.770468 0.907197
vt 0.770468 0.888258
vt 0.002259 0.888258
vt 0.979167 0.274793
vt 0.979167 0.316116
vt 0.998106 0.316116
vt 0.998106 0.274793
vt 0.775901 0.293561
vt 0.861472 0.274621
vt 0.861472 0.293561
vt 0.774892 0.274621
vt 0.888506 0.241894
vt 0.913031 0.241894
vt 0.998106 0.270563
vt 0.998106 0.183983
vt 0.979167 0.183983
vt 0.979167 0.269553
vt 0.793561 0.360410
vt 0.774621 0.321628
vt 0.793561 0.320248
vt 0.774621 0.361570
vt 0.884470 0.338090
vt 0.865530 0.274858
vt 0.884470 0.274858
vt 0.865530 0.338778
vt 0.910985 0.320248
vt 0.929924 0.361570
vt 0.910985 0.361570
vt 0.929924 0.320248
vt 0.816288 0.361570
vt 0.816288 0.321628
vt 0.797348 0.320248
vt 0.797348 0.360410
vt 0.907197 0.338778
vt 0.907197 0.274858
vt 0.888258 0.274858
vt 0.888258 0.338090
vt 0.820076 0.320248
vt 0.820076 0.361570
vt 0.839015 0.361570
vt 0.839015 0.320248
vt 0.770468 0.138258
vt 0.002259 0.138258
vt 0.002259 0.157197
vt 0.770468 0.157197
vt 0.770468 0.842803
vt 0.002259 0.861742
vt 0.002259 0.842803
vt 0.770468 0.861742
vt 0.883866 0.270528
vt 0.952652 0.179654
vt 0.933712 0.093074
vt 0.952652 0.093074
vt 0.933712 0.179654
vt 0.002259 0.884470
vt 0.770468 0.865530
vt 0.770468 0.884470
vt 0.002259 0.865530
vt 0.998106 0.088745
vt 0.979167 0.002165
vt 0.998106 0.002165
vt 0.979167 0.088745
vt 0.938033 0.088681
vt 0.952652 0.002943
vt 0.948481 0.002165
vt 0.933712 0.088745
vt 0.770468 0.001894
vt 0.002259 0.001894
vt 0.002259 0.020833
vt 0.770468 0.020833
vt 0.975379 0.088745
vt 0.960610 0.002165
vt 0.956439 0.002943
vt 0.971058 0.088681
vt 0.952652 0.361570
vt 0.952652 0.320248
vt 0.933712 0.320248
vt 0.933712 0.361570
vt 0.975379 0.179654
vt 0.975379 0.093074
vt 0.956439 0.093074
vt 0.956439 0.179654
vt 0.938009 0.270563
vt 0.948488 0.183983
vt 0.952652 0.184824
vt 0.933712 0.270484
vt 0.820248 0.306528
vt 0.860283 0.316288
vt 0.861570 0.307132
vt 0.821452 0.297348
vt 0.998106 0.179654
vt 0.998106 0.093074
vt 0.979167 0.093074
vt 0.979167 0.179654
vt 0.861742 0.361570
vt 0.842803 0.320248
vt 0.861742 0.320248
vt 0.842803 0.361570
vt 0.814912 0.297348
vt 0.776081 0.316288
vt 0.774793 0.307132
vt 0.816116 0.306528
vt 0.975379 0.270484
vt 0.956439 0.184824
vt 0.960603 0.183983
vt 0.971082 0.270563
vt 0.002259 0.134470
vt 0.770468 0.134470
vt 0.770468 0.115530
vt 0.002259 0.115530
vt 0.002259 0.179924
vt 0.770468 0.160985
vt 0.770468 0.179924
vt 0.002259 0.160985
vt 0.908391 0.270528
vt 0.002312 0.769692
vt 0.765130 0.794776
vt 0.002312 0.794776
vt 0.765130 0.769692
vt 0.002312 0.879071
vt 0.765130 0.904726
vt 0.002312 0.904726
vt 0.765130 0.879071
vt 0.002312 0.323367
vt 0.765130 0.234773
vt 0.765130 0.323367
vt 0.002312 0.234773
vt 0.785045 0.098190
vt 0.810195 0.098190
vt 0.795030 0.002251
vt 0.769703 0.007383
vt 0.002312 0.207087
vt 0.765130 0.207087
vt 0.765130 0.118494
vt 0.002312 0.118494
vt 0.002312 0.689094
vt 0.765130 0.718680
vt 0.002312 0.718680
vt 0.765130 0.689094
vt 0.791411 0.137284
vt 0.816509 0.137284
vt 0.811759 0.107984
vt 0.786664 0.107984
vt 0.002312 0.490486
vt 0.002312 0.532770
vt 0.765130 0.532770
vt 0.765130 0.490486
vt 0.794352 0.247233
vt 0.769692 0.276819
vt 0.769692 0.247233
vt 0.794352 0.276819
vt 0.002312 0.765328
vt 0.765130 0.765328
vt 0.765130 0.723044
vt 0.002312 0.723044
vt 0.002312 0.803524
vt 0.765130 0.870326
vt 0.002312 0.870326
vt 0.765130 0.803524
vt 0.769692 0.237343
vt 0.794352 0.141785
vt 0.794352 0.237343
vt 0.769692 0.141785
vt 0.872207 0.247233
vt 0.802759 0.276819
vt 0.802759 0.247233
vt 0.867658 0.276819
vt 0.825454 0.137284
vt 0.893369 0.137284
vt 0.893369 0.107984
vt 0.820694 0.107984
vt 0.002312 0.679204
vt 0.765130 0.583646
vt 0.765130 0.679204
vt 0.002312 0.583646
vt 0.902166 0.137284
vt 0.927972 0.137284
vt 0.927972 0.107984
vt 0.902166 0.107984
vt 0.002312 0.909192
vt 0.002312 0.997785
vt 0.765130 0.997785
vt 0.765130 0.909192
vt 0.002312 0.114064
vt 0.765130 0.114064
vt 0.765130 0.025471
vt 0.002312 0.025471
vt 0.902166 0.098190
vt 0.927972 0.098190
vt 0.927972 0.003557
vt 0.902166 0.003557
vt 0.955603 0.183832
vt 0.997886 0.099977
vt 0.981865 0.183832
vt 0.971439 0.095238
vt 0.002312 0.374207
vt 0.002312 0.416490
vt 0.765130 0.416490
vt 0.765130 0.374207
vt 0.788760 0.397287
vt 0.769380 0.413932
vt 0.788760 0.416667
vt 0.797730 0.393271
vt 0.812016 0.393411
vt 0.806857 0.374031
vt 0.792636 0.374194
vt 0.914073 0.374031
vt 0.908915 0.393411
vt 0.923201 0.393271
vt 0.928295 0.374194
vt 0.978682 0.374031
vt 0.978682 0.393411
vt 0.998062 0.390676
vt 0.928295 0.397287
vt 0.928295 0.416667
vt 0.908915 0.397287
vt 0.974806 0.374031
vt 0.955426 0.393411
vt 0.955426 0.374031
vt 0.974806 0.393411
vt 0.951550 0.393411
vt 0.932171 0.374031
vt 0.951550 0.374031
vt 0.932171 0.393411
vt 0.978682 0.397287
vt 0.998062 0.397287
vt 0.978682 0.416667
vt 0.893934 0.350915
vt 0.888544 0.370155
vt 0.885659 0.350775
vt 0.905039 0.370155
vt 0.903461 0.360465
vt 0.885659 0.383721
vt 0.885659 0.393411
vt 0.905039 0.393411
vt 0.905039 0.374031
vt 0.895352 0.374031
vt 0.925409 0.370155
vt 0.920020 0.350915
vt 0.928295 0.350775
vt 0.910492 0.360465
vt 0.908915 0.370155
vt 0.769380 0.393411
vt 0.788760 0.393411
vt 0.788760 0.383721
vt 0.779067 0.374031
vt 0.769380 0.374031
vt 0.998062 0.350775
vt 0.978682 0.352509
vt 0.978682 0.370155
vt 0.998062 0.368714
vt 0.788760 0.359719
vt 0.769380 0.359719
vt 0.769380 0.369878
vt 0.788760 0.369878
vt 0.951550 0.352509
vt 0.932171 0.368714
vt 0.932171 0.350775
vt 0.951550 0.370155
vt 0.951550 0.076305
vt 0.932171 0.085899
vt 0.932171 0.076305
vt 0.951550 0.085899
vt 0.788760 0.439922
vt 0.769380 0.439922
vt 0.788760 0.420543
vt 0.885659 0.416667
vt 0.885659 0.397287
vt 0.905039 0.416667
vt 0.881783 0.416667
vt 0.862403 0.400189
vt 0.881783 0.397287
vt 0.839147 0.416667
vt 0.839147 0.397287
vt 0.858527 0.400189
vt 0.974806 0.416667
vt 0.955426 0.416667
vt 0.955426 0.397287
vt 0.815891 0.413663
vt 0.835271 0.397287
vt 0.835271 0.416667
vt 0.932171 0.416667
vt 0.951550 0.397287
vt 0.951550 0.416667
vt 0.812016 0.413663
vt 0.792636 0.416667
vt 0.792636 0.397287
vt 0.848490 0.346723
vt 0.858527 0.304440
vt 0.849115 0.304542
vt 0.839147 0.346622
vt 0.002312 0.556202
vt 0.765130 0.556202
vt 0.765130 0.536822
vt 0.002312 0.536822
vt 0.815891 0.304440
vt 0.825928 0.346723
vt 0.835271 0.346622
vt 0.825303 0.304542
vt 0.765130 0.327519
vt 0.002312 0.327519
vt 0.002312 0.346899
vt 0.765130 0.346899
vt 0.905039 0.346723
vt 0.885659 0.304440
vt 0.905039 0.304440
vt 0.885659 0.346723
vt 0.002312 0.463178
vt 0.765130 0.443798
vt 0.765130 0.463178
vt 0.002312 0.443798
vt 0.862403 0.304440
vt 0.881783 0.346723
vt 0.862403 0.346723
vt 0.881783 0.304440
vt 0.792636 0.282314
vt 0.792636 0.369878
vt 0.812016 0.369878
vt 0.812016 0.281285
vt 0.997886 0.281008
vt 0.955603 0.300388
vt 0.958077 0.281008
vt 0.995324 0.300388
vt 0.904762 0.281008
vt 0.816168 0.300388
vt 0.816168 0.281008
vt 0.903732 0.300388
vt 0.978682 0.305631
vt 0.978682 0.346723
vt 0.998062 0.345315
vt 0.998062 0.304440
vt 0.769380 0.282114
vt 0.788760 0.281285
vt 0.881783 0.393235
vt 0.881783 0.350951
vt 0.862403 0.350951
vt 0.862403 0.393235
vt 0.955426 0.327696
vt 0.974806 0.369979
vt 0.955426 0.368570
vt 0.974806 0.328886
vt 0.932171 0.002236
vt 0.951550 0.003020
vt 0.951550 0.114043
vt 0.932171 0.114043
vt 0.002312 0.486434
vt 0.765130 0.467054
vt 0.765130 0.486434
vt 0.002312 0.467054
vt 0.002312 0.439922
vt 0.765130 0.439922
vt 0.765130 0.420543
vt 0.002312 0.420543
vt 0.876206 0.276819
vt 0.880746 0.247233
vt 0.928295 0.230343
vt 0.928295 0.141750
vt 0.908915 0.141750
vt 0.908915 0.230343
vt 0.002312 0.370155
vt 0.765130 0.370155
vt 0.765130 0.350775
vt 0.002312 0.350775
vt 0.998062 0.276855
vt 0.998062 0.188261
vt 0.978682 0.188261
vt 0.978682 0.276855
vt 0.959848 0.090744
vt 0.970541 0.002215
vt 0.974806 0.003011
vt 0.955426 0.090808
vt 0.002312 0.021318
vt 0.765130 0.001938
vt 0.765130 0.021318
vt 0.002312 0.001938
vt 0.998062 0.090808
vt 0.978682 0.003011
vt 0.982947 0.002215
vt 0.993640 0.090744
vt 0.839147 0.350951
vt 0.858527 0.393235
vt 0.839147 0.393235
vt 0.858527 0.350951
vt 0.974806 0.276855
vt 0.955426 0.188261
vt 0.974806 0.188261
vt 0.955426 0.276855
vt 0.913312 0.323367
vt 0.928295 0.235634
vt 0.924032 0.234773
vt 0.908915 0.323286
vt 0.932347 0.313656
vt 0.973313 0.323643
vt 0.974630 0.314275
vt 0.933578 0.304264
vt 0.951550 0.207087
vt 0.932171 0.118494
vt 0.951550 0.118494
vt 0.932171 0.207087
vt 0.815891 0.350951
vt 0.815891 0.393235
vt 0.835271 0.393235
vt 0.835271 0.350951
vt 0.950143 0.327519
vt 0.909091 0.337531
vt 0.910408 0.346899
vt 0.951374 0.336912
vt 0.951550 0.300030
vt 0.936434 0.211517
vt 0.932171 0.212378
vt 0.947153 0.300111
vt 0.765130 0.560078
vt 0.002312 0.579457
vt 0.002312 0.560078
vt 0.765130 0.579457
vt 0.002312 0.230620
vt 0.765130 0.230620
vt 0.765130 0.211240
vt 0.002312 0.211240
vt 0.904726 0.247233
vt 0.900189 0.276819
vn 0.0000 1.0000 0.0000
vn 0.0000 0.1735 0.9848
vn 1.0000 0.0001 0.0000
vn 1.0000 0.0000 0.0000
vn 0.0000 0.0000 1.0000
vn 0.0000 0.1776 0.9841
vn 0.0000 0.1777 0.9841
vn 0.0000 0.1851 0.9827
vn 0.0000 -0.9838 0.1791
vn 0.0000 -0.9838 0.1792
vn -0.5517 0.6399 0.5349
vn 0.7073 0.1280 0.6952
vn 0.7073 0.1280 0.6953
vn -0.7073 0.1280 0.6952
vn -0.7073 0.1280 0.6953
vn -0.5509 -0.6392 -0.5366
vn -0.5516 -0.6402 -0.5346
vn -0.5497 -0.6410 -0.5357
vn 0.5772 0.5775 -0.5774
vn 0.7107 0.0050 0.7034
vn 0.7107 -0.0050 0.7035
vn 0.7108 -0.0050 0.7034
vn -0.7139 0.0000 0.7003
vn -0.7108 -0.0050 0.7034
vn -0.7108 0.0050 0.7034
vn -0.7140 -0.0000 0.7002
vn -0.5772 0.5774 -0.5774
vn -0.8511 0.4080 0.3306
vn -0.4052 -0.1849 0.8954
vn -0.9538 0.2238 0.2003
vn -0.7487 0.6577 0.0832
vn -0.3061 0.4662 0.8301
vn 0.8552 -0.3665 0.3665
vn 0.8552 -0.3665 0.3664
vn 0.8248 0.4331 0.3634
vn 0.4050 -0.1850 0.8954
vn 0.9439 0.2006 0.2624
vn 0.9447 0.2926 0.1484
vn 0.4081 0.8484 -0.3373
vn 0.8417 0.3816 -0.3820
vn 0.3517 0.8700 0.3456
vn 0.9619 0.2465 -0.1183
vn 0.9614 0.1203 -0.2476
vn 0.3439 -0.3515 -0.8707
vn 0.7071 0.7071 0.0000
vn 0.7070 0.7072 0.0000
vn 0.7072 0.7070 0.0000
vn 0.7073 0.7069 0.0000
vn 0.7070 -0.7072 0.0000
vn 0.7069 -0.7073 0.0000
vn 0.7071 -0.7071 0.0000
vn 0.7072 -0.7070 0.0000
vn 0.7074 -0.7068 0.0000
vn -0.5772 -0.5775 0.5774
vn 0.5772 -0.5775 0.5773
vn 0.5789 -0.6692 -0.4660
vn -0.5788 -0.6692 -0.4659
vn -0.5772 -0.5775 -0.5774
vn -0.5792 -0.4620 0.6716
vn 0.5772 -0.5775 -0.5773
vn 0.5792 -0.4621 0.6716
vn -0.7070 0.1258 0.6960
vn -0.7069 0.1258 0.6960
vn 0.0000 0.7674 0.6412
vn 0.7070 0.1258 0.6960
vn 0.7069 0.1258 0.6960
vn 0.0000 0.1813 0.9834
vn -0.0000 0.1814 0.9834
vn -0.7109 0.0052 0.7033
vn -0.7110 -0.0053 0.7032
vn -0.0049 -0.7106 0.7036
vn 0.0049 -0.7106 0.7036
vn 0.7108 -0.0051 0.7033
vn 0.7103 0.0044 0.7039
vn 0.7104 -0.0045 0.7038
vn 0.7109 0.0053 0.7032
vn 0.7071 -0.7072 0.0000
vn 0.0016 0.7669 0.6417
vn -0.0015 0.7669 0.6418
vn 0.0015 0.7669 0.6418
vn -0.0016 0.7669 0.6417
vn 0.0000 -0.7071 0.7071
vn 0.0000 -0.7072 0.7070
vn 0.7072 -0.0000 0.7070
vn -0.7072 0.0000 0.7070
vn 0.7040 0.1269 0.6988
vn 0.7078 0.1232 0.6956
vn 0.7071 0.1228 0.6964
vn 0.7048 0.1192 0.6993
vn -0.0023 0.8193 0.5734
vn 0.0023 0.8194 0.5733
vn -0.0023 0.8194 0.5733
vn 0.0023 0.8193 0.5734
vn -0.7049 0.1193 0.6992
vn -0.7079 0.1216 0.6958
vn -0.7079 0.1232 0.6955
vn -0.7031 0.1281 0.6994
vn 0.7107 -0.0052 0.7035
vn 0.7103 0.0047 0.7038
vn 0.7104 -0.0047 0.7038
vn 0.7107 0.0053 0.7035
vn -0.7068 0.1308 0.6952
vn -0.7068 0.1308 0.6953
vn 0.7072 0.6956 -0.1267
vn 0.7078 0.6948 -0.1275
vn 0.7075 0.6954 -0.1261
vn 0.7071 0.6957 -0.1267
vn -0.7104 0.0047 0.7038
vn -0.7107 -0.0053 0.7034
vn -0.7107 0.0053 0.7035
vn -0.7104 -0.0047 0.7038
vn 0.7072 -0.6956 0.1266
vn 0.7071 -0.6956 0.1267
vn 0.7072 -0.6956 0.1267
vn 0.7068 -0.6959 0.1269
vn 0.7068 0.1308 0.6952
vn 0.7069 0.1308 0.6951
vn 0.0049 0.7106 0.7036
vn -0.0049 0.7106 0.7036
vn 0.0000 -0.5668 0.8239
vn -0.0000 -0.5669 0.8238
vn 0.0000 -0.5668 0.8238
vn 0.0000 -0.1735 0.9848
vn 0.0005 -0.1771 0.9842
vn -0.0007 -0.1771 0.9842
vn -0.0006 -0.1771 0.9842
vn 0.0000 -0.1851 0.9827
vn 0.0000 0.9838 0.1791
vn -0.5509 -0.6385 0.5375
vn -0.5479 -0.6419 0.5364
vn -0.5516 -0.6409 0.5338
vn 0.7077 -0.1276 0.6949
vn 0.7145 -0.1384 0.6858
vn 0.7074 -0.1280 0.6952
vn 0.7060 -0.1264 0.6968
vn -0.7076 -0.1277 0.6950
vn -0.7147 -0.1387 0.6855
vn -0.7079 -0.1273 0.6948
vn -0.7062 -0.1267 0.6966
vn 0.5510 -0.6383 0.5375
vn 0.5516 -0.6409 0.5338
vn 0.5479 -0.6418 0.5366
vn -0.5772 0.5774 0.5775
vn 0.7069 0.0000 0.7073
vn -0.7069 0.0000 0.7073
vn 0.5771 0.5775 0.5775
vn -0.8347 -0.4220 0.3537
vn -0.8347 -0.4220 0.3538
vn 0.8636 0.3471 0.3656
vn 0.3517 0.8700 -0.3456
vn 0.9603 0.2029 0.1916
vn 0.7532 0.0789 0.6530
vn 0.3810 0.8463 0.3722
vn 0.8347 -0.4221 0.3537
vn -0.8460 0.3772 0.3768
vn -0.3519 0.8700 -0.3453
vn -0.9617 0.2484 0.1163
vn -0.9625 0.1151 0.2455
vn -0.3574 -0.3410 0.8695
vn 0.7073 -0.7069 0.0000
vn 0.7073 0.7070 0.0000
vn 0.5772 -0.5775 -0.5774
vn -0.5772 -0.5774 -0.5774
vn -0.5784 -0.6694 0.4663
vn 0.5783 -0.6695 0.4662
vn 0.5772 -0.5775 0.5774
vn 0.5787 -0.4622 -0.6720
vn -0.5772 -0.5774 0.5774
vn -0.5787 -0.4622 -0.6719
vn -0.7087 -0.1234 0.6946
vn -0.7114 -0.1318 0.6903
vn -0.7127 -0.1178 0.6915
vn -0.7044 -0.1220 0.6993
vn 0.0007 -0.7669 0.6418
vn -0.0008 -0.7670 0.6417
vn 0.0009 -0.7670 0.6417
vn -0.0007 -0.7669 0.6418
vn 0.7092 -0.1286 0.6932
vn 0.7062 -0.1270 0.6966
vn 0.7064 -0.1247 0.6967
vn 0.7149 -0.1148 0.6897
vn 0.0012 -0.1801 0.9836
vn -0.0013 -0.1801 0.9836
vn -0.0012 -0.1801 0.9836
vn -0.7071 0.0000 0.7071
vn 0.0000 0.7071 0.7071
vn 0.7071 0.0000 0.7071
vn 0.7071 0.7072 0.0000
vn 0.7072 -0.7071 0.0000
vn 0.0000 -0.7658 0.6430
vn -0.0000 -0.7659 0.6430
vn -0.0074 0.7018 0.7124
vn 0.0075 0.7018 0.7123
vn -0.0075 0.7018 0.7123
vn 0.0074 0.7018 0.7124
vn 0.7107 -0.0049 0.7035
vn 0.7107 0.0049 0.7035
vn -0.7104 0.0045 0.7038
vn -0.7107 -0.0050 0.7034
vn -0.7107 0.0050 0.7034
vn -0.7104 -0.0045 0.7038
vn 0.7072 -0.1225 0.6963
vn 0.7073 -0.1224 0.6962
vn 0.7074 -0.1224 0.6962
vn 0.0000 -0.8207 0.5714
vn -0.0000 -0.8206 0.5715
vn -0.7072 -0.1225 0.6963
vn -0.7073 -0.1225 0.6962
vn -0.7076 -0.1226 0.6959
vn -0.7058 -0.1322 0.6960
vn -0.7078 -0.1319 0.6940
vn -0.7075 -0.1298 0.6947
vn -0.7057 -0.1293 0.6966
vn -0.7069 0.6959 0.1267
vn -0.7059 0.6971 0.1252
vn -0.7064 0.6962 0.1278
vn -0.7071 0.6957 0.1267
vn 0.7072 0.7071 0.0000
vn 0.7069 0.6959 0.1265
vn 0.7060 0.6965 0.1285
vn 0.7061 0.6969 0.1254
vn 0.7071 0.6957 0.1264
vn 0.7059 -0.1295 0.6964
vn 0.7078 -0.1293 0.6945
vn 0.7076 -0.1318 0.6942
vn 0.7053 -0.1329 0.6963
vn 0.0101 0.5751 0.8180
vn -0.0100 0.5750 0.8181
vn 0.0100 0.5750 0.8181
vn -0.0101 0.5751 0.8180
s 1
f 1/1/1 2/2/1 3/3/1
f 1/1/1 4/4/1 2/2/1
f 5/5/1 6/6/1 7/7/1
f 5/5/1 8/8/1 6/6/1
f 9/9/2 11/10/2 10/11/2
f 9/9/2 10/11/2 12/12/2
f 13/13/3 14/14/4 15/15/4
f 13/13/3 16/16/4 14/14/4
f 17/17/5 18/18/5 19/19/5
f 17/17/5 20/20/5 18/18/5
f 21/21/5 23/22/5 22/23/5
f 21/21/5 22/23/5 24/24/5
f 25/25/4 26/26/4 27/27/4
f 25/25/4 28/28/3 26/26/4
f 29/29/1 31/30/1 30/31/1
f 29/29/1 30/31/1 32/32/1
f 33/33/4 35/34/4 34/35/4
f 33/33/4 34/35/4 36/36/4
f 37/37/6 38/38/7 39/39/7
f 37/37/6 40/40/7 38/38/7
f 41/41/1 42/42/1 43/43/1
f 41/41/1 44/44/1 42/42/1
f 45/45/4 47/46/4 46/47/4
f 45/45/4 46/47/4 48/48/4
f 49/49/4 51/50/4 50/51/4
f 49/49/4 50/51/4 52/52/4
f 53/53/4 54/54/4 55/55/4
f 53/53/4 56/56/4 54/54/4
f 57/57/5 59/58/5 58/59/5
f 57/57/5 58/59/5 60/60/5
f 61/61/4 62/62/4 63/63/4
f 61/61/4 64/64/4 62/62/4
f 65/65/1 67/66/1 66/67/1
f 65/65/1 66/67/1 68/68/1
f 69/69/8 70/70/8 71/71/8
f 69/69/8 72/72/8 70/70/8
f 73/73/4 74/74/4 75/75/4
f 73/73/4 76/76/4 74/74/4
f 77/77/4 79/78/4 78/79/4
f 77/77/4 78/79/4 80/80/4
f 81/81/9 82/82/10 83/83/9
f 81/81/9 84/84/10 82/82/10
f 85/85/11 86/86/11 87/87/11
f 88/88/12 89/89/12 90/90/12
f 88/88/12 91/91/13 89/89/12
f 92/92/14 93/93/14 94/94/14
f 92/92/14 95/95/15 93/93/14
f 96/96/16 98/97/17 97/98/18
f 99/99/19 100/100/19 101/101/19
f 102/102/20 104/103/21 103/104/20
f 102/102/20 103/104/20 105/105/22
f 106/106/23 108/107/24 107/108/25
f 106/106/23 107/108/25 109/109/26
f 110/110/27 111/111/27 112/112/27
f 113/113/28 115/114/29 114/115/30
f 113/113/28 114/115/30 116/116/31
f 113/113/28 116/116/31 117/117/32
f 118/118/33 119/119/33 120/120/33
f 118/118/33 121/121/33 119/119/33
f 118/118/33 122/122/34 121/121/33
f 123/123/35 125/124/36 124/125/37
f 123/123/35 124/125/37 126/126/38
f 123/123/35 126/126/38 127/127/39
f 128/128/40 130/129/41 129/130/42
f 128/128/40 129/130/42 131/131/43
f 128/128/40 131/131/43 132/132/44
f 133/133/45 134/134/45 135/135/46
f 133/133/45 136/136/45 134/134/45
f 137/137/45 138/138/47 139/139/46
f 137/137/45 140/140/48 138/138/47
f 141/141/49 143/142/50 142/143/51
f 141/141/49 142/143/51 144/144/52
f 145/145/51 147/146/50 146/147/52
f 145/145/51 146/147/52 148/148/53
f 149/149/54 150/150/54 151/151/54
f 152/152/55 153/153/55 154/154/55
f 155/155/56 156/156/56 157/157/56
f 158/158/57 159/159/57 160/160/57
f 161/161/58 162/162/58 163/163/58
f 164/164/59 165/165/59 166/166/59
f 167/167/60 168/168/60 169/169/60
f 170/170/61 171/171/61 172/172/61
f 173/173/62 174/174/63 175/175/63
f 173/173/62 176/176/63 174/174/63
f 177/177/64 178/178/64 179/179/64
f 177/177/64 180/180/64 178/178/64
f 181/181/65 182/182/66 183/183/66
f 181/181/65 184/184/66 182/182/66
f 185/185/67 186/186/67 187/187/68
f 185/185/67 188/188/67 186/186/67
f 59/58/5 57/57/5 21/21/5
f 59/58/5 21/21/5 24/24/5
f 189/189/69 106/106/23 109/109/26
f 189/189/69 109/109/26 190/190/70
f 191/191/71 193/192/72 192/193/71
f 191/191/71 192/193/71 194/194/72
f 195/195/73 197/196/74 196/197/75
f 195/195/73 196/197/75 198/198/76
f 28/28/3 15/15/4 26/26/4
f 28/28/3 13/13/3 15/15/4
f 199/199/77 200/200/52 201/201/52
f 199/199/77 202/202/49 200/200/52
f 75/75/4 64/64/4 73/73/4
f 75/75/4 62/62/4 64/64/4
f 79/78/4 77/77/4 203/203/4
f 79/78/4 203/203/4 204/204/4
f 205/205/45 207/206/45 206/207/45
f 205/205/45 206/207/45 208/208/45
f 35/34/4 33/33/4 47/46/4
f 35/34/4 47/46/4 45/45/4
f 209/209/46 210/210/45 211/211/45
f 209/209/46 212/212/46 210/210/45
f 213/213/45 214/214/47 215/215/47
f 213/213/45 216/216/45 214/214/47
f 217/217/45 218/218/46 219/219/46
f 217/217/45 220/220/45 218/218/46
f 221/221/49 223/222/77 222/223/77
f 221/221/49 222/223/77 224/224/49
f 225/225/51 227/226/49 226/227/49
f 225/225/51 226/227/49 228/228/51
f 229/229/49 231/230/49 230/231/49
f 229/229/49 230/231/49 232/232/49
f 233/233/78 235/234/79 234/235/80
f 233/233/78 234/235/80 236/236/81
f 237/237/82 238/238/83 239/239/83
f 237/237/82 240/240/82 238/238/83
f 26/26/4 53/53/4 27/27/4
f 26/26/4 56/56/4 53/53/4
f 54/54/4 61/61/4 55/55/4
f 54/54/4 64/64/4 61/61/4
f 2/2/1 41/41/1 3/3/1
f 2/2/1 44/44/1 41/41/1
f 42/42/1 5/5/1 43/43/1
f 42/42/1 8/8/1 5/5/1
f 49/49/4 52/52/4 241/241/4
f 49/49/4 241/241/4 203/203/4
f 33/33/4 36/36/4 50/51/4
f 33/33/4 50/51/4 51/50/4
f 242/242/84 243/243/84 244/244/84
f 242/242/84 245/245/84 243/243/84
f 246/246/82 247/247/82 248/248/82
f 246/246/82 249/249/82 247/247/82
f 250/250/85 251/251/85 252/252/85
f 250/250/85 253/253/85 251/251/85
f 254/254/86 256/255/87 255/256/88
f 254/254/86 255/256/88 257/257/89
f 258/258/90 260/259/91 259/260/92
f 258/258/90 259/260/92 261/261/93
f 262/262/94 264/263/95 263/264/96
f 262/262/94 263/264/96 265/265/97
f 266/266/46 268/267/46 267/268/46
f 266/266/46 267/268/46 269/269/46
f 270/270/98 272/271/99 271/272/100
f 270/270/98 271/272/100 273/273/101
f 274/274/102 275/275/103 276/276/102
f 274/274/102 277/277/102 275/275/103
f 278/278/104 280/279/105 279/280/106
f 278/278/104 279/280/106 281/281/107
f 282/282/108 284/283/109 283/284/110
f 282/282/108 283/284/110 285/285/111
f 286/286/51 287/287/49 288/288/49
f 286/286/51 289/289/51 287/287/49
f 290/290/112 291/291/113 292/292/114
f 290/290/112 293/293/115 291/291/113
f 294/294/116 295/295/117 296/296/117
f 294/294/116 297/297/116 295/295/117
f 298/298/118 300/299/119 299/300/118
f 298/298/118 299/300/118 301/301/119
f 302/302/120 303/303/121 304/304/121
f 302/302/120 305/305/122 303/303/121
f 241/241/4 306/306/4 204/204/4
f 241/241/4 204/204/4 203/203/4
f 307/307/1 308/308/1 309/309/1
f 307/307/1 310/310/1 308/308/1
f 311/311/1 312/312/1 313/313/1
f 311/311/1 314/314/1 312/312/1
f 315/315/123 316/316/123 317/317/123
f 315/315/123 318/318/123 316/316/123
f 319/319/4 321/320/4 320/321/4
f 319/319/4 320/321/4 322/322/4
f 323/323/5 325/324/5 324/325/5
f 323/323/5 324/325/5 326/326/5
f 327/327/5 328/328/5 329/329/5
f 327/327/5 330/330/5 328/328/5
f 331/331/4 333/332/4 332/333/4
f 331/331/4 332/333/4 334/334/4
f 335/335/1 337/336/1 336/337/1
f 335/335/1 336/337/1 338/338/1
f 339/339/4 340/340/4 341/341/4
f 339/339/4 342/342/4 340/340/4
f 343/343/124 345/344/125 344/345/124
f 343/343/124 344/345/124 346/346/126
f 347/347/1 348/348/1 349/349/1
f 347/347/1 350/350/1 348/348/1
f 351/351/4 352/352/4 353/353/4
f 351/351/4 354/354/4 352/352/4
f 355/355/4 356/356/4 357/357/4
f 355/355/4 358/358/4 356/356/4
f 359/359/4 361/360/4 360/361/4
f 359/359/4 360/361/4 362/362/4
f 363/363/5 364/364/5 365/365/5
f 363/363/5 366/366/5 364/364/5
f 367/367/4 369/368/4 368/369/4
f 367/367/4 368/369/4 370/370/4
f 371/371/1 373/372/1 372/373/1
f 371/371/1 372/373/1 374/374/1
f 375/375/127 377/376/127 376/377/127
f 375/375/127 376/377/127 378/378/127
f 379/379/4 381/380/4 380/381/4
f 379/379/4 380/381/4 382/382/4
f 383/383/4 384/384/4 385/385/4
f 383/383/4 386/386/4 384/384/4
f 387/387/128 389/388/128 388/389/128
f 387/387/128 388/389/128 390/390/128
f 391/391/129 393/392/130 392/393/131
f 394/394/132 396/395/133 395/396/134
f 394/394/132 395/396/134 397/397/135
f 398/398/136 400/399/137 399/400/138
f 398/398/136 399/400/138 401/401/139
f 402/402/140 404/403/141 403/404/142
f 405/405/143 406/406/143 407/407/143
f 408/408/144 409/409/144 410/410/144
f 408/408/144 411/411/144 409/409/144
f 412/412/145 413/413/145 414/414/145
f 412/412/145 415/415/145 413/413/145
f 416/416/146 417/417/146 418/418/146
f 419/419/147 420/420/147 421/421/147
f 419/419/147 422/422/147 420/420/147
f 419/419/147 423/423/148 422/422/147
f 424/424/149 426/425/150 425/426/151
f 424/424/149 425/426/151 427/427/152
f 424/424/149 427/427/152 428/428/153
f 429/429/154 430/430/154 431/431/154
f 429/429/154 432/432/154 430/430/154
f 429/429/154 433/433/154 432/432/154
f 434/434/155 436/435/156 435/436/157
f 434/434/155 435/436/157 437/437/158
f 434/434/155 437/437/158 438/438/159
f 439/439/52 441/440/160 440/441/52
f 439/439/52 440/441/52 442/442/51
f 443/443/49 445/444/49 444/445/49
f 443/443/49 444/445/49 446/446/51
f 447/447/47 448/448/161 449/449/47
f 447/447/47 450/450/48 448/448/161
f 451/451/45 452/452/45 453/453/45
f 451/451/45 454/454/45 452/452/45
f 455/455/162 456/456/162 457/457/162
f 458/458/163 459/459/163 460/460/163
f 461/461/164 462/462/164 463/463/164
f 464/464/165 465/465/165 466/466/165
f 467/467/166 468/468/166 469/469/166
f 470/470/167 471/471/167 472/472/167
f 473/473/168 474/474/168 475/475/168
f 476/476/169 477/477/169 478/478/169
f 479/479/170 481/480/171 480/481/172
f 479/479/170 480/481/172 482/482/173
f 483/483/174 485/484/175 484/485/176
f 483/483/174 484/485/176 486/486/177
f 487/487/178 489/488/179 488/489/180
f 487/487/178 488/489/180 490/490/181
f 491/491/182 493/492/183 492/493/182
f 491/491/182 492/493/182 494/494/184
f 365/365/5 327/327/5 363/363/5
f 365/365/5 330/330/5 327/327/5
f 495/495/185 496/496/185 497/497/185
f 495/495/185 498/498/185 496/496/185
f 499/499/186 500/500/186 501/501/186
f 499/499/186 502/502/186 500/500/186
f 503/503/187 504/504/187 505/505/187
f 503/503/187 506/506/187 504/504/187
f 334/334/4 332/333/4 321/320/4
f 334/334/4 321/320/4 319/319/4
f 507/507/45 509/508/46 508/509/188
f 507/507/45 508/509/188 510/510/45
f 381/380/4 379/379/4 370/370/4
f 381/380/4 370/370/4 368/369/4
f 511/511/4 512/512/4 513/513/4
f 511/511/4 514/514/4 512/512/4
f 515/515/189 516/516/49 517/517/49
f 515/515/189 518/518/52 516/516/49
f 341/341/4 353/353/4 339/339/4
f 341/341/4 351/351/4 353/353/4
f 519/519/49 521/520/51 520/521/51
f 519/519/49 520/521/51 522/522/50
f 523/523/77 445/444/49 443/443/49
f 523/523/77 443/443/49 524/524/49
f 525/525/51 527/526/51 526/527/51
f 525/525/51 526/527/51 528/528/51
f 529/529/46 530/530/45 531/531/45
f 529/529/46 532/532/46 530/530/45
f 533/533/45 451/451/45 453/453/45
f 533/533/45 534/534/45 451/451/45
f 535/535/45 452/452/45 454/454/45
f 535/535/45 536/536/45 452/452/45
f 537/537/190 538/538/191 539/539/191
f 537/537/190 540/540/190 538/538/191
f 541/541/192 543/542/193 542/543/194
f 541/541/192 542/543/194 544/544/195
f 332/333/4 333/332/4 359/359/4
f 332/333/4 359/359/4 362/362/4
f 360/361/4 361/360/4 367/367/4
f 360/361/4 367/367/4 370/370/4
f 308/308/1 347/347/1 309/309/1
f 308/308/1 350/350/1 347/347/1
f 348/348/1 311/311/1 349/349/1
f 348/348/1 314/314/1 311/311/1
f 355/355/4 545/545/4 358/358/4
f 355/355/4 546/546/4 545/545/4
f 339/339/4 356/356/4 342/342/4
f 339/339/4 357/357/4 356/356/4
f 547/547/196 549/548/74 548/549/75
f 547/547/196 548/549/75 550/550/197
f 551/551/118 553/552/119 552/553/118
f 551/551/118 552/553/118 554/554/119
f 555/555/198 557/556/199 556/557/200
f 555/555/198 556/557/200 558/558/201
f 559/559/202 560/560/203 561/561/204
f 559/559/202 562/562/202 560/560/203
f 563/563/205 564/564/206 565/565/206
f 563/563/205 566/566/205 564/564/206
f 567/567/207 568/568/208 569/569/209
f 567/567/207 570/570/207 568/568/208
f 571/571/189 572/572/77 573/573/49
f 571/571/189 574/574/52 572/572/77
f 575/575/84 576/576/84 577/577/84
f 575/575/84 578/578/84 576/576/84
f 579/579/210 581/580/211 580/581/212
f 579/579/210 580/581/212 582/582/213
f 583/583/214 585/584/215 584/585/216
f 583/583/214 584/585/216 586/586/217
f 587/587/85 588/588/85 589/589/85
f 587/587/85 590/590/85 588/588/85
f 591/591/218 593/592/46 592/593/188
f 591/591/218 592/593/188 594/594/47
f 595/595/219 597/596/220 596/597/221
f 595/595/219 596/597/221 598/598/222
f 599/599/223 601/600/224 600/601/225
f 599/599/223 600/601/225 602/602/226
f 603/603/82 604/604/82 605/605/82
f 603/603/82 606/606/82 604/604/82
f 607/607/227 609/608/228 608/609/229
f 607/607/227 608/609/229 610/610/230
f 545/545/4 611/611/4 612/612/4
f 545/545/4 546/546/4 611/611/4
